[
    {
        "id": "vtls004661955_0_11",
        "type": "sailor",
        "parent": "vtls004661955",
        "name": "david evans",
        "dob": "blk",
        "age": "42",
        "place_of_birth": "llansanffraid",
        "home_address": "llansainffread, cardiganshire",
        "f": "llansainffread, cardiganshire",
        "name_of_ship": "friends",
        "ship_port": "aberystwyth",
        "date_leaving": "1862-06-30",
        "joined_ship_date": "1862-07-01",
        "joined_at_port": "aberayron",
        "capacity": "master",
        "date_left": "1862-12-31",
        "left_port": "aberaeron",
        "cause_of_leaving": "remains on board",
        "sign_with_mark": "n",
        "notes": "blk"
    },
    {
        "id": "vtls004661956_0_11",
        "type": "sailor",
        "parent": "vtls004661956",
        "name": "david evans",
        "dob": "blk",
        "age": "40",
        "place_of_birth": "llansanffraid",
        "home_address": "llansainffread",
        "f": "llansainffread",
        "name_of_ship": "friends",
        "ship_port": "aberystwyth",
        "date_leaving": "1862-12-31",
        "joined_ship_date": "1863-01-01",
        "joined_at_port": "aberayron",
        "capacity": "master",
        "date_left": "1863-06-30",
        "left_port": "liverpool",
        "cause_of_leaving": "remains on board",
        "sign_with_mark": "n",
        "notes": "blk"
    },
    {
        "id": "vtls004661955_0_13",
        "type": "sailor",
        "parent": "vtls004661955",
        "name": "david evans",
        "dob": "blk",
        "age": "16",
        "place_of_birth": "llansanffraid",
        "home_address": "blk",
        "f": "blk",
        "name_of_ship": "friends",
        "ship_port": "aberystwyth",
        "date_leaving": "1862-06-30",
        "joined_ship_date": "1862-07-01",
        "joined_at_port": "aberayron",
        "capacity": "boy",
        "date_left": "1862-12-31",
        "left_port": "aberaeron",
        "cause_of_leaving": "remains on board",
        "sign_with_mark": "n",
        "notes": "blk"
    },
    {
        "id": "vtls004661955_0_12",
        "type": "sailor",
        "parent": "vtls004661955",
        "name": "henry morris",
        "dob": "blk",
        "age": "37",
        "place_of_birth": "solva",
        "home_address": "blk",
        "f": "blk",
        "name_of_ship": "friends",
        "ship_port": "aberystwyth",
        "date_leaving": "1862-06-30",
        "joined_ship_date": "1862-07-01",
        "joined_at_port": "aberayron",
        "capacity": "mate",
        "date_left": "1862-12-31",
        "left_port": "aberaeron",
        "cause_of_leaving": "discharged",
        "sign_with_mark": "n",
        "notes": "blk"
    },
    {
        "id": "vtls004661961_0_11",
        "type": "sailor",
        "parent": "vtls004661961",
        "name": "david evans",
        "dob": "blk",
        "age": "43",
        "place_of_birth": "llansanffraid",
        "home_address": "llannon",
        "f": "llannon",
        "name_of_ship": "friends",
        "ship_port": "aberystwyth",
        "date_leaving": "1863-12-31",
        "joined_ship_date": "1864-01-01",
        "joined_at_port": "portmadoc",
        "capacity": "master",
        "date_left": "1864-06-30",
        "left_port": "aberaeron",
        "cause_of_leaving": "remains on board",
        "sign_with_mark": "n",
        "notes": "blk"
    },
    {
        "id": "vtls004661956_1_11",
        "type": "sailor",
        "parent": "vtls004661956",
        "name": "david evans",
        "dob": "blk",
        "age": "40",
        "place_of_birth": "llansanffraid",
        "home_address": "llansainffread",
        "f": "llansainffread",
        "name_of_ship": "friends",
        "ship_port": "aberystwyth",
        "date_leaving": "1863-06-30",
        "joined_ship_date": "1863-07-01",
        "joined_at_port": "milford",
        "capacity": "master",
        "date_left": "1863-12-31",
        "left_port": "neath",
        "cause_of_leaving": "remains on board",
        "sign_with_mark": "blk",
        "notes": "blk"
    },
    {
        "id": "vtls004661961_0_12",
        "type": "sailor",
        "parent": "vtls004661961",
        "name": "isaac davies",
        "dob": "blk",
        "age": "19",
        "place_of_birth": "llansanffraid",
        "home_address": "blk",
        "f": "blk",
        "name_of_ship": "friends",
        "ship_port": "aberystwyth",
        "date_leaving": "1863-12-31",
        "joined_ship_date": "1864-01-01",
        "joined_at_port": "portmadoc",
        "capacity": "mate",
        "date_left": "1864-06-30",
        "left_port": "aberaeron",
        "cause_of_leaving": "remains on board",
        "sign_with_mark": "n",
        "notes": "blk"
    },
    {
        "id": "vtls004661956_0_12",
        "type": "sailor",
        "parent": "vtls004661956",
        "name": "job davies",
        "dob": "blk",
        "age": "36",
        "place_of_birth": "llanarth",
        "home_address": "blk",
        "f": "blk",
        "name_of_ship": "faithful sisters",
        "ship_port": "aberystwyth",
        "date_leaving": "1862-11",
        "joined_ship_date": "1863-03-03",
        "joined_at_port": "aberayron",
        "capacity": "mate",
        "date_left": "1863-06-30",
        "left_port": "liverpool",
        "cause_of_leaving": "remains on board",
        "sign_with_mark": "n",
        "notes": "blk"
    },
    {
        "id": "vtls004661956_1_13",
        "type": "sailor",
        "parent": "vtls004661956",
        "name": "john jones",
        "dob": "blk",
        "age": "16",
        "place_of_birth": "llansanffraid",
        "home_address": "blk",
        "f": "blk",
        "name_of_ship": "friends",
        "ship_port": "aberystwyth",
        "date_leaving": "1863-06-30",
        "joined_ship_date": "1863-07-01",
        "joined_at_port": "milford",
        "capacity": "boy",
        "date_left": "1863-12-31",
        "left_port": "neath",
        "cause_of_leaving": "remains on board",
        "sign_with_mark": "blk",
        "notes": "blk"
    },
    {
        "id": "vtls004661956_0_13",
        "type": "sailor",
        "parent": "vtls004661956",
        "name": "john davies",
        "dob": "blk",
        "age": "18",
        "place_of_birth": "llansanffraid",
        "home_address": "blk",
        "f": "blk",
        "name_of_ship": "first vessel",
        "ship_port": "blk",
        "date_leaving": "blk",
        "joined_ship_date": "1863-03-03",
        "joined_at_port": "aberayron",
        "capacity": "boy",
        "date_left": "1863-06-30",
        "left_port": "liverpool",
        "cause_of_leaving": "remains on board",
        "sign_with_mark": "n",
        "notes": "blk"
    },
    {
        "id": "vtls004661956_1_12",
        "type": "sailor",
        "parent": "vtls004661956",
        "name": "job davies",
        "dob": "blk",
        "age": "40",
        "place_of_birth": "llanarth",
        "home_address": "blk",
        "f": "blk",
        "name_of_ship": "friends",
        "ship_port": "aberystwyth",
        "date_leaving": "1863-06-30",
        "joined_ship_date": "1863-07-01",
        "joined_at_port": "milford",
        "capacity": "mate",
        "date_left": "1863-12-31",
        "left_port": "neath",
        "cause_of_leaving": "remains on board",
        "sign_with_mark": "blk",
        "notes": "blk"
    },
    {
        "id": "vtls004661961_1_11",
        "type": "sailor",
        "parent": "vtls004661961",
        "name": "david evans",
        "dob": "blk",
        "age": "40",
        "place_of_birth": "llanon",
        "home_address": "aberayron",
        "f": "aberayron",
        "name_of_ship": "friends",
        "ship_port": "aberystwyth",
        "date_leaving": "blk",
        "joined_ship_date": "still on board",
        "joined_at_port": "blk",
        "capacity": "master",
        "date_left": "remains on board",
        "left_port": "blk",
        "cause_of_leaving": "remains on board",
        "sign_with_mark": "n",
        "notes": "blk"
    },
    {
        "id": "vtls004661961_1_12",
        "type": "sailor",
        "parent": "vtls004661961",
        "name": "isaac davies",
        "dob": "blk",
        "age": "19",
        "place_of_birth": "llanon",
        "home_address": "blk",
        "f": "blk",
        "name_of_ship": "friends",
        "ship_port": "aberystwyth",
        "date_leaving": "blk",
        "joined_ship_date": "still on board",
        "joined_at_port": "blk",
        "capacity": "mate",
        "date_left": "1864-11-03",
        "left_port": "aberystwyth",
        "cause_of_leaving": "discharged",
        "sign_with_mark": "n",
        "notes": "blk"
    }
]