[
    {
        "id": "vtls004594274_0_11",
        "type": "sailor",
        "parent": "vtls004594274",
        "name": "john parry",
        "dob": "blk",
        "age": "40",
        "place_of_birth": "bangor",
        "home_address": "menai view terrace, upper bangor",
        "f": "menai view terrace, upper bangor",
        "name_of_ship": "agenoria",
        "ship_port": "aberystwyth",
        "date_leaving": "remains",
        "joined_ship_date": "blk",
        "joined_at_port": "blk",
        "capacity": "master",
        "date_left": "blk",
        "left_port": "blk",
        "cause_of_leaving": "remains on board",
        "sign_with_mark": "n",
        "notes": "blk"
    },
    {
        "id": "vtls004594288_0_11",
        "type": "sailor",
        "parent": "vtls004594288",
        "name": "john parry",
        "dob": "blk",
        "age": "40",
        "place_of_birth": "bangor",
        "home_address": "menai view terrace, upper bangor",
        "f": "menai view terrace, upper bangor",
        "name_of_ship": "agenoria",
        "ship_port": "aberystwyth",
        "date_leaving": "remains",
        "joined_ship_date": "blk",
        "joined_at_port": "blk",
        "capacity": "master",
        "date_left": "blk",
        "left_port": "blk",
        "cause_of_leaving": "remains on board",
        "sign_with_mark": "n",
        "notes": "blk"
    },
    {
        "id": "vtls004594274_1_11",
        "type": "sailor",
        "parent": "vtls004594274",
        "name": "john parry",
        "dob": "blk",
        "age": "36",
        "place_of_birth": "caernarfon",
        "home_address": "blk",
        "f": "blk",
        "name_of_ship": "agenoria",
        "ship_port": "aberystwyth",
        "date_leaving": "1874-06-30",
        "joined_ship_date": "1874-07-01",
        "joined_at_port": "bangor",
        "capacity": "master",
        "date_left": "1874-12-31",
        "left_port": "bangor",
        "cause_of_leaving": "remains on board",
        "sign_with_mark": "n",
        "notes": "blk"
    },
    {
        "id": "vtls004594274_1_13",
        "type": "sailor",
        "parent": "vtls004594274",
        "name": "griffith evans",
        "dob": "blk",
        "age": "18",
        "place_of_birth": "bangor",
        "home_address": "blk",
        "f": "blk",
        "name_of_ship": "ellen",
        "ship_port": "beaumaris",
        "date_leaving": "1874-08",
        "joined_ship_date": "1874-08-28",
        "joined_at_port": "bangor",
        "capacity": "ordinary seaman",
        "date_left": "1874-12-31",
        "left_port": "bangor",
        "cause_of_leaving": "discharged",
        "sign_with_mark": "n",
        "notes": "blk"
    },
    {
        "id": "vtls004594274_1_12",
        "type": "sailor",
        "parent": "vtls004594274",
        "name": "william owen",
        "dob": "blk",
        "age": "54",
        "place_of_birth": "edeyrn",
        "home_address": "blk",
        "f": "blk",
        "name_of_ship": "nanteos",
        "ship_port": "aberystwyth",
        "date_leaving": "1874-07",
        "joined_ship_date": "1874-08-14",
        "joined_at_port": "bangor",
        "capacity": "mate",
        "date_left": "1874-12-31",
        "left_port": "bangor",
        "cause_of_leaving": "discharged",
        "sign_with_mark": "n",
        "notes": "blk"
    },
    {
        "id": "vtls004594274_0_13",
        "type": "sailor",
        "parent": "vtls004594274",
        "name": "owen griffiths",
        "dob": "blk",
        "age": "21",
        "place_of_birth": "bangor",
        "home_address": "blk",
        "f": "blk",
        "name_of_ship": "agenoria",
        "ship_port": "aberystwyth",
        "date_leaving": "remains",
        "joined_ship_date": "blk",
        "joined_at_port": "blk",
        "capacity": "able seaman",
        "date_left": "blk",
        "left_port": "blk",
        "cause_of_leaving": "remains on board",
        "sign_with_mark": "n",
        "notes": "blk"
    },
    {
        "id": "vtls004594274_0_12",
        "type": "sailor",
        "parent": "vtls004594274",
        "name": "richard williams",
        "dob": "blk",
        "age": "33",
        "place_of_birth": "bangor",
        "home_address": "blk",
        "f": "blk",
        "name_of_ship": "agenoria",
        "ship_port": "aberystwyth",
        "date_leaving": "remains",
        "joined_ship_date": "blk",
        "joined_at_port": "blk",
        "capacity": "mate",
        "date_left": "blk",
        "left_port": "blk",
        "cause_of_leaving": "remains on board",
        "sign_with_mark": "n",
        "notes": "blk"
    },
    {
        "id": "vtls004593912_0_11",
        "type": "sailor",
        "parent": "vtls004593912",
        "name": "evan humphreys",
        "dob": "blk",
        "age": "31",
        "place_of_birth": "aberystwyth",
        "home_address": "blk",
        "f": "blk",
        "name_of_ship": "agenoria",
        "ship_port": "aberystwyth",
        "date_leaving": "1862-12-31",
        "joined_ship_date": "1863-01-01",
        "joined_at_port": "aberystwyth",
        "capacity": "master",
        "date_left": "1863-06-30",
        "left_port": "runcorn",
        "cause_of_leaving": "remains on board",
        "sign_with_mark": "n",
        "notes": "blk"
    },
    {
        "id": "vtls004594288_1_15",
        "type": "sailor",
        "parent": "vtls004594288",
        "name": "william roberts",
        "dob": "blk",
        "age": "16",
        "place_of_birth": "anglesey",
        "home_address": "blk",
        "f": "blk",
        "name_of_ship": "jane & annie",
        "ship_port": "caernarfon",
        "date_leaving": "1878-11-04",
        "joined_ship_date": "1878-11-18",
        "joined_at_port": "bangor",
        "capacity": "ordinary seaman",
        "date_left": "1878-12-29",
        "left_port": "bangor",
        "cause_of_leaving": "paid off",
        "sign_with_mark": "n",
        "notes": "blk"
    },
    {
        "id": "vtls004594288_1_11",
        "type": "sailor",
        "parent": "vtls004594288",
        "name": "john parry",
        "dob": "blk",
        "age": "40",
        "place_of_birth": "caernarfon",
        "home_address": "menai view terrace, upper bangor",
        "f": "menai view terrace, upper bangor",
        "name_of_ship": "agenoria",
        "ship_port": "aberystwyth",
        "date_leaving": "remains",
        "joined_ship_date": "blk",
        "joined_at_port": "blk",
        "capacity": "master",
        "date_left": "blk",
        "left_port": "blk",
        "cause_of_leaving": "remains on board",
        "sign_with_mark": "n",
        "notes": "blk"
    },
    {
        "id": "vtls004594288_1_14",
        "type": "sailor",
        "parent": "vtls004594288",
        "name": "michael green",
        "dob": "blk",
        "age": "21",
        "place_of_birth": "cardiff",
        "home_address": "blk",
        "f": "blk",
        "name_of_ship": "off shore - no ship",
        "ship_port": "blk",
        "date_leaving": "blk",
        "joined_ship_date": "1878-09-08",
        "joined_at_port": "bristol",
        "capacity": "ordinary seaman",
        "date_left": "1878-11-05",
        "left_port": "bangor",
        "cause_of_leaving": "paid off",
        "sign_with_mark": "n",
        "notes": "blk"
    },
    {
        "id": "vtls004594288_1_13",
        "type": "sailor",
        "parent": "vtls004594288",
        "name": "edward hughes",
        "dob": "blk",
        "age": "36",
        "place_of_birth": "bangor",
        "home_address": "blk",
        "f": "blk",
        "name_of_ship": "sir richard",
        "ship_port": "beaumaris",
        "date_leaving": "1878-06-30",
        "joined_ship_date": "1878-07-30",
        "joined_at_port": "bangor",
        "capacity": "able seaman",
        "date_left": "1878-09-06",
        "left_port": "bristol",
        "cause_of_leaving": "paid off",
        "sign_with_mark": "n",
        "notes": "blk"
    },
    {
        "id": "vtls004594288_0_14",
        "type": "sailor",
        "parent": "vtls004594288",
        "name": "william hughes",
        "dob": "blk",
        "age": "16",
        "place_of_birth": "anglesey",
        "home_address": "blk",
        "f": "blk",
        "name_of_ship": "margaret jane",
        "ship_port": "aberystwyth",
        "date_leaving": "blk",
        "joined_ship_date": "1878-03-20",
        "joined_at_port": "bangor",
        "capacity": "boy",
        "date_left": "blk",
        "left_port": "$",
        "cause_of_leaving": "remains on board",
        "sign_with_mark": "n",
        "notes": "blk"
    },
    {
        "id": "vtls004594288_0_13",
        "type": "sailor",
        "parent": "vtls004594288",
        "name": "john parry",
        "dob": "blk",
        "age": "15",
        "place_of_birth": "bangor",
        "home_address": "blk",
        "f": "blk",
        "name_of_ship": "alexander",
        "ship_port": "beaumaris",
        "date_leaving": "1877-12",
        "joined_ship_date": "1878-01-20",
        "joined_at_port": "bangor",
        "capacity": "boy",
        "date_left": "1878-02-14",
        "left_port": "bangor",
        "cause_of_leaving": "paid off",
        "sign_with_mark": "n",
        "notes": "blk"
    },
    {
        "id": "vtls004594288_0_12",
        "type": "sailor",
        "parent": "vtls004594288",
        "name": "thomas williams",
        "dob": "blk",
        "age": "57",
        "place_of_birth": "anglesey",
        "home_address": "blk",
        "f": "blk",
        "name_of_ship": "agenoria",
        "ship_port": "aberystwyth",
        "date_leaving": "remains",
        "joined_ship_date": "blk",
        "joined_at_port": "blk",
        "capacity": "mate",
        "date_left": "blk",
        "left_port": "blk",
        "cause_of_leaving": "remains on board",
        "sign_with_mark": "n",
        "notes": "blk"
    },
    {
        "id": "vtls004594288_1_12",
        "type": "sailor",
        "parent": "vtls004594288",
        "name": "thomas williams",
        "dob": "blk",
        "age": "56",
        "place_of_birth": "anglesey",
        "home_address": "blk",
        "f": "blk",
        "name_of_ship": "agenoria",
        "ship_port": "aberystwyth",
        "date_leaving": "remains",
        "joined_ship_date": "blk",
        "joined_at_port": "blk",
        "capacity": "mate",
        "date_left": "blk",
        "left_port": "blk",
        "cause_of_leaving": "remains on board",
        "sign_with_mark": "n",
        "notes": "blk"
    },
    {
        "id": "vtls004593912_0_13",
        "type": "sailor",
        "parent": "vtls004593912",
        "name": "william clarke",
        "dob": "blk",
        "age": "18",
        "place_of_birth": "rhyl",
        "home_address": "blk",
        "f": "blk",
        "name_of_ship": "agenoria",
        "ship_port": "aberystwyth",
        "date_leaving": "1862-12-31",
        "joined_ship_date": "1863-01-01",
        "joined_at_port": "aberystwyth",
        "capacity": "ordinary seaman",
        "date_left": "1863-06-30",
        "left_port": "runcorn",
        "cause_of_leaving": "remains on board",
        "sign_with_mark": "n",
        "notes": "blk"
    },
    {
        "id": "vtls004593912_0_12",
        "type": "sailor",
        "parent": "vtls004593912",
        "name": "david jones",
        "dob": "blk",
        "age": "26",
        "place_of_birth": "aberystwyth",
        "home_address": "blk",
        "f": "blk",
        "name_of_ship": "agenoria",
        "ship_port": "aberystwyth",
        "date_leaving": "1862-12-31",
        "joined_ship_date": "1863-01-01",
        "joined_at_port": "aberystwyth",
        "capacity": "mate",
        "date_left": "1863-06-30",
        "left_port": "runcorn",
        "cause_of_leaving": "remains on board",
        "sign_with_mark": "n",
        "notes": "blk"
    },
    {
        "id": "vtls004593912_0_14",
        "type": "sailor",
        "parent": "vtls004593912",
        "name": "lewis thomas",
        "dob": "blk",
        "age": "14",
        "place_of_birth": "aberystwyth",
        "home_address": "blk",
        "f": "blk",
        "name_of_ship": "agenoria",
        "ship_port": "aberystwyth",
        "date_leaving": "1862-12-31",
        "joined_ship_date": "1863-01-01",
        "joined_at_port": "aberystwyth",
        "capacity": "boy",
        "date_left": "1863-01-30",
        "left_port": "runcorn",
        "cause_of_leaving": "remains on board",
        "sign_with_mark": "n",
        "notes": "blk"
    },
    {
        "id": "vtls004593912_1_13",
        "type": "sailor",
        "parent": "vtls004593912",
        "name": "wiliam clarke",
        "dob": "blk",
        "age": "18",
        "place_of_birth": "aberystwyth",
        "home_address": "blk",
        "f": "blk",
        "name_of_ship": "agenoria",
        "ship_port": "aberystwyth",
        "date_leaving": "still on board",
        "joined_ship_date": "blk",
        "joined_at_port": "blk",
        "capacity": "seaman",
        "date_left": "1863-12-31",
        "left_port": "aberystwyth",
        "cause_of_leaving": "discharged",
        "sign_with_mark": "n",
        "notes": "blk"
    },
    {
        "id": "vtls004593912_1_14",
        "type": "sailor",
        "parent": "vtls004593912",
        "name": "lewis thomas",
        "dob": "blk",
        "age": "14",
        "place_of_birth": "aberystwyth",
        "home_address": "blk",
        "f": "blk",
        "name_of_ship": "agenoria",
        "ship_port": "aberystwyth",
        "date_leaving": "still on board",
        "joined_ship_date": "blk",
        "joined_at_port": "blk",
        "capacity": "seaman",
        "date_left": "1863-12-31",
        "left_port": "aberystwyth",
        "cause_of_leaving": "discharged",
        "sign_with_mark": "n",
        "notes": "blk"
    },
    {
        "id": "vtls004593912_1_11",
        "type": "sailor",
        "parent": "vtls004593912",
        "name": "evan humphreys",
        "dob": "blk",
        "age": "32",
        "place_of_birth": "aberystwyth",
        "home_address": "blk",
        "f": "blk",
        "name_of_ship": "agenoria",
        "ship_port": "aberystwyth",
        "date_leaving": "still on board",
        "joined_ship_date": "blk",
        "joined_at_port": "blk",
        "capacity": "master",
        "date_left": "still on board",
        "left_port": "blk",
        "cause_of_leaving": "still on board",
        "sign_with_mark": "n",
        "notes": "blk"
    },
    {
        "id": "vtls004593912_1_12",
        "type": "sailor",
        "parent": "vtls004593912",
        "name": "david jones",
        "dob": "blk",
        "age": "26",
        "place_of_birth": "aberystwyth",
        "home_address": "blk",
        "f": "blk",
        "name_of_ship": "agenoria",
        "ship_port": "aberystwyth",
        "date_leaving": "still on board",
        "joined_ship_date": "blk",
        "joined_at_port": "blk",
        "capacity": "mate",
        "date_left": "1863-12-31",
        "left_port": "aberystwyth",
        "cause_of_leaving": "discharged",
        "sign_with_mark": "n",
        "notes": "blk"
    },
    {
        "id": "vtls004593979_0_11",
        "type": "sailor",
        "parent": "vtls004593979",
        "name": "evan humphreys",
        "dob": "blk",
        "age": "35",
        "place_of_birth": "aberystwyth",
        "home_address": "no 5 penmaesglas road, aberystwyth",
        "f": "no 5 penmaesglas road, aberystwyth",
        "name_of_ship": "agenoria",
        "ship_port": "aberystwyth",
        "date_leaving": "blk",
        "joined_ship_date": "1867-06-30",
        "joined_at_port": "boamaris",
        "capacity": "master",
        "date_left": "remains on board",
        "left_port": "blk",
        "cause_of_leaving": "blk",
        "sign_with_mark": "blk",
        "notes": "blk"
    },
    {
        "id": "vtls004593933_0_13",
        "type": "sailor",
        "parent": "vtls004593933",
        "name": "richard jones",
        "dob": "blk",
        "age": "17",
        "place_of_birth": "aberystwyth",
        "home_address": "blk",
        "f": "blk",
        "name_of_ship": "agenoria",
        "ship_port": "aberystwyth",
        "date_leaving": "1866-12-31",
        "joined_ship_date": "1867-01-01",
        "joined_at_port": "porthmadoc",
        "capacity": "able seaman",
        "date_left": "1867-06-30",
        "left_port": "dublin",
        "cause_of_leaving": "remains on board",
        "sign_with_mark": "blk",
        "notes": "blk"
    },
    {
        "id": "vtls004593933_0_11",
        "type": "sailor",
        "parent": "vtls004593933",
        "name": "evan humphreys",
        "dob": "blk",
        "age": "35",
        "place_of_birth": "aberystwyth",
        "home_address": "blk",
        "f": "blk",
        "name_of_ship": "agenoria",
        "ship_port": "aberystwyth",
        "date_leaving": "1866-12-31",
        "joined_ship_date": "1867-01-01",
        "joined_at_port": "porthmadoc",
        "capacity": "master",
        "date_left": "1867-06-30",
        "left_port": "dublin",
        "cause_of_leaving": "remains on board",
        "sign_with_mark": "blk",
        "notes": "blk"
    },
    {
        "id": "vtls004593933_0_12",
        "type": "sailor",
        "parent": "vtls004593933",
        "name": "richard lumley",
        "dob": "blk",
        "age": "30",
        "place_of_birth": "aberystwyth",
        "home_address": "blk",
        "f": "blk",
        "name_of_ship": "agenoria",
        "ship_port": "aberystwyth",
        "date_leaving": "1866-12-31",
        "joined_ship_date": "1867-01-01",
        "joined_at_port": "porthmadoc",
        "capacity": "mate",
        "date_left": "1867-06-30",
        "left_port": "dublin",
        "cause_of_leaving": "remains on board",
        "sign_with_mark": "blk",
        "notes": "blk"
    },
    {
        "id": "vtls004593979_0_13",
        "type": "sailor",
        "parent": "vtls004593979",
        "name": "richard jones",
        "dob": "blk",
        "age": "19",
        "place_of_birth": "pontrhydfendigaid",
        "home_address": "blk",
        "f": "blk",
        "name_of_ship": "agenoria",
        "ship_port": "aberystwyth",
        "date_leaving": "blk",
        "joined_ship_date": "1867-06-30",
        "joined_at_port": "boamaris",
        "capacity": "able seaman",
        "date_left": "remains on board",
        "left_port": "blk",
        "cause_of_leaving": "blk",
        "sign_with_mark": "blk",
        "notes": "blk"
    },
    {
        "id": "vtls004593933_0_14",
        "type": "sailor",
        "parent": "vtls004593933",
        "name": "john thomas",
        "dob": "blk",
        "age": "15",
        "place_of_birth": "aberystwyth",
        "home_address": "blk",
        "f": "blk",
        "name_of_ship": "agenoria",
        "ship_port": "aberystwyth",
        "date_leaving": "1866-12-31",
        "joined_ship_date": "1867-01-01",
        "joined_at_port": "porthmadoc",
        "capacity": "boy",
        "date_left": "1867-06-30",
        "left_port": "dublin",
        "cause_of_leaving": "remains on board",
        "sign_with_mark": "blk",
        "notes": "blk"
    },
    {
        "id": "vtls004593979_0_12",
        "type": "sailor",
        "parent": "vtls004593979",
        "name": "richard lumley",
        "dob": "blk",
        "age": "26",
        "place_of_birth": "aberdovey",
        "home_address": "blk",
        "f": "blk",
        "name_of_ship": "agenoria",
        "ship_port": "aberystwyth",
        "date_leaving": "blk",
        "joined_ship_date": "1867-06-30",
        "joined_at_port": "boamaris",
        "capacity": "mate",
        "date_left": "remains on board",
        "left_port": "blk",
        "cause_of_leaving": "blk",
        "sign_with_mark": "blk",
        "notes": "blk"
    },
    {
        "id": "vtls004593979_0_14",
        "type": "sailor",
        "parent": "vtls004593979",
        "name": "john rees",
        "dob": "blk",
        "age": "13",
        "place_of_birth": "aberdovey",
        "home_address": "blk",
        "f": "blk",
        "name_of_ship": "agenoria",
        "ship_port": "aberystwyth",
        "date_leaving": "blk",
        "joined_ship_date": "1867-06-3-",
        "joined_at_port": "boamaris",
        "capacity": "boy",
        "date_left": "remains on board",
        "left_port": "blk",
        "cause_of_leaving": "blk",
        "sign_with_mark": "blk",
        "notes": "blk"
    },
    {
        "id": "vtls004593988_1_11",
        "type": "sailor",
        "parent": "vtls004593988",
        "name": "evan humphreys",
        "dob": "blk",
        "age": "37",
        "place_of_birth": "aberystwyth",
        "home_address": "7 penmaesglas rd, aberystwyth",
        "f": "7 penmaesglas rd, aberystwyth",
        "name_of_ship": "above named ship",
        "ship_port": "aberystwyth",
        "date_leaving": "remained on board",
        "joined_ship_date": "1868-06-30",
        "joined_at_port": "blk",
        "capacity": "master",
        "date_left": "remains on board",
        "left_port": "blk",
        "cause_of_leaving": "remains on board",
        "sign_with_mark": "n",
        "notes": "blk"
    },
    {
        "id": "vtls004593988_1_13",
        "type": "sailor",
        "parent": "vtls004593988",
        "name": "richard griffiths",
        "dob": "blk",
        "age": "16",
        "place_of_birth": "aberdovey",
        "home_address": "blk",
        "f": "blk",
        "name_of_ship": "above named ship",
        "ship_port": "aberystwyth",
        "date_leaving": "blk",
        "joined_ship_date": "1868-06-30",
        "joined_at_port": "london",
        "capacity": "ordinary seaman",
        "date_left": "1868-11-25",
        "left_port": "aberystwyth",
        "cause_of_leaving": "discharged",
        "sign_with_mark": "n",
        "notes": "blk"
    },
    {
        "id": "vtls004593988_0_11",
        "type": "sailor",
        "parent": "vtls004593988",
        "name": "evan humphreys",
        "dob": "blk",
        "age": "36",
        "place_of_birth": "aberystwyth",
        "home_address": "blk",
        "f": "blk",
        "name_of_ship": "same ship",
        "ship_port": "aberystwyth",
        "date_leaving": "remained on board",
        "joined_ship_date": "1868-01-01",
        "joined_at_port": "aberdovey",
        "capacity": "master",
        "date_left": "1868-06-30",
        "left_port": "london",
        "cause_of_leaving": "remains on board",
        "sign_with_mark": "n",
        "notes": "blk"
    },
    {
        "id": "vtls004593988_0_13",
        "type": "sailor",
        "parent": "vtls004593988",
        "name": "richard griffiths",
        "dob": "blk",
        "age": "15",
        "place_of_birth": "aberdovey",
        "home_address": "blk",
        "f": "blk",
        "name_of_ship": "same ship",
        "ship_port": "aberystwyth",
        "date_leaving": "blk",
        "joined_ship_date": "1868-01-01",
        "joined_at_port": "aberdovey",
        "capacity": "ordinary seaman",
        "date_left": "1868-06-30",
        "left_port": "london",
        "cause_of_leaving": "remains on board",
        "sign_with_mark": "n",
        "notes": "blk"
    },
    {
        "id": "vtls004593988_0_14",
        "type": "sailor",
        "parent": "vtls004593988",
        "name": "richard jones",
        "dob": "blk",
        "age": "18",
        "place_of_birth": "strata florida",
        "home_address": "blk",
        "f": "blk",
        "name_of_ship": "same ship",
        "ship_port": "aberystwyth",
        "date_leaving": "blk",
        "joined_ship_date": "1868-01-01",
        "joined_at_port": "aberdovey",
        "capacity": "ordinary seaman",
        "date_left": "1868-06-30",
        "left_port": "aberdovey",
        "cause_of_leaving": "discharged",
        "sign_with_mark": "n",
        "notes": "blk"
    },
    {
        "id": "vtls004593988_1_14",
        "type": "sailor",
        "parent": "vtls004593988",
        "name": "thomas evans",
        "dob": "blk",
        "age": "16",
        "place_of_birth": "aberdovey",
        "home_address": "blk",
        "f": "blk",
        "name_of_ship": "above named ship",
        "ship_port": "aberystwyth",
        "date_leaving": "blk",
        "joined_ship_date": "1868-06-30",
        "joined_at_port": "london",
        "capacity": "boy",
        "date_left": "1868-11-25",
        "left_port": "aberystwyth",
        "cause_of_leaving": "discharged",
        "sign_with_mark": "n",
        "notes": "blk"
    },
    {
        "id": "vtls004593988_1_12",
        "type": "sailor",
        "parent": "vtls004593988",
        "name": "richard lumley",
        "dob": "blk",
        "age": "31",
        "place_of_birth": "corris",
        "home_address": "blk",
        "f": "blk",
        "name_of_ship": "above named ship",
        "ship_port": "aberystwyth",
        "date_leaving": "blk",
        "joined_ship_date": "1868-06-30",
        "joined_at_port": "london",
        "capacity": "mate",
        "date_left": "1868-11-25",
        "left_port": "aberystwyth",
        "cause_of_leaving": "discharged",
        "sign_with_mark": "n",
        "notes": "blk"
    },
    {
        "id": "vtls004593988_0_12",
        "type": "sailor",
        "parent": "vtls004593988",
        "name": "richard lumley",
        "dob": "blk",
        "age": "31",
        "place_of_birth": "corris",
        "home_address": "blk",
        "f": "blk",
        "name_of_ship": "same ship",
        "ship_port": "aberystwyth",
        "date_leaving": "blk",
        "joined_ship_date": "1868-01-01",
        "joined_at_port": "aberdovey",
        "capacity": "mate",
        "date_left": "1868-06-30",
        "left_port": "london",
        "cause_of_leaving": "remains on board",
        "sign_with_mark": "n",
        "notes": "blk"
    },
    {
        "id": "vtls004593988_0_15",
        "type": "sailor",
        "parent": "vtls004593988",
        "name": "thomas evans",
        "dob": "blk",
        "age": "15",
        "place_of_birth": "aberdovey",
        "home_address": "blk",
        "f": "blk",
        "name_of_ship": "first ship",
        "ship_port": "aberystwyth",
        "date_leaving": "blk",
        "joined_ship_date": "1868-04-10",
        "joined_at_port": "aberdovey",
        "capacity": "boy",
        "date_left": "1868-06-30",
        "left_port": "london",
        "cause_of_leaving": "remains on board",
        "sign_with_mark": "n",
        "notes": "blk"
    },
    {
        "id": "vtls004594015_0_11",
        "type": "sailor",
        "parent": "vtls004594015",
        "name": "evan humphreys",
        "dob": "blk",
        "age": "37",
        "place_of_birth": "aberystwyth",
        "home_address": "penmaesglas road, aberystwyth",
        "f": "penmaesglas road, aberystwyth",
        "name_of_ship": "above named ship",
        "ship_port": "aberystwyth",
        "date_leaving": "blk",
        "joined_ship_date": "1868-12-31",
        "joined_at_port": "blk",
        "capacity": "master",
        "date_left": "remained on board",
        "left_port": "blk",
        "cause_of_leaving": "remained on board",
        "sign_with_mark": "n",
        "notes": "blk"
    },
    {
        "id": "vtls004594015_0_13",
        "type": "sailor",
        "parent": "vtls004594015",
        "name": "richard richards",
        "dob": "blk",
        "age": "17",
        "place_of_birth": "aberystwyth",
        "home_address": "blk",
        "f": "blk",
        "name_of_ship": "new diligence",
        "ship_port": "aberystwyth",
        "date_leaving": "jan 1869",
        "joined_ship_date": "1869-03-12",
        "joined_at_port": "aberystwyth",
        "capacity": "ordinary seaman",
        "date_left": "1869-06-30",
        "left_port": "aberdovey",
        "cause_of_leaving": "discharged",
        "sign_with_mark": "n",
        "notes": "blk"
    },
    {
        "id": "vtls004594015_1_14",
        "type": "sailor",
        "parent": "vtls004594015",
        "name": "john hughes",
        "dob": "blk",
        "age": "14",
        "place_of_birth": "borth, cardiganshire",
        "home_address": "blk",
        "f": "blk",
        "name_of_ship": "agenoria",
        "ship_port": "aberystwyth",
        "date_leaving": "continued",
        "joined_ship_date": "1869-07-01",
        "joined_at_port": "cork",
        "capacity": "boy",
        "date_left": "remains on board",
        "left_port": "blk",
        "cause_of_leaving": "remains on board",
        "sign_with_mark": "n",
        "notes": "blk"
    },
    {
        "id": "vtls004594015_1_13",
        "type": "sailor",
        "parent": "vtls004594015",
        "name": "thomas humphreys",
        "dob": "blk",
        "age": "18",
        "place_of_birth": "aberdovey",
        "home_address": "blk",
        "f": "blk",
        "name_of_ship": "agenoria",
        "ship_port": "aberystwyth",
        "date_leaving": "continued",
        "joined_ship_date": "1869-07-01",
        "joined_at_port": "cork",
        "capacity": "ordinary seaman",
        "date_left": "1869-11-30",
        "left_port": "bangor",
        "cause_of_leaving": "paid off",
        "sign_with_mark": "n",
        "notes": "blk"
    },
    {
        "id": "vtls004594015_1_11",
        "type": "sailor",
        "parent": "vtls004594015",
        "name": "evan humphreys",
        "dob": "blk",
        "age": "38",
        "place_of_birth": "aberystwyth",
        "home_address": "blk",
        "f": "blk",
        "name_of_ship": "agenoria",
        "ship_port": "aberystwyth",
        "date_leaving": "continued",
        "joined_ship_date": "1869-07-01",
        "joined_at_port": "cork",
        "capacity": "master",
        "date_left": "remains on board",
        "left_port": "blk",
        "cause_of_leaving": "remains on board",
        "sign_with_mark": "n",
        "notes": "blk"
    },
    {
        "id": "vtls004594015_1_12",
        "type": "sailor",
        "parent": "vtls004594015",
        "name": "richard lumley",
        "dob": "blk",
        "age": "32",
        "place_of_birth": "corris",
        "home_address": "blk",
        "f": "blk",
        "name_of_ship": "agenoria",
        "ship_port": "aberystwyth",
        "date_leaving": "continued",
        "joined_ship_date": "1869-07-01",
        "joined_at_port": "cork",
        "capacity": "mate",
        "date_left": "remains on board",
        "left_port": "blk",
        "cause_of_leaving": "remains on board",
        "sign_with_mark": "n",
        "notes": "blk"
    },
    {
        "id": "vtls004594015_0_12",
        "type": "sailor",
        "parent": "vtls004594015",
        "name": "owen ennes",
        "dob": "blk",
        "age": "41",
        "place_of_birth": "borth",
        "home_address": "blk",
        "f": "blk",
        "name_of_ship": "charles ann",
        "ship_port": "$$$",
        "date_leaving": "jan 1869",
        "joined_ship_date": "1869-03-12",
        "joined_at_port": "aberystwyth",
        "capacity": "mate",
        "date_left": "remained on board",
        "left_port": "blk",
        "cause_of_leaving": "remained on board",
        "sign_with_mark": "n",
        "notes": "blk"
    },
    {
        "id": "vtls004594046_0_13",
        "type": "sailor",
        "parent": "vtls004594046",
        "name": "david thomas",
        "dob": "blk",
        "age": "32",
        "place_of_birth": "aberystwyth",
        "home_address": "blk",
        "f": "blk",
        "name_of_ship": "mary jones",
        "ship_port": "aberystwyth",
        "date_leaving": "1870-06-02",
        "joined_ship_date": "1870-06-04",
        "joined_at_port": "runcorn",
        "capacity": "mate",
        "date_left": "1870-07-11",
        "left_port": "dublin",
        "cause_of_leaving": "remains on board",
        "sign_with_mark": "n",
        "notes": "blk"
    },
    {
        "id": "vtls004594046_0_14",
        "type": "sailor",
        "parent": "vtls004594046",
        "name": "john hughes",
        "dob": "blk",
        "age": "18",
        "place_of_birth": "amlwch",
        "home_address": "blk",
        "f": "blk",
        "name_of_ship": "agenoria",
        "ship_port": "aberystwyth",
        "date_leaving": "continued",
        "joined_ship_date": "1870-06-03",
        "joined_at_port": "runcorn",
        "capacity": "ordinary seaman",
        "date_left": "1870-06-03",
        "left_port": "runcorn",
        "cause_of_leaving": "discharged",
        "sign_with_mark": "n",
        "notes": "blk"
    },
    {
        "id": "vtls004594046_1_11",
        "type": "sailor",
        "parent": "vtls004594046",
        "name": "evan humphreys",
        "dob": "blk",
        "age": "39",
        "place_of_birth": "aberystwyth",
        "home_address": "blk",
        "f": "blk",
        "name_of_ship": "agenoria",
        "ship_port": "aberystwyth",
        "date_leaving": "remained on board",
        "joined_ship_date": "blk",
        "joined_at_port": "blk",
        "capacity": "master",
        "date_left": "remains on board",
        "left_port": "blk",
        "cause_of_leaving": "remains on board",
        "sign_with_mark": "n",
        "notes": "blk"
    },
    {
        "id": "vtls004594046_0_15",
        "type": "sailor",
        "parent": "vtls004594046",
        "name": "david evans",
        "dob": "blk",
        "age": "17",
        "place_of_birth": "aberarth",
        "home_address": "blk",
        "f": "blk",
        "name_of_ship": "sylph",
        "ship_port": "milford",
        "date_leaving": "blk",
        "joined_ship_date": "1870-06-03",
        "joined_at_port": "runcorn",
        "capacity": "ordinary seaman",
        "date_left": "1870-07-11",
        "left_port": "dublin",
        "cause_of_leaving": "remains on board",
        "sign_with_mark": "n",
        "notes": "blk"
    },
    {
        "id": "vtls004594046_0_11",
        "type": "sailor",
        "parent": "vtls004594046",
        "name": "evan humphreys",
        "dob": "blk",
        "age": "38",
        "place_of_birth": "aberystwyth",
        "home_address": "blk",
        "f": "blk",
        "name_of_ship": "agenoria",
        "ship_port": "aberystwyth",
        "date_leaving": "continued",
        "joined_ship_date": "continued",
        "joined_at_port": "blk",
        "capacity": "master",
        "date_left": "1870-07-11",
        "left_port": "blk",
        "cause_of_leaving": "remains on board",
        "sign_with_mark": "n",
        "notes": "blk"
    },
    {
        "id": "vtls004594046_1_12",
        "type": "sailor",
        "parent": "vtls004594046",
        "name": "david thomas",
        "dob": "blk",
        "age": "52",
        "place_of_birth": "aberystwyth",
        "home_address": "blk",
        "f": "blk",
        "name_of_ship": "agenoria",
        "ship_port": "aberystwyth",
        "date_leaving": "remained on board",
        "joined_ship_date": "blk",
        "joined_at_port": "blk",
        "capacity": "mate",
        "date_left": "1870-12-24",
        "left_port": "aberdovey",
        "cause_of_leaving": "discharged",
        "sign_with_mark": "n",
        "notes": "blk"
    },
    {
        "id": "vtls004594046_0_12",
        "type": "sailor",
        "parent": "vtls004594046",
        "name": "richard lumley",
        "dob": "blk",
        "age": "35",
        "place_of_birth": "aberdovey",
        "home_address": "blk",
        "f": "blk",
        "name_of_ship": "agenoria",
        "ship_port": "aberystwyth",
        "date_leaving": "continued",
        "joined_ship_date": "blk",
        "joined_at_port": "runcorn",
        "capacity": "mate",
        "date_left": "1870-06-03",
        "left_port": "runcorn",
        "cause_of_leaving": "discharged",
        "sign_with_mark": "n",
        "notes": "blk"
    },
    {
        "id": "vtls004594046_0_16",
        "type": "sailor",
        "parent": "vtls004594046",
        "name": "john hughes",
        "dob": "blk",
        "age": "14",
        "place_of_birth": "borth",
        "home_address": "blk",
        "f": "blk",
        "name_of_ship": "agenoria",
        "ship_port": "aberystwyth",
        "date_leaving": "on board",
        "joined_ship_date": "blk",
        "joined_at_port": "on board",
        "capacity": "boy",
        "date_left": "1870-07-11",
        "left_port": "dublin",
        "cause_of_leaving": "remains on board",
        "sign_with_mark": "n",
        "notes": "blk"
    },
    {
        "id": "vtls004594060_0_13",
        "type": "sailor",
        "parent": "vtls004594060",
        "name": "thomas g jones",
        "dob": "blk",
        "age": "17",
        "place_of_birth": "amlwch",
        "home_address": "blk",
        "f": "blk",
        "name_of_ship": "[mary boyns}",
        "ship_port": "[penzance]",
        "date_leaving": "1870-12-28",
        "joined_ship_date": "1871-03-20",
        "joined_at_port": "aberdovey",
        "capacity": "ordinary seaman",
        "date_left": "remains on board",
        "left_port": "blk",
        "cause_of_leaving": "remains on board",
        "sign_with_mark": "n",
        "notes": "blk"
    },
    {
        "id": "vtls004594060_0_12",
        "type": "sailor",
        "parent": "vtls004594060",
        "name": "william edward",
        "dob": "blk",
        "age": "38",
        "place_of_birth": "aberystwyth",
        "home_address": "blk",
        "f": "blk",
        "name_of_ship": "rheidol vale",
        "ship_port": "aberystwyth",
        "date_leaving": "1870-12-23",
        "joined_ship_date": "1871-02-14",
        "joined_at_port": "aberdovey",
        "capacity": "mate",
        "date_left": "remains on board",
        "left_port": "blk",
        "cause_of_leaving": "remains on board",
        "sign_with_mark": "n",
        "notes": "blk"
    },
    {
        "id": "vtls004594046_1_13",
        "type": "sailor",
        "parent": "vtls004594046",
        "name": "david evans",
        "dob": "blk",
        "age": "18",
        "place_of_birth": "llanddewi",
        "home_address": "blk",
        "f": "blk",
        "name_of_ship": "agenoria",
        "ship_port": "aberystwyth",
        "date_leaving": "remained on board",
        "joined_ship_date": "blk",
        "joined_at_port": "blk",
        "capacity": "able seaman",
        "date_left": "1870-12-24",
        "left_port": "aberdovey",
        "cause_of_leaving": "discharged",
        "sign_with_mark": "n",
        "notes": "blk"
    },
    {
        "id": "vtls004594060_1_11",
        "type": "sailor",
        "parent": "vtls004594060",
        "name": "evan humphreys",
        "dob": "blk",
        "age": "39",
        "place_of_birth": "aberystwyth",
        "home_address": "blk",
        "f": "blk",
        "name_of_ship": "agenoria",
        "ship_port": "aberystwyth",
        "date_leaving": "remained on board",
        "joined_ship_date": "blk",
        "joined_at_port": "blk",
        "capacity": "master",
        "date_left": "1871-12-31",
        "left_port": "dublin",
        "cause_of_leaving": "remains on board",
        "sign_with_mark": "n",
        "notes": "blk"
    },
    {
        "id": "vtls004594060_1_12",
        "type": "sailor",
        "parent": "vtls004594060",
        "name": "william edwards",
        "dob": "blk",
        "age": "39",
        "place_of_birth": "aberystwyth",
        "home_address": "blk",
        "f": "blk",
        "name_of_ship": "agenoria",
        "ship_port": "aberystwyth",
        "date_leaving": "blk",
        "joined_ship_date": "1871-07-01",
        "joined_at_port": "runcorn",
        "capacity": "mate",
        "date_left": "1871-12-31",
        "left_port": "dublin",
        "cause_of_leaving": "remains on board",
        "sign_with_mark": "n",
        "notes": "blk"
    },
    {
        "id": "vtls004594060_0_14",
        "type": "sailor",
        "parent": "vtls004594060",
        "name": "thomas enas",
        "dob": "blk",
        "age": "14",
        "place_of_birth": "borth",
        "home_address": "blk",
        "f": "blk",
        "name_of_ship": "maria",
        "ship_port": "aberystwyth",
        "date_leaving": "1869-12-27",
        "joined_ship_date": "1871-02-14",
        "joined_at_port": "aberdovey",
        "capacity": "boy",
        "date_left": "remains on board",
        "left_port": "blk",
        "cause_of_leaving": "remains on board",
        "sign_with_mark": "n",
        "notes": "blk"
    },
    {
        "id": "vtls004594046_1_14",
        "type": "sailor",
        "parent": "vtls004594046",
        "name": "john hughes",
        "dob": "blk",
        "age": "15",
        "place_of_birth": "borth",
        "home_address": "blk",
        "f": "blk",
        "name_of_ship": "agenoria",
        "ship_port": "aberystwyth",
        "date_leaving": "remained on board",
        "joined_ship_date": "blk",
        "joined_at_port": "blk",
        "capacity": "boy",
        "date_left": "1870-12-24",
        "left_port": "aberdovey",
        "cause_of_leaving": "discharged",
        "sign_with_mark": "n",
        "notes": "blk"
    },
    {
        "id": "vtls004594060_0_11",
        "type": "sailor",
        "parent": "vtls004594060",
        "name": "evan humphreys",
        "dob": "blk",
        "age": "39",
        "place_of_birth": "aberystwyth",
        "home_address": "blk",
        "f": "blk",
        "name_of_ship": "agenoria",
        "ship_port": "aberystwyth",
        "date_leaving": "remains",
        "joined_ship_date": "blk",
        "joined_at_port": "blk",
        "capacity": "master",
        "date_left": "remains on board",
        "left_port": "blk",
        "cause_of_leaving": "remains on board",
        "sign_with_mark": "n",
        "notes": "blk"
    },
    {
        "id": "vtls004594077_0_13",
        "type": "sailor",
        "parent": "vtls004594077",
        "name": "william evans",
        "dob": "blk",
        "age": "29",
        "place_of_birth": "aberystwyth",
        "home_address": "blk",
        "f": "blk",
        "name_of_ship": "john & mary",
        "ship_port": "aberystwyth",
        "date_leaving": "lost",
        "joined_ship_date": "1872-06-06",
        "joined_at_port": "aberdovey",
        "capacity": "able seaman",
        "date_left": "1872-06-30",
        "left_port": "jersey",
        "cause_of_leaving": "remains on board",
        "sign_with_mark": "n",
        "notes": "both agreement and voyage account  states that william evans was 'lost' on 9th may 1872 re 'date & place of discharge from previous ship. although place of discharge from last ship states \"lost\" the vessel john & mary continued to sail after 9 may 1872"
    },
    {
        "id": "vtls004594060_1_15",
        "type": "sailor",
        "parent": "vtls004594060",
        "name": "john davies",
        "dob": "blk",
        "age": "16",
        "place_of_birth": "borth",
        "home_address": "blk",
        "f": "blk",
        "name_of_ship": "koh-i-noor",
        "ship_port": "aberystwyth",
        "date_leaving": "1871-11-02",
        "joined_ship_date": "1871-11-14",
        "joined_at_port": "aberdovey",
        "capacity": "ordinary seaman",
        "date_left": "1871-12-31",
        "left_port": "dublin",
        "cause_of_leaving": "remains on board",
        "sign_with_mark": "n",
        "notes": "blk"
    },
    {
        "id": "vtls004594077_0_15",
        "type": "sailor",
        "parent": "vtls004594077",
        "name": "william lewis",
        "dob": "blk",
        "age": "38",
        "place_of_birth": "aberystwyth",
        "home_address": "blk",
        "f": "blk",
        "name_of_ship": "agenoria",
        "ship_port": "aberystwyth",
        "date_leaving": "continues",
        "joined_ship_date": "1872-01-01",
        "joined_at_port": "dublin",
        "capacity": "able seaman",
        "date_left": "1872-05-22",
        "left_port": "aberdovey",
        "cause_of_leaving": "discharged",
        "sign_with_mark": "n",
        "notes": "blk"
    },
    {
        "id": "vtls004594077_0_11",
        "type": "sailor",
        "parent": "vtls004594077",
        "name": "evan humphreys",
        "dob": "blk",
        "age": "40",
        "place_of_birth": "aberystwyth",
        "home_address": "blk",
        "f": "blk",
        "name_of_ship": "agenoria",
        "ship_port": "aberystwyth",
        "date_leaving": "continues",
        "joined_ship_date": "1872-01-01",
        "joined_at_port": "dublin",
        "capacity": "master",
        "date_left": "1872-06-30",
        "left_port": "jersey",
        "cause_of_leaving": "remains on board",
        "sign_with_mark": "n",
        "notes": "blk"
    },
    {
        "id": "vtls004594077_0_12",
        "type": "sailor",
        "parent": "vtls004594077",
        "name": "richard lumley",
        "dob": "blk",
        "age": "37",
        "place_of_birth": "aberdovey",
        "home_address": "blk",
        "f": "blk",
        "name_of_ship": "agenoria",
        "ship_port": "aberystwyth",
        "date_leaving": "continues",
        "joined_ship_date": "1872-01-01",
        "joined_at_port": "dublin",
        "capacity": "mate",
        "date_left": "1872-06-30",
        "left_port": "jersey",
        "cause_of_leaving": "remains on board",
        "sign_with_mark": "n",
        "notes": "blk"
    },
    {
        "id": "vtls004594060_1_16",
        "type": "sailor",
        "parent": "vtls004594060",
        "name": "thomas davies",
        "dob": "blk",
        "age": "14",
        "place_of_birth": "borth",
        "home_address": "blk",
        "f": "blk",
        "name_of_ship": "koh-i-noor",
        "ship_port": "aberystwyth",
        "date_leaving": "1871-11-02",
        "joined_ship_date": "1871-11-14",
        "joined_at_port": "aberdovey",
        "capacity": "boy",
        "date_left": "1871-12-31",
        "left_port": "dublin",
        "cause_of_leaving": "remains on board",
        "sign_with_mark": "n",
        "notes": "blk"
    },
    {
        "id": "vtls004594060_1_13",
        "type": "sailor",
        "parent": "vtls004594060",
        "name": "thomas davies",
        "dob": "blk",
        "age": "14",
        "place_of_birth": "borth",
        "home_address": "blk",
        "f": "blk",
        "name_of_ship": "agenoria",
        "ship_port": "aberystwyth",
        "date_leaving": "blk",
        "joined_ship_date": "1871-07-01",
        "joined_at_port": "runcorn",
        "capacity": "ordinary seaman",
        "date_left": "1871-08-30",
        "left_port": "runcorn",
        "cause_of_leaving": "discharged",
        "sign_with_mark": "n",
        "notes": "blk"
    },
    {
        "id": "vtls004594077_0_14",
        "type": "sailor",
        "parent": "vtls004594077",
        "name": "robert owen lewis",
        "dob": "blk",
        "age": "13",
        "place_of_birth": "aberdovey",
        "home_address": "blk",
        "f": "blk",
        "name_of_ship": "first voyage",
        "ship_port": "blk",
        "date_leaving": "blk",
        "joined_ship_date": "1872-06-06",
        "joined_at_port": "aberdovey",
        "capacity": "boy",
        "date_left": "1872-06-30",
        "left_port": "jersey",
        "cause_of_leaving": "remains on board",
        "sign_with_mark": "n",
        "notes": "blk"
    },
    {
        "id": "vtls004594060_1_14",
        "type": "sailor",
        "parent": "vtls004594060",
        "name": "thomas enas",
        "dob": "blk",
        "age": "13",
        "place_of_birth": "borth",
        "home_address": "blk",
        "f": "blk",
        "name_of_ship": "agenoria",
        "ship_port": "aberystwyth",
        "date_leaving": "blk",
        "joined_ship_date": "1871-07-01",
        "joined_at_port": "runcorn",
        "capacity": "boy",
        "date_left": "1871-10-02",
        "left_port": "aberdovey",
        "cause_of_leaving": "discharged",
        "sign_with_mark": "n",
        "notes": "blk"
    },
    {
        "id": "vtls004594077_1_14",
        "type": "sailor",
        "parent": "vtls004594077",
        "name": "richard owen lewis",
        "dob": "blk",
        "age": "13",
        "place_of_birth": "aberdovey",
        "home_address": "blk",
        "f": "blk",
        "name_of_ship": "agenoria",
        "ship_port": "aberystwyth",
        "date_leaving": "remained on board previous to 30 june 1872",
        "joined_ship_date": "blk",
        "joined_at_port": "blk",
        "capacity": "ordinary seaman",
        "date_left": "1872-09-07",
        "left_port": "liverpool",
        "cause_of_leaving": "discharged",
        "sign_with_mark": "n",
        "notes": "blk"
    },
    {
        "id": "vtls004594077_1_13",
        "type": "sailor",
        "parent": "vtls004594077",
        "name": "wiliam evans",
        "dob": "blk",
        "age": "32",
        "place_of_birth": "aberystwyth",
        "home_address": "blk",
        "f": "blk",
        "name_of_ship": "agenoria",
        "ship_port": "aberystwyth",
        "date_leaving": "remained on board previous to 30 june 1872",
        "joined_ship_date": "blk",
        "joined_at_port": "blk",
        "capacity": "able seaman",
        "date_left": "1872-12-11",
        "left_port": "aberdovey",
        "cause_of_leaving": "discharged",
        "sign_with_mark": "n",
        "notes": "blk"
    },
    {
        "id": "vtls004594077_1_11",
        "type": "sailor",
        "parent": "vtls004594077",
        "name": "evan humphreys",
        "dob": "blk",
        "age": "41",
        "place_of_birth": "aberystwyth",
        "home_address": "blk",
        "f": "blk",
        "name_of_ship": "agenoria",
        "ship_port": "aberystwyth",
        "date_leaving": "remained on board previous to 30 june 1872",
        "joined_ship_date": "blk",
        "joined_at_port": "blk",
        "capacity": "master",
        "date_left": "remained on board",
        "left_port": "blk",
        "cause_of_leaving": "remains on board",
        "sign_with_mark": "n",
        "notes": "blk"
    },
    {
        "id": "vtls004594077_1_12",
        "type": "sailor",
        "parent": "vtls004594077",
        "name": "richard lumley",
        "dob": "blk",
        "age": "34",
        "place_of_birth": "aberdovey",
        "home_address": "blk",
        "f": "blk",
        "name_of_ship": "agenoria",
        "ship_port": "aberystwyth",
        "date_leaving": "remained on board previous to 30 june 1872",
        "joined_ship_date": "blk",
        "joined_at_port": "blk",
        "capacity": "mate",
        "date_left": "1872-12-11",
        "left_port": "aberdovey",
        "cause_of_leaving": "discharged",
        "sign_with_mark": "n",
        "notes": "blk"
    },
    {
        "id": "vtls004594250_0_13",
        "type": "sailor",
        "parent": "vtls004594250",
        "name": "jenkin owen",
        "dob": "blk",
        "age": "16",
        "place_of_birth": "aberdovey",
        "home_address": "blk",
        "f": "blk",
        "name_of_ship": "industry",
        "ship_port": "aberystwyth",
        "date_leaving": "dec 1872",
        "joined_ship_date": "1873-01-25",
        "joined_at_port": "aberdovey",
        "capacity": "ordinary seaman",
        "date_left": "remains on board",
        "left_port": "blk",
        "cause_of_leaving": "remains on board",
        "sign_with_mark": "n",
        "notes": "blk"
    },
    {
        "id": "vtls004594250_0_12",
        "type": "sailor",
        "parent": "vtls004594250",
        "name": "william foulkes",
        "dob": "blk",
        "age": "35",
        "place_of_birth": "aberdovey",
        "home_address": "blk",
        "f": "blk",
        "name_of_ship": "mary and elen",
        "ship_port": "[aberystwyth]",
        "date_leaving": "dec 1872",
        "joined_ship_date": "1873-01-25",
        "joined_at_port": "aberdovey",
        "capacity": "mate",
        "date_left": "1873-03-25",
        "left_port": "swansea",
        "cause_of_leaving": "discharged",
        "sign_with_mark": "n",
        "notes": "blk"
    },
    {
        "id": "vtls004594250_0_11",
        "type": "sailor",
        "parent": "vtls004594250",
        "name": "richard lumley",
        "dob": "blk",
        "age": "36",
        "place_of_birth": "aberdovey",
        "home_address": "blk",
        "f": "blk",
        "name_of_ship": "agenoria",
        "ship_port": "aberystwyth",
        "date_leaving": "1872-12-14",
        "joined_ship_date": "1873-01-25",
        "joined_at_port": "aberdovey",
        "capacity": "master",
        "date_left": "1873-03-25",
        "left_port": "swansea",
        "cause_of_leaving": "discharged",
        "sign_with_mark": "n",
        "notes": "blk"
    },
    {
        "id": "vtls004594250_1_15",
        "type": "sailor",
        "parent": "vtls004594250",
        "name": "thomas thomas",
        "dob": "blk",
        "age": "15",
        "place_of_birth": "aberystwyth",
        "home_address": "blk",
        "f": "blk",
        "name_of_ship": "margaret jane",
        "ship_port": "aberystwyth",
        "date_leaving": "1873-10-03",
        "joined_ship_date": "1873-11-24",
        "joined_at_port": "porthmadoc",
        "capacity": "ordinary seaman",
        "date_left": "remains on board",
        "left_port": "blk",
        "cause_of_leaving": "remains on board",
        "sign_with_mark": "n",
        "notes": "although stated that he 'remained on board' at end of journey, does not appear on next journey comencing 1874-01-01"
    },
    {
        "id": "vtls004594250_1_11",
        "type": "sailor",
        "parent": "vtls004594250",
        "name": "evan humphreys",
        "dob": "blk",
        "age": "42",
        "place_of_birth": "aberystwyth",
        "home_address": "blk",
        "f": "blk",
        "name_of_ship": "agenoria",
        "ship_port": "aberystwyth",
        "date_leaving": "remained on board",
        "joined_ship_date": "1873-06-30",
        "joined_at_port": "blk",
        "capacity": "master",
        "date_left": "remains on board",
        "left_port": "blk",
        "cause_of_leaving": "remains on board",
        "sign_with_mark": "n",
        "notes": "although stated that he 'remained on board' at end of journey, does not appear on next journey comencing 1874-01-01"
    },
    {
        "id": "vtls004594250_1_14",
        "type": "sailor",
        "parent": "vtls004594250",
        "name": "john jenkins",
        "dob": "blk",
        "age": "43",
        "place_of_birth": "borth",
        "home_address": "blk",
        "f": "blk",
        "name_of_ship": "[glenalvon]",
        "ship_port": "aberystwyth",
        "date_leaving": "1873-10-30",
        "joined_ship_date": "1873-11-24",
        "joined_at_port": "aberystwyth",
        "capacity": "mate",
        "date_left": "remains on board",
        "left_port": "blk",
        "cause_of_leaving": "remains on board",
        "sign_with_mark": "n",
        "notes": "although stated that he 'remained on board' at end of journey, does not appear on next journey comencing 1874-01-01"
    },
    {
        "id": "vtls004594250_1_12",
        "type": "sailor",
        "parent": "vtls004594250",
        "name": "richard lumley",
        "dob": "blk",
        "age": "37",
        "place_of_birth": "corrisof meirionydd",
        "home_address": "blk",
        "f": "blk",
        "name_of_ship": "agenoria",
        "ship_port": "aberystwyth",
        "date_leaving": "remained on board",
        "joined_ship_date": "1873-06-30",
        "joined_at_port": "blk",
        "capacity": "mate",
        "date_left": "1873-08-22",
        "left_port": "aberystwyth",
        "cause_of_leaving": "discharged",
        "sign_with_mark": "n",
        "notes": "blk"
    },
    {
        "id": "vtls004594250_1_13",
        "type": "sailor",
        "parent": "vtls004594250",
        "name": "jenkin owen",
        "dob": "blk",
        "age": "17",
        "place_of_birth": "aberdovey",
        "home_address": "blk",
        "f": "blk",
        "name_of_ship": "agenoria",
        "ship_port": "aberystwyth",
        "date_leaving": "remained on board",
        "joined_ship_date": "1873-06-30",
        "joined_at_port": "blk",
        "capacity": "ordinary seaman",
        "date_left": "1873-08-22",
        "left_port": "aberystwyth",
        "cause_of_leaving": "discharged",
        "sign_with_mark": "n",
        "notes": "blk"
    },
    {
        "id": "vtls004594250_0_14",
        "type": "sailor",
        "parent": "vtls004594250",
        "name": "evan humphreys",
        "dob": "blk",
        "age": "41",
        "place_of_birth": "aberystwyth",
        "home_address": "blk",
        "f": "blk",
        "name_of_ship": "agenoria",
        "ship_port": "aberystwyth",
        "date_leaving": "1872-12-31",
        "joined_ship_date": "1873-03-25",
        "joined_at_port": "swansea",
        "capacity": "master",
        "date_left": "remains on board",
        "left_port": "blk",
        "cause_of_leaving": "remains on board",
        "sign_with_mark": "n",
        "notes": "blk"
    },
    {
        "id": "vtls004594250_0_15",
        "type": "sailor",
        "parent": "vtls004594250",
        "name": "richard lumley",
        "dob": "blk",
        "age": "36",
        "place_of_birth": "aberdovey",
        "home_address": "blk",
        "f": "blk",
        "name_of_ship": "agenoria",
        "ship_port": "aberystwyth",
        "date_leaving": "1873-03-25",
        "joined_ship_date": "1873-03-25",
        "joined_at_port": "swansea",
        "capacity": "mate",
        "date_left": "remains on board",
        "left_port": "blk",
        "cause_of_leaving": "remains on board",
        "sign_with_mark": "n",
        "notes": "blk"
    }
]