[
    {
        "id": "vtls004656654_0_11",
        "type": "sailor",
        "parent": "vtls004656654",
        "name": "evan evans",
        "dob": "blk",
        "age": "18",
        "place_of_birth": "aberaeron",
        "home_address": "waterloo street, aberayron",
        "f": "waterloo street, aberayron",
        "name_of_ship": "ellen",
        "ship_port": "aberystwyth",
        "date_leaving": "1863-12-31",
        "joined_ship_date": "1864-01-01",
        "joined_at_port": "aberayron",
        "capacity": "master",
        "date_left": "1864-06-30",
        "left_port": "aberaeron",
        "cause_of_leaving": "remains on board",
        "sign_with_mark": "n",
        "notes": "blk"
    },
    {
        "id": "vtls004656647_0_12",
        "type": "sailor",
        "parent": "vtls004656647",
        "name": "evan benjamin jones",
        "dob": "blk",
        "age": "20",
        "place_of_birth": "tyhewyd",
        "home_address": "blk",
        "f": "blk",
        "name_of_ship": "atlanta",
        "ship_port": "aberystwyth",
        "date_leaving": "1862-$-06",
        "joined_ship_date": "1863-03-15",
        "joined_at_port": "aberayron",
        "capacity": "mate",
        "date_left": "1863-06-30",
        "left_port": "aberaeron",
        "cause_of_leaving": "remains on board",
        "sign_with_mark": "n",
        "notes": "tyhewid, also known as dyhewyd, cardiganshire"
    },
    {
        "id": "vtls004656647_1_12",
        "type": "sailor",
        "parent": "vtls004656647",
        "name": "evan benjamin jones",
        "dob": "blk",
        "age": "19",
        "place_of_birth": "cardiganshire",
        "home_address": "blk",
        "f": "blk",
        "name_of_ship": "ellen",
        "ship_port": "aberystwyth",
        "date_leaving": "1863-06-30",
        "joined_ship_date": "1863-07-01",
        "joined_at_port": "aberayron",
        "capacity": "mate",
        "date_left": "1863-12-20",
        "left_port": "aberaeron",
        "cause_of_leaving": "remains on board",
        "sign_with_mark": "n",
        "notes": "blk"
    },
    {
        "id": "vtls004656647_0_11",
        "type": "sailor",
        "parent": "vtls004656647",
        "name": "evan evans",
        "dob": "blk",
        "age": "17",
        "place_of_birth": "aberaeron",
        "home_address": "aberayron",
        "f": "aberayron",
        "name_of_ship": "ellen",
        "ship_port": "aberystwyth",
        "date_leaving": "1862-12-31",
        "joined_ship_date": "1863-01-01",
        "joined_at_port": "aberayron",
        "capacity": "master",
        "date_left": "1863-06-30",
        "left_port": "aberaeron",
        "cause_of_leaving": "remains on board",
        "sign_with_mark": "n",
        "notes": "blk"
    },
    {
        "id": "vtls004656647_1_11",
        "type": "sailor",
        "parent": "vtls004656647",
        "name": "evan evans",
        "dob": "blk",
        "age": "18",
        "place_of_birth": "aberaeron",
        "home_address": "aberayron",
        "f": "aberayron",
        "name_of_ship": "ellen",
        "ship_port": "aberystwyth",
        "date_leaving": "1863-06-30",
        "joined_ship_date": "1863-07-01",
        "joined_at_port": "aberayron",
        "capacity": "master",
        "date_left": "1863-12-31",
        "left_port": "aberaeron",
        "cause_of_leaving": "remains on board",
        "sign_with_mark": "n",
        "notes": "blk"
    },
    {
        "id": "vtls004656654_1_11",
        "type": "sailor",
        "parent": "vtls004656654",
        "name": "evan evans",
        "dob": "blk",
        "age": "18",
        "place_of_birth": "aberaeron",
        "home_address": "tabernacle street, aberayron",
        "f": "tabernacle street, aberayron",
        "name_of_ship": "ellen",
        "ship_port": "aberystwyth",
        "date_leaving": "1864-06-30",
        "joined_ship_date": "1864-07-01",
        "joined_at_port": "aberayron",
        "capacity": "master",
        "date_left": "1864-12-31",
        "left_port": "aberaeron",
        "cause_of_leaving": "remains on board",
        "sign_with_mark": "n",
        "notes": "blk"
    },
    {
        "id": "vtls004656673_0_11",
        "type": "sailor",
        "parent": "vtls004656673",
        "name": "evan evans",
        "dob": "blk",
        "age": "19",
        "place_of_birth": "aberaeron",
        "home_address": "waterloo street, aberayron",
        "f": "waterloo street, aberayron",
        "name_of_ship": "ellen",
        "ship_port": "aberystwyth",
        "date_leaving": "1865-12-31",
        "joined_ship_date": "1866-01-01",
        "joined_at_port": "aberayvon",
        "capacity": "master",
        "date_left": "1866-06-30",
        "left_port": "at sea",
        "cause_of_leaving": "remains on board",
        "sign_with_mark": "n",
        "notes": "blk"
    },
    {
        "id": "vtls004656654_0_13",
        "type": "sailor",
        "parent": "vtls004656654",
        "name": "david rees",
        "dob": "blk",
        "age": "14",
        "place_of_birth": "aberaeron",
        "home_address": "blk",
        "f": "blk",
        "name_of_ship": "first ship",
        "ship_port": "blk",
        "date_leaving": "blk",
        "joined_ship_date": "1864-06-01",
        "joined_at_port": "aberayron",
        "capacity": "mate",
        "date_left": "1864-06-30",
        "left_port": "aberaeron",
        "cause_of_leaving": "remains on board",
        "sign_with_mark": "n",
        "notes": "blk"
    },
    {
        "id": "vtls004656654_0_12",
        "type": "sailor",
        "parent": "vtls004656654",
        "name": "isaac jones",
        "dob": "blk",
        "age": "17",
        "place_of_birth": "aberaeron",
        "home_address": "blk",
        "f": "blk",
        "name_of_ship": "first ship",
        "ship_port": "blk",
        "date_leaving": "blk",
        "joined_ship_date": "1864-03-01",
        "joined_at_port": "aberayron",
        "capacity": "mate",
        "date_left": "1864-05-24",
        "left_port": "aberaeron",
        "cause_of_leaving": "discharged",
        "sign_with_mark": "n",
        "notes": "blk"
    },
    {
        "id": "vtls004656673_0_12",
        "type": "sailor",
        "parent": "vtls004656673",
        "name": "evan evans",
        "dob": "blk",
        "age": "65",
        "place_of_birth": "aberaeron",
        "home_address": "blk",
        "f": "blk",
        "name_of_ship": "ellen",
        "ship_port": "aberystwyth",
        "date_leaving": "1865-12-31",
        "joined_ship_date": "1866-01-01",
        "joined_at_port": "aberayvon",
        "capacity": "mate",
        "date_left": "1866-06-30",
        "left_port": "at sea",
        "cause_of_leaving": "remains on board",
        "sign_with_mark": "n",
        "notes": "blk"
    },
    {
        "id": "vtls004656654_1_12",
        "type": "sailor",
        "parent": "vtls004656654",
        "name": "evan evans",
        "dob": "blk",
        "age": "63",
        "place_of_birth": "aberaeron",
        "home_address": "blk",
        "f": "blk",
        "name_of_ship": "ellen",
        "ship_port": "aberystwyth",
        "date_leaving": "1864-06-30",
        "joined_ship_date": "1864-07-01",
        "joined_at_port": "aberayron",
        "capacity": "mate",
        "date_left": "1864-12-31",
        "left_port": "aberaeron",
        "cause_of_leaving": "remains on board",
        "sign_with_mark": "n",
        "notes": "blk"
    },
    {
        "id": "vtls004656673_0_13",
        "type": "sailor",
        "parent": "vtls004656673",
        "name": "james evans",
        "dob": "blk",
        "age": "12",
        "place_of_birth": "aberaeron",
        "home_address": "blk",
        "f": "blk",
        "name_of_ship": "first ship",
        "ship_port": "blk",
        "date_leaving": "blk",
        "joined_ship_date": "1866-04-04",
        "joined_at_port": "aberayvon",
        "capacity": "boy",
        "date_left": "1866-06-30",
        "left_port": "at sea",
        "cause_of_leaving": "remains on board",
        "sign_with_mark": "n",
        "notes": "blk"
    },
    {
        "id": "vtls004656654_1_13",
        "type": "sailor",
        "parent": "vtls004656654",
        "name": "john davies",
        "dob": "blk",
        "age": "13",
        "place_of_birth": "aberaeron",
        "home_address": "blk",
        "f": "blk",
        "name_of_ship": "first ship",
        "ship_port": "blk",
        "date_leaving": "blk",
        "joined_ship_date": "1864-07-01",
        "joined_at_port": "aberayron",
        "capacity": "boy",
        "date_left": "1864-11",
        "left_port": "aberaeron",
        "cause_of_leaving": "discharged",
        "sign_with_mark": "n",
        "notes": "blk"
    },
    {
        "id": "vtls004656673_1_11",
        "type": "sailor",
        "parent": "vtls004656673",
        "name": "evan evans",
        "dob": "blk",
        "age": "20",
        "place_of_birth": "aberaeron",
        "home_address": "tabernacle street, aberayron",
        "f": "tabernacle street, aberayron",
        "name_of_ship": "ellen",
        "ship_port": "aberystwyth",
        "date_leaving": "1866-06-30",
        "joined_ship_date": "1866-07-01",
        "joined_at_port": "aberystwyth",
        "capacity": "master",
        "date_left": "1866-09-11",
        "left_port": "st. brides bay",
        "cause_of_leaving": "vessel total wreck, crew discharged",
        "sign_with_mark": "n",
        "notes": "note on record, stating that the vessel was employed in the limestone trade between milford and cardigan bay."
    },
    {
        "id": "vtls004656673_1_12",
        "type": "sailor",
        "parent": "vtls004656673",
        "name": "evan evans",
        "dob": "blk",
        "age": "67",
        "place_of_birth": "aberaeron",
        "home_address": "blk",
        "f": "blk",
        "name_of_ship": "ellen",
        "ship_port": "aberystwyth",
        "date_leaving": "1866-06-30",
        "joined_ship_date": "1866-07-01",
        "joined_at_port": "aberystwyth",
        "capacity": "mate",
        "date_left": "1866-09-11",
        "left_port": "st. brides bay",
        "cause_of_leaving": "discharged",
        "sign_with_mark": "n",
        "notes": "blk"
    },
    {
        "id": "vtls004656673_1_13",
        "type": "sailor",
        "parent": "vtls004656673",
        "name": "james evans",
        "dob": "blk",
        "age": "13",
        "place_of_birth": "llanddewi aberarth",
        "home_address": "blk",
        "f": "blk",
        "name_of_ship": "ellen",
        "ship_port": "aberystwyth",
        "date_leaving": "1866-06-30",
        "joined_ship_date": "1866-07-01",
        "joined_at_port": "aberystwyth",
        "capacity": "boy",
        "date_left": "1866-09-11",
        "left_port": "st. brides bay",
        "cause_of_leaving": "discharged",
        "sign_with_mark": "n",
        "notes": "blk"
    }
]