[
    {
        "id": "vtls004927882_0_13",
        "type": "sailor",
        "parent": "vtls004927882",
        "name": "david rees",
        "dob": "blk",
        "age": "22",
        "place_of_birth": "cardigan",
        "home_address": "blk",
        "f": "blk",
        "name_of_ship": "melodia",
        "ship_port": "aberystwyth",
        "date_leaving": "1862-11-18",
        "joined_ship_date": "1862-12-19",
        "joined_at_port": "london",
        "capacity": "able seaman",
        "date_left": "1863-03-31",
        "left_port": "liverpool",
        "cause_of_leaving": "discharged",
        "sign_with_mark": "n",
        "notes": "blk"
    },
    {
        "id": "vtls004927882_0_12",
        "type": "sailor",
        "parent": "vtls004927882",
        "name": "david d davies",
        "dob": "blk",
        "age": "26",
        "place_of_birth": "cardigan",
        "home_address": "blk",
        "f": "blk",
        "name_of_ship": "melodia",
        "ship_port": "aberystwyth",
        "date_leaving": "1862-11-18",
        "joined_ship_date": "1862-12-19",
        "joined_at_port": "london",
        "capacity": "mate",
        "date_left": "1863-03-31",
        "left_port": "liverpool",
        "cause_of_leaving": "discharged",
        "sign_with_mark": "n",
        "notes": "blk"
    },
    {
        "id": "vtls004927882_0_11",
        "type": "sailor",
        "parent": "vtls004927882",
        "name": "john jones",
        "dob": "blk",
        "age": "38",
        "place_of_birth": "newquay",
        "home_address": "blk",
        "f": "blk",
        "name_of_ship": "melodia",
        "ship_port": "aberystwyth",
        "date_leaving": "blk",
        "joined_ship_date": "1862-12-19",
        "joined_at_port": "london",
        "capacity": "master",
        "date_left": "1863-03-31",
        "left_port": "blk",
        "cause_of_leaving": "remains on board",
        "sign_with_mark": "n",
        "notes": "blk"
    },
    {
        "id": "vtls004927882_0_17",
        "type": "sailor",
        "parent": "vtls004927882",
        "name": "david maclachlan",
        "dob": "blk",
        "age": "28",
        "place_of_birth": "bangor",
        "home_address": "blk",
        "f": "blk",
        "name_of_ship": "defiance",
        "ship_port": "liverpool",
        "date_leaving": "1862-12",
        "joined_ship_date": "1863-01-14",
        "joined_at_port": "ramsgate",
        "capacity": "able seaman",
        "date_left": "1863-03-31",
        "left_port": "liverpool",
        "cause_of_leaving": "discharged",
        "sign_with_mark": "n",
        "notes": "blk"
    },
    {
        "id": "vtls004927882_1_13",
        "type": "sailor",
        "parent": "vtls004927882",
        "name": "john davies",
        "dob": "blk",
        "age": "37",
        "place_of_birth": "newquay",
        "home_address": "blk",
        "f": "blk",
        "name_of_ship": "aeron queen",
        "ship_port": "aberystwyth",
        "date_leaving": "1863-04",
        "joined_ship_date": "1863-05-05",
        "joined_at_port": "liverpool",
        "capacity": "able seaman",
        "date_left": "1863-09-13",
        "left_port": "london",
        "cause_of_leaving": "discharged",
        "sign_with_mark": "n",
        "notes": "blk"
    },
    {
        "id": "vtls004927882_1_14",
        "type": "sailor",
        "parent": "vtls004927882",
        "name": "evan evans",
        "dob": "blk",
        "age": "25",
        "place_of_birth": "llanon",
        "home_address": "blk",
        "f": "blk",
        "name_of_ship": "[dinham]",
        "ship_port": "aberystwyth",
        "date_leaving": "1863-[02]",
        "joined_ship_date": "1863-05-05",
        "joined_at_port": "liverpool",
        "capacity": "able seaman",
        "date_left": "1863-09-13",
        "left_port": "london",
        "cause_of_leaving": "discharged",
        "sign_with_mark": "n",
        "notes": "blk"
    },
    {
        "id": "vtls004927882_0_14",
        "type": "sailor",
        "parent": "vtls004927882",
        "name": "william williams",
        "dob": "blk",
        "age": "22",
        "place_of_birth": "fishguard",
        "home_address": "blk",
        "f": "blk",
        "name_of_ship": "elizabeth",
        "ship_port": "sunderland",
        "date_leaving": "1862-12-17",
        "joined_ship_date": "1862-12-19",
        "joined_at_port": "london",
        "capacity": "able seaman",
        "date_left": "blk",
        "left_port": "blk",
        "cause_of_leaving": "did not join",
        "sign_with_mark": "n",
        "notes": "blk"
    },
    {
        "id": "vtls004927882_1_12",
        "type": "sailor",
        "parent": "vtls004927882",
        "name": "thomas jones",
        "dob": "blk",
        "age": "28",
        "place_of_birth": "newquay",
        "home_address": "blk",
        "f": "blk",
        "name_of_ship": "hetty ellen",
        "ship_port": "new quay",
        "date_leaving": "1863-01",
        "joined_ship_date": "1863-05-05",
        "joined_at_port": "liverpool",
        "capacity": "mate",
        "date_left": "1863-09-13",
        "left_port": "london",
        "cause_of_leaving": "discharged",
        "sign_with_mark": "n",
        "notes": "blk"
    },
    {
        "id": "vtls004927882_0_15",
        "type": "sailor",
        "parent": "vtls004927882",
        "name": "william jones",
        "dob": "blk",
        "age": "23",
        "place_of_birth": "wales",
        "home_address": "blk",
        "f": "blk",
        "name_of_ship": "kate",
        "ship_port": "london",
        "date_leaving": "1862-12-19",
        "joined_ship_date": "1862-12-20",
        "joined_at_port": "london",
        "capacity": "able seaman",
        "date_left": "1863-03-31",
        "left_port": "liverpool",
        "cause_of_leaving": "discharged",
        "sign_with_mark": "n",
        "notes": "blk"
    },
    {
        "id": "vtls004927882_0_16",
        "type": "sailor",
        "parent": "vtls004927882",
        "name": "elnhia reckman",
        "dob": "blk",
        "age": "21",
        "place_of_birth": "limerick",
        "home_address": "blk",
        "f": "blk",
        "name_of_ship": "kelso",
        "ship_port": "sheilds",
        "date_leaving": "1862-12-03",
        "joined_ship_date": "1863-12-22",
        "joined_at_port": "london",
        "capacity": "able seaman",
        "date_left": "1863-01",
        "left_port": "$",
        "cause_of_leaving": "discharged",
        "sign_with_mark": "n",
        "notes": "blk"
    },
    {
        "id": "vtls004927882_1_11",
        "type": "sailor",
        "parent": "vtls004927882",
        "name": "john jones",
        "dob": "blk",
        "age": "38",
        "place_of_birth": "aberaeron",
        "home_address": "blk",
        "f": "blk",
        "name_of_ship": "melodia",
        "ship_port": "aberystwyth",
        "date_leaving": "remained",
        "joined_ship_date": "blk",
        "joined_at_port": "blk",
        "capacity": "master",
        "date_left": "blk",
        "left_port": "blk",
        "cause_of_leaving": "remains on board",
        "sign_with_mark": "n",
        "notes": "blk"
    },
    {
        "id": "vtls004927882_0_18",
        "type": "sailor",
        "parent": "vtls004927882",
        "name": "thomas davies",
        "dob": "blk",
        "age": "blk",
        "place_of_birth": "blk",
        "home_address": "blk",
        "f": "blk",
        "name_of_ship": "blk",
        "ship_port": "blk",
        "date_leaving": "blk",
        "joined_ship_date": "1860-08-06",
        "joined_at_port": "cardiff",
        "capacity": "apprentice",
        "date_left": "blk",
        "left_port": "blk",
        "cause_of_leaving": "blk",
        "sign_with_mark": "n",
        "notes": "blk"
    },
    {
        "id": "vtls004927882_1_15",
        "type": "sailor",
        "parent": "vtls004927882",
        "name": "thomas davies",
        "dob": "blk",
        "age": "18",
        "place_of_birth": "blk",
        "home_address": "blk",
        "f": "blk",
        "name_of_ship": "blk",
        "ship_port": "blk",
        "date_leaving": "blk",
        "joined_ship_date": "1860-08-06",
        "joined_at_port": "cardiff",
        "capacity": "blk",
        "date_left": "blk",
        "left_port": "blk",
        "cause_of_leaving": "blk",
        "sign_with_mark": "blk",
        "notes": "blk"
    },
    {
        "id": "vtls004927920_0_14",
        "type": "sailor",
        "parent": "vtls004927920",
        "name": "thomas williams",
        "dob": "blk",
        "age": "24",
        "place_of_birth": "cardigan",
        "home_address": "blk",
        "f": "blk",
        "name_of_ship": "agenoria",
        "ship_port": "cardigan",
        "date_leaving": "1863-11-21",
        "joined_ship_date": "1864-11-25",
        "joined_at_port": "swansea",
        "capacity": "able seaman",
        "date_left": "1864-02-01",
        "left_port": "liverpool",
        "cause_of_leaving": "discharged",
        "sign_with_mark": "y",
        "notes": "blk"
    },
    {
        "id": "vtls004927920_0_11",
        "type": "sailor",
        "parent": "vtls004927920",
        "name": "john jones",
        "dob": "blk",
        "age": "38",
        "place_of_birth": "newquay",
        "home_address": "blk",
        "f": "blk",
        "name_of_ship": "melodia",
        "ship_port": "aberystwyth",
        "date_leaving": "continued",
        "joined_ship_date": "1863-11-23",
        "joined_at_port": "swansea",
        "capacity": "master",
        "date_left": "1864-02-01",
        "left_port": "liverpool",
        "cause_of_leaving": "remains on board",
        "sign_with_mark": "n",
        "notes": "blk"
    },
    {
        "id": "vtls004927920_0_13",
        "type": "sailor",
        "parent": "vtls004927920",
        "name": "john davies",
        "dob": "blk",
        "age": "26",
        "place_of_birth": "newquay",
        "home_address": "blk",
        "f": "blk",
        "name_of_ship": "melodia",
        "ship_port": "aberystwyth",
        "date_leaving": "continued",
        "joined_ship_date": "1864-11-23",
        "joined_at_port": "swansea",
        "capacity": "able seaman",
        "date_left": "1864-02-01",
        "left_port": "liverpool",
        "cause_of_leaving": "discharged",
        "sign_with_mark": "n",
        "notes": "blk"
    },
    {
        "id": "vtls004927920_0_15",
        "type": "sailor",
        "parent": "vtls004927920",
        "name": "jake davies",
        "dob": "blk",
        "age": "33",
        "place_of_birth": "newport",
        "home_address": "blk",
        "f": "blk",
        "name_of_ship": "agenoria",
        "ship_port": "cardigan",
        "date_leaving": "1863-11-21",
        "joined_ship_date": "1864-11-25",
        "joined_at_port": "swansea",
        "capacity": "able seaman",
        "date_left": "1865-02-01",
        "left_port": "liverpool",
        "cause_of_leaving": "discharged",
        "sign_with_mark": "y",
        "notes": "blk"
    },
    {
        "id": "vtls004927920_0_12",
        "type": "sailor",
        "parent": "vtls004927920",
        "name": "john jones",
        "dob": "blk",
        "age": "29",
        "place_of_birth": "newquay",
        "home_address": "blk",
        "f": "blk",
        "name_of_ship": "berlin",
        "ship_port": "aberystwyth",
        "date_leaving": "1863-08-28",
        "joined_ship_date": "1863-11-23",
        "joined_at_port": "swansea",
        "capacity": "mate",
        "date_left": "1864-02-01",
        "left_port": "liverpool",
        "cause_of_leaving": "discharged",
        "sign_with_mark": "n",
        "notes": "blk"
    },
    {
        "id": "vtls004927920_1_11",
        "type": "sailor",
        "parent": "vtls004927920",
        "name": "john jones",
        "dob": "blk",
        "age": "38",
        "place_of_birth": "newquay",
        "home_address": "blk",
        "f": "blk",
        "name_of_ship": "melodia",
        "ship_port": "aberystwyth",
        "date_leaving": "remains",
        "joined_ship_date": "blk",
        "joined_at_port": "blk",
        "capacity": "master",
        "date_left": "1864-07-05",
        "left_port": "blk",
        "cause_of_leaving": "remains on board",
        "sign_with_mark": "n",
        "notes": "blk"
    },
    {
        "id": "vtls004927920_0_16",
        "type": "sailor",
        "parent": "vtls004927920",
        "name": "john davies",
        "dob": "blk",
        "age": "16",
        "place_of_birth": "blk",
        "home_address": "blk",
        "f": "blk",
        "name_of_ship": "blk",
        "ship_port": "blk",
        "date_leaving": "blk",
        "joined_ship_date": "1863-11-23",
        "joined_at_port": "swansea",
        "capacity": "apprentice",
        "date_left": "blk",
        "left_port": "blk",
        "cause_of_leaving": "blk",
        "sign_with_mark": "n",
        "notes": "blk"
    },
    {
        "id": "vtls004927920_2_15",
        "type": "sailor",
        "parent": "vtls004927920",
        "name": "william griffiths",
        "dob": "blk",
        "age": "21",
        "place_of_birth": "cardigan",
        "home_address": "blk",
        "f": "blk",
        "name_of_ship": "[jane mary]",
        "ship_port": "blk",
        "date_leaving": "1864-08-07",
        "joined_ship_date": "1864-08-20",
        "joined_at_port": "cardiff",
        "capacity": "ordinary seaman",
        "date_left": "1864-12-10",
        "left_port": "liverpool",
        "cause_of_leaving": "discharged",
        "sign_with_mark": "n",
        "notes": "blk"
    },
    {
        "id": "vtls004927920_2_13",
        "type": "sailor",
        "parent": "vtls004927920",
        "name": "evan jones",
        "dob": "blk",
        "age": "25",
        "place_of_birth": "newquay",
        "home_address": "blk",
        "f": "blk",
        "name_of_ship": "melodia",
        "ship_port": "aberystwyth",
        "date_leaving": "remains",
        "joined_ship_date": "1864-08-20",
        "joined_at_port": "cardiff",
        "capacity": "able seaman",
        "date_left": "1864-12-10",
        "left_port": "liverpool",
        "cause_of_leaving": "discharged",
        "sign_with_mark": "n",
        "notes": "blk"
    },
    {
        "id": "vtls004927920_2_14",
        "type": "sailor",
        "parent": "vtls004927920",
        "name": "evan owens",
        "dob": "blk",
        "age": "30",
        "place_of_birth": "cardigan",
        "home_address": "blk",
        "f": "blk",
        "name_of_ship": "melodia",
        "ship_port": "aberystwyth",
        "date_leaving": "remains",
        "joined_ship_date": "1864-08-20",
        "joined_at_port": "cardiff",
        "capacity": "able seaman",
        "date_left": "1864-12-10",
        "left_port": "liverpool",
        "cause_of_leaving": "discharged",
        "sign_with_mark": "n",
        "notes": "blk"
    },
    {
        "id": "vtls004927920_1_15",
        "type": "sailor",
        "parent": "vtls004927920",
        "name": "john bowen",
        "dob": "blk",
        "age": "17",
        "place_of_birth": "pembroke",
        "home_address": "blk",
        "f": "blk",
        "name_of_ship": "rosina",
        "ship_port": "aberystwyth",
        "date_leaving": "1863-02-27",
        "joined_ship_date": "1864-03-18",
        "joined_at_port": "cardiff",
        "capacity": "ordinary seaman",
        "date_left": "1864-07-05",
        "left_port": "blk",
        "cause_of_leaving": "discharged",
        "sign_with_mark": "n",
        "notes": "blk"
    },
    {
        "id": "vtls004927920_2_11",
        "type": "sailor",
        "parent": "vtls004927920",
        "name": "john jones",
        "dob": "blk",
        "age": "blk",
        "place_of_birth": "newquay",
        "home_address": "blk",
        "f": "blk",
        "name_of_ship": "melodia",
        "ship_port": "aberystwyth",
        "date_leaving": "remains",
        "joined_ship_date": "1864-08",
        "joined_at_port": "cardiff",
        "capacity": "master",
        "date_left": "1864-12-10",
        "left_port": "liverpool",
        "cause_of_leaving": "remains on board",
        "sign_with_mark": "n",
        "notes": "blk"
    },
    {
        "id": "vtls004927920_1_14",
        "type": "sailor",
        "parent": "vtls004927920",
        "name": "evan owens",
        "dob": "blk",
        "age": "19",
        "place_of_birth": "cardigan",
        "home_address": "blk",
        "f": "blk",
        "name_of_ship": "ellen owen",
        "ship_port": "new quay",
        "date_leaving": "1863-02-01",
        "joined_ship_date": "1864-03-18",
        "joined_at_port": "cardiff",
        "capacity": "able seaman",
        "date_left": "1864-07-05",
        "left_port": "blk",
        "cause_of_leaving": "discharged",
        "sign_with_mark": "n",
        "notes": "blk"
    },
    {
        "id": "vtls004927920_2_12",
        "type": "sailor",
        "parent": "vtls004927920",
        "name": "john jones",
        "dob": "blk",
        "age": "30",
        "place_of_birth": "cardigan",
        "home_address": "blk",
        "f": "blk",
        "name_of_ship": "melodia",
        "ship_port": "aberystwyth",
        "date_leaving": "remains",
        "joined_ship_date": "1864-08-20",
        "joined_at_port": "cardiff",
        "capacity": "mate",
        "date_left": "1864-12-10",
        "left_port": "liverpool",
        "cause_of_leaving": "discharged",
        "sign_with_mark": "n",
        "notes": "blk"
    },
    {
        "id": "vtls004927920_1_13",
        "type": "sailor",
        "parent": "vtls004927920",
        "name": "evan jones",
        "dob": "blk",
        "age": "25",
        "place_of_birth": "newquay",
        "home_address": "blk",
        "f": "blk",
        "name_of_ship": "[clarence]",
        "ship_port": "fleetwood",
        "date_leaving": "1863",
        "joined_ship_date": "1864-03-18",
        "joined_at_port": "cardiff",
        "capacity": "able seaman",
        "date_left": "1864-07-05",
        "left_port": "blk",
        "cause_of_leaving": "discharged",
        "sign_with_mark": "n",
        "notes": "blk"
    },
    {
        "id": "vtls004927920_1_12",
        "type": "sailor",
        "parent": "vtls004927920",
        "name": "john jones",
        "dob": "blk",
        "age": "30",
        "place_of_birth": "cardigan",
        "home_address": "blk",
        "f": "blk",
        "name_of_ship": "melodia",
        "ship_port": "aberystwyth",
        "date_leaving": "remains",
        "joined_ship_date": "1864-03-18",
        "joined_at_port": "cardiff",
        "capacity": "mate",
        "date_left": "1864-07-05",
        "left_port": "blk",
        "cause_of_leaving": "discharged",
        "sign_with_mark": "n",
        "notes": "blk"
    },
    {
        "id": "vtls004927920_1_16",
        "type": "sailor",
        "parent": "vtls004927920",
        "name": "john davies",
        "dob": "blk",
        "age": "17",
        "place_of_birth": "blk",
        "home_address": "blk",
        "f": "blk",
        "name_of_ship": "blk",
        "ship_port": "blk",
        "date_leaving": "blk",
        "joined_ship_date": "1863-11-23",
        "joined_at_port": "swansea",
        "capacity": "apprentice",
        "date_left": "blk",
        "left_port": "blk",
        "cause_of_leaving": "blk",
        "sign_with_mark": "n",
        "notes": "blk"
    },
    {
        "id": "vtls004927985_0_15",
        "type": "sailor",
        "parent": "vtls004927985",
        "name": "david williams",
        "dob": "blk",
        "age": "20",
        "place_of_birth": "newquay",
        "home_address": "blk",
        "f": "blk",
        "name_of_ship": "melodia",
        "ship_port": "aberystwyth",
        "date_leaving": "remaining",
        "joined_ship_date": "1867-03-07",
        "joined_at_port": "cardiff",
        "capacity": "ordinary seaman",
        "date_left": "1867-06",
        "left_port": "liverpool",
        "cause_of_leaving": "discharged",
        "sign_with_mark": "n",
        "notes": "blk"
    },
    {
        "id": "vtls004927985_0_14",
        "type": "sailor",
        "parent": "vtls004927985",
        "name": "jenkin evans",
        "dob": "blk",
        "age": "22",
        "place_of_birth": "newquay",
        "home_address": "blk",
        "f": "blk",
        "name_of_ship": "mountain lass",
        "ship_port": "aberayron",
        "date_leaving": "1866-10-20",
        "joined_ship_date": "1867-03-07",
        "joined_at_port": "cardiff",
        "capacity": "able seaman",
        "date_left": "1867-06",
        "left_port": "liverpool",
        "cause_of_leaving": "discharged",
        "sign_with_mark": "n",
        "notes": "blk"
    },
    {
        "id": "vtls004927985_0_13",
        "type": "sailor",
        "parent": "vtls004927985",
        "name": "evan jones",
        "dob": "blk",
        "age": "29",
        "place_of_birth": "newquay",
        "home_address": "blk",
        "f": "blk",
        "name_of_ship": "aeron vale",
        "ship_port": "aberayron",
        "date_leaving": "1866-06-15",
        "joined_ship_date": "1867-03-07",
        "joined_at_port": "cardiff",
        "capacity": "able seaman",
        "date_left": "1867-06",
        "left_port": "liverpool",
        "cause_of_leaving": "discharged",
        "sign_with_mark": "n",
        "notes": "blk"
    },
    {
        "id": "vtls004927985_0_11",
        "type": "sailor",
        "parent": "vtls004927985",
        "name": "john jones",
        "dob": "blk",
        "age": "42",
        "place_of_birth": "newquay",
        "home_address": "blk",
        "f": "blk",
        "name_of_ship": "melodia",
        "ship_port": "aberystwyth",
        "date_leaving": "remaining",
        "joined_ship_date": "1867-03-07",
        "joined_at_port": "cardiff",
        "capacity": "master",
        "date_left": "1867-06",
        "left_port": "liverpool",
        "cause_of_leaving": "remains on board",
        "sign_with_mark": "n",
        "notes": "blk"
    },
    {
        "id": "vtls004927920_2_16",
        "type": "sailor",
        "parent": "vtls004927920",
        "name": "william michael",
        "dob": "blk",
        "age": "15",
        "place_of_birth": "mumbles",
        "home_address": "blk",
        "f": "blk",
        "name_of_ship": "[empire]",
        "ship_port": "cardiff",
        "date_leaving": "1864-[07-20]",
        "joined_ship_date": "1864-08-20",
        "joined_at_port": "cardiff",
        "capacity": "boy",
        "date_left": "1864-12-10",
        "left_port": "liverpool",
        "cause_of_leaving": "discharged",
        "sign_with_mark": "n",
        "notes": "blk"
    },
    {
        "id": "vtls004927985_0_16",
        "type": "sailor",
        "parent": "vtls004927985",
        "name": "david kinnon",
        "dob": "blk",
        "age": "18",
        "place_of_birth": "glasgow",
        "home_address": "blk",
        "f": "blk",
        "name_of_ship": "queen",
        "ship_port": "chepstow",
        "date_leaving": "1867-02-24",
        "joined_ship_date": "1867-03-07",
        "joined_at_port": "cardiff",
        "capacity": "cook",
        "date_left": "1867-06",
        "left_port": "liverpool",
        "cause_of_leaving": "discharged",
        "sign_with_mark": "y",
        "notes": "blk"
    },
    {
        "id": "vtls004927985_1_11",
        "type": "sailor",
        "parent": "vtls004927985",
        "name": "john jones",
        "dob": "blk",
        "age": "43",
        "place_of_birth": "newquay",
        "home_address": "blk",
        "f": "blk",
        "name_of_ship": "melodia",
        "ship_port": "aberystwyth",
        "date_leaving": "remaining",
        "joined_ship_date": "blk",
        "joined_at_port": "blk",
        "capacity": "master",
        "date_left": "blk",
        "left_port": "blk",
        "cause_of_leaving": "remains on board",
        "sign_with_mark": "n",
        "notes": "blk"
    },
    {
        "id": "vtls004927985_1_15",
        "type": "sailor",
        "parent": "vtls004927985",
        "name": "david williams",
        "dob": "blk",
        "age": "19",
        "place_of_birth": "cardigan",
        "home_address": "blk",
        "f": "blk",
        "name_of_ship": "melodia",
        "ship_port": "aberystwyth",
        "date_leaving": "remaining",
        "joined_ship_date": "1867-01-03",
        "joined_at_port": "dublin",
        "capacity": "ordinary seaman",
        "date_left": "1867-02-19",
        "left_port": "cardiff",
        "cause_of_leaving": "[reshipped $ foreign]",
        "sign_with_mark": "n",
        "notes": "blk"
    },
    {
        "id": "vtls004927985_1_14",
        "type": "sailor",
        "parent": "vtls004927985",
        "name": "david d davies",
        "dob": "blk",
        "age": "21",
        "place_of_birth": "cardigan",
        "home_address": "blk",
        "f": "blk",
        "name_of_ship": "melodia",
        "ship_port": "aberystwyth",
        "date_leaving": "remaining",
        "joined_ship_date": "1867-01-03",
        "joined_at_port": "dublin",
        "capacity": "able seaman",
        "date_left": "1867-02-19",
        "left_port": "cardiff",
        "cause_of_leaving": "[reshipped $ foreign]",
        "sign_with_mark": "y",
        "notes": "blk"
    },
    {
        "id": "vtls004927985_1_20",
        "type": "sailor",
        "parent": "vtls004927985",
        "name": "joseph carlin",
        "dob": "blk",
        "age": "19",
        "place_of_birth": "west india",
        "home_address": "blk",
        "f": "blk",
        "name_of_ship": "john & mary",
        "ship_port": "newquay",
        "date_leaving": "1867-06-10",
        "joined_ship_date": "1867-06-12",
        "joined_at_port": "liverpool",
        "capacity": "ordinary seaman",
        "date_left": "1867-07-09",
        "left_port": "cardiff",
        "cause_of_leaving": "discharged",
        "sign_with_mark": "y",
        "notes": "blk"
    },
    {
        "id": "vtls004927985_1_13",
        "type": "sailor",
        "parent": "vtls004927985",
        "name": "david rees",
        "dob": "blk",
        "age": "24",
        "place_of_birth": "cardigan",
        "home_address": "blk",
        "f": "blk",
        "name_of_ship": "melodia",
        "ship_port": "aberystwyth",
        "date_leaving": "remaining",
        "joined_ship_date": "1867-01-03",
        "joined_at_port": "dublin",
        "capacity": "able seaman",
        "date_left": "1867-02-19",
        "left_port": "cardiff",
        "cause_of_leaving": "[reshipped $ foreign]",
        "sign_with_mark": "n",
        "notes": "blk"
    },
    {
        "id": "vtls004927985_1_16",
        "type": "sailor",
        "parent": "vtls004927985",
        "name": "william jones",
        "dob": "blk",
        "age": "15",
        "place_of_birth": "cardigan",
        "home_address": "blk",
        "f": "blk",
        "name_of_ship": "melodia",
        "ship_port": "aberystwyth",
        "date_leaving": "remaining",
        "joined_ship_date": "1867-01-03",
        "joined_at_port": "dublin",
        "capacity": "boy",
        "date_left": "1867-02-19",
        "left_port": "cardiff",
        "cause_of_leaving": "[reshipped $ foreign]",
        "sign_with_mark": "n",
        "notes": "blk"
    },
    {
        "id": "vtls004927985_1_19",
        "type": "sailor",
        "parent": "vtls004927985",
        "name": "evan jones",
        "dob": "blk",
        "age": "27",
        "place_of_birth": "cardigan",
        "home_address": "blk",
        "f": "blk",
        "name_of_ship": "melodia",
        "ship_port": "aberystwyth",
        "date_leaving": "remaining",
        "joined_ship_date": "1867-06-12",
        "joined_at_port": "liverpool",
        "capacity": "able seaman",
        "date_left": "1867-07-09",
        "left_port": "cardiff",
        "cause_of_leaving": "discharged",
        "sign_with_mark": "n",
        "notes": "blk"
    },
    {
        "id": "vtls004927985_1_21",
        "type": "sailor",
        "parent": "vtls004927985",
        "name": "john m lellan",
        "dob": "blk",
        "age": "20",
        "place_of_birth": "liverpool",
        "home_address": "blk",
        "f": "blk",
        "name_of_ship": "asia",
        "ship_port": "liverpool",
        "date_leaving": "1867-06-06",
        "joined_ship_date": "1867-06-12",
        "joined_at_port": "liverpool",
        "capacity": "ordinary seaman",
        "date_left": "1867-07-09",
        "left_port": "cardiff",
        "cause_of_leaving": "discharged",
        "sign_with_mark": "n",
        "notes": "blk"
    },
    {
        "id": "vtls004927985_1_18",
        "type": "sailor",
        "parent": "vtls004927985",
        "name": "david williams",
        "dob": "blk",
        "age": "20",
        "place_of_birth": "cardigan",
        "home_address": "blk",
        "f": "blk",
        "name_of_ship": "melodia",
        "ship_port": "aberystwyth",
        "date_leaving": "remaining",
        "joined_ship_date": "1867-06-12",
        "joined_at_port": "liverpool",
        "capacity": "able seaman",
        "date_left": "blk",
        "left_port": "blk",
        "cause_of_leaving": "still remaining",
        "sign_with_mark": "y",
        "notes": "blk"
    },
    {
        "id": "vtls004927985_2_13",
        "type": "sailor",
        "parent": "vtls004927985",
        "name": "evan jones",
        "dob": "blk",
        "age": "29",
        "place_of_birth": "newquay",
        "home_address": "blk",
        "f": "blk",
        "name_of_ship": "melodia",
        "ship_port": "aberystwyth",
        "date_leaving": "remains",
        "joined_ship_date": "1867-07-29",
        "joined_at_port": "blk",
        "capacity": "boatswain",
        "date_left": "1867-12-28",
        "left_port": "lowestofte",
        "cause_of_leaving": "discharged",
        "sign_with_mark": "n",
        "notes": "blk"
    },
    {
        "id": "vtls004927985_2_11",
        "type": "sailor",
        "parent": "vtls004927985",
        "name": "john jones",
        "dob": "blk",
        "age": "43",
        "place_of_birth": "aberaeron",
        "home_address": "blk",
        "f": "blk",
        "name_of_ship": "melodia",
        "ship_port": "aberystwyth",
        "date_leaving": "remains",
        "joined_ship_date": "blk",
        "joined_at_port": "blk",
        "capacity": "master",
        "date_left": "blk",
        "left_port": "blk",
        "cause_of_leaving": "remains",
        "sign_with_mark": "n",
        "notes": "blk"
    },
    {
        "id": "vtls004928055_0_15",
        "type": "sailor",
        "parent": "vtls004928055",
        "name": "david d davies",
        "dob": "blk",
        "age": "19",
        "place_of_birth": "newquay",
        "home_address": "blk",
        "f": "blk",
        "name_of_ship": "elizabeth jane",
        "ship_port": "aberystwyth",
        "date_leaving": "1867-10-29",
        "joined_ship_date": "1868-03-19",
        "joined_at_port": "neath",
        "capacity": "able seaman",
        "date_left": "1868-05-20",
        "left_port": "runcorn",
        "cause_of_leaving": "paid off",
        "sign_with_mark": "n",
        "notes": "blk"
    },
    {
        "id": "vtls004927985_2_15",
        "type": "sailor",
        "parent": "vtls004927985",
        "name": "david williams",
        "dob": "blk",
        "age": "20",
        "place_of_birth": "newquay",
        "home_address": "blk",
        "f": "blk",
        "name_of_ship": "melodia",
        "ship_port": "aberystwyth",
        "date_leaving": "remains",
        "joined_ship_date": "1867-07-29",
        "joined_at_port": "blk",
        "capacity": "able seaman",
        "date_left": "1867-12-28",
        "left_port": "lowestofte",
        "cause_of_leaving": "discharged",
        "sign_with_mark": "n",
        "notes": "blk"
    },
    {
        "id": "vtls004928055_0_11",
        "type": "sailor",
        "parent": "vtls004928055",
        "name": "john jones",
        "dob": "blk",
        "age": "43",
        "place_of_birth": "newquay",
        "home_address": "blk",
        "f": "blk",
        "name_of_ship": "melodia",
        "ship_port": "aberystwyth",
        "date_leaving": "continued",
        "joined_ship_date": "continued",
        "joined_at_port": "continued",
        "capacity": "master",
        "date_left": "1868-05-26",
        "left_port": "runcorn",
        "cause_of_leaving": "remains on board",
        "sign_with_mark": "n",
        "notes": "blk"
    },
    {
        "id": "vtls004928055_0_14",
        "type": "sailor",
        "parent": "vtls004928055",
        "name": "thomas evans",
        "dob": "blk",
        "age": "20",
        "place_of_birth": "newquay",
        "home_address": "blk",
        "f": "blk",
        "name_of_ship": "[truant]",
        "ship_port": "aberystwyth",
        "date_leaving": "1868-01-07",
        "joined_ship_date": "1868-03-19",
        "joined_at_port": "neath",
        "capacity": "able seaman",
        "date_left": "1868-05-20",
        "left_port": "runcorn",
        "cause_of_leaving": "paid off",
        "sign_with_mark": "n",
        "notes": "blk"
    },
    {
        "id": "vtls004928055_0_13",
        "type": "sailor",
        "parent": "vtls004928055",
        "name": "evan jones",
        "dob": "blk",
        "age": "29",
        "place_of_birth": "newquay",
        "home_address": "blk",
        "f": "blk",
        "name_of_ship": "melodia",
        "ship_port": "aberystwyth",
        "date_leaving": "1868-03-19",
        "joined_ship_date": "1868-03-19",
        "joined_at_port": "neath",
        "capacity": "able seaman",
        "date_left": "1868-05-20",
        "left_port": "runcorn",
        "cause_of_leaving": "paid off",
        "sign_with_mark": "n",
        "notes": "blk"
    },
    {
        "id": "vtls004927985_2_14",
        "type": "sailor",
        "parent": "vtls004927985",
        "name": "david lewis",
        "dob": "blk",
        "age": "26",
        "place_of_birth": "cardigan",
        "home_address": "blk",
        "f": "blk",
        "name_of_ship": "henry holman",
        "ship_port": "plymouth",
        "date_leaving": "1867-07-15",
        "joined_ship_date": "1867-07-29",
        "joined_at_port": "blk",
        "capacity": "able seaman",
        "date_left": "1867-12-28",
        "left_port": "lowestofte",
        "cause_of_leaving": "discharged",
        "sign_with_mark": "n",
        "notes": "blk"
    },
    {
        "id": "vtls004927985_2_16",
        "type": "sailor",
        "parent": "vtls004927985",
        "name": "david d davies",
        "dob": "blk",
        "age": "15",
        "place_of_birth": "blk",
        "home_address": "blk",
        "f": "blk",
        "name_of_ship": "blk",
        "ship_port": "blk",
        "date_leaving": "blk",
        "joined_ship_date": "1867-07-29",
        "joined_at_port": "blk",
        "capacity": "apprentice",
        "date_left": "blk",
        "left_port": "blk",
        "cause_of_leaving": "blk",
        "sign_with_mark": "n",
        "notes": "blk"
    },
    {
        "id": "vtls004928055_1_15",
        "type": "sailor",
        "parent": "vtls004928055",
        "name": "thomas $harton",
        "dob": "blk",
        "age": "19",
        "place_of_birth": "liverpool",
        "home_address": "blk",
        "f": "blk",
        "name_of_ship": "henry",
        "ship_port": "plymouth",
        "date_leaving": "1868-05-01",
        "joined_ship_date": "1868-06-11",
        "joined_at_port": "liverpool",
        "capacity": "ordinary seaman",
        "date_left": "1868-10-08",
        "left_port": "hull",
        "cause_of_leaving": "discharged",
        "sign_with_mark": "n",
        "notes": "blk"
    },
    {
        "id": "vtls004928055_1_14",
        "type": "sailor",
        "parent": "vtls004928055",
        "name": "thomas evans",
        "dob": "blk",
        "age": "20",
        "place_of_birth": "newquay",
        "home_address": "blk",
        "f": "blk",
        "name_of_ship": "melodia",
        "ship_port": "aberystwyth",
        "date_leaving": "1868-05",
        "joined_ship_date": "1868-06-10",
        "joined_at_port": "liverpool",
        "capacity": "able seaman",
        "date_left": "1868-10-08",
        "left_port": "hull",
        "cause_of_leaving": "discharged",
        "sign_with_mark": "n",
        "notes": "blk"
    },
    {
        "id": "vtls004928055_1_13",
        "type": "sailor",
        "parent": "vtls004928055",
        "name": "evan jones",
        "dob": "blk",
        "age": "28",
        "place_of_birth": "newquay",
        "home_address": "blk",
        "f": "blk",
        "name_of_ship": "melodia",
        "ship_port": "aberystwyth",
        "date_leaving": "1868-05",
        "joined_ship_date": "1868-06-10",
        "joined_at_port": "liverpool",
        "capacity": "able seaman",
        "date_left": "1868-10-08",
        "left_port": "hull",
        "cause_of_leaving": "discharged",
        "sign_with_mark": "n",
        "notes": "blk"
    },
    {
        "id": "vtls004928055_2_15",
        "type": "sailor",
        "parent": "vtls004928055",
        "name": "john rees",
        "dob": "blk",
        "age": "17",
        "place_of_birth": "cardigan",
        "home_address": "blk",
        "f": "blk",
        "name_of_ship": "melodia",
        "ship_port": "aberystwyth",
        "date_leaving": "remaining",
        "joined_ship_date": "1868-10-17",
        "joined_at_port": "hull",
        "capacity": "ordinary seaman",
        "date_left": "blk",
        "left_port": "blk",
        "cause_of_leaving": "remains on board",
        "sign_with_mark": "n",
        "notes": "blk"
    },
    {
        "id": "vtls004928055_2_13",
        "type": "sailor",
        "parent": "vtls004928055",
        "name": "evan jones",
        "dob": "blk",
        "age": "29",
        "place_of_birth": "cardigan",
        "home_address": "blk",
        "f": "blk",
        "name_of_ship": "melodia",
        "ship_port": "aberystwyth",
        "date_leaving": "remaining",
        "joined_ship_date": "1868-10-17",
        "joined_at_port": "hull",
        "capacity": "able seaman",
        "date_left": "blk",
        "left_port": "blk",
        "cause_of_leaving": "remains on board",
        "sign_with_mark": "n",
        "notes": "blk"
    },
    {
        "id": "vtls004928055_2_16",
        "type": "sailor",
        "parent": "vtls004928055",
        "name": "david d davies",
        "dob": "blk",
        "age": "18",
        "place_of_birth": "newquay",
        "home_address": "blk",
        "f": "blk",
        "name_of_ship": "blk",
        "ship_port": "blk",
        "date_leaving": "blk",
        "joined_ship_date": "blk",
        "joined_at_port": "blk",
        "capacity": "apprentice",
        "date_left": "blk",
        "left_port": "blk",
        "cause_of_leaving": "blk",
        "sign_with_mark": "n",
        "notes": "registry of indenture - date of 1867-07-28 - port of cardiff"
    },
    {
        "id": "vtls004928055_0_16",
        "type": "sailor",
        "parent": "vtls004928055",
        "name": "david d davies",
        "dob": "blk",
        "age": "17",
        "place_of_birth": "blk",
        "home_address": "blk",
        "f": "blk",
        "name_of_ship": "blk",
        "ship_port": "blk",
        "date_leaving": "blk",
        "joined_ship_date": "blk",
        "joined_at_port": "blk",
        "capacity": "apprentice",
        "date_left": "blk",
        "left_port": "blk",
        "cause_of_leaving": "blk",
        "sign_with_mark": "blk",
        "notes": "registry of indenture - date of 1867-07-29 - port of cardiff"
    },
    {
        "id": "vtls004928055_2_11",
        "type": "sailor",
        "parent": "vtls004928055",
        "name": "john jones",
        "dob": "blk",
        "age": "45",
        "place_of_birth": "newquay",
        "home_address": "blk",
        "f": "blk",
        "name_of_ship": "melodia",
        "ship_port": "aberystwyth",
        "date_leaving": "remaining",
        "joined_ship_date": "1868-10-17",
        "joined_at_port": "hull",
        "capacity": "master",
        "date_left": "blk",
        "left_port": "blk",
        "cause_of_leaving": "remains on board",
        "sign_with_mark": "n",
        "notes": "blk"
    },
    {
        "id": "vtls004928055_1_16",
        "type": "sailor",
        "parent": "vtls004928055",
        "name": "david davis",
        "dob": "blk",
        "age": "15",
        "place_of_birth": "blk",
        "home_address": "blk",
        "f": "blk",
        "name_of_ship": "blk",
        "ship_port": "blk",
        "date_leaving": "blk",
        "joined_ship_date": "blk",
        "joined_at_port": "blk",
        "capacity": "apprentice",
        "date_left": "blk",
        "left_port": "blk",
        "cause_of_leaving": "blk",
        "sign_with_mark": "n",
        "notes": "registry of indenture - date of 1867-07-29 - port of cardiff"
    },
    {
        "id": "vtls004928055_1_11",
        "type": "sailor",
        "parent": "vtls004928055",
        "name": "john jones",
        "dob": "blk",
        "age": "44",
        "place_of_birth": "newquay",
        "home_address": "blk",
        "f": "blk",
        "name_of_ship": "melodia",
        "ship_port": "aberystwyth",
        "date_leaving": "remained",
        "joined_ship_date": "blk",
        "joined_at_port": "blk",
        "capacity": "master",
        "date_left": "blk",
        "left_port": "blk",
        "cause_of_leaving": "remains on board",
        "sign_with_mark": "n",
        "notes": "blk"
    },
    {
        "id": "vtls004928060_1_13",
        "type": "sailor",
        "parent": "vtls004928060",
        "name": "evan jones",
        "dob": "blk",
        "age": "27",
        "place_of_birth": "newquay",
        "home_address": "blk",
        "f": "blk",
        "name_of_ship": "melodia",
        "ship_port": "aberystwyth",
        "date_leaving": "1869-05-13",
        "joined_ship_date": "1869-05-29",
        "joined_at_port": "liverpool",
        "capacity": "able seaman",
        "date_left": "1869-06-30",
        "left_port": "at sea",
        "cause_of_leaving": "remains on board",
        "sign_with_mark": "n",
        "notes": "blk"
    },
    {
        "id": "vtls004928060_0_16",
        "type": "sailor",
        "parent": "vtls004928060",
        "name": "peter bolton",
        "dob": "blk",
        "age": "18",
        "place_of_birth": "blk",
        "home_address": "blk",
        "f": "blk",
        "name_of_ship": "blk",
        "ship_port": "blk",
        "date_leaving": "blk",
        "joined_ship_date": "blk",
        "joined_at_port": "blk",
        "capacity": "apprentice",
        "date_left": "blk",
        "left_port": "blk",
        "cause_of_leaving": "remains on board",
        "sign_with_mark": "n",
        "notes": "registry of indenture - date of 1869-03-01 - port of cardiff"
    },
    {
        "id": "vtls004928060_0_14",
        "type": "sailor",
        "parent": "vtls004928060",
        "name": "jenkin phillips",
        "dob": "blk",
        "age": "32",
        "place_of_birth": "newquay",
        "home_address": "blk",
        "f": "blk",
        "name_of_ship": "mary ann",
        "ship_port": "newquay",
        "date_leaving": "1869-02-27",
        "joined_ship_date": "1869-03-01",
        "joined_at_port": "cardiff",
        "capacity": "able seaman",
        "date_left": "1869-05-11",
        "left_port": "liverpool",
        "cause_of_leaving": "discharged",
        "sign_with_mark": "n",
        "notes": "blk"
    },
    {
        "id": "vtls004928060_1_11",
        "type": "sailor",
        "parent": "vtls004928060",
        "name": "john jones",
        "dob": "blk",
        "age": "45",
        "place_of_birth": "newquay",
        "home_address": "blk",
        "f": "blk",
        "name_of_ship": "melodia",
        "ship_port": "aberystwyth",
        "date_leaving": "1869-05-13",
        "joined_ship_date": "1869-05-29",
        "joined_at_port": "liverpool",
        "capacity": "master",
        "date_left": "1869-06-30",
        "left_port": "at sea",
        "cause_of_leaving": "remains on board",
        "sign_with_mark": "n",
        "notes": "blk"
    },
    {
        "id": "vtls004928060_0_11",
        "type": "sailor",
        "parent": "vtls004928060",
        "name": "john jones",
        "dob": "blk",
        "age": "45",
        "place_of_birth": "newquay",
        "home_address": "blk",
        "f": "blk",
        "name_of_ship": "melodia",
        "ship_port": "aberystwyth",
        "date_leaving": "remained",
        "joined_ship_date": "1869-03-01",
        "joined_at_port": "cardiff",
        "capacity": "master",
        "date_left": "1869-05-11",
        "left_port": "liverpool",
        "cause_of_leaving": "remains on board",
        "sign_with_mark": "n",
        "notes": "blk"
    },
    {
        "id": "vtls004928060_0_13",
        "type": "sailor",
        "parent": "vtls004928060",
        "name": "evan jones",
        "dob": "blk",
        "age": "30",
        "place_of_birth": "newquay",
        "home_address": "blk",
        "f": "blk",
        "name_of_ship": "melodia",
        "ship_port": "aberystwyth",
        "date_leaving": "remained",
        "joined_ship_date": "1869-03-01",
        "joined_at_port": "cardiff",
        "capacity": "able seaman",
        "date_left": "1869-05-11",
        "left_port": "liverpool",
        "cause_of_leaving": "discharged",
        "sign_with_mark": "n",
        "notes": "blk"
    },
    {
        "id": "vtls004928060_0_15",
        "type": "sailor",
        "parent": "vtls004928060",
        "name": "david d davies",
        "dob": "blk",
        "age": "17",
        "place_of_birth": "blk",
        "home_address": "blk",
        "f": "blk",
        "name_of_ship": "blk",
        "ship_port": "blk",
        "date_leaving": "blk",
        "joined_ship_date": "blk",
        "joined_at_port": "blk",
        "capacity": "apprentice",
        "date_left": "blk",
        "left_port": "blk",
        "cause_of_leaving": "remains on board",
        "sign_with_mark": "n",
        "notes": "registry of indenture - date of 1867-05-27 - port of cardiff"
    },
    {
        "id": "vtls004928060_1_14",
        "type": "sailor",
        "parent": "vtls004928060",
        "name": "jenkin phillips",
        "dob": "blk",
        "age": "21",
        "place_of_birth": "newquay",
        "home_address": "blk",
        "f": "blk",
        "name_of_ship": "melodia",
        "ship_port": "aberystwyth",
        "date_leaving": "1869-05-13",
        "joined_ship_date": "1869-05-29",
        "joined_at_port": "liverpool",
        "capacity": "ordinary seaman",
        "date_left": "1869-06-30",
        "left_port": "at sea",
        "cause_of_leaving": "remains on board",
        "sign_with_mark": "n",
        "notes": "blk"
    },
    {
        "id": "vtls004928060_1_15",
        "type": "sailor",
        "parent": "vtls004928060",
        "name": "charles mckay",
        "dob": "blk",
        "age": "15",
        "place_of_birth": "edinburgh",
        "home_address": "blk",
        "f": "blk",
        "name_of_ship": "hebe",
        "ship_port": "shields",
        "date_leaving": "1869-05-24",
        "joined_ship_date": "1869-05-29",
        "joined_at_port": "liverpool",
        "capacity": "ordinary seaman",
        "date_left": "1869-06-30",
        "left_port": "at sea",
        "cause_of_leaving": "remains on board",
        "sign_with_mark": "n",
        "notes": "blk"
    },
    {
        "id": "vtls004928060_1_16",
        "type": "sailor",
        "parent": "vtls004928060",
        "name": "david d davies",
        "dob": "blk",
        "age": "blk",
        "place_of_birth": "blk",
        "home_address": "blk",
        "f": "blk",
        "name_of_ship": "blk",
        "ship_port": "blk",
        "date_leaving": "blk",
        "joined_ship_date": "blk",
        "joined_at_port": "blk",
        "capacity": "apprentice",
        "date_left": "blk",
        "left_port": "blk",
        "cause_of_leaving": "remains on board",
        "sign_with_mark": "n",
        "notes": "registry of indenture - date of 1867-07 - port of cardiff"
    },
    {
        "id": "vtls004928060_2_11",
        "type": "sailor",
        "parent": "vtls004928060",
        "name": "john jones",
        "dob": "blk",
        "age": "45",
        "place_of_birth": "newquay",
        "home_address": "blk",
        "f": "blk",
        "name_of_ship": "melodia",
        "ship_port": "aberystwyth",
        "date_leaving": "continued",
        "joined_ship_date": "blk",
        "joined_at_port": "blk",
        "capacity": "master",
        "date_left": "blk",
        "left_port": "blk",
        "cause_of_leaving": "remains on board",
        "sign_with_mark": "n",
        "notes": "account for july - dec 1869"
    },
    {
        "id": "vtls004928071_0_11",
        "type": "sailor",
        "parent": "vtls004928071",
        "name": "john jones",
        "dob": "blk",
        "age": "45",
        "place_of_birth": "newquay",
        "home_address": "blk",
        "f": "blk",
        "name_of_ship": "melodia",
        "ship_port": "aberystwyth",
        "date_leaving": "blk",
        "joined_ship_date": "1870-04-05",
        "joined_at_port": "cardiff",
        "capacity": "master",
        "date_left": "1870-07-28",
        "left_port": "liverpool",
        "cause_of_leaving": "remains on board",
        "sign_with_mark": "n",
        "notes": "blk"
    },
    {
        "id": "vtls004928071_0_13",
        "type": "sailor",
        "parent": "vtls004928071",
        "name": "evan jones",
        "dob": "blk",
        "age": "30",
        "place_of_birth": "newquay",
        "home_address": "blk",
        "f": "blk",
        "name_of_ship": "melodia",
        "ship_port": "aberystwyth",
        "date_leaving": "blk",
        "joined_ship_date": "1870-04-05",
        "joined_at_port": "cardiff",
        "capacity": "able seaman",
        "date_left": "1870-07-28",
        "left_port": "liverpool",
        "cause_of_leaving": "discharged",
        "sign_with_mark": "n",
        "notes": "blk"
    },
    {
        "id": "vtls004928060_2_14",
        "type": "sailor",
        "parent": "vtls004928060",
        "name": "thomas davies",
        "dob": "blk",
        "age": "30",
        "place_of_birth": "cardigan",
        "home_address": "blk",
        "f": "blk",
        "name_of_ship": "melodia",
        "ship_port": "aberystwyth",
        "date_leaving": "continued",
        "joined_ship_date": "blk",
        "joined_at_port": "blk",
        "capacity": "ordinary seaman",
        "date_left": "blk",
        "left_port": "blk",
        "cause_of_leaving": "remains on board",
        "sign_with_mark": "n",
        "notes": "blk"
    },
    {
        "id": "vtls004928060_2_15",
        "type": "sailor",
        "parent": "vtls004928060",
        "name": "thomas davies",
        "dob": "blk",
        "age": "19",
        "place_of_birth": "newquay",
        "home_address": "blk",
        "f": "blk",
        "name_of_ship": "melodia",
        "ship_port": "aberystwyth",
        "date_leaving": "continued",
        "joined_ship_date": "blk",
        "joined_at_port": "blk",
        "capacity": "able seaman",
        "date_left": "blk",
        "left_port": "blk",
        "cause_of_leaving": "remains on board",
        "sign_with_mark": "n",
        "notes": "blk"
    },
    {
        "id": "vtls004928060_2_13",
        "type": "sailor",
        "parent": "vtls004928060",
        "name": "evan jones",
        "dob": "blk",
        "age": "30",
        "place_of_birth": "newquay",
        "home_address": "blk",
        "f": "blk",
        "name_of_ship": "melodia",
        "ship_port": "aberystwyth",
        "date_leaving": "continued",
        "joined_ship_date": "blk",
        "joined_at_port": "blk",
        "capacity": "able seaman",
        "date_left": "blk",
        "left_port": "blk",
        "cause_of_leaving": "remains on board",
        "sign_with_mark": "n",
        "notes": "blk"
    },
    {
        "id": "vtls004928071_1_15",
        "type": "sailor",
        "parent": "vtls004928071",
        "name": "jenkin thomas evans",
        "dob": "blk",
        "age": "28",
        "place_of_birth": "newquay",
        "home_address": "blk",
        "f": "blk",
        "name_of_ship": "mary sarah",
        "ship_port": "newquay",
        "date_leaving": "1870",
        "joined_ship_date": "1870-11-10",
        "joined_at_port": "cardiff",
        "capacity": "ordinary seaman",
        "date_left": "1871-04-17",
        "left_port": "cardiff",
        "cause_of_leaving": "discharged",
        "sign_with_mark": "n",
        "notes": "blk"
    },
    {
        "id": "vtls004928071_0_15",
        "type": "sailor",
        "parent": "vtls004928071",
        "name": "david d davies",
        "dob": "blk",
        "age": "29",
        "place_of_birth": "newquay",
        "home_address": "blk",
        "f": "blk",
        "name_of_ship": "melodia",
        "ship_port": "aberystwyth",
        "date_leaving": "blk",
        "joined_ship_date": "1870-04-05",
        "joined_at_port": "cardiff",
        "capacity": "ordinary seaman",
        "date_left": "1870-07-28",
        "left_port": "liverpool",
        "cause_of_leaving": "discharged",
        "sign_with_mark": "n",
        "notes": "blk"
    },
    {
        "id": "vtls004928071_0_14",
        "type": "sailor",
        "parent": "vtls004928071",
        "name": "thomas davies",
        "dob": "blk",
        "age": "37",
        "place_of_birth": "newquay",
        "home_address": "blk",
        "f": "blk",
        "name_of_ship": "melodia",
        "ship_port": "aberystwyth",
        "date_leaving": "blk",
        "joined_ship_date": "1870-04-05",
        "joined_at_port": "cardiff",
        "capacity": "able seaman",
        "date_left": "1870-07-28",
        "left_port": "liverpool",
        "cause_of_leaving": "discharged",
        "sign_with_mark": "n",
        "notes": "blk"
    },
    {
        "id": "vtls004928071_1_14",
        "type": "sailor",
        "parent": "vtls004928071",
        "name": "james parle",
        "dob": "blk",
        "age": "21",
        "place_of_birth": "wexford",
        "home_address": "blk",
        "f": "blk",
        "name_of_ship": "wepre lass",
        "ship_port": "chester",
        "date_leaving": "1870",
        "joined_ship_date": "1870-11-10",
        "joined_at_port": "cardiff",
        "capacity": "able seaman",
        "date_left": "1871-04-14",
        "left_port": "cardiff",
        "cause_of_leaving": "discharged",
        "sign_with_mark": "n",
        "notes": "blk"
    },
    {
        "id": "vtls004928071_1_12",
        "type": "sailor",
        "parent": "vtls004928071",
        "name": "owen edwards",
        "dob": "blk",
        "age": "39",
        "place_of_birth": "newquay",
        "home_address": "blk",
        "f": "blk",
        "name_of_ship": "affiance",
        "ship_port": "south shields",
        "date_leaving": "1870",
        "joined_ship_date": "1870-11-10",
        "joined_at_port": "cardiff",
        "capacity": "mate",
        "date_left": "1871-04-17",
        "left_port": "cardiff",
        "cause_of_leaving": "discharged",
        "sign_with_mark": "n",
        "notes": "blk"
    },
    {
        "id": "vtls004928071_1_13",
        "type": "sailor",
        "parent": "vtls004928071",
        "name": "john humphreys",
        "dob": "blk",
        "age": "29",
        "place_of_birth": "st fagans",
        "home_address": "blk",
        "f": "blk",
        "name_of_ship": "$",
        "ship_port": "cardiff",
        "date_leaving": "1870",
        "joined_ship_date": "1870-11-10",
        "joined_at_port": "cardiff",
        "capacity": "able seaman",
        "date_left": "1871-04-14",
        "left_port": "cardiff",
        "cause_of_leaving": "discharged",
        "sign_with_mark": "n",
        "notes": "blk"
    },
    {
        "id": "vtls004928071_1_11",
        "type": "sailor",
        "parent": "vtls004928071",
        "name": "john jones",
        "dob": "blk",
        "age": "46",
        "place_of_birth": "newquay",
        "home_address": "blk",
        "f": "blk",
        "name_of_ship": "melodia",
        "ship_port": "aberystwyth",
        "date_leaving": "blk",
        "joined_ship_date": "1870-11-10",
        "joined_at_port": "cardiff",
        "capacity": "master",
        "date_left": "blk",
        "left_port": "blk",
        "cause_of_leaving": "remains on board",
        "sign_with_mark": "n",
        "notes": "blk"
    },
    {
        "id": "vtls004928071_0_16",
        "type": "sailor",
        "parent": "vtls004928071",
        "name": "john taylor",
        "dob": "blk",
        "age": "13",
        "place_of_birth": "newquay",
        "home_address": "blk",
        "f": "blk",
        "name_of_ship": "first ship",
        "ship_port": "blk",
        "date_leaving": "blk",
        "joined_ship_date": "1870-04-05",
        "joined_at_port": "cardiff",
        "capacity": "boy",
        "date_left": "1870-07-28",
        "left_port": "liverpool",
        "cause_of_leaving": "discharged",
        "sign_with_mark": "n",
        "notes": "blk"
    },
    {
        "id": "vtls004928087_0_15",
        "type": "sailor",
        "parent": "vtls004928087",
        "name": "jenkin thomas evans",
        "dob": "blk",
        "age": "18",
        "place_of_birth": "newquay",
        "home_address": "blk",
        "f": "blk",
        "name_of_ship": "melodia",
        "ship_port": "aberystwyth",
        "date_leaving": "blk",
        "joined_ship_date": "1871-04-27",
        "joined_at_port": "cardiff",
        "capacity": "ordinary seaman",
        "date_left": "1871-08-02",
        "left_port": "bristol",
        "cause_of_leaving": "discharged",
        "sign_with_mark": "n",
        "notes": "blk"
    },
    {
        "id": "vtls004928087_0_13",
        "type": "sailor",
        "parent": "vtls004928087",
        "name": "evan jones",
        "dob": "blk",
        "age": "32",
        "place_of_birth": "newquay",
        "home_address": "blk",
        "f": "blk",
        "name_of_ship": "melodia",
        "ship_port": "aberystwyth",
        "date_leaving": "blk",
        "joined_ship_date": "1871-04-27",
        "joined_at_port": "cardiff",
        "capacity": "able seaman",
        "date_left": "1871-08-02",
        "left_port": "bristol",
        "cause_of_leaving": "discharged",
        "sign_with_mark": "n",
        "notes": "blk"
    },
    {
        "id": "vtls004928087_1_13",
        "type": "sailor",
        "parent": "vtls004928087",
        "name": "evan jones",
        "dob": "blk",
        "age": "32",
        "place_of_birth": "newquay",
        "home_address": "blk",
        "f": "blk",
        "name_of_ship": "melodia",
        "ship_port": "aberystwyth",
        "date_leaving": "blk",
        "joined_ship_date": "1871-04-27",
        "joined_at_port": "cardiff",
        "capacity": "able seaman",
        "date_left": "1871-08-03",
        "left_port": "bristol",
        "cause_of_leaving": "discharged",
        "sign_with_mark": "n",
        "notes": "blk"
    },
    {
        "id": "vtls004928087_0_16",
        "type": "sailor",
        "parent": "vtls004928087",
        "name": "jenkin williams",
        "dob": "blk",
        "age": "15",
        "place_of_birth": "newquay",
        "home_address": "blk",
        "f": "blk",
        "name_of_ship": "melodia",
        "ship_port": "aberystwyth",
        "date_leaving": "blk",
        "joined_ship_date": "1871-04-27",
        "joined_at_port": "cardiff",
        "capacity": "boy",
        "date_left": "1871-08-02",
        "left_port": "bristol",
        "cause_of_leaving": "discharged",
        "sign_with_mark": "n",
        "notes": "blk"
    },
    {
        "id": "vtls004928087_0_11",
        "type": "sailor",
        "parent": "vtls004928087",
        "name": "john jones",
        "dob": "blk",
        "age": "47",
        "place_of_birth": "newquay",
        "home_address": "blk",
        "f": "blk",
        "name_of_ship": "melodia",
        "ship_port": "aberystwyth",
        "date_leaving": "blk",
        "joined_ship_date": "1871-04-27",
        "joined_at_port": "cardiff",
        "capacity": "master",
        "date_left": "blk",
        "left_port": "bristol",
        "cause_of_leaving": "remains on board",
        "sign_with_mark": "n",
        "notes": "blk"
    },
    {
        "id": "vtls004928071_1_16",
        "type": "sailor",
        "parent": "vtls004928071",
        "name": "jenkin williams",
        "dob": "blk",
        "age": "15",
        "place_of_birth": "newquay",
        "home_address": "blk",
        "f": "blk",
        "name_of_ship": "mary sarah",
        "ship_port": "newquay",
        "date_leaving": "1870",
        "joined_ship_date": "1870-11-10",
        "joined_at_port": "cardiff",
        "capacity": "boy",
        "date_left": "1871-04-17",
        "left_port": "cardiff",
        "cause_of_leaving": "discharged",
        "sign_with_mark": "y",
        "notes": "blk"
    },
    {
        "id": "vtls004928087_0_14",
        "type": "sailor",
        "parent": "vtls004928087",
        "name": "owen james",
        "dob": "blk",
        "age": "25",
        "place_of_birth": "cardigan",
        "home_address": "blk",
        "f": "blk",
        "name_of_ship": "swan s.s.",
        "ship_port": "blk",
        "date_leaving": "blk",
        "joined_ship_date": "1871-04-27",
        "joined_at_port": "cardiff",
        "capacity": "able seaman",
        "date_left": "1871-08-02",
        "left_port": "bristol",
        "cause_of_leaving": "discharged",
        "sign_with_mark": "n",
        "notes": "blk"
    },
    {
        "id": "vtls004928087_1_14",
        "type": "sailor",
        "parent": "vtls004928087",
        "name": "owen james",
        "dob": "blk",
        "age": "25",
        "place_of_birth": "cardigan",
        "home_address": "blk",
        "f": "blk",
        "name_of_ship": "swan s.s.",
        "ship_port": "blk",
        "date_leaving": "blk",
        "joined_ship_date": "1871-04-28",
        "joined_at_port": "cardiff",
        "capacity": "able seaman",
        "date_left": "1871-08-03",
        "left_port": "bristol",
        "cause_of_leaving": "discharged",
        "sign_with_mark": "n",
        "notes": "blk"
    },
    {
        "id": "vtls004928087_1_11",
        "type": "sailor",
        "parent": "vtls004928087",
        "name": "john jones",
        "dob": "blk",
        "age": "47",
        "place_of_birth": "newquay",
        "home_address": "blk",
        "f": "blk",
        "name_of_ship": "melodia",
        "ship_port": "aberystwyth",
        "date_leaving": "blk",
        "joined_ship_date": "1871-04-27",
        "joined_at_port": "cardiff",
        "capacity": "master",
        "date_left": "blk",
        "left_port": "blk",
        "cause_of_leaving": "remains on board",
        "sign_with_mark": "n",
        "notes": "blk"
    },
    {
        "id": "vtls004928087_1_15",
        "type": "sailor",
        "parent": "vtls004928087",
        "name": "jenkin thomas evans",
        "dob": "blk",
        "age": "18",
        "place_of_birth": "newquay",
        "home_address": "blk",
        "f": "blk",
        "name_of_ship": "melodia",
        "ship_port": "aberystwyth",
        "date_leaving": "blk",
        "joined_ship_date": "1872-04-28",
        "joined_at_port": "cardiff",
        "capacity": "ordinary seaman",
        "date_left": "1871-08-03",
        "left_port": "bristol",
        "cause_of_leaving": "discharged",
        "sign_with_mark": "n",
        "notes": "blk"
    },
    {
        "id": "vtls004928087_2_16",
        "type": "sailor",
        "parent": "vtls004928087",
        "name": "jenkin williams",
        "dob": "blk",
        "age": "16",
        "place_of_birth": "newquay",
        "home_address": "blk",
        "f": "blk",
        "name_of_ship": "melodia",
        "ship_port": "aberystwyth",
        "date_leaving": "continued",
        "joined_ship_date": "1871-07-06",
        "joined_at_port": "bristol",
        "capacity": "ordinary seaman",
        "date_left": "blk",
        "left_port": "blk",
        "cause_of_leaving": "remains on board",
        "sign_with_mark": "n",
        "notes": "blk"
    },
    {
        "id": "vtls004928087_2_11",
        "type": "sailor",
        "parent": "vtls004928087",
        "name": "john jones",
        "dob": "blk",
        "age": "47",
        "place_of_birth": "newquay",
        "home_address": "blk",
        "f": "blk",
        "name_of_ship": "melodia",
        "ship_port": "aberystwyth",
        "date_leaving": "continued",
        "joined_ship_date": "blk",
        "joined_at_port": "blk",
        "capacity": "master",
        "date_left": "blk",
        "left_port": "blk",
        "cause_of_leaving": "remains on board",
        "sign_with_mark": "n",
        "notes": "account for july - dec 1871"
    },
    {
        "id": "vtls004928087_2_15",
        "type": "sailor",
        "parent": "vtls004928087",
        "name": "john jones",
        "dob": "blk",
        "age": "50",
        "place_of_birth": "cardigan",
        "home_address": "blk",
        "f": "blk",
        "name_of_ship": "jane & mary",
        "ship_port": "newquay",
        "date_leaving": "1871-06-04",
        "joined_ship_date": "1871-07-06",
        "joined_at_port": "bristol",
        "capacity": "able seaman",
        "date_left": "blk",
        "left_port": "blk",
        "cause_of_leaving": "remains on board",
        "sign_with_mark": "n",
        "notes": "blk"
    },
    {
        "id": "vtls004928087_2_13",
        "type": "sailor",
        "parent": "vtls004928087",
        "name": "evan jones",
        "dob": "blk",
        "age": "31",
        "place_of_birth": "newquay",
        "home_address": "blk",
        "f": "blk",
        "name_of_ship": "melodia",
        "ship_port": "aberystwyth",
        "date_leaving": "continued",
        "joined_ship_date": "1871-07-06",
        "joined_at_port": "bristol",
        "capacity": "able seaman",
        "date_left": "blk",
        "left_port": "blk",
        "cause_of_leaving": "remains on board",
        "sign_with_mark": "n",
        "notes": "blk"
    },
    {
        "id": "vtls004928087_2_14",
        "type": "sailor",
        "parent": "vtls004928087",
        "name": "william davies",
        "dob": "blk",
        "age": "52",
        "place_of_birth": "pembroke",
        "home_address": "blk",
        "f": "blk",
        "name_of_ship": "hanna",
        "ship_port": "milford",
        "date_leaving": "1871-06-07",
        "joined_ship_date": "1871-07-06",
        "joined_at_port": "bristol",
        "capacity": "able seaman",
        "date_left": "blk",
        "left_port": "blk",
        "cause_of_leaving": "remains on board",
        "sign_with_mark": "n",
        "notes": "blk"
    },
    {
        "id": "vtls004928087_1_16",
        "type": "sailor",
        "parent": "vtls004928087",
        "name": "jenkin williams",
        "dob": "blk",
        "age": "15",
        "place_of_birth": "newquay",
        "home_address": "blk",
        "f": "blk",
        "name_of_ship": "melodia",
        "ship_port": "aberystwyth",
        "date_leaving": "blk",
        "joined_ship_date": "1871-04-28",
        "joined_at_port": "cardiff",
        "capacity": "boy",
        "date_left": "1871-08-03",
        "left_port": "bristol",
        "cause_of_leaving": "discharged",
        "sign_with_mark": "n",
        "notes": "blk"
    },
    {
        "id": "vtls004928101_1_15",
        "type": "sailor",
        "parent": "vtls004928101",
        "name": "jenkin williams",
        "dob": "blk",
        "age": "19",
        "place_of_birth": "newquay",
        "home_address": "blk",
        "f": "blk",
        "name_of_ship": "melodia",
        "ship_port": "aberystwyth",
        "date_leaving": "1872-07-04",
        "joined_ship_date": "1872-07-05",
        "joined_at_port": "hull",
        "capacity": "ordinary seaman",
        "date_left": "1872-08-29",
        "left_port": "cardiff",
        "cause_of_leaving": "paid off",
        "sign_with_mark": "n",
        "notes": "blk"
    },
    {
        "id": "vtls004928101_0_11",
        "type": "sailor",
        "parent": "vtls004928101",
        "name": "john jones",
        "dob": "blk",
        "age": "48",
        "place_of_birth": "newquay",
        "home_address": "blk",
        "f": "blk",
        "name_of_ship": "melodia",
        "ship_port": "aberystwyth",
        "date_leaving": "continued",
        "joined_ship_date": "continued",
        "joined_at_port": "blk",
        "capacity": "master",
        "date_left": "blk",
        "left_port": "blk",
        "cause_of_leaving": "remains on board",
        "sign_with_mark": "n",
        "notes": "account for jan - june 1872"
    },
    {
        "id": "vtls004928101_0_15",
        "type": "sailor",
        "parent": "vtls004928101",
        "name": "jenkin williams",
        "dob": "blk",
        "age": "17",
        "place_of_birth": "newquay",
        "home_address": "blk",
        "f": "blk",
        "name_of_ship": "melodia",
        "ship_port": "aberystwyth",
        "date_leaving": "1872-02-07",
        "joined_ship_date": "1872-02-07",
        "joined_at_port": "clare",
        "capacity": "ordinary seaman",
        "date_left": "blk",
        "left_port": "blk",
        "cause_of_leaving": "remains on board",
        "sign_with_mark": "n",
        "notes": "blk"
    },
    {
        "id": "vtls004928101_1_14",
        "type": "sailor",
        "parent": "vtls004928101",
        "name": "william davies",
        "dob": "blk",
        "age": "54",
        "place_of_birth": "haverfordwest",
        "home_address": "blk",
        "f": "blk",
        "name_of_ship": "melodia",
        "ship_port": "aberystwyth",
        "date_leaving": "1872-07-04",
        "joined_ship_date": "1872-07-05",
        "joined_at_port": "hull",
        "capacity": "able seaman",
        "date_left": "blk",
        "left_port": "blk",
        "cause_of_leaving": "remains on board",
        "sign_with_mark": "n",
        "notes": "blk"
    },
    {
        "id": "vtls004928101_0_14",
        "type": "sailor",
        "parent": "vtls004928101",
        "name": "william davies",
        "dob": "blk",
        "age": "52",
        "place_of_birth": "pembroke",
        "home_address": "blk",
        "f": "blk",
        "name_of_ship": "melodia",
        "ship_port": "aberystwyth",
        "date_leaving": "1872-02-07",
        "joined_ship_date": "1872-02-07",
        "joined_at_port": "clare",
        "capacity": "able seaman",
        "date_left": "blk",
        "left_port": "blk",
        "cause_of_leaving": "remains on board",
        "sign_with_mark": "n",
        "notes": "blk"
    },
    {
        "id": "vtls004928101_1_13",
        "type": "sailor",
        "parent": "vtls004928101",
        "name": "evan jones",
        "dob": "blk",
        "age": "30",
        "place_of_birth": "cardigan",
        "home_address": "blk",
        "f": "blk",
        "name_of_ship": "melodia",
        "ship_port": "aberystwyth",
        "date_leaving": "1872-07-04",
        "joined_ship_date": "1872-07-05",
        "joined_at_port": "hull",
        "capacity": "able seaman",
        "date_left": "blk",
        "left_port": "blk",
        "cause_of_leaving": "remains on board",
        "sign_with_mark": "n",
        "notes": "now mate"
    },
    {
        "id": "vtls004928101_1_16",
        "type": "sailor",
        "parent": "vtls004928101",
        "name": "thomas evans",
        "dob": "blk",
        "age": "30",
        "place_of_birth": "newquay",
        "home_address": "blk",
        "f": "blk",
        "name_of_ship": "isabel",
        "ship_port": "aberystwyth",
        "date_leaving": "1872-08-18",
        "joined_ship_date": "1872-08-30",
        "joined_at_port": "cardiff",
        "capacity": "able seaman",
        "date_left": "1872-10-10",
        "left_port": "cork",
        "cause_of_leaving": "paid off",
        "sign_with_mark": "n",
        "notes": "blk"
    },
    {
        "id": "vtls004928101_0_13",
        "type": "sailor",
        "parent": "vtls004928101",
        "name": "evan jones",
        "dob": "blk",
        "age": "31",
        "place_of_birth": "newquay",
        "home_address": "blk",
        "f": "blk",
        "name_of_ship": "melodia",
        "ship_port": "aberystwyth",
        "date_leaving": "1872-02-07",
        "joined_ship_date": "1872-02-07",
        "joined_at_port": "clare",
        "capacity": "able seaman",
        "date_left": "blk",
        "left_port": "blk",
        "cause_of_leaving": "remains on board",
        "sign_with_mark": "n",
        "notes": "blk"
    },
    {
        "id": "vtls004928101_1_11",
        "type": "sailor",
        "parent": "vtls004928101",
        "name": "john jones",
        "dob": "blk",
        "age": "48",
        "place_of_birth": "newquay",
        "home_address": "blk",
        "f": "blk",
        "name_of_ship": "melodia",
        "ship_port": "aberystwyth",
        "date_leaving": "continues",
        "joined_ship_date": "1853",
        "joined_at_port": "newquay",
        "capacity": "master",
        "date_left": "blk",
        "left_port": "blk",
        "cause_of_leaving": "remains on board",
        "sign_with_mark": "n",
        "notes": "blk"
    },
    {
        "id": "vtls004928101_0_16",
        "type": "sailor",
        "parent": "vtls004928101",
        "name": "richard jones",
        "dob": "blk",
        "age": "16",
        "place_of_birth": "flintshire",
        "home_address": "blk",
        "f": "blk",
        "name_of_ship": "first ship",
        "ship_port": "blk",
        "date_leaving": "blk",
        "joined_ship_date": "1872-04-15",
        "joined_at_port": "garston",
        "capacity": "boy",
        "date_left": "blk",
        "left_port": "blk",
        "cause_of_leaving": "remains on board",
        "sign_with_mark": "n",
        "notes": "blk"
    },
    {
        "id": "vtls004928101_1_17",
        "type": "sailor",
        "parent": "vtls004928101",
        "name": "john owen",
        "dob": "blk",
        "age": "29",
        "place_of_birth": "holyhead",
        "home_address": "blk",
        "f": "blk",
        "name_of_ship": "tryphena",
        "ship_port": "cardigan",
        "date_leaving": "1872-08-19",
        "joined_ship_date": "1872-08-30",
        "joined_at_port": "cardiff",
        "capacity": "able seaman",
        "date_left": "1872-10-10",
        "left_port": "cork",
        "cause_of_leaving": "paid off",
        "sign_with_mark": "n",
        "notes": "blk"
    },
    {
        "id": "vtls004928101_1_18",
        "type": "sailor",
        "parent": "vtls004928101",
        "name": "michael lynch",
        "dob": "blk",
        "age": "20",
        "place_of_birth": "dungarvan",
        "home_address": "blk",
        "f": "blk",
        "name_of_ship": "eliza",
        "ship_port": "cork",
        "date_leaving": "1872-10-10",
        "joined_ship_date": "1872-10-17",
        "joined_at_port": "cork",
        "capacity": "ordinary seaman",
        "date_left": "blk",
        "left_port": "blk",
        "cause_of_leaving": "remains on board",
        "sign_with_mark": "n",
        "notes": "blk"
    },
    {
        "id": "vtls004928101_1_19",
        "type": "sailor",
        "parent": "vtls004928101",
        "name": "henry scott",
        "dob": "blk",
        "age": "22",
        "place_of_birth": "dundee",
        "home_address": "blk",
        "f": "blk",
        "name_of_ship": "north wind",
        "ship_port": "whitby",
        "date_leaving": "1872-10-20",
        "joined_ship_date": "1872-10-22",
        "joined_at_port": "cork",
        "capacity": "able seaman",
        "date_left": "blk",
        "left_port": "blk",
        "cause_of_leaving": "remains on board",
        "sign_with_mark": "n",
        "notes": "blk"
    }
]