[
    {
        "id": "vtls004632377_0_11",
        "type": "sailor",
        "parent": "vtls004632377",
        "name": "david jones",
        "dob": "blk",
        "age": "37",
        "place_of_birth": "llanon",
        "home_address": "llanon, cardiganshire",
        "f": "llanon, cardiganshire",
        "name_of_ship": "camden",
        "ship_port": "aberystwyth",
        "date_leaving": "1876",
        "joined_ship_date": "1876-03-05",
        "joined_at_port": "swansea",
        "capacity": "master",
        "date_left": "blk",
        "left_port": "blk",
        "cause_of_leaving": "remains on board",
        "sign_with_mark": "n",
        "notes": "blk"
    },
    {
        "id": "vtls004632377_0_12",
        "type": "sailor",
        "parent": "vtls004632377",
        "name": "daniel rees",
        "dob": "blk",
        "age": "42",
        "place_of_birth": "newquay",
        "home_address": "blk",
        "f": "blk",
        "name_of_ship": "nive",
        "ship_port": "newquay",
        "date_leaving": "1876",
        "joined_ship_date": "1876-03-05",
        "joined_at_port": "swansea",
        "capacity": "mate",
        "date_left": "blk",
        "left_port": "blk",
        "cause_of_leaving": "remains on board",
        "sign_with_mark": "n",
        "notes": "blk"
    },
    {
        "id": "vtls004632377_1_11",
        "type": "sailor",
        "parent": "vtls004632377",
        "name": "david jones",
        "dob": "blk",
        "age": "37",
        "place_of_birth": "llanon, cardigan",
        "home_address": "llanon, cardiganshire",
        "f": "llanon, cardiganshire",
        "name_of_ship": "camden",
        "ship_port": "aberystwyth",
        "date_leaving": "1876",
        "joined_ship_date": "1876-07-04",
        "joined_at_port": "cork",
        "capacity": "master",
        "date_left": "1876-08-26",
        "left_port": "milford",
        "cause_of_leaving": "discharged",
        "sign_with_mark": "n",
        "notes": "blk"
    },
    {
        "id": "vtls004632377_1_13",
        "type": "sailor",
        "parent": "vtls004632377",
        "name": "john mathias",
        "dob": "blk",
        "age": "30",
        "place_of_birth": "newport, pemprokshire",
        "home_address": "blk",
        "f": "blk",
        "name_of_ship": "camden",
        "ship_port": "aberystwyth",
        "date_leaving": "1876",
        "joined_ship_date": "1876-07-04",
        "joined_at_port": "cork",
        "capacity": "able seaman",
        "date_left": "1876-08-26",
        "left_port": "milford",
        "cause_of_leaving": "discharged",
        "sign_with_mark": "n",
        "notes": "blk"
    },
    {
        "id": "vtls004632377_1_17",
        "type": "sailor",
        "parent": "vtls004632377",
        "name": "john mathias",
        "dob": "blk",
        "age": "30",
        "place_of_birth": "newport, pemprokshire",
        "home_address": "blk",
        "f": "blk",
        "name_of_ship": "camden",
        "ship_port": "aberystwyth",
        "date_leaving": "1876",
        "joined_ship_date": "1876-07-23",
        "joined_at_port": "$",
        "capacity": "able seaman",
        "date_left": "1876-08-04",
        "left_port": "cork",
        "cause_of_leaving": "remains on board",
        "sign_with_mark": "n",
        "notes": "blk"
    },
    {
        "id": "vtls004632377_0_13",
        "type": "sailor",
        "parent": "vtls004632377",
        "name": "john mathias",
        "dob": "blk",
        "age": "30",
        "place_of_birth": "newport, pemprokshire",
        "home_address": "blk",
        "f": "blk",
        "name_of_ship": "ada lettitia",
        "ship_port": "$",
        "date_leaving": "1876",
        "joined_ship_date": "1876-03-05",
        "joined_at_port": "swansea",
        "capacity": "able seaman",
        "date_left": "blk",
        "left_port": "blk",
        "cause_of_leaving": "remains on board",
        "sign_with_mark": "n",
        "notes": "blk"
    },
    {
        "id": "vtls004632377_1_14",
        "type": "sailor",
        "parent": "vtls004632377",
        "name": "john sulivan",
        "dob": "blk",
        "age": "28",
        "place_of_birth": "castle town",
        "home_address": "blk",
        "f": "blk",
        "name_of_ship": "blanch",
        "ship_port": "troon",
        "date_leaving": "1876",
        "joined_ship_date": "1876-08-24",
        "joined_at_port": "castletown",
        "capacity": "able seaman",
        "date_left": "1876-08-26",
        "left_port": "milford",
        "cause_of_leaving": "discharged",
        "sign_with_mark": "n",
        "notes": "blk"
    },
    {
        "id": "vtls004632377_1_15",
        "type": "sailor",
        "parent": "vtls004632377",
        "name": "david jones",
        "dob": "blk",
        "age": "37",
        "place_of_birth": "llanon",
        "home_address": "blk",
        "f": "blk",
        "name_of_ship": "camden",
        "ship_port": "aberystwyth",
        "date_leaving": "1876",
        "joined_ship_date": "1876-07-23",
        "joined_at_port": "$",
        "capacity": "master",
        "date_left": "1876-08-04",
        "left_port": "cork",
        "cause_of_leaving": "remains on board",
        "sign_with_mark": "n",
        "notes": "blk"
    },
    {
        "id": "vtls004632377_1_12",
        "type": "sailor",
        "parent": "vtls004632377",
        "name": "daniel rees",
        "dob": "blk",
        "age": "43",
        "place_of_birth": "newquay",
        "home_address": "blk",
        "f": "blk",
        "name_of_ship": "camden",
        "ship_port": "aberystwyth",
        "date_leaving": "1876",
        "joined_ship_date": "1876-07-04",
        "joined_at_port": "cork",
        "capacity": "mate",
        "date_left": "1876-08-26",
        "left_port": "milford",
        "cause_of_leaving": "discharged",
        "sign_with_mark": "n",
        "notes": "blk"
    },
    {
        "id": "vtls004632377_1_16",
        "type": "sailor",
        "parent": "vtls004632377",
        "name": "daniel rees",
        "dob": "blk",
        "age": "43",
        "place_of_birth": "newquay",
        "home_address": "blk",
        "f": "blk",
        "name_of_ship": "camden",
        "ship_port": "aberystwyth",
        "date_leaving": "1876",
        "joined_ship_date": "1876-07-23",
        "joined_at_port": "$",
        "capacity": "mate",
        "date_left": "1876-08-04",
        "left_port": "cork",
        "cause_of_leaving": "remains on board",
        "sign_with_mark": "n",
        "notes": "blk"
    },
    {
        "id": "vtls004632377_0_14",
        "type": "sailor",
        "parent": "vtls004632377",
        "name": "fredrick foaks",
        "dob": "blk",
        "age": "16",
        "place_of_birth": "birmingham",
        "home_address": "blk",
        "f": "blk",
        "name_of_ship": "no ship",
        "ship_port": "blk",
        "date_leaving": "1876",
        "joined_ship_date": "1876-03-05",
        "joined_at_port": "swansea",
        "capacity": "boy",
        "date_left": "1876-06-27",
        "left_port": "tralee",
        "cause_of_leaving": "blk",
        "sign_with_mark": "y",
        "notes": "blk"
    },
    {
        "id": "vtls004632379_0_13",
        "type": "sailor",
        "parent": "vtls004632379",
        "name": "a mathias",
        "dob": "blk",
        "age": "21",
        "place_of_birth": "milford",
        "home_address": "blk",
        "f": "blk",
        "name_of_ship": "[william] & maria",
        "ship_port": "blk",
        "date_leaving": "1877",
        "joined_ship_date": "1877-06-25",
        "joined_at_port": "milford",
        "capacity": "ordinary seaman",
        "date_left": "1877-07-03",
        "left_port": "swansea",
        "cause_of_leaving": "remains on board",
        "sign_with_mark": "n",
        "notes": "blk"
    },
    {
        "id": "vtls004632379_1_15",
        "type": "sailor",
        "parent": "vtls004632379",
        "name": "c richardson",
        "dob": "blk",
        "age": "22",
        "place_of_birth": "macduff",
        "home_address": "blk",
        "f": "blk",
        "name_of_ship": "lizzie",
        "ship_port": "milford",
        "date_leaving": "1877-06-23",
        "joined_ship_date": "1877-10-02",
        "joined_at_port": "swansea",
        "capacity": "able seaman",
        "date_left": "1878-01-09",
        "left_port": "swansea",
        "cause_of_leaving": "remains on board",
        "sign_with_mark": "n",
        "notes": "blk"
    },
    {
        "id": "vtls004632379_0_11",
        "type": "sailor",
        "parent": "vtls004632379",
        "name": "owen enos",
        "dob": "blk",
        "age": "50",
        "place_of_birth": "aberystwyth",
        "home_address": "aberystwyth",
        "f": "aberystwyth",
        "name_of_ship": "dreadnought",
        "ship_port": "blk",
        "date_leaving": "1877",
        "joined_ship_date": "1877-06-25",
        "joined_at_port": "milford",
        "capacity": "master",
        "date_left": "1877-07-03",
        "left_port": "swansea",
        "cause_of_leaving": "remains on board",
        "sign_with_mark": "n",
        "notes": "blk"
    },
    {
        "id": "vtls004632379_1_12",
        "type": "sailor",
        "parent": "vtls004632379",
        "name": "henry jones",
        "dob": "blk",
        "age": "35",
        "place_of_birth": "aberystwyth",
        "home_address": "blk",
        "f": "blk",
        "name_of_ship": "camden",
        "ship_port": "aberystwyth",
        "date_leaving": "1877-07-08",
        "joined_ship_date": "1877-07-09",
        "joined_at_port": "swansea",
        "capacity": "mate",
        "date_left": "1878-01-09",
        "left_port": "swansea",
        "cause_of_leaving": "remains on board",
        "sign_with_mark": "n",
        "notes": "blk"
    },
    {
        "id": "vtls004632379_1_11",
        "type": "sailor",
        "parent": "vtls004632379",
        "name": "owen enos",
        "dob": "blk",
        "age": "50",
        "place_of_birth": "borth",
        "home_address": "borth",
        "f": "borth",
        "name_of_ship": "camden",
        "ship_port": "aberystwyth",
        "date_leaving": "1877-07-08",
        "joined_ship_date": "1877-07-09",
        "joined_at_port": "swansea",
        "capacity": "master",
        "date_left": "1878-01-09",
        "left_port": "swansea",
        "cause_of_leaving": "remains on board",
        "sign_with_mark": "n",
        "notes": "blk"
    },
    {
        "id": "vtls004632379_1_13",
        "type": "sailor",
        "parent": "vtls004632379",
        "name": "a mathias",
        "dob": "blk",
        "age": "20",
        "place_of_birth": "milford",
        "home_address": "blk",
        "f": "blk",
        "name_of_ship": "camden",
        "ship_port": "aberystwyth",
        "date_leaving": "1877-07-08",
        "joined_ship_date": "1877-07-09",
        "joined_at_port": "swansea",
        "capacity": "able seaman",
        "date_left": "1877-10-02",
        "left_port": "swansea",
        "cause_of_leaving": "discharged",
        "sign_with_mark": "n",
        "notes": "blk"
    },
    {
        "id": "vtls004632379_1_14",
        "type": "sailor",
        "parent": "vtls004632379",
        "name": "william jones",
        "dob": "blk",
        "age": "13",
        "place_of_birth": "swansea",
        "home_address": "blk",
        "f": "blk",
        "name_of_ship": "camden",
        "ship_port": "aberystwyth",
        "date_leaving": "1877-07-08",
        "joined_ship_date": "1877-07-09",
        "joined_at_port": "swansea",
        "capacity": "boy",
        "date_left": "1878-01-09",
        "left_port": "swansea",
        "cause_of_leaving": "remains on board",
        "sign_with_mark": "n",
        "notes": "blk"
    },
    {
        "id": "vtls004632379_0_12",
        "type": "sailor",
        "parent": "vtls004632379",
        "name": "john sullivan",
        "dob": "blk",
        "age": "25",
        "place_of_birth": "milford",
        "home_address": "blk",
        "f": "blk",
        "name_of_ship": "judus",
        "ship_port": "south shields",
        "date_leaving": "1877",
        "joined_ship_date": "1877-06-25",
        "joined_at_port": "milford",
        "capacity": "mate",
        "date_left": "1877-07-03",
        "left_port": "swansea",
        "cause_of_leaving": "discharged",
        "sign_with_mark": "n",
        "notes": "blk"
    },
    {
        "id": "vtls004632381_0_17",
        "type": "sailor",
        "parent": "vtls004632381",
        "name": "john price",
        "dob": "blk",
        "age": "18",
        "place_of_birth": "aberystwyth",
        "home_address": "blk",
        "f": "blk",
        "name_of_ship": "velocity",
        "ship_port": "aberystwyth",
        "date_leaving": "1878-03-26",
        "joined_ship_date": "1878-03-26",
        "joined_at_port": "milford",
        "capacity": "ordinary seaman",
        "date_left": "1878-04-03",
        "left_port": "liverpool",
        "cause_of_leaving": "discharged",
        "sign_with_mark": "n",
        "notes": "blk"
    },
    {
        "id": "vtls004632381_0_11",
        "type": "sailor",
        "parent": "vtls004632381",
        "name": "owen enos",
        "dob": "blk",
        "age": "50",
        "place_of_birth": "borth",
        "home_address": "rheidol place, aberystwyth",
        "f": "rheidol place, aberystwyth",
        "name_of_ship": "camden",
        "ship_port": "aberystwyth",
        "date_leaving": "continued",
        "joined_ship_date": "blk",
        "joined_at_port": "blk",
        "capacity": "master",
        "date_left": "1878-04-03",
        "left_port": "liverpool",
        "cause_of_leaving": "discharged",
        "sign_with_mark": "n",
        "notes": "blk"
    },
    {
        "id": "vtls004632381_0_16",
        "type": "sailor",
        "parent": "vtls004632381",
        "name": "owen enos",
        "dob": "blk",
        "age": "15",
        "place_of_birth": "aberystwyth",
        "home_address": "blk",
        "f": "blk",
        "name_of_ship": "nanteos",
        "ship_port": "aberystwyth",
        "date_leaving": "blk",
        "joined_ship_date": "1878-01-19",
        "joined_at_port": "swansea",
        "capacity": "ordinary seaman",
        "date_left": "1878-04-03",
        "left_port": "liverpool",
        "cause_of_leaving": "discharged",
        "sign_with_mark": "n",
        "notes": "blk"
    },
    {
        "id": "vtls004632381_0_13",
        "type": "sailor",
        "parent": "vtls004632381",
        "name": "charles hutchinson",
        "dob": "blk",
        "age": "23",
        "place_of_birth": "mcduff",
        "home_address": "blk",
        "f": "blk",
        "name_of_ship": "camden",
        "ship_port": "aberystwyth",
        "date_leaving": "continued",
        "joined_ship_date": "blk",
        "joined_at_port": "blk",
        "capacity": "able seaman",
        "date_left": "1878-01-08",
        "left_port": "swansea",
        "cause_of_leaving": "discharged",
        "sign_with_mark": "n",
        "notes": "blk"
    },
    {
        "id": "vtls004632381_0_14",
        "type": "sailor",
        "parent": "vtls004632381",
        "name": "william jones",
        "dob": "blk",
        "age": "14",
        "place_of_birth": "swansea",
        "home_address": "blk",
        "f": "blk",
        "name_of_ship": "camden",
        "ship_port": "aberystwyth",
        "date_leaving": "continued",
        "joined_ship_date": "blk",
        "joined_at_port": "blk",
        "capacity": "ordinary seaman",
        "date_left": "1878-01-08",
        "left_port": "swansea",
        "cause_of_leaving": "discharged",
        "sign_with_mark": "n",
        "notes": "blk"
    },
    {
        "id": "vtls004632381_0_15",
        "type": "sailor",
        "parent": "vtls004632381",
        "name": "alfred flood",
        "dob": "blk",
        "age": "17",
        "place_of_birth": "plymouth",
        "home_address": "blk",
        "f": "blk",
        "name_of_ship": "unknown",
        "ship_port": "blk",
        "date_leaving": "blk",
        "joined_ship_date": "1878-01-19",
        "joined_at_port": "swansea",
        "capacity": "ordinary seaman",
        "date_left": "1878-02-15",
        "left_port": "newry",
        "cause_of_leaving": "discharged",
        "sign_with_mark": "n",
        "notes": "blk"
    },
    {
        "id": "vtls004632381_0_12",
        "type": "sailor",
        "parent": "vtls004632381",
        "name": "henry jones",
        "dob": "blk",
        "age": "36",
        "place_of_birth": "aberystwyth",
        "home_address": "blk",
        "f": "blk",
        "name_of_ship": "camden",
        "ship_port": "aberystwyth",
        "date_leaving": "continued",
        "joined_ship_date": "blk",
        "joined_at_port": "blk",
        "capacity": "mate",
        "date_left": "1878-04-03",
        "left_port": "liverpool",
        "cause_of_leaving": "discharged",
        "sign_with_mark": "n",
        "notes": "blk"
    },
    {
        "id": "vtls004632284_1_15",
        "type": "sailor",
        "parent": "vtls004632284",
        "name": "daniel richards",
        "dob": "blk",
        "age": "58",
        "place_of_birth": "county cardigan",
        "home_address": "blk",
        "f": "blk",
        "name_of_ship": "faithful sisters",
        "ship_port": "aberystwyth",
        "date_leaving": "1863-11-11",
        "joined_ship_date": "1863-11-20",
        "joined_at_port": "whitehaven",
        "capacity": "able seaman",
        "date_left": "blk",
        "left_port": "blk",
        "cause_of_leaving": "remains on board",
        "sign_with_mark": "n",
        "notes": "blk"
    },
    {
        "id": "vtls004632284_0_11",
        "type": "sailor",
        "parent": "vtls004632284",
        "name": "david jones",
        "dob": "blk",
        "age": "24",
        "place_of_birth": "llanon",
        "home_address": "llanon, cardiganshire",
        "f": "llanon, cardiganshire",
        "name_of_ship": "camden",
        "ship_port": "aberystwyth",
        "date_leaving": "1862-12-31",
        "joined_ship_date": "1863-05-06",
        "joined_at_port": "aberystwyth",
        "capacity": "master",
        "date_left": "blk",
        "left_port": "blk",
        "cause_of_leaving": "remains on board",
        "sign_with_mark": "n",
        "notes": "blk"
    },
    {
        "id": "vtls004632284_1_14",
        "type": "sailor",
        "parent": "vtls004632284",
        "name": "thomas davies",
        "dob": "blk",
        "age": "24",
        "place_of_birth": "county cardigan",
        "home_address": "blk",
        "f": "blk",
        "name_of_ship": "alexander",
        "ship_port": "whitehaven",
        "date_leaving": "1863-11-09",
        "joined_ship_date": "1863-11-11",
        "joined_at_port": "whitehaven",
        "capacity": "able seaman",
        "date_left": "blk",
        "left_port": "blk",
        "cause_of_leaving": "remains on board",
        "sign_with_mark": "n",
        "notes": "blk"
    },
    {
        "id": "vtls004632284_1_11",
        "type": "sailor",
        "parent": "vtls004632284",
        "name": "david jones",
        "dob": "blk",
        "age": "25",
        "place_of_birth": "llanon",
        "home_address": "llanon, cardiganshire",
        "f": "llanon, cardiganshire",
        "name_of_ship": "camden",
        "ship_port": "aberystwyth",
        "date_leaving": "continued",
        "joined_ship_date": "1861-01-06",
        "joined_at_port": "liverpool",
        "capacity": "master",
        "date_left": "blk",
        "left_port": "blk",
        "cause_of_leaving": "remains on board",
        "sign_with_mark": "n",
        "notes": "blk"
    },
    {
        "id": "vtls004632284_0_12",
        "type": "sailor",
        "parent": "vtls004632284",
        "name": "evan jones",
        "dob": "blk",
        "age": "20",
        "place_of_birth": "llanon",
        "home_address": "blk",
        "f": "blk",
        "name_of_ship": "camden",
        "ship_port": "aberystwyth",
        "date_leaving": "1862-12-31",
        "joined_ship_date": "1863-05-06",
        "joined_at_port": "aberystwyth",
        "capacity": "mate",
        "date_left": "blk",
        "left_port": "blk",
        "cause_of_leaving": "remains on board",
        "sign_with_mark": "n",
        "notes": "blk"
    },
    {
        "id": "vtls004632284_1_12",
        "type": "sailor",
        "parent": "vtls004632284",
        "name": "evan jones",
        "dob": "blk",
        "age": "22",
        "place_of_birth": "llanon",
        "home_address": "blk",
        "f": "blk",
        "name_of_ship": "camden",
        "ship_port": "aberystwyth",
        "date_leaving": "continued",
        "joined_ship_date": "1863-03-23",
        "joined_at_port": "aberystwyth",
        "capacity": "mate",
        "date_left": "blk",
        "left_port": "blk",
        "cause_of_leaving": "remains on board",
        "sign_with_mark": "n",
        "notes": "blk"
    },
    {
        "id": "vtls004632284_0_14",
        "type": "sailor",
        "parent": "vtls004632284",
        "name": "thomas thomas",
        "dob": "blk",
        "age": "44",
        "place_of_birth": "aberporth",
        "home_address": "blk",
        "f": "blk",
        "name_of_ship": "camden",
        "ship_port": "aberystwyth",
        "date_leaving": "1862-12-31",
        "joined_ship_date": "1863-05-06",
        "joined_at_port": "aberystwyth",
        "capacity": "able seaman",
        "date_left": "blk",
        "left_port": "blk",
        "cause_of_leaving": "remains on board",
        "sign_with_mark": "n",
        "notes": "blk"
    },
    {
        "id": "vtls004632284_0_15",
        "type": "sailor",
        "parent": "vtls004632284",
        "name": "david thomas",
        "dob": "blk",
        "age": "28",
        "place_of_birth": "aberavon",
        "home_address": "blk",
        "f": "blk",
        "name_of_ship": "camden",
        "ship_port": "aberystwyth",
        "date_leaving": "1862-12-31",
        "joined_ship_date": "1863-05-06",
        "joined_at_port": "aberystwyth",
        "capacity": "able seaman",
        "date_left": "blk",
        "left_port": "blk",
        "cause_of_leaving": "remains on board",
        "sign_with_mark": "n",
        "notes": "blk"
    },
    {
        "id": "vtls004632284_0_13",
        "type": "sailor",
        "parent": "vtls004632284",
        "name": "thomas james",
        "dob": "blk",
        "age": "26",
        "place_of_birth": "aberystwyth",
        "home_address": "blk",
        "f": "blk",
        "name_of_ship": "camden",
        "ship_port": "aberystwyth",
        "date_leaving": "1862-12-31",
        "joined_ship_date": "1863-05-06",
        "joined_at_port": "aberystwyth",
        "capacity": "able seaman",
        "date_left": "blk",
        "left_port": "blk",
        "cause_of_leaving": "remains on board",
        "sign_with_mark": "n",
        "notes": "blk"
    },
    {
        "id": "vtls004632284_1_13",
        "type": "sailor",
        "parent": "vtls004632284",
        "name": "thomas thomas",
        "dob": "blk",
        "age": "15",
        "place_of_birth": "aberystwyth",
        "home_address": "blk",
        "f": "blk",
        "name_of_ship": "camden",
        "ship_port": "aberystwyth",
        "date_leaving": "continued",
        "joined_ship_date": "blk",
        "joined_at_port": "blk",
        "capacity": "able seaman",
        "date_left": "1863-11-14",
        "left_port": "whitehaven",
        "cause_of_leaving": "discharged",
        "sign_with_mark": "n",
        "notes": "blk"
    },
    {
        "id": "vtls004632294_1_11",
        "type": "sailor",
        "parent": "vtls004632294",
        "name": "evan jones",
        "dob": "blk",
        "age": "25",
        "place_of_birth": "llanon",
        "home_address": "llanon, gwestod",
        "f": "llanon, gwestod",
        "name_of_ship": "camden",
        "ship_port": "aberystwyth",
        "date_leaving": "1866-03-18",
        "joined_ship_date": "1866-12-17",
        "joined_at_port": "runcorn",
        "capacity": "master",
        "date_left": "blk",
        "left_port": "blk",
        "cause_of_leaving": "blk",
        "sign_with_mark": "n",
        "notes": "there is a note below the crew list, signed by the harbour master of portrush, stating that the crew were all on board when the vessel left the harbour on the 17th january, 1867. 'gwestod' in llanon is possibly 'gwastod'."
    },
    {
        "id": "vtls004632294_0_16",
        "type": "sailor",
        "parent": "vtls004632294",
        "name": "daniel thomas",
        "dob": "blk",
        "age": "20",
        "place_of_birth": "cardigan",
        "home_address": "blk",
        "f": "blk",
        "name_of_ship": "princess royal",
        "ship_port": "cardigan",
        "date_leaving": "1866-03-17",
        "joined_ship_date": "1866-03-22",
        "joined_at_port": "swansea",
        "capacity": "ordinary seaman",
        "date_left": "blk",
        "left_port": "blk",
        "cause_of_leaving": "remains on board",
        "sign_with_mark": "n",
        "notes": "blk"
    },
    {
        "id": "vtls004632294_0_13",
        "type": "sailor",
        "parent": "vtls004632294",
        "name": "david thomas",
        "dob": "blk",
        "age": "22",
        "place_of_birth": "st dogmaels",
        "home_address": "blk",
        "f": "blk",
        "name_of_ship": "camden",
        "ship_port": "aberystwyth",
        "date_leaving": "continued",
        "joined_ship_date": "blk",
        "joined_at_port": "blk",
        "capacity": "able seaman",
        "date_left": "1866-03-06",
        "left_port": "swansea",
        "cause_of_leaving": "discharged",
        "sign_with_mark": "n",
        "notes": "blk"
    },
    {
        "id": "vtls004632294_0_15",
        "type": "sailor",
        "parent": "vtls004632294",
        "name": "thomas thomas",
        "dob": "blk",
        "age": "48",
        "place_of_birth": "aberporth",
        "home_address": "blk",
        "f": "blk",
        "name_of_ship": "maria & ann",
        "ship_port": "newquay",
        "date_leaving": "1866-03-03",
        "joined_ship_date": "1866-03-17",
        "joined_at_port": "swansea",
        "capacity": "mate",
        "date_left": "blk",
        "left_port": "blk",
        "cause_of_leaving": "remains on board",
        "sign_with_mark": "n",
        "notes": "blk"
    },
    {
        "id": "vtls004632294_0_12",
        "type": "sailor",
        "parent": "vtls004632294",
        "name": "evan jones",
        "dob": "blk",
        "age": "24",
        "place_of_birth": "llanon",
        "home_address": "blk",
        "f": "blk",
        "name_of_ship": "camden",
        "ship_port": "aberystwyth",
        "date_leaving": "continued",
        "joined_ship_date": "blk",
        "joined_at_port": "blk",
        "capacity": "mate",
        "date_left": "1866-03-18",
        "left_port": "swansea",
        "cause_of_leaving": "discharged",
        "sign_with_mark": "n",
        "notes": "blk"
    },
    {
        "id": "vtls004632294_0_11",
        "type": "sailor",
        "parent": "vtls004632294",
        "name": "david jones",
        "dob": "blk",
        "age": "27",
        "place_of_birth": "llanon",
        "home_address": "llanon",
        "f": "llanon",
        "name_of_ship": "camden",
        "ship_port": "aberystwyth",
        "date_leaving": "continued",
        "joined_ship_date": "blk",
        "joined_at_port": "blk",
        "capacity": "master",
        "date_left": "blk",
        "left_port": "blk",
        "cause_of_leaving": "remains on board",
        "sign_with_mark": "n",
        "notes": "blk"
    },
    {
        "id": "vtls004632294_0_14",
        "type": "sailor",
        "parent": "vtls004632294",
        "name": "daniel richards",
        "dob": "blk",
        "age": "61",
        "place_of_birth": "llanon",
        "home_address": "blk",
        "f": "blk",
        "name_of_ship": "camden",
        "ship_port": "aberystwyth",
        "date_leaving": "continued",
        "joined_ship_date": "blk",
        "joined_at_port": "blk",
        "capacity": "cook",
        "date_left": "blk",
        "left_port": "blk",
        "cause_of_leaving": "remains on board",
        "sign_with_mark": "n",
        "notes": "blk"
    },
    {
        "id": "vtls004632294_1_12",
        "type": "sailor",
        "parent": "vtls004632294",
        "name": "john john",
        "dob": "blk",
        "age": "21",
        "place_of_birth": "cardigan",
        "home_address": "blk",
        "f": "blk",
        "name_of_ship": "$",
        "ship_port": "cardigan",
        "date_leaving": "1866-12-11",
        "joined_ship_date": "1866-12-14",
        "joined_at_port": "runcorn",
        "capacity": "mate",
        "date_left": "blk",
        "left_port": "blk",
        "cause_of_leaving": "blk",
        "sign_with_mark": "n",
        "notes": "blk"
    },
    {
        "id": "vtls004632299_0_11",
        "type": "sailor",
        "parent": "vtls004632299",
        "name": "evan jones",
        "dob": "blk",
        "age": "25",
        "place_of_birth": "llanon",
        "home_address": "llanon, cardiganshire",
        "f": "llanon, cardiganshire",
        "name_of_ship": "camden",
        "ship_port": "aberystwyth",
        "date_leaving": "1866-12-31",
        "joined_ship_date": "1867-01-01",
        "joined_at_port": "at sea",
        "capacity": "master",
        "date_left": "1867-06-30",
        "left_port": "aberaeron",
        "cause_of_leaving": "remains on board",
        "sign_with_mark": "n",
        "notes": "blk"
    },
    {
        "id": "vtls004632299_0_12",
        "type": "sailor",
        "parent": "vtls004632299",
        "name": "david jones",
        "dob": "blk",
        "age": "28",
        "place_of_birth": "llanon",
        "home_address": "blk",
        "f": "blk",
        "name_of_ship": "camden",
        "ship_port": "aberystwyth",
        "date_leaving": "1866-12-31",
        "joined_ship_date": "1867-01-01",
        "joined_at_port": "at sea",
        "capacity": "mate",
        "date_left": "1867-06-30",
        "left_port": "aberaeron",
        "cause_of_leaving": "remains on board",
        "sign_with_mark": "n",
        "notes": "blk"
    },
    {
        "id": "vtls004632299_0_13",
        "type": "sailor",
        "parent": "vtls004632299",
        "name": "robert dunn",
        "dob": "blk",
        "age": "48",
        "place_of_birth": "scarborough",
        "home_address": "blk",
        "f": "blk",
        "name_of_ship": "camden",
        "ship_port": "aberystwyth",
        "date_leaving": "1866-12-31",
        "joined_ship_date": "1867-01-01",
        "joined_at_port": "at sea",
        "capacity": "able seaman",
        "date_left": "1867-05-22",
        "left_port": "aberaeron",
        "cause_of_leaving": "discharged",
        "sign_with_mark": "n",
        "notes": "blk"
    },
    {
        "id": "vtls004632299_0_14",
        "type": "sailor",
        "parent": "vtls004632299",
        "name": "evan thomas",
        "dob": "blk",
        "age": "23",
        "place_of_birth": "aberporth",
        "home_address": "blk",
        "f": "blk",
        "name_of_ship": "unknown",
        "ship_port": "blk",
        "date_leaving": "blk",
        "joined_ship_date": "1867-03-01",
        "joined_at_port": "at sea",
        "capacity": "able seaman",
        "date_left": "1867-05-22",
        "left_port": "aberaeron",
        "cause_of_leaving": "discharged",
        "sign_with_mark": "n",
        "notes": "blk"
    },
    {
        "id": "vtls004632294_1_14",
        "type": "sailor",
        "parent": "vtls004632294",
        "name": "thomas sou$hhead",
        "dob": "blk",
        "age": "20",
        "place_of_birth": "cork",
        "home_address": "blk",
        "f": "blk",
        "name_of_ship": "venis",
        "ship_port": "cork",
        "date_leaving": "1866-10-21",
        "joined_ship_date": "1866-10-21",
        "joined_at_port": "cork",
        "capacity": "able seaman",
        "date_left": "blk",
        "left_port": "blk",
        "cause_of_leaving": "blk",
        "sign_with_mark": "n",
        "notes": "venis' is preseumably the 'venus' of cork."
    },
    {
        "id": "vtls004632299_0_15",
        "type": "sailor",
        "parent": "vtls004632299",
        "name": "thomas logheed",
        "dob": "blk",
        "age": "18",
        "place_of_birth": "cork",
        "home_address": "blk",
        "f": "blk",
        "name_of_ship": "camden",
        "ship_port": "aberystwyth",
        "date_leaving": "1866-12-31",
        "joined_ship_date": "1867-01-01",
        "joined_at_port": "at sea",
        "capacity": "boy",
        "date_left": "1867-02-21",
        "left_port": "liverpool",
        "cause_of_leaving": "discharged",
        "sign_with_mark": "n",
        "notes": "blk"
    },
    {
        "id": "vtls004632294_1_13",
        "type": "sailor",
        "parent": "vtls004632294",
        "name": "david williams",
        "dob": "blk",
        "age": "21",
        "place_of_birth": "cardigan",
        "home_address": "blk",
        "f": "blk",
        "name_of_ship": "camden",
        "ship_port": "aberystwyth",
        "date_leaving": "blk",
        "joined_ship_date": "1866-03-21",
        "joined_at_port": "swansea",
        "capacity": "able seaman",
        "date_left": "blk",
        "left_port": "blk",
        "cause_of_leaving": "blk",
        "sign_with_mark": "n",
        "notes": "blk"
    },
    {
        "id": "vtls004632305_0_14",
        "type": "sailor",
        "parent": "vtls004632305",
        "name": "richard kearon",
        "dob": "blk",
        "age": "20",
        "place_of_birth": "balina",
        "home_address": "blk",
        "f": "blk",
        "name_of_ship": "oliver lloyd",
        "ship_port": "skerries",
        "date_leaving": "1869-05-17",
        "joined_ship_date": "1869-05-17",
        "joined_at_port": "swansea",
        "capacity": "ordinary seaman",
        "date_left": "1869-06-30",
        "left_port": "runcorn",
        "cause_of_leaving": "remains on board",
        "sign_with_mark": "n",
        "notes": "blk"
    },
    {
        "id": "vtls004632305_0_15",
        "type": "sailor",
        "parent": "vtls004632305",
        "name": "william evans",
        "dob": "blk",
        "age": "28",
        "place_of_birth": "aberystwyth",
        "home_address": "blk",
        "f": "blk",
        "name_of_ship": "messenger",
        "ship_port": "aberystwyth",
        "date_leaving": "1869-04-25",
        "joined_ship_date": "1869-04-25",
        "joined_at_port": "kenmere",
        "capacity": "able seaman",
        "date_left": "1869-06-30",
        "left_port": "runcorn",
        "cause_of_leaving": "remains on board",
        "sign_with_mark": "n",
        "notes": "blk"
    },
    {
        "id": "vtls004632305_0_11",
        "type": "sailor",
        "parent": "vtls004632305",
        "name": "evan jones",
        "dob": "blk",
        "age": "27",
        "place_of_birth": "llanon, cardigan",
        "home_address": "llanon, cardigan",
        "f": "llanon, cardigan",
        "name_of_ship": "camden",
        "ship_port": "aberystwyth",
        "date_leaving": "continued",
        "joined_ship_date": "blk",
        "joined_at_port": "blk",
        "capacity": "master",
        "date_left": "1869-06-30",
        "left_port": "runcorn",
        "cause_of_leaving": "remains on board",
        "sign_with_mark": "n",
        "notes": "blk"
    },
    {
        "id": "vtls004632305_0_12",
        "type": "sailor",
        "parent": "vtls004632305",
        "name": "william davies",
        "dob": "blk",
        "age": "35",
        "place_of_birth": "pembroke",
        "home_address": "blk",
        "f": "blk",
        "name_of_ship": "john pier[ce]",
        "ship_port": "pentewan",
        "date_leaving": "1869-01-07",
        "joined_ship_date": "1869-01-09",
        "joined_at_port": "glasgow",
        "capacity": "mate",
        "date_left": "1869-06-30",
        "left_port": "runcorn",
        "cause_of_leaving": "remains on board",
        "sign_with_mark": "n",
        "notes": "blk"
    },
    {
        "id": "vtls004632299_1_13",
        "type": "sailor",
        "parent": "vtls004632299",
        "name": "john griffiths",
        "dob": "blk",
        "age": "15",
        "place_of_birth": "aberaeron",
        "home_address": "blk",
        "f": "blk",
        "name_of_ship": "john pierce",
        "ship_port": "aberstwith",
        "date_leaving": "1867-05",
        "joined_ship_date": "1867-06-27",
        "joined_at_port": "aberayron",
        "capacity": "ordinary seaman",
        "date_left": "blk",
        "left_port": "blk",
        "cause_of_leaving": "remains on board",
        "sign_with_mark": "y",
        "notes": "blk"
    },
    {
        "id": "vtls004632299_1_12",
        "type": "sailor",
        "parent": "vtls004632299",
        "name": "evan jones",
        "dob": "blk",
        "age": "25",
        "place_of_birth": "llanon, cardigan",
        "home_address": "blk",
        "f": "blk",
        "name_of_ship": "camden",
        "ship_port": "aberstwith",
        "date_leaving": "continued",
        "joined_ship_date": "1867-10-28",
        "joined_at_port": "dublin",
        "capacity": "mate",
        "date_left": "blk",
        "left_port": "blk",
        "cause_of_leaving": "remains on board",
        "sign_with_mark": "n",
        "notes": "blk"
    },
    {
        "id": "vtls004632305_0_13",
        "type": "sailor",
        "parent": "vtls004632305",
        "name": "humphry davies",
        "dob": "blk",
        "age": "26",
        "place_of_birth": "barmouth",
        "home_address": "blk",
        "f": "blk",
        "name_of_ship": "camden",
        "ship_port": "aberystwyth",
        "date_leaving": "continued",
        "joined_ship_date": "blk",
        "joined_at_port": "blk",
        "capacity": "able seaman",
        "date_left": "1869-04-25",
        "left_port": "kenmare",
        "cause_of_leaving": "paid off",
        "sign_with_mark": "n",
        "notes": "blk"
    },
    {
        "id": "vtls004632299_1_11",
        "type": "sailor",
        "parent": "vtls004632299",
        "name": "david jones",
        "dob": "blk",
        "age": "29",
        "place_of_birth": "llanon, cardigan",
        "home_address": "llanon",
        "f": "llanon",
        "name_of_ship": "camden",
        "ship_port": "aberstwith",
        "date_leaving": "continued",
        "joined_ship_date": "blk",
        "joined_at_port": "blk",
        "capacity": "master",
        "date_left": "blk",
        "left_port": "blk",
        "cause_of_leaving": "remains on board",
        "sign_with_mark": "n",
        "notes": "blk"
    },
    {
        "id": "vtls004632299_1_14",
        "type": "sailor",
        "parent": "vtls004632299",
        "name": "william thomas",
        "dob": "blk",
        "age": "17",
        "place_of_birth": "carmarthen",
        "home_address": "blk",
        "f": "blk",
        "name_of_ship": "first ship",
        "ship_port": "blk",
        "date_leaving": "blk",
        "joined_ship_date": "1867-09-20",
        "joined_at_port": "carmarthen",
        "capacity": "boy",
        "date_left": "1867-12-25",
        "left_port": "milford",
        "cause_of_leaving": "discharged",
        "sign_with_mark": "y",
        "notes": "blk"
    },
    {
        "id": "vtls004632305_1_11",
        "type": "sailor",
        "parent": "vtls004632305",
        "name": "david jones",
        "dob": "blk",
        "age": "31",
        "place_of_birth": "llanon, cardigan",
        "home_address": "llanon, cardiganshire",
        "f": "llanon, cardiganshire",
        "name_of_ship": "camden",
        "ship_port": "aberystwyth",
        "date_leaving": "continued",
        "joined_ship_date": "blk",
        "joined_at_port": "blk",
        "capacity": "master",
        "date_left": "blk",
        "left_port": "blk",
        "cause_of_leaving": "remains on board",
        "sign_with_mark": "n",
        "notes": "note attached to the record, from the master, relating to official documents."
    },
    {
        "id": "vtls004632305_1_12",
        "type": "sailor",
        "parent": "vtls004632305",
        "name": "william davies",
        "dob": "blk",
        "age": "36",
        "place_of_birth": "little haven, pembroke",
        "home_address": "blk",
        "f": "blk",
        "name_of_ship": "turtle dove",
        "ship_port": "milford, pembroke",
        "date_leaving": "not known",
        "joined_ship_date": "1869-05-22",
        "joined_at_port": "swansea",
        "capacity": "mate",
        "date_left": "1869-08-17",
        "left_port": "gloucestershire",
        "cause_of_leaving": "paid off",
        "sign_with_mark": "n",
        "notes": "blk"
    },
    {
        "id": "vtls004632311_0_11",
        "type": "sailor",
        "parent": "vtls004632311",
        "name": "david jones",
        "dob": "blk",
        "age": "31",
        "place_of_birth": "llanon",
        "home_address": "aberystwyth",
        "f": "aberystwyth",
        "name_of_ship": "camden",
        "ship_port": "aberystwyth",
        "date_leaving": "continued",
        "joined_ship_date": "1870-01-01",
        "joined_at_port": "milford",
        "capacity": "master",
        "date_left": "1870-07-08",
        "left_port": "swansea",
        "cause_of_leaving": "remains on board",
        "sign_with_mark": "n",
        "notes": "blk"
    },
    {
        "id": "vtls004632305_1_13",
        "type": "sailor",
        "parent": "vtls004632305",
        "name": "john davies",
        "dob": "blk",
        "age": "60",
        "place_of_birth": "aberaeron",
        "home_address": "blk",
        "f": "blk",
        "name_of_ship": "not known",
        "ship_port": "blk",
        "date_leaving": "not known",
        "joined_ship_date": "1869-09-03",
        "joined_at_port": "gloucester",
        "capacity": "mate",
        "date_left": "1869-12-29",
        "left_port": "milford",
        "cause_of_leaving": "paid off",
        "sign_with_mark": "n",
        "notes": "blk"
    },
    {
        "id": "vtls004632305_1_14",
        "type": "sailor",
        "parent": "vtls004632305",
        "name": "peter davies",
        "dob": "blk",
        "age": "24",
        "place_of_birth": "rhyl, denbigh",
        "home_address": "blk",
        "f": "blk",
        "name_of_ship": "not known",
        "ship_port": "blk",
        "date_leaving": "not known",
        "joined_ship_date": "1869-05-22",
        "joined_at_port": "swansea",
        "capacity": "able seaman",
        "date_left": "1869-12-29",
        "left_port": "milford",
        "cause_of_leaving": "paid off",
        "sign_with_mark": "n",
        "notes": "blk"
    },
    {
        "id": "vtls004632311_0_12",
        "type": "sailor",
        "parent": "vtls004632311",
        "name": "david d davies",
        "dob": "blk",
        "age": "36",
        "place_of_birth": "aberaeron",
        "home_address": "blk",
        "f": "blk",
        "name_of_ship": "dewi lass",
        "ship_port": "blk",
        "date_leaving": "1870-01-08",
        "joined_ship_date": "1870-03-$",
        "joined_at_port": "milford",
        "capacity": "mate",
        "date_left": "1870-07-08",
        "left_port": "swansea",
        "cause_of_leaving": "remains on board",
        "sign_with_mark": "n",
        "notes": "blk"
    },
    {
        "id": "vtls004632305_1_15",
        "type": "sailor",
        "parent": "vtls004632305",
        "name": "james dobson",
        "dob": "blk",
        "age": "22",
        "place_of_birth": "hereford",
        "home_address": "blk",
        "f": "blk",
        "name_of_ship": "first ship",
        "ship_port": "blk",
        "date_leaving": "blk",
        "joined_ship_date": "1869-05-22",
        "joined_at_port": "swansea",
        "capacity": "ordinary seaman",
        "date_left": "1869-12-29",
        "left_port": "milford",
        "cause_of_leaving": "paid off",
        "sign_with_mark": "n",
        "notes": "blk"
    },
    {
        "id": "vtls004632311_1_14",
        "type": "sailor",
        "parent": "vtls004632311",
        "name": "david jones",
        "dob": "blk",
        "age": "16",
        "place_of_birth": "llanon",
        "home_address": "blk",
        "f": "blk",
        "name_of_ship": "camden",
        "ship_port": "aberystwyth",
        "date_leaving": "continued",
        "joined_ship_date": "blk",
        "joined_at_port": "blk",
        "capacity": "boy",
        "date_left": "blk",
        "left_port": "blk",
        "cause_of_leaving": "remains on board",
        "sign_with_mark": "n",
        "notes": "david jones is stated as being 17 years old in the previous voyage of the same year."
    },
    {
        "id": "vtls004632311_1_11",
        "type": "sailor",
        "parent": "vtls004632311",
        "name": "david jones",
        "dob": "blk",
        "age": "32",
        "place_of_birth": "llanon",
        "home_address": "llanon, cardiganshire",
        "f": "llanon, cardiganshire",
        "name_of_ship": "camden",
        "ship_port": "aberystwyth",
        "date_leaving": "continued",
        "joined_ship_date": "blk",
        "joined_at_port": "blk",
        "capacity": "master",
        "date_left": "blk",
        "left_port": "blk",
        "cause_of_leaving": "remains on board",
        "sign_with_mark": "n",
        "notes": "dates of the voyage: 1870-07-11 until 1870-12-18."
    },
    {
        "id": "vtls004632320_0_11",
        "type": "sailor",
        "parent": "vtls004632320",
        "name": "david jones",
        "dob": "blk",
        "age": "32",
        "place_of_birth": "llanon",
        "home_address": "llanon, cardigan",
        "f": "llanon, cardigan",
        "name_of_ship": "camden",
        "ship_port": "aberystwyth",
        "date_leaving": "1870-12-31",
        "joined_ship_date": "1871-01-01",
        "joined_at_port": "whitehaven",
        "capacity": "master",
        "date_left": "1871-06-30",
        "left_port": "poole",
        "cause_of_leaving": "remains on board",
        "sign_with_mark": "n",
        "notes": "blk"
    },
    {
        "id": "vtls004632311_0_13",
        "type": "sailor",
        "parent": "vtls004632311",
        "name": "david d davies",
        "dob": "blk",
        "age": "36",
        "place_of_birth": "milford",
        "home_address": "blk",
        "f": "blk",
        "name_of_ship": "camden",
        "ship_port": "aberystwyth",
        "date_leaving": "1870-01-01",
        "joined_ship_date": "1870-04-[01]",
        "joined_at_port": "milford",
        "capacity": "able seaman",
        "date_left": "1870-07-08",
        "left_port": "swansea",
        "cause_of_leaving": "remains on board",
        "sign_with_mark": "n",
        "notes": "blk"
    },
    {
        "id": "vtls004632320_0_13",
        "type": "sailor",
        "parent": "vtls004632320",
        "name": "david jones",
        "dob": "blk",
        "age": "18",
        "place_of_birth": "llanon",
        "home_address": "blk",
        "f": "blk",
        "name_of_ship": "camden",
        "ship_port": "aberystwyth",
        "date_leaving": "continued",
        "joined_ship_date": "1870-03-30",
        "joined_at_port": "milford",
        "capacity": "ordinary seaman",
        "date_left": "1871-06-30",
        "left_port": "poole",
        "cause_of_leaving": "remains on board",
        "sign_with_mark": "n",
        "notes": "blk"
    },
    {
        "id": "vtls004632311_0_14",
        "type": "sailor",
        "parent": "vtls004632311",
        "name": "david jones",
        "dob": "blk",
        "age": "17",
        "place_of_birth": "llanon",
        "home_address": "blk",
        "f": "blk",
        "name_of_ship": "leander",
        "ship_port": "aberystwyth",
        "date_leaving": "1870-12-17",
        "joined_ship_date": "1870-03-30",
        "joined_at_port": "milford",
        "capacity": "boy",
        "date_left": "1870-07-08",
        "left_port": "swansea",
        "cause_of_leaving": "remains on board",
        "sign_with_mark": "n",
        "notes": "blk"
    },
    {
        "id": "vtls004632320_0_12",
        "type": "sailor",
        "parent": "vtls004632320",
        "name": "david d davies",
        "dob": "blk",
        "age": "36",
        "place_of_birth": "llanon",
        "home_address": "blk",
        "f": "blk",
        "name_of_ship": "camden",
        "ship_port": "aberystwyth",
        "date_leaving": "continued",
        "joined_ship_date": "1870-03-11",
        "joined_at_port": "milford",
        "capacity": "mate",
        "date_left": "1871-06-30",
        "left_port": "poole",
        "cause_of_leaving": "remains on board",
        "sign_with_mark": "n",
        "notes": "blk"
    },
    {
        "id": "vtls004632311_1_13",
        "type": "sailor",
        "parent": "vtls004632311",
        "name": "david d davies",
        "dob": "blk",
        "age": "37",
        "place_of_birth": "cardigan",
        "home_address": "blk",
        "f": "blk",
        "name_of_ship": "camden",
        "ship_port": "aberystwyth",
        "date_leaving": "continued",
        "joined_ship_date": "blk",
        "joined_at_port": "blk",
        "capacity": "able seaman",
        "date_left": "blk",
        "left_port": "blk",
        "cause_of_leaving": "remains on board",
        "sign_with_mark": "n",
        "notes": "blk"
    },
    {
        "id": "vtls004632311_1_12",
        "type": "sailor",
        "parent": "vtls004632311",
        "name": "david d davies",
        "dob": "blk",
        "age": "36",
        "place_of_birth": "llanon",
        "home_address": "blk",
        "f": "blk",
        "name_of_ship": "camden",
        "ship_port": "aberystwyth",
        "date_leaving": "continued",
        "joined_ship_date": "blk",
        "joined_at_port": "blk",
        "capacity": "mate",
        "date_left": "blk",
        "left_port": "blk",
        "cause_of_leaving": "remains on board",
        "sign_with_mark": "n",
        "notes": "blk"
    },
    {
        "id": "vtls004632320_0_15",
        "type": "sailor",
        "parent": "vtls004632320",
        "name": "evan morris",
        "dob": "blk",
        "age": "19",
        "place_of_birth": "milford",
        "home_address": "blk",
        "f": "blk",
        "name_of_ship": "clarovine",
        "ship_port": "aberystwyth",
        "date_leaving": "troon",
        "joined_ship_date": "1871-$-25",
        "joined_at_port": "milford",
        "capacity": "ordinary seaman",
        "date_left": "1871-06-30",
        "left_port": "poole",
        "cause_of_leaving": "remains on board",
        "sign_with_mark": "n",
        "notes": "blk"
    },
    {
        "id": "vtls004632320_0_14",
        "type": "sailor",
        "parent": "vtls004632320",
        "name": "david d davies",
        "dob": "blk",
        "age": "35",
        "place_of_birth": "milford",
        "home_address": "blk",
        "f": "blk",
        "name_of_ship": "clarovine",
        "ship_port": "aberystwyth",
        "date_leaving": "continued",
        "joined_ship_date": "1871",
        "joined_at_port": "milford",
        "capacity": "able seaman",
        "date_left": "1871-01-30",
        "left_port": "cardiff",
        "cause_of_leaving": "remains on board",
        "sign_with_mark": "n",
        "notes": "blk"
    },
    {
        "id": "vtls004632320_1_13",
        "type": "sailor",
        "parent": "vtls004632320",
        "name": "david jones",
        "dob": "blk",
        "age": "17",
        "place_of_birth": "llanon, cardigan",
        "home_address": "blk",
        "f": "blk",
        "name_of_ship": "camden",
        "ship_port": "aberystwyth",
        "date_leaving": "blk",
        "joined_ship_date": "blk",
        "joined_at_port": "blk",
        "capacity": "ordinary seaman",
        "date_left": "1871-11-20",
        "left_port": "gloucestershire",
        "cause_of_leaving": "discharged",
        "sign_with_mark": "n",
        "notes": "blk"
    },
    {
        "id": "vtls004632320_1_15",
        "type": "sailor",
        "parent": "vtls004632320",
        "name": "samuel wood",
        "dob": "blk",
        "age": "32",
        "place_of_birth": "holland",
        "home_address": "blk",
        "f": "blk",
        "name_of_ship": "look out",
        "ship_port": "london",
        "date_leaving": "1871-12-12",
        "joined_ship_date": "1871-12-16",
        "joined_at_port": "kingroad",
        "capacity": "able seaman",
        "date_left": "blk",
        "left_port": "blk",
        "cause_of_leaving": "remains on board",
        "sign_with_mark": "n",
        "notes": "blk"
    },
    {
        "id": "vtls004632320_1_11",
        "type": "sailor",
        "parent": "vtls004632320",
        "name": "david jones",
        "dob": "blk",
        "age": "33",
        "place_of_birth": "llanon, cardigan",
        "home_address": "llanon, cardigan",
        "f": "llanon, cardigan",
        "name_of_ship": "camden",
        "ship_port": "aberystwyth",
        "date_leaving": "blk",
        "joined_ship_date": "blk",
        "joined_at_port": "blk",
        "capacity": "master",
        "date_left": "blk",
        "left_port": "blk",
        "cause_of_leaving": "remains on board",
        "sign_with_mark": "n",
        "notes": "blk"
    },
    {
        "id": "vtls004632320_1_14",
        "type": "sailor",
        "parent": "vtls004632320",
        "name": "evan morris",
        "dob": "blk",
        "age": "19",
        "place_of_birth": "llanon, cardigan",
        "home_address": "blk",
        "f": "blk",
        "name_of_ship": "camden",
        "ship_port": "aberystwyth",
        "date_leaving": "blk",
        "joined_ship_date": "blk",
        "joined_at_port": "blk",
        "capacity": "ordinary seaman",
        "date_left": "blk",
        "left_port": "blk",
        "cause_of_leaving": "remains on board",
        "sign_with_mark": "n",
        "notes": "blk"
    },
    {
        "id": "vtls004632320_1_12",
        "type": "sailor",
        "parent": "vtls004632320",
        "name": "david d davies",
        "dob": "blk",
        "age": "37",
        "place_of_birth": "llanon, cardigan",
        "home_address": "blk",
        "f": "blk",
        "name_of_ship": "camden",
        "ship_port": "aberystwyth",
        "date_leaving": "blk",
        "joined_ship_date": "blk",
        "joined_at_port": "blk",
        "capacity": "mate",
        "date_left": "blk",
        "left_port": "blk",
        "cause_of_leaving": "remains on board",
        "sign_with_mark": "n",
        "notes": "blk"
    },
    {
        "id": "vtls004632330_1_11",
        "type": "sailor",
        "parent": "vtls004632330",
        "name": "david jones",
        "dob": "blk",
        "age": "33",
        "place_of_birth": "cardigan",
        "home_address": "llanon, cardiganshire",
        "f": "llanon, cardiganshire",
        "name_of_ship": "camden",
        "ship_port": "aberystwyth",
        "date_leaving": "remains",
        "joined_ship_date": "1872-07-01",
        "joined_at_port": "blk",
        "capacity": "master",
        "date_left": "blk",
        "left_port": "blk",
        "cause_of_leaving": "remains on board",
        "sign_with_mark": "n",
        "notes": "place of birth for all entries is presumably 'cardiganshire'."
    },
    {
        "id": "vtls004632330_1_15",
        "type": "sailor",
        "parent": "vtls004632330",
        "name": "william davis",
        "dob": "blk",
        "age": "17",
        "place_of_birth": "cardigan",
        "home_address": "blk",
        "f": "blk",
        "name_of_ship": "convoy",
        "ship_port": "aberystwyth",
        "date_leaving": "unknown",
        "joined_ship_date": "1871-10-02",
        "joined_at_port": "cardiff",
        "capacity": "ordinary seaman",
        "date_left": "blk",
        "left_port": "blk",
        "cause_of_leaving": "remains on board",
        "sign_with_mark": "n",
        "notes": "blk"
    },
    {
        "id": "vtls004632330_1_12",
        "type": "sailor",
        "parent": "vtls004632330",
        "name": "david d davies",
        "dob": "blk",
        "age": "38",
        "place_of_birth": "cardigan",
        "home_address": "blk",
        "f": "blk",
        "name_of_ship": "dewy lass",
        "ship_port": "aberystwyth",
        "date_leaving": "unknown",
        "joined_ship_date": "1870-03-16",
        "joined_at_port": "milford",
        "capacity": "mate",
        "date_left": "1872-10-14",
        "left_port": "cardiff",
        "cause_of_leaving": "discharged",
        "sign_with_mark": "n",
        "notes": "blk"
    },
    {
        "id": "vtls004632330_0_14",
        "type": "sailor",
        "parent": "vtls004632330",
        "name": "henry coombs",
        "dob": "blk",
        "age": "19",
        "place_of_birth": "plymouth",
        "home_address": "blk",
        "f": "blk",
        "name_of_ship": "first ship",
        "ship_port": "blk",
        "date_leaving": "blk",
        "joined_ship_date": "1872-04-27",
        "joined_at_port": "gloucester",
        "capacity": "ordinary seaman",
        "date_left": "blk",
        "left_port": "blk",
        "cause_of_leaving": "remains on board",
        "sign_with_mark": "n",
        "notes": "blk"
    },
    {
        "id": "vtls004632330_1_14",
        "type": "sailor",
        "parent": "vtls004632330",
        "name": "john evans",
        "dob": "blk",
        "age": "18",
        "place_of_birth": "cardigan",
        "home_address": "blk",
        "f": "blk",
        "name_of_ship": "camden",
        "ship_port": "aberystwyth",
        "date_leaving": "blk",
        "joined_ship_date": "1872-07-28",
        "joined_at_port": "london",
        "capacity": "ordinary seaman",
        "date_left": "blk",
        "left_port": "blk",
        "cause_of_leaving": "remains on board",
        "sign_with_mark": "n",
        "notes": "blk"
    },
    {
        "id": "vtls004632330_0_11",
        "type": "sailor",
        "parent": "vtls004632330",
        "name": "david jones",
        "dob": "blk",
        "age": "33",
        "place_of_birth": "llanon",
        "home_address": "llanon, cardigan",
        "f": "llanon, cardigan",
        "name_of_ship": "camden",
        "ship_port": "aberystwyth",
        "date_leaving": "continued",
        "joined_ship_date": "blk",
        "joined_at_port": "blk",
        "capacity": "master",
        "date_left": "blk",
        "left_port": "blk",
        "cause_of_leaving": "remains on board",
        "sign_with_mark": "n",
        "notes": "blk"
    },
    {
        "id": "vtls004632330_0_12",
        "type": "sailor",
        "parent": "vtls004632330",
        "name": "david d davies",
        "dob": "blk",
        "age": "37",
        "place_of_birth": "llanon",
        "home_address": "blk",
        "f": "blk",
        "name_of_ship": "camden",
        "ship_port": "aberystwyth",
        "date_leaving": "continued",
        "joined_ship_date": "1871-03-16",
        "joined_at_port": "milford",
        "capacity": "mate",
        "date_left": "blk",
        "left_port": "blk",
        "cause_of_leaving": "remains on board",
        "sign_with_mark": "n",
        "notes": "blk"
    },
    {
        "id": "vtls004632330_1_13",
        "type": "sailor",
        "parent": "vtls004632330",
        "name": "jenkin evans",
        "dob": "blk",
        "age": "24",
        "place_of_birth": "cardigan",
        "home_address": "blk",
        "f": "blk",
        "name_of_ship": "anne",
        "ship_port": "milford",
        "date_leaving": "1871-10-16",
        "joined_ship_date": "1871-10-17",
        "joined_at_port": "cardiff",
        "capacity": "mate",
        "date_left": "blk",
        "left_port": "blk",
        "cause_of_leaving": "remains on board",
        "sign_with_mark": "n",
        "notes": "blk"
    },
    {
        "id": "vtls004632330_0_13",
        "type": "sailor",
        "parent": "vtls004632330",
        "name": "william scanlan",
        "dob": "blk",
        "age": "16",
        "place_of_birth": "tralee",
        "home_address": "blk",
        "f": "blk",
        "name_of_ship": "first ship",
        "ship_port": "blk",
        "date_leaving": "blk",
        "joined_ship_date": "1872-03-07",
        "joined_at_port": "tralee",
        "capacity": "boy",
        "date_left": "blk",
        "left_port": "blk",
        "cause_of_leaving": "remains on board",
        "sign_with_mark": "n",
        "notes": "blk"
    },
    {
        "id": "vtls004632349_0_12",
        "type": "sailor",
        "parent": "vtls004632349",
        "name": "jenkin evans",
        "dob": "blk",
        "age": "26",
        "place_of_birth": "llanon",
        "home_address": "blk",
        "f": "blk",
        "name_of_ship": "camden",
        "ship_port": "aberystwyth",
        "date_leaving": "continued",
        "joined_ship_date": "blk",
        "joined_at_port": "blk",
        "capacity": "mate",
        "date_left": "1873-02-01",
        "left_port": "aberyon",
        "cause_of_leaving": "discharged",
        "sign_with_mark": "n",
        "notes": "presumably the port of discharge is aberaeron."
    },
    {
        "id": "vtls004632349_0_17",
        "type": "sailor",
        "parent": "vtls004632349",
        "name": "thomas williams",
        "dob": "blk",
        "age": "22",
        "place_of_birth": "caernarfon",
        "home_address": "blk",
        "f": "blk",
        "name_of_ship": "mermaid",
        "ship_port": "carnarvon",
        "date_leaving": "1873-04-26",
        "joined_ship_date": "1873-05-05",
        "joined_at_port": "gloucester",
        "capacity": "ordinary seaman",
        "date_left": "blk",
        "left_port": "blk",
        "cause_of_leaving": "remains on board",
        "sign_with_mark": "n",
        "notes": "blk"
    },
    {
        "id": "vtls004632349_0_15",
        "type": "sailor",
        "parent": "vtls004632349",
        "name": "david thomas",
        "dob": "blk",
        "age": "28",
        "place_of_birth": "aberaeron",
        "home_address": "blk",
        "f": "blk",
        "name_of_ship": "lucinda",
        "ship_port": "aberystwyth",
        "date_leaving": "1873-02-21",
        "joined_ship_date": "1873-03-11",
        "joined_at_port": "aberayron",
        "capacity": "able seaman",
        "date_left": "1873-05-30",
        "left_port": "swansea",
        "cause_of_leaving": "discharged",
        "sign_with_mark": "n",
        "notes": "blk"
    },
    {
        "id": "vtls004632349_0_13",
        "type": "sailor",
        "parent": "vtls004632349",
        "name": "william davies",
        "dob": "blk",
        "age": "17",
        "place_of_birth": "llanon",
        "home_address": "blk",
        "f": "blk",
        "name_of_ship": "camden",
        "ship_port": "aberystwyth",
        "date_leaving": "continued",
        "joined_ship_date": "blk",
        "joined_at_port": "blk",
        "capacity": "ordinary seaman",
        "date_left": "1873-02-01",
        "left_port": "aberyon",
        "cause_of_leaving": "discharged",
        "sign_with_mark": "n",
        "notes": "blk"
    },
    {
        "id": "vtls004632349_0_11",
        "type": "sailor",
        "parent": "vtls004632349",
        "name": "david jones",
        "dob": "blk",
        "age": "34",
        "place_of_birth": "llanon",
        "home_address": "llanon, cardiganshire",
        "f": "llanon, cardiganshire",
        "name_of_ship": "camden",
        "ship_port": "aberystwyth",
        "date_leaving": "continued",
        "joined_ship_date": "blk",
        "joined_at_port": "blk",
        "capacity": "master",
        "date_left": "blk",
        "left_port": "blk",
        "cause_of_leaving": "remains on board",
        "sign_with_mark": "n",
        "notes": "blk"
    },
    {
        "id": "vtls004632349_0_16",
        "type": "sailor",
        "parent": "vtls004632349",
        "name": "david evans",
        "dob": "blk",
        "age": "16",
        "place_of_birth": "aberaeron",
        "home_address": "blk",
        "f": "blk",
        "name_of_ship": "sisters",
        "ship_port": "newquay",
        "date_leaving": "1873-03-10",
        "joined_ship_date": "1873-03-17",
        "joined_at_port": "aberayron",
        "capacity": "boy",
        "date_left": "1873-05-01",
        "left_port": "gloucestershire",
        "cause_of_leaving": "discharged",
        "sign_with_mark": "n",
        "notes": "blk"
    },
    {
        "id": "vtls004632349_0_14",
        "type": "sailor",
        "parent": "vtls004632349",
        "name": "david owens",
        "dob": "blk",
        "age": "30",
        "place_of_birth": "llanon",
        "home_address": "blk",
        "f": "blk",
        "name_of_ship": "prima",
        "ship_port": "aberystwyth",
        "date_leaving": "1873-02-20",
        "joined_ship_date": "1873-02-23",
        "joined_at_port": "aberayron",
        "capacity": "mate",
        "date_left": "1873-05-30",
        "left_port": "swansea",
        "cause_of_leaving": "discharged",
        "sign_with_mark": "n",
        "notes": "blk"
    },
    {
        "id": "vtls004632349_0_18",
        "type": "sailor",
        "parent": "vtls004632349",
        "name": "thomas evans",
        "dob": "blk",
        "age": "23",
        "place_of_birth": "llanon",
        "home_address": "blk",
        "f": "blk",
        "name_of_ship": "coronel",
        "ship_port": "swansea",
        "date_leaving": "1873-05-23",
        "joined_ship_date": "1873-06-02",
        "joined_at_port": "swansea",
        "capacity": "mate",
        "date_left": "blk",
        "left_port": "blk",
        "cause_of_leaving": "remains on board",
        "sign_with_mark": "n",
        "notes": "blk"
    },
    {
        "id": "vtls004632371_0_11",
        "type": "sailor",
        "parent": "vtls004632371",
        "name": "david jones",
        "dob": "blk",
        "age": "35",
        "place_of_birth": "llanon",
        "home_address": "llanon, cardiganshire",
        "f": "llanon, cardiganshire",
        "name_of_ship": "camden",
        "ship_port": "aberystwyth",
        "date_leaving": "continued",
        "joined_ship_date": "1874-01-08",
        "joined_at_port": "louile",
        "capacity": "master",
        "date_left": "1874-07-10",
        "left_port": "swansea",
        "cause_of_leaving": "remains on board",
        "sign_with_mark": "n",
        "notes": "the section detailing the port of joining for the first four crewmen seems problematic. in the account of the voyage, the master states that the vessel 'sailed from ardglass in port luoile...', so it appears this is the name for a port. perhaps it corresponds to an area of ardglass called luke's port, or possibly the lecale pennisula."
    },
    {
        "id": "vtls004632349_1_11",
        "type": "sailor",
        "parent": "vtls004632349",
        "name": "david jones",
        "dob": "blk",
        "age": "35",
        "place_of_birth": "llanon, cardigan",
        "home_address": "llanon, cardigan",
        "f": "llanon, cardigan",
        "name_of_ship": "camden",
        "ship_port": "aberystwyth",
        "date_leaving": "continued",
        "joined_ship_date": "1857",
        "joined_at_port": "aberayron",
        "capacity": "master",
        "date_left": "1874-01-01",
        "left_port": "ardglass",
        "cause_of_leaving": "remains on board",
        "sign_with_mark": "n",
        "notes": "blk"
    },
    {
        "id": "vtls004632371_0_14",
        "type": "sailor",
        "parent": "vtls004632371",
        "name": "thomas harding",
        "dob": "blk",
        "age": "20",
        "place_of_birth": "s. carolina",
        "home_address": "blk",
        "f": "blk",
        "name_of_ship": "camden",
        "ship_port": "aberystwyth",
        "date_leaving": "continued",
        "joined_ship_date": "1874-01-08",
        "joined_at_port": "louile",
        "capacity": "ordinary seaman",
        "date_left": "1874-01-28",
        "left_port": "milford",
        "cause_of_leaving": "discharged",
        "sign_with_mark": "n",
        "notes": "blk"
    },
    {
        "id": "vtls004632349_1_12",
        "type": "sailor",
        "parent": "vtls004632349",
        "name": "thomas evans",
        "dob": "blk",
        "age": "25",
        "place_of_birth": "llanon, cardigan",
        "home_address": "blk",
        "f": "blk",
        "name_of_ship": "coronele",
        "ship_port": "swansea",
        "date_leaving": "1873-05-27",
        "joined_ship_date": "1873-06-02",
        "joined_at_port": "swansea",
        "capacity": "mate",
        "date_left": "1874-01-05",
        "left_port": "ardglass",
        "cause_of_leaving": "left for belfast",
        "sign_with_mark": "n",
        "notes": "blk"
    },
    {
        "id": "vtls004632349_0_19",
        "type": "sailor",
        "parent": "vtls004632349",
        "name": "john davies",
        "dob": "blk",
        "age": "30",
        "place_of_birth": "aberaeron",
        "home_address": "blk",
        "f": "blk",
        "name_of_ship": "princess royal",
        "ship_port": "cardigan",
        "date_leaving": "1873-06-07",
        "joined_ship_date": "1873-06-09",
        "joined_at_port": "swansea",
        "capacity": "able seaman",
        "date_left": "blk",
        "left_port": "blk",
        "cause_of_leaving": "remains on board",
        "sign_with_mark": "n",
        "notes": "blk"
    },
    {
        "id": "vtls004632349_1_13",
        "type": "sailor",
        "parent": "vtls004632349",
        "name": "david parry",
        "dob": "blk",
        "age": "30",
        "place_of_birth": "bangor",
        "home_address": "blk",
        "f": "blk",
        "name_of_ship": "arvon",
        "ship_port": "carnarvon",
        "date_leaving": "1873-05-27",
        "joined_ship_date": "1873-06-07",
        "joined_at_port": "swansea",
        "capacity": "able seaman",
        "date_left": "1874-01",
        "left_port": "ardglass",
        "cause_of_leaving": "remains on board",
        "sign_with_mark": "n",
        "notes": "blk"
    },
    {
        "id": "vtls004632371_0_13",
        "type": "sailor",
        "parent": "vtls004632371",
        "name": "david parry",
        "dob": "blk",
        "age": "28",
        "place_of_birth": "bangor",
        "home_address": "blk",
        "f": "blk",
        "name_of_ship": "camden",
        "ship_port": "aberystwyth",
        "date_leaving": "continued",
        "joined_ship_date": "1874-01-08",
        "joined_at_port": "louile",
        "capacity": "able seaman",
        "date_left": "1874-01-28",
        "left_port": "milford",
        "cause_of_leaving": "discharged",
        "sign_with_mark": "n",
        "notes": "blk"
    },
    {
        "id": "vtls004632371_0_12",
        "type": "sailor",
        "parent": "vtls004632371",
        "name": "thomas evans",
        "dob": "blk",
        "age": "23",
        "place_of_birth": "llanon",
        "home_address": "blk",
        "f": "blk",
        "name_of_ship": "camden",
        "ship_port": "aberystwyth",
        "date_leaving": "continued",
        "joined_ship_date": "1874-01-08",
        "joined_at_port": "louile",
        "capacity": "mate",
        "date_left": "1874-01-28",
        "left_port": "milford",
        "cause_of_leaving": "discharged",
        "sign_with_mark": "n",
        "notes": "blk"
    },
    {
        "id": "vtls004632349_1_14",
        "type": "sailor",
        "parent": "vtls004632349",
        "name": "thomas hardinge",
        "dob": "blk",
        "age": "21",
        "place_of_birth": "galway",
        "home_address": "blk",
        "f": "blk",
        "name_of_ship": "first ship",
        "ship_port": "blk",
        "date_leaving": "$",
        "joined_ship_date": "1873-06-07",
        "joined_at_port": "swansea",
        "capacity": "boy",
        "date_left": "1874-01",
        "left_port": "ardglass",
        "cause_of_leaving": "remains on board",
        "sign_with_mark": "n",
        "notes": "blk"
    },
    {
        "id": "vtls004632371_1_14",
        "type": "sailor",
        "parent": "vtls004632371",
        "name": "levi phillips",
        "dob": "blk",
        "age": "16",
        "place_of_birth": "st davids",
        "home_address": "blk",
        "f": "blk",
        "name_of_ship": "camden",
        "ship_port": "aberystwyth",
        "date_leaving": "continued",
        "joined_ship_date": "1874-07-11",
        "joined_at_port": "swansea",
        "capacity": "boy",
        "date_left": "1875-01-14",
        "left_port": "swansea",
        "cause_of_leaving": "remains on board",
        "sign_with_mark": "n",
        "notes": "levi phillips's surname is recorded as 'thomas' in the previous voyage of this year (1874)."
    },
    {
        "id": "vtls004632371_1_11",
        "type": "sailor",
        "parent": "vtls004632371",
        "name": "david jones",
        "dob": "blk",
        "age": "35",
        "place_of_birth": "llanon",
        "home_address": "llanon, cardigan",
        "f": "llanon, cardigan",
        "name_of_ship": "camden",
        "ship_port": "aberystwyth",
        "date_leaving": "continued",
        "joined_ship_date": "1874-07-11",
        "joined_at_port": "swansea",
        "capacity": "master",
        "date_left": "1875-01-14",
        "left_port": "swansea",
        "cause_of_leaving": "remains on board",
        "sign_with_mark": "n",
        "notes": "blk"
    },
    {
        "id": "vtls004632371_1_13",
        "type": "sailor",
        "parent": "vtls004632371",
        "name": "hugh humphries",
        "dob": "blk",
        "age": "29",
        "place_of_birth": "caernarfon",
        "home_address": "blk",
        "f": "blk",
        "name_of_ship": "camden",
        "ship_port": "aberystwyth",
        "date_leaving": "continued",
        "joined_ship_date": "1874-07-11",
        "joined_at_port": "swansea",
        "capacity": "able seaman",
        "date_left": "1874-11-20",
        "left_port": "swansea",
        "cause_of_leaving": "discharged",
        "sign_with_mark": "n",
        "notes": "blk"
    },
    {
        "id": "vtls004632371_0_16",
        "type": "sailor",
        "parent": "vtls004632371",
        "name": "david d davies",
        "dob": "blk",
        "age": "blk",
        "place_of_birth": "st dogmaels",
        "home_address": "blk",
        "f": "blk",
        "name_of_ship": "louisa",
        "ship_port": "london",
        "date_leaving": "blk",
        "joined_ship_date": "1874-02-08",
        "joined_at_port": "milford",
        "capacity": "able seaman",
        "date_left": "1874-07-02",
        "left_port": "swansea",
        "cause_of_leaving": "remains on board",
        "sign_with_mark": "n",
        "notes": "blk"
    },
    {
        "id": "vtls004632371_0_15",
        "type": "sailor",
        "parent": "vtls004632371",
        "name": "david d davies",
        "dob": "blk",
        "age": "39",
        "place_of_birth": "llanon",
        "home_address": "blk",
        "f": "blk",
        "name_of_ship": "bonita",
        "ship_port": "dartmouth",
        "date_leaving": "1874-01-19",
        "joined_ship_date": "1874-02-08",
        "joined_at_port": "milford",
        "capacity": "mate",
        "date_left": "1874-07-10",
        "left_port": "swansea",
        "cause_of_leaving": "remains on board",
        "sign_with_mark": "n",
        "notes": "blk"
    },
    {
        "id": "vtls004632371_1_12",
        "type": "sailor",
        "parent": "vtls004632371",
        "name": "david d davies",
        "dob": "blk",
        "age": "39",
        "place_of_birth": "llanon",
        "home_address": "blk",
        "f": "blk",
        "name_of_ship": "camden",
        "ship_port": "aberystwyth",
        "date_leaving": "continued",
        "joined_ship_date": "1874-07-11",
        "joined_at_port": "swansea",
        "capacity": "mate",
        "date_left": "1874-11-20",
        "left_port": "swansea",
        "cause_of_leaving": "discharged",
        "sign_with_mark": "n",
        "notes": "blk"
    },
    {
        "id": "vtls004632371_0_17",
        "type": "sailor",
        "parent": "vtls004632371",
        "name": "levi thomas",
        "dob": "blk",
        "age": "16",
        "place_of_birth": "st davids",
        "home_address": "blk",
        "f": "blk",
        "name_of_ship": "first ship",
        "ship_port": "blk",
        "date_leaving": "blk",
        "joined_ship_date": "1874-02-08",
        "joined_at_port": "milford",
        "capacity": "boy",
        "date_left": "1874-07-10",
        "left_port": "swansea",
        "cause_of_leaving": "remains on board",
        "sign_with_mark": "n",
        "notes": "blk"
    }
]