[
    {
        "id": "vtls004671729_0_14",
        "type": "sailor",
        "parent": "vtls004671729",
        "name": "thomas hughes",
        "dob": "blk",
        "age": "18",
        "place_of_birth": "aberystwyth",
        "home_address": "blk",
        "f": "blk",
        "name_of_ship": "herald",
        "ship_port": "aberystwyth",
        "date_leaving": "1862-12-31",
        "joined_ship_date": "1863-01-01",
        "joined_at_port": "porthmadoc",
        "capacity": "ordinary seaman",
        "date_left": "blk",
        "left_port": "blk",
        "cause_of_leaving": "remains on board",
        "sign_with_mark": "n",
        "notes": "blk"
    },
    {
        "id": "vtls004671729_0_13",
        "type": "sailor",
        "parent": "vtls004671729",
        "name": "thomas rowlands",
        "dob": "blk",
        "age": "21",
        "place_of_birth": "aberystwyth",
        "home_address": "blk",
        "f": "blk",
        "name_of_ship": "herald",
        "ship_port": "aberystwyth",
        "date_leaving": "1862-12-31",
        "joined_ship_date": "1863-01-01",
        "joined_at_port": "porthmadoc",
        "capacity": "able seaman",
        "date_left": "blk",
        "left_port": "blk",
        "cause_of_leaving": "remains on board",
        "sign_with_mark": "n",
        "notes": "blk"
    },
    {
        "id": "vtls004671729_0_12",
        "type": "sailor",
        "parent": "vtls004671729",
        "name": "david jones",
        "dob": "blk",
        "age": "35",
        "place_of_birth": "aberystwyth",
        "home_address": "blk",
        "f": "blk",
        "name_of_ship": "herald",
        "ship_port": "aberystwyth",
        "date_leaving": "1862-12-31",
        "joined_ship_date": "1863-01-01",
        "joined_at_port": "porthmadoc",
        "capacity": "mate",
        "date_left": "blk",
        "left_port": "blk",
        "cause_of_leaving": "remains on board",
        "sign_with_mark": "n",
        "notes": "blk"
    },
    {
        "id": "vtls004671729_0_11",
        "type": "sailor",
        "parent": "vtls004671729",
        "name": "william hughes",
        "dob": "blk",
        "age": "20",
        "place_of_birth": "aberystwyth",
        "home_address": "blk",
        "f": "blk",
        "name_of_ship": "herald",
        "ship_port": "aberystwyth",
        "date_leaving": "continued",
        "joined_ship_date": "blk",
        "joined_at_port": "blk",
        "capacity": "master",
        "date_left": "blk",
        "left_port": "blk",
        "cause_of_leaving": "remains on board",
        "sign_with_mark": "n",
        "notes": "blk"
    },
    {
        "id": "vtls004671729_1_16",
        "type": "sailor",
        "parent": "vtls004671729",
        "name": "henry mathias",
        "dob": "blk",
        "age": "44",
        "place_of_birth": "newport",
        "home_address": "19 st woollos road, newport, monmouthshire",
        "f": "19 st woollos road, newport, monmouthshire",
        "name_of_ship": "on shore",
        "ship_port": "blk",
        "date_leaving": "blk",
        "joined_ship_date": "1863-07-26",
        "joined_at_port": "newport",
        "capacity": "mate",
        "date_left": "1863-11-27",
        "left_port": "bangor",
        "cause_of_leaving": "remains on board",
        "sign_with_mark": "n",
        "notes": "became master on the death of william hughes"
    },
    {
        "id": "vtls004671729_1_15",
        "type": "sailor",
        "parent": "vtls004671729",
        "name": "john pugh",
        "dob": "blk",
        "age": "19",
        "place_of_birth": "aberystwyth",
        "home_address": "blk",
        "f": "blk",
        "name_of_ship": "john and mary",
        "ship_port": "penzance",
        "date_leaving": "1863-07",
        "joined_ship_date": "1863-07-26",
        "joined_at_port": "newport",
        "capacity": "ordinary seaman",
        "date_left": "1863-11-27",
        "left_port": "bangor",
        "cause_of_leaving": "discharged",
        "sign_with_mark": "n",
        "notes": "no john and mary registered at penzance. possibly jane and mary"
    },
    {
        "id": "vtls004671738_0_11",
        "type": "sailor",
        "parent": "vtls004671738",
        "name": "henry mathias",
        "dob": "blk",
        "age": "44",
        "place_of_birth": "newport",
        "home_address": "19 st woolos road, newport, monmouthshire",
        "f": "19 st woolos road, newport, monmouthshire",
        "name_of_ship": "herald",
        "ship_port": "aberystwyth",
        "date_leaving": "continued",
        "joined_ship_date": "blk",
        "joined_at_port": "blk",
        "capacity": "master",
        "date_left": "blk",
        "left_port": "blk",
        "cause_of_leaving": "remains on board",
        "sign_with_mark": "blk",
        "notes": "blk"
    },
    {
        "id": "vtls004671729_1_13",
        "type": "sailor",
        "parent": "vtls004671729",
        "name": "thomas rowlands",
        "dob": "blk",
        "age": "21",
        "place_of_birth": "aberystwyth",
        "home_address": "blk",
        "f": "blk",
        "name_of_ship": "herald",
        "ship_port": "aberystwyth",
        "date_leaving": "continued",
        "joined_ship_date": "1864-07-01",
        "joined_at_port": "barrow",
        "capacity": "ordinary seaman",
        "date_left": "1863-07-21",
        "left_port": "newport",
        "cause_of_leaving": "discharged",
        "sign_with_mark": "n",
        "notes": "blk"
    },
    {
        "id": "vtls004671729_1_14",
        "type": "sailor",
        "parent": "vtls004671729",
        "name": "thomas hughes",
        "dob": "blk",
        "age": "16",
        "place_of_birth": "aberystwyth",
        "home_address": "blk",
        "f": "blk",
        "name_of_ship": "herald",
        "ship_port": "aberystwyth",
        "date_leaving": "continued",
        "joined_ship_date": "1864-07-01",
        "joined_at_port": "barrow",
        "capacity": "cook",
        "date_left": "1863-07-21",
        "left_port": "newport",
        "cause_of_leaving": "remains on board",
        "sign_with_mark": "n",
        "notes": "blk"
    },
    {
        "id": "vtls004671729_1_11",
        "type": "sailor",
        "parent": "vtls004671729",
        "name": "william hughes",
        "dob": "blk",
        "age": "19",
        "place_of_birth": "aberystwyth",
        "home_address": "blk",
        "f": "blk",
        "name_of_ship": "herald",
        "ship_port": "aberystwyth",
        "date_leaving": "continued",
        "joined_ship_date": "1864-07-01",
        "joined_at_port": "barrow",
        "capacity": "master",
        "date_left": "1864-01-22",
        "left_port": "bangor",
        "cause_of_leaving": "died on shore",
        "sign_with_mark": "n",
        "notes": "blk"
    },
    {
        "id": "vtls004671729_1_12",
        "type": "sailor",
        "parent": "vtls004671729",
        "name": "evan griffith",
        "dob": "blk",
        "age": "30",
        "place_of_birth": "aberystwyth",
        "home_address": "blk",
        "f": "blk",
        "name_of_ship": "herald",
        "ship_port": "aberystwyth",
        "date_leaving": "continued",
        "joined_ship_date": "1864-07-01",
        "joined_at_port": "barrow",
        "capacity": "mate",
        "date_left": "1863-07-21",
        "left_port": "newport",
        "cause_of_leaving": "discharged",
        "sign_with_mark": "n",
        "notes": "blk"
    },
    {
        "id": "vtls004671738_1_13",
        "type": "sailor",
        "parent": "vtls004671738",
        "name": "thomas e hughes",
        "dob": "blk",
        "age": "17",
        "place_of_birth": "aberystwyth",
        "home_address": "blk",
        "f": "blk",
        "name_of_ship": "herald",
        "ship_port": "aberystwyth",
        "date_leaving": "remains",
        "joined_ship_date": "1864-05-26",
        "joined_at_port": "newport",
        "capacity": "ordinary seaman",
        "date_left": "1864-05-27",
        "left_port": "newport",
        "cause_of_leaving": "of sickness at newport [died] discharged on account.",
        "sign_with_mark": "n",
        "notes": "entry is on fold of document and a little difficult to read, but it appears that thomas e hughes died at newport"
    },
    {
        "id": "vtls004671738_2_11",
        "type": "sailor",
        "parent": "vtls004671738",
        "name": "henry mathias",
        "dob": "blk",
        "age": "44",
        "place_of_birth": "newport",
        "home_address": "19 st woollos street, newport, monmouthshire",
        "f": "19 st woollos street, newport, monmouthshire",
        "name_of_ship": "herald",
        "ship_port": "aberystwyth",
        "date_leaving": "1864-06-30",
        "joined_ship_date": "1864-01-01",
        "joined_at_port": "hull",
        "capacity": "master",
        "date_left": "blk",
        "left_port": "blk",
        "cause_of_leaving": "remains on board",
        "sign_with_mark": "blk",
        "notes": "blk"
    },
    {
        "id": "vtls004671738_0_13",
        "type": "sailor",
        "parent": "vtls004671738",
        "name": "thomas hughes",
        "dob": "blk",
        "age": "17",
        "place_of_birth": "aberystwyth south wales",
        "home_address": "blk",
        "f": "blk",
        "name_of_ship": "herald",
        "ship_port": "aberystwyth",
        "date_leaving": "continued",
        "joined_ship_date": "1864-02-22",
        "joined_at_port": "bangor",
        "capacity": "ordinary seaman",
        "date_left": "1864-05-25",
        "left_port": "newport",
        "cause_of_leaving": "discharged",
        "sign_with_mark": "n",
        "notes": "blk"
    },
    {
        "id": "vtls004671738_1_11",
        "type": "sailor",
        "parent": "vtls004671738",
        "name": "chichester found",
        "dob": "blk",
        "age": "48",
        "place_of_birth": "bideford",
        "home_address": "fredrick street, newport",
        "f": "fredrick street, newport",
        "name_of_ship": "florence annie",
        "ship_port": "newport",
        "date_leaving": "1864-05-19",
        "joined_ship_date": "1864-05-21",
        "joined_at_port": "newport",
        "capacity": "master",
        "date_left": "blk",
        "left_port": "blk",
        "cause_of_leaving": "remains on board",
        "sign_with_mark": "blk",
        "notes": "blk"
    },
    {
        "id": "vtls004671738_0_12",
        "type": "sailor",
        "parent": "vtls004671738",
        "name": "morris jones",
        "dob": "blk",
        "age": "39",
        "place_of_birth": "caernarvon, north wales",
        "home_address": "blk",
        "f": "blk",
        "name_of_ship": "sir richard",
        "ship_port": "bangor",
        "date_leaving": "1864-01",
        "joined_ship_date": "1864-02-22",
        "joined_at_port": "bangor",
        "capacity": "mate",
        "date_left": "1864-05-25",
        "left_port": "newport",
        "cause_of_leaving": "discharged",
        "sign_with_mark": "n",
        "notes": "blk"
    },
    {
        "id": "vtls004671738_1_14",
        "type": "sailor",
        "parent": "vtls004671738",
        "name": "william hughes",
        "dob": "blk",
        "age": "15",
        "place_of_birth": "amlwch",
        "home_address": "blk",
        "f": "blk",
        "name_of_ship": "herald",
        "ship_port": "aberystwyth",
        "date_leaving": "remains",
        "joined_ship_date": "1864-05-26",
        "joined_at_port": "newport",
        "capacity": "cook & steward",
        "date_left": "1864-08-26",
        "left_port": "hull",
        "cause_of_leaving": "discharged",
        "sign_with_mark": "y",
        "notes": "blk"
    },
    {
        "id": "vtls004671738_1_15",
        "type": "sailor",
        "parent": "vtls004671738",
        "name": "james do$$le",
        "dob": "blk",
        "age": "20",
        "place_of_birth": "newport",
        "home_address": "blk",
        "f": "blk",
        "name_of_ship": "sarah ann",
        "ship_port": "newport",
        "date_leaving": "1864-05-04",
        "joined_ship_date": "1864-05-28",
        "joined_at_port": "penarth",
        "capacity": "ordinary seaman",
        "date_left": "1864-08-26",
        "left_port": "hull",
        "cause_of_leaving": "discharged",
        "sign_with_mark": "n",
        "notes": "blk"
    },
    {
        "id": "vtls004671738_1_12",
        "type": "sailor",
        "parent": "vtls004671738",
        "name": "henry mathias",
        "dob": "blk",
        "age": "44",
        "place_of_birth": "newport",
        "home_address": "blk",
        "f": "blk",
        "name_of_ship": "herald",
        "ship_port": "aberystwyth",
        "date_leaving": "remains",
        "joined_ship_date": "1864-05-26",
        "joined_at_port": "newport",
        "capacity": "boatswain",
        "date_left": "1864-08-26",
        "left_port": "hull",
        "cause_of_leaving": "discharged",
        "sign_with_mark": "n",
        "notes": "blk"
    },
    {
        "id": "vtls004671738_0_14",
        "type": "sailor",
        "parent": "vtls004671738",
        "name": "william hughes",
        "dob": "blk",
        "age": "15",
        "place_of_birth": "amlwch, north wales",
        "home_address": "blk",
        "f": "blk",
        "name_of_ship": "first voyage",
        "ship_port": "blk",
        "date_leaving": "blk",
        "joined_ship_date": "1864-02-15",
        "joined_at_port": "bangor",
        "capacity": "boy",
        "date_left": "blk",
        "left_port": "blk",
        "cause_of_leaving": "remains on board",
        "sign_with_mark": "n",
        "notes": "blk"
    },
    {
        "id": "vtls004671738_2_12",
        "type": "sailor",
        "parent": "vtls004671738",
        "name": "john hughes",
        "dob": "blk",
        "age": "20",
        "place_of_birth": "llanelli",
        "home_address": "blk",
        "f": "blk",
        "name_of_ship": "herald",
        "ship_port": "aberystwyth",
        "date_leaving": "1864-06-30",
        "joined_ship_date": "1864-01-01",
        "joined_at_port": "hull",
        "capacity": "mate",
        "date_left": "blk",
        "left_port": "blk",
        "cause_of_leaving": "remains on board",
        "sign_with_mark": "n",
        "notes": "blk"
    },
    {
        "id": "vtls004671738_2_14",
        "type": "sailor",
        "parent": "vtls004671738",
        "name": "william hughes",
        "dob": "blk",
        "age": "14",
        "place_of_birth": "amlwch",
        "home_address": "blk",
        "f": "blk",
        "name_of_ship": "herald",
        "ship_port": "aberystwyth",
        "date_leaving": "1864-06-30",
        "joined_ship_date": "1864-01-01",
        "joined_at_port": "hull",
        "capacity": "ordinary seaman",
        "date_left": "1864-10-22",
        "left_port": "runcorn",
        "cause_of_leaving": "blk",
        "sign_with_mark": "n",
        "notes": "blk"
    },
    {
        "id": "vtls004671738_2_13",
        "type": "sailor",
        "parent": "vtls004671738",
        "name": "james do$$le",
        "dob": "blk",
        "age": "21",
        "place_of_birth": "newport",
        "home_address": "blk",
        "f": "blk",
        "name_of_ship": "herald",
        "ship_port": "aberystwyth",
        "date_leaving": "1864-06-30",
        "joined_ship_date": "1864-01-01",
        "joined_at_port": "hull",
        "capacity": "able seaman",
        "date_left": "blk",
        "left_port": "blk",
        "cause_of_leaving": "remains on board",
        "sign_with_mark": "n",
        "notes": "blk"
    },
    {
        "id": "vtls004671745_0_14",
        "type": "sailor",
        "parent": "vtls004671745",
        "name": "david croydon",
        "dob": "blk",
        "age": "13",
        "place_of_birth": "teignmouth",
        "home_address": "blk",
        "f": "blk",
        "name_of_ship": "[ooiga]",
        "ship_port": "liverpool",
        "date_leaving": "1866-01-20",
        "joined_ship_date": "1866-01-25",
        "joined_at_port": "liverpool",
        "capacity": "boy",
        "date_left": "blk",
        "left_port": "blk",
        "cause_of_leaving": "remains on board",
        "sign_with_mark": "n",
        "notes": "blk"
    },
    {
        "id": "vtls004671738_2_15",
        "type": "sailor",
        "parent": "vtls004671738",
        "name": "henry peck",
        "dob": "blk",
        "age": "18",
        "place_of_birth": "nottinghamshire",
        "home_address": "blk",
        "f": "blk",
        "name_of_ship": "first voyage",
        "ship_port": "blk",
        "date_leaving": "blk",
        "joined_ship_date": "1864-11-01",
        "joined_at_port": "runcorn",
        "capacity": "boy",
        "date_left": "blk",
        "left_port": "blk",
        "cause_of_leaving": "remains on board",
        "sign_with_mark": "n",
        "notes": "blk"
    },
    {
        "id": "vtls004671745_0_13",
        "type": "sailor",
        "parent": "vtls004671745",
        "name": "thomas hughes",
        "dob": "blk",
        "age": "19",
        "place_of_birth": "aberystwyth",
        "home_address": "blk",
        "f": "blk",
        "name_of_ship": "herald",
        "ship_port": "aberystwyth",
        "date_leaving": "blk",
        "joined_ship_date": "blk",
        "joined_at_port": "blk",
        "capacity": "able seaman",
        "date_left": "blk",
        "left_port": "blk",
        "cause_of_leaving": "remains on board",
        "sign_with_mark": "n",
        "notes": "blk"
    },
    {
        "id": "vtls004671745_0_11",
        "type": "sailor",
        "parent": "vtls004671745",
        "name": "john hughes",
        "dob": "blk",
        "age": "21",
        "place_of_birth": "aberystwyth",
        "home_address": "aberystwyth",
        "f": "aberystwyth",
        "name_of_ship": "herald",
        "ship_port": "aberystwyth",
        "date_leaving": "blk",
        "joined_ship_date": "blk",
        "joined_at_port": "blk",
        "capacity": "master",
        "date_left": "blk",
        "left_port": "blk",
        "cause_of_leaving": "remains on board",
        "sign_with_mark": "n",
        "notes": "blk"
    },
    {
        "id": "vtls004671745_0_12",
        "type": "sailor",
        "parent": "vtls004671745",
        "name": "edward jenkins",
        "dob": "blk",
        "age": "25",
        "place_of_birth": "aberystwyth",
        "home_address": "blk",
        "f": "blk",
        "name_of_ship": "herald",
        "ship_port": "aberystwyth",
        "date_leaving": "blk",
        "joined_ship_date": "blk",
        "joined_at_port": "blk",
        "capacity": "mate",
        "date_left": "blk",
        "left_port": "blk",
        "cause_of_leaving": "remains on board",
        "sign_with_mark": "n",
        "notes": "blk"
    },
    {
        "id": "vtls004671745_1_11",
        "type": "sailor",
        "parent": "vtls004671745",
        "name": "john hughes",
        "dob": "blk",
        "age": "22",
        "place_of_birth": "aberystwyth",
        "home_address": "portland street, aberystwyth",
        "f": "portland street, aberystwyth",
        "name_of_ship": "herald",
        "ship_port": "aberystwyth",
        "date_leaving": "blk",
        "joined_ship_date": "prior to 1866-07-01",
        "joined_at_port": "blk",
        "capacity": "master",
        "date_left": "1866-08-10",
        "left_port": "beaumaris",
        "cause_of_leaving": "discharged",
        "sign_with_mark": "n",
        "notes": "ship sank off beaumaris en route to cardiff, 1866-08-10"
    },
    {
        "id": "vtls004671745_1_13",
        "type": "sailor",
        "parent": "vtls004671745",
        "name": "name unknown",
        "dob": "blk",
        "age": "blk",
        "place_of_birth": "blk",
        "home_address": "blk",
        "f": "blk",
        "name_of_ship": "herald",
        "ship_port": "aberystwyth",
        "date_leaving": "blk",
        "joined_ship_date": "prior to 1866-07-03",
        "joined_at_port": "blk",
        "capacity": "able seaman",
        "date_left": "1866-08-10",
        "left_port": "beaumaris",
        "cause_of_leaving": "discharged",
        "sign_with_mark": "n",
        "notes": "ship sank off beaumaris en route to cardiff, 1866-08-10"
    },
    {
        "id": "vtls004671745_1_12",
        "type": "sailor",
        "parent": "vtls004671745",
        "name": "edward jenkins",
        "dob": "blk",
        "age": "25",
        "place_of_birth": "aberystwyth",
        "home_address": "blk",
        "f": "blk",
        "name_of_ship": "herald",
        "ship_port": "aberystwyth",
        "date_leaving": "blk",
        "joined_ship_date": "prior to 1866-07-02",
        "joined_at_port": "blk",
        "capacity": "mate",
        "date_left": "1866-08-10",
        "left_port": "beaumaris",
        "cause_of_leaving": "discharged",
        "sign_with_mark": "n",
        "notes": "ship sank off beaumaris en route to cardiff, 1866-08-10"
    }
]