[
    {
        "id": "vtls004695988_0_11",
        "type": "sailor",
        "parent": "vtls004695988",
        "name": "robert griffith",
        "dob": "1831",
        "age": "blk",
        "place_of_birth": "amlwch",
        "home_address": "10 chapel street, amlwch",
        "f": "10 chapel street, amlwch",
        "name_of_ship": "kate",
        "ship_port": "aberystwyth",
        "date_leaving": "1892",
        "joined_ship_date": "1892-01-15",
        "joined_at_port": "bangor",
        "capacity": "master",
        "date_left": "1892-06-27",
        "left_port": "newhaven",
        "cause_of_leaving": "illness",
        "sign_with_mark": "n",
        "notes": "left the vessel at newhaven due to illness. the mate, owen roberts took charge of the vessel to holyhead."
    },
    {
        "id": "vtls004695988_0_12",
        "type": "sailor",
        "parent": "vtls004695988",
        "name": "owen roberts",
        "dob": "1837",
        "age": "blk",
        "place_of_birth": "amlwch",
        "home_address": "amlwch",
        "f": "amlwch",
        "name_of_ship": "kate",
        "ship_port": "aberystwyth",
        "date_leaving": "1892",
        "joined_ship_date": "blk",
        "joined_at_port": "bangor",
        "capacity": "mate",
        "date_left": "1892-06-27",
        "left_port": "remained",
        "cause_of_leaving": "remains on board",
        "sign_with_mark": "n",
        "notes": "owen roberts took charge of the vessel at newhaven due to the illness of the master, robert griffith."
    },
    {
        "id": "vtls004695988_0_15",
        "type": "sailor",
        "parent": "vtls004695988",
        "name": "john jones",
        "dob": "1862",
        "age": "blk",
        "place_of_birth": "amlwch",
        "home_address": "blk",
        "f": "blk",
        "name_of_ship": "mostyn",
        "ship_port": "chetser",
        "date_leaving": "1892",
        "joined_ship_date": "1892-01-29",
        "joined_at_port": "newhaven",
        "capacity": "mate",
        "date_left": "1892-07-29",
        "left_port": "holyhead",
        "cause_of_leaving": "remains on board",
        "sign_with_mark": "n",
        "notes": "blk"
    },
    {
        "id": "vtls004695988_0_14",
        "type": "sailor",
        "parent": "vtls004695988",
        "name": "edward rowlands",
        "dob": "1873",
        "age": "blk",
        "place_of_birth": "holyhead",
        "home_address": "blk",
        "f": "blk",
        "name_of_ship": "kate",
        "ship_port": "aberystwyth",
        "date_leaving": "1892",
        "joined_ship_date": "blk",
        "joined_at_port": "bangor",
        "capacity": "cook",
        "date_left": "1892-07-29",
        "left_port": "holyhead",
        "cause_of_leaving": "remains on board",
        "sign_with_mark": "n",
        "notes": "blk"
    },
    {
        "id": "vtls004695988_0_13",
        "type": "sailor",
        "parent": "vtls004695988",
        "name": "john owen",
        "dob": "1871",
        "age": "blk",
        "place_of_birth": "amlwch",
        "home_address": "blk",
        "f": "blk",
        "name_of_ship": "kate",
        "ship_port": "aberystwyth",
        "date_leaving": "1892",
        "joined_ship_date": "blk",
        "joined_at_port": "bangor",
        "capacity": "able seaman",
        "date_left": "1892-07-29",
        "left_port": "holyhead",
        "cause_of_leaving": "discharged",
        "sign_with_mark": "n",
        "notes": "blk"
    },
    {
        "id": "vtls004695988_0_16",
        "type": "sailor",
        "parent": "vtls004695988",
        "name": "owen roberts",
        "dob": "1837",
        "age": "blk",
        "place_of_birth": "amlwch",
        "home_address": "blk",
        "f": "blk",
        "name_of_ship": "kate",
        "ship_port": "aberystwyth",
        "date_leaving": "1892",
        "joined_ship_date": "1892-06-27",
        "joined_at_port": "newhaven",
        "capacity": "master",
        "date_left": "1892-07-29",
        "left_port": "holyhead",
        "cause_of_leaving": "remains on board",
        "sign_with_mark": "n",
        "notes": "took charge of the vessel as master due to the illness of robert griffith, master\/owner."
    },
    {
        "id": "vtls004695988_1_12",
        "type": "sailor",
        "parent": "vtls004695988",
        "name": "edward d jones",
        "dob": "1867",
        "age": "blk",
        "place_of_birth": "aberystwyth",
        "home_address": "blk",
        "f": "blk",
        "name_of_ship": "s.s. jessie",
        "ship_port": "hartlepool",
        "date_leaving": "1892",
        "joined_ship_date": "1892-08-14",
        "joined_at_port": "runcorn",
        "capacity": "mate",
        "date_left": "1892-12-31",
        "left_port": "cork",
        "cause_of_leaving": "discharged",
        "sign_with_mark": "n",
        "notes": "royal naval volunteer's certificate no. 81635"
    },
    {
        "id": "vtls004696105_0_15",
        "type": "sailor",
        "parent": "vtls004696105",
        "name": "griffith jones",
        "dob": "1876",
        "age": "blk",
        "place_of_birth": "porthmadog",
        "home_address": "blk",
        "f": "blk",
        "name_of_ship": "dreadnought",
        "ship_port": "aberystwyth",
        "date_leaving": "1893",
        "joined_ship_date": "1893-04-06",
        "joined_at_port": "porthmadog",
        "capacity": "ordinary seaman",
        "date_left": "1893-06-16",
        "left_port": "caernarfon",
        "cause_of_leaving": "discharged",
        "sign_with_mark": "n",
        "notes": "blk"
    },
    {
        "id": "vtls004696105_0_12",
        "type": "sailor",
        "parent": "vtls004696105",
        "name": "edward d jones",
        "dob": "1867",
        "age": "blk",
        "place_of_birth": "aberystwyth",
        "home_address": "blk",
        "f": "blk",
        "name_of_ship": "kate",
        "ship_port": "aberystwyth",
        "date_leaving": "blk",
        "joined_ship_date": "blk",
        "joined_at_port": "blk",
        "capacity": "mate",
        "date_left": "blk",
        "left_port": "blk",
        "cause_of_leaving": "remains on board",
        "sign_with_mark": "n",
        "notes": "royal naval volunteer's certificate no. 81635"
    },
    {
        "id": "vtls004695988_1_13",
        "type": "sailor",
        "parent": "vtls004695988",
        "name": "william pritchard",
        "dob": "1843",
        "age": "blk",
        "place_of_birth": "aberystwyth",
        "home_address": "blk",
        "f": "blk",
        "name_of_ship": "velocity",
        "ship_port": "aberystwyth",
        "date_leaving": "1892",
        "joined_ship_date": "1892-08-14",
        "joined_at_port": "runcorn",
        "capacity": "able seaman",
        "date_left": "1892-12-31",
        "left_port": "cork",
        "cause_of_leaving": "discharged",
        "sign_with_mark": "n",
        "notes": "blk"
    },
    {
        "id": "vtls004696105_1_12",
        "type": "sailor",
        "parent": "vtls004696105",
        "name": "c david jones",
        "dob": "1867",
        "age": "blk",
        "place_of_birth": "aberystwyth",
        "home_address": "blk",
        "f": "blk",
        "name_of_ship": "kate",
        "ship_port": "aberystwyth",
        "date_leaving": "blk",
        "joined_ship_date": "1893-08-04",
        "joined_at_port": "caernarfon",
        "capacity": "mate",
        "date_left": "1894-01-13",
        "left_port": "porthmadog",
        "cause_of_leaving": "discharged",
        "sign_with_mark": "n",
        "notes": "blk"
    },
    {
        "id": "vtls004695988_1_14",
        "type": "sailor",
        "parent": "vtls004695988",
        "name": "richard t jones",
        "dob": "1878",
        "age": "blk",
        "place_of_birth": "aberdovey",
        "home_address": "blk",
        "f": "blk",
        "name_of_ship": "john stonard",
        "ship_port": "barrow",
        "date_leaving": "1892",
        "joined_ship_date": "1892-08-14",
        "joined_at_port": "runcorn",
        "capacity": "cook",
        "date_left": "1892-12-31",
        "left_port": "cork",
        "cause_of_leaving": "discharged",
        "sign_with_mark": "n",
        "notes": "blk"
    },
    {
        "id": "vtls004696105_0_14",
        "type": "sailor",
        "parent": "vtls004696105",
        "name": "richard t jones",
        "dob": "1876",
        "age": "blk",
        "place_of_birth": "aberdovey",
        "home_address": "blk",
        "f": "blk",
        "name_of_ship": "kate",
        "ship_port": "aberystwyth",
        "date_leaving": "blk",
        "joined_ship_date": "blk",
        "joined_at_port": "blk",
        "capacity": "ordinary seaman",
        "date_left": "1893-02-10",
        "left_port": "porthmadog",
        "cause_of_leaving": "discharged",
        "sign_with_mark": "n",
        "notes": "blk"
    },
    {
        "id": "vtls004696105_0_13",
        "type": "sailor",
        "parent": "vtls004696105",
        "name": "william pritchard",
        "dob": "1840",
        "age": "blk",
        "place_of_birth": "caernarfon",
        "home_address": "blk",
        "f": "blk",
        "name_of_ship": "kate",
        "ship_port": "aberystwyth",
        "date_leaving": "blk",
        "joined_ship_date": "blk",
        "joined_at_port": "blk",
        "capacity": "able seaman",
        "date_left": "blk",
        "left_port": "blk",
        "cause_of_leaving": "remains on board",
        "sign_with_mark": "n",
        "notes": "blk"
    },
    {
        "id": "vtls004696107_0_11",
        "type": "sailor",
        "parent": "vtls004696107",
        "name": "edward david jones",
        "dob": "1867",
        "age": "blk",
        "place_of_birth": "aberystwyth",
        "home_address": "30, prospect street, aberystwyth",
        "f": "30, prospect street, aberystwyth",
        "name_of_ship": "kate",
        "ship_port": "aberystwyth",
        "date_leaving": "1893",
        "joined_ship_date": "1894-02-19",
        "joined_at_port": "porthmadog",
        "capacity": "master",
        "date_left": "blk",
        "left_port": "blk",
        "cause_of_leaving": "remains on board",
        "sign_with_mark": "n",
        "notes": "royal naval volunteer's certificate no. 861b"
    },
    {
        "id": "vtls004696107_0_14",
        "type": "sailor",
        "parent": "vtls004696107",
        "name": "john hughes",
        "dob": "1875",
        "age": "blk",
        "place_of_birth": "porthmadog",
        "home_address": "blk",
        "f": "blk",
        "name_of_ship": "mary lloyd",
        "ship_port": "porthmadog [caernarfon]",
        "date_leaving": "1892",
        "joined_ship_date": "1984-03-09",
        "joined_at_port": "porthmadog",
        "capacity": "ordinary seaman",
        "date_left": "1894-05-21",
        "left_port": "newport",
        "cause_of_leaving": "discharged",
        "sign_with_mark": "n",
        "notes": "blk"
    },
    {
        "id": "vtls004696107_0_13",
        "type": "sailor",
        "parent": "vtls004696107",
        "name": "griffith jones",
        "dob": "1877",
        "age": "blk",
        "place_of_birth": "tremadog, caernarvonshire",
        "home_address": "blk",
        "f": "blk",
        "name_of_ship": "kate",
        "ship_port": "aberystwyth",
        "date_leaving": "1893",
        "joined_ship_date": "1894-02-19",
        "joined_at_port": "porthmadog",
        "capacity": "cook & seaman",
        "date_left": "1894-06-30",
        "left_port": "caernarfon",
        "cause_of_leaving": "discharged",
        "sign_with_mark": "n",
        "notes": "blk"
    },
    {
        "id": "vtls004696105_1_14",
        "type": "sailor",
        "parent": "vtls004696105",
        "name": "griffith jones",
        "dob": "1875",
        "age": "blk",
        "place_of_birth": "penmorfa",
        "home_address": "blk",
        "f": "blk",
        "name_of_ship": "kate",
        "ship_port": "aberystwyth",
        "date_leaving": "blk",
        "joined_ship_date": "1893-08-04",
        "joined_at_port": "caernarfon",
        "capacity": "cook & ordinary seaman",
        "date_left": "1894-01-13",
        "left_port": "porthmadog",
        "cause_of_leaving": "discharged",
        "sign_with_mark": "n",
        "notes": "blk"
    },
    {
        "id": "vtls004696107_0_12",
        "type": "sailor",
        "parent": "vtls004696107",
        "name": "john jones",
        "dob": "1870",
        "age": "blk",
        "place_of_birth": "newquay",
        "home_address": "blk",
        "f": "blk",
        "name_of_ship": "the saint",
        "ship_port": "runcorn",
        "date_leaving": "1983",
        "joined_ship_date": "1984-03-15",
        "joined_at_port": "porthmadog",
        "capacity": "mate",
        "date_left": "1894-06-09",
        "left_port": "caernarfon",
        "cause_of_leaving": "discharged",
        "sign_with_mark": "n",
        "notes": "blk"
    },
    {
        "id": "vtls004696105_1_13",
        "type": "sailor",
        "parent": "vtls004696105",
        "name": "william pritchard",
        "dob": "1844",
        "age": "blk",
        "place_of_birth": "caernarfon",
        "home_address": "blk",
        "f": "blk",
        "name_of_ship": "kate",
        "ship_port": "aberystwyth",
        "date_leaving": "blk",
        "joined_ship_date": "1893-08-04",
        "joined_at_port": "caernarfon",
        "capacity": "able seaman",
        "date_left": "1894-01-13",
        "left_port": "porthmadog",
        "cause_of_leaving": "discharged",
        "sign_with_mark": "n",
        "notes": "blk"
    },
    {
        "id": "vtls004696107_0_15",
        "type": "sailor",
        "parent": "vtls004696107",
        "name": "hugh pritchard",
        "dob": "1848",
        "age": "blk",
        "place_of_birth": "cemaes",
        "home_address": "blk",
        "f": "blk",
        "name_of_ship": "aneurin",
        "ship_port": "caernarfon",
        "date_leaving": "1894",
        "joined_ship_date": "1894-06-19",
        "joined_at_port": "porthdinorwig",
        "capacity": "mate",
        "date_left": "1894-06-30",
        "left_port": "caernarfon",
        "cause_of_leaving": "discharged",
        "sign_with_mark": "n",
        "notes": "blk"
    },
    {
        "id": "vtls004696107_1_11",
        "type": "sailor",
        "parent": "vtls004696107",
        "name": "edward david jones",
        "dob": "1867",
        "age": "blk",
        "place_of_birth": "aberystwyth",
        "home_address": "aberystwyth",
        "f": "aberystwyth",
        "name_of_ship": "kate",
        "ship_port": "aberystwyth",
        "date_leaving": "1894",
        "joined_ship_date": "blk",
        "joined_at_port": "blk",
        "capacity": "master",
        "date_left": "1894-11-12",
        "left_port": "caernarfon",
        "cause_of_leaving": "discharged",
        "sign_with_mark": "n",
        "notes": "royal naval volunteer's certificate no. 861b"
    },
    {
        "id": "vtls004696107_1_13",
        "type": "sailor",
        "parent": "vtls004696107",
        "name": "john parry",
        "dob": "1875",
        "age": "blk",
        "place_of_birth": "caernarfon",
        "home_address": "blk",
        "f": "blk",
        "name_of_ship": "elizabeth bennett",
        "ship_port": "liverpool",
        "date_leaving": "1894",
        "joined_ship_date": "1894-07-27",
        "joined_at_port": "caernarfon",
        "capacity": "able seaman",
        "date_left": "1894-09-12",
        "left_port": "london",
        "cause_of_leaving": "discharged, sick",
        "sign_with_mark": "n",
        "notes": "blk"
    },
    {
        "id": "vtls004696107_1_14",
        "type": "sailor",
        "parent": "vtls004696107",
        "name": "francis davitte",
        "dob": "1879",
        "age": "blk",
        "place_of_birth": "porthdinllaen",
        "home_address": "blk",
        "f": "blk",
        "name_of_ship": "kate",
        "ship_port": "aberystwyth",
        "date_leaving": "1894",
        "joined_ship_date": "1894-07-18",
        "joined_at_port": "caernarfon",
        "capacity": "ordinary seaman",
        "date_left": "blk",
        "left_port": "blk",
        "cause_of_leaving": "remains on board",
        "sign_with_mark": "n",
        "notes": "blk"
    },
    {
        "id": "vtls004696107_1_16",
        "type": "sailor",
        "parent": "vtls004696107",
        "name": "jgjneumann",
        "dob": "1875",
        "age": "blk",
        "place_of_birth": "london",
        "home_address": "blk",
        "f": "blk",
        "name_of_ship": "sophia",
        "ship_port": "west hartlepool",
        "date_leaving": "1894",
        "joined_ship_date": "1894-09-24",
        "joined_at_port": "london",
        "capacity": "ordinary seaman",
        "date_left": "1894-11-10",
        "left_port": "caernarfon",
        "cause_of_leaving": "discharged",
        "sign_with_mark": "n",
        "notes": "blk"
    },
    {
        "id": "vtls004696107_0_16",
        "type": "sailor",
        "parent": "vtls004696107",
        "name": "francis davitte",
        "dob": "1879",
        "age": "blk",
        "place_of_birth": "porthdinllaen",
        "home_address": "blk",
        "f": "blk",
        "name_of_ship": "[brothers]",
        "ship_port": "[nevine]",
        "date_leaving": "1894",
        "joined_ship_date": "1894-06-04",
        "joined_at_port": "porthdinllaen",
        "capacity": "cook",
        "date_left": "1894-06-30",
        "left_port": "caernarfon",
        "cause_of_leaving": "discharged",
        "sign_with_mark": "n",
        "notes": "blk"
    },
    {
        "id": "vtls004696107_1_12",
        "type": "sailor",
        "parent": "vtls004696107",
        "name": "william hughes",
        "dob": "1851",
        "age": "blk",
        "place_of_birth": "holyhead",
        "home_address": "blk",
        "f": "blk",
        "name_of_ship": "eliza francis",
        "ship_port": "aberystwyth",
        "date_leaving": "1892",
        "joined_ship_date": "1894-07-18",
        "joined_at_port": "caernarfon",
        "capacity": "mate",
        "date_left": "1894-09-18",
        "left_port": "london",
        "cause_of_leaving": "discharged",
        "sign_with_mark": "n",
        "notes": "blk"
    },
    {
        "id": "vtls004696107_1_18",
        "type": "sailor",
        "parent": "vtls004696107",
        "name": "augustus de coger",
        "dob": "1844",
        "age": "blk",
        "place_of_birth": "ostend",
        "home_address": "blk",
        "f": "blk",
        "name_of_ship": "miss beck",
        "ship_port": "caernarfon",
        "date_leaving": "1894",
        "joined_ship_date": "1894-11-28",
        "joined_at_port": "caernarfon",
        "capacity": "mate",
        "date_left": "1895-01-03",
        "left_port": "caernarfon",
        "cause_of_leaving": "discharged",
        "sign_with_mark": "n",
        "notes": "blk"
    },
    {
        "id": "vtls004696107_1_19",
        "type": "sailor",
        "parent": "vtls004696107",
        "name": "john evans",
        "dob": "1826",
        "age": "blk",
        "place_of_birth": "caernarfon",
        "home_address": "blk",
        "f": "blk",
        "name_of_ship": "anne",
        "ship_port": "caernarfon",
        "date_leaving": "1894",
        "joined_ship_date": "1984-11-28",
        "joined_at_port": "caernarfon",
        "capacity": "able seaman",
        "date_left": "1895-01-03",
        "left_port": "caernarfon",
        "cause_of_leaving": "discharged",
        "sign_with_mark": "n",
        "notes": "blk"
    },
    {
        "id": "vtls004696107_1_15",
        "type": "sailor",
        "parent": "vtls004696107",
        "name": "john hearn",
        "dob": "1871",
        "age": "blk",
        "place_of_birth": "london",
        "home_address": "blk",
        "f": "blk",
        "name_of_ship": "jane davies",
        "ship_port": "aberystwyth",
        "date_leaving": "1894",
        "joined_ship_date": "1894-09-19",
        "joined_at_port": "london",
        "capacity": "mate",
        "date_left": "1894-11-10",
        "left_port": "caernarfon",
        "cause_of_leaving": "discharged",
        "sign_with_mark": "n",
        "notes": "blk"
    },
    {
        "id": "vtls004696110_0_11",
        "type": "sailor",
        "parent": "vtls004696110",
        "name": "edward david jones",
        "dob": "1867",
        "age": "blk",
        "place_of_birth": "aberystwyth",
        "home_address": "2, harbour terrace, aberystwyth",
        "f": "2, harbour terrace, aberystwyth",
        "name_of_ship": "kate",
        "ship_port": "aberystwyth",
        "date_leaving": "1896",
        "joined_ship_date": "1896-07-20",
        "joined_at_port": "appledore",
        "capacity": "master",
        "date_left": "blk",
        "left_port": "blk",
        "cause_of_leaving": "remains on board",
        "sign_with_mark": "n",
        "notes": "no. of royal naval volunteer's certificate: 861b"
    },
    {
        "id": "vtls004696114_0_11",
        "type": "sailor",
        "parent": "vtls004696114",
        "name": "edward david jones",
        "dob": "1867",
        "age": "blk",
        "place_of_birth": "aberystwyth",
        "home_address": "powis house, railway terrace, aberystwyth",
        "f": "powis house, railway terrace, aberystwyth",
        "name_of_ship": "kate",
        "ship_port": "aberystwyth",
        "date_leaving": "1897",
        "joined_ship_date": "blk",
        "joined_at_port": "blk",
        "capacity": "master",
        "date_left": "blk",
        "left_port": "blk",
        "cause_of_leaving": "remains on board",
        "sign_with_mark": "n",
        "notes": "no. of royal naval volunteer's certificate: 861b"
    },
    {
        "id": "vtls004696110_0_12",
        "type": "sailor",
        "parent": "vtls004696110",
        "name": "william williams",
        "dob": "1845",
        "age": "blk",
        "place_of_birth": "caernarfon",
        "home_address": "blk",
        "f": "blk",
        "name_of_ship": "miss hughes",
        "ship_port": "caernarfon",
        "date_leaving": "1896",
        "joined_ship_date": "1896-07-20",
        "joined_at_port": "appledore",
        "capacity": "mate",
        "date_left": "1896-12-10",
        "left_port": "caernarfon",
        "cause_of_leaving": "discharged",
        "sign_with_mark": "n",
        "notes": "no. of royal naval volunteer's certificate: 882e"
    },
    {
        "id": "vtls004696110_0_13",
        "type": "sailor",
        "parent": "vtls004696110",
        "name": "william williams",
        "dob": "1878",
        "age": "blk",
        "place_of_birth": "caernarfon",
        "home_address": "blk",
        "f": "blk",
        "name_of_ship": "kate",
        "ship_port": "aberystwyth",
        "date_leaving": "1896",
        "joined_ship_date": "1896-07-20",
        "joined_at_port": "appledore",
        "capacity": "ordinary seaman",
        "date_left": "1896-12-10",
        "left_port": "caernarfon",
        "cause_of_leaving": "discharged",
        "sign_with_mark": "n",
        "notes": "blk"
    },
    {
        "id": "vtls004696114_0_13",
        "type": "sailor",
        "parent": "vtls004696114",
        "name": "richard gunily griffiths",
        "dob": "1867",
        "age": "blk",
        "place_of_birth": "caernarfon",
        "home_address": "blk",
        "f": "blk",
        "name_of_ship": "kate",
        "ship_port": "aberystwyth",
        "date_leaving": "1897",
        "joined_ship_date": "blk",
        "joined_at_port": "blk",
        "capacity": "able seaman",
        "date_left": "1897-07-20",
        "left_port": "garston",
        "cause_of_leaving": "discharged",
        "sign_with_mark": "n",
        "notes": "blk"
    },
    {
        "id": "vtls004696110_0_14",
        "type": "sailor",
        "parent": "vtls004696110",
        "name": "hugh roberts",
        "dob": "1880",
        "age": "blk",
        "place_of_birth": "aberystwyth",
        "home_address": "blk",
        "f": "blk",
        "name_of_ship": "kate",
        "ship_port": "aberystwyth",
        "date_leaving": "1896",
        "joined_ship_date": "1896-07-20",
        "joined_at_port": "appledore",
        "capacity": "boy",
        "date_left": "1896-12-10",
        "left_port": "caernarfon",
        "cause_of_leaving": "discharged",
        "sign_with_mark": "n",
        "notes": "blk"
    },
    {
        "id": "vtls004696114_0_12",
        "type": "sailor",
        "parent": "vtls004696114",
        "name": "august deloser",
        "dob": "1846",
        "age": "blk",
        "place_of_birth": "ostend, belgium",
        "home_address": "blk",
        "f": "blk",
        "name_of_ship": "kate",
        "ship_port": "aberystwyth",
        "date_leaving": "1897",
        "joined_ship_date": "blk",
        "joined_at_port": "blk",
        "capacity": "mate",
        "date_left": "1897-08-16",
        "left_port": "porthmadog",
        "cause_of_leaving": "discharged",
        "sign_with_mark": "n",
        "notes": "blk"
    },
    {
        "id": "vtls004696118_0_11",
        "type": "sailor",
        "parent": "vtls004696118",
        "name": "edward davies jones",
        "dob": "1867",
        "age": "blk",
        "place_of_birth": "aberystwyth",
        "home_address": "railway terrace, aberystwyth",
        "f": "railway terrace, aberystwyth",
        "name_of_ship": "kate",
        "ship_port": "aberystwyth",
        "date_leaving": "blk",
        "joined_ship_date": "blk",
        "joined_at_port": "blk",
        "capacity": "master",
        "date_left": "1898-05-22",
        "left_port": "falmouth",
        "cause_of_leaving": "discharged",
        "sign_with_mark": "n",
        "notes": "no. of royal naval volunteer's certificate: 2117"
    },
    {
        "id": "vtls004696118_0_12",
        "type": "sailor",
        "parent": "vtls004696118",
        "name": "david white",
        "dob": "1865",
        "age": "blk",
        "place_of_birth": "aberystwyth",
        "home_address": "blk",
        "f": "blk",
        "name_of_ship": "miss hughes",
        "ship_port": "aberystwyth",
        "date_leaving": "1898",
        "joined_ship_date": "1898-05-03",
        "joined_at_port": "aberdyfi",
        "capacity": "mate",
        "date_left": "1898-05-22",
        "left_port": "falmouth",
        "cause_of_leaving": "discharged",
        "sign_with_mark": "n",
        "notes": "no. of royal naval volunteer's certificate: 1586"
    },
    {
        "id": "vtls004696114_0_16",
        "type": "sailor",
        "parent": "vtls004696114",
        "name": "david john evans",
        "dob": "1878",
        "age": "blk",
        "place_of_birth": "caernarfon",
        "home_address": "blk",
        "f": "blk",
        "name_of_ship": "irish minstrel",
        "ship_port": "dundalk",
        "date_leaving": "1897",
        "joined_ship_date": "1897-08-31",
        "joined_at_port": "porthmadog",
        "capacity": "ordinary seaman",
        "date_left": "1897-12-22",
        "left_port": "aberdovey",
        "cause_of_leaving": "discharged",
        "sign_with_mark": "n",
        "notes": "blk"
    },
    {
        "id": "vtls004696118_0_13",
        "type": "sailor",
        "parent": "vtls004696118",
        "name": "david john evans",
        "dob": "1875",
        "age": "blk",
        "place_of_birth": "caernarfon",
        "home_address": "blk",
        "f": "blk",
        "name_of_ship": "mervinia",
        "ship_port": "aberystwyth",
        "date_leaving": "1897",
        "joined_ship_date": "1898-05-03",
        "joined_at_port": "aberdyfi",
        "capacity": "ordinary seaman",
        "date_left": "1898-05-22",
        "left_port": "falmouth",
        "cause_of_leaving": "discharged",
        "sign_with_mark": "n",
        "notes": "blk"
    },
    {
        "id": "vtls004696114_0_15",
        "type": "sailor",
        "parent": "vtls004696114",
        "name": "robert hughes",
        "dob": "1840",
        "age": "blk",
        "place_of_birth": "caernarfonshire",
        "home_address": "blk",
        "f": "blk",
        "name_of_ship": "dovey belle",
        "ship_port": "aberystwyth",
        "date_leaving": "1897",
        "joined_ship_date": "1897-08-30",
        "joined_at_port": "porthmadog",
        "capacity": "mate",
        "date_left": "1897-12-22",
        "left_port": "aberdovey",
        "cause_of_leaving": "discharged",
        "sign_with_mark": "n",
        "notes": "blk"
    },
    {
        "id": "vtls004696114_0_14",
        "type": "sailor",
        "parent": "vtls004696114",
        "name": "john edwards",
        "dob": "1882",
        "age": "blk",
        "place_of_birth": "newborough, anglesey",
        "home_address": "blk",
        "f": "blk",
        "name_of_ship": "kate",
        "ship_port": "aberystwyth",
        "date_leaving": "1897",
        "joined_ship_date": "blk",
        "joined_at_port": "blk",
        "capacity": "boy",
        "date_left": "1897-12-22",
        "left_port": "aberdovey",
        "cause_of_leaving": "discharged",
        "sign_with_mark": "n",
        "notes": "blk"
    }
]