[
    {
        "id": "vtls004615507_0_12",
        "type": "sailor",
        "parent": "vtls004615507",
        "name": "griffith evans",
        "dob": "blk",
        "age": "23",
        "place_of_birth": "barmouth, merioneth",
        "home_address": "blk",
        "f": "blk",
        "name_of_ship": "jannet evans",
        "ship_port": "caernarvon",
        "date_leaving": "1863",
        "joined_ship_date": "1863-03-19",
        "joined_at_port": "porthmadoc",
        "capacity": "mate",
        "date_left": "1863-06-22",
        "left_port": "newport",
        "cause_of_leaving": "discharged",
        "sign_with_mark": "n",
        "notes": "note 1  - there is no vessel by this name registered for caernarvon, but there is a jennett evans registered there for the same period."
    },
    {
        "id": "vtls004615507_0_14",
        "type": "sailor",
        "parent": "vtls004615507",
        "name": "john knight",
        "dob": "blk",
        "age": "29",
        "place_of_birth": "jersey",
        "home_address": "blk",
        "f": "blk",
        "name_of_ship": "ellen",
        "ship_port": "dumfries",
        "date_leaving": "1863",
        "joined_ship_date": "1863-03-19",
        "joined_at_port": "porthmadoc",
        "capacity": "cook & steward",
        "date_left": "1863-06-30",
        "left_port": "newport",
        "cause_of_leaving": "discharged",
        "sign_with_mark": "n",
        "notes": "note 1  - there is no vessel by the name of ellen registered with dumfries for the period 1860 or 1870"
    },
    {
        "id": "vtls004615507_0_13",
        "type": "sailor",
        "parent": "vtls004615507",
        "name": "william lewis",
        "dob": "blk",
        "age": "25",
        "place_of_birth": "aberystwyth",
        "home_address": "blk",
        "f": "blk",
        "name_of_ship": "anne jones",
        "ship_port": "aberystwyth",
        "date_leaving": "1863",
        "joined_ship_date": "1863-03-19",
        "joined_at_port": "porthmadoc",
        "capacity": "able seaman",
        "date_left": "1863-06-28",
        "left_port": "newport",
        "cause_of_leaving": "discharged",
        "sign_with_mark": "n",
        "notes": "blk"
    },
    {
        "id": "vtls004615507_0_15",
        "type": "sailor",
        "parent": "vtls004615507",
        "name": "hugh pugh",
        "dob": "blk",
        "age": "16",
        "place_of_birth": "porthmadoc, caernarvon",
        "home_address": "blk",
        "f": "blk",
        "name_of_ship": "ocean monarch",
        "ship_port": "blk",
        "date_leaving": "1863",
        "joined_ship_date": "1863-03-19",
        "joined_at_port": "porthmadoc",
        "capacity": "ordinary seaman",
        "date_left": "1863-06-22",
        "left_port": "newport",
        "cause_of_leaving": "discharged",
        "sign_with_mark": "n",
        "notes": "blk"
    },
    {
        "id": "vtls004615507_0_11",
        "type": "sailor",
        "parent": "vtls004615507",
        "name": "john jones",
        "dob": "blk",
        "age": "25",
        "place_of_birth": "borth, cardigan",
        "home_address": "blk",
        "f": "blk",
        "name_of_ship": "anne jones",
        "ship_port": "blk",
        "date_leaving": "remained on board",
        "joined_ship_date": "1863-03-19",
        "joined_at_port": "porthmadoc",
        "capacity": "master",
        "date_left": "blk",
        "left_port": "blk",
        "cause_of_leaving": "remains on board",
        "sign_with_mark": "n",
        "notes": "blk"
    },
    {
        "id": "vtls004615507_1_15",
        "type": "sailor",
        "parent": "vtls004615507",
        "name": "james drinkwater",
        "dob": "blk",
        "age": "21",
        "place_of_birth": "london",
        "home_address": "blk",
        "f": "blk",
        "name_of_ship": "flintshire lap",
        "ship_port": "cork",
        "date_leaving": "1863",
        "joined_ship_date": "1863-07-15",
        "joined_at_port": "liverpool",
        "capacity": "ordinary seaman",
        "date_left": "1864-08-09",
        "left_port": "liverpool",
        "cause_of_leaving": "paid off",
        "sign_with_mark": "n",
        "notes": "note 1 - clip d\/base does not have an entry for a vessel by the name of flintshire lap - there is a flintshire lass listed for this period."
    },
    {
        "id": "vtls004615507_0_17",
        "type": "sailor",
        "parent": "vtls004615507",
        "name": "john thomas",
        "dob": "blk",
        "age": "32",
        "place_of_birth": "newport",
        "home_address": "blk",
        "f": "blk",
        "name_of_ship": "alexandria",
        "ship_port": "newport",
        "date_leaving": "1863",
        "joined_ship_date": "1863-06-26",
        "joined_at_port": "newport",
        "capacity": "mate",
        "date_left": "1863-06-30",
        "left_port": "newport",
        "cause_of_leaving": "remains on board",
        "sign_with_mark": "n",
        "notes": "note 1 - there is no vessel by the name of alexandria registered with newport for the period 1860 or 1870."
    },
    {
        "id": "vtls004615507_0_18",
        "type": "sailor",
        "parent": "vtls004615507",
        "name": "john braithwaite",
        "dob": "blk",
        "age": "26",
        "place_of_birth": "ulverstone, lancaster",
        "home_address": "blk",
        "f": "blk",
        "name_of_ship": "francis",
        "ship_port": "barrow",
        "date_leaving": "1863",
        "joined_ship_date": "1863-07-01",
        "joined_at_port": "newport",
        "capacity": "ordinary seaman",
        "date_left": "1863-06-30",
        "left_port": "newport",
        "cause_of_leaving": "remains on board",
        "sign_with_mark": "n",
        "notes": "note 1 -  date leaving is less than date joining, but this is as written"
    },
    {
        "id": "vtls004615507_0_19",
        "type": "sailor",
        "parent": "vtls004615507",
        "name": "william beveridge",
        "dob": "blk",
        "age": "23",
        "place_of_birth": "sunderland",
        "home_address": "blk",
        "f": "blk",
        "name_of_ship": "mary jane",
        "ship_port": "bristol",
        "date_leaving": "1863",
        "joined_ship_date": "1863-07-01",
        "joined_at_port": "newport",
        "capacity": "ordinary seaman",
        "date_left": "1863-06-30",
        "left_port": "newport",
        "cause_of_leaving": "remains on board",
        "sign_with_mark": "n",
        "notes": "note 1 -  date leaving is less than date joining, but this is as written"
    },
    {
        "id": "vtls004615507_0_16",
        "type": "sailor",
        "parent": "vtls004615507",
        "name": "edward l lloyd",
        "dob": "blk",
        "age": "14",
        "place_of_birth": "aberdovey",
        "home_address": "blk",
        "f": "blk",
        "name_of_ship": "anne jones",
        "ship_port": "aberystwyth",
        "date_leaving": "remained on board",
        "joined_ship_date": "blk",
        "joined_at_port": "blk",
        "capacity": "boy",
        "date_left": "1863-06-20",
        "left_port": "newport",
        "cause_of_leaving": "remains on board",
        "sign_with_mark": "n",
        "notes": "blk"
    },
    {
        "id": "vtls004615507_1_13",
        "type": "sailor",
        "parent": "vtls004615507",
        "name": "john braithwait",
        "dob": "blk",
        "age": "26",
        "place_of_birth": "ulverston",
        "home_address": "blk",
        "f": "blk",
        "name_of_ship": "anne jones",
        "ship_port": "aberystwyth",
        "date_leaving": "1863",
        "joined_ship_date": "1863-07-01",
        "joined_at_port": "liverpool",
        "capacity": "able seaman",
        "date_left": "1864-08-30",
        "left_port": "liverpool",
        "cause_of_leaving": "paid off",
        "sign_with_mark": "n",
        "notes": "blk"
    },
    {
        "id": "vtls004615507_1_14",
        "type": "sailor",
        "parent": "vtls004615507",
        "name": "william hawken",
        "dob": "blk",
        "age": "25",
        "place_of_birth": "cornwall",
        "home_address": "blk",
        "f": "blk",
        "name_of_ship": "markland",
        "ship_port": "cork",
        "date_leaving": "1863",
        "joined_ship_date": "1863-07-15",
        "joined_at_port": "liverpool",
        "capacity": "able seaman",
        "date_left": "1864-08-30",
        "left_port": "liverpool",
        "cause_of_leaving": "remains on board",
        "sign_with_mark": "n",
        "notes": "blk"
    },
    {
        "id": "vtls004615507_1_11",
        "type": "sailor",
        "parent": "vtls004615507",
        "name": "william jones",
        "dob": "blk",
        "age": "34",
        "place_of_birth": "cardigan",
        "home_address": "blk",
        "f": "blk",
        "name_of_ship": "anne jones",
        "ship_port": "aberystwyth",
        "date_leaving": "1863",
        "joined_ship_date": "1863-07-01",
        "joined_at_port": "liverpool",
        "capacity": "master",
        "date_left": "blk",
        "left_port": "blk",
        "cause_of_leaving": "remains on board",
        "sign_with_mark": "n",
        "notes": "blk"
    },
    {
        "id": "vtls004615507_1_12",
        "type": "sailor",
        "parent": "vtls004615507",
        "name": "john thomas",
        "dob": "blk",
        "age": "32",
        "place_of_birth": "newport",
        "home_address": "blk",
        "f": "blk",
        "name_of_ship": "anne jones",
        "ship_port": "aberystwyth",
        "date_leaving": "1863",
        "joined_ship_date": "1863-07-01",
        "joined_at_port": "liverpool",
        "capacity": "mate",
        "date_left": "1864-08-09",
        "left_port": "newport",
        "cause_of_leaving": "paid off",
        "sign_with_mark": "n",
        "notes": "blk"
    },
    {
        "id": "vtls004615507_1_16",
        "type": "sailor",
        "parent": "vtls004615507",
        "name": "rees thomas",
        "dob": "blk",
        "age": "38",
        "place_of_birth": "newquay",
        "home_address": "blk",
        "f": "blk",
        "name_of_ship": "henrietta",
        "ship_port": "newport",
        "date_leaving": "1863",
        "joined_ship_date": "1863-08-10",
        "joined_at_port": "newport",
        "capacity": "mate",
        "date_left": "1864-08-30",
        "left_port": "liverpool",
        "cause_of_leaving": "paid off",
        "sign_with_mark": "n",
        "notes": "blk"
    },
    {
        "id": "vtls004615507_1_18",
        "type": "sailor",
        "parent": "vtls004615507",
        "name": "thomas welhams",
        "dob": "blk",
        "age": "19",
        "place_of_birth": "borth",
        "home_address": "blk",
        "f": "blk",
        "name_of_ship": "rhydale vale",
        "ship_port": "aberystwyth",
        "date_leaving": "1863",
        "joined_ship_date": "1863-09-01",
        "joined_at_port": "liverpool",
        "capacity": "mate",
        "date_left": "blk",
        "left_port": "liverpool",
        "cause_of_leaving": "paid off",
        "sign_with_mark": "n",
        "notes": "note 1 - there is no vessel by the name of rhydale vale registered at aberystwyth for either 1860 or 1870.  there is a vessel by the name of rheidol vale for the same period. \nnote 2  - in the leaving this ship section, the entry is ditto lines under the last completed entry, which has a date prior to this seaman joining the ship."
    },
    {
        "id": "vtls004615507_1_20",
        "type": "sailor",
        "parent": "vtls004615507",
        "name": "john stephens",
        "dob": "blk",
        "age": "18",
        "place_of_birth": "st davids",
        "home_address": "blk",
        "f": "blk",
        "name_of_ship": "empire",
        "ship_port": "cardiff",
        "date_leaving": "1863",
        "joined_ship_date": "1863-08-20",
        "joined_at_port": "newport",
        "capacity": "ordinary seaman",
        "date_left": "blk",
        "left_port": "liverpool",
        "cause_of_leaving": "paid off",
        "sign_with_mark": "n",
        "notes": "note 1  - in the leaving this ship section, the entry is ditto lines under the last completed entry, which has a date prior to this seaman joining the ship."
    },
    {
        "id": "vtls004615507_1_19",
        "type": "sailor",
        "parent": "vtls004615507",
        "name": "david hughes",
        "dob": "blk",
        "age": "23",
        "place_of_birth": "liverpool",
        "home_address": "blk",
        "f": "blk",
        "name_of_ship": "john",
        "ship_port": "liverpool",
        "date_leaving": "1863",
        "joined_ship_date": "1863-09-03",
        "joined_at_port": "liverpool",
        "capacity": "able seaman",
        "date_left": "blk",
        "left_port": "liverpool",
        "cause_of_leaving": "paid off",
        "sign_with_mark": "n",
        "notes": "note 1  - in the leaving this ship section, the entry is ditto lines under the last completed entry, which has a date prior to this seaman joining the ship."
    },
    {
        "id": "vtls004615519_0_11",
        "type": "sailor",
        "parent": "vtls004615519",
        "name": "william jones",
        "dob": "blk",
        "age": "35",
        "place_of_birth": "aberystwyth",
        "home_address": "aberystwyth",
        "f": "aberystwyth",
        "name_of_ship": "anne jones",
        "ship_port": "aberystwyth",
        "date_leaving": "1863-12-31",
        "joined_ship_date": "1864-01-01",
        "joined_at_port": "porthmadoc",
        "capacity": "master",
        "date_left": "remains",
        "left_port": "remains",
        "cause_of_leaving": "remains on board",
        "sign_with_mark": "n",
        "notes": "blk"
    },
    {
        "id": "vtls004615519_0_12",
        "type": "sailor",
        "parent": "vtls004615519",
        "name": "robert evans",
        "dob": "blk",
        "age": "22",
        "place_of_birth": "aberystwyth",
        "home_address": "blk",
        "f": "blk",
        "name_of_ship": "anne jones",
        "ship_port": "aberystwyth",
        "date_leaving": "1863-12-31",
        "joined_ship_date": "1864-01-01",
        "joined_at_port": "porthmadoc",
        "capacity": "able seaman",
        "date_left": "1864-05-01",
        "left_port": "newport",
        "cause_of_leaving": "discharged",
        "sign_with_mark": "n",
        "notes": "blk"
    },
    {
        "id": "vtls004615519_0_13",
        "type": "sailor",
        "parent": "vtls004615519",
        "name": "richard williams",
        "dob": "blk",
        "age": "14",
        "place_of_birth": "liverpool",
        "home_address": "blk",
        "f": "blk",
        "name_of_ship": "adelaide",
        "ship_port": "aberystwyth",
        "date_leaving": "1863-11-25",
        "joined_ship_date": "1864-02-19",
        "joined_at_port": "porthmadoc",
        "capacity": "boy",
        "date_left": "remains",
        "left_port": "remains",
        "cause_of_leaving": "remains on board",
        "sign_with_mark": "n",
        "notes": "blk"
    },
    {
        "id": "vtls004615507_1_17",
        "type": "sailor",
        "parent": "vtls004615507",
        "name": "edmund lloyd",
        "dob": "blk",
        "age": "14",
        "place_of_birth": "aberdovey",
        "home_address": "blk",
        "f": "blk",
        "name_of_ship": "anne jones",
        "ship_port": "aberystwyth",
        "date_leaving": "1863",
        "joined_ship_date": "1863-07-01",
        "joined_at_port": "liverpool",
        "capacity": "boy",
        "date_left": "1864-08-30",
        "left_port": "liverpool",
        "cause_of_leaving": "paid off",
        "sign_with_mark": "n",
        "notes": "blk"
    },
    {
        "id": "vtls004615519_0_20",
        "type": "sailor",
        "parent": "vtls004615519",
        "name": "benjamin burnis",
        "dob": "blk",
        "age": "26",
        "place_of_birth": "cardiganshire",
        "home_address": "blk",
        "f": "blk",
        "name_of_ship": "mary jane",
        "ship_port": "swansea",
        "date_leaving": "1864-05-26",
        "joined_ship_date": "1864-06-01",
        "joined_at_port": "liverpool",
        "capacity": "able seaman",
        "date_left": "remains",
        "left_port": "remains",
        "cause_of_leaving": "remains on board",
        "sign_with_mark": "n",
        "notes": "blk"
    },
    {
        "id": "vtls004615519_0_15",
        "type": "sailor",
        "parent": "vtls004615519",
        "name": "henry williams",
        "dob": "blk",
        "age": "17",
        "place_of_birth": "borth",
        "home_address": "blk",
        "f": "blk",
        "name_of_ship": "messenger",
        "ship_port": "bideford",
        "date_leaving": "1863-11-20",
        "joined_ship_date": "1900-02-14",
        "joined_at_port": "porthmadoc",
        "capacity": "ordinary seaman",
        "date_left": "remains",
        "left_port": "remains",
        "cause_of_leaving": "remains on board",
        "sign_with_mark": "n",
        "notes": "blk"
    },
    {
        "id": "vtls004615519_1_11",
        "type": "sailor",
        "parent": "vtls004615519",
        "name": "william jones",
        "dob": "blk",
        "age": "30",
        "place_of_birth": "aberystwyth",
        "home_address": "borth",
        "f": "borth",
        "name_of_ship": "anne jones",
        "ship_port": "aberystwyth",
        "date_leaving": "continues",
        "joined_ship_date": "1863-07-15",
        "joined_at_port": "liverpool",
        "capacity": "master",
        "date_left": "remains",
        "left_port": "remains",
        "cause_of_leaving": "remains on board",
        "sign_with_mark": "n",
        "notes": "blk"
    },
    {
        "id": "vtls004615519_0_14",
        "type": "sailor",
        "parent": "vtls004615519",
        "name": "evan hughes",
        "dob": "blk",
        "age": "23",
        "place_of_birth": "borth",
        "home_address": "blk",
        "f": "blk",
        "name_of_ship": "miss evans",
        "ship_port": "aberystwyth",
        "date_leaving": "1863-12-20",
        "joined_ship_date": "1864-03-02",
        "joined_at_port": "porthmadoc",
        "capacity": "able seaman",
        "date_left": "1864-05-29",
        "left_port": "liverpool",
        "cause_of_leaving": "discharged",
        "sign_with_mark": "n",
        "notes": "blk"
    },
    {
        "id": "vtls004615519_0_19",
        "type": "sailor",
        "parent": "vtls004615519",
        "name": "henry jones",
        "dob": "blk",
        "age": "24",
        "place_of_birth": "borth",
        "home_address": "blk",
        "f": "blk",
        "name_of_ship": "speculation",
        "ship_port": "aberystwyth",
        "date_leaving": "1864-05-10",
        "joined_ship_date": "1864-06-01",
        "joined_at_port": "liverpool",
        "capacity": "able seaman",
        "date_left": "remains",
        "left_port": "remains",
        "cause_of_leaving": "remains on board",
        "sign_with_mark": "n",
        "notes": "blk"
    },
    {
        "id": "vtls004615519_1_14",
        "type": "sailor",
        "parent": "vtls004615519",
        "name": "harry williams",
        "dob": "blk",
        "age": "17",
        "place_of_birth": "borth",
        "home_address": "blk",
        "f": "blk",
        "name_of_ship": "anne jones",
        "ship_port": "aberystwyth",
        "date_leaving": "continues",
        "joined_ship_date": "1864-07-01",
        "joined_at_port": "newport",
        "capacity": "able seaman",
        "date_left": "remains",
        "left_port": "remains",
        "cause_of_leaving": "remains on board",
        "sign_with_mark": "n",
        "notes": "blk"
    },
    {
        "id": "vtls004615519_0_17",
        "type": "sailor",
        "parent": "vtls004615519",
        "name": "david jones",
        "dob": "blk",
        "age": "45",
        "place_of_birth": "cardiganshire",
        "home_address": "blk",
        "f": "blk",
        "name_of_ship": "sarah ann",
        "ship_port": "newport",
        "date_leaving": "1864-05-07",
        "joined_ship_date": "1864-05-18",
        "joined_at_port": "newport",
        "capacity": "able seaman",
        "date_left": "1864-05-29",
        "left_port": "liverpool",
        "cause_of_leaving": "discharged",
        "sign_with_mark": "n",
        "notes": "blk"
    },
    {
        "id": "vtls004615519_1_13",
        "type": "sailor",
        "parent": "vtls004615519",
        "name": "henry jones",
        "dob": "blk",
        "age": "24",
        "place_of_birth": "borth",
        "home_address": "blk",
        "f": "blk",
        "name_of_ship": "anne jones",
        "ship_port": "aberystwyth",
        "date_leaving": "continues",
        "joined_ship_date": "1864-06-20",
        "joined_at_port": "newport",
        "capacity": "able seaman",
        "date_left": "remains",
        "left_port": "remains",
        "cause_of_leaving": "remains on board",
        "sign_with_mark": "n",
        "notes": "blk"
    },
    {
        "id": "vtls004615519_0_16",
        "type": "sailor",
        "parent": "vtls004615519",
        "name": "hugh jones",
        "dob": "blk",
        "age": "34",
        "place_of_birth": "borth",
        "home_address": "blk",
        "f": "blk",
        "name_of_ship": "john wesley",
        "ship_port": "aberystwyth",
        "date_leaving": "1863-11-01",
        "joined_ship_date": "1864-03-04",
        "joined_at_port": "porthmadoc",
        "capacity": "mate",
        "date_left": "1864-05-29",
        "left_port": "liverpool",
        "cause_of_leaving": "discharged",
        "sign_with_mark": "n",
        "notes": "blk"
    },
    {
        "id": "vtls004615519_1_12",
        "type": "sailor",
        "parent": "vtls004615519",
        "name": "abram richards",
        "dob": "blk",
        "age": "26",
        "place_of_birth": "aberystwyth",
        "home_address": "blk",
        "f": "blk",
        "name_of_ship": "sir howey",
        "ship_port": "newport",
        "date_leaving": "1864-06-04",
        "joined_ship_date": "1864-07-01",
        "joined_at_port": "newport",
        "capacity": "mate",
        "date_left": "remains",
        "left_port": "remains",
        "cause_of_leaving": "remains on board",
        "sign_with_mark": "n",
        "notes": "blk"
    },
    {
        "id": "vtls004615550_0_11",
        "type": "sailor",
        "parent": "vtls004615550",
        "name": "william jones",
        "dob": "blk",
        "age": "45",
        "place_of_birth": "aberystwyth",
        "home_address": "borth",
        "f": "borth",
        "name_of_ship": "anne jones",
        "ship_port": "aberystywth",
        "date_leaving": "continued",
        "joined_ship_date": "continued",
        "joined_at_port": "continued",
        "capacity": "master",
        "date_left": "remains",
        "left_port": "remains",
        "cause_of_leaving": "remains on board",
        "sign_with_mark": "n",
        "notes": "master number 32941"
    },
    {
        "id": "vtls004615519_1_16",
        "type": "sailor",
        "parent": "vtls004615519",
        "name": "willam evans",
        "dob": "blk",
        "age": "32",
        "place_of_birth": "pembrokeshire",
        "home_address": "blk",
        "f": "blk",
        "name_of_ship": "resolution",
        "ship_port": "swansea",
        "date_leaving": "1864-06-07",
        "joined_ship_date": "1864-07-04",
        "joined_at_port": "newport",
        "capacity": "able seaman",
        "date_left": "remains",
        "left_port": "remains",
        "cause_of_leaving": "remains on board",
        "sign_with_mark": "n",
        "notes": "blk"
    },
    {
        "id": "vtls004615519_1_15",
        "type": "sailor",
        "parent": "vtls004615519",
        "name": "richard willaims",
        "dob": "blk",
        "age": "14",
        "place_of_birth": "borth",
        "home_address": "blk",
        "f": "blk",
        "name_of_ship": "anne jones",
        "ship_port": "aberystwyth",
        "date_leaving": "continues",
        "joined_ship_date": "1864-07-01",
        "joined_at_port": "newport",
        "capacity": "able seaman",
        "date_left": "remains",
        "left_port": "remains",
        "cause_of_leaving": "remains on board",
        "sign_with_mark": "n",
        "notes": "blk"
    },
    {
        "id": "vtls004615550_0_14",
        "type": "sailor",
        "parent": "vtls004615550",
        "name": "willam weller",
        "dob": "blk",
        "age": "21",
        "place_of_birth": "yarmouth",
        "home_address": "blk",
        "f": "blk",
        "name_of_ship": "anne jones",
        "ship_port": "aberystywth",
        "date_leaving": "continued",
        "joined_ship_date": "continued",
        "joined_at_port": "continued",
        "capacity": "able seaman",
        "date_left": "1866-02-21",
        "left_port": "porthmadog",
        "cause_of_leaving": "discharged",
        "sign_with_mark": "n",
        "notes": "blk"
    },
    {
        "id": "vtls004615550_0_13",
        "type": "sailor",
        "parent": "vtls004615550",
        "name": "john nicholas",
        "dob": "blk",
        "age": "41",
        "place_of_birth": "cardigan",
        "home_address": "blk",
        "f": "blk",
        "name_of_ship": "anne jones",
        "ship_port": "aberystywth",
        "date_leaving": "continued",
        "joined_ship_date": "continued",
        "joined_at_port": "continued",
        "capacity": "able seaman",
        "date_left": "1866-02-05",
        "left_port": "runcorn",
        "cause_of_leaving": "discharged",
        "sign_with_mark": "n",
        "notes": "blk"
    },
    {
        "id": "vtls004615550_0_12",
        "type": "sailor",
        "parent": "vtls004615550",
        "name": "thomas morgan",
        "dob": "blk",
        "age": "23",
        "place_of_birth": "borth",
        "home_address": "blk",
        "f": "blk",
        "name_of_ship": "anne jones",
        "ship_port": "aberystywth",
        "date_leaving": "continued",
        "joined_ship_date": "continued",
        "joined_at_port": "continued",
        "capacity": "mate",
        "date_left": "1866-02-05",
        "left_port": "runcorn",
        "cause_of_leaving": "discharged",
        "sign_with_mark": "n",
        "notes": "blk"
    },
    {
        "id": "vtls004615519_1_17",
        "type": "sailor",
        "parent": "vtls004615519",
        "name": "john hughes",
        "dob": "blk",
        "age": "30",
        "place_of_birth": "borth",
        "home_address": "blk",
        "f": "blk",
        "name_of_ship": "$",
        "ship_port": "aberystwyth",
        "date_leaving": "1864-06",
        "joined_ship_date": "1864-07-15",
        "joined_at_port": "newport",
        "capacity": "able seaman",
        "date_left": "remains",
        "left_port": "remains",
        "cause_of_leaving": "remains on board",
        "sign_with_mark": "n",
        "notes": "blk"
    },
    {
        "id": "vtls004615550_0_15",
        "type": "sailor",
        "parent": "vtls004615550",
        "name": "john griffiths",
        "dob": "blk",
        "age": "19",
        "place_of_birth": "newcastle emlyn",
        "home_address": "blk",
        "f": "blk",
        "name_of_ship": "roseburn",
        "ship_port": "west harlepool",
        "date_leaving": "1866-02-09",
        "joined_ship_date": "1866-02-13",
        "joined_at_port": "runcorn",
        "capacity": "ordinary seaman",
        "date_left": "1866-02-21",
        "left_port": "porthmadog",
        "cause_of_leaving": "discharged",
        "sign_with_mark": "n",
        "notes": "blk"
    },
    {
        "id": "vtls004615550_1_11",
        "type": "sailor",
        "parent": "vtls004615550",
        "name": "william jones",
        "dob": "blk",
        "age": "45",
        "place_of_birth": "aberystwyth",
        "home_address": "borth",
        "f": "borth",
        "name_of_ship": "anne jones",
        "ship_port": "aberystwyth",
        "date_leaving": "continued",
        "joined_ship_date": "1866-06-02",
        "joined_at_port": "port talbot",
        "capacity": "master",
        "date_left": "1866-10-03",
        "left_port": "at sea",
        "cause_of_leaving": "discharged",
        "sign_with_mark": "n",
        "notes": "master number 6632941"
    },
    {
        "id": "vtls004615550_0_17",
        "type": "sailor",
        "parent": "vtls004615550",
        "name": "john morgans",
        "dob": "blk",
        "age": "19",
        "place_of_birth": "aberystwyth",
        "home_address": "blk",
        "f": "blk",
        "name_of_ship": "mary ann",
        "ship_port": "aberystywth",
        "date_leaving": "1866-02-02",
        "joined_ship_date": "1866-02-11",
        "joined_at_port": "runcorn",
        "capacity": "ordinary seaman",
        "date_left": "1866-02-21",
        "left_port": "porthmadog",
        "cause_of_leaving": "discharged",
        "sign_with_mark": "n",
        "notes": "blk"
    },
    {
        "id": "vtls004615550_0_18",
        "type": "sailor",
        "parent": "vtls004615550",
        "name": "john roberts",
        "dob": "blk",
        "age": "34",
        "place_of_birth": "cardigan",
        "home_address": "blk",
        "f": "blk",
        "name_of_ship": "agenoria",
        "ship_port": "aberystywth",
        "date_leaving": "1866-03-28",
        "joined_ship_date": "1866-04-01",
        "joined_at_port": "porthmadoc",
        "capacity": "able seaman",
        "date_left": "1866-06-19",
        "left_port": "port talbot",
        "cause_of_leaving": "discharged",
        "sign_with_mark": "n",
        "notes": "blk"
    },
    {
        "id": "vtls004615550_0_20",
        "type": "sailor",
        "parent": "vtls004615550",
        "name": "william richards",
        "dob": "blk",
        "age": "18",
        "place_of_birth": "cardigan",
        "home_address": "blk",
        "f": "blk",
        "name_of_ship": "squire",
        "ship_port": "barrow",
        "date_leaving": "1865-10-10",
        "joined_ship_date": "1866-04-05",
        "joined_at_port": "porthmadoc",
        "capacity": "ordinary seaman",
        "date_left": "remains",
        "left_port": "remains",
        "cause_of_leaving": "remain on board",
        "sign_with_mark": "n",
        "notes": "blk"
    },
    {
        "id": "vtls004615550_0_19",
        "type": "sailor",
        "parent": "vtls004615550",
        "name": "william jones",
        "dob": "blk",
        "age": "32",
        "place_of_birth": "cardigan",
        "home_address": "blk",
        "f": "blk",
        "name_of_ship": "anne jones",
        "ship_port": "aberystywth",
        "date_leaving": "continued",
        "joined_ship_date": "continued",
        "joined_at_port": "continued",
        "capacity": "able seaman",
        "date_left": "1866-06-19",
        "left_port": "port talbot",
        "cause_of_leaving": "discharged",
        "sign_with_mark": "n",
        "notes": "blk"
    },
    {
        "id": "vtls004615550_0_16",
        "type": "sailor",
        "parent": "vtls004615550",
        "name": "william williams",
        "dob": "blk",
        "age": "61",
        "place_of_birth": "borth",
        "home_address": "blk",
        "f": "blk",
        "name_of_ship": "anne jones",
        "ship_port": "aberystywth",
        "date_leaving": "continued",
        "joined_ship_date": "continued",
        "joined_at_port": "continued",
        "capacity": "able seaman",
        "date_left": "1866-02-03",
        "left_port": "runcorn",
        "cause_of_leaving": "discharged",
        "sign_with_mark": "n",
        "notes": "blk"
    },
    {
        "id": "vtls004615550_1_13",
        "type": "sailor",
        "parent": "vtls004615550",
        "name": "john hewett",
        "dob": "blk",
        "age": "19",
        "place_of_birth": "bristol",
        "home_address": "blk",
        "f": "blk",
        "name_of_ship": "rose",
        "ship_port": "newport",
        "date_leaving": "1866-04",
        "joined_ship_date": "1866-06-26",
        "joined_at_port": "port talbot",
        "capacity": "ordinary seaman",
        "date_left": "1866-07-02",
        "left_port": "port talbot",
        "cause_of_leaving": "deserted",
        "sign_with_mark": "n",
        "notes": "blk"
    },
    {
        "id": "vtls004615550_1_12",
        "type": "sailor",
        "parent": "vtls004615550",
        "name": "john hughes",
        "dob": "blk",
        "age": "30",
        "place_of_birth": "borth",
        "home_address": "blk",
        "f": "blk",
        "name_of_ship": "convoy",
        "ship_port": "aberystwyth",
        "date_leaving": "1866-06",
        "joined_ship_date": "1866-06-28",
        "joined_at_port": "port talbot",
        "capacity": "boatswain",
        "date_left": "1866-10-03",
        "left_port": "at sea",
        "cause_of_leaving": "discharged",
        "sign_with_mark": "n",
        "notes": "blk"
    },
    {
        "id": "vtls004615550_0_21",
        "type": "sailor",
        "parent": "vtls004615550",
        "name": "john jenkins",
        "dob": "blk",
        "age": "15",
        "place_of_birth": "porthcawl",
        "home_address": "blk",
        "f": "blk",
        "name_of_ship": "ellen",
        "ship_port": "new quay",
        "date_leaving": "1866-03-03",
        "joined_ship_date": "1866-04-10",
        "joined_at_port": "porthmadoc",
        "capacity": "boy",
        "date_left": "remains",
        "left_port": "remains",
        "cause_of_leaving": "remains on board",
        "sign_with_mark": "n",
        "notes": "blk"
    },
    {
        "id": "vtls004615550_1_14",
        "type": "sailor",
        "parent": "vtls004615550",
        "name": "david richards",
        "dob": "blk",
        "age": "16",
        "place_of_birth": "cardigan",
        "home_address": "blk",
        "f": "blk",
        "name_of_ship": "anne jones",
        "ship_port": "aberystwyth",
        "date_leaving": "continued",
        "joined_ship_date": "1866-06-26",
        "joined_at_port": "port talbot",
        "capacity": "ordinary seaman",
        "date_left": "1866-10-03",
        "left_port": "at sea",
        "cause_of_leaving": "discharged",
        "sign_with_mark": "n",
        "notes": "blk"
    },
    {
        "id": "vtls004615550_1_18",
        "type": "sailor",
        "parent": "vtls004615550",
        "name": "jeremiah donovan",
        "dob": "blk",
        "age": "18",
        "place_of_birth": "cork",
        "home_address": "blk",
        "f": "blk",
        "name_of_ship": "elizabeth anne",
        "ship_port": "cardigan",
        "date_leaving": "1866-06-29",
        "joined_ship_date": "1866-07-07",
        "joined_at_port": "port talbot",
        "capacity": "ordinary seaman",
        "date_left": "1866-10-03",
        "left_port": "at sea",
        "cause_of_leaving": "discharged",
        "sign_with_mark": "n",
        "notes": "blk"
    },
    {
        "id": "vtls004615550_1_15",
        "type": "sailor",
        "parent": "vtls004615550",
        "name": "john jenkins",
        "dob": "blk",
        "age": "15",
        "place_of_birth": "porthcawl",
        "home_address": "blk",
        "f": "blk",
        "name_of_ship": "anne jones",
        "ship_port": "aberystwyth",
        "date_leaving": "continued",
        "joined_ship_date": "1866-06-26",
        "joined_at_port": "port talbot",
        "capacity": "ordinary seaman",
        "date_left": "1866-10-03",
        "left_port": "at sea",
        "cause_of_leaving": "discharged",
        "sign_with_mark": "n",
        "notes": "blk"
    },
    {
        "id": "vtls004615550_1_16",
        "type": "sailor",
        "parent": "vtls004615550",
        "name": "charles jones",
        "dob": "blk",
        "age": "30",
        "place_of_birth": "exeter",
        "home_address": "blk",
        "f": "blk",
        "name_of_ship": "mary",
        "ship_port": "newport",
        "date_leaving": "1866 -02",
        "joined_ship_date": "1866-06-27",
        "joined_at_port": "port talbot",
        "capacity": "able seaman",
        "date_left": "1866-07-02",
        "left_port": "port talbot",
        "cause_of_leaving": "deserted",
        "sign_with_mark": "n",
        "notes": "blk"
    },
    {
        "id": "vtls004615550_1_17",
        "type": "sailor",
        "parent": "vtls004615550",
        "name": "thomas blight",
        "dob": "blk",
        "age": "23",
        "place_of_birth": "bideford",
        "home_address": "blk",
        "f": "blk",
        "name_of_ship": "$",
        "ship_port": "montrose",
        "date_leaving": "1866-02",
        "joined_ship_date": "1866-07-02",
        "joined_at_port": "port talbot",
        "capacity": "able seaman",
        "date_left": "1866-10-05",
        "left_port": "at sea",
        "cause_of_leaving": "discharged",
        "sign_with_mark": "n",
        "notes": "blk"
    }
]