[
    {
        "id": "vtls004610321_1_11",
        "type": "sailor",
        "parent": "vtls004610321",
        "name": "henry parry",
        "dob": "blk",
        "age": "29",
        "place_of_birth": "newquay",
        "home_address": "new quay, cardigan",
        "f": "new quay, cardigan",
        "name_of_ship": "ann & elizabeth",
        "ship_port": "new quay",
        "date_leaving": "continued",
        "joined_ship_date": "continued",
        "joined_at_port": "blk",
        "capacity": "master",
        "date_left": "remains",
        "left_port": "blk",
        "cause_of_leaving": "remains",
        "sign_with_mark": "n",
        "notes": "ann & elizabeth' was registered in aberystwyth"
    },
    {
        "id": "vtls004610321_0_11",
        "type": "sailor",
        "parent": "vtls004610321",
        "name": "henry parry",
        "dob": "blk",
        "age": "29",
        "place_of_birth": "cardigan",
        "home_address": "belle vue, new quay, cardigan",
        "f": "belle vue, new quay, cardigan",
        "name_of_ship": "ann & elizabeth",
        "ship_port": "aberystwyth",
        "date_leaving": "continued",
        "joined_ship_date": "blk",
        "joined_at_port": "blk",
        "capacity": "master",
        "date_left": "1866-06-30",
        "left_port": "runcorn",
        "cause_of_leaving": "on board",
        "sign_with_mark": "n",
        "notes": "blk"
    },
    {
        "id": "vtls004610321_0_16",
        "type": "sailor",
        "parent": "vtls004610321",
        "name": "john cooksley",
        "dob": "blk",
        "age": "17",
        "place_of_birth": "bridgewater",
        "home_address": "blk",
        "f": "blk",
        "name_of_ship": "ann & elizabeth",
        "ship_port": "aberystwyth",
        "date_leaving": "1865-12-31",
        "joined_ship_date": "1866-01-01",
        "joined_at_port": "at sea",
        "capacity": "ordinary seaman",
        "date_left": "1866-06-30",
        "left_port": "runcorn",
        "cause_of_leaving": "on board",
        "sign_with_mark": "n",
        "notes": "blk"
    },
    {
        "id": "vtls004610321_0_14",
        "type": "sailor",
        "parent": "vtls004610321",
        "name": "george lewis",
        "dob": "blk",
        "age": "19",
        "place_of_birth": "cardigan",
        "home_address": "blk",
        "f": "blk",
        "name_of_ship": "ann & elizabeth",
        "ship_port": "aberystwyth",
        "date_leaving": "1865-12-31",
        "joined_ship_date": "1866-01-01",
        "joined_at_port": "at sea",
        "capacity": "able seaman",
        "date_left": "1866-03-03",
        "left_port": "garston",
        "cause_of_leaving": "discharged",
        "sign_with_mark": "n",
        "notes": "blk"
    },
    {
        "id": "vtls004610321_0_12",
        "type": "sailor",
        "parent": "vtls004610321",
        "name": "john thomas",
        "dob": "blk",
        "age": "35",
        "place_of_birth": "newquay",
        "home_address": "blk",
        "f": "blk",
        "name_of_ship": "ann & elizabeth",
        "ship_port": "aberystwyth",
        "date_leaving": "[1865-$] at sea",
        "joined_ship_date": "1866-01-01",
        "joined_at_port": "at sea",
        "capacity": "mate",
        "date_left": "1866-03-03",
        "left_port": "garston",
        "cause_of_leaving": "discharged",
        "sign_with_mark": "n",
        "notes": "blk"
    },
    {
        "id": "vtls004610321_0_13",
        "type": "sailor",
        "parent": "vtls004610321",
        "name": "rees thomas",
        "dob": "blk",
        "age": "39",
        "place_of_birth": "newquay",
        "home_address": "blk",
        "f": "blk",
        "name_of_ship": "sick at home for 2 years",
        "ship_port": "blk",
        "date_leaving": "blk",
        "joined_ship_date": "1866-03-03",
        "joined_at_port": "garston",
        "capacity": "mate",
        "date_left": "1866-06-30",
        "left_port": "runcorn",
        "cause_of_leaving": "on board",
        "sign_with_mark": "n",
        "notes": "blk"
    },
    {
        "id": "vtls004610321_0_15",
        "type": "sailor",
        "parent": "vtls004610321",
        "name": "john evans",
        "dob": "blk",
        "age": "33",
        "place_of_birth": "cardigan",
        "home_address": "blk",
        "f": "blk",
        "name_of_ship": "maria",
        "ship_port": "new quay",
        "date_leaving": "1866-02-14",
        "joined_ship_date": "1866-03-03",
        "joined_at_port": "garston",
        "capacity": "able seaman",
        "date_left": "1866-06-30",
        "left_port": "runcorn",
        "cause_of_leaving": "on board",
        "sign_with_mark": "n",
        "notes": "blk"
    },
    {
        "id": "vtls004610321_1_12",
        "type": "sailor",
        "parent": "vtls004610321",
        "name": "rees thomas",
        "dob": "blk",
        "age": "40",
        "place_of_birth": "newquay",
        "home_address": "blk",
        "f": "blk",
        "name_of_ship": "ann & elizabeth",
        "ship_port": "new quay",
        "date_leaving": "continued",
        "joined_ship_date": "continued",
        "joined_at_port": "blk",
        "capacity": "mate",
        "date_left": "remains",
        "left_port": "blk",
        "cause_of_leaving": "remains",
        "sign_with_mark": "n",
        "notes": "blk"
    },
    {
        "id": "vtls004610321_1_13",
        "type": "sailor",
        "parent": "vtls004610321",
        "name": "enoch davies",
        "dob": "blk",
        "age": "18",
        "place_of_birth": "newquay",
        "home_address": "blk",
        "f": "blk",
        "name_of_ship": "ann & elizabeth",
        "ship_port": "new quay",
        "date_leaving": "continued",
        "joined_ship_date": "continued",
        "joined_at_port": "blk",
        "capacity": "able seaman",
        "date_left": "remains",
        "left_port": "blk",
        "cause_of_leaving": "remains",
        "sign_with_mark": "n",
        "notes": "blk"
    },
    {
        "id": "vtls004610321_1_14",
        "type": "sailor",
        "parent": "vtls004610321",
        "name": "thomas thomas",
        "dob": "blk",
        "age": "15",
        "place_of_birth": "newquay",
        "home_address": "blk",
        "f": "blk",
        "name_of_ship": "ann & elizabeth",
        "ship_port": "new quay",
        "date_leaving": "continued",
        "joined_ship_date": "continued",
        "joined_at_port": "blk",
        "capacity": "boy",
        "date_left": "remains",
        "left_port": "blk",
        "cause_of_leaving": "remains",
        "sign_with_mark": "n",
        "notes": "blk"
    }
]