[
    {
        "id": "vtls004671609_0_11",
        "type": "sailor",
        "parent": "vtls004671609",
        "name": "david rees",
        "dob": "blk",
        "age": "39",
        "place_of_birth": "aberaeron",
        "home_address": "aberayron",
        "f": "aberayron",
        "name_of_ship": "henry and dora",
        "ship_port": "aberystwyth",
        "date_leaving": "blk",
        "joined_ship_date": "1849-06-04",
        "joined_at_port": "aberystwyth",
        "capacity": "master",
        "date_left": "1863-01-08",
        "left_port": "liverpool",
        "cause_of_leaving": "remains on board",
        "sign_with_mark": "n",
        "notes": "blk"
    },
    {
        "id": "vtls004671609_0_14",
        "type": "sailor",
        "parent": "vtls004671609",
        "name": "david thomas",
        "dob": "blk",
        "age": "25",
        "place_of_birth": "aberaeron",
        "home_address": "blk",
        "f": "blk",
        "name_of_ship": "henry and dora",
        "ship_port": "aberystwyth",
        "date_leaving": "blk",
        "joined_ship_date": "1862-06-25",
        "joined_at_port": "newport",
        "capacity": "able seaman",
        "date_left": "1863-01-08",
        "left_port": "liverpool",
        "cause_of_leaving": "discharged",
        "sign_with_mark": "n",
        "notes": "blk"
    },
    {
        "id": "vtls004671609_0_13",
        "type": "sailor",
        "parent": "vtls004671609",
        "name": "evan thomas",
        "dob": "blk",
        "age": "29",
        "place_of_birth": "cardigan",
        "home_address": "blk",
        "f": "blk",
        "name_of_ship": "henry and dora",
        "ship_port": "aberystwyth",
        "date_leaving": "blk",
        "joined_ship_date": "1862-06-25",
        "joined_at_port": "newport",
        "capacity": "able seaman",
        "date_left": "1863-01-08",
        "left_port": "liverpool",
        "cause_of_leaving": "discharged",
        "sign_with_mark": "n",
        "notes": "blk"
    },
    {
        "id": "vtls004671609_0_12",
        "type": "sailor",
        "parent": "vtls004671609",
        "name": "john james",
        "dob": "blk",
        "age": "28",
        "place_of_birth": "aberaeron",
        "home_address": "blk",
        "f": "blk",
        "name_of_ship": "henry and dora",
        "ship_port": "aberystwyth",
        "date_leaving": "blk",
        "joined_ship_date": "1862-06-25",
        "joined_at_port": "newport",
        "capacity": "mate",
        "date_left": "1863-01-08",
        "left_port": "liverpool",
        "cause_of_leaving": "discharged",
        "sign_with_mark": "n",
        "notes": "blk"
    },
    {
        "id": "vtls004671609_0_15",
        "type": "sailor",
        "parent": "vtls004671609",
        "name": "john jones",
        "dob": "blk",
        "age": "20",
        "place_of_birth": "aberaeron",
        "home_address": "blk",
        "f": "blk",
        "name_of_ship": "henry and dora",
        "ship_port": "aberystwyth",
        "date_leaving": "blk",
        "joined_ship_date": "862-06-25",
        "joined_at_port": "newport",
        "capacity": "able seaman",
        "date_left": "1863-01-08",
        "left_port": "liverpool",
        "cause_of_leaving": "discharged",
        "sign_with_mark": "n",
        "notes": "blk"
    },
    {
        "id": "vtls004671609_1_11",
        "type": "sailor",
        "parent": "vtls004671609",
        "name": "david rees",
        "dob": "blk",
        "age": "40",
        "place_of_birth": "cardigan",
        "home_address": "aberayron",
        "f": "aberayron",
        "name_of_ship": "henry and dora",
        "ship_port": "aberystwyth",
        "date_leaving": "blk",
        "joined_ship_date": "blk",
        "joined_at_port": "blk",
        "capacity": "master",
        "date_left": "blk",
        "left_port": "blk",
        "cause_of_leaving": "remains on board",
        "sign_with_mark": "n",
        "notes": "blk"
    },
    {
        "id": "vtls004671623_0_13",
        "type": "sailor",
        "parent": "vtls004671623",
        "name": "daniel jones",
        "dob": "blk",
        "age": "35",
        "place_of_birth": "aberaeron",
        "home_address": "blk",
        "f": "blk",
        "name_of_ship": "henry and dora",
        "ship_port": "aberystwyth",
        "date_leaving": "1863-08-17",
        "joined_ship_date": "1863-09-11",
        "joined_at_port": "middlesbrough",
        "capacity": "able seaman",
        "date_left": "1864-04-06",
        "left_port": "london",
        "cause_of_leaving": "discharged",
        "sign_with_mark": "n",
        "notes": "blk"
    },
    {
        "id": "vtls004671623_0_12",
        "type": "sailor",
        "parent": "vtls004671623",
        "name": "john james",
        "dob": "blk",
        "age": "30",
        "place_of_birth": "aberaeron",
        "home_address": "blk",
        "f": "blk",
        "name_of_ship": "henry and dora",
        "ship_port": "aberystwyth",
        "date_leaving": "1863-08-17",
        "joined_ship_date": "1863-09-11",
        "joined_at_port": "middlesbrough",
        "capacity": "mate",
        "date_left": "1864-04-06",
        "left_port": "london",
        "cause_of_leaving": "discharged",
        "sign_with_mark": "n",
        "notes": "blk"
    },
    {
        "id": "vtls004671623_0_14",
        "type": "sailor",
        "parent": "vtls004671623",
        "name": "john rees",
        "dob": "blk",
        "age": "29",
        "place_of_birth": "cardigan",
        "home_address": "blk",
        "f": "blk",
        "name_of_ship": "henry and dora",
        "ship_port": "aberystwyth",
        "date_leaving": "1863-08-17",
        "joined_ship_date": "1863-09-11",
        "joined_at_port": "middlesbrough",
        "capacity": "able seaman",
        "date_left": "1863-09-11",
        "left_port": "middlesbrough",
        "cause_of_leaving": "deserted",
        "sign_with_mark": "n",
        "notes": "blk"
    },
    {
        "id": "vtls004671623_0_15",
        "type": "sailor",
        "parent": "vtls004671623",
        "name": "evan jones",
        "dob": "blk",
        "age": "14",
        "place_of_birth": "aberaeron",
        "home_address": "blk",
        "f": "blk",
        "name_of_ship": "henry and dora",
        "ship_port": "aberystwyth",
        "date_leaving": "1863-08-17",
        "joined_ship_date": "1863-09-11",
        "joined_at_port": "middlesbrough",
        "capacity": "boy",
        "date_left": "1864-04-06",
        "left_port": "london",
        "cause_of_leaving": "discharged",
        "sign_with_mark": "n",
        "notes": "blk"
    },
    {
        "id": "vtls004671609_1_15",
        "type": "sailor",
        "parent": "vtls004671609",
        "name": "evan jones",
        "dob": "blk",
        "age": "13",
        "place_of_birth": "cardigan",
        "home_address": "blk",
        "f": "blk",
        "name_of_ship": "henry and dora",
        "ship_port": "aberystwyth",
        "date_leaving": "blk",
        "joined_ship_date": "1863-04",
        "joined_at_port": "cardiff",
        "capacity": "ordinary seaman",
        "date_left": "1863-08-17",
        "left_port": "london",
        "cause_of_leaving": "discharged",
        "sign_with_mark": "n",
        "notes": "blk"
    },
    {
        "id": "vtls004671609_1_13",
        "type": "sailor",
        "parent": "vtls004671609",
        "name": "david jones",
        "dob": "blk",
        "age": "35",
        "place_of_birth": "cardigan",
        "home_address": "blk",
        "f": "blk",
        "name_of_ship": "henry and dora",
        "ship_port": "aberystwyth",
        "date_leaving": "blk",
        "joined_ship_date": "1863-04-",
        "joined_at_port": "cardiff",
        "capacity": "able seaman",
        "date_left": "1863-08-17",
        "left_port": "london",
        "cause_of_leaving": "discharged",
        "sign_with_mark": "n",
        "notes": "blk"
    },
    {
        "id": "vtls004671609_1_12",
        "type": "sailor",
        "parent": "vtls004671609",
        "name": "john james",
        "dob": "blk",
        "age": "30",
        "place_of_birth": "cardigan",
        "home_address": "blk",
        "f": "blk",
        "name_of_ship": "henry and dora",
        "ship_port": "aberystwyth",
        "date_leaving": "blk",
        "joined_ship_date": "1863-04-",
        "joined_at_port": "cardiff",
        "capacity": "mate",
        "date_left": "1863-08-17",
        "left_port": "london",
        "cause_of_leaving": "discharged",
        "sign_with_mark": "n",
        "notes": "blk"
    },
    {
        "id": "vtls004671609_1_14",
        "type": "sailor",
        "parent": "vtls004671609",
        "name": "john rees",
        "dob": "blk",
        "age": "29",
        "place_of_birth": "cardigan",
        "home_address": "blk",
        "f": "blk",
        "name_of_ship": "intrepid",
        "ship_port": "padstow",
        "date_leaving": "1863-03-20",
        "joined_ship_date": "1863-04-",
        "joined_at_port": "cardiff",
        "capacity": "able seaman",
        "date_left": "1863-08-17",
        "left_port": "london",
        "cause_of_leaving": "discharged",
        "sign_with_mark": "n",
        "notes": "blk"
    },
    {
        "id": "vtls004671623_0_11",
        "type": "sailor",
        "parent": "vtls004671623",
        "name": "david rees",
        "dob": "blk",
        "age": "40",
        "place_of_birth": "aberaeron",
        "home_address": "aberaron",
        "f": "aberaron",
        "name_of_ship": "henry and dora",
        "ship_port": "aberystwyth",
        "date_leaving": "blk",
        "joined_ship_date": "blk",
        "joined_at_port": "blk",
        "capacity": "master",
        "date_left": "blk",
        "left_port": "blk",
        "cause_of_leaving": "remains on board",
        "sign_with_mark": "n",
        "notes": "blk"
    },
    {
        "id": "vtls004671623_0_16",
        "type": "sailor",
        "parent": "vtls004671623",
        "name": "john hawkins",
        "dob": "blk",
        "age": "19",
        "place_of_birth": "constantine",
        "home_address": "blk",
        "f": "blk",
        "name_of_ship": "millicent",
        "ship_port": "swansea",
        "date_leaving": "1863-09-05",
        "joined_ship_date": "1863-09-25",
        "joined_at_port": "falmouth",
        "capacity": "ordinary seaman",
        "date_left": "1864-04-06",
        "left_port": "london",
        "cause_of_leaving": "discharged",
        "sign_with_mark": "n",
        "notes": "blk"
    },
    {
        "id": "vtls004671623_1_12",
        "type": "sailor",
        "parent": "vtls004671623",
        "name": "john james",
        "dob": "blk",
        "age": "31",
        "place_of_birth": "cardigan",
        "home_address": "blk",
        "f": "blk",
        "name_of_ship": "henry and dora",
        "ship_port": "aberystwyth",
        "date_leaving": "1864-04-07",
        "joined_ship_date": "1864-05-23",
        "joined_at_port": "london",
        "capacity": "mate",
        "date_left": "1864-09-05",
        "left_port": "hull",
        "cause_of_leaving": "discharged",
        "sign_with_mark": "n",
        "notes": "blk"
    },
    {
        "id": "vtls004671623_1_14",
        "type": "sailor",
        "parent": "vtls004671623",
        "name": "evan jones",
        "dob": "blk",
        "age": "14",
        "place_of_birth": "cardigan",
        "home_address": "blk",
        "f": "blk",
        "name_of_ship": "henry and dora",
        "ship_port": "aberystwyth",
        "date_leaving": "1864-04-07",
        "joined_ship_date": "1864-05-23",
        "joined_at_port": "london",
        "capacity": "boy",
        "date_left": "1864-09-05",
        "left_port": "hull",
        "cause_of_leaving": "discharged",
        "sign_with_mark": "n",
        "notes": "blk"
    },
    {
        "id": "vtls004671623_1_16",
        "type": "sailor",
        "parent": "vtls004671623",
        "name": "abram ben abram",
        "dob": "blk",
        "age": "35",
        "place_of_birth": "constantinople",
        "home_address": "first ship",
        "f": "first ship",
        "name_of_ship": "blk",
        "ship_port": "blk",
        "date_leaving": "blk",
        "joined_ship_date": "1864-05-23",
        "joined_at_port": "london",
        "capacity": "landsman",
        "date_left": "1864-06-22",
        "left_port": "mogador",
        "cause_of_leaving": "discharged",
        "sign_with_mark": "y",
        "notes": "blk"
    },
    {
        "id": "vtls004671623_1_15",
        "type": "sailor",
        "parent": "vtls004671623",
        "name": "ali adolphus",
        "dob": "blk",
        "age": "19",
        "place_of_birth": "lambeth",
        "home_address": "blk",
        "f": "blk",
        "name_of_ship": "sultana reina",
        "ship_port": "london",
        "date_leaving": "1864-05-25",
        "joined_ship_date": "1864-05-23",
        "joined_at_port": "london",
        "capacity": "cook",
        "date_left": "1864-06-22",
        "left_port": "mogador",
        "cause_of_leaving": "discharged",
        "sign_with_mark": "n",
        "notes": "blk"
    },
    {
        "id": "vtls004671623_1_11",
        "type": "sailor",
        "parent": "vtls004671623",
        "name": "david rees",
        "dob": "blk",
        "age": "41",
        "place_of_birth": "cardigan",
        "home_address": "aberayron",
        "f": "aberayron",
        "name_of_ship": "henry and dora",
        "ship_port": "aberystwyth",
        "date_leaving": "blk",
        "joined_ship_date": "blk",
        "joined_at_port": "blk",
        "capacity": "master",
        "date_left": "blk",
        "left_port": "blk",
        "cause_of_leaving": "remains on board",
        "sign_with_mark": "n",
        "notes": "blk"
    },
    {
        "id": "vtls004671623_1_13",
        "type": "sailor",
        "parent": "vtls004671623",
        "name": "john evans",
        "dob": "blk",
        "age": "20",
        "place_of_birth": "cardigan",
        "home_address": "blk",
        "f": "blk",
        "name_of_ship": "au$$$a",
        "ship_port": "cardigan",
        "date_leaving": "1864-05-09",
        "joined_ship_date": "1864-05-23",
        "joined_at_port": "london",
        "capacity": "able seaman",
        "date_left": "1864-09-05",
        "left_port": "hull",
        "cause_of_leaving": "discharged",
        "sign_with_mark": "n",
        "notes": "blk"
    },
    {
        "id": "vtls004671623_0_17",
        "type": "sailor",
        "parent": "vtls004671623",
        "name": "joshua davis",
        "dob": "blk",
        "age": "17",
        "place_of_birth": "blk",
        "home_address": "blk",
        "f": "blk",
        "name_of_ship": "blk",
        "ship_port": "blk",
        "date_leaving": "blk",
        "joined_ship_date": "blk",
        "joined_at_port": "blk",
        "capacity": "apprentice",
        "date_left": "blk",
        "left_port": "blk",
        "cause_of_leaving": "blk",
        "sign_with_mark": "blk",
        "notes": "registry of indenture:  newport 1862-06-23"
    },
    {
        "id": "vtls004671678_0_11",
        "type": "sailor",
        "parent": "vtls004671678",
        "name": "david lloyd",
        "dob": "blk",
        "age": "39",
        "place_of_birth": "pembury",
        "home_address": "burry port, penbrey",
        "f": "burry port, penbrey",
        "name_of_ship": "royal tar",
        "ship_port": "lenelly",
        "date_leaving": "1866-01-19",
        "joined_ship_date": "1866-01-26",
        "joined_at_port": "cardiff",
        "capacity": "master",
        "date_left": "1866-04-30",
        "left_port": "llanelli",
        "cause_of_leaving": "discharged",
        "sign_with_mark": "n",
        "notes": "blk"
    },
    {
        "id": "vtls004671678_0_13",
        "type": "sailor",
        "parent": "vtls004671678",
        "name": "richard owens",
        "dob": "blk",
        "age": "26",
        "place_of_birth": "bangor",
        "home_address": "blk",
        "f": "blk",
        "name_of_ship": "western ocean",
        "ship_port": "liverpool",
        "date_leaving": "1865-12-01",
        "joined_ship_date": "1866-01-15",
        "joined_at_port": "cardiff",
        "capacity": "able seaman",
        "date_left": "1866-03-13",
        "left_port": "pembrey",
        "cause_of_leaving": "discharged",
        "sign_with_mark": "n",
        "notes": "blk"
    },
    {
        "id": "vtls004671678_0_14",
        "type": "sailor",
        "parent": "vtls004671678",
        "name": "robert day",
        "dob": "blk",
        "age": "28",
        "place_of_birth": "bristol",
        "home_address": "blk",
        "f": "blk",
        "name_of_ship": "caroline",
        "ship_port": "ardrossan",
        "date_leaving": "1865-07-09",
        "joined_ship_date": "1866-01-26",
        "joined_at_port": "cardiff",
        "capacity": "able seaman",
        "date_left": "1866-03-13",
        "left_port": "pembrey",
        "cause_of_leaving": "discharged",
        "sign_with_mark": "n",
        "notes": "blk"
    },
    {
        "id": "vtls004671678_0_15",
        "type": "sailor",
        "parent": "vtls004671678",
        "name": "david evans",
        "dob": "blk",
        "age": "19",
        "place_of_birth": "cardigan",
        "home_address": "blk",
        "f": "blk",
        "name_of_ship": "glyn bay",
        "ship_port": "cardigan",
        "date_leaving": "1866-01-02",
        "joined_ship_date": "1866-01-15",
        "joined_at_port": "cardiff",
        "capacity": "ordinary seaman",
        "date_left": "blk",
        "left_port": "blk",
        "cause_of_leaving": "remains on board",
        "sign_with_mark": "n",
        "notes": "blk"
    },
    {
        "id": "vtls004671623_1_17",
        "type": "sailor",
        "parent": "vtls004671623",
        "name": "isaac ben abram",
        "dob": "blk",
        "age": "10",
        "place_of_birth": "constantinople",
        "home_address": "first ship",
        "f": "first ship",
        "name_of_ship": "blk",
        "ship_port": "blk",
        "date_leaving": "blk",
        "joined_ship_date": "1864-05-23",
        "joined_at_port": "london",
        "capacity": "boy",
        "date_left": "1864-06-22",
        "left_port": "mogador",
        "cause_of_leaving": "discharged",
        "sign_with_mark": "y",
        "notes": "blk"
    },
    {
        "id": "vtls004671678_0_12",
        "type": "sailor",
        "parent": "vtls004671678",
        "name": "george lewis",
        "dob": "blk",
        "age": "36",
        "place_of_birth": "cardigan",
        "home_address": "blk",
        "f": "blk",
        "name_of_ship": "albion",
        "ship_port": "blyth",
        "date_leaving": "1866-01-15",
        "joined_ship_date": "1866-01-26",
        "joined_at_port": "cardiff",
        "capacity": "mate",
        "date_left": "1866-02-10",
        "left_port": "milford",
        "cause_of_leaving": "discharged",
        "sign_with_mark": "n",
        "notes": "blk"
    },
    {
        "id": "vtls004671678_0_16",
        "type": "sailor",
        "parent": "vtls004671678",
        "name": "john james",
        "dob": "blk",
        "age": "15",
        "place_of_birth": "pembury",
        "home_address": "blk",
        "f": "blk",
        "name_of_ship": "mary ham$ah",
        "ship_port": "devoran",
        "date_leaving": "1866-01-02",
        "joined_ship_date": "1866-01-11",
        "joined_at_port": "cardiff",
        "capacity": "boy",
        "date_left": "blk",
        "left_port": "blk",
        "cause_of_leaving": "remains on board",
        "sign_with_mark": "n",
        "notes": "blk"
    },
    {
        "id": "vtls004671678_0_17",
        "type": "sailor",
        "parent": "vtls004671678",
        "name": "john mason",
        "dob": "blk",
        "age": "26",
        "place_of_birth": "milford",
        "home_address": "blk",
        "f": "blk",
        "name_of_ship": "gazelle",
        "ship_port": "[c'madoc]",
        "date_leaving": "1865-11-15",
        "joined_ship_date": "1866-02-10",
        "joined_at_port": "milford",
        "capacity": "mate",
        "date_left": "blk",
        "left_port": "blk",
        "cause_of_leaving": "remains on board",
        "sign_with_mark": "n",
        "notes": "blk"
    },
    {
        "id": "vtls004671623_1_18",
        "type": "sailor",
        "parent": "vtls004671623",
        "name": "joshua davies",
        "dob": "blk",
        "age": "18",
        "place_of_birth": "blk",
        "home_address": "blk",
        "f": "blk",
        "name_of_ship": "blk",
        "ship_port": "blk",
        "date_leaving": "blk",
        "joined_ship_date": "blk",
        "joined_at_port": "blk",
        "capacity": "apprentice",
        "date_left": "blk",
        "left_port": "blk",
        "cause_of_leaving": "blk",
        "sign_with_mark": "blk",
        "notes": "registry of indenture:  newport  1862-06-25"
    },
    {
        "id": "vtls004671678_1_13",
        "type": "sailor",
        "parent": "vtls004671678",
        "name": "thomas williams",
        "dob": "blk",
        "age": "22",
        "place_of_birth": "pembury",
        "home_address": "blk",
        "f": "blk",
        "name_of_ship": "henry and dora",
        "ship_port": "aberystwyth",
        "date_leaving": "blk",
        "joined_ship_date": "1866-07-18",
        "joined_at_port": "llanelly",
        "capacity": "able seaman",
        "date_left": "1866-08-26",
        "left_port": "llanelli",
        "cause_of_leaving": "discharged",
        "sign_with_mark": "n",
        "notes": "blk"
    },
    {
        "id": "vtls004671678_1_14",
        "type": "sailor",
        "parent": "vtls004671678",
        "name": "edward ley",
        "dob": "blk",
        "age": "19",
        "place_of_birth": "llanelly",
        "home_address": "blk",
        "f": "blk",
        "name_of_ship": "henry and dora",
        "ship_port": "aberystwyth",
        "date_leaving": "blk",
        "joined_ship_date": "1866-07-18",
        "joined_at_port": "llanelly",
        "capacity": "ordinary seaman",
        "date_left": "1866-08-26",
        "left_port": "llanelli",
        "cause_of_leaving": "discharged",
        "sign_with_mark": "n",
        "notes": "blk"
    },
    {
        "id": "vtls004671678_1_15",
        "type": "sailor",
        "parent": "vtls004671678",
        "name": "john ley",
        "dob": "blk",
        "age": "16",
        "place_of_birth": "llanelly",
        "home_address": "blk",
        "f": "blk",
        "name_of_ship": "henry and dora",
        "ship_port": "aberystwyth",
        "date_leaving": "blk",
        "joined_ship_date": "1866-07-18",
        "joined_at_port": "llanelly",
        "capacity": "ordinary seaman",
        "date_left": "1866-08-26",
        "left_port": "llanelli",
        "cause_of_leaving": "discharged",
        "sign_with_mark": "n",
        "notes": "blk"
    },
    {
        "id": "vtls004671678_1_11",
        "type": "sailor",
        "parent": "vtls004671678",
        "name": "william jones",
        "dob": "blk",
        "age": "39",
        "place_of_birth": "llanelly",
        "home_address": "pembrey",
        "f": "pembrey",
        "name_of_ship": "henry and dora",
        "ship_port": "aberystwyth",
        "date_leaving": "blk",
        "joined_ship_date": "1866-07-18",
        "joined_at_port": "llanelly",
        "capacity": "master",
        "date_left": "1866-08-26",
        "left_port": "llanelli",
        "cause_of_leaving": "discharged",
        "sign_with_mark": "n",
        "notes": "blk"
    },
    {
        "id": "vtls004671678_1_12",
        "type": "sailor",
        "parent": "vtls004671678",
        "name": "david lloyd",
        "dob": "blk",
        "age": "43",
        "place_of_birth": "pembury",
        "home_address": "blk",
        "f": "blk",
        "name_of_ship": "henry and dora",
        "ship_port": "aberystwyth",
        "date_leaving": "blk",
        "joined_ship_date": "1866-07-18",
        "joined_at_port": "llanelly",
        "capacity": "mate",
        "date_left": "1866-08-26",
        "left_port": "llanelli",
        "cause_of_leaving": "discharged",
        "sign_with_mark": "n",
        "notes": "blk"
    },
    {
        "id": "vtls004671678_0_18",
        "type": "sailor",
        "parent": "vtls004671678",
        "name": "david gravell",
        "dob": "blk",
        "age": "21",
        "place_of_birth": "pembury",
        "home_address": "blk",
        "f": "blk",
        "name_of_ship": "maggie",
        "ship_port": "llanelly",
        "date_leaving": "1866-03-08",
        "joined_ship_date": "1866-03-13",
        "joined_at_port": "pembrey",
        "capacity": "able seaman",
        "date_left": "blk",
        "left_port": "blk",
        "cause_of_leaving": "remains on board",
        "sign_with_mark": "n",
        "notes": "blk"
    },
    {
        "id": "vtls004671678_0_19",
        "type": "sailor",
        "parent": "vtls004671678",
        "name": "william jones",
        "dob": "blk",
        "age": "38",
        "place_of_birth": "pembury",
        "home_address": "blk",
        "f": "blk",
        "name_of_ship": "maggie",
        "ship_port": "llanelly",
        "date_leaving": "1866-03-08",
        "joined_ship_date": "1866-03-13",
        "joined_at_port": "pembrey",
        "capacity": "able seaman",
        "date_left": "blk",
        "left_port": "blk",
        "cause_of_leaving": "remains on board",
        "sign_with_mark": "n",
        "notes": "blk"
    },
    {
        "id": "vtls004671678_0_20",
        "type": "sailor",
        "parent": "vtls004671678",
        "name": "francis randell",
        "dob": "blk",
        "age": "44",
        "place_of_birth": "kidwelly",
        "home_address": "blk",
        "f": "blk",
        "name_of_ship": "ellen",
        "ship_port": "llanelly",
        "date_leaving": "1864-04-03",
        "joined_ship_date": "1866-04-30",
        "joined_at_port": "llanelly",
        "capacity": "master",
        "date_left": "blk",
        "left_port": "blk",
        "cause_of_leaving": "remains on board",
        "sign_with_mark": "n",
        "notes": "blk"
    },
    {
        "id": "vtls004671678_1_16",
        "type": "sailor",
        "parent": "vtls004671678",
        "name": "david williams",
        "dob": "blk",
        "age": "32",
        "place_of_birth": "llanelly",
        "home_address": "seaside, llanelly",
        "f": "seaside, llanelly",
        "name_of_ship": "glanmor",
        "ship_port": "llanelly",
        "date_leaving": "1866-08-25",
        "joined_ship_date": "1866-08-27",
        "joined_at_port": "llanelly",
        "capacity": "master",
        "date_left": "blk",
        "left_port": "blk",
        "cause_of_leaving": "remains on board",
        "sign_with_mark": "n",
        "notes": "blk"
    },
    {
        "id": "vtls004671678_1_19",
        "type": "sailor",
        "parent": "vtls004671678",
        "name": "michael sullivan",
        "dob": "blk",
        "age": "22",
        "place_of_birth": "pembroke",
        "home_address": "blk",
        "f": "blk",
        "name_of_ship": "violante",
        "ship_port": "llanelly",
        "date_leaving": "1866-04-16",
        "joined_ship_date": "1866-09-07",
        "joined_at_port": "llanelly",
        "capacity": "able seaman",
        "date_left": "1866-09-24",
        "left_port": "milford",
        "cause_of_leaving": "deserted",
        "sign_with_mark": "n",
        "notes": "blk"
    },
    {
        "id": "vtls004671678_1_18",
        "type": "sailor",
        "parent": "vtls004671678",
        "name": "william jones",
        "dob": "blk",
        "age": "29",
        "place_of_birth": "llanelly",
        "home_address": "blk",
        "f": "blk",
        "name_of_ship": "waterlily",
        "ship_port": "llanelly",
        "date_leaving": "1866-08-21",
        "joined_ship_date": "1866-08-27",
        "joined_at_port": "llanelly",
        "capacity": "able seaman",
        "date_left": "1866-11-01",
        "left_port": "llanelli",
        "cause_of_leaving": "discharged",
        "sign_with_mark": "n",
        "notes": "blk"
    },
    {
        "id": "vtls004671678_1_17",
        "type": "sailor",
        "parent": "vtls004671678",
        "name": "james williams",
        "dob": "blk",
        "age": "31",
        "place_of_birth": "carmarthen",
        "home_address": "blk",
        "f": "blk",
        "name_of_ship": "mary louisa",
        "ship_port": "llanelly",
        "date_leaving": "1866-08-28",
        "joined_ship_date": "1866-08-28",
        "joined_at_port": "llanelly",
        "capacity": "mate",
        "date_left": "1866-10-18",
        "left_port": "llanelli",
        "cause_of_leaving": "discharged",
        "sign_with_mark": "n",
        "notes": "blk"
    },
    {
        "id": "vtls004671678_1_21",
        "type": "sailor",
        "parent": "vtls004671678",
        "name": "william howells",
        "dob": "blk",
        "age": "19",
        "place_of_birth": "st ishmaels",
        "home_address": "blk",
        "f": "blk",
        "name_of_ship": "first ship",
        "ship_port": "blk",
        "date_leaving": "blk",
        "joined_ship_date": "1866-09-07",
        "joined_at_port": "llanelly",
        "capacity": "ordinary seaman",
        "date_left": "blk",
        "left_port": "blk",
        "cause_of_leaving": "remains on board",
        "sign_with_mark": "n",
        "notes": "blk"
    },
    {
        "id": "vtls004671678_1_24",
        "type": "sailor",
        "parent": "vtls004671678",
        "name": "william rees",
        "dob": "blk",
        "age": "21",
        "place_of_birth": "newport",
        "home_address": "blk",
        "f": "blk",
        "name_of_ship": "mary ann",
        "ship_port": "[llanelly]",
        "date_leaving": "1866-10-19",
        "joined_ship_date": "1866-11-01",
        "joined_at_port": "llanelly",
        "capacity": "able seaman",
        "date_left": "blk",
        "left_port": "blk",
        "cause_of_leaving": "remains on board",
        "sign_with_mark": "n",
        "notes": "blk"
    },
    {
        "id": "vtls004671678_1_25",
        "type": "sailor",
        "parent": "vtls004671678",
        "name": "joseph rees",
        "dob": "blk",
        "age": "20",
        "place_of_birth": "newport",
        "home_address": "blk",
        "f": "blk",
        "name_of_ship": "edith may",
        "ship_port": "swansea",
        "date_leaving": "1866-11-30",
        "joined_ship_date": "1866-12-06",
        "joined_at_port": "llanelly",
        "capacity": "able seaman",
        "date_left": "blk",
        "left_port": "blk",
        "cause_of_leaving": "remains on board",
        "sign_with_mark": "n",
        "notes": "blk"
    },
    {
        "id": "vtls004671678_1_22",
        "type": "sailor",
        "parent": "vtls004671678",
        "name": "john walker",
        "dob": "blk",
        "age": "26",
        "place_of_birth": "jamaica",
        "home_address": "blk",
        "f": "blk",
        "name_of_ship": "ellen",
        "ship_port": "llanelly",
        "date_leaving": "1866-09-22",
        "joined_ship_date": "1866-09-24",
        "joined_at_port": "milford",
        "capacity": "able seaman",
        "date_left": "1866-11-28",
        "left_port": "dieppe",
        "cause_of_leaving": "discharged",
        "sign_with_mark": "n",
        "notes": "blk"
    },
    {
        "id": "vtls004671678_1_23",
        "type": "sailor",
        "parent": "vtls004671678",
        "name": "daniel owens",
        "dob": "blk",
        "age": "60",
        "place_of_birth": "newport",
        "home_address": "blk",
        "f": "blk",
        "name_of_ship": "agnes po$",
        "ship_port": "[llanelly]",
        "date_leaving": "1866-10-19",
        "joined_ship_date": "1866-10-31",
        "joined_at_port": "llanelly",
        "capacity": "mate",
        "date_left": "blk",
        "left_port": "blk",
        "cause_of_leaving": "remains on board",
        "sign_with_mark": "n",
        "notes": "blk"
    },
    {
        "id": "vtls004671678_1_20",
        "type": "sailor",
        "parent": "vtls004671678",
        "name": "john $",
        "dob": "blk",
        "age": "18",
        "place_of_birth": "ecclep$ha",
        "home_address": "blk",
        "f": "blk",
        "name_of_ship": "first ship",
        "ship_port": "blk",
        "date_leaving": "blk",
        "joined_ship_date": "1866-09-07",
        "joined_at_port": "llanelly",
        "capacity": "boy",
        "date_left": "blk",
        "left_port": "blk",
        "cause_of_leaving": "remains on board",
        "sign_with_mark": "n",
        "notes": "blk"
    },
    {
        "id": "vtls004671685_0_12",
        "type": "sailor",
        "parent": "vtls004671685",
        "name": "francis randell",
        "dob": "blk",
        "age": "42",
        "place_of_birth": "pembury",
        "home_address": "burry port, llanelly",
        "f": "burry port, llanelly",
        "name_of_ship": "henry and dora",
        "ship_port": "aberystwyth",
        "date_leaving": "1867-01-09",
        "joined_ship_date": "1867-02-15",
        "joined_at_port": "llanelly",
        "capacity": "master",
        "date_left": "1867-02-16",
        "left_port": "llanelli",
        "cause_of_leaving": "remains on board",
        "sign_with_mark": "n",
        "notes": "blk"
    },
    {
        "id": "vtls004671685_0_16",
        "type": "sailor",
        "parent": "vtls004671685",
        "name": "john irving",
        "dob": "blk",
        "age": "18",
        "place_of_birth": "ecclefechan",
        "home_address": "blk",
        "f": "blk",
        "name_of_ship": "henry and dora",
        "ship_port": "aberystwyth",
        "date_leaving": "1867-01-12",
        "joined_ship_date": "1867-01-12",
        "joined_at_port": "llanelly",
        "capacity": "ordinary seaman",
        "date_left": "1867-04-30",
        "left_port": "llanelli",
        "cause_of_leaving": "discharged",
        "sign_with_mark": "n",
        "notes": "blk"
    },
    {
        "id": "vtls004671685_0_11",
        "type": "sailor",
        "parent": "vtls004671685",
        "name": "david williams",
        "dob": "blk",
        "age": "31",
        "place_of_birth": "llanelly",
        "home_address": "blk",
        "f": "blk",
        "name_of_ship": "henry and dora",
        "ship_port": "aberystwyth",
        "date_leaving": "1866-12-31",
        "joined_ship_date": "1867-01-10",
        "joined_at_port": "llanelly",
        "capacity": "master",
        "date_left": "1867-02-16",
        "left_port": "llanelli",
        "cause_of_leaving": "discharged",
        "sign_with_mark": "n",
        "notes": "blk"
    },
    {
        "id": "vtls004671685_0_15",
        "type": "sailor",
        "parent": "vtls004671685",
        "name": "william harris",
        "dob": "blk",
        "age": "19",
        "place_of_birth": "pontypridd",
        "home_address": "blk",
        "f": "blk",
        "name_of_ship": "tom scott",
        "ship_port": "llanelly",
        "date_leaving": "1867-01-09",
        "joined_ship_date": "1867-01-12",
        "joined_at_port": "llanelly",
        "capacity": "able seaman",
        "date_left": "1867-04-30",
        "left_port": "llanelli",
        "cause_of_leaving": "discharged",
        "sign_with_mark": "n",
        "notes": "blk"
    },
    {
        "id": "vtls004671685_0_13",
        "type": "sailor",
        "parent": "vtls004671685",
        "name": "william rees",
        "dob": "blk",
        "age": "21",
        "place_of_birth": "newport",
        "home_address": "blk",
        "f": "blk",
        "name_of_ship": "henry and dora",
        "ship_port": "aberystwyth",
        "date_leaving": "1867-01-12",
        "joined_ship_date": "1867-01-12",
        "joined_at_port": "llanelly",
        "capacity": "mate",
        "date_left": "1867-04-29",
        "left_port": "llanelli",
        "cause_of_leaving": "discharged",
        "sign_with_mark": "n",
        "notes": "blk"
    },
    {
        "id": "vtls004671685_0_14",
        "type": "sailor",
        "parent": "vtls004671685",
        "name": "james johnson",
        "dob": "blk",
        "age": "23",
        "place_of_birth": "norway",
        "home_address": "blk",
        "f": "blk",
        "name_of_ship": "hound",
        "ship_port": "liverpool",
        "date_leaving": "1867-01-09",
        "joined_ship_date": "1867-01-12",
        "joined_at_port": "llanelly",
        "capacity": "able seaman",
        "date_left": "1867-04-08",
        "left_port": "havre, france",
        "cause_of_leaving": "discharged",
        "sign_with_mark": "n",
        "notes": "blk"
    },
    {
        "id": "vtls004671685_0_17",
        "type": "sailor",
        "parent": "vtls004671685",
        "name": "thomas john",
        "dob": "blk",
        "age": "16",
        "place_of_birth": "llanelly",
        "home_address": "blk",
        "f": "blk",
        "name_of_ship": "tom scott",
        "ship_port": "llanelly",
        "date_leaving": "1867-01-09",
        "joined_ship_date": "1867-01-12",
        "joined_at_port": "llanelly",
        "capacity": "cook",
        "date_left": "1867-04-30",
        "left_port": "llanelli",
        "cause_of_leaving": "discharged",
        "sign_with_mark": "n",
        "notes": "blk"
    },
    {
        "id": "vtls004671685_1_14",
        "type": "sailor",
        "parent": "vtls004671685",
        "name": "thomas jones",
        "dob": "blk",
        "age": "24",
        "place_of_birth": "llanaletha",
        "home_address": "blk",
        "f": "blk",
        "name_of_ship": "ellen ann",
        "ship_port": "llanelly",
        "date_leaving": "1867-07-08",
        "joined_ship_date": "1867-07-25",
        "joined_at_port": "llanelly",
        "capacity": "able seaman",
        "date_left": "1867-10-28",
        "left_port": "briton ferry",
        "cause_of_leaving": "discharged",
        "sign_with_mark": "n",
        "notes": "blk"
    },
    {
        "id": "vtls004671685_0_21",
        "type": "sailor",
        "parent": "vtls004671685",
        "name": "john lewis",
        "dob": "blk",
        "age": "18",
        "place_of_birth": "st dogmaels",
        "home_address": "blk",
        "f": "blk",
        "name_of_ship": "eliza and ann",
        "ship_port": "cadigan",
        "date_leaving": "1866-11-",
        "joined_ship_date": "1867-04-30",
        "joined_at_port": "llanelly",
        "capacity": "ordinary seaman",
        "date_left": "blk",
        "left_port": "blk",
        "cause_of_leaving": "remains on board",
        "sign_with_mark": "n",
        "notes": "blk"
    },
    {
        "id": "vtls004671685_1_15",
        "type": "sailor",
        "parent": "vtls004671685",
        "name": "moses saunders",
        "dob": "blk",
        "age": "23",
        "place_of_birth": "australia",
        "home_address": "blk",
        "f": "blk",
        "name_of_ship": "[cateh me]",
        "ship_port": "$",
        "date_leaving": "1867-09-22",
        "joined_ship_date": "1867-09-25",
        "joined_at_port": "llanelly",
        "capacity": "able seaman",
        "date_left": "1867-10-28",
        "left_port": "briton ferry",
        "cause_of_leaving": "discharged",
        "sign_with_mark": "n",
        "notes": "blk"
    },
    {
        "id": "vtls004671685_0_22",
        "type": "sailor",
        "parent": "vtls004671685",
        "name": "james thompson",
        "dob": "blk",
        "age": "26",
        "place_of_birth": "workington",
        "home_address": "blk",
        "f": "blk",
        "name_of_ship": "[souther]",
        "ship_port": "workington",
        "date_leaving": "1867-04-27",
        "joined_ship_date": "1867-05-02",
        "joined_at_port": "llanelly",
        "capacity": "able seaman",
        "date_left": "blk",
        "left_port": "blk",
        "cause_of_leaving": "remains on board",
        "sign_with_mark": "n",
        "notes": "blk"
    },
    {
        "id": "vtls004671685_1_12",
        "type": "sailor",
        "parent": "vtls004671685",
        "name": "james shepherd",
        "dob": "blk",
        "age": "32",
        "place_of_birth": "swansea",
        "home_address": "blk",
        "f": "blk",
        "name_of_ship": "henry and dora",
        "ship_port": "aberystwyth",
        "date_leaving": "blk",
        "joined_ship_date": "1867-07",
        "joined_at_port": "llanelly",
        "capacity": "mate",
        "date_left": "1867-10-28",
        "left_port": "briton ferry",
        "cause_of_leaving": "discharged",
        "sign_with_mark": "n",
        "notes": "blk"
    },
    {
        "id": "vtls004671685_1_13",
        "type": "sailor",
        "parent": "vtls004671685",
        "name": "john irving",
        "dob": "blk",
        "age": "20",
        "place_of_birth": "dunoon",
        "home_address": "blk",
        "f": "blk",
        "name_of_ship": "sue",
        "ship_port": "newport",
        "date_leaving": "1867-07-04",
        "joined_ship_date": "1867-07-17",
        "joined_at_port": "llanelly",
        "capacity": "able seaman",
        "date_left": "1867-10-28",
        "left_port": "briton ferry",
        "cause_of_leaving": "discharged",
        "sign_with_mark": "n",
        "notes": "blk"
    },
    {
        "id": "vtls004671685_0_20",
        "type": "sailor",
        "parent": "vtls004671685",
        "name": "john thomas",
        "dob": "blk",
        "age": "33",
        "place_of_birth": "st dogmaels",
        "home_address": "blk",
        "f": "blk",
        "name_of_ship": "symmetry",
        "ship_port": "milford",
        "date_leaving": "1867-04-30",
        "joined_ship_date": "1867-04-30",
        "joined_at_port": "llanelly",
        "capacity": "able seaman",
        "date_left": "blk",
        "left_port": "blk",
        "cause_of_leaving": "remains on board",
        "sign_with_mark": "n",
        "notes": "blk"
    },
    {
        "id": "vtls004671685_1_11",
        "type": "sailor",
        "parent": "vtls004671685",
        "name": "james every",
        "dob": "blk",
        "age": "25",
        "place_of_birth": "llanelly",
        "home_address": "blk",
        "f": "blk",
        "name_of_ship": "henry and dora",
        "ship_port": "aberystwyth",
        "date_leaving": "blk",
        "joined_ship_date": "1867-07",
        "joined_at_port": "llanelly",
        "capacity": "master",
        "date_left": "1867-11-26",
        "left_port": "llanelli",
        "cause_of_leaving": "discharged",
        "sign_with_mark": "n",
        "notes": "blk"
    },
    {
        "id": "vtls004671685_0_18",
        "type": "sailor",
        "parent": "vtls004671685",
        "name": "jon huber",
        "dob": "blk",
        "age": "22",
        "place_of_birth": "havre",
        "home_address": "blk",
        "f": "blk",
        "name_of_ship": "minerva",
        "ship_port": "plymouth",
        "date_leaving": "1867-03-16",
        "joined_ship_date": "1867-04-17",
        "joined_at_port": "plymouth",
        "capacity": "ordinary seaman",
        "date_left": "blk",
        "left_port": "blk",
        "cause_of_leaving": "remains on board",
        "sign_with_mark": "n",
        "notes": "blk"
    },
    {
        "id": "vtls004671685_0_19",
        "type": "sailor",
        "parent": "vtls004671685",
        "name": "watkin richards",
        "dob": "blk",
        "age": "40",
        "place_of_birth": "cardigan",
        "home_address": "blk",
        "f": "blk",
        "name_of_ship": "[lee]",
        "ship_port": "cork",
        "date_leaving": "1866-12-06",
        "joined_ship_date": "1867-04-29",
        "joined_at_port": "llanelly",
        "capacity": "mate",
        "date_left": "blk",
        "left_port": "blk",
        "cause_of_leaving": "remains on board",
        "sign_with_mark": "n",
        "notes": "blk"
    },
    {
        "id": "vtls004671685_1_19",
        "type": "sailor",
        "parent": "vtls004671685",
        "name": "alexander hunter",
        "dob": "blk",
        "age": "22",
        "place_of_birth": "dunoon",
        "home_address": "blk",
        "f": "blk",
        "name_of_ship": "empire",
        "ship_port": "prince edward island ",
        "date_leaving": "1867-10-28",
        "joined_ship_date": "1867-10-30",
        "joined_at_port": "briton ferry",
        "capacity": "able seaman",
        "date_left": "blk",
        "left_port": "blk",
        "cause_of_leaving": "remains on board",
        "sign_with_mark": "n",
        "notes": "blk"
    },
    {
        "id": "vtls004671685_1_18",
        "type": "sailor",
        "parent": "vtls004671685",
        "name": "samuel hunter",
        "dob": "blk",
        "age": "21",
        "place_of_birth": "dunoon",
        "home_address": "blk",
        "f": "blk",
        "name_of_ship": "empire",
        "ship_port": "prince edward island ",
        "date_leaving": "1867-10-28",
        "joined_ship_date": "1867-10-30",
        "joined_at_port": "briton ferry",
        "capacity": "able seaman",
        "date_left": "blk",
        "left_port": "blk",
        "cause_of_leaving": "remains on board",
        "sign_with_mark": "n",
        "notes": "blk"
    },
    {
        "id": "vtls004671685_1_20",
        "type": "sailor",
        "parent": "vtls004671685",
        "name": "william hugh",
        "dob": "blk",
        "age": "21",
        "place_of_birth": "carmarthen",
        "home_address": "blk",
        "f": "blk",
        "name_of_ship": "[a. napira]",
        "ship_port": "apple$$$",
        "date_leaving": "1867-10-28",
        "joined_ship_date": "1867-10-30",
        "joined_at_port": "briton ferry",
        "capacity": "cook & able seaman",
        "date_left": "blk",
        "left_port": "blk",
        "cause_of_leaving": "remains on board",
        "sign_with_mark": "n",
        "notes": "blk"
    },
    {
        "id": "vtls004671692_0_11",
        "type": "sailor",
        "parent": "vtls004671692",
        "name": "john thomas",
        "dob": "blk",
        "age": "34",
        "place_of_birth": "llanelly",
        "home_address": "blk",
        "f": "blk",
        "name_of_ship": "henry & dora",
        "ship_port": "aberystwyth",
        "date_leaving": "blk",
        "joined_ship_date": "1868-11-24",
        "joined_at_port": "swansea",
        "capacity": "master",
        "date_left": "1869-02-19",
        "left_port": "portland",
        "cause_of_leaving": "vessel wrecked",
        "sign_with_mark": "n",
        "notes": "blk"
    },
    {
        "id": "vtls004671685_1_21",
        "type": "sailor",
        "parent": "vtls004671685",
        "name": "joseph richards",
        "dob": "blk",
        "age": "blk",
        "place_of_birth": "llanelly",
        "home_address": "blk",
        "f": "blk",
        "name_of_ship": "lord rolle",
        "ship_port": "llanelly",
        "date_leaving": "1867-11-02",
        "joined_ship_date": "1867-11-28",
        "joined_at_port": "llanelly",
        "capacity": "master",
        "date_left": "blk",
        "left_port": "blk",
        "cause_of_leaving": "remains on board",
        "sign_with_mark": "n",
        "notes": "blk"
    },
    {
        "id": "vtls004671685_1_17",
        "type": "sailor",
        "parent": "vtls004671685",
        "name": "william thomas",
        "dob": "blk",
        "age": "30",
        "place_of_birth": "carmarthen",
        "home_address": "blk",
        "f": "blk",
        "name_of_ship": "garmet",
        "ship_port": "leith",
        "date_leaving": "1867-10-28",
        "joined_ship_date": "1867-10-30",
        "joined_at_port": "briton ferry",
        "capacity": "mate",
        "date_left": "blk",
        "left_port": "blk",
        "cause_of_leaving": "remains on board",
        "sign_with_mark": "n",
        "notes": "blk"
    },
    {
        "id": "vtls004671685_1_16",
        "type": "sailor",
        "parent": "vtls004671685",
        "name": "frances randell",
        "dob": "blk",
        "age": "14",
        "place_of_birth": "pembury",
        "home_address": "blk",
        "f": "blk",
        "name_of_ship": "henry and dora",
        "ship_port": "aberystwyth",
        "date_leaving": "blk",
        "joined_ship_date": "1867-07",
        "joined_at_port": "llanelly",
        "capacity": "boy",
        "date_left": "blk",
        "left_port": "blk",
        "cause_of_leaving": "remains on board",
        "sign_with_mark": "n",
        "notes": "blk"
    },
    {
        "id": "vtls004671692_0_13",
        "type": "sailor",
        "parent": "vtls004671692",
        "name": "james lamb",
        "dob": "blk",
        "age": "18",
        "place_of_birth": "ireland",
        "home_address": "blk",
        "f": "blk",
        "name_of_ship": "juniper",
        "ship_port": "swansea",
        "date_leaving": "1868-11-25",
        "joined_ship_date": "1868-11-26",
        "joined_at_port": "swansea",
        "capacity": "ordinary seaman",
        "date_left": "1869-02-19",
        "left_port": "portland",
        "cause_of_leaving": "vessel wrecked",
        "sign_with_mark": "n",
        "notes": "signed with a mark in the copy"
    },
    {
        "id": "vtls004671692_0_16",
        "type": "sailor",
        "parent": "vtls004671692",
        "name": "david williams",
        "dob": "blk",
        "age": "20",
        "place_of_birth": "ridwelly",
        "home_address": "blk",
        "f": "blk",
        "name_of_ship": "flora",
        "ship_port": "swansea",
        "date_leaving": "1868-11-21",
        "joined_ship_date": "1868-11-25",
        "joined_at_port": "swansea",
        "capacity": "able seaman",
        "date_left": "1869-02-19",
        "left_port": "portland",
        "cause_of_leaving": "vessel wrecked",
        "sign_with_mark": "n",
        "notes": "signed with a mark in the copy"
    },
    {
        "id": "vtls004671692_0_12",
        "type": "sailor",
        "parent": "vtls004671692",
        "name": "thomas smeck",
        "dob": "blk",
        "age": "19",
        "place_of_birth": "llanelly",
        "home_address": "blk",
        "f": "blk",
        "name_of_ship": "belladonna",
        "ship_port": "hold$$$$$$",
        "date_leaving": "1868-10",
        "joined_ship_date": "1868-11-24",
        "joined_at_port": "swansea",
        "capacity": "ordinary seaman",
        "date_left": "1869-02-19",
        "left_port": "portland",
        "cause_of_leaving": "vessel wrecked",
        "sign_with_mark": "n",
        "notes": "blk"
    },
    {
        "id": "vtls004671692_0_15",
        "type": "sailor",
        "parent": "vtls004671692",
        "name": "edward owens",
        "dob": "blk",
        "age": "29",
        "place_of_birth": "amlwch",
        "home_address": "blk",
        "f": "blk",
        "name_of_ship": "minerva",
        "ship_port": "liverpool",
        "date_leaving": "1868-09-10",
        "joined_ship_date": "1868-11-20",
        "joined_at_port": "swansea",
        "capacity": "able seaman",
        "date_left": "1869-02-19",
        "left_port": "portland",
        "cause_of_leaving": "vessel wrecked",
        "sign_with_mark": "n",
        "notes": "blk"
    },
    {
        "id": "vtls004671692_0_14",
        "type": "sailor",
        "parent": "vtls004671692",
        "name": "david richards",
        "dob": "blk",
        "age": "47",
        "place_of_birth": "llanelly",
        "home_address": "blk",
        "f": "blk",
        "name_of_ship": "silver light",
        "ship_port": "llanelly",
        "date_leaving": "1868-11-17",
        "joined_ship_date": "1868-11-23",
        "joined_at_port": "swansea",
        "capacity": "mate",
        "date_left": "1869-02-19",
        "left_port": "portland",
        "cause_of_leaving": "vessel wrecked",
        "sign_with_mark": "n",
        "notes": "blk"
    }
]