[
    {
        "id": "vtls004669734_0_13",
        "type": "sailor",
        "parent": "vtls004669734",
        "name": "john jones",
        "dob": "blk",
        "age": "38",
        "place_of_birth": "newquay",
        "home_address": "blk",
        "f": "blk",
        "name_of_ship": "sarah ann",
        "ship_port": "aberystwyth",
        "date_leaving": "1861-12-06",
        "joined_ship_date": "1862-12-08",
        "joined_at_port": "newquay",
        "capacity": "mate",
        "date_left": "1863-05-15",
        "left_port": "newquay",
        "cause_of_leaving": "discharged",
        "sign_with_mark": "n",
        "notes": "blk"
    },
    {
        "id": "vtls004669734_0_11",
        "type": "sailor",
        "parent": "vtls004669734",
        "name": "francis taylor",
        "dob": "blk",
        "age": "38",
        "place_of_birth": "london",
        "home_address": "blk",
        "f": "blk",
        "name_of_ship": "heart of oak",
        "ship_port": "new quay",
        "date_leaving": "remains",
        "joined_ship_date": "1862-05-05",
        "joined_at_port": "newquay",
        "capacity": "master",
        "date_left": "blk",
        "left_port": "blk",
        "cause_of_leaving": "remains on board",
        "sign_with_mark": "n",
        "notes": "blk"
    },
    {
        "id": "vtls004669734_0_12",
        "type": "sailor",
        "parent": "vtls004669734",
        "name": "robert roberts",
        "dob": "blk",
        "age": "24",
        "place_of_birth": "caernarfon",
        "home_address": "blk",
        "f": "blk",
        "name_of_ship": "pearl",
        "ship_port": "new quay",
        "date_leaving": "1861-11-19",
        "joined_ship_date": "1862-05-15",
        "joined_at_port": "newquay",
        "capacity": "mate",
        "date_left": "blk",
        "left_port": "blk",
        "cause_of_leaving": "remains on board",
        "sign_with_mark": "n",
        "notes": "blk"
    },
    {
        "id": "vtls004669734_0_14",
        "type": "sailor",
        "parent": "vtls004669734",
        "name": "john jones",
        "dob": "blk",
        "age": "14",
        "place_of_birth": "newquay",
        "home_address": "blk",
        "f": "blk",
        "name_of_ship": "first vessel",
        "ship_port": "new quay",
        "date_leaving": "remains",
        "joined_ship_date": "1862-12-15",
        "joined_at_port": "newquay",
        "capacity": "boy",
        "date_left": "blk",
        "left_port": "blk",
        "cause_of_leaving": "remains on board",
        "sign_with_mark": "n",
        "notes": "blk"
    },
    {
        "id": "vtls004669735_0_11",
        "type": "sailor",
        "parent": "vtls004669735",
        "name": "thomas james",
        "dob": "blk",
        "age": "blk",
        "place_of_birth": "aberystwyth",
        "home_address": "bridge street, aberystwyth",
        "f": "bridge street, aberystwyth",
        "name_of_ship": "heart of oak",
        "ship_port": "aberystwyth",
        "date_leaving": "still on board",
        "joined_ship_date": "blk",
        "joined_at_port": "blk",
        "capacity": "master",
        "date_left": "blk",
        "left_port": "blk",
        "cause_of_leaving": "still on board",
        "sign_with_mark": "n",
        "notes": "blk"
    },
    {
        "id": "vtls004669734_1_11",
        "type": "sailor",
        "parent": "vtls004669734",
        "name": "francis taylor",
        "dob": "blk",
        "age": "40",
        "place_of_birth": "newquay",
        "home_address": "new quay ",
        "f": "new quay ",
        "name_of_ship": "heart of oak",
        "ship_port": "aberystwyth",
        "date_leaving": "still on board",
        "joined_ship_date": "blk",
        "joined_at_port": "blk",
        "capacity": "master",
        "date_left": "1863-12-31",
        "left_port": "aberystwyth",
        "cause_of_leaving": "discharged",
        "sign_with_mark": "n",
        "notes": "blk"
    },
    {
        "id": "vtls004669734_1_13",
        "type": "sailor",
        "parent": "vtls004669734",
        "name": "john jones",
        "dob": "blk",
        "age": "13",
        "place_of_birth": "newquay",
        "home_address": "blk",
        "f": "blk",
        "name_of_ship": "heart of oak",
        "ship_port": "aberystwyth",
        "date_leaving": "still on board",
        "joined_ship_date": "blk",
        "joined_at_port": "blk",
        "capacity": "seaman",
        "date_left": "1863-12-31",
        "left_port": "aberystwyth",
        "cause_of_leaving": "discharged",
        "sign_with_mark": "n",
        "notes": "blk"
    },
    {
        "id": "vtls004669734_1_12",
        "type": "sailor",
        "parent": "vtls004669734",
        "name": "evan evans",
        "dob": "blk",
        "age": "24",
        "place_of_birth": "newquay",
        "home_address": "blk",
        "f": "blk",
        "name_of_ship": "heart of oak",
        "ship_port": "aberystwyth",
        "date_leaving": "still on board",
        "joined_ship_date": "blk",
        "joined_at_port": "blk",
        "capacity": "mate",
        "date_left": "1863-12-31",
        "left_port": "aberystwyth",
        "cause_of_leaving": "discharged",
        "sign_with_mark": "n",
        "notes": "blk"
    },
    {
        "id": "vtls004669735_0_12",
        "type": "sailor",
        "parent": "vtls004669735",
        "name": "richard williams",
        "dob": "blk",
        "age": "25",
        "place_of_birth": "aberystwyth",
        "home_address": "blk",
        "f": "blk",
        "name_of_ship": "[naomi]",
        "ship_port": "aberystwyth",
        "date_leaving": "1863-12",
        "joined_ship_date": "1864-02",
        "joined_at_port": "aberystwyth",
        "capacity": "mate",
        "date_left": "blk",
        "left_port": "blk",
        "cause_of_leaving": "still on board",
        "sign_with_mark": "n",
        "notes": "blk"
    },
    {
        "id": "vtls004669735_0_13",
        "type": "sailor",
        "parent": "vtls004669735",
        "name": "david felix",
        "dob": "blk",
        "age": "21",
        "place_of_birth": "llanilar",
        "home_address": "blk",
        "f": "blk",
        "name_of_ship": "elizabeth",
        "ship_port": "cardiff",
        "date_leaving": "1863-11",
        "joined_ship_date": "1864-02",
        "joined_at_port": "aberystwyth",
        "capacity": "seaman",
        "date_left": "blk",
        "left_port": "blk",
        "cause_of_leaving": "still on board",
        "sign_with_mark": "n",
        "notes": "blk"
    }
]