[
    {
        "id": "vtls004656813_1_11",
        "type": "sailor",
        "parent": "vtls004656813",
        "name": "david evans",
        "dob": "blk",
        "age": "72",
        "place_of_birth": "llangranog",
        "home_address": "cardigan",
        "f": "cardigan",
        "name_of_ship": "ellen",
        "ship_port": "aberystwyth",
        "date_leaving": "blk",
        "joined_ship_date": "continued",
        "joined_at_port": "continued",
        "capacity": "master",
        "date_left": "1877-11-10",
        "left_port": "cardigan",
        "cause_of_leaving": "vessel laying up",
        "sign_with_mark": "n",
        "notes": "blk"
    },
    {
        "id": "vtls004656808_0_12",
        "type": "sailor",
        "parent": "vtls004656808",
        "name": "daniel jones",
        "dob": "blk",
        "age": "37",
        "place_of_birth": "llangranog",
        "home_address": "cardigan",
        "f": "cardigan",
        "name_of_ship": "mary",
        "ship_port": "cardigan",
        "date_leaving": "blk",
        "joined_ship_date": "1876-04-01",
        "joined_at_port": "newquay",
        "capacity": "able seaman",
        "date_left": "blk",
        "left_port": "blk",
        "cause_of_leaving": "remains on board",
        "sign_with_mark": "n",
        "notes": "blk"
    },
    {
        "id": "vtls004656808_0_11",
        "type": "sailor",
        "parent": "vtls004656808",
        "name": "david evans",
        "dob": "blk",
        "age": "70",
        "place_of_birth": "newquay",
        "home_address": "cardigan",
        "f": "cardigan",
        "name_of_ship": "ellen",
        "ship_port": "aberystwyth",
        "date_leaving": "blk",
        "joined_ship_date": "1905-02-16",
        "joined_at_port": "newquay",
        "capacity": "master",
        "date_left": "blk",
        "left_port": "blk",
        "cause_of_leaving": "remains on board",
        "sign_with_mark": "n",
        "notes": "blk"
    },
    {
        "id": "vtls004656808_1_11",
        "type": "sailor",
        "parent": "vtls004656808",
        "name": "daniel evans",
        "dob": "blk",
        "age": "71",
        "place_of_birth": "llangranog",
        "home_address": "cardigan",
        "f": "cardigan",
        "name_of_ship": "ellen",
        "ship_port": "aberystwyth",
        "date_leaving": "blk",
        "joined_ship_date": "continue",
        "joined_at_port": "blk",
        "capacity": "master",
        "date_left": "1876-08-24",
        "left_port": "cardigan",
        "cause_of_leaving": "vessel",
        "sign_with_mark": "n",
        "notes": "blk"
    },
    {
        "id": "vtls004656808_1_12",
        "type": "sailor",
        "parent": "vtls004656808",
        "name": "daniel jones",
        "dob": "blk",
        "age": "52",
        "place_of_birth": "llangranog",
        "home_address": "cardigan",
        "f": "cardigan",
        "name_of_ship": "ellen",
        "ship_port": "aberystwyth",
        "date_leaving": "blk",
        "joined_ship_date": "continue",
        "joined_at_port": "blk",
        "capacity": "mate",
        "date_left": "1876-08-24",
        "left_port": "cardigan",
        "cause_of_leaving": "vessel",
        "sign_with_mark": "n",
        "notes": "blk"
    },
    {
        "id": "vtls004656813_0_12",
        "type": "sailor",
        "parent": "vtls004656813",
        "name": "thomas rowlands",
        "dob": "blk",
        "age": "49",
        "place_of_birth": "newquay",
        "home_address": "cardigan",
        "f": "cardigan",
        "name_of_ship": "ellen",
        "ship_port": "aberystwyth",
        "date_leaving": "blk",
        "joined_ship_date": "1877-01-01",
        "joined_at_port": "newquay",
        "capacity": "mate",
        "date_left": "blk",
        "left_port": "blk",
        "cause_of_leaving": "continued",
        "sign_with_mark": "n",
        "notes": "blk"
    },
    {
        "id": "vtls004656813_0_11",
        "type": "sailor",
        "parent": "vtls004656813",
        "name": "david evans",
        "dob": "blk",
        "age": "70",
        "place_of_birth": "newquay",
        "home_address": "cardigan",
        "f": "cardigan",
        "name_of_ship": "ellen",
        "ship_port": "aberystwyth",
        "date_leaving": "blk",
        "joined_ship_date": "1877-01-01",
        "joined_at_port": "newquay",
        "capacity": "master",
        "date_left": "blk",
        "left_port": "blk",
        "cause_of_leaving": "continued",
        "sign_with_mark": "n",
        "notes": "blk"
    },
    {
        "id": "vtls004656813_1_12",
        "type": "sailor",
        "parent": "vtls004656813",
        "name": "thomas owens",
        "dob": "blk",
        "age": "47",
        "place_of_birth": "llangranog",
        "home_address": "cardigan",
        "f": "cardigan",
        "name_of_ship": "ellen",
        "ship_port": "aberystwyth",
        "date_leaving": "blk",
        "joined_ship_date": "continued",
        "joined_at_port": "continued",
        "capacity": "master",
        "date_left": "1877-11-10",
        "left_port": "cardigan",
        "cause_of_leaving": "vessel laying up",
        "sign_with_mark": "n",
        "notes": "blk"
    },
    {
        "id": "vtls004656821_1_11",
        "type": "sailor",
        "parent": "vtls004656821",
        "name": "david evans",
        "dob": "blk",
        "age": "74",
        "place_of_birth": "llangranog",
        "home_address": "cardigan",
        "f": "cardigan",
        "name_of_ship": "ellen",
        "ship_port": "aberystwyth",
        "date_leaving": "blk",
        "joined_ship_date": "blk",
        "joined_at_port": "blk",
        "capacity": "master",
        "date_left": "1878-09-30",
        "left_port": "newquay",
        "cause_of_leaving": "vessel laying up",
        "sign_with_mark": "n",
        "notes": "blk"
    },
    {
        "id": "vtls004656821_1_12",
        "type": "sailor",
        "parent": "vtls004656821",
        "name": "thomas owens",
        "dob": "blk",
        "age": "45",
        "place_of_birth": "llangranog",
        "home_address": "cardigan",
        "f": "cardigan",
        "name_of_ship": "ellen",
        "ship_port": "aberystwyth",
        "date_leaving": "blk",
        "joined_ship_date": "blk",
        "joined_at_port": "blk",
        "capacity": "mate",
        "date_left": "1878-09-30",
        "left_port": "newquay",
        "cause_of_leaving": "vessel laying up",
        "sign_with_mark": "n",
        "notes": "blk"
    },
    {
        "id": "vtls004656824_0_11",
        "type": "sailor",
        "parent": "vtls004656824",
        "name": "david evans",
        "dob": "blk",
        "age": "73",
        "place_of_birth": "llangranog",
        "home_address": "cardigan",
        "f": "cardigan",
        "name_of_ship": "ellen",
        "ship_port": "aberystwyth",
        "date_leaving": "blk",
        "joined_ship_date": "1879-03-21",
        "joined_at_port": "cardigan",
        "capacity": "master",
        "date_left": "blk",
        "left_port": "blk",
        "cause_of_leaving": "remains on board",
        "sign_with_mark": "n",
        "notes": "blk"
    },
    {
        "id": "vtls004656821_0_11",
        "type": "sailor",
        "parent": "vtls004656821",
        "name": "david evans",
        "dob": "blk",
        "age": "72",
        "place_of_birth": "llangranog",
        "home_address": "blk",
        "f": "blk",
        "name_of_ship": "ellen",
        "ship_port": "aberystwyth",
        "date_leaving": "blk",
        "joined_ship_date": "1878-05-12",
        "joined_at_port": "cardigan",
        "capacity": "master",
        "date_left": "blk",
        "left_port": "blk",
        "cause_of_leaving": "remains on board",
        "sign_with_mark": "n",
        "notes": "blk"
    },
    {
        "id": "vtls004656824_0_12",
        "type": "sailor",
        "parent": "vtls004656824",
        "name": "thomas owens",
        "dob": "blk",
        "age": "48",
        "place_of_birth": "newquay",
        "home_address": "cardigan",
        "f": "cardigan",
        "name_of_ship": "ellen",
        "ship_port": "aberystwyth",
        "date_leaving": "blk",
        "joined_ship_date": "1879-03-21",
        "joined_at_port": "cardigan",
        "capacity": "mate",
        "date_left": "blk",
        "left_port": "blk",
        "cause_of_leaving": "remains on board",
        "sign_with_mark": "n",
        "notes": "blk"
    },
    {
        "id": "vtls004656821_0_12",
        "type": "sailor",
        "parent": "vtls004656821",
        "name": "thomas owens",
        "dob": "blk",
        "age": "48",
        "place_of_birth": "llangranog",
        "home_address": "blk",
        "f": "blk",
        "name_of_ship": "ellen",
        "ship_port": "aberystwyth",
        "date_leaving": "blk",
        "joined_ship_date": "1878-05-12",
        "joined_at_port": "cardigan",
        "capacity": "mate",
        "date_left": "blk",
        "left_port": "blk",
        "cause_of_leaving": "remains on board",
        "sign_with_mark": "n",
        "notes": "blk"
    },
    {
        "id": "vtls004656841_0_11",
        "type": "sailor",
        "parent": "vtls004656841",
        "name": "david evans",
        "dob": "blk",
        "age": "75",
        "place_of_birth": "newquay",
        "home_address": "blk",
        "f": "blk",
        "name_of_ship": "ellen",
        "ship_port": "aberystwyth",
        "date_leaving": "1905-02-23",
        "joined_ship_date": "1881-03-19",
        "joined_at_port": "cardigan",
        "capacity": "master",
        "date_left": "1881-07-07",
        "left_port": "swansea",
        "cause_of_leaving": "remains on board",
        "sign_with_mark": "n",
        "notes": "blk"
    },
    {
        "id": "vtls004656824_1_11",
        "type": "sailor",
        "parent": "vtls004656824",
        "name": "david evans",
        "dob": "blk",
        "age": "64",
        "place_of_birth": "llangranog",
        "home_address": "cardigan",
        "f": "cardigan",
        "name_of_ship": "ellen",
        "ship_port": "aberystwyth",
        "date_leaving": "blk",
        "joined_ship_date": "continued",
        "joined_at_port": "blk",
        "capacity": "master",
        "date_left": "1879-10-31",
        "left_port": "cardigan",
        "cause_of_leaving": "vessel laying up",
        "sign_with_mark": "n",
        "notes": "blk"
    },
    {
        "id": "vtls004656834_1_11",
        "type": "sailor",
        "parent": "vtls004656834",
        "name": "david evans",
        "dob": "1814",
        "age": "blk",
        "place_of_birth": "llangranog",
        "home_address": "blk",
        "f": "blk",
        "name_of_ship": "ellen",
        "ship_port": "aberystwyth",
        "date_leaving": "1880",
        "joined_ship_date": "blk",
        "joined_at_port": "continues",
        "capacity": "master",
        "date_left": "1880-10-31",
        "left_port": "cardigan",
        "cause_of_leaving": "discharged",
        "sign_with_mark": "n",
        "notes": "blk"
    },
    {
        "id": "vtls004656834_1_12",
        "type": "sailor",
        "parent": "vtls004656834",
        "name": "daniel jones",
        "dob": "1820",
        "age": "blk",
        "place_of_birth": "llangranog",
        "home_address": "blk",
        "f": "blk",
        "name_of_ship": "ellen",
        "ship_port": "aberystwyth",
        "date_leaving": "1880",
        "joined_ship_date": "blk",
        "joined_at_port": "continues",
        "capacity": "mate",
        "date_left": "1880-10-31",
        "left_port": "cardigan",
        "cause_of_leaving": "discharged",
        "sign_with_mark": "n",
        "notes": "blk"
    },
    {
        "id": "vtls004656824_1_12",
        "type": "sailor",
        "parent": "vtls004656824",
        "name": "thomas owens",
        "dob": "blk",
        "age": "48",
        "place_of_birth": "newquay",
        "home_address": "blk",
        "f": "blk",
        "name_of_ship": "ellen",
        "ship_port": "aberystwyth",
        "date_leaving": "blk",
        "joined_ship_date": "continued",
        "joined_at_port": "blk",
        "capacity": "mate",
        "date_left": "1879-10-31",
        "left_port": "cardigan",
        "cause_of_leaving": "vessel laying up",
        "sign_with_mark": "n",
        "notes": "blk"
    },
    {
        "id": "vtls004656834_0_11",
        "type": "sailor",
        "parent": "vtls004656834",
        "name": "david evans",
        "dob": "1806",
        "age": "blk",
        "place_of_birth": "cardigan",
        "home_address": "blk",
        "f": "blk",
        "name_of_ship": "ellen",
        "ship_port": "aberystwyth",
        "date_leaving": "blk",
        "joined_ship_date": "blk",
        "joined_at_port": "cardigan",
        "capacity": "master",
        "date_left": "1880-07-29",
        "left_port": "swansea",
        "cause_of_leaving": "continued",
        "sign_with_mark": "n",
        "notes": "blk"
    },
    {
        "id": "vtls004656834_0_12",
        "type": "sailor",
        "parent": "vtls004656834",
        "name": "daniel jones",
        "dob": "1820",
        "age": "blk",
        "place_of_birth": "cardigan",
        "home_address": "blk",
        "f": "blk",
        "name_of_ship": "ellen",
        "ship_port": "aberystwyth",
        "date_leaving": "blk",
        "joined_ship_date": "blk",
        "joined_at_port": "cardigan",
        "capacity": "mate",
        "date_left": "1880-07-29",
        "left_port": "swansea",
        "cause_of_leaving": "continued",
        "sign_with_mark": "n",
        "notes": "blk"
    },
    {
        "id": "vtls004656728_0_11",
        "type": "sailor",
        "parent": "vtls004656728",
        "name": "john thomas",
        "dob": "blk",
        "age": "51",
        "place_of_birth": "llansanffraid",
        "home_address": "cardiganshire",
        "f": "cardiganshire",
        "name_of_ship": "ellen",
        "ship_port": "aberystwyth",
        "date_leaving": "blk",
        "joined_ship_date": "1863-01-01",
        "joined_at_port": "aberayron",
        "capacity": "master",
        "date_left": "1863-06-30",
        "left_port": "aberaeron",
        "cause_of_leaving": "remains on board",
        "sign_with_mark": "n",
        "notes": "blk"
    },
    {
        "id": "vtls004656728_1_11",
        "type": "sailor",
        "parent": "vtls004656728",
        "name": "john thomas",
        "dob": "blk",
        "age": "53",
        "place_of_birth": "llansanffraid",
        "home_address": "cardigan",
        "f": "cardigan",
        "name_of_ship": "ellen",
        "ship_port": "aberystwyth",
        "date_leaving": "blk",
        "joined_ship_date": "1864-07-01",
        "joined_at_port": "aberayron",
        "capacity": "master",
        "date_left": "1864-12-31",
        "left_port": "caernarfon",
        "cause_of_leaving": "remains on board",
        "sign_with_mark": "n",
        "notes": "blk"
    },
    {
        "id": "vtls004656728_1_12",
        "type": "sailor",
        "parent": "vtls004656728",
        "name": "john thomas",
        "dob": "blk",
        "age": "19",
        "place_of_birth": "llansanffraid",
        "home_address": "cardigan",
        "f": "cardigan",
        "name_of_ship": "ellen",
        "ship_port": "aberystwyth",
        "date_leaving": "blk",
        "joined_ship_date": "1864-07-01",
        "joined_at_port": "aberayron",
        "capacity": "mate",
        "date_left": "1864-12-31",
        "left_port": "caernarfon",
        "cause_of_leaving": "remains on board",
        "sign_with_mark": "n",
        "notes": "blk"
    },
    {
        "id": "vtls004656728_1_13",
        "type": "sailor",
        "parent": "vtls004656728",
        "name": "owen thomas",
        "dob": "blk",
        "age": "14",
        "place_of_birth": "llansanffraid",
        "home_address": "cardigan",
        "f": "cardigan",
        "name_of_ship": "first ship",
        "ship_port": "blk",
        "date_leaving": "blk",
        "joined_ship_date": "1864-08-04",
        "joined_at_port": "aberayron",
        "capacity": "boy",
        "date_left": "1864-12-31",
        "left_port": "caernarfon",
        "cause_of_leaving": "remains on board",
        "sign_with_mark": "n",
        "notes": "blk"
    },
    {
        "id": "vtls004656728_0_12",
        "type": "sailor",
        "parent": "vtls004656728",
        "name": "john thomas",
        "dob": "blk",
        "age": "19",
        "place_of_birth": "llansanffraid",
        "home_address": "blk",
        "f": "blk",
        "name_of_ship": "ellen",
        "ship_port": "aberystwyth",
        "date_leaving": "blk",
        "joined_ship_date": "1863-01-01",
        "joined_at_port": "aberayron",
        "capacity": "mate",
        "date_left": "1863-06-30",
        "left_port": "aberaeron",
        "cause_of_leaving": "remains on board",
        "sign_with_mark": "n",
        "notes": "blk"
    },
    {
        "id": "vtls004656841_0_12",
        "type": "sailor",
        "parent": "vtls004656841",
        "name": "evan jeremiah",
        "dob": "blk",
        "age": "53",
        "place_of_birth": "cardigan",
        "home_address": "blk",
        "f": "blk",
        "name_of_ship": "[lion]",
        "ship_port": "cardigan",
        "date_leaving": "1905-02-23",
        "joined_ship_date": "1881-03-19",
        "joined_at_port": "cardigan",
        "capacity": "mate",
        "date_left": "1881-07-07",
        "left_port": "swansea",
        "cause_of_leaving": "remains on board",
        "sign_with_mark": "n",
        "notes": "blk"
    },
    {
        "id": "vtls004656728_0_13",
        "type": "sailor",
        "parent": "vtls004656728",
        "name": "evan evans",
        "dob": "blk",
        "age": "22",
        "place_of_birth": "llansanffraid",
        "home_address": "blk",
        "f": "blk",
        "name_of_ship": "first ship",
        "ship_port": "blk",
        "date_leaving": "blk",
        "joined_ship_date": "1863-03-03",
        "joined_at_port": "aberayron",
        "capacity": "boy",
        "date_left": "1863-06-30",
        "left_port": "aberaeron",
        "cause_of_leaving": "remains on board",
        "sign_with_mark": "n",
        "notes": "blk"
    },
    {
        "id": "vtls004656733_0_11",
        "type": "sailor",
        "parent": "vtls004656733",
        "name": "john thomas",
        "dob": "blk",
        "age": "54",
        "place_of_birth": "llansantffraid",
        "home_address": "cardiganshire",
        "f": "cardiganshire",
        "name_of_ship": "ellen",
        "ship_port": "aberystwyth",
        "date_leaving": "blk",
        "joined_ship_date": "1864-01-01",
        "joined_at_port": "aberayron",
        "capacity": "master",
        "date_left": "1864-05-30",
        "left_port": "aberaeron",
        "cause_of_leaving": "remains on board",
        "sign_with_mark": "n",
        "notes": "blk"
    },
    {
        "id": "vtls004656774_0_11",
        "type": "sailor",
        "parent": "vtls004656774",
        "name": "john thomas",
        "dob": "blk",
        "age": "57",
        "place_of_birth": "llansantffraid",
        "home_address": "cardiganshire",
        "f": "cardiganshire",
        "name_of_ship": "ellen",
        "ship_port": "aberystwyth",
        "date_leaving": "blk",
        "joined_ship_date": "1868-01-01",
        "joined_at_port": "aberystwyth",
        "capacity": "master",
        "date_left": "1868-06-30",
        "left_port": "at sea",
        "cause_of_leaving": "remains on board",
        "sign_with_mark": "n",
        "notes": "blk"
    },
    {
        "id": "vtls004656733_1_11",
        "type": "sailor",
        "parent": "vtls004656733",
        "name": "john thomas",
        "dob": "blk",
        "age": "59",
        "place_of_birth": "llansantffraid",
        "home_address": "cardiganshire",
        "f": "cardiganshire",
        "name_of_ship": "ellen",
        "ship_port": "aberystwyth",
        "date_leaving": "blk",
        "joined_ship_date": "1865-07-01",
        "joined_at_port": "aberayron",
        "capacity": "master",
        "date_left": "1865-12-31",
        "left_port": "aberaeron",
        "cause_of_leaving": "remains on board",
        "sign_with_mark": "n",
        "notes": "blk"
    },
    {
        "id": "vtls004656733_0_12",
        "type": "sailor",
        "parent": "vtls004656733",
        "name": "john thomas",
        "dob": "blk",
        "age": "19",
        "place_of_birth": "llansantffraid",
        "home_address": "cardiganshire",
        "f": "cardiganshire",
        "name_of_ship": "ellen",
        "ship_port": "aberystwyth",
        "date_leaving": "blk",
        "joined_ship_date": "1864-01-01",
        "joined_at_port": "aberayron",
        "capacity": "mate",
        "date_left": "1864-05-30",
        "left_port": "aberaeron",
        "cause_of_leaving": "remains on board",
        "sign_with_mark": "n",
        "notes": "blk"
    },
    {
        "id": "vtls004656733_0_13",
        "type": "sailor",
        "parent": "vtls004656733",
        "name": "evan thomas",
        "dob": "blk",
        "age": "14",
        "place_of_birth": "llansantffraid",
        "home_address": "cardiganshire",
        "f": "cardiganshire",
        "name_of_ship": "ellen",
        "ship_port": "aberystwyth",
        "date_leaving": "blk",
        "joined_ship_date": "1864-01-01",
        "joined_at_port": "aberayron",
        "capacity": "boy",
        "date_left": "1864-05-30",
        "left_port": "aberaeron",
        "cause_of_leaving": "remains on board",
        "sign_with_mark": "n",
        "notes": "blk"
    },
    {
        "id": "vtls004656774_0_12",
        "type": "sailor",
        "parent": "vtls004656774",
        "name": "evan thomas",
        "dob": "blk",
        "age": "19",
        "place_of_birth": "llansantffraid",
        "home_address": "cardiganshire",
        "f": "cardiganshire",
        "name_of_ship": "ellen",
        "ship_port": "aberystwyth",
        "date_leaving": "blk",
        "joined_ship_date": "1868-01-01",
        "joined_at_port": "aberystwyth",
        "capacity": "mate",
        "date_left": "1868-06-30",
        "left_port": "at sea",
        "cause_of_leaving": "remains on board",
        "sign_with_mark": "n",
        "notes": "blk"
    },
    {
        "id": "vtls004656733_1_12",
        "type": "sailor",
        "parent": "vtls004656733",
        "name": "john thomas",
        "dob": "blk",
        "age": "20",
        "place_of_birth": "llansantffraid",
        "home_address": "cardiganshire",
        "f": "cardiganshire",
        "name_of_ship": "ellen",
        "ship_port": "aberystwyth",
        "date_leaving": "blk",
        "joined_ship_date": "1865-07-01",
        "joined_at_port": "aberayron",
        "capacity": "mate",
        "date_left": "1865-12-31",
        "left_port": "aberaeron",
        "cause_of_leaving": "remains on board",
        "sign_with_mark": "n",
        "notes": "blk"
    },
    {
        "id": "vtls004656733_1_13",
        "type": "sailor",
        "parent": "vtls004656733",
        "name": "evan thomas",
        "dob": "blk",
        "age": "15",
        "place_of_birth": "llansantffraid",
        "home_address": "cardiganshire",
        "f": "cardiganshire",
        "name_of_ship": "ellen",
        "ship_port": "aberystwyth",
        "date_leaving": "blk",
        "joined_ship_date": "1865-07-01",
        "joined_at_port": "aberayron",
        "capacity": "boy",
        "date_left": "1865-12-31",
        "left_port": "aberaeron",
        "cause_of_leaving": "remains on board",
        "sign_with_mark": "n",
        "notes": "blk"
    },
    {
        "id": "vtls004656794_0_12",
        "type": "sailor",
        "parent": "vtls004656794",
        "name": "daniel evans",
        "dob": "blk",
        "age": "17",
        "place_of_birth": "llansantffraid",
        "home_address": "cardiganshire",
        "f": "cardiganshire",
        "name_of_ship": "first ship",
        "ship_port": "blk",
        "date_leaving": "blk",
        "joined_ship_date": "1869-04-01",
        "joined_at_port": "aberystwyth",
        "capacity": "ordinary seaman",
        "date_left": "1869-06-10",
        "left_port": "at sea",
        "cause_of_leaving": "remains on board",
        "sign_with_mark": "n",
        "notes": "blk"
    },
    {
        "id": "vtls004656794_0_11",
        "type": "sailor",
        "parent": "vtls004656794",
        "name": "evan thomas",
        "dob": "blk",
        "age": "20",
        "place_of_birth": "llansantffraid",
        "home_address": "cardiganshire",
        "f": "cardiganshire",
        "name_of_ship": "aeron belle",
        "ship_port": "aberystwyth",
        "date_leaving": "blk",
        "joined_ship_date": "1869-04-01",
        "joined_at_port": "aberystwyth",
        "capacity": "master",
        "date_left": "1869-06-10",
        "left_port": "at sea",
        "cause_of_leaving": "remains on board",
        "sign_with_mark": "n",
        "notes": "blk"
    },
    {
        "id": "vtls004656794_1_11",
        "type": "sailor",
        "parent": "vtls004656794",
        "name": "evan thomas",
        "dob": "blk",
        "age": "20",
        "place_of_birth": "llansantffraid",
        "home_address": "cardiganshire",
        "f": "cardiganshire",
        "name_of_ship": "ellen",
        "ship_port": "aberystwyth",
        "date_leaving": "blk",
        "joined_ship_date": "1869-07-01",
        "joined_at_port": "at sea",
        "capacity": "master",
        "date_left": "1869-12-31",
        "left_port": "aberaeron",
        "cause_of_leaving": "remains on board",
        "sign_with_mark": "n",
        "notes": "blk"
    },
    {
        "id": "vtls004656774_0_13",
        "type": "sailor",
        "parent": "vtls004656774",
        "name": "evan willams",
        "dob": "blk",
        "age": "14",
        "place_of_birth": "llansantffraid",
        "home_address": "cardiganshire",
        "f": "cardiganshire",
        "name_of_ship": "ellen",
        "ship_port": "aberystwyth",
        "date_leaving": "blk",
        "joined_ship_date": "1868-03-10",
        "joined_at_port": "aberystwyth",
        "capacity": "boy",
        "date_left": "1868-06-30",
        "left_port": "at sea",
        "cause_of_leaving": "remains on board",
        "sign_with_mark": "n",
        "notes": "blk"
    },
    {
        "id": "vtls004656774_1_11",
        "type": "sailor",
        "parent": "vtls004656774",
        "name": "john thomas",
        "dob": "blk",
        "age": "59",
        "place_of_birth": "llansantffraid",
        "home_address": "cardiganshire",
        "f": "cardiganshire",
        "name_of_ship": "ellen",
        "ship_port": "aberystwyth",
        "date_leaving": "blk",
        "joined_ship_date": "1869-07-01",
        "joined_at_port": "at sea",
        "capacity": "master",
        "date_left": "1869-11-25",
        "left_port": "aberystwyth",
        "cause_of_leaving": "discharged",
        "sign_with_mark": "n",
        "notes": "blk"
    },
    {
        "id": "vtls004656774_1_12",
        "type": "sailor",
        "parent": "vtls004656774",
        "name": "evan thomas",
        "dob": "blk",
        "age": "19",
        "place_of_birth": "llansantffraid",
        "home_address": "cardiganshire",
        "f": "cardiganshire",
        "name_of_ship": "ellen",
        "ship_port": "aberystwyth",
        "date_leaving": "blk",
        "joined_ship_date": "1869-07-01",
        "joined_at_port": "at sea",
        "capacity": "mate",
        "date_left": "1869-11-25",
        "left_port": "aberystwyth",
        "cause_of_leaving": "discharged",
        "sign_with_mark": "n",
        "notes": "blk"
    },
    {
        "id": "vtls004656794_1_12",
        "type": "sailor",
        "parent": "vtls004656794",
        "name": "daniel evans",
        "dob": "blk",
        "age": "17",
        "place_of_birth": "llansantffraid",
        "home_address": "cardiganshire",
        "f": "cardiganshire",
        "name_of_ship": "ellen",
        "ship_port": "aberystwyth",
        "date_leaving": "blk",
        "joined_ship_date": "1869-07-01",
        "joined_at_port": "at sea",
        "capacity": "mate",
        "date_left": "1869-12-31",
        "left_port": "aberaeron",
        "cause_of_leaving": "discharged",
        "sign_with_mark": "n",
        "notes": "blk"
    },
    {
        "id": "vtls004656774_1_13",
        "type": "sailor",
        "parent": "vtls004656774",
        "name": "evan williams",
        "dob": "blk",
        "age": "14",
        "place_of_birth": "llansantffraid",
        "home_address": "cardiganshire",
        "f": "cardiganshire",
        "name_of_ship": "ellen",
        "ship_port": "aberystwyth",
        "date_leaving": "blk",
        "joined_ship_date": "1869-07-01",
        "joined_at_port": "at sea",
        "capacity": "boy",
        "date_left": "1869-10-28",
        "left_port": "milford",
        "cause_of_leaving": "discharged",
        "sign_with_mark": "n",
        "notes": "blk"
    },
    {
        "id": "vtls004656796_0_11",
        "type": "sailor",
        "parent": "vtls004656796",
        "name": "evan thomas",
        "dob": "blk",
        "age": "21",
        "place_of_birth": "llansanffraid",
        "home_address": "cardiganshire",
        "f": "cardiganshire",
        "name_of_ship": "ellen",
        "ship_port": "aberystwyth",
        "date_leaving": "blk",
        "joined_ship_date": "1870-01-01",
        "joined_at_port": "aberayron",
        "capacity": "master",
        "date_left": "1871-06-30",
        "left_port": "at sea",
        "cause_of_leaving": "remains on board",
        "sign_with_mark": "n",
        "notes": "blk"
    },
    {
        "id": "vtls004656796_0_12",
        "type": "sailor",
        "parent": "vtls004656796",
        "name": "richard williams",
        "dob": "blk",
        "age": "16",
        "place_of_birth": "llansanffraid",
        "home_address": "cardiganshire",
        "f": "cardiganshire",
        "name_of_ship": "first ship",
        "ship_port": "blk",
        "date_leaving": "blk",
        "joined_ship_date": "1870-04-05",
        "joined_at_port": "aberayron",
        "capacity": "mate",
        "date_left": "1871-06-30",
        "left_port": "at sea",
        "cause_of_leaving": "remains on board",
        "sign_with_mark": "n",
        "notes": "blk"
    },
    {
        "id": "vtls004656796_1_12",
        "type": "sailor",
        "parent": "vtls004656796",
        "name": "richard williams",
        "dob": "blk",
        "age": "16",
        "place_of_birth": "llansanffraid",
        "home_address": "cardiganshire",
        "f": "cardiganshire",
        "name_of_ship": "ellen",
        "ship_port": "aberystwyth",
        "date_leaving": "blk",
        "joined_ship_date": "1871-07-01",
        "joined_at_port": "at sea",
        "capacity": "mate",
        "date_left": "1871-11-08",
        "left_port": "aberaeron",
        "cause_of_leaving": "discharged",
        "sign_with_mark": "n",
        "notes": "blk"
    },
    {
        "id": "vtls004656798_0_11",
        "type": "sailor",
        "parent": "vtls004656798",
        "name": "stephen davies",
        "dob": "blk",
        "age": "55",
        "place_of_birth": "cardiganshire",
        "home_address": "blk",
        "f": "blk",
        "name_of_ship": "atalanta",
        "ship_port": "aberystwyth",
        "date_leaving": "blk",
        "joined_ship_date": "1871-03-20",
        "joined_at_port": "aberayron",
        "capacity": "master",
        "date_left": "1871-06-30",
        "left_port": "at sea",
        "cause_of_leaving": "remains on board",
        "sign_with_mark": "n",
        "notes": "blk"
    },
    {
        "id": "vtls004656796_1_11",
        "type": "sailor",
        "parent": "vtls004656796",
        "name": "evan thomas",
        "dob": "blk",
        "age": "21",
        "place_of_birth": "llansanffraid",
        "home_address": "cardiganshire",
        "f": "cardiganshire",
        "name_of_ship": "ellen",
        "ship_port": "aberystwyth",
        "date_leaving": "blk",
        "joined_ship_date": "1871-07-01",
        "joined_at_port": "at sea",
        "capacity": "master",
        "date_left": "1871-12-31",
        "left_port": "aberaeron",
        "cause_of_leaving": "discharged",
        "sign_with_mark": "n",
        "notes": "blk"
    },
    {
        "id": "vtls004656796_1_13",
        "type": "sailor",
        "parent": "vtls004656796",
        "name": "evan davies",
        "dob": "blk",
        "age": "blk",
        "place_of_birth": "llansanffraid",
        "home_address": "cardiganshire",
        "f": "cardiganshire",
        "name_of_ship": "first ship",
        "ship_port": "blk",
        "date_leaving": "blk",
        "joined_ship_date": "1871-07-16",
        "joined_at_port": "aberayron",
        "capacity": "boy",
        "date_left": "1871-11-08",
        "left_port": "aberaeron",
        "cause_of_leaving": "discharged",
        "sign_with_mark": "n",
        "notes": "blk"
    },
    {
        "id": "vtls004656798_0_12",
        "type": "sailor",
        "parent": "vtls004656798",
        "name": "evan davies",
        "dob": "blk",
        "age": "12",
        "place_of_birth": "cardiganshire",
        "home_address": "blk",
        "f": "blk",
        "name_of_ship": "ellen",
        "ship_port": "aberystwyth",
        "date_leaving": "blk",
        "joined_ship_date": "1871-03-20",
        "joined_at_port": "aberayron",
        "capacity": "boy",
        "date_left": "1871-06-30",
        "left_port": "at sea",
        "cause_of_leaving": "remains on board",
        "sign_with_mark": "n",
        "notes": "blk"
    },
    {
        "id": "vtls004656799_0_12",
        "type": "sailor",
        "parent": "vtls004656799",
        "name": "evan davies",
        "dob": "blk",
        "age": "13",
        "place_of_birth": "llanon",
        "home_address": "cardiganshire",
        "f": "cardiganshire",
        "name_of_ship": "ellen",
        "ship_port": "aberystwyth",
        "date_leaving": "blk",
        "joined_ship_date": "1872-01-01",
        "joined_at_port": "aberayron",
        "capacity": "ordinary seaman",
        "date_left": "1872-06-30",
        "left_port": "at sea",
        "cause_of_leaving": "remains on board",
        "sign_with_mark": "n",
        "notes": "blk"
    },
    {
        "id": "vtls004656799_1_14",
        "type": "sailor",
        "parent": "vtls004656799",
        "name": "john thomas",
        "dob": "blk",
        "age": "27",
        "place_of_birth": "llanon",
        "home_address": "cardiganshire",
        "f": "cardiganshire",
        "name_of_ship": "prince cadwgan",
        "ship_port": "aberystwyth",
        "date_leaving": "blk",
        "joined_ship_date": "1872-09-08",
        "joined_at_port": "aberayron",
        "capacity": "master",
        "date_left": "1872-10-19",
        "left_port": "aberaeron",
        "cause_of_leaving": "discharged",
        "sign_with_mark": "n",
        "notes": "blk"
    },
    {
        "id": "vtls004656799_1_12",
        "type": "sailor",
        "parent": "vtls004656799",
        "name": "evan davies",
        "dob": "blk",
        "age": "15",
        "place_of_birth": "llanon",
        "home_address": "cardiganshire",
        "f": "cardiganshire",
        "name_of_ship": "ellen",
        "ship_port": "aberystwyth",
        "date_leaving": "blk",
        "joined_ship_date": "1872-07-01",
        "joined_at_port": "at sea",
        "capacity": "ordinary seaman",
        "date_left": "1872-10-19",
        "left_port": "aberaeron",
        "cause_of_leaving": "discharged",
        "sign_with_mark": "n",
        "notes": "blk"
    },
    {
        "id": "vtls004656799_0_11",
        "type": "sailor",
        "parent": "vtls004656799",
        "name": "evan thomas",
        "dob": "blk",
        "age": "23",
        "place_of_birth": "llanon",
        "home_address": "cardiganshire",
        "f": "cardiganshire",
        "name_of_ship": "[aretas]",
        "ship_port": "aberystwyth",
        "date_leaving": "blk",
        "joined_ship_date": "1872-07-14",
        "joined_at_port": "aberayron",
        "capacity": "master",
        "date_left": "1872-06-30",
        "left_port": "at sea",
        "cause_of_leaving": "remains on board",
        "sign_with_mark": "n",
        "notes": "blk"
    },
    {
        "id": "vtls004656799_1_13",
        "type": "sailor",
        "parent": "vtls004656799",
        "name": "thomas price",
        "dob": "blk",
        "age": "40",
        "place_of_birth": "llanon",
        "home_address": "cardiganshire",
        "f": "cardiganshire",
        "name_of_ship": "martha jane",
        "ship_port": "aberystwyth",
        "date_leaving": "blk",
        "joined_ship_date": "1872-08-05",
        "joined_at_port": "aberayron",
        "capacity": "master",
        "date_left": "1872-09-05",
        "left_port": "aberaeron",
        "cause_of_leaving": "discharged",
        "sign_with_mark": "n",
        "notes": "blk"
    },
    {
        "id": "vtls004656799_1_11",
        "type": "sailor",
        "parent": "vtls004656799",
        "name": "evan thomas",
        "dob": "blk",
        "age": "23",
        "place_of_birth": "llanon",
        "home_address": "cardiganshire",
        "f": "cardiganshire",
        "name_of_ship": "ellen",
        "ship_port": "aberystwyth",
        "date_leaving": "blk",
        "joined_ship_date": "1872-07-01",
        "joined_at_port": "at sea",
        "capacity": "master",
        "date_left": "1872-07-31",
        "left_port": "aberaeron",
        "cause_of_leaving": "discharged",
        "sign_with_mark": "n",
        "notes": "blk"
    },
    {
        "id": "vtls004656798_1_11",
        "type": "sailor",
        "parent": "vtls004656798",
        "name": "stephen davies",
        "dob": "blk",
        "age": "55",
        "place_of_birth": "cardigan",
        "home_address": "blk",
        "f": "blk",
        "name_of_ship": "ellen",
        "ship_port": "aberystwyth",
        "date_leaving": "blk",
        "joined_ship_date": "1872-07-01",
        "joined_at_port": "aberystwyth",
        "capacity": "master",
        "date_left": "1872-10-13",
        "left_port": "aberaeron",
        "cause_of_leaving": "discharged",
        "sign_with_mark": "n",
        "notes": "blk"
    },
    {
        "id": "vtls004656798_1_12",
        "type": "sailor",
        "parent": "vtls004656798",
        "name": "evan davies",
        "dob": "blk",
        "age": "13",
        "place_of_birth": "cardigan",
        "home_address": "blk",
        "f": "blk",
        "name_of_ship": "ellen",
        "ship_port": "aberystwyth",
        "date_leaving": "blk",
        "joined_ship_date": "1872-07-01",
        "joined_at_port": "aberystwyth",
        "capacity": "master",
        "date_left": "1872-10-13",
        "left_port": "aberaeron",
        "cause_of_leaving": "discharged",
        "sign_with_mark": "n",
        "notes": "blk"
    },
    {
        "id": "vtls004656800_0_12",
        "type": "sailor",
        "parent": "vtls004656800",
        "name": "evan davies",
        "dob": "blk",
        "age": "15",
        "place_of_birth": "llanon",
        "home_address": "blk",
        "f": "blk",
        "name_of_ship": "ellen",
        "ship_port": "aberystwyth",
        "date_leaving": "blk",
        "joined_ship_date": "1873-03-19",
        "joined_at_port": "aberayron",
        "capacity": "ordinary seaman",
        "date_left": "1873-06-30",
        "left_port": "aberaeron",
        "cause_of_leaving": "remains on board",
        "sign_with_mark": "n",
        "notes": "blk"
    },
    {
        "id": "vtls004656805_1_11",
        "type": "sailor",
        "parent": "vtls004656805",
        "name": "evan thomas",
        "dob": "blk",
        "age": "25",
        "place_of_birth": "llansanffraid",
        "home_address": "cardiganshire",
        "f": "cardiganshire",
        "name_of_ship": "ellen",
        "ship_port": "aberystwyth",
        "date_leaving": "blk",
        "joined_ship_date": "1874-07-01",
        "joined_at_port": "neath",
        "capacity": "master",
        "date_left": "1874-09-19",
        "left_port": "aberaeron",
        "cause_of_leaving": "discharged",
        "sign_with_mark": "n",
        "notes": "blk"
    },
    {
        "id": "vtls004656800_0_11",
        "type": "sailor",
        "parent": "vtls004656800",
        "name": "david rees",
        "dob": "blk",
        "age": "46",
        "place_of_birth": "aberaeron",
        "home_address": "blk",
        "f": "blk",
        "name_of_ship": "[natalia]",
        "ship_port": "aberystwyth",
        "date_leaving": "blk",
        "joined_ship_date": "1873-03-10",
        "joined_at_port": "aberayron",
        "capacity": "master",
        "date_left": "1873-06-30",
        "left_port": "aberaeron",
        "cause_of_leaving": "remains on board",
        "sign_with_mark": "n",
        "notes": "blk"
    },
    {
        "id": "vtls004656800_1_12",
        "type": "sailor",
        "parent": "vtls004656800",
        "name": "evan davies",
        "dob": "blk",
        "age": "15",
        "place_of_birth": "llansanffraid",
        "home_address": "cardigan",
        "f": "cardigan",
        "name_of_ship": "ellen",
        "ship_port": "aberystwyth",
        "date_leaving": "blk",
        "joined_ship_date": "1873-07-01",
        "joined_at_port": "aberayron",
        "capacity": "mate",
        "date_left": "1873-09-10",
        "left_port": "aberaeron",
        "cause_of_leaving": "discharged",
        "sign_with_mark": "n",
        "notes": "blk"
    },
    {
        "id": "vtls004656800_1_11",
        "type": "sailor",
        "parent": "vtls004656800",
        "name": "david rees",
        "dob": "blk",
        "age": "blk",
        "place_of_birth": "aberaeron",
        "home_address": "cardigan",
        "f": "cardigan",
        "name_of_ship": "ellen",
        "ship_port": "aberystwyth",
        "date_leaving": "blk",
        "joined_ship_date": "1873-07-10",
        "joined_at_port": "aberayron",
        "capacity": "master",
        "date_left": "1873-09-10",
        "left_port": "aberaeron",
        "cause_of_leaving": "discharged",
        "sign_with_mark": "n",
        "notes": "blk"
    },
    {
        "id": "vtls004656805_0_11",
        "type": "sailor",
        "parent": "vtls004656805",
        "name": "evan thomas",
        "dob": "blk",
        "age": "25",
        "place_of_birth": "llanon",
        "home_address": "blk",
        "f": "blk",
        "name_of_ship": "ellen",
        "ship_port": "aberystwyth",
        "date_leaving": "blk",
        "joined_ship_date": "continues ",
        "joined_at_port": "blk",
        "capacity": "master",
        "date_left": "blk",
        "left_port": "blk",
        "cause_of_leaving": "continues",
        "sign_with_mark": "n",
        "notes": "blk"
    },
    {
        "id": "vtls004656805_0_12",
        "type": "sailor",
        "parent": "vtls004656805",
        "name": "john thomas",
        "dob": "blk",
        "age": "63",
        "place_of_birth": "llanon",
        "home_address": "blk",
        "f": "blk",
        "name_of_ship": "ellen",
        "ship_port": "aberystwyth",
        "date_leaving": "blk",
        "joined_ship_date": "continues ",
        "joined_at_port": "blk",
        "capacity": "mate",
        "date_left": "blk",
        "left_port": "blk",
        "cause_of_leaving": "continues",
        "sign_with_mark": "n",
        "notes": "blk"
    },
    {
        "id": "vtls004656805_1_12",
        "type": "sailor",
        "parent": "vtls004656805",
        "name": "john thomas",
        "dob": "blk",
        "age": "64",
        "place_of_birth": "llansanffraid",
        "home_address": "cardiganshire",
        "f": "cardiganshire",
        "name_of_ship": "ellen",
        "ship_port": "aberystwyth",
        "date_leaving": "blk",
        "joined_ship_date": "1874-07-01",
        "joined_at_port": "neath",
        "capacity": "mate",
        "date_left": "1874-09-19",
        "left_port": "aberaeron",
        "cause_of_leaving": "discharged",
        "sign_with_mark": "n",
        "notes": "blk"
    }
]