[
    {
        "id": "vtls004609175_0_16",
        "type": "sailor",
        "parent": "vtls004609175",
        "name": "hugh thomas",
        "dob": "blk",
        "age": "43",
        "place_of_birth": "aberystwyth",
        "home_address": "blk",
        "f": "blk",
        "name_of_ship": "jane griffith",
        "ship_port": "aberystwyth",
        "date_leaving": "1877-02-08",
        "joined_ship_date": "1876-02-11",
        "joined_at_port": "haverfordwest",
        "capacity": "able seaman",
        "date_left": "1876-05-20",
        "left_port": "aberystwyth",
        "cause_of_leaving": "discharged",
        "sign_with_mark": "n",
        "notes": "blk"
    },
    {
        "id": "vtls004609175_0_11",
        "type": "sailor",
        "parent": "vtls004609175",
        "name": "james hughes",
        "dob": "blk",
        "age": "47",
        "place_of_birth": "aberystwyth",
        "home_address": "blk",
        "f": "blk",
        "name_of_ship": "ann",
        "ship_port": "aberystwyth",
        "date_leaving": "blk",
        "joined_ship_date": "blk",
        "joined_at_port": "blk",
        "capacity": "master",
        "date_left": "blk",
        "left_port": "blk",
        "cause_of_leaving": "remains on board",
        "sign_with_mark": "n",
        "notes": "note: 'above named ship previous to last half yearly return'"
    },
    {
        "id": "vtls004609175_0_15",
        "type": "sailor",
        "parent": "vtls004609175",
        "name": "david morgans",
        "dob": "blk",
        "age": "44",
        "place_of_birth": "aberystwyth",
        "home_address": "blk",
        "f": "blk",
        "name_of_ship": "jane griffith",
        "ship_port": "aberystwyth",
        "date_leaving": "1876-02-10",
        "joined_ship_date": "1876-02-11",
        "joined_at_port": "haverfordwest",
        "capacity": "mate",
        "date_left": "1876-05-20",
        "left_port": "aberystwyth",
        "cause_of_leaving": "discharged",
        "sign_with_mark": "n",
        "notes": "blk"
    },
    {
        "id": "vtls004609175_1_11",
        "type": "sailor",
        "parent": "vtls004609175",
        "name": "james hughes",
        "dob": "blk",
        "age": "49",
        "place_of_birth": "aberystwyth",
        "home_address": "blk",
        "f": "blk",
        "name_of_ship": "ann",
        "ship_port": "aberystwyth",
        "date_leaving": "blk",
        "joined_ship_date": "blk",
        "joined_at_port": "blk",
        "capacity": "master",
        "date_left": "blk",
        "left_port": "blk",
        "cause_of_leaving": "remains on board",
        "sign_with_mark": "n",
        "notes": "continued on board from last journey"
    },
    {
        "id": "vtls004609175_0_14",
        "type": "sailor",
        "parent": "vtls004609175",
        "name": "wallis niaclas",
        "dob": "blk",
        "age": "15",
        "place_of_birth": "swansea",
        "home_address": "blk",
        "f": "blk",
        "name_of_ship": "ann",
        "ship_port": "aberystwyth",
        "date_leaving": "blk",
        "joined_ship_date": "blk",
        "joined_at_port": "blk",
        "capacity": "boy",
        "date_left": "1876-02-10",
        "left_port": "haversfordwest",
        "cause_of_leaving": "discharged",
        "sign_with_mark": "n",
        "notes": "blk"
    },
    {
        "id": "vtls004609175_0_13",
        "type": "sailor",
        "parent": "vtls004609175",
        "name": "thomas evans",
        "dob": "blk",
        "age": "25",
        "place_of_birth": "$",
        "home_address": "blk",
        "f": "blk",
        "name_of_ship": "ann",
        "ship_port": "aberystwyth",
        "date_leaving": "blk",
        "joined_ship_date": "blk",
        "joined_at_port": "blk",
        "capacity": "able seaman",
        "date_left": "1876-02-10",
        "left_port": "haversfordwest",
        "cause_of_leaving": "discharged",
        "sign_with_mark": "n",
        "notes": "blk"
    },
    {
        "id": "vtls004609180_1_13",
        "type": "sailor",
        "parent": "vtls004609180",
        "name": "robert owen",
        "dob": "blk",
        "age": "18",
        "place_of_birth": "anglesey",
        "home_address": "blk",
        "f": "blk",
        "name_of_ship": "[farlie] + jane",
        "ship_port": "blk",
        "date_leaving": "1877-06-30",
        "joined_ship_date": "1877-07-01",
        "joined_at_port": "aberdovey",
        "capacity": "ordinary seaman",
        "date_left": "1877-12-31",
        "left_port": "runcorn",
        "cause_of_leaving": "remains on board",
        "sign_with_mark": "n",
        "notes": "blk"
    },
    {
        "id": "vtls004609180_0_14",
        "type": "sailor",
        "parent": "vtls004609180",
        "name": "thomas davies",
        "dob": "blk",
        "age": "15",
        "place_of_birth": "borth",
        "home_address": "blk",
        "f": "blk",
        "name_of_ship": "lady of $",
        "ship_port": "blk",
        "date_leaving": "1877-06-03",
        "joined_ship_date": "1877-06-06",
        "joined_at_port": "aberdovey",
        "capacity": "ordinary seaman",
        "date_left": "1877-07-02",
        "left_port": "aberdovey",
        "cause_of_leaving": "discharged",
        "sign_with_mark": "n",
        "notes": "blk"
    },
    {
        "id": "vtls004609180_1_12",
        "type": "sailor",
        "parent": "vtls004609180",
        "name": "william thomas",
        "dob": "blk",
        "age": "24",
        "place_of_birth": "aberystwyth",
        "home_address": "blk",
        "f": "blk",
        "name_of_ship": "john + william",
        "ship_port": "blk",
        "date_leaving": "1877-06-30",
        "joined_ship_date": "1877-07-01",
        "joined_at_port": "aberdovey",
        "capacity": "mate",
        "date_left": "1877-12-31",
        "left_port": "runcorn",
        "cause_of_leaving": "remains on board",
        "sign_with_mark": "n",
        "notes": "blk"
    },
    {
        "id": "vtls004609180_1_11",
        "type": "sailor",
        "parent": "vtls004609180",
        "name": "james hughes",
        "dob": "blk",
        "age": "49",
        "place_of_birth": "aberystwyth",
        "home_address": "blk",
        "f": "blk",
        "name_of_ship": "ann",
        "ship_port": "aberystwyth",
        "date_leaving": "blk",
        "joined_ship_date": "blk",
        "joined_at_port": "blk",
        "capacity": "master",
        "date_left": "1877-12-31",
        "left_port": "runcorn",
        "cause_of_leaving": "remains on board",
        "sign_with_mark": "n",
        "notes": "continued from last journey"
    },
    {
        "id": "vtls004609180_1_14",
        "type": "sailor",
        "parent": "vtls004609180",
        "name": "david lewis",
        "dob": "blk",
        "age": "14",
        "place_of_birth": "aberystwyth",
        "home_address": "blk",
        "f": "blk",
        "name_of_ship": "ellen beatrice",
        "ship_port": "blk",
        "date_leaving": "1877-07-01",
        "joined_ship_date": "1877-07-02",
        "joined_at_port": "aberdovey",
        "capacity": "boy",
        "date_left": "1877-12-31",
        "left_port": "runcorn",
        "cause_of_leaving": "remains on board",
        "sign_with_mark": "n",
        "notes": "blk"
    },
    {
        "id": "vtls004609180_0_13",
        "type": "sailor",
        "parent": "vtls004609180",
        "name": "john morris",
        "dob": "blk",
        "age": "18",
        "place_of_birth": "aberystwyth",
        "home_address": "blk",
        "f": "blk",
        "name_of_ship": "claudia",
        "ship_port": "aberystwyth",
        "date_leaving": "blk",
        "joined_ship_date": "1877-05-09",
        "joined_at_port": "aberystwyth",
        "capacity": "able seaman",
        "date_left": "1877-07-02",
        "left_port": "aberdovey",
        "cause_of_leaving": "discharged",
        "sign_with_mark": "n",
        "notes": "blk"
    },
    {
        "id": "vtls004609180_0_12",
        "type": "sailor",
        "parent": "vtls004609180",
        "name": "john pearce",
        "dob": "blk",
        "age": "40",
        "place_of_birth": "borth",
        "home_address": "blk",
        "f": "blk",
        "name_of_ship": "lar$",
        "ship_port": "aberystwyth",
        "date_leaving": "1877-05-08",
        "joined_ship_date": "1877-05-09",
        "joined_at_port": "aberystwyth",
        "capacity": "mate",
        "date_left": "blk",
        "left_port": "blk",
        "cause_of_leaving": "remains on board",
        "sign_with_mark": "n",
        "notes": "blk"
    },
    {
        "id": "vtls004609180_0_11",
        "type": "sailor",
        "parent": "vtls004609180",
        "name": "james hughes",
        "dob": "blk",
        "age": "48",
        "place_of_birth": "aberystwyth",
        "home_address": "blk",
        "f": "blk",
        "name_of_ship": "ann",
        "ship_port": "aberystwyth",
        "date_leaving": "blk",
        "joined_ship_date": "blk",
        "joined_at_port": "blk",
        "capacity": "master",
        "date_left": "blk",
        "left_port": "blk",
        "cause_of_leaving": "remains on board",
        "sign_with_mark": "n",
        "notes": "continued from last journey"
    },
    {
        "id": "vtls004609190_1_11",
        "type": "sailor",
        "parent": "vtls004609190",
        "name": "james hughes",
        "dob": "blk",
        "age": "50",
        "place_of_birth": "aberystwyth",
        "home_address": "blk",
        "f": "blk",
        "name_of_ship": "ann",
        "ship_port": "aberystwyth",
        "date_leaving": "1879-07-21",
        "joined_ship_date": "1879-07-21",
        "joined_at_port": "lowestoft",
        "capacity": "master",
        "date_left": "blk",
        "left_port": "blk",
        "cause_of_leaving": "remains on board",
        "sign_with_mark": "n",
        "notes": "continued from last journey"
    },
    {
        "id": "vtls004609190_1_13",
        "type": "sailor",
        "parent": "vtls004609190",
        "name": "evan davies",
        "dob": "blk",
        "age": "20",
        "place_of_birth": "aberystwyth",
        "home_address": "blk",
        "f": "blk",
        "name_of_ship": "ann",
        "ship_port": "aberystwyth",
        "date_leaving": "1879-07-21",
        "joined_ship_date": "1879-07-21",
        "joined_at_port": "lowestoft",
        "capacity": "ordinary seaman",
        "date_left": "1879-12-13",
        "left_port": "liverpool",
        "cause_of_leaving": "discharged",
        "sign_with_mark": "n",
        "notes": "blk"
    },
    {
        "id": "vtls004609190_0_16",
        "type": "sailor",
        "parent": "vtls004609190",
        "name": "evan davies",
        "dob": "blk",
        "age": "19",
        "place_of_birth": "aberystwyth",
        "home_address": "blk",
        "f": "blk",
        "name_of_ship": "lady price",
        "ship_port": "aberystwyth",
        "date_leaving": "1879-03-08",
        "joined_ship_date": "1879-05-02",
        "joined_at_port": "aberystwyth",
        "capacity": "ordinary seaman",
        "date_left": "blk",
        "left_port": "blk",
        "cause_of_leaving": "remains on board",
        "sign_with_mark": "n",
        "notes": "blk"
    },
    {
        "id": "vtls004609190_0_11",
        "type": "sailor",
        "parent": "vtls004609190",
        "name": "james hughes",
        "dob": "blk",
        "age": "50",
        "place_of_birth": "aberystwyth",
        "home_address": "4 mill street aberystwyth",
        "f": "4 mill street aberystwyth",
        "name_of_ship": "ann",
        "ship_port": "aberystwyth",
        "date_leaving": "blk",
        "joined_ship_date": "blk",
        "joined_at_port": "blk",
        "capacity": "master",
        "date_left": "blk",
        "left_port": "blk",
        "cause_of_leaving": "remains on board",
        "sign_with_mark": "n",
        "notes": "blk"
    },
    {
        "id": "vtls004609190_0_14",
        "type": "sailor",
        "parent": "vtls004609190",
        "name": "walter davies",
        "dob": "blk",
        "age": "18",
        "place_of_birth": "fishguard",
        "home_address": "blk",
        "f": "blk",
        "name_of_ship": "ann",
        "ship_port": "aberystwyth",
        "date_leaving": "blk",
        "joined_ship_date": "blk",
        "joined_at_port": "blk",
        "capacity": "ordinary seaman",
        "date_left": "1879-03-21",
        "left_port": "aberystwyth",
        "cause_of_leaving": "discharged",
        "sign_with_mark": "n",
        "notes": "blk"
    },
    {
        "id": "vtls004609190_0_13",
        "type": "sailor",
        "parent": "vtls004609190",
        "name": "edward thomas",
        "dob": "blk",
        "age": "18",
        "place_of_birth": "aberystwyth",
        "home_address": "blk",
        "f": "blk",
        "name_of_ship": "ann",
        "ship_port": "aberystwyth",
        "date_leaving": "blk",
        "joined_ship_date": "blk",
        "joined_at_port": "blk",
        "capacity": "ordinary seaman",
        "date_left": "1879-03-21",
        "left_port": "aberystwyth",
        "cause_of_leaving": "discharged",
        "sign_with_mark": "n",
        "notes": "blk"
    },
    {
        "id": "vtls004609190_0_17",
        "type": "sailor",
        "parent": "vtls004609190",
        "name": "david lewis",
        "dob": "blk",
        "age": "16",
        "place_of_birth": "aberystwyth",
        "home_address": "blk",
        "f": "blk",
        "name_of_ship": "lovenia",
        "ship_port": "aberystwyth",
        "date_leaving": "1879-06-09",
        "joined_ship_date": "1879-06-12",
        "joined_at_port": "runcorn",
        "capacity": "boy",
        "date_left": "blk",
        "left_port": "blk",
        "cause_of_leaving": "remains on board",
        "sign_with_mark": "n",
        "notes": "blk"
    },
    {
        "id": "vtls004609190_0_12",
        "type": "sailor",
        "parent": "vtls004609190",
        "name": "charles thomas",
        "dob": "blk",
        "age": "24",
        "place_of_birth": "aberystwyth",
        "home_address": "blk",
        "f": "blk",
        "name_of_ship": "ann",
        "ship_port": "aberystwyth",
        "date_leaving": "blk",
        "joined_ship_date": "blk",
        "joined_at_port": "blk",
        "capacity": "mate",
        "date_left": "1879-03-21",
        "left_port": "aberystwyth",
        "cause_of_leaving": "discharged",
        "sign_with_mark": "n",
        "notes": "blk"
    },
    {
        "id": "vtls004605988_0_14",
        "type": "sailor",
        "parent": "vtls004605988",
        "name": "john $rody",
        "dob": "blk",
        "age": "18",
        "place_of_birth": "aberystwyth",
        "home_address": "blk",
        "f": "blk",
        "name_of_ship": "ann",
        "ship_port": "aberystwyth",
        "date_leaving": "blk",
        "joined_ship_date": "blk",
        "joined_at_port": "blk",
        "capacity": "ordinary seaman",
        "date_left": "blk",
        "left_port": "blk",
        "cause_of_leaving": "remains on board",
        "sign_with_mark": "n",
        "notes": "continued from previous journey"
    },
    {
        "id": "vtls004609190_1_14",
        "type": "sailor",
        "parent": "vtls004609190",
        "name": "david lewis",
        "dob": "blk",
        "age": "15",
        "place_of_birth": "aberystwyth",
        "home_address": "blk",
        "f": "blk",
        "name_of_ship": "ann",
        "ship_port": "aberystwyth",
        "date_leaving": "1879-07-21",
        "joined_ship_date": "1879-07-21",
        "joined_at_port": "lowestoft",
        "capacity": "cook",
        "date_left": "1879-12-13",
        "left_port": "liverpool",
        "cause_of_leaving": "discharged",
        "sign_with_mark": "n",
        "notes": "blk"
    },
    {
        "id": "vtls004609190_1_16",
        "type": "sailor",
        "parent": "vtls004609190",
        "name": "david jenkins",
        "dob": "blk",
        "age": "41",
        "place_of_birth": "aberystwyth",
        "home_address": "blk",
        "f": "blk",
        "name_of_ship": "morning star",
        "ship_port": "blk",
        "date_leaving": "1879-12-05",
        "joined_ship_date": "brussels",
        "joined_at_port": "$",
        "capacity": "mate",
        "date_left": "blk",
        "left_port": "blk",
        "cause_of_leaving": "remains on board",
        "sign_with_mark": "n",
        "notes": "blk"
    },
    {
        "id": "vtls004605988_0_11",
        "type": "sailor",
        "parent": "vtls004605988",
        "name": "james davis",
        "dob": "blk",
        "age": "25",
        "place_of_birth": "aberystwyth",
        "home_address": "blk",
        "f": "blk",
        "name_of_ship": "ann",
        "ship_port": "aberystwyth",
        "date_leaving": "blk",
        "joined_ship_date": "blk",
        "joined_at_port": "blk",
        "capacity": "master",
        "date_left": "blk",
        "left_port": "blk",
        "cause_of_leaving": "remains on board",
        "sign_with_mark": "n",
        "notes": "continued from previous journey"
    },
    {
        "id": "vtls004605988_1_11",
        "type": "sailor",
        "parent": "vtls004605988",
        "name": "james davis",
        "dob": "blk",
        "age": "56",
        "place_of_birth": "aberystwyth",
        "home_address": "blk",
        "f": "blk",
        "name_of_ship": "ann",
        "ship_port": "aberystwyth",
        "date_leaving": "1863-06-30",
        "joined_ship_date": "1863-07-01",
        "joined_at_port": "whitehaven",
        "capacity": "master",
        "date_left": "blk",
        "left_port": "blk",
        "cause_of_leaving": "remains on board",
        "sign_with_mark": "n",
        "notes": "blk"
    },
    {
        "id": "vtls004605988_1_12",
        "type": "sailor",
        "parent": "vtls004605988",
        "name": "david morgans",
        "dob": "blk",
        "age": "55",
        "place_of_birth": "aberystwyth",
        "home_address": "blk",
        "f": "blk",
        "name_of_ship": "ann",
        "ship_port": "aberystwyth",
        "date_leaving": "1863-06-30",
        "joined_ship_date": "1863-07-01",
        "joined_at_port": "whitehaven",
        "capacity": "mate",
        "date_left": "blk",
        "left_port": "blk",
        "cause_of_leaving": "remains on board",
        "sign_with_mark": "n",
        "notes": "blk"
    },
    {
        "id": "vtls004605988_1_14",
        "type": "sailor",
        "parent": "vtls004605988",
        "name": "john richards",
        "dob": "blk",
        "age": "16",
        "place_of_birth": "aberystwyth",
        "home_address": "blk",
        "f": "blk",
        "name_of_ship": "ann",
        "ship_port": "aberystwyth",
        "date_leaving": "1863-06-30",
        "joined_ship_date": "1863-07-01",
        "joined_at_port": "whitehaven",
        "capacity": "boy",
        "date_left": "blk",
        "left_port": "blk",
        "cause_of_leaving": "remains on board",
        "sign_with_mark": "n",
        "notes": "blk"
    },
    {
        "id": "vtls004609190_1_15",
        "type": "sailor",
        "parent": "vtls004609190",
        "name": "ewan g mathews",
        "dob": "blk",
        "age": "23",
        "place_of_birth": "cardigan",
        "home_address": "blk",
        "f": "blk",
        "name_of_ship": "$",
        "ship_port": "blk",
        "date_leaving": "1879-11-13",
        "joined_ship_date": "1879-11-15",
        "joined_at_port": "liverpool",
        "capacity": "able seaman",
        "date_left": "blk",
        "left_port": "blk",
        "cause_of_leaving": "remains on board",
        "sign_with_mark": "n",
        "notes": "blk"
    },
    {
        "id": "vtls004605988_0_12",
        "type": "sailor",
        "parent": "vtls004605988",
        "name": "john owens",
        "dob": "blk",
        "age": "20",
        "place_of_birth": "aberystwyth",
        "home_address": "blk",
        "f": "blk",
        "name_of_ship": "ann",
        "ship_port": "aberystwyth",
        "date_leaving": "blk",
        "joined_ship_date": "blk",
        "joined_at_port": "blk",
        "capacity": "mate",
        "date_left": "blk",
        "left_port": "blk",
        "cause_of_leaving": "remains on board",
        "sign_with_mark": "n",
        "notes": "continued from previous journey"
    },
    {
        "id": "vtls004605992_1_13",
        "type": "sailor",
        "parent": "vtls004605992",
        "name": "michael thorntti",
        "dob": "blk",
        "age": "16",
        "place_of_birth": "carliford",
        "home_address": "blk",
        "f": "blk",
        "name_of_ship": "blk",
        "ship_port": "blk",
        "date_leaving": "blk",
        "joined_ship_date": "1866-06-15",
        "joined_at_port": "carliford",
        "capacity": "ordinary seaman",
        "date_left": "bk",
        "left_port": "blk",
        "cause_of_leaving": "remains on board",
        "sign_with_mark": "n",
        "notes": "first voyage"
    },
    {
        "id": "vtls004605992_0_12",
        "type": "sailor",
        "parent": "vtls004605992",
        "name": "thomas rees",
        "dob": "blk",
        "age": "38",
        "place_of_birth": "aberystwyth",
        "home_address": "blk",
        "f": "blk",
        "name_of_ship": "[elizabeth levis]",
        "ship_port": "blk",
        "date_leaving": "blk",
        "joined_ship_date": "1866-03",
        "joined_at_port": "aberystwyth",
        "capacity": "mate",
        "date_left": "blk",
        "left_port": "blk",
        "cause_of_leaving": "remains on board",
        "sign_with_mark": "n",
        "notes": "blk"
    },
    {
        "id": "vtls004605992_0_13",
        "type": "sailor",
        "parent": "vtls004605992",
        "name": "john edwards",
        "dob": "blk",
        "age": "23",
        "place_of_birth": "aberystwyth",
        "home_address": "blk",
        "f": "blk",
        "name_of_ship": "ellen",
        "ship_port": "blk",
        "date_leaving": "blk",
        "joined_ship_date": "1866-03",
        "joined_at_port": "aberystwyth",
        "capacity": "able seaman",
        "date_left": "blk",
        "left_port": "blk",
        "cause_of_leaving": "remains on board",
        "sign_with_mark": "n",
        "notes": "blk"
    },
    {
        "id": "vtls004605992_1_11",
        "type": "sailor",
        "parent": "vtls004605992",
        "name": "james davies",
        "dob": "blk",
        "age": "29",
        "place_of_birth": "aberystwyth",
        "home_address": "blk",
        "f": "blk",
        "name_of_ship": "blk",
        "ship_port": "blk",
        "date_leaving": "blk",
        "joined_ship_date": "blk",
        "joined_at_port": "blk",
        "capacity": "master",
        "date_left": "blk",
        "left_port": "blk",
        "cause_of_leaving": "remains on board",
        "sign_with_mark": "n",
        "notes": "continued from last journey"
    },
    {
        "id": "vtls004605992_0_11",
        "type": "sailor",
        "parent": "vtls004605992",
        "name": "james davies",
        "dob": "blk",
        "age": "28",
        "place_of_birth": "aberystwyth",
        "home_address": "blk",
        "f": "blk",
        "name_of_ship": "$ [davis]",
        "ship_port": "blk",
        "date_leaving": "blk",
        "joined_ship_date": "1866-03",
        "joined_at_port": "aberystwyth",
        "capacity": "master",
        "date_left": "blk",
        "left_port": "blk",
        "cause_of_leaving": "remains on board",
        "sign_with_mark": "n",
        "notes": "blk"
    },
    {
        "id": "vtls004605992_1_12",
        "type": "sailor",
        "parent": "vtls004605992",
        "name": "william george",
        "dob": "blk",
        "age": "40",
        "place_of_birth": "fishguard",
        "home_address": "blk",
        "f": "blk",
        "name_of_ship": "dunloe",
        "ship_port": "milford",
        "date_leaving": "1866-09",
        "joined_ship_date": "1866-10",
        "joined_at_port": "milford",
        "capacity": "mate",
        "date_left": "blk",
        "left_port": "blk",
        "cause_of_leaving": "remains on board",
        "sign_with_mark": "n",
        "notes": "blk"
    },
    {
        "id": "vtls004605992_0_14",
        "type": "sailor",
        "parent": "vtls004605992",
        "name": "william duncan",
        "dob": "blk",
        "age": "16",
        "place_of_birth": "aberystwyth",
        "home_address": "blk",
        "f": "blk",
        "name_of_ship": "blk",
        "ship_port": "blk",
        "date_leaving": "blk",
        "joined_ship_date": "1866-03",
        "joined_at_port": "aberystwyth",
        "capacity": "boy",
        "date_left": "blk",
        "left_port": "blk",
        "cause_of_leaving": "remains on board",
        "sign_with_mark": "n",
        "notes": "blk"
    },
    {
        "id": "vtls004606003_0_11",
        "type": "sailor",
        "parent": "vtls004606003",
        "name": "john davies",
        "dob": "blk",
        "age": "26",
        "place_of_birth": "aberystwyth",
        "home_address": "blk",
        "f": "blk",
        "name_of_ship": "chicago",
        "ship_port": "liverpool",
        "date_leaving": "1866-12-31",
        "joined_ship_date": "1867-01-06",
        "joined_at_port": "dublin",
        "capacity": "master",
        "date_left": "blk",
        "left_port": "blk",
        "cause_of_leaving": "remains on board",
        "sign_with_mark": "n",
        "notes": "blk"
    },
    {
        "id": "vtls004605992_1_14",
        "type": "sailor",
        "parent": "vtls004605992",
        "name": "william rees",
        "dob": "blk",
        "age": "15",
        "place_of_birth": "llanelly",
        "home_address": "blk",
        "f": "blk",
        "name_of_ship": "[peril]",
        "ship_port": "llavelly",
        "date_leaving": "1866-03",
        "joined_ship_date": "1866-09-08",
        "joined_at_port": "port talbot",
        "capacity": "boy",
        "date_left": "blk",
        "left_port": "blk",
        "cause_of_leaving": "remains on board",
        "sign_with_mark": "n",
        "notes": "blk"
    },
    {
        "id": "vtls004606003_0_13",
        "type": "sailor",
        "parent": "vtls004606003",
        "name": "james davies",
        "dob": "blk",
        "age": "56",
        "place_of_birth": "aberystwyth",
        "home_address": "blk",
        "f": "blk",
        "name_of_ship": "ann",
        "ship_port": "blk",
        "date_leaving": "blk",
        "joined_ship_date": "1867-01-06",
        "joined_at_port": "dublin",
        "capacity": "able seaman",
        "date_left": "1867-05-06",
        "left_port": "blk",
        "cause_of_leaving": "remains on board",
        "sign_with_mark": "n",
        "notes": "blk"
    },
    {
        "id": "vtls004606003_1_13",
        "type": "sailor",
        "parent": "vtls004606003",
        "name": "david hughes",
        "dob": "blk",
        "age": "19",
        "place_of_birth": "fishguard",
        "home_address": "blk",
        "f": "blk",
        "name_of_ship": "ann",
        "ship_port": "aberystwyth",
        "date_leaving": "blk",
        "joined_ship_date": "1866-07-01",
        "joined_at_port": "dublin",
        "capacity": "seaman",
        "date_left": "blk",
        "left_port": "blk",
        "cause_of_leaving": "remains on board",
        "sign_with_mark": "n",
        "notes": "blk"
    },
    {
        "id": "vtls004606003_1_12",
        "type": "sailor",
        "parent": "vtls004606003",
        "name": "samuel jenkins",
        "dob": "blk",
        "age": "57",
        "place_of_birth": "cardigan",
        "home_address": "blk",
        "f": "blk",
        "name_of_ship": "ann",
        "ship_port": "aberystwyth",
        "date_leaving": "blk",
        "joined_ship_date": "1866-07-01",
        "joined_at_port": "dublin",
        "capacity": "mate",
        "date_left": "blk",
        "left_port": "blk",
        "cause_of_leaving": "remains on board",
        "sign_with_mark": "n",
        "notes": "blk"
    },
    {
        "id": "vtls004606003_1_14",
        "type": "sailor",
        "parent": "vtls004606003",
        "name": "john lewis",
        "dob": "blk",
        "age": "18",
        "place_of_birth": "fishguard",
        "home_address": "blk",
        "f": "blk",
        "name_of_ship": "ann",
        "ship_port": "aberystwyth",
        "date_leaving": "blk",
        "joined_ship_date": "1866-07-01",
        "joined_at_port": "dublin",
        "capacity": "seaman",
        "date_left": "blk",
        "left_port": "blk",
        "cause_of_leaving": "remains on board",
        "sign_with_mark": "n",
        "notes": "blk"
    },
    {
        "id": "vtls004606003_1_11",
        "type": "sailor",
        "parent": "vtls004606003",
        "name": "john davis",
        "dob": "blk",
        "age": "27",
        "place_of_birth": "aberystwyth",
        "home_address": "blk",
        "f": "blk",
        "name_of_ship": "ann",
        "ship_port": "aberystwyth",
        "date_leaving": "blk",
        "joined_ship_date": "1866-07-01",
        "joined_at_port": "dublin",
        "capacity": "master",
        "date_left": "blk",
        "left_port": "blk",
        "cause_of_leaving": "remains on board",
        "sign_with_mark": "n",
        "notes": "blk"
    },
    {
        "id": "vtls004606003_0_12",
        "type": "sailor",
        "parent": "vtls004606003",
        "name": "wiliam james",
        "dob": "blk",
        "age": "33",
        "place_of_birth": "milford",
        "home_address": "blk",
        "f": "blk",
        "name_of_ship": "ann",
        "ship_port": "blk",
        "date_leaving": "blk",
        "joined_ship_date": "1867-01-06",
        "joined_at_port": "dublin",
        "capacity": "mate",
        "date_left": "1867-05-06",
        "left_port": "milford",
        "cause_of_leaving": "discharged",
        "sign_with_mark": "n",
        "notes": "blk"
    },
    {
        "id": "vtls004606003_0_14",
        "type": "sailor",
        "parent": "vtls004606003",
        "name": "william rees",
        "dob": "blk",
        "age": "15",
        "place_of_birth": "port talbot",
        "home_address": "blk",
        "f": "blk",
        "name_of_ship": "ann",
        "ship_port": "blk",
        "date_leaving": "blk",
        "joined_ship_date": "1867-01-06",
        "joined_at_port": "dublin",
        "capacity": "boy",
        "date_left": "blk",
        "left_port": "blk",
        "cause_of_leaving": "remains on board",
        "sign_with_mark": "n",
        "notes": "blk"
    },
    {
        "id": "vtls004606006_1_11",
        "type": "sailor",
        "parent": "vtls004606006",
        "name": "john humphreys",
        "dob": "blk",
        "age": "29",
        "place_of_birth": "aberystwyth",
        "home_address": "blk",
        "f": "blk",
        "name_of_ship": "ann",
        "ship_port": "aberystwyth",
        "date_leaving": "blk",
        "joined_ship_date": "1868-06-20",
        "joined_at_port": "aberystwyth",
        "capacity": "master",
        "date_left": "blk",
        "left_port": "blk",
        "cause_of_leaving": "remains on board",
        "sign_with_mark": "n",
        "notes": "blk"
    },
    {
        "id": "vtls004606006_1_13",
        "type": "sailor",
        "parent": "vtls004606006",
        "name": "david jenkins",
        "dob": "blk",
        "age": "29",
        "place_of_birth": "aberystwyth",
        "home_address": "blk",
        "f": "blk",
        "name_of_ship": "ann",
        "ship_port": "aberystwyth",
        "date_leaving": "blk",
        "joined_ship_date": "1868-06-20",
        "joined_at_port": "aberystwyth",
        "capacity": "seaman",
        "date_left": "blk",
        "left_port": "blk",
        "cause_of_leaving": "remains on board",
        "sign_with_mark": "n",
        "notes": "blk"
    },
    {
        "id": "vtls004606006_0_14",
        "type": "sailor",
        "parent": "vtls004606006",
        "name": "john humphries",
        "dob": "blk",
        "age": "29",
        "place_of_birth": "aberystwyth",
        "home_address": "blk",
        "f": "blk",
        "name_of_ship": "val$",
        "ship_port": "aberystwyth",
        "date_leaving": "1868-06-08",
        "joined_ship_date": "1868-06-10",
        "joined_at_port": "aberystwyth",
        "capacity": "master",
        "date_left": "blk",
        "left_port": "blk",
        "cause_of_leaving": "remains on board",
        "sign_with_mark": "n",
        "notes": "blk"
    },
    {
        "id": "vtls004606006_1_12",
        "type": "sailor",
        "parent": "vtls004606006",
        "name": "john jenkins",
        "dob": "blk",
        "age": "32",
        "place_of_birth": "aberystwyth",
        "home_address": "blk",
        "f": "blk",
        "name_of_ship": "ann",
        "ship_port": "aberystwyth",
        "date_leaving": "blk",
        "joined_ship_date": "1868-06-20",
        "joined_at_port": "aberystwyth",
        "capacity": "mate",
        "date_left": "blk",
        "left_port": "blk",
        "cause_of_leaving": "remains on board",
        "sign_with_mark": "n",
        "notes": "blk"
    },
    {
        "id": "vtls004606006_0_13",
        "type": "sailor",
        "parent": "vtls004606006",
        "name": "john davis",
        "dob": "blk",
        "age": "25",
        "place_of_birth": "aberystwyth",
        "home_address": "blk",
        "f": "blk",
        "name_of_ship": "ann",
        "ship_port": "aberystwyth",
        "date_leaving": "1867-12-31",
        "joined_ship_date": "blk",
        "joined_at_port": "blk",
        "capacity": "able seaman",
        "date_left": "1868-03-08",
        "left_port": "aberystwyth",
        "cause_of_leaving": "discharged",
        "sign_with_mark": "n",
        "notes": "blk"
    },
    {
        "id": "vtls004606006_0_12",
        "type": "sailor",
        "parent": "vtls004606006",
        "name": "william mathias",
        "dob": "blk",
        "age": "29",
        "place_of_birth": "cardigan",
        "home_address": "blk",
        "f": "blk",
        "name_of_ship": "ann",
        "ship_port": "aberystwyth",
        "date_leaving": "1867-12-31",
        "joined_ship_date": "blk",
        "joined_at_port": "blk",
        "capacity": "mate",
        "date_left": "1868-03-08",
        "left_port": "aberystwyth",
        "cause_of_leaving": "discharged",
        "sign_with_mark": "n",
        "notes": "blk"
    },
    {
        "id": "vtls004606006_0_11",
        "type": "sailor",
        "parent": "vtls004606006",
        "name": "john davies",
        "dob": "blk",
        "age": "28",
        "place_of_birth": "aberystwyth",
        "home_address": "blk",
        "f": "blk",
        "name_of_ship": "ann",
        "ship_port": "aberystwyth",
        "date_leaving": "1867-12-31",
        "joined_ship_date": "blk",
        "joined_at_port": "blk",
        "capacity": "master",
        "date_left": "1868-03-08",
        "left_port": "aberystwyth",
        "cause_of_leaving": "discharged",
        "sign_with_mark": "n",
        "notes": "blk"
    },
    {
        "id": "vtls004606064_0_11",
        "type": "sailor",
        "parent": "vtls004606064",
        "name": "john humphreys",
        "dob": "blk",
        "age": "30",
        "place_of_birth": "aberystwyth",
        "home_address": "blk",
        "f": "blk",
        "name_of_ship": "ann",
        "ship_port": "aberystwyth",
        "date_leaving": "blk",
        "joined_ship_date": "1869-01-06",
        "joined_at_port": "newby",
        "capacity": "master",
        "date_left": "1869-07-14",
        "left_port": "dublin",
        "cause_of_leaving": "remains on board",
        "sign_with_mark": "n",
        "notes": "continued from last journey"
    },
    {
        "id": "vtls004606064_0_13",
        "type": "sailor",
        "parent": "vtls004606064",
        "name": "thomas davies",
        "dob": "blk",
        "age": "blk",
        "place_of_birth": "aberystwyth",
        "home_address": "blk",
        "f": "blk",
        "name_of_ship": "ann",
        "ship_port": "aberystwyth",
        "date_leaving": "blk",
        "joined_ship_date": "1869-01-06",
        "joined_at_port": "newby",
        "capacity": "ordinary seaman",
        "date_left": "1869-07-14",
        "left_port": "dublin",
        "cause_of_leaving": "remains on board",
        "sign_with_mark": "n",
        "notes": "blk"
    },
    {
        "id": "vtls004606064_1_13",
        "type": "sailor",
        "parent": "vtls004606064",
        "name": "thomas davies",
        "dob": "blk",
        "age": "25",
        "place_of_birth": "aberystwyth",
        "home_address": "blk",
        "f": "blk",
        "name_of_ship": "john william",
        "ship_port": "blk",
        "date_leaving": "1869-06-10",
        "joined_ship_date": "1869-07-01",
        "joined_at_port": "aberystwyth",
        "capacity": "able seaman",
        "date_left": "blk",
        "left_port": "blk",
        "cause_of_leaving": "remains on board",
        "sign_with_mark": "n",
        "notes": "blk"
    },
    {
        "id": "vtls004606064_0_12",
        "type": "sailor",
        "parent": "vtls004606064",
        "name": "john jenkins",
        "dob": "blk",
        "age": "33",
        "place_of_birth": "aberystwyth",
        "home_address": "blk",
        "f": "blk",
        "name_of_ship": "ann",
        "ship_port": "aberystwyth",
        "date_leaving": "blk",
        "joined_ship_date": "1869-01-06",
        "joined_at_port": "newby",
        "capacity": "able seaman",
        "date_left": "1869-07-14",
        "left_port": "dublin",
        "cause_of_leaving": "remains on board",
        "sign_with_mark": "n",
        "notes": "blk"
    },
    {
        "id": "vtls004606064_0_14",
        "type": "sailor",
        "parent": "vtls004606064",
        "name": "william james",
        "dob": "blk",
        "age": "14",
        "place_of_birth": "aberystwyth",
        "home_address": "blk",
        "f": "blk",
        "name_of_ship": "ann",
        "ship_port": "aberystwyth",
        "date_leaving": "blk",
        "joined_ship_date": "1869-01-06",
        "joined_at_port": "newby",
        "capacity": "boy",
        "date_left": "1969-07-14",
        "left_port": "dublin",
        "cause_of_leaving": "remains on board",
        "sign_with_mark": "n",
        "notes": "blk"
    },
    {
        "id": "vtls004606006_1_14",
        "type": "sailor",
        "parent": "vtls004606006",
        "name": "william james",
        "dob": "blk",
        "age": "14",
        "place_of_birth": "aberystwyth",
        "home_address": "blk",
        "f": "blk",
        "name_of_ship": "ann",
        "ship_port": "aberystwyth",
        "date_leaving": "blk",
        "joined_ship_date": "1868-06-20",
        "joined_at_port": "aberystwyth",
        "capacity": "boy",
        "date_left": "blk",
        "left_port": "blk",
        "cause_of_leaving": "remains on board",
        "sign_with_mark": "n",
        "notes": "blk"
    },
    {
        "id": "vtls004606064_1_11",
        "type": "sailor",
        "parent": "vtls004606064",
        "name": "john humphreys",
        "dob": "blk",
        "age": "30",
        "place_of_birth": "aberystwyth",
        "home_address": "blk",
        "f": "blk",
        "name_of_ship": "ann",
        "ship_port": "aberystwyth",
        "date_leaving": "blk",
        "joined_ship_date": "1869-06-18",
        "joined_at_port": "aberystwyth",
        "capacity": "master",
        "date_left": "blk",
        "left_port": "blk",
        "cause_of_leaving": "remains on board",
        "sign_with_mark": "n",
        "notes": "blk"
    },
    {
        "id": "vtls004606064_1_12",
        "type": "sailor",
        "parent": "vtls004606064",
        "name": "john evans",
        "dob": "blk",
        "age": "33",
        "place_of_birth": "aberystwyth",
        "home_address": "blk",
        "f": "blk",
        "name_of_ship": "ann",
        "ship_port": "aberystwyth",
        "date_leaving": "blk",
        "joined_ship_date": "1869-06-18",
        "joined_at_port": "aberystwyth",
        "capacity": "mate",
        "date_left": "blk",
        "left_port": "blk",
        "cause_of_leaving": "remains on board",
        "sign_with_mark": "n",
        "notes": "blk"
    },
    {
        "id": "vtls004606064_1_14",
        "type": "sailor",
        "parent": "vtls004606064",
        "name": "william james",
        "dob": "blk",
        "age": "15",
        "place_of_birth": "aberystwyth",
        "home_address": "blk",
        "f": "blk",
        "name_of_ship": "blk",
        "ship_port": "blk",
        "date_leaving": "blk",
        "joined_ship_date": "1869-07-02",
        "joined_at_port": "aberystwyth",
        "capacity": "boy",
        "date_left": "blk",
        "left_port": "blk",
        "cause_of_leaving": "remains on board",
        "sign_with_mark": "n",
        "notes": "blk"
    },
    {
        "id": "vtls004606069_0_11",
        "type": "sailor",
        "parent": "vtls004606069",
        "name": "john humphries",
        "dob": "blk",
        "age": "31",
        "place_of_birth": "aberystwyth",
        "home_address": "blk",
        "f": "blk",
        "name_of_ship": "ann",
        "ship_port": "aberystwyth",
        "date_leaving": "blk",
        "joined_ship_date": "1868-06",
        "joined_at_port": "aberystwyth",
        "capacity": "master",
        "date_left": "blk",
        "left_port": "blk",
        "cause_of_leaving": "remains on board",
        "sign_with_mark": "n",
        "notes": "continued from last journey"
    },
    {
        "id": "vtls004606069_0_13",
        "type": "sailor",
        "parent": "vtls004606069",
        "name": "thomas davies",
        "dob": "blk",
        "age": "26",
        "place_of_birth": "aberystwyth",
        "home_address": "blk",
        "f": "blk",
        "name_of_ship": "ann",
        "ship_port": "aberystwyth",
        "date_leaving": "blk",
        "joined_ship_date": "1868-06",
        "joined_at_port": "aberystwyth",
        "capacity": "able seaman",
        "date_left": "1870-02-09",
        "left_port": "aberystwyth",
        "cause_of_leaving": "discharged",
        "sign_with_mark": "n",
        "notes": "blk"
    },
    {
        "id": "vtls004606069_0_15",
        "type": "sailor",
        "parent": "vtls004606069",
        "name": "roberston brown",
        "dob": "blk",
        "age": "33",
        "place_of_birth": "dundee",
        "home_address": "blk",
        "f": "blk",
        "name_of_ship": "adra$",
        "ship_port": "blk",
        "date_leaving": "1870-02-05",
        "joined_ship_date": "1870-02-10",
        "joined_at_port": "aberystwyth",
        "capacity": "able seaman",
        "date_left": "blk",
        "left_port": "blk",
        "cause_of_leaving": "remains on board",
        "sign_with_mark": "n",
        "notes": "blk"
    },
    {
        "id": "vtls004606069_0_14",
        "type": "sailor",
        "parent": "vtls004606069",
        "name": "william james",
        "dob": "blk",
        "age": "14",
        "place_of_birth": "aberystwyth",
        "home_address": "blk",
        "f": "blk",
        "name_of_ship": "ann",
        "ship_port": "aberystwyth",
        "date_leaving": "blk",
        "joined_ship_date": "1868-06",
        "joined_at_port": "aberystwyth",
        "capacity": "boy",
        "date_left": "1870-02-09",
        "left_port": "aberystwyth",
        "cause_of_leaving": "discharged",
        "sign_with_mark": "n",
        "notes": "blk"
    },
    {
        "id": "vtls004606069_1_11",
        "type": "sailor",
        "parent": "vtls004606069",
        "name": "john humphries",
        "dob": "blk",
        "age": "31",
        "place_of_birth": "aberystwyth",
        "home_address": "blk",
        "f": "blk",
        "name_of_ship": "ann",
        "ship_port": "aberystwyth",
        "date_leaving": "blk",
        "joined_ship_date": "1868-06-19",
        "joined_at_port": "aberystwyth",
        "capacity": "master",
        "date_left": "blk",
        "left_port": "blk",
        "cause_of_leaving": "remains on board",
        "sign_with_mark": "n",
        "notes": "blk"
    },
    {
        "id": "vtls004606069_0_12",
        "type": "sailor",
        "parent": "vtls004606069",
        "name": "john jenkinks",
        "dob": "blk",
        "age": "32",
        "place_of_birth": "aberystwyth",
        "home_address": "blk",
        "f": "blk",
        "name_of_ship": "ann",
        "ship_port": "aberystwyth",
        "date_leaving": "blk",
        "joined_ship_date": "1868-06",
        "joined_at_port": "aberystwyth",
        "capacity": "mate",
        "date_left": "blk",
        "left_port": "blk",
        "cause_of_leaving": "remains on board",
        "sign_with_mark": "n",
        "notes": "blk"
    },
    {
        "id": "vtls004606069_0_16",
        "type": "sailor",
        "parent": "vtls004606069",
        "name": "thomas doughton",
        "dob": "blk",
        "age": "13",
        "place_of_birth": "aberystwyth",
        "home_address": "blk",
        "f": "blk",
        "name_of_ship": "blk",
        "ship_port": "blk",
        "date_leaving": "blk",
        "joined_ship_date": "1870-02-10",
        "joined_at_port": "aberystwyth",
        "capacity": "boy",
        "date_left": "blk",
        "left_port": "blk",
        "cause_of_leaving": "remains on board",
        "sign_with_mark": "n",
        "notes": "blk"
    },
    {
        "id": "vtls004606079_1_13",
        "type": "sailor",
        "parent": "vtls004606079",
        "name": "john davis",
        "dob": "blk",
        "age": "23",
        "place_of_birth": "aberystwyth",
        "home_address": "blk",
        "f": "blk",
        "name_of_ship": "ann",
        "ship_port": "aberystwyth",
        "date_leaving": "blk",
        "joined_ship_date": "blk",
        "joined_at_port": "blk",
        "capacity": "ordinary seaman",
        "date_left": "blk",
        "left_port": "blk",
        "cause_of_leaving": "remains on board",
        "sign_with_mark": "n",
        "notes": "continued from last journey"
    },
    {
        "id": "vtls004606079_1_11",
        "type": "sailor",
        "parent": "vtls004606079",
        "name": "james humphreys",
        "dob": "blk",
        "age": "37",
        "place_of_birth": "aberystwyth",
        "home_address": "blk",
        "f": "blk",
        "name_of_ship": "ann",
        "ship_port": "aberystwyth",
        "date_leaving": "blk",
        "joined_ship_date": "blk",
        "joined_at_port": "blk",
        "capacity": "master",
        "date_left": "blk",
        "left_port": "blk",
        "cause_of_leaving": "remains on board",
        "sign_with_mark": "n",
        "notes": "continued from last journey"
    },
    {
        "id": "vtls004606079_0_11",
        "type": "sailor",
        "parent": "vtls004606079",
        "name": "james humphry",
        "dob": "blk",
        "age": "37",
        "place_of_birth": "aberystwyth",
        "home_address": "blk",
        "f": "blk",
        "name_of_ship": "waterloo",
        "ship_port": "aberystwyth",
        "date_leaving": "1871-02-07",
        "joined_ship_date": "1871-02-07",
        "joined_at_port": "aberystwyth",
        "capacity": "master",
        "date_left": "blk",
        "left_port": "blk",
        "cause_of_leaving": "remains on board",
        "sign_with_mark": "n",
        "notes": "blk"
    },
    {
        "id": "vtls004606079_1_12",
        "type": "sailor",
        "parent": "vtls004606079",
        "name": "thomas rees",
        "dob": "blk",
        "age": "47",
        "place_of_birth": "aberystwyth",
        "home_address": "blk",
        "f": "blk",
        "name_of_ship": "ann",
        "ship_port": "aberystwyth",
        "date_leaving": "blk",
        "joined_ship_date": "blk",
        "joined_at_port": "blk",
        "capacity": "mate",
        "date_left": "blk",
        "left_port": "blk",
        "cause_of_leaving": "remains on board",
        "sign_with_mark": "n",
        "notes": "continued from last journey"
    },
    {
        "id": "vtls004606069_1_13",
        "type": "sailor",
        "parent": "vtls004606069",
        "name": "robert brown",
        "dob": "blk",
        "age": "35",
        "place_of_birth": "dundee",
        "home_address": "blk",
        "f": "blk",
        "name_of_ship": "ann",
        "ship_port": "aberystwyth",
        "date_leaving": "blk",
        "joined_ship_date": "1870-02-05",
        "joined_at_port": "aberystwyth",
        "capacity": "able seaman",
        "date_left": "1870-11-15",
        "left_port": "runcorn",
        "cause_of_leaving": "discharged",
        "sign_with_mark": "n",
        "notes": "blk"
    },
    {
        "id": "vtls004606069_1_14",
        "type": "sailor",
        "parent": "vtls004606069",
        "name": "thomas doughton",
        "dob": "blk",
        "age": "14",
        "place_of_birth": "aberystwyth",
        "home_address": "blk",
        "f": "blk",
        "name_of_ship": "ann",
        "ship_port": "aberystwyth",
        "date_leaving": "blk",
        "joined_ship_date": "1870-02-05",
        "joined_at_port": "aberystwyth",
        "capacity": "boy",
        "date_left": "1870-09-10",
        "left_port": "runcorn",
        "cause_of_leaving": "discharged",
        "sign_with_mark": "n",
        "notes": "blk"
    },
    {
        "id": "vtls004606069_1_16",
        "type": "sailor",
        "parent": "vtls004606069",
        "name": "hugh long",
        "dob": "blk",
        "age": "40",
        "place_of_birth": "loughswilly",
        "home_address": "blk",
        "f": "blk",
        "name_of_ship": "ann",
        "ship_port": "aberystwyth",
        "date_leaving": "blk",
        "joined_ship_date": "1870-12-27",
        "joined_at_port": "dundrum",
        "capacity": "able seaman",
        "date_left": "blk",
        "left_port": "blk",
        "cause_of_leaving": "remains on board",
        "sign_with_mark": "n",
        "notes": "blk"
    },
    {
        "id": "vtls004606069_1_12",
        "type": "sailor",
        "parent": "vtls004606069",
        "name": "john jenkins",
        "dob": "blk",
        "age": "34",
        "place_of_birth": "aberystwyth",
        "home_address": "blk",
        "f": "blk",
        "name_of_ship": "ann",
        "ship_port": "aberystwyth",
        "date_leaving": "blk",
        "joined_ship_date": "1868-06-19",
        "joined_at_port": "aberystwyth",
        "capacity": "mate",
        "date_left": "blk",
        "left_port": "blk",
        "cause_of_leaving": "remains on board",
        "sign_with_mark": "n",
        "notes": "blk"
    },
    {
        "id": "vtls004606069_1_15",
        "type": "sailor",
        "parent": "vtls004606069",
        "name": "william davies",
        "dob": "blk",
        "age": "19",
        "place_of_birth": "woolwich",
        "home_address": "blk",
        "f": "blk",
        "name_of_ship": "blk",
        "ship_port": "blk",
        "date_leaving": "blk",
        "joined_ship_date": "1870-10-03",
        "joined_at_port": "plymouth",
        "capacity": "boy",
        "date_left": "blk",
        "left_port": "blk",
        "cause_of_leaving": "remains on board",
        "sign_with_mark": "n",
        "notes": "blk"
    },
    {
        "id": "vtls004606083_1_11",
        "type": "sailor",
        "parent": "vtls004606083",
        "name": "james humphreys",
        "dob": "blk",
        "age": "38",
        "place_of_birth": "aberystwyth",
        "home_address": "blk",
        "f": "blk",
        "name_of_ship": "ann",
        "ship_port": "aberystwyth",
        "date_leaving": "blk",
        "joined_ship_date": "1871-01-15",
        "joined_at_port": "aberystwyth",
        "capacity": "master",
        "date_left": "blk",
        "left_port": "blk",
        "cause_of_leaving": "remains on board",
        "sign_with_mark": "n",
        "notes": "continued from last journey"
    },
    {
        "id": "vtls004606083_1_12",
        "type": "sailor",
        "parent": "vtls004606083",
        "name": "william thomas",
        "dob": "blk",
        "age": "27",
        "place_of_birth": "aberystwyth",
        "home_address": "blk",
        "f": "blk",
        "name_of_ship": "ann",
        "ship_port": "aberystwyth",
        "date_leaving": "blk",
        "joined_ship_date": "1872-06-02",
        "joined_at_port": "aberystwyth",
        "capacity": "mate",
        "date_left": "blk",
        "left_port": "blk",
        "cause_of_leaving": "remains on board",
        "sign_with_mark": "n",
        "notes": "continued from last journey"
    },
    {
        "id": "vtls004606079_1_14",
        "type": "sailor",
        "parent": "vtls004606079",
        "name": "david humphreys",
        "dob": "blk",
        "age": "14",
        "place_of_birth": "aberystwyth",
        "home_address": "blk",
        "f": "blk",
        "name_of_ship": "ann",
        "ship_port": "aberystwyth",
        "date_leaving": "blk",
        "joined_ship_date": "blk",
        "joined_at_port": "blk",
        "capacity": "boy",
        "date_left": "bly",
        "left_port": "blk",
        "cause_of_leaving": "remains on board",
        "sign_with_mark": "n",
        "notes": "continued from last journey"
    },
    {
        "id": "vtls004606083_0_13",
        "type": "sailor",
        "parent": "vtls004606083",
        "name": "john davies",
        "dob": "blk",
        "age": "24",
        "place_of_birth": "aberystwyth",
        "home_address": "blk",
        "f": "blk",
        "name_of_ship": "ann",
        "ship_port": "aberystwyth",
        "date_leaving": "blk",
        "joined_ship_date": "blk",
        "joined_at_port": "blk",
        "capacity": "able seaman",
        "date_left": "blk",
        "left_port": "blk",
        "cause_of_leaving": "remains on board",
        "sign_with_mark": "n",
        "notes": "continued from last journey"
    },
    {
        "id": "vtls004606083_0_11",
        "type": "sailor",
        "parent": "vtls004606083",
        "name": "james humphries",
        "dob": "blk",
        "age": "37",
        "place_of_birth": "aberystwyth",
        "home_address": "blk",
        "f": "blk",
        "name_of_ship": "ann",
        "ship_port": "aberystwyth",
        "date_leaving": "blk",
        "joined_ship_date": "blk",
        "joined_at_port": "blk",
        "capacity": "master",
        "date_left": "blk",
        "left_port": "blk",
        "cause_of_leaving": "remains on board",
        "sign_with_mark": "n",
        "notes": "continued from last journey"
    },
    {
        "id": "vtls004606083_0_14",
        "type": "sailor",
        "parent": "vtls004606083",
        "name": "david humphries",
        "dob": "blk",
        "age": "14",
        "place_of_birth": "aberystwyth",
        "home_address": "blk",
        "f": "blk",
        "name_of_ship": "ann",
        "ship_port": "aberystwyth",
        "date_leaving": "blk",
        "joined_ship_date": "blk",
        "joined_at_port": "blk",
        "capacity": "boy",
        "date_left": "blk",
        "left_port": "blk",
        "cause_of_leaving": "remains on board",
        "sign_with_mark": "n",
        "notes": "continued from last journey"
    },
    {
        "id": "vtls004606083_0_12",
        "type": "sailor",
        "parent": "vtls004606083",
        "name": "evan $",
        "dob": "blk",
        "age": "41",
        "place_of_birth": "aberystwyth",
        "home_address": "blk",
        "f": "blk",
        "name_of_ship": "ann",
        "ship_port": "aberystwyth",
        "date_leaving": "blk",
        "joined_ship_date": "blk",
        "joined_at_port": "blk",
        "capacity": "mate",
        "date_left": "blk",
        "left_port": "blk",
        "cause_of_leaving": "remains on board",
        "sign_with_mark": "n",
        "notes": "continued from last journey"
    },
    {
        "id": "vtls004606091_1_13",
        "type": "sailor",
        "parent": "vtls004606091",
        "name": "evan james",
        "dob": "blk",
        "age": "29",
        "place_of_birth": "aberystwyth",
        "home_address": "blk",
        "f": "blk",
        "name_of_ship": "blk",
        "ship_port": "blk",
        "date_leaving": "blk",
        "joined_ship_date": "1874-08-10",
        "joined_at_port": "aberystwyth",
        "capacity": "able seaman",
        "date_left": "1874-11-27",
        "left_port": "aberystwyth",
        "cause_of_leaving": "discharged",
        "sign_with_mark": "n",
        "notes": "note in last served ship: been working ashore last $"
    },
    {
        "id": "vtls004606083_1_14",
        "type": "sailor",
        "parent": "vtls004606083",
        "name": "david humphreys",
        "dob": "blk",
        "age": "14",
        "place_of_birth": "aberystwyth",
        "home_address": "blk",
        "f": "blk",
        "name_of_ship": "ann",
        "ship_port": "aberystwyth",
        "date_leaving": "blk",
        "joined_ship_date": "1871-01-16",
        "joined_at_port": "aberystwyth",
        "capacity": "boy",
        "date_left": "blk",
        "left_port": "blk",
        "cause_of_leaving": "remains on board",
        "sign_with_mark": "n",
        "notes": "continued from last journey"
    },
    {
        "id": "vtls004606083_1_13",
        "type": "sailor",
        "parent": "vtls004606083",
        "name": "john davies",
        "dob": "blk",
        "age": "22",
        "place_of_birth": "aberystwyth",
        "home_address": "blk",
        "f": "blk",
        "name_of_ship": "ann",
        "ship_port": "aberystwyth",
        "date_leaving": "blk",
        "joined_ship_date": "1872-06-02",
        "joined_at_port": "aberystwyth",
        "capacity": "seaman",
        "date_left": "blk",
        "left_port": "blk",
        "cause_of_leaving": "remains on board",
        "sign_with_mark": "n",
        "notes": "continued from last journey"
    },
    {
        "id": "vtls004606091_1_12",
        "type": "sailor",
        "parent": "vtls004606091",
        "name": "john doughton",
        "dob": "blk",
        "age": "52",
        "place_of_birth": "aberystwyth",
        "home_address": "blk",
        "f": "blk",
        "name_of_ship": "crusader",
        "ship_port": "aberystwyth",
        "date_leaving": "1874-06-06",
        "joined_ship_date": "1874-08-10",
        "joined_at_port": "aberystwyth",
        "capacity": "mate",
        "date_left": "1874-11-27",
        "left_port": "aberystwyth",
        "cause_of_leaving": "discharged",
        "sign_with_mark": "n",
        "notes": "blk"
    },
    {
        "id": "vtls004606091_0_12",
        "type": "sailor",
        "parent": "vtls004606091",
        "name": "james lewis",
        "dob": "blk",
        "age": "29",
        "place_of_birth": "aberystwyth",
        "home_address": "blk",
        "f": "blk",
        "name_of_ship": "eliza",
        "ship_port": "[port talbot]",
        "date_leaving": "1874-05-17",
        "joined_ship_date": "1874-06-17",
        "joined_at_port": "aberystwyth",
        "capacity": "mate",
        "date_left": "1874-07-14",
        "left_port": "aberystwyth",
        "cause_of_leaving": "discharged",
        "sign_with_mark": "n",
        "notes": "blk"
    },
    {
        "id": "vtls004606091_0_13",
        "type": "sailor",
        "parent": "vtls004606091",
        "name": "$ pugh",
        "dob": "blk",
        "age": "18",
        "place_of_birth": "aberystwyth",
        "home_address": "blk",
        "f": "blk",
        "name_of_ship": "blk",
        "ship_port": "blk",
        "date_leaving": "blk",
        "joined_ship_date": "1874-06-17",
        "joined_at_port": "aberystwyth",
        "capacity": "ordinary seaman",
        "date_left": "1874-07-14",
        "left_port": "aberystwyth",
        "cause_of_leaving": "discharged",
        "sign_with_mark": "n",
        "notes": "first time at sea"
    },
    {
        "id": "vtls004606091_0_14",
        "type": "sailor",
        "parent": "vtls004606091",
        "name": "hugh davies",
        "dob": "blk",
        "age": "15",
        "place_of_birth": "aberystwyth",
        "home_address": "blk",
        "f": "blk",
        "name_of_ship": "[aderam]",
        "ship_port": "aberystwyth",
        "date_leaving": "1873-12-18",
        "joined_ship_date": "1874-06-17",
        "joined_at_port": "aberystwyth",
        "capacity": "boy",
        "date_left": "1874-07-14",
        "left_port": "aberystwyth",
        "cause_of_leaving": "discharged",
        "sign_with_mark": "n",
        "notes": "blk"
    },
    {
        "id": "vtls004606091_0_11",
        "type": "sailor",
        "parent": "vtls004606091",
        "name": "james hughes",
        "dob": "blk",
        "age": "45",
        "place_of_birth": "aberystwyth",
        "home_address": "blk",
        "f": "blk",
        "name_of_ship": "[henry e taylor]",
        "ship_port": "blk",
        "date_leaving": "1874-06-13",
        "joined_ship_date": "1874-06-15",
        "joined_at_port": "aberystwyth",
        "capacity": "master",
        "date_left": "blk",
        "left_port": "blk",
        "cause_of_leaving": "remains on board",
        "sign_with_mark": "n",
        "notes": "blk"
    },
    {
        "id": "vtls004606091_1_11",
        "type": "sailor",
        "parent": "vtls004606091",
        "name": "james hughes",
        "dob": "blk",
        "age": "45",
        "place_of_birth": "aberystwyth",
        "home_address": "blk",
        "f": "blk",
        "name_of_ship": "ann",
        "ship_port": "aberystwyth",
        "date_leaving": "blk",
        "joined_ship_date": "blk",
        "joined_at_port": "blk",
        "capacity": "master",
        "date_left": "blk",
        "left_port": "blk",
        "cause_of_leaving": "remains on board",
        "sign_with_mark": "n",
        "notes": "continued from last journey"
    },
    {
        "id": "vtls004606091_1_14",
        "type": "sailor",
        "parent": "vtls004606091",
        "name": "edward thomas",
        "dob": "blk",
        "age": "14",
        "place_of_birth": "aberystwyth",
        "home_address": "blk",
        "f": "blk",
        "name_of_ship": "ala charles",
        "ship_port": "aberystwyth",
        "date_leaving": "1874-07-08",
        "joined_ship_date": "1874-08-10",
        "joined_at_port": "aberystwyth",
        "capacity": "ordinary seaman",
        "date_left": "1874-11-27",
        "left_port": "aberystwyth",
        "cause_of_leaving": "discharged",
        "sign_with_mark": "n",
        "notes": "blk"
    }
]