[
    {
        "id": "vtls004649626_0_12",
        "type": "sailor",
        "parent": "vtls004649626",
        "name": "george loughshire",
        "dob": "1864",
        "age": "blk",
        "place_of_birth": "cardigan",
        "home_address": "blk",
        "f": "blk",
        "name_of_ship": "ebenezer parry",
        "ship_port": "caernarfon",
        "date_leaving": "1884",
        "joined_ship_date": "1884-04-14",
        "joined_at_port": "cardigan",
        "capacity": "mate",
        "date_left": "blk",
        "left_port": "blk",
        "cause_of_leaving": "remains on board",
        "sign_with_mark": "n",
        "notes": "blk"
    },
    {
        "id": "vtls004649626_0_11",
        "type": "sailor",
        "parent": "vtls004649626",
        "name": "evan davies",
        "dob": "1856",
        "age": "blk",
        "place_of_birth": "cardigan",
        "home_address": "blk",
        "f": "blk",
        "name_of_ship": "antelope",
        "ship_port": "aberystwyth",
        "date_leaving": "1884",
        "joined_ship_date": "1884-04-14",
        "joined_at_port": "cardigan",
        "capacity": "master",
        "date_left": "blk",
        "left_port": "blk",
        "cause_of_leaving": "remains on board",
        "sign_with_mark": "n",
        "notes": "blk"
    },
    {
        "id": "vtls004649626_1_13",
        "type": "sailor",
        "parent": "vtls004649626",
        "name": "george loughshire",
        "dob": "1862",
        "age": "blk",
        "place_of_birth": "cardigan",
        "home_address": "blk",
        "f": "blk",
        "name_of_ship": "eagle",
        "ship_port": "aberystwyth",
        "date_leaving": "1844",
        "joined_ship_date": "1844-07-01",
        "joined_at_port": "llangranog",
        "capacity": "mate",
        "date_left": "1884-08-05",
        "left_port": "off dinas head",
        "cause_of_leaving": "discharged",
        "sign_with_mark": "n",
        "notes": "vessel grounded"
    },
    {
        "id": "vtls004649626_1_12",
        "type": "sailor",
        "parent": "vtls004649626",
        "name": "thomas owen",
        "dob": "1830",
        "age": "blk",
        "place_of_birth": "cardigan",
        "home_address": "blk",
        "f": "blk",
        "name_of_ship": "mary ellen",
        "ship_port": "cardigan",
        "date_leaving": "1844",
        "joined_ship_date": "1844-08-04",
        "joined_at_port": "llangranog",
        "capacity": "master",
        "date_left": "1884-08-05",
        "left_port": "off dinas head",
        "cause_of_leaving": "discharged",
        "sign_with_mark": "n",
        "notes": "vessel grounded"
    },
    {
        "id": "vtls004649626_1_11",
        "type": "sailor",
        "parent": "vtls004649626",
        "name": "evan davies",
        "dob": "1852",
        "age": "blk",
        "place_of_birth": "cardigan",
        "home_address": "blk",
        "f": "blk",
        "name_of_ship": "eagle",
        "ship_port": "aberystwyth",
        "date_leaving": "1844",
        "joined_ship_date": "1844-07-01",
        "joined_at_port": "llangranog",
        "capacity": "master",
        "date_left": "1884-08-04",
        "left_port": "llangrannog",
        "cause_of_leaving": "discharged",
        "sign_with_mark": "n",
        "notes": "blk"
    },
    {
        "id": "vtls004649520_0_11",
        "type": "sailor",
        "parent": "vtls004649520",
        "name": "john davies",
        "dob": "blk",
        "age": "42",
        "place_of_birth": "newquay",
        "home_address": "blk",
        "f": "blk",
        "name_of_ship": "eagle",
        "ship_port": "aberystwyth",
        "date_leaving": "continued",
        "joined_ship_date": "continued",
        "joined_at_port": "blk",
        "capacity": "master",
        "date_left": "blk",
        "left_port": "blk",
        "cause_of_leaving": "remains on board",
        "sign_with_mark": "n",
        "notes": "blk"
    },
    {
        "id": "vtls004649528_0_11",
        "type": "sailor",
        "parent": "vtls004649528",
        "name": "john davies",
        "dob": "blk",
        "age": "40",
        "place_of_birth": "newquay",
        "home_address": "blk",
        "f": "blk",
        "name_of_ship": "eagle",
        "ship_port": "aberyswyth",
        "date_leaving": "continued",
        "joined_ship_date": "continued",
        "joined_at_port": "blk",
        "capacity": "master",
        "date_left": "blk",
        "left_port": "blk",
        "cause_of_leaving": "remains on board",
        "sign_with_mark": "n",
        "notes": "blk"
    },
    {
        "id": "vtls004649520_0_12",
        "type": "sailor",
        "parent": "vtls004649520",
        "name": "john davies",
        "dob": "blk",
        "age": "18",
        "place_of_birth": "newquay",
        "home_address": "blk",
        "f": "blk",
        "name_of_ship": "eagle",
        "ship_port": "aberystwyth",
        "date_leaving": "continued",
        "joined_ship_date": "continued",
        "joined_at_port": "blk",
        "capacity": "mate",
        "date_left": "blk",
        "left_port": "blk",
        "cause_of_leaving": "remains on board",
        "sign_with_mark": "n",
        "notes": "blk"
    },
    {
        "id": "vtls004649520_0_13",
        "type": "sailor",
        "parent": "vtls004649520",
        "name": "thomas evans",
        "dob": "blk",
        "age": "14",
        "place_of_birth": "newquay",
        "home_address": "blk",
        "f": "blk",
        "name_of_ship": "first ship",
        "ship_port": "aberystwyth",
        "date_leaving": "first ship",
        "joined_ship_date": "blk",
        "joined_at_port": "blk",
        "capacity": "boy",
        "date_left": "blk",
        "left_port": "blk",
        "cause_of_leaving": "remains on board",
        "sign_with_mark": "n",
        "notes": "blk"
    },
    {
        "id": "vtls004649528_0_12",
        "type": "sailor",
        "parent": "vtls004649528",
        "name": "john davies",
        "dob": "blk",
        "age": "18",
        "place_of_birth": "newquay",
        "home_address": "blk",
        "f": "blk",
        "name_of_ship": "eagle",
        "ship_port": "aberyswyth",
        "date_leaving": "1864",
        "joined_ship_date": "1864-07-01",
        "joined_at_port": "milford",
        "capacity": "ordinary seaman",
        "date_left": "blk",
        "left_port": "blk",
        "cause_of_leaving": "remains on board",
        "sign_with_mark": "n",
        "notes": "blk"
    },
    {
        "id": "vtls004649536_0_11",
        "type": "sailor",
        "parent": "vtls004649536",
        "name": "william davies",
        "dob": "blk",
        "age": "32",
        "place_of_birth": "newquay",
        "home_address": "blk",
        "f": "blk",
        "name_of_ship": "eleanor",
        "ship_port": "aberystwyth",
        "date_leaving": "1868",
        "joined_ship_date": "1868-05-20",
        "joined_at_port": "newquay",
        "capacity": "master",
        "date_left": "blk",
        "left_port": "blk",
        "cause_of_leaving": "remains on board",
        "sign_with_mark": "n",
        "notes": "blk"
    },
    {
        "id": "vtls004649532_1_11",
        "type": "sailor",
        "parent": "vtls004649532",
        "name": "david evans",
        "dob": "blk",
        "age": "55",
        "place_of_birth": "newquay",
        "home_address": "blk",
        "f": "blk",
        "name_of_ship": "eagle",
        "ship_port": "aberystwyth",
        "date_leaving": "continued",
        "joined_ship_date": "continued",
        "joined_at_port": "blk",
        "capacity": "master",
        "date_left": "blk",
        "left_port": "blk",
        "cause_of_leaving": "remains on board",
        "sign_with_mark": "n",
        "notes": "blk"
    },
    {
        "id": "vtls004649536_0_12",
        "type": "sailor",
        "parent": "vtls004649536",
        "name": "george jenkins",
        "dob": "blk",
        "age": "28",
        "place_of_birth": "newquay",
        "home_address": "blk",
        "f": "blk",
        "name_of_ship": "linnet",
        "ship_port": "cardigan",
        "date_leaving": "1868",
        "joined_ship_date": "1868-05-20",
        "joined_at_port": "newquay",
        "capacity": "mate",
        "date_left": "blk",
        "left_port": "blk",
        "cause_of_leaving": "remains on board",
        "sign_with_mark": "n",
        "notes": "blk"
    },
    {
        "id": "vtls004649532_0_11",
        "type": "sailor",
        "parent": "vtls004649532",
        "name": "david evans",
        "dob": "blk",
        "age": "60",
        "place_of_birth": "cardigan",
        "home_address": "blk",
        "f": "blk",
        "name_of_ship": "rachel",
        "ship_port": "cardigan",
        "date_leaving": "1867",
        "joined_ship_date": "1867-05-01",
        "joined_at_port": "newquay",
        "capacity": "master",
        "date_left": "blk",
        "left_port": "blk",
        "cause_of_leaving": "remains on board",
        "sign_with_mark": "n",
        "notes": "blk"
    },
    {
        "id": "vtls004649532_1_12",
        "type": "sailor",
        "parent": "vtls004649532",
        "name": "thomas evans",
        "dob": "blk",
        "age": "22",
        "place_of_birth": "newquay",
        "home_address": "blk",
        "f": "blk",
        "name_of_ship": "eagle",
        "ship_port": "aberystwyth",
        "date_leaving": "continued",
        "joined_ship_date": "continued",
        "joined_at_port": "blk",
        "capacity": "mate",
        "date_left": "blk",
        "left_port": "blk",
        "cause_of_leaving": "remains on board",
        "sign_with_mark": "n",
        "notes": "blk"
    },
    {
        "id": "vtls004649532_0_12",
        "type": "sailor",
        "parent": "vtls004649532",
        "name": "thomas evans",
        "dob": "blk",
        "age": "25",
        "place_of_birth": "cardigan",
        "home_address": "blk",
        "f": "blk",
        "name_of_ship": "rachel",
        "ship_port": "cardigan",
        "date_leaving": "1867",
        "joined_ship_date": "1867-05-01",
        "joined_at_port": "newquay",
        "capacity": "mate",
        "date_left": "blk",
        "left_port": "blk",
        "cause_of_leaving": "remains on board",
        "sign_with_mark": "n",
        "notes": "blk"
    },
    {
        "id": "vtls004649553_1_11",
        "type": "sailor",
        "parent": "vtls004649553",
        "name": "jenkin davies",
        "dob": "1807",
        "age": "blk",
        "place_of_birth": "london",
        "home_address": "blk",
        "f": "blk",
        "name_of_ship": "eagle",
        "ship_port": "aberystwyth",
        "date_leaving": "1880",
        "joined_ship_date": "1880-07-01",
        "joined_at_port": "llanelli",
        "capacity": "master",
        "date_left": "1880-09-20",
        "left_port": "aberaeron",
        "cause_of_leaving": "discharged",
        "sign_with_mark": "n",
        "notes": "blk"
    },
    {
        "id": "vtls004649553_0_12",
        "type": "sailor",
        "parent": "vtls004649553",
        "name": "john jones",
        "dob": "blk",
        "age": "74",
        "place_of_birth": "llanddewi aberarth",
        "home_address": "blk",
        "f": "blk",
        "name_of_ship": "eleanor",
        "ship_port": "cardigan",
        "date_leaving": "1879",
        "joined_ship_date": "1880-04-28",
        "joined_at_port": "aberaeron",
        "capacity": "mate",
        "date_left": "blk",
        "left_port": "blk",
        "cause_of_leaving": "remains on board",
        "sign_with_mark": "n",
        "notes": "blk"
    },
    {
        "id": "vtls004649536_1_11",
        "type": "sailor",
        "parent": "vtls004649536",
        "name": "william davies",
        "dob": "blk",
        "age": "32",
        "place_of_birth": "newquay",
        "home_address": "blk",
        "f": "blk",
        "name_of_ship": "eagle",
        "ship_port": "aberystwyth",
        "date_leaving": "1868",
        "joined_ship_date": "1868-07-01",
        "joined_at_port": "at sea",
        "capacity": "master",
        "date_left": "1868-09-18",
        "left_port": "newquay",
        "cause_of_leaving": "discharged",
        "sign_with_mark": "n",
        "notes": "blk"
    },
    {
        "id": "vtls004649553_0_11",
        "type": "sailor",
        "parent": "vtls004649553",
        "name": "jenkin davies",
        "dob": "blk",
        "age": "74",
        "place_of_birth": "london",
        "home_address": "blk",
        "f": "blk",
        "name_of_ship": "eagle",
        "ship_port": "aberystwyth",
        "date_leaving": "1878",
        "joined_ship_date": "1880-04-28",
        "joined_at_port": "aberaeron",
        "capacity": "master",
        "date_left": "blk",
        "left_port": "blk",
        "cause_of_leaving": "remains on board",
        "sign_with_mark": "n",
        "notes": "blk"
    },
    {
        "id": "vtls004649545_0_11",
        "type": "sailor",
        "parent": "vtls004649545",
        "name": "david phillips",
        "dob": "blk",
        "age": "35",
        "place_of_birth": "newquay",
        "home_address": "blk",
        "f": "blk",
        "name_of_ship": "ellen",
        "ship_port": "aberystwyth",
        "date_leaving": "1869",
        "joined_ship_date": "1869-05-13",
        "joined_at_port": "newquay",
        "capacity": "master",
        "date_left": "blk",
        "left_port": "blk",
        "cause_of_leaving": "remains on board",
        "sign_with_mark": "n",
        "notes": "blk"
    },
    {
        "id": "vtls004649536_1_12",
        "type": "sailor",
        "parent": "vtls004649536",
        "name": "david d davies",
        "dob": "blk",
        "age": "32",
        "place_of_birth": "newquay",
        "home_address": "blk",
        "f": "blk",
        "name_of_ship": "eagle",
        "ship_port": "aberystwyth",
        "date_leaving": "1868",
        "joined_ship_date": "1868-07-01",
        "joined_at_port": "at sea",
        "capacity": "mate",
        "date_left": "1868-09-18",
        "left_port": "newquay",
        "cause_of_leaving": "discharged",
        "sign_with_mark": "n",
        "notes": "blk"
    },
    {
        "id": "vtls004649545_0_12",
        "type": "sailor",
        "parent": "vtls004649545",
        "name": "john jones",
        "dob": "blk",
        "age": "60",
        "place_of_birth": "newquay",
        "home_address": "blk",
        "f": "blk",
        "name_of_ship": "shon quilt",
        "ship_port": "aberystwyth",
        "date_leaving": "1869",
        "joined_ship_date": "1869-05-15",
        "joined_at_port": "newquay",
        "capacity": "mate",
        "date_left": "blk",
        "left_port": "blk",
        "cause_of_leaving": "remains on board",
        "sign_with_mark": "n",
        "notes": "blk"
    },
    {
        "id": "vtls004649553_1_12",
        "type": "sailor",
        "parent": "vtls004649553",
        "name": "john jones",
        "dob": "1807",
        "age": "blk",
        "place_of_birth": "llanddewi aberarth",
        "home_address": "blk",
        "f": "blk",
        "name_of_ship": "eagle",
        "ship_port": "aberystwyth",
        "date_leaving": "1880",
        "joined_ship_date": "1880-07-01",
        "joined_at_port": "llanelli",
        "capacity": "mate",
        "date_left": "1880-09-20",
        "left_port": "aberaeron",
        "cause_of_leaving": "discharged",
        "sign_with_mark": "n",
        "notes": "blk"
    },
    {
        "id": "vtls004649561_1_11",
        "type": "sailor",
        "parent": "vtls004649561",
        "name": "daniel davies",
        "dob": "1832",
        "age": "blk",
        "place_of_birth": "cardigan",
        "home_address": "blk",
        "f": "blk",
        "name_of_ship": "eagle",
        "ship_port": "aberystwyth",
        "date_leaving": "blk",
        "joined_ship_date": "remains",
        "joined_at_port": "blk",
        "capacity": "master",
        "date_left": "blk",
        "left_port": "blk",
        "cause_of_leaving": "remains on board",
        "sign_with_mark": "n",
        "notes": "ship laid up for winter"
    },
    {
        "id": "vtls004649561_0_11",
        "type": "sailor",
        "parent": "vtls004649561",
        "name": "daniel davies",
        "dob": "1832",
        "age": "blk",
        "place_of_birth": "cardigan",
        "home_address": "blk",
        "f": "blk",
        "name_of_ship": "dolphin",
        "ship_port": "aberystwyth",
        "date_leaving": "1880",
        "joined_ship_date": "1881-05-27",
        "joined_at_port": "llangranog",
        "capacity": "master",
        "date_left": "blk",
        "left_port": "blk",
        "cause_of_leaving": "remains on board",
        "sign_with_mark": "n",
        "notes": "blk"
    },
    {
        "id": "vtls004649561_0_12",
        "type": "sailor",
        "parent": "vtls004649561",
        "name": "john jones",
        "dob": "1808",
        "age": "blk",
        "place_of_birth": "cardigan",
        "home_address": "blk",
        "f": "blk",
        "name_of_ship": "anne davies",
        "ship_port": "aberystwyth",
        "date_leaving": "1880",
        "joined_ship_date": "1881-05-27",
        "joined_at_port": "llangranog",
        "capacity": "mate",
        "date_left": "blk",
        "left_port": "blk",
        "cause_of_leaving": "remains on board",
        "sign_with_mark": "n",
        "notes": "blk"
    },
    {
        "id": "vtls004649561_1_12",
        "type": "sailor",
        "parent": "vtls004649561",
        "name": "john jones",
        "dob": "1808",
        "age": "blk",
        "place_of_birth": "cardigan",
        "home_address": "blk",
        "f": "blk",
        "name_of_ship": "eagle",
        "ship_port": "aberystwyth",
        "date_leaving": "blk",
        "joined_ship_date": "remains",
        "joined_at_port": "blk",
        "capacity": "mate",
        "date_left": "blk",
        "left_port": "blk",
        "cause_of_leaving": "remains on board",
        "sign_with_mark": "n",
        "notes": "ship laid up for winter"
    },
    {
        "id": "vtls004649573_0_11",
        "type": "sailor",
        "parent": "vtls004649573",
        "name": "daniel davies",
        "dob": "blk",
        "age": "50",
        "place_of_birth": "llangranog",
        "home_address": "blk",
        "f": "blk",
        "name_of_ship": "eagle",
        "ship_port": "aberystwyth",
        "date_leaving": "1881",
        "joined_ship_date": "1882-07-01",
        "joined_at_port": "cardigan",
        "capacity": "master",
        "date_left": "blk",
        "left_port": "blk",
        "cause_of_leaving": "remains on board",
        "sign_with_mark": "n",
        "notes": "blk"
    },
    {
        "id": "vtls004649573_0_12",
        "type": "sailor",
        "parent": "vtls004649573",
        "name": "daniel o davies",
        "dob": "blk",
        "age": "16",
        "place_of_birth": "llangranog",
        "home_address": "blk",
        "f": "blk",
        "name_of_ship": "eagle",
        "ship_port": "aberystwyth",
        "date_leaving": "1881",
        "joined_ship_date": "1882-07-01",
        "joined_at_port": "cardigan",
        "capacity": "mate",
        "date_left": "blk",
        "left_port": "blk",
        "cause_of_leaving": "remains on board",
        "sign_with_mark": "n",
        "notes": "blk"
    },
    {
        "id": "vtls004649583_0_11",
        "type": "sailor",
        "parent": "vtls004649583",
        "name": "david mathias",
        "dob": "1835",
        "age": "blk",
        "place_of_birth": "cardigan",
        "home_address": "blk",
        "f": "blk",
        "name_of_ship": "susannah gwenllian",
        "ship_port": "aberystwyth",
        "date_leaving": "blk",
        "joined_ship_date": "1883-03",
        "joined_at_port": "cardigan",
        "capacity": "master",
        "date_left": "blk",
        "left_port": "blk",
        "cause_of_leaving": "remains on board",
        "sign_with_mark": "n",
        "notes": "blk"
    },
    {
        "id": "vtls004649583_0_12",
        "type": "sailor",
        "parent": "vtls004649583",
        "name": "evan thomas",
        "dob": "1860",
        "age": "blk",
        "place_of_birth": "cardigan",
        "home_address": "blk",
        "f": "blk",
        "name_of_ship": "susannah gwenllian",
        "ship_port": "aberystwyth",
        "date_leaving": "blk",
        "joined_ship_date": "1883-03",
        "joined_at_port": "cardigan",
        "capacity": "mate",
        "date_left": "blk",
        "left_port": "blk",
        "cause_of_leaving": "remains on board",
        "sign_with_mark": "n",
        "notes": "blk"
    },
    {
        "id": "vtls004649583_1_11",
        "type": "sailor",
        "parent": "vtls004649583",
        "name": "david mathias",
        "dob": "1837",
        "age": "blk",
        "place_of_birth": "llangranog",
        "home_address": "blk",
        "f": "blk",
        "name_of_ship": "eagle",
        "ship_port": "aberystwyth",
        "date_leaving": "blk",
        "joined_ship_date": "continued",
        "joined_at_port": "blk",
        "capacity": "master",
        "date_left": "blk",
        "left_port": "blk",
        "cause_of_leaving": "remains on board",
        "sign_with_mark": "n",
        "notes": "blk"
    },
    {
        "id": "vtls004649583_1_12",
        "type": "sailor",
        "parent": "vtls004649583",
        "name": "evan thomas",
        "dob": "1858",
        "age": "blk",
        "place_of_birth": "llangranog",
        "home_address": "blk",
        "f": "blk",
        "name_of_ship": "eagle",
        "ship_port": "aberystwyth",
        "date_leaving": "blk",
        "joined_ship_date": "continued",
        "joined_at_port": "blk",
        "capacity": "mate",
        "date_left": "blk",
        "left_port": "blk",
        "cause_of_leaving": "remains on board",
        "sign_with_mark": "n",
        "notes": "blk"
    }
]