[
    {
        "id": "vtls004957796_1_14",
        "type": "sailor",
        "parent": "vtls004957796",
        "name": "john richards",
        "dob": "blk",
        "age": "22",
        "place_of_birth": "borth",
        "home_address": "blk",
        "f": "blk",
        "name_of_ship": "sarah",
        "ship_port": "aberystwyth",
        "date_leaving": "still on board",
        "joined_ship_date": "blk",
        "joined_at_port": "blk",
        "capacity": "seaman",
        "date_left": "1864-04-09",
        "left_port": "bay of biscay",
        "cause_of_leaving": "vessel lost",
        "sign_with_mark": "n",
        "notes": "crew saved"
    },
    {
        "id": "vtls004957796_1_13",
        "type": "sailor",
        "parent": "vtls004957796",
        "name": "david evans",
        "dob": "blk",
        "age": "25",
        "place_of_birth": "borth",
        "home_address": "blk",
        "f": "blk",
        "name_of_ship": "sarah",
        "ship_port": "aberystwyth",
        "date_leaving": "still on board",
        "joined_ship_date": "blk",
        "joined_at_port": "blk",
        "capacity": "seaman",
        "date_left": "1864-04-09",
        "left_port": "bay of biscay",
        "cause_of_leaving": "vessel lost",
        "sign_with_mark": "n",
        "notes": "crew saved"
    },
    {
        "id": "vtls004957796_1_11",
        "type": "sailor",
        "parent": "vtls004957796",
        "name": "john evans",
        "dob": "blk",
        "age": "36",
        "place_of_birth": "borth",
        "home_address": "blk",
        "f": "blk",
        "name_of_ship": "sarah",
        "ship_port": "aberystwyth",
        "date_leaving": "still on board",
        "joined_ship_date": "blk",
        "joined_at_port": "blk",
        "capacity": "master",
        "date_left": "1864-04-09",
        "left_port": "bay of biscay",
        "cause_of_leaving": "vessel lost",
        "sign_with_mark": "n",
        "notes": "crew saved"
    },
    {
        "id": "vtls004957796_1_12",
        "type": "sailor",
        "parent": "vtls004957796",
        "name": "evan jenkins",
        "dob": "blk",
        "age": "22",
        "place_of_birth": "borth",
        "home_address": "blk",
        "f": "blk",
        "name_of_ship": "sarah",
        "ship_port": "aberystwyth",
        "date_leaving": "still on board",
        "joined_ship_date": "blk",
        "joined_at_port": "blk",
        "capacity": "mate",
        "date_left": "1864-04-09",
        "left_port": "bay of biscay",
        "cause_of_leaving": "vessel lost",
        "sign_with_mark": "n",
        "notes": "crew saved"
    },
    {
        "id": "vtls004957796_0_15",
        "type": "sailor",
        "parent": "vtls004957796",
        "name": "thomas williams",
        "dob": "blk",
        "age": "22",
        "place_of_birth": "borth",
        "home_address": "blk",
        "f": "blk",
        "name_of_ship": "sarah",
        "ship_port": "aberystwyth",
        "date_leaving": "blk",
        "joined_ship_date": "1864-03-28",
        "joined_at_port": "cardiff",
        "capacity": "able seaman",
        "date_left": "blk",
        "left_port": "blk",
        "cause_of_leaving": "blk",
        "sign_with_mark": "n",
        "notes": "blk"
    },
    {
        "id": "vtls004957796_0_14",
        "type": "sailor",
        "parent": "vtls004957796",
        "name": "john richard",
        "dob": "blk",
        "age": "25",
        "place_of_birth": "borth",
        "home_address": "blk",
        "f": "blk",
        "name_of_ship": "sarah",
        "ship_port": "aberystwyth",
        "date_leaving": "blk",
        "joined_ship_date": "1864-03-28",
        "joined_at_port": "cardiff",
        "capacity": "able seaman",
        "date_left": "blk",
        "left_port": "blk",
        "cause_of_leaving": "blk",
        "sign_with_mark": "n",
        "notes": "blk"
    },
    {
        "id": "vtls004957796_0_13",
        "type": "sailor",
        "parent": "vtls004957796",
        "name": "david evans",
        "dob": "blk",
        "age": "25",
        "place_of_birth": "borth",
        "home_address": "blk",
        "f": "blk",
        "name_of_ship": "sarah",
        "ship_port": "aberystwyth",
        "date_leaving": "blk",
        "joined_ship_date": "1864-03-28",
        "joined_at_port": "cardiff",
        "capacity": "able seaman",
        "date_left": "blk",
        "left_port": "blk",
        "cause_of_leaving": "blk",
        "sign_with_mark": "n",
        "notes": "blk"
    },
    {
        "id": "vtls004957796_0_12",
        "type": "sailor",
        "parent": "vtls004957796",
        "name": "evan jenkins",
        "dob": "blk",
        "age": "22",
        "place_of_birth": "borth",
        "home_address": "blk",
        "f": "blk",
        "name_of_ship": "sarah",
        "ship_port": "aberystwyth",
        "date_leaving": "blk",
        "joined_ship_date": "1864-03-28",
        "joined_at_port": "cardiff",
        "capacity": "mate",
        "date_left": "blk",
        "left_port": "blk",
        "cause_of_leaving": "blk",
        "sign_with_mark": "n",
        "notes": "blk"
    },
    {
        "id": "vtls004957796_0_11",
        "type": "sailor",
        "parent": "vtls004957796",
        "name": "john evans",
        "dob": "blk",
        "age": "36",
        "place_of_birth": "borth",
        "home_address": "blk",
        "f": "blk",
        "name_of_ship": "sarah",
        "ship_port": "aberystwyth",
        "date_leaving": "remains",
        "joined_ship_date": "blk",
        "joined_at_port": "blk",
        "capacity": "master",
        "date_left": "blk",
        "left_port": "blk",
        "cause_of_leaving": "blk",
        "sign_with_mark": "n",
        "notes": "blk"
    },
    {
        "id": "vtls004957796_1_15",
        "type": "sailor",
        "parent": "vtls004957796",
        "name": "thomas williams",
        "dob": "blk",
        "age": "20",
        "place_of_birth": "borth",
        "home_address": "blk",
        "f": "blk",
        "name_of_ship": "sarah",
        "ship_port": "aberystwyth",
        "date_leaving": "still on board",
        "joined_ship_date": "blk",
        "joined_at_port": "blk",
        "capacity": "seaman",
        "date_left": "1864-04-09",
        "left_port": "bay of biscay",
        "cause_of_leaving": "vessel lost",
        "sign_with_mark": "n",
        "notes": "crew saved"
    }
]