[
    {
        "id": "vtls004959745_0_15",
        "type": "sailor",
        "parent": "vtls004959745",
        "name": "philip king",
        "dob": "1889",
        "age": "blk",
        "place_of_birth": "london",
        "home_address": "blk",
        "f": "blk",
        "name_of_ship": "nill",
        "ship_port": "blk",
        "date_leaving": "blk",
        "joined_ship_date": "1911-06-03",
        "joined_at_port": "london",
        "capacity": "cook",
        "date_left": "1911-06-05",
        "left_port": "north fleet",
        "cause_of_leaving": "drowned",
        "sign_with_mark": "n",
        "notes": "drowned while bathing in the thames river and seized with cramp - full note on back page"
    },
    {
        "id": "vtls004959745_0_11",
        "type": "sailor",
        "parent": "vtls004959745",
        "name": "jonathan chapman",
        "dob": "1869",
        "age": "blk",
        "place_of_birth": "calstock",
        "home_address": "plymouth",
        "f": "plymouth",
        "name_of_ship": "[fankeridon]",
        "ship_port": "fowey",
        "date_leaving": "1911",
        "joined_ship_date": "1911-03-22",
        "joined_at_port": "dangarvan",
        "capacity": "master",
        "date_left": "blk",
        "left_port": "blk",
        "cause_of_leaving": "remains on board",
        "sign_with_mark": "n",
        "notes": "blk"
    },
    {
        "id": "vtls004959745_0_13",
        "type": "sailor",
        "parent": "vtls004959745",
        "name": "henry hounsell",
        "dob": "1892",
        "age": "blk",
        "place_of_birth": "cardiff",
        "home_address": "blk",
        "f": "blk",
        "name_of_ship": "rhoda",
        "ship_port": "[coleraine]",
        "date_leaving": "1911",
        "joined_ship_date": "1911-03-22",
        "joined_at_port": "dangarvan",
        "capacity": "able seaman",
        "date_left": "blk",
        "left_port": "blk",
        "cause_of_leaving": "remains on board",
        "sign_with_mark": "n",
        "notes": "blk"
    },
    {
        "id": "vtls004959745_0_12",
        "type": "sailor",
        "parent": "vtls004959745",
        "name": "a h brown",
        "dob": "1880",
        "age": "blk",
        "place_of_birth": "plymouth",
        "home_address": "blk",
        "f": "blk",
        "name_of_ship": "britannia",
        "ship_port": "plymouth",
        "date_leaving": "1911",
        "joined_ship_date": "1911-03-22",
        "joined_at_port": "dangarvan",
        "capacity": "mate",
        "date_left": "blk",
        "left_port": "blk",
        "cause_of_leaving": "remains on board",
        "sign_with_mark": "n",
        "notes": "blk"
    },
    {
        "id": "vtls004959745_0_14",
        "type": "sailor",
        "parent": "vtls004959745",
        "name": "william henry",
        "dob": "1894",
        "age": "blk",
        "place_of_birth": "dungarvan",
        "home_address": "blk",
        "f": "blk",
        "name_of_ship": "nill",
        "ship_port": "blk",
        "date_leaving": "blk",
        "joined_ship_date": "1911-03-22",
        "joined_at_port": "dangarvan",
        "capacity": "cook",
        "date_left": "1911-05-29",
        "left_port": "london",
        "cause_of_leaving": "discharged",
        "sign_with_mark": "n",
        "notes": "blk"
    },
    {
        "id": "vtls004959745_0_16",
        "type": "sailor",
        "parent": "vtls004959745",
        "name": "william chivers",
        "dob": "1895",
        "age": "blk",
        "place_of_birth": "plymouth",
        "home_address": "blk",
        "f": "blk",
        "name_of_ship": "nill",
        "ship_port": "blk",
        "date_leaving": "blk",
        "joined_ship_date": "1911-06-03",
        "joined_at_port": "lynmouth",
        "capacity": "boy",
        "date_left": "blk",
        "left_port": "blk",
        "cause_of_leaving": "remains on board",
        "sign_with_mark": "n",
        "notes": "blk"
    },
    {
        "id": "vtls004959745_1_17",
        "type": "sailor",
        "parent": "vtls004959745",
        "name": "frederick pearse",
        "dob": "1892",
        "age": "blk",
        "place_of_birth": "$rickhampton",
        "home_address": "blk",
        "f": "blk",
        "name_of_ship": "red tail",
        "ship_port": "runcorn",
        "date_leaving": "1911",
        "joined_ship_date": "1911-09-01",
        "joined_at_port": "plymouth",
        "capacity": "ordinary seaman",
        "date_left": "blk",
        "left_port": "remains on board",
        "cause_of_leaving": "remains on board",
        "sign_with_mark": "n",
        "notes": "blk"
    },
    {
        "id": "vtls004959745_1_11",
        "type": "sailor",
        "parent": "vtls004959745",
        "name": "john jonathan chapman",
        "dob": "1869",
        "age": "blk",
        "place_of_birth": "plymouth",
        "home_address": "plymouth",
        "f": "plymouth",
        "name_of_ship": "tankerton tower",
        "ship_port": "gloster",
        "date_leaving": "1911",
        "joined_ship_date": "1911-07",
        "joined_at_port": "runcorn",
        "capacity": "master",
        "date_left": "1911-08-23",
        "left_port": "plymouth",
        "cause_of_leaving": "discharged",
        "sign_with_mark": "n",
        "notes": "blk"
    },
    {
        "id": "vtls004959745_1_13",
        "type": "sailor",
        "parent": "vtls004959745",
        "name": "henry hounsell",
        "dob": "1892",
        "age": "blk",
        "place_of_birth": "bristol",
        "home_address": "blk",
        "f": "blk",
        "name_of_ship": "coath",
        "ship_port": "penzance",
        "date_leaving": "1911",
        "joined_ship_date": "1911-07",
        "joined_at_port": "runcorn",
        "capacity": "ordinary seaman",
        "date_left": "1911-08-23",
        "left_port": "plymouth",
        "cause_of_leaving": "discharged",
        "sign_with_mark": "n",
        "notes": "blk"
    },
    {
        "id": "vtls004959745_1_15",
        "type": "sailor",
        "parent": "vtls004959745",
        "name": "frederick franks",
        "dob": "1870",
        "age": "blk",
        "place_of_birth": "penarth",
        "home_address": "blk",
        "f": "blk",
        "name_of_ship": "lizzie",
        "ship_port": "fowey",
        "date_leaving": "1911",
        "joined_ship_date": "1911-09-01",
        "joined_at_port": "plymouth",
        "capacity": "master",
        "date_left": "blk",
        "left_port": "remains on board",
        "cause_of_leaving": "remains on board",
        "sign_with_mark": "n",
        "notes": "blk"
    },
    {
        "id": "vtls004959745_1_18",
        "type": "sailor",
        "parent": "vtls004959745",
        "name": "george burgess",
        "dob": "1895",
        "age": "blk",
        "place_of_birth": "teignmouth",
        "home_address": "blk",
        "f": "blk",
        "name_of_ship": "first ship",
        "ship_port": "blk",
        "date_leaving": "1911",
        "joined_ship_date": "1911-09-01",
        "joined_at_port": "plymouth",
        "capacity": "cook",
        "date_left": "blk",
        "left_port": "remains on board",
        "cause_of_leaving": "remains on board",
        "sign_with_mark": "n",
        "notes": "blk"
    },
    {
        "id": "vtls004959745_1_16",
        "type": "sailor",
        "parent": "vtls004959745",
        "name": "william tavener",
        "dob": "1870",
        "age": "blk",
        "place_of_birth": "teignmouth",
        "home_address": "blk",
        "f": "blk",
        "name_of_ship": "lizzie",
        "ship_port": "fowey",
        "date_leaving": "1911",
        "joined_ship_date": "1911-09-01",
        "joined_at_port": "plymouth",
        "capacity": "mate",
        "date_left": "1911-11-07",
        "left_port": "langstone",
        "cause_of_leaving": "discharged",
        "sign_with_mark": "n",
        "notes": "blk"
    },
    {
        "id": "vtls004959745_1_12",
        "type": "sailor",
        "parent": "vtls004959745",
        "name": "arthur h brown",
        "dob": "blk",
        "age": "blk",
        "place_of_birth": "plymouth",
        "home_address": "blk",
        "f": "blk",
        "name_of_ship": "britannia",
        "ship_port": "plymouth",
        "date_leaving": "1911",
        "joined_ship_date": "1911-07",
        "joined_at_port": "runcorn",
        "capacity": "mate",
        "date_left": "1911-08-23",
        "left_port": "plymouth",
        "cause_of_leaving": "discharged",
        "sign_with_mark": "n",
        "notes": "blk"
    },
    {
        "id": "vtls004959745_1_14",
        "type": "sailor",
        "parent": "vtls004959745",
        "name": "william chivers",
        "dob": "1895",
        "age": "blk",
        "place_of_birth": "plymouth",
        "home_address": "blk",
        "f": "blk",
        "name_of_ship": "first ship",
        "ship_port": "blk",
        "date_leaving": "1911",
        "joined_ship_date": "1911-07",
        "joined_at_port": "runcorn",
        "capacity": "cook",
        "date_left": "1911-08-23",
        "left_port": "plymouth",
        "cause_of_leaving": "discharged",
        "sign_with_mark": "n",
        "notes": "blk"
    },
    {
        "id": "vtls004959745_1_19",
        "type": "sailor",
        "parent": "vtls004959745",
        "name": "edward beaton",
        "dob": "1881",
        "age": "blk",
        "place_of_birth": "langstone",
        "home_address": "blk",
        "f": "blk",
        "name_of_ship": "langston",
        "ship_port": "london",
        "date_leaving": "1911",
        "joined_ship_date": "1911-11-14",
        "joined_at_port": "langston",
        "capacity": "mate",
        "date_left": "1911-12-06",
        "left_port": "newhaven",
        "cause_of_leaving": "discharged",
        "sign_with_mark": "n",
        "notes": "in crew list previous ship (\"the langston\" in record) just given as 'langston' of london"
    },
    {
        "id": "vtls004959877_0_11",
        "type": "sailor",
        "parent": "vtls004959877",
        "name": "frederick franks",
        "dob": "1870",
        "age": "blk",
        "place_of_birth": "penarth",
        "home_address": "33 pembroke street, devonport",
        "f": "33 pembroke street, devonport",
        "name_of_ship": "lizzie",
        "ship_port": "fowey",
        "date_leaving": "1911",
        "joined_ship_date": "1912-01-29",
        "joined_at_port": "par",
        "capacity": "master",
        "date_left": "1912-07-01",
        "left_port": "plymouth",
        "cause_of_leaving": "remains on board",
        "sign_with_mark": "n",
        "notes": "blk"
    },
    {
        "id": "vtls004959877_0_14",
        "type": "sailor",
        "parent": "vtls004959877",
        "name": "alfred george ask",
        "dob": "1895",
        "age": "blk",
        "place_of_birth": "putney",
        "home_address": "blk",
        "f": "blk",
        "name_of_ship": "t.s. mo[un]t edgecumbe",
        "ship_port": "plymouth",
        "date_leaving": "1908",
        "joined_ship_date": "1912-02-03",
        "joined_at_port": "plymouth",
        "capacity": "cook",
        "date_left": "1912-07-01",
        "left_port": "plymouth",
        "cause_of_leaving": "remains on board",
        "sign_with_mark": "n",
        "notes": "blk"
    },
    {
        "id": "vtls004959745_1_21",
        "type": "sailor",
        "parent": "vtls004959745",
        "name": "james william hillman",
        "dob": "1891",
        "age": "blk",
        "place_of_birth": "brighton",
        "home_address": "blk",
        "f": "blk",
        "name_of_ship": "first ship",
        "ship_port": "blk",
        "date_leaving": "1911",
        "joined_ship_date": "1911-12-11",
        "joined_at_port": "newhaven",
        "capacity": "ordinary seaman",
        "date_left": "1911-12-19",
        "left_port": "newhaven",
        "cause_of_leaving": "discharged",
        "sign_with_mark": "n",
        "notes": "blk"
    },
    {
        "id": "vtls004959877_0_15",
        "type": "sailor",
        "parent": "vtls004959877",
        "name": "william john williams",
        "dob": "1893",
        "age": "blk",
        "place_of_birth": "plymouth",
        "home_address": "blk",
        "f": "blk",
        "name_of_ship": "britannia",
        "ship_port": "blk",
        "date_leaving": "1911",
        "joined_ship_date": "1912-02-03",
        "joined_at_port": "plymouth",
        "capacity": "ordinary seaman",
        "date_left": "1912-03-22",
        "left_port": "plymouth",
        "cause_of_leaving": "discharged",
        "sign_with_mark": "n",
        "notes": "blk"
    },
    {
        "id": "vtls004959745_1_20",
        "type": "sailor",
        "parent": "vtls004959745",
        "name": "albert edmunds",
        "dob": "1875",
        "age": "blk",
        "place_of_birth": "northfleet",
        "home_address": "blk",
        "f": "blk",
        "name_of_ship": "jane",
        "ship_port": "rochester",
        "date_leaving": "1911",
        "joined_ship_date": "1911-12-07",
        "joined_at_port": "newhaven",
        "capacity": "mate",
        "date_left": "blk",
        "left_port": "remains on board",
        "cause_of_leaving": "remains on board",
        "sign_with_mark": "n",
        "notes": "blk"
    },
    {
        "id": "vtls004959877_0_12",
        "type": "sailor",
        "parent": "vtls004959877",
        "name": "albert edmunds",
        "dob": "1875",
        "age": "blk",
        "place_of_birth": "northfleet",
        "home_address": "blk",
        "f": "blk",
        "name_of_ship": "jane",
        "ship_port": "rochester",
        "date_leaving": "1911",
        "joined_ship_date": "1912-01-29",
        "joined_at_port": "par",
        "capacity": "mate",
        "date_left": "1912-03-20",
        "left_port": "plymouth",
        "cause_of_leaving": "discharged",
        "sign_with_mark": "n",
        "notes": "blk"
    },
    {
        "id": "vtls004959877_0_16",
        "type": "sailor",
        "parent": "vtls004959877",
        "name": "james walker",
        "dob": "1848",
        "age": "blk",
        "place_of_birth": "plymouth",
        "home_address": "blk",
        "f": "blk",
        "name_of_ship": "how[e]",
        "ship_port": "gloucester",
        "date_leaving": "1912",
        "joined_ship_date": "1912-04-11",
        "joined_at_port": "plymouth",
        "capacity": "mate",
        "date_left": "1912-06-17",
        "left_port": "plymouth",
        "cause_of_leaving": "discharged",
        "sign_with_mark": "n",
        "notes": "blk"
    },
    {
        "id": "vtls004959877_0_13",
        "type": "sailor",
        "parent": "vtls004959877",
        "name": "christopher rourke",
        "dob": "1891",
        "age": "blk",
        "place_of_birth": "hartlepool",
        "home_address": "blk",
        "f": "blk",
        "name_of_ship": "amy",
        "ship_port": "plymouth",
        "date_leaving": "1911",
        "joined_ship_date": "1912-01-29",
        "joined_at_port": "par",
        "capacity": "cook",
        "date_left": "1912-01-31",
        "left_port": "par",
        "cause_of_leaving": "deserted",
        "sign_with_mark": "n",
        "notes": "blk"
    },
    {
        "id": "vtls004959877_1_11",
        "type": "sailor",
        "parent": "vtls004959877",
        "name": "frederick franks",
        "dob": "1872",
        "age": "blk",
        "place_of_birth": "penarth",
        "home_address": "33 pembroke street, devonport",
        "f": "33 pembroke street, devonport",
        "name_of_ship": "lizzie",
        "ship_port": "fowey",
        "date_leaving": "1911",
        "joined_ship_date": "1911-09-01",
        "joined_at_port": "plymouth",
        "capacity": "master",
        "date_left": "still on board",
        "left_port": "still on board",
        "cause_of_leaving": "still on board",
        "sign_with_mark": "n",
        "notes": "d.o.b given as 1870 other records"
    },
    {
        "id": "vtls004959877_0_17",
        "type": "sailor",
        "parent": "vtls004959877",
        "name": "hughie griffith",
        "dob": "1892",
        "age": "blk",
        "place_of_birth": "caernarfon",
        "home_address": "blk",
        "f": "blk",
        "name_of_ship": "margaret anglesea",
        "ship_port": "caernarvon",
        "date_leaving": "1911",
        "joined_ship_date": "1912-04-30",
        "joined_at_port": "plymouth",
        "capacity": "ordinary seaman",
        "date_left": "1912-07-01",
        "left_port": "plymouth",
        "cause_of_leaving": "remains on board",
        "sign_with_mark": "n",
        "notes": "blk"
    },
    {
        "id": "vtls004959877_1_14",
        "type": "sailor",
        "parent": "vtls004959877",
        "name": "hughie griffiths",
        "dob": "1892",
        "age": "blk",
        "place_of_birth": "caernarfon",
        "home_address": "blk",
        "f": "blk",
        "name_of_ship": "margaret anglesea",
        "ship_port": "caernarvon",
        "date_leaving": "1911",
        "joined_ship_date": "1912-04-30",
        "joined_at_port": "plymouth",
        "capacity": "ordinary seaman",
        "date_left": "1912-08-09",
        "left_port": "penzance",
        "cause_of_leaving": "discharged",
        "sign_with_mark": "n",
        "notes": "blk"
    },
    {
        "id": "vtls004959877_1_13",
        "type": "sailor",
        "parent": "vtls004959877",
        "name": "alfred george ask",
        "dob": "1895",
        "age": "blk",
        "place_of_birth": "putney",
        "home_address": "blk",
        "f": "blk",
        "name_of_ship": "t.s. m[oun]t edgecumbe",
        "ship_port": "plymouth",
        "date_leaving": "1908",
        "joined_ship_date": "1912-02-03",
        "joined_at_port": "plymouth",
        "capacity": "cook",
        "date_left": "still on board",
        "left_port": "still on board",
        "cause_of_leaving": "still on board",
        "sign_with_mark": "n",
        "notes": "blk"
    },
    {
        "id": "vtls004959877_1_16",
        "type": "sailor",
        "parent": "vtls004959877",
        "name": "thomas busby",
        "dob": "1892",
        "age": "blk",
        "place_of_birth": "dublin",
        "home_address": "blk",
        "f": "blk",
        "name_of_ship": "b.l.s. formidable",
        "ship_port": "blk",
        "date_leaving": "1912",
        "joined_ship_date": "1912-10-14",
        "joined_at_port": "newlyn",
        "capacity": "ordinary seaman",
        "date_left": "1912-11-11",
        "left_port": "kingsbridge",
        "cause_of_leaving": "discharged",
        "sign_with_mark": "n",
        "notes": "blk"
    },
    {
        "id": "vtls004959877_1_15",
        "type": "sailor",
        "parent": "vtls004959877",
        "name": "george henry knight",
        "dob": "1894",
        "age": "blk",
        "place_of_birth": "london",
        "home_address": "blk",
        "f": "blk",
        "name_of_ship": "j.h. baron",
        "ship_port": "blk",
        "date_leaving": "1912",
        "joined_ship_date": "1912-08-31",
        "joined_at_port": "yarmouth",
        "capacity": "ordinary seaman",
        "date_left": "1912-10-07",
        "left_port": "newlyn",
        "cause_of_leaving": "discharged",
        "sign_with_mark": "n",
        "notes": "blk"
    },
    {
        "id": "vtls004959877_0_18",
        "type": "sailor",
        "parent": "vtls004959877",
        "name": "alfred cole",
        "dob": "1899",
        "age": "blk",
        "place_of_birth": "essex",
        "home_address": "blk",
        "f": "blk",
        "name_of_ship": "john james",
        "ship_port": "blk",
        "date_leaving": "1912",
        "joined_ship_date": "1912-06-26",
        "joined_at_port": "plymouth",
        "capacity": "mate",
        "date_left": "1912-07-01",
        "left_port": "plymouth",
        "cause_of_leaving": "remains on board",
        "sign_with_mark": "n",
        "notes": "blk"
    },
    {
        "id": "vtls004959877_1_12",
        "type": "sailor",
        "parent": "vtls004959877",
        "name": "alfred cole",
        "dob": "1849",
        "age": "blk",
        "place_of_birth": "essex",
        "home_address": "blk",
        "f": "blk",
        "name_of_ship": "john james",
        "ship_port": "blk",
        "date_leaving": "1912",
        "joined_ship_date": "1912-06-26",
        "joined_at_port": "plymouth",
        "capacity": "mate",
        "date_left": "1912-10-22",
        "left_port": "exeter",
        "cause_of_leaving": "discharged",
        "sign_with_mark": "n",
        "notes": "blk"
    },
    {
        "id": "vtls004959880_0_13",
        "type": "sailor",
        "parent": "vtls004959880",
        "name": "william cotton",
        "dob": "1870",
        "age": "blk",
        "place_of_birth": "kilburne, isle of wight",
        "home_address": "blk",
        "f": "blk",
        "name_of_ship": "florence myall",
        "ship_port": "rochester",
        "date_leaving": "blk",
        "joined_ship_date": "1913-02-03",
        "joined_at_port": "newport south of wales",
        "capacity": "blk",
        "date_left": "1913-03-30",
        "left_port": "plymouth",
        "cause_of_leaving": "discharged",
        "sign_with_mark": "n",
        "notes": "blk"
    },
    {
        "id": "vtls004959880_0_14",
        "type": "sailor",
        "parent": "vtls004959880",
        "name": "d brown",
        "dob": "1895",
        "age": "blk",
        "place_of_birth": "newport, isle of wight",
        "home_address": "blk",
        "f": "blk",
        "name_of_ship": "huntsman",
        "ship_port": "cowes",
        "date_leaving": "blk",
        "joined_ship_date": "1913-02-03",
        "joined_at_port": "newport south of wales",
        "capacity": "cook",
        "date_left": "1913-03-22",
        "left_port": "eling, southampton",
        "cause_of_leaving": "deserted",
        "sign_with_mark": "n",
        "notes": "blk"
    },
    {
        "id": "vtls004959880_0_12",
        "type": "sailor",
        "parent": "vtls004959880",
        "name": "alfred george ask",
        "dob": "1895",
        "age": "blk",
        "place_of_birth": "essex",
        "home_address": "blk",
        "f": "blk",
        "name_of_ship": "sarah & mary",
        "ship_port": "aberystwyth",
        "date_leaving": "1913",
        "joined_ship_date": "blk",
        "joined_at_port": "blk",
        "capacity": "mate",
        "date_left": "1913-03-30",
        "left_port": "plymouth",
        "cause_of_leaving": "discharged",
        "sign_with_mark": "n",
        "notes": "birth place given as 'putney' in record 11\/2"
    },
    {
        "id": "vtls004959880_0_11",
        "type": "sailor",
        "parent": "vtls004959880",
        "name": "frederick franks",
        "dob": "1872",
        "age": "blk",
        "place_of_birth": "penarth",
        "home_address": "33 pembroke street, devonport",
        "f": "33 pembroke street, devonport",
        "name_of_ship": "sarah & mary",
        "ship_port": "aberystwyth",
        "date_leaving": "1913",
        "joined_ship_date": "blk",
        "joined_at_port": "blk",
        "capacity": "master",
        "date_left": "1913-03-30",
        "left_port": "plymouth",
        "cause_of_leaving": "discharged",
        "sign_with_mark": "n",
        "notes": "blk"
    },
    {
        "id": "vtls004959877_1_19",
        "type": "sailor",
        "parent": "vtls004959877",
        "name": "frank harris",
        "dob": "1897",
        "age": "blk",
        "place_of_birth": "helston",
        "home_address": "blk",
        "f": "blk",
        "name_of_ship": "t.s. m[oun]t edgecumbe",
        "ship_port": "plymouth",
        "date_leaving": "1912",
        "joined_ship_date": "1912-12-11",
        "joined_at_port": "plymouth",
        "capacity": "cook",
        "date_left": "still on board",
        "left_port": "still on board",
        "cause_of_leaving": "still on board",
        "sign_with_mark": "n",
        "notes": "blk"
    },
    {
        "id": "vtls004959877_1_17",
        "type": "sailor",
        "parent": "vtls004959877",
        "name": "w henry withy",
        "dob": "1874",
        "age": "blk",
        "place_of_birth": "teignmouth",
        "home_address": "blk",
        "f": "blk",
        "name_of_ship": "annie thomas",
        "ship_port": "blk",
        "date_leaving": "1898",
        "joined_ship_date": "1912-10-29",
        "joined_at_port": "yarmouth",
        "capacity": "cook",
        "date_left": "1912-11-11",
        "left_port": "kingsbridge",
        "cause_of_leaving": "discharged",
        "sign_with_mark": "n",
        "notes": "blk"
    },
    {
        "id": "vtls004959877_1_18",
        "type": "sailor",
        "parent": "vtls004959877",
        "name": "john clemo",
        "dob": "1887",
        "age": "blk",
        "place_of_birth": "padstow",
        "home_address": "blk",
        "f": "blk",
        "name_of_ship": "amy",
        "ship_port": "plymouth",
        "date_leaving": "1912",
        "joined_ship_date": "1912-11-25",
        "joined_at_port": "plymouth",
        "capacity": "mate",
        "date_left": "1913-01-01",
        "left_port": "newport s.w.",
        "cause_of_leaving": "discharged",
        "sign_with_mark": "n",
        "notes": "blk"
    },
    {
        "id": "vtls004959880_0_15",
        "type": "sailor",
        "parent": "vtls004959880",
        "name": "arthur h brown",
        "dob": "1880",
        "age": "blk",
        "place_of_birth": "plymouth",
        "home_address": "blk",
        "f": "blk",
        "name_of_ship": "nina",
        "ship_port": "hull",
        "date_leaving": "1913",
        "joined_ship_date": "1913-04-12",
        "joined_at_port": "plymouth",
        "capacity": "master",
        "date_left": "blk",
        "left_port": "blk",
        "cause_of_leaving": "remains on board",
        "sign_with_mark": "n",
        "notes": "blk"
    },
    {
        "id": "vtls004959880_0_16",
        "type": "sailor",
        "parent": "vtls004959880",
        "name": "henry hounsell",
        "dob": "1892",
        "age": "blk",
        "place_of_birth": "bristol",
        "home_address": "blk",
        "f": "blk",
        "name_of_ship": "nina",
        "ship_port": "hull",
        "date_leaving": "1913",
        "joined_ship_date": "1913-04-12",
        "joined_at_port": "plymouth",
        "capacity": "mate",
        "date_left": "blk",
        "left_port": "blk",
        "cause_of_leaving": "remains on board",
        "sign_with_mark": "n",
        "notes": "blk"
    },
    {
        "id": "vtls004959880_1_11",
        "type": "sailor",
        "parent": "vtls004959880",
        "name": "arthur h brown",
        "dob": "1880",
        "age": "blk",
        "place_of_birth": "plymouth",
        "home_address": "oreston nr. plymouth",
        "f": "oreston nr. plymouth",
        "name_of_ship": "sarah & mary",
        "ship_port": "aberystwyth",
        "date_leaving": "1913",
        "joined_ship_date": "1913-07-01",
        "joined_at_port": "par",
        "capacity": "master",
        "date_left": "1914-01-15",
        "left_port": "plymouth",
        "cause_of_leaving": "remains on board",
        "sign_with_mark": "n",
        "notes": "blk"
    },
    {
        "id": "vtls004959880_1_17",
        "type": "sailor",
        "parent": "vtls004959880",
        "name": "harry donnelly",
        "dob": "1892",
        "age": "blk",
        "place_of_birth": "liverpool",
        "home_address": "blk",
        "f": "blk",
        "name_of_ship": "gavenwood",
        "ship_port": "[banff, padstow]",
        "date_leaving": "1913",
        "joined_ship_date": "1914-01-02",
        "joined_at_port": "plymouth",
        "capacity": "mate",
        "date_left": "1914-01-15",
        "left_port": "plymouth",
        "cause_of_leaving": "remains on board",
        "sign_with_mark": "n",
        "notes": "blk"
    },
    {
        "id": "vtls004959880_1_14",
        "type": "sailor",
        "parent": "vtls004959880",
        "name": "richard crossman",
        "dob": "1889",
        "age": "blk",
        "place_of_birth": "gunnislake",
        "home_address": "blk",
        "f": "blk",
        "name_of_ship": "sarah & mary",
        "ship_port": "aberystwyth",
        "date_leaving": "1913",
        "joined_ship_date": "1913-07-01",
        "joined_at_port": "par",
        "capacity": "cook",
        "date_left": "1913-09-24",
        "left_port": "plymouth",
        "cause_of_leaving": "discharged",
        "sign_with_mark": "n",
        "notes": "blk"
    },
    {
        "id": "vtls004959880_1_13",
        "type": "sailor",
        "parent": "vtls004959880",
        "name": "w payne",
        "dob": "1897",
        "age": "blk",
        "place_of_birth": "bridgewater",
        "home_address": "blk",
        "f": "blk",
        "name_of_ship": "meridian",
        "ship_port": "bridgewater",
        "date_leaving": "1913",
        "joined_ship_date": "1913-07-02",
        "joined_at_port": "par",
        "capacity": "ordinary seaman",
        "date_left": "1913-09-02",
        "left_port": "topsham",
        "cause_of_leaving": "discharged",
        "sign_with_mark": "n",
        "notes": "blk"
    },
    {
        "id": "vtls004959880_1_12",
        "type": "sailor",
        "parent": "vtls004959880",
        "name": "henry hounsell",
        "dob": "1892",
        "age": "blk",
        "place_of_birth": "bristol",
        "home_address": "blk",
        "f": "blk",
        "name_of_ship": "sarah & mary",
        "ship_port": "aberystwyth",
        "date_leaving": "1913",
        "joined_ship_date": "1913-07-01",
        "joined_at_port": "par",
        "capacity": "mate",
        "date_left": "1913-12-03",
        "left_port": "plymouth",
        "cause_of_leaving": "discharged",
        "sign_with_mark": "n",
        "notes": "blk"
    },
    {
        "id": "vtls004959880_0_17",
        "type": "sailor",
        "parent": "vtls004959880",
        "name": "richard crossman",
        "dob": "1889",
        "age": "blk",
        "place_of_birth": "gunnislake",
        "home_address": "blk",
        "f": "blk",
        "name_of_ship": "[nil]",
        "ship_port": "blk",
        "date_leaving": "blk",
        "joined_ship_date": "1913-04-19",
        "joined_at_port": "calstock",
        "capacity": "ordinary seaman",
        "date_left": "blk",
        "left_port": "blk",
        "cause_of_leaving": "remains on board",
        "sign_with_mark": "n",
        "notes": "blk"
    },
    {
        "id": "vtls004959880_1_16",
        "type": "sailor",
        "parent": "vtls004959880",
        "name": "john mccarthy",
        "dob": "1857",
        "age": "blk",
        "place_of_birth": "yougal",
        "home_address": "blk",
        "f": "blk",
        "name_of_ship": "mary barrow",
        "ship_port": "barrow",
        "date_leaving": "1913",
        "joined_ship_date": "1913-12-18",
        "joined_at_port": "plymouth",
        "capacity": "mate",
        "date_left": "1914-01-03",
        "left_port": "plymouth",
        "cause_of_leaving": "discharged",
        "sign_with_mark": "n",
        "notes": "blk"
    },
    {
        "id": "vtls004959880_1_15",
        "type": "sailor",
        "parent": "vtls004959880",
        "name": "r maine",
        "dob": "1863",
        "age": "blk",
        "place_of_birth": "oreston",
        "home_address": "blk",
        "f": "blk",
        "name_of_ship": "phoenix",
        "ship_port": "blk",
        "date_leaving": "1913",
        "joined_ship_date": "1913-09-27",
        "joined_at_port": "plymouth",
        "capacity": "able seaman",
        "date_left": "1913-12-05",
        "left_port": "plymouth",
        "cause_of_leaving": "discharged",
        "sign_with_mark": "n",
        "notes": "blk"
    },
    {
        "id": "vtls004959880_1_18",
        "type": "sailor",
        "parent": "vtls004959880",
        "name": "george godles",
        "dob": "1897",
        "age": "blk",
        "place_of_birth": "brussels",
        "home_address": "blk",
        "f": "blk",
        "name_of_ship": "[ballinbreich] castle",
        "ship_port": "[padstow]",
        "date_leaving": "1913",
        "joined_ship_date": "1914-01-03",
        "joined_at_port": "plymouth",
        "capacity": "ordinary seaman",
        "date_left": "1914-01-15",
        "left_port": "plymouth",
        "cause_of_leaving": "remains on board",
        "sign_with_mark": "n",
        "notes": "blk"
    },
    {
        "id": "vtls004959649_0_11",
        "type": "sailor",
        "parent": "vtls004959649",
        "name": "nil",
        "dob": "blk",
        "age": "blk",
        "place_of_birth": "blk",
        "home_address": "blk",
        "f": "blk",
        "name_of_ship": "nil",
        "ship_port": "blk",
        "date_leaving": "blk",
        "joined_ship_date": "blk",
        "joined_at_port": "blk",
        "capacity": "blk",
        "date_left": "nil",
        "left_port": "blk",
        "cause_of_leaving": "blk",
        "sign_with_mark": "blk",
        "notes": "this vessel has been laid up since october 1881 to the present date for repairs'  thomas daly, master, 1st october, 1883"
    },
    {
        "id": "vtls004959880_1_19",
        "type": "sailor",
        "parent": "vtls004959880",
        "name": "william porresh",
        "dob": "1898",
        "age": "blk",
        "place_of_birth": "totnes",
        "home_address": "blk",
        "f": "blk",
        "name_of_ship": "[t.s. mount] edgecumbe",
        "ship_port": "plymouth",
        "date_leaving": "1913",
        "joined_ship_date": "1914-01-05",
        "joined_at_port": "plymouth",
        "capacity": "cook",
        "date_left": "1914-01-15",
        "left_port": "plymouth",
        "cause_of_leaving": "remains on board",
        "sign_with_mark": "n",
        "notes": "blk"
    },
    {
        "id": "vtls004959649_1_13",
        "type": "sailor",
        "parent": "vtls004959649",
        "name": "richard magher",
        "dob": "1858",
        "age": "blk",
        "place_of_birth": "dungarvan",
        "home_address": "blk",
        "f": "blk",
        "name_of_ship": "mary joseph",
        "ship_port": "waterford",
        "date_leaving": "1883",
        "joined_ship_date": "1883-07-03",
        "joined_at_port": "milford",
        "capacity": "able seaman",
        "date_left": "blk",
        "left_port": "blk",
        "cause_of_leaving": "remains on board",
        "sign_with_mark": "n",
        "notes": "blk"
    },
    {
        "id": "vtls004959649_1_11",
        "type": "sailor",
        "parent": "vtls004959649",
        "name": "thomas daly",
        "dob": "1842",
        "age": "blk",
        "place_of_birth": "dungarvan",
        "home_address": "abbey side, dungarvan",
        "f": "abbey side, dungarvan",
        "name_of_ship": "loango",
        "ship_port": "sligo",
        "date_leaving": "1883",
        "joined_ship_date": "1883-07-03",
        "joined_at_port": "milford",
        "capacity": "master",
        "date_left": "blk",
        "left_port": "blk",
        "cause_of_leaving": "remains on board",
        "sign_with_mark": "n",
        "notes": "blk"
    },
    {
        "id": "vtls004959649_1_14",
        "type": "sailor",
        "parent": "vtls004959649",
        "name": "patrick hennessey",
        "dob": "1860",
        "age": "blk",
        "place_of_birth": "dungarvan",
        "home_address": "blk",
        "f": "blk",
        "name_of_ship": "first voyage to sea",
        "ship_port": "blk",
        "date_leaving": "blk",
        "joined_ship_date": "1883-07-03",
        "joined_at_port": "milford",
        "capacity": "boy",
        "date_left": "blk",
        "left_port": "blk",
        "cause_of_leaving": "remains on board",
        "sign_with_mark": "y",
        "notes": "blk"
    },
    {
        "id": "vtls004959649_1_12",
        "type": "sailor",
        "parent": "vtls004959649",
        "name": "john shea",
        "dob": "1856",
        "age": "blk",
        "place_of_birth": "dungarvan",
        "home_address": "blk",
        "f": "blk",
        "name_of_ship": "m.e.c.",
        "ship_port": "waterford",
        "date_leaving": "1883",
        "joined_ship_date": "1883-07-03",
        "joined_at_port": "milford",
        "capacity": "mate",
        "date_left": "blk",
        "left_port": "blk",
        "cause_of_leaving": "remains on board",
        "sign_with_mark": "y",
        "notes": "blk"
    },
    {
        "id": "vtls004959660_0_11",
        "type": "sailor",
        "parent": "vtls004959660",
        "name": "maurice kiely",
        "dob": "1850",
        "age": "blk",
        "place_of_birth": "dungarvan",
        "home_address": "abbeyside, dungarvon",
        "f": "abbeyside, dungarvon",
        "name_of_ship": "sarah & mary",
        "ship_port": "aberystwyth",
        "date_leaving": "1901",
        "joined_ship_date": "1902-01-01",
        "joined_at_port": "dungarvan",
        "capacity": "master",
        "date_left": "1902-04-10",
        "left_port": "dungarvan",
        "cause_of_leaving": "discharged",
        "sign_with_mark": "n",
        "notes": "note on log book: 'when maurice kiely left richard magher became master'"
    },
    {
        "id": "vtls004959660_1_13",
        "type": "sailor",
        "parent": "vtls004959660",
        "name": "d hanrahan",
        "dob": "1882",
        "age": "blk",
        "place_of_birth": "dungarvan",
        "home_address": "blk",
        "f": "blk",
        "name_of_ship": "sarah & mary",
        "ship_port": "aberystwyth",
        "date_leaving": "1902",
        "joined_ship_date": "1902-07-01",
        "joined_at_port": "dungarvan",
        "capacity": "able seaman",
        "date_left": "1902-12-31",
        "left_port": "southampton",
        "cause_of_leaving": "remains on board",
        "sign_with_mark": "n",
        "notes": "blk"
    },
    {
        "id": "vtls004959660_1_11",
        "type": "sailor",
        "parent": "vtls004959660",
        "name": "thomas slattery",
        "dob": "1840",
        "age": "blk",
        "place_of_birth": "waterford",
        "home_address": "blk",
        "f": "blk",
        "name_of_ship": "village girl",
        "ship_port": "waterford",
        "date_leaving": "1902",
        "joined_ship_date": "1902-07-01",
        "joined_at_port": "dungarvan",
        "capacity": "master",
        "date_left": "1902-12-31",
        "left_port": "southampton",
        "cause_of_leaving": "remains on board",
        "sign_with_mark": "n",
        "notes": "blk"
    },
    {
        "id": "vtls004959660_1_12",
        "type": "sailor",
        "parent": "vtls004959660",
        "name": "john feely",
        "dob": "1850",
        "age": "blk",
        "place_of_birth": "dungarvan",
        "home_address": "blk",
        "f": "blk",
        "name_of_ship": "sarah & mary",
        "ship_port": "aberystwyth",
        "date_leaving": "1902",
        "joined_ship_date": "1902-07-01",
        "joined_at_port": "dungarvan",
        "capacity": "mate",
        "date_left": "1902-12-31",
        "left_port": "southampton",
        "cause_of_leaving": "remains on board",
        "sign_with_mark": "n",
        "notes": "blk"
    },
    {
        "id": "vtls004959660_1_14",
        "type": "sailor",
        "parent": "vtls004959660",
        "name": "john conroy",
        "dob": "1886",
        "age": "blk",
        "place_of_birth": "dungarvan",
        "home_address": "blk",
        "f": "blk",
        "name_of_ship": "sarah & mary",
        "ship_port": "aberystwyth",
        "date_leaving": "1902",
        "joined_ship_date": "1902-07-01",
        "joined_at_port": "dungarvan",
        "capacity": "boy",
        "date_left": "1902-12-31",
        "left_port": "southampton",
        "cause_of_leaving": "remains on board",
        "sign_with_mark": "n",
        "notes": "blk"
    },
    {
        "id": "vtls004959660_0_13",
        "type": "sailor",
        "parent": "vtls004959660",
        "name": "james kennealy",
        "dob": "1889",
        "age": "blk",
        "place_of_birth": "dungarvan",
        "home_address": "blk",
        "f": "blk",
        "name_of_ship": "sarah & mary",
        "ship_port": "aberystwyth",
        "date_leaving": "1901",
        "joined_ship_date": "1902-01-01",
        "joined_at_port": "dungarvan",
        "capacity": "able seaman",
        "date_left": "1902-06-20",
        "left_port": "dungarvan",
        "cause_of_leaving": "discharged",
        "sign_with_mark": "n",
        "notes": "blk"
    },
    {
        "id": "vtls004959660_0_12",
        "type": "sailor",
        "parent": "vtls004959660",
        "name": "richard magher",
        "dob": "1872",
        "age": "blk",
        "place_of_birth": "dungarvan",
        "home_address": "blk",
        "f": "blk",
        "name_of_ship": "sarah & mary",
        "ship_port": "aberystwyth",
        "date_leaving": "1901",
        "joined_ship_date": "1902-01-01",
        "joined_at_port": "dungarvan",
        "capacity": "mate",
        "date_left": "1902-06-20",
        "left_port": "dungarvan",
        "cause_of_leaving": "discharged",
        "sign_with_mark": "n",
        "notes": "blk"
    },
    {
        "id": "vtls004959660_0_14",
        "type": "sailor",
        "parent": "vtls004959660",
        "name": "thomas murphy",
        "dob": "1882",
        "age": "blk",
        "place_of_birth": "dungarvan",
        "home_address": "blk",
        "f": "blk",
        "name_of_ship": "sarah & mary",
        "ship_port": "aberystwyth",
        "date_leaving": "1901",
        "joined_ship_date": "1902-01-01",
        "joined_at_port": "dungarvan",
        "capacity": "boy",
        "date_left": "1902-06-20",
        "left_port": "dungarvan",
        "cause_of_leaving": "discharged",
        "sign_with_mark": "n",
        "notes": "blk"
    },
    {
        "id": "vtls004959660_0_15",
        "type": "sailor",
        "parent": "vtls004959660",
        "name": "john kiely",
        "dob": "1852",
        "age": "blk",
        "place_of_birth": "dungarvan",
        "home_address": "blk",
        "f": "blk",
        "name_of_ship": "parton",
        "ship_port": "blk",
        "date_leaving": "1902",
        "joined_ship_date": "1902-04-11",
        "joined_at_port": "dungarvan",
        "capacity": "mate",
        "date_left": "1902-06-20",
        "left_port": "dungarvan",
        "cause_of_leaving": "discharged",
        "sign_with_mark": "n",
        "notes": "blk"
    },
    {
        "id": "vtls004959666_0_13",
        "type": "sailor",
        "parent": "vtls004959666",
        "name": "john conrey",
        "dob": "1884",
        "age": "blk",
        "place_of_birth": "dungarvan",
        "home_address": "blk",
        "f": "blk",
        "name_of_ship": "sarah & mary",
        "ship_port": "aberystwyth",
        "date_leaving": "continued from last half year",
        "joined_ship_date": "blk",
        "joined_at_port": "blk",
        "capacity": "able seaman",
        "date_left": "1903-06-30",
        "left_port": "barrow",
        "cause_of_leaving": "remains on board",
        "sign_with_mark": "n",
        "notes": "blk"
    },
    {
        "id": "vtls004959666_0_11",
        "type": "sailor",
        "parent": "vtls004959666",
        "name": "t slattery",
        "dob": "1836",
        "age": "blk",
        "place_of_birth": "waterford",
        "home_address": "dungarvan",
        "f": "dungarvan",
        "name_of_ship": "sarah & mary",
        "ship_port": "aberystwyth",
        "date_leaving": "continued from last half year",
        "joined_ship_date": "blk",
        "joined_at_port": "blk",
        "capacity": "master",
        "date_left": "1903-06-30",
        "left_port": "barrow",
        "cause_of_leaving": "remains on board",
        "sign_with_mark": "n",
        "notes": "blk"
    },
    {
        "id": "vtls004959666_0_12",
        "type": "sailor",
        "parent": "vtls004959666",
        "name": "andy roach",
        "dob": "1840",
        "age": "blk",
        "place_of_birth": "dungarvan",
        "home_address": "blk",
        "f": "blk",
        "name_of_ship": "sarah & mary",
        "ship_port": "aberystwyth",
        "date_leaving": "continued from last half year",
        "joined_ship_date": "blk",
        "joined_at_port": "blk",
        "capacity": "mate",
        "date_left": "1903-06-30",
        "left_port": "barrow",
        "cause_of_leaving": "remains on board",
        "sign_with_mark": "n",
        "notes": "blk"
    },
    {
        "id": "vtls004959666_0_14",
        "type": "sailor",
        "parent": "vtls004959666",
        "name": "pat flynn",
        "dob": "1886",
        "age": "blk",
        "place_of_birth": "dungarvan",
        "home_address": "blk",
        "f": "blk",
        "name_of_ship": "sarah & mary",
        "ship_port": "aberystwyth",
        "date_leaving": "continued from last half year",
        "joined_ship_date": "blk",
        "joined_at_port": "blk",
        "capacity": "boy",
        "date_left": "1903-06-30",
        "left_port": "barrow",
        "cause_of_leaving": "remains on board",
        "sign_with_mark": "n",
        "notes": "blk"
    },
    {
        "id": "vtls004959666_1_11",
        "type": "sailor",
        "parent": "vtls004959666",
        "name": "thos slattery",
        "dob": "1836",
        "age": "blk",
        "place_of_birth": "waterford",
        "home_address": "dungarvan",
        "f": "dungarvan",
        "name_of_ship": "sarah and mary",
        "ship_port": "aberystwyth",
        "date_leaving": "1903",
        "joined_ship_date": "1903-07-01",
        "joined_at_port": "barrow",
        "capacity": "master",
        "date_left": "1903-12-26",
        "left_port": "dungarvan",
        "cause_of_leaving": "discharged",
        "sign_with_mark": "n",
        "notes": "blk"
    },
    {
        "id": "vtls004959666_1_13",
        "type": "sailor",
        "parent": "vtls004959666",
        "name": "john connery",
        "dob": "1884",
        "age": "blk",
        "place_of_birth": "dungarvan",
        "home_address": "blk",
        "f": "blk",
        "name_of_ship": "sarah & mary",
        "ship_port": "aberystwyth",
        "date_leaving": "1903",
        "joined_ship_date": "1903-07-01",
        "joined_at_port": "barrow",
        "capacity": "able seaman",
        "date_left": "1903-12-28",
        "left_port": "dungarvan",
        "cause_of_leaving": "discharged",
        "sign_with_mark": "n",
        "notes": "blk"
    },
    {
        "id": "vtls004959666_1_14",
        "type": "sailor",
        "parent": "vtls004959666",
        "name": "patrick flynn",
        "dob": "1890",
        "age": "blk",
        "place_of_birth": "dungarvan",
        "home_address": "blk",
        "f": "blk",
        "name_of_ship": "sarah & mary",
        "ship_port": "aberystwyth",
        "date_leaving": "1903",
        "joined_ship_date": "1903-07-01",
        "joined_at_port": "barrow",
        "capacity": "boy",
        "date_left": "1903-12-28",
        "left_port": "dungarvan",
        "cause_of_leaving": "discharged",
        "sign_with_mark": "n",
        "notes": "blk"
    },
    {
        "id": "vtls004959666_1_12",
        "type": "sailor",
        "parent": "vtls004959666",
        "name": "andy roche",
        "dob": "1880",
        "age": "blk",
        "place_of_birth": "dungarvan",
        "home_address": "blk",
        "f": "blk",
        "name_of_ship": "sarah & mary",
        "ship_port": "aberystwyth",
        "date_leaving": "1903",
        "joined_ship_date": "1903-07-01",
        "joined_at_port": "barrow",
        "capacity": "mate",
        "date_left": "1903-12-28",
        "left_port": "dungarvan",
        "cause_of_leaving": "discharged",
        "sign_with_mark": "n",
        "notes": "blk"
    },
    {
        "id": "vtls004959677_0_11",
        "type": "sailor",
        "parent": "vtls004959677",
        "name": "edward alernan",
        "dob": "1871",
        "age": "blk",
        "place_of_birth": "waterford",
        "home_address": "st mary st, dungarvan",
        "f": "st mary st, dungarvan",
        "name_of_ship": "nanny wignall",
        "ship_port": "fleetwood",
        "date_leaving": "1903",
        "joined_ship_date": "1904-01-04",
        "joined_at_port": "dungarvan",
        "capacity": "master",
        "date_left": "1904-05-04",
        "left_port": "newport",
        "cause_of_leaving": "discharged",
        "sign_with_mark": "n",
        "notes": "blk"
    },
    {
        "id": "vtls004959677_1_14",
        "type": "sailor",
        "parent": "vtls004959677",
        "name": "john shea",
        "dob": "1883",
        "age": "blk",
        "place_of_birth": "dungarvan",
        "home_address": "blk",
        "f": "blk",
        "name_of_ship": "sarah & mary",
        "ship_port": "aberystwyth",
        "date_leaving": "1904",
        "joined_ship_date": "1904-07-21",
        "joined_at_port": "dungarvan",
        "capacity": "cook & ordinary seaman",
        "date_left": "1904-08-16",
        "left_port": "dungarvan",
        "cause_of_leaving": "discharged",
        "sign_with_mark": "n",
        "notes": "blk"
    },
    {
        "id": "vtls004959677_1_13",
        "type": "sailor",
        "parent": "vtls004959677",
        "name": "patrick flynn",
        "dob": "1882",
        "age": "blk",
        "place_of_birth": "dungarvan",
        "home_address": "blk",
        "f": "blk",
        "name_of_ship": "sarah & mary",
        "ship_port": "aberystwyth",
        "date_leaving": "1904",
        "joined_ship_date": "1904-07-21",
        "joined_at_port": "dungarvan",
        "capacity": "able seaman",
        "date_left": "1904-08-16",
        "left_port": "dungarvan",
        "cause_of_leaving": "discharged",
        "sign_with_mark": "n",
        "notes": "blk"
    },
    {
        "id": "vtls004959677_0_13",
        "type": "sailor",
        "parent": "vtls004959677",
        "name": "john connery",
        "dob": "1886",
        "age": "blk",
        "place_of_birth": "dungarvan",
        "home_address": "blk",
        "f": "blk",
        "name_of_ship": "sarah & mary",
        "ship_port": "aberystwyth",
        "date_leaving": "1903",
        "joined_ship_date": "1904-01-04",
        "joined_at_port": "dungarvan",
        "capacity": "able seaman",
        "date_left": "1904-07-01",
        "left_port": "cork",
        "cause_of_leaving": "discharged",
        "sign_with_mark": "n",
        "notes": "blk"
    },
    {
        "id": "vtls004959677_0_15",
        "type": "sailor",
        "parent": "vtls004959677",
        "name": "richard maher",
        "dob": "1861",
        "age": "blk",
        "place_of_birth": "dungarvan",
        "home_address": "blk",
        "f": "blk",
        "name_of_ship": "katherine ellen",
        "ship_port": "chester",
        "date_leaving": "1904",
        "joined_ship_date": "1904-05-04",
        "joined_at_port": "newport",
        "capacity": "master",
        "date_left": "1904-07-01",
        "left_port": "cork",
        "cause_of_leaving": "remains on board",
        "sign_with_mark": "n",
        "notes": "blk"
    },
    {
        "id": "vtls004959677_1_11",
        "type": "sailor",
        "parent": "vtls004959677",
        "name": "mark conway",
        "dob": "1879",
        "age": "blk",
        "place_of_birth": "wicklow",
        "home_address": "castle street, wicklow",
        "f": "castle street, wicklow",
        "name_of_ship": "jewel",
        "ship_port": "dublin",
        "date_leaving": "1904",
        "joined_ship_date": "1904-07-21",
        "joined_at_port": "dungarvan",
        "capacity": "master",
        "date_left": "blk",
        "left_port": "blk",
        "cause_of_leaving": "remains on board",
        "sign_with_mark": "n",
        "notes": "blk"
    },
    {
        "id": "vtls004959677_1_12",
        "type": "sailor",
        "parent": "vtls004959677",
        "name": "william shea",
        "dob": "1874",
        "age": "blk",
        "place_of_birth": "dungarvan",
        "home_address": "blk",
        "f": "blk",
        "name_of_ship": "sarah & mary",
        "ship_port": "aberystwyth",
        "date_leaving": "1904",
        "joined_ship_date": "1904-07-21",
        "joined_at_port": "dungarvan",
        "capacity": "mate",
        "date_left": "1904-08-16",
        "left_port": "dungarvan",
        "cause_of_leaving": "discharged",
        "sign_with_mark": "n",
        "notes": "blk"
    },
    {
        "id": "vtls004959677_0_14",
        "type": "sailor",
        "parent": "vtls004959677",
        "name": "patrick flynn",
        "dob": "1885",
        "age": "blk",
        "place_of_birth": "dungarvan",
        "home_address": "blk",
        "f": "blk",
        "name_of_ship": "sarah & mary",
        "ship_port": "aberystwyth",
        "date_leaving": "1903",
        "joined_ship_date": "1904-01-04",
        "joined_at_port": "dungarvan",
        "capacity": "cook",
        "date_left": "1904-07-01",
        "left_port": "cork",
        "cause_of_leaving": "discharged",
        "sign_with_mark": "n",
        "notes": "blk"
    },
    {
        "id": "vtls004959677_0_12",
        "type": "sailor",
        "parent": "vtls004959677",
        "name": "william shea",
        "dob": "1877",
        "age": "blk",
        "place_of_birth": "dungarvan",
        "home_address": "blk",
        "f": "blk",
        "name_of_ship": "sarah & mary",
        "ship_port": "aberystwyth",
        "date_leaving": "1903",
        "joined_ship_date": "1904-01-04",
        "joined_at_port": "dungarvan",
        "capacity": "mate",
        "date_left": "1904-07-01",
        "left_port": "cork",
        "cause_of_leaving": "discharged",
        "sign_with_mark": "n",
        "notes": "blk"
    },
    {
        "id": "vtls004959677_1_19",
        "type": "sailor",
        "parent": "vtls004959677",
        "name": "thomas sullivan",
        "dob": "1885",
        "age": "blk",
        "place_of_birth": "wicklow",
        "home_address": "blk",
        "f": "blk",
        "name_of_ship": "william and henry",
        "ship_port": "dublin",
        "date_leaving": "1904",
        "joined_ship_date": "1904-09-26",
        "joined_at_port": "wicklow",
        "capacity": "cook & ordinary seaman",
        "date_left": "190410-15",
        "left_port": "youghal",
        "cause_of_leaving": "deserted",
        "sign_with_mark": "n",
        "notes": "blk"
    },
    {
        "id": "vtls004959677_1_21",
        "type": "sailor",
        "parent": "vtls004959677",
        "name": "john wall",
        "dob": "1884",
        "age": "blk",
        "place_of_birth": "wicklow",
        "home_address": "blk",
        "f": "blk",
        "name_of_ship": "s.s. anglesey",
        "ship_port": "beaumaris",
        "date_leaving": "1904",
        "joined_ship_date": "1904-12-06",
        "joined_at_port": "wexford",
        "capacity": "able seaman",
        "date_left": "190410-15",
        "left_port": "youghal",
        "cause_of_leaving": "remains on board",
        "sign_with_mark": "n",
        "notes": "blk"
    },
    {
        "id": "vtls004959677_1_16",
        "type": "sailor",
        "parent": "vtls004959677",
        "name": "karl kor$$$kel",
        "dob": "1881",
        "age": "blk",
        "place_of_birth": "windaholm",
        "home_address": "blk",
        "f": "blk",
        "name_of_ship": "s.s. nadar",
        "ship_port": "bergen",
        "date_leaving": "1904",
        "joined_ship_date": "1904-08-23",
        "joined_at_port": "newport",
        "capacity": "able seaman",
        "date_left": "1904-09-14",
        "left_port": "wicklow",
        "cause_of_leaving": "discharged",
        "sign_with_mark": "n",
        "notes": "blk"
    },
    {
        "id": "vtls004959677_1_18",
        "type": "sailor",
        "parent": "vtls004959677",
        "name": "joseph wall",
        "dob": "1886",
        "age": "blk",
        "place_of_birth": "wicklow",
        "home_address": "blk",
        "f": "blk",
        "name_of_ship": "[william henry]",
        "ship_port": "liverpool",
        "date_leaving": "1904",
        "joined_ship_date": "1904-09-26",
        "joined_at_port": "wicklow",
        "capacity": "able seaman",
        "date_left": "1904-12-03",
        "left_port": "wexford",
        "cause_of_leaving": "discharged",
        "sign_with_mark": "n",
        "notes": "blk"
    },
    {
        "id": "vtls004959677_1_15",
        "type": "sailor",
        "parent": "vtls004959677",
        "name": "patrick kelly",
        "dob": "1876",
        "age": "blk",
        "place_of_birth": "wicklow",
        "home_address": "blk",
        "f": "blk",
        "name_of_ship": "s.s. andalusion",
        "ship_port": "liverpool",
        "date_leaving": "1904",
        "joined_ship_date": "1904-08-19",
        "joined_at_port": "dungarvan",
        "capacity": "mate",
        "date_left": "1904-09-14",
        "left_port": "wicklow",
        "cause_of_leaving": "discharged",
        "sign_with_mark": "n",
        "notes": "blk"
    },
    {
        "id": "vtls004959677_1_20",
        "type": "sailor",
        "parent": "vtls004959677",
        "name": "william doyle",
        "dob": "1881",
        "age": "blk",
        "place_of_birth": "wicklow",
        "home_address": "blk",
        "f": "blk",
        "name_of_ship": "colorado",
        "ship_port": "dublin",
        "date_leaving": "1904",
        "joined_ship_date": "1904-12-06",
        "joined_at_port": "wexford",
        "capacity": "mate",
        "date_left": "190410-15",
        "left_port": "youghal",
        "cause_of_leaving": "remains on board",
        "sign_with_mark": "n",
        "notes": "blk"
    },
    {
        "id": "vtls004959677_1_17",
        "type": "sailor",
        "parent": "vtls004959677",
        "name": "francis doyle",
        "dob": "1872",
        "age": "blk",
        "place_of_birth": "wicklow",
        "home_address": "blk",
        "f": "blk",
        "name_of_ship": "j h barrow",
        "ship_port": "barrow",
        "date_leaving": "1904",
        "joined_ship_date": "1904-09-26",
        "joined_at_port": "wicklow",
        "capacity": "mate",
        "date_left": "1904-12-03",
        "left_port": "wexford",
        "cause_of_leaving": "discharged",
        "sign_with_mark": "n",
        "notes": "blk"
    },
    {
        "id": "vtls004959711_0_11",
        "type": "sailor",
        "parent": "vtls004959711",
        "name": "william morgan",
        "dob": "1867",
        "age": "39",
        "place_of_birth": "wicklow, ireland",
        "home_address": "kilmantin hill, wicklow",
        "f": "kilmantin hill, wicklow",
        "name_of_ship": "sarah & mary",
        "ship_port": "aberystwyth",
        "date_leaving": "1906",
        "joined_ship_date": "1906-01-20",
        "joined_at_port": "waterford",
        "capacity": "master",
        "date_left": "1906-06-30",
        "left_port": "garston",
        "cause_of_leaving": "remains on board",
        "sign_with_mark": "n",
        "notes": "blk"
    },
    {
        "id": "vtls004959711_1_11",
        "type": "sailor",
        "parent": "vtls004959711",
        "name": "william morgan",
        "dob": "1866",
        "age": "blk",
        "place_of_birth": "wicklow",
        "home_address": "market square, wicklow",
        "f": "market square, wicklow",
        "name_of_ship": "sarah and mary",
        "ship_port": "aberystwyth",
        "date_leaving": "1906",
        "joined_ship_date": "1906-07-01",
        "joined_at_port": "garston",
        "capacity": "master",
        "date_left": "1906-11-23",
        "left_port": "wicklow",
        "cause_of_leaving": "discharged",
        "sign_with_mark": "n",
        "notes": "blk"
    },
    {
        "id": "vtls004959711_0_14",
        "type": "sailor",
        "parent": "vtls004959711",
        "name": "william morgan",
        "dob": "1890",
        "age": "16",
        "place_of_birth": "wicklow, ireland",
        "home_address": "blk",
        "f": "blk",
        "name_of_ship": "sarah & mary",
        "ship_port": "aberystwyth",
        "date_leaving": "1906",
        "joined_ship_date": "1906-01-20",
        "joined_at_port": "waterford",
        "capacity": "seaman",
        "date_left": "1906-06-30",
        "left_port": "garston",
        "cause_of_leaving": "remains on board",
        "sign_with_mark": "n",
        "notes": "blk"
    },
    {
        "id": "vtls004959711_0_12",
        "type": "sailor",
        "parent": "vtls004959711",
        "name": "james doolittle",
        "dob": "1866",
        "age": "40",
        "place_of_birth": "wicklow, ireland",
        "home_address": "blk",
        "f": "blk",
        "name_of_ship": "sarah & mary",
        "ship_port": "aberystwyth",
        "date_leaving": "1906",
        "joined_ship_date": "1906-01-20",
        "joined_at_port": "waterford",
        "capacity": "mate",
        "date_left": "1906-06-30",
        "left_port": "garston",
        "cause_of_leaving": "remains on board",
        "sign_with_mark": "n",
        "notes": "blk"
    },
    {
        "id": "vtls004959711_1_13",
        "type": "sailor",
        "parent": "vtls004959711",
        "name": "michael mccormick",
        "dob": "1881",
        "age": "blk",
        "place_of_birth": "barry",
        "home_address": "blk",
        "f": "blk",
        "name_of_ship": "sarah & mary",
        "ship_port": "aberystwyth",
        "date_leaving": "1906",
        "joined_ship_date": "1906-07-01",
        "joined_at_port": "garston",
        "capacity": "cook and able seaman",
        "date_left": "1906-11-23",
        "left_port": "wicklow",
        "cause_of_leaving": "discharged",
        "sign_with_mark": "n",
        "notes": "blk"
    },
    {
        "id": "vtls004959711_0_13",
        "type": "sailor",
        "parent": "vtls004959711",
        "name": "john wall",
        "dob": "1886",
        "age": "20",
        "place_of_birth": "wicklow, ireland",
        "home_address": "blk",
        "f": "blk",
        "name_of_ship": "sarah & mary",
        "ship_port": "aberystwyth",
        "date_leaving": "1906",
        "joined_ship_date": "1906-01-20",
        "joined_at_port": "waterford",
        "capacity": "seaman",
        "date_left": "1906-06-30",
        "left_port": "garston",
        "cause_of_leaving": "remains on board",
        "sign_with_mark": "n",
        "notes": "blk"
    },
    {
        "id": "vtls004959711_0_15",
        "type": "sailor",
        "parent": "vtls004959711",
        "name": "william doyle",
        "dob": "1882",
        "age": "blk",
        "place_of_birth": "wicklow, ireland",
        "home_address": "blk",
        "f": "blk",
        "name_of_ship": "sarah & mary",
        "ship_port": "aberystwyth",
        "date_leaving": "1906",
        "joined_ship_date": "1906-01-20",
        "joined_at_port": "waterford",
        "capacity": "mate",
        "date_left": "1906-01-18",
        "left_port": "waterford",
        "cause_of_leaving": "discharged",
        "sign_with_mark": "n",
        "notes": "blk"
    },
    {
        "id": "vtls004959711_1_14",
        "type": "sailor",
        "parent": "vtls004959711",
        "name": "william howard",
        "dob": "1881",
        "age": "blk",
        "place_of_birth": "par",
        "home_address": "par, cornwall",
        "f": "par, cornwall",
        "name_of_ship": "lilly green",
        "ship_port": "blk",
        "date_leaving": "1906",
        "joined_ship_date": "1906-12-05",
        "joined_at_port": "wicklow",
        "capacity": "master",
        "date_left": "1906-12-31",
        "left_port": "garston",
        "cause_of_leaving": "remains on board",
        "sign_with_mark": "n",
        "notes": "blk"
    },
    {
        "id": "vtls004959711_1_12",
        "type": "sailor",
        "parent": "vtls004959711",
        "name": "james devlin",
        "dob": "1880",
        "age": "blk",
        "place_of_birth": "wicklow",
        "home_address": "blk",
        "f": "blk",
        "name_of_ship": "sarah & mary",
        "ship_port": "aberystwyth",
        "date_leaving": "1906",
        "joined_ship_date": "1906-07-01",
        "joined_at_port": "garston",
        "capacity": "mate",
        "date_left": "1906-11-23",
        "left_port": "wicklow",
        "cause_of_leaving": "discharged",
        "sign_with_mark": "n",
        "notes": "blk"
    },
    {
        "id": "vtls004959711_1_15",
        "type": "sailor",
        "parent": "vtls004959711",
        "name": "arthur reilly",
        "dob": "1882",
        "age": "blk",
        "place_of_birth": "wicklow",
        "home_address": "blk",
        "f": "blk",
        "name_of_ship": "queen of the west",
        "ship_port": "blk",
        "date_leaving": "1906",
        "joined_ship_date": "1906-12-05",
        "joined_at_port": "wicklow",
        "capacity": "mate",
        "date_left": "1906-12-31",
        "left_port": "garston",
        "cause_of_leaving": "discharged",
        "sign_with_mark": "n",
        "notes": "blk"
    },
    {
        "id": "vtls004959717_0_14",
        "type": "sailor",
        "parent": "vtls004959717",
        "name": "edward gaynor",
        "dob": "1890",
        "age": "blk",
        "place_of_birth": "kingstown",
        "home_address": "blk",
        "f": "blk",
        "name_of_ship": "[paragon]",
        "ship_port": "blk",
        "date_leaving": "1907",
        "joined_ship_date": "1907-02-16",
        "joined_at_port": "garston",
        "capacity": "cook & ordinary seaman",
        "date_left": "1907-04-11",
        "left_port": "wicklow",
        "cause_of_leaving": "discharged",
        "sign_with_mark": "n",
        "notes": "blk"
    },
    {
        "id": "vtls004959717_0_11",
        "type": "sailor",
        "parent": "vtls004959717",
        "name": "william howard",
        "dob": "1881",
        "age": "blk",
        "place_of_birth": "par",
        "home_address": "par, cornwall",
        "f": "par, cornwall",
        "name_of_ship": "sarah and mary",
        "ship_port": "aberystwyth",
        "date_leaving": "1906",
        "joined_ship_date": "1907-01-01",
        "joined_at_port": "garston",
        "capacity": "master",
        "date_left": "1907-04-11",
        "left_port": "wicklow",
        "cause_of_leaving": "discharged",
        "sign_with_mark": "n",
        "notes": "blk"
    },
    {
        "id": "vtls004959711_1_16",
        "type": "sailor",
        "parent": "vtls004959711",
        "name": "arthur reilly",
        "dob": "1890",
        "age": "blk",
        "place_of_birth": "dublin",
        "home_address": "blk",
        "f": "blk",
        "name_of_ship": "velinheli",
        "ship_port": "blk",
        "date_leaving": "1906",
        "joined_ship_date": "1906-12-10",
        "joined_at_port": "wicklow",
        "capacity": "cook and able seaman",
        "date_left": "1906-12-31",
        "left_port": "garston",
        "cause_of_leaving": "discharged",
        "sign_with_mark": "n",
        "notes": "blk"
    },
    {
        "id": "vtls004959717_0_15",
        "type": "sailor",
        "parent": "vtls004959717",
        "name": "joseph havanagh",
        "dob": "1867",
        "age": "blk",
        "place_of_birth": "wicklow",
        "home_address": "blk",
        "f": "blk",
        "name_of_ship": "sarah & mary",
        "ship_port": "aberystwyth",
        "date_leaving": "1907",
        "joined_ship_date": "1907-04-12",
        "joined_at_port": "wicklow",
        "capacity": "master",
        "date_left": "blk",
        "left_port": "blk",
        "cause_of_leaving": "remains on board",
        "sign_with_mark": "n",
        "notes": "blk"
    },
    {
        "id": "vtls004959717_0_16",
        "type": "sailor",
        "parent": "vtls004959717",
        "name": "michael merryan",
        "dob": "1891",
        "age": "blk",
        "place_of_birth": "wicklow",
        "home_address": "blk",
        "f": "blk",
        "name_of_ship": "eva",
        "ship_port": "blk",
        "date_leaving": "1907",
        "joined_ship_date": "1907-04-12",
        "joined_at_port": "wicklow",
        "capacity": "cook & ordinary seaman",
        "date_left": "1907-07-02",
        "left_port": "wicklow",
        "cause_of_leaving": "left",
        "sign_with_mark": "n",
        "notes": "blk"
    },
    {
        "id": "vtls004959717_0_13",
        "type": "sailor",
        "parent": "vtls004959717",
        "name": "leroy haven",
        "dob": "1891",
        "age": "blk",
        "place_of_birth": "boston v s j a",
        "home_address": "blk",
        "f": "blk",
        "name_of_ship": "emma hilda",
        "ship_port": "blk",
        "date_leaving": "1907",
        "joined_ship_date": "1907-01-30",
        "joined_at_port": "garston",
        "capacity": "cook",
        "date_left": "1907-02-07",
        "left_port": "garston",
        "cause_of_leaving": "deserted",
        "sign_with_mark": "n",
        "notes": "blk"
    },
    {
        "id": "vtls004959717_0_12",
        "type": "sailor",
        "parent": "vtls004959717",
        "name": "michael malone",
        "dob": "1881",
        "age": "blk",
        "place_of_birth": "wicklow",
        "home_address": "blk",
        "f": "blk",
        "name_of_ship": "gesina lucia",
        "ship_port": "blk",
        "date_leaving": "1907",
        "joined_ship_date": "1907-01-22",
        "joined_at_port": "garston",
        "capacity": "mate",
        "date_left": "1907-04-11",
        "left_port": "wicklow",
        "cause_of_leaving": "discharged",
        "sign_with_mark": "n",
        "notes": "blk"
    },
    {
        "id": "vtls004959717_1_11",
        "type": "sailor",
        "parent": "vtls004959717",
        "name": "joseph havanagh",
        "dob": "1867",
        "age": "blk",
        "place_of_birth": "wicklow",
        "home_address": "monkton row, wicklow, county wicklow",
        "f": "monkton row, wicklow, county wicklow",
        "name_of_ship": "sarah & mary",
        "ship_port": "aberystwyth",
        "date_leaving": "1907",
        "joined_ship_date": "1907-04-12",
        "joined_at_port": "wicklow",
        "capacity": "master",
        "date_left": "blk",
        "left_port": "blk",
        "cause_of_leaving": "remains on board",
        "sign_with_mark": "n",
        "notes": "blk"
    },
    {
        "id": "vtls004959717_1_13",
        "type": "sailor",
        "parent": "vtls004959717",
        "name": "john carroll",
        "dob": "1887",
        "age": "blk",
        "place_of_birth": "wicklow",
        "home_address": "blk",
        "f": "blk",
        "name_of_ship": "sarah & mary",
        "ship_port": "aberystwyth",
        "date_leaving": "1907",
        "joined_ship_date": "1907-05-27",
        "joined_at_port": "wicklow",
        "capacity": "able seaman",
        "date_left": "1907-07-04",
        "left_port": "wicklow",
        "cause_of_leaving": "discharged",
        "sign_with_mark": "n",
        "notes": "blk"
    },
    {
        "id": "vtls004959717_1_14",
        "type": "sailor",
        "parent": "vtls004959717",
        "name": "michael merrigan",
        "dob": "1891",
        "age": "blk",
        "place_of_birth": "wicklow",
        "home_address": "blk",
        "f": "blk",
        "name_of_ship": "eva",
        "ship_port": "blk",
        "date_leaving": "1907",
        "joined_ship_date": "1907-05-27",
        "joined_at_port": "wicklow",
        "capacity": "cook & ordinary seaman",
        "date_left": "1907-07-06",
        "left_port": "wicklow",
        "cause_of_leaving": "discharged",
        "sign_with_mark": "n",
        "notes": "blk"
    },
    {
        "id": "vtls004959717_1_12",
        "type": "sailor",
        "parent": "vtls004959717",
        "name": "patrick barlow",
        "dob": "1877",
        "age": "blk",
        "place_of_birth": "wicklow",
        "home_address": "blk",
        "f": "blk",
        "name_of_ship": "sarah & mary",
        "ship_port": "aberystwyth",
        "date_leaving": "1907",
        "joined_ship_date": "1907-05-24",
        "joined_at_port": "wicklow",
        "capacity": "mate",
        "date_left": "1907-09-06",
        "left_port": "wicklow",
        "cause_of_leaving": "discharged",
        "sign_with_mark": "n",
        "notes": "blk"
    },
    {
        "id": "vtls004959717_1_18",
        "type": "sailor",
        "parent": "vtls004959717",
        "name": "j c$$t hall",
        "dob": "1888",
        "age": "blk",
        "place_of_birth": "wicklow",
        "home_address": "blk",
        "f": "blk",
        "name_of_ship": "w j cummins",
        "ship_port": "blk",
        "date_leaving": "1907",
        "joined_ship_date": "1907-09-24",
        "joined_at_port": "wicklow",
        "capacity": "able seaman",
        "date_left": "blk",
        "left_port": "blk",
        "cause_of_leaving": "remains on board",
        "sign_with_mark": "n",
        "notes": "blk"
    },
    {
        "id": "vtls004959717_1_17",
        "type": "sailor",
        "parent": "vtls004959717",
        "name": "james ward",
        "dob": "1879",
        "age": "blk",
        "place_of_birth": "wicklow",
        "home_address": "blk",
        "f": "blk",
        "name_of_ship": "manx girl",
        "ship_port": "blk",
        "date_leaving": "1907",
        "joined_ship_date": "1907-09-09",
        "joined_at_port": "wicklow",
        "capacity": "able seaman",
        "date_left": "1907-11-02",
        "left_port": "wicklow",
        "cause_of_leaving": "discharged",
        "sign_with_mark": "n",
        "notes": "blk"
    },
    {
        "id": "vtls004959717_1_16",
        "type": "sailor",
        "parent": "vtls004959717",
        "name": "henry welsh",
        "dob": "1879",
        "age": "blk",
        "place_of_birth": "wicklow",
        "home_address": "blk",
        "f": "blk",
        "name_of_ship": "trafford",
        "ship_port": "blk",
        "date_leaving": "1907",
        "joined_ship_date": "1907-08-16",
        "joined_at_port": "wicklow",
        "capacity": "able seaman",
        "date_left": "1907-09-14",
        "left_port": "wicklow",
        "cause_of_leaving": "discharged",
        "sign_with_mark": "n",
        "notes": "blk"
    },
    {
        "id": "vtls004959717_0_18",
        "type": "sailor",
        "parent": "vtls004959717",
        "name": "john carroll",
        "dob": "1887",
        "age": "blk",
        "place_of_birth": "wicklow",
        "home_address": "blk",
        "f": "blk",
        "name_of_ship": "abeja",
        "ship_port": "blk",
        "date_leaving": "1907",
        "joined_ship_date": "1907-04-12",
        "joined_at_port": "wicklow",
        "capacity": "able seaman",
        "date_left": "blk",
        "left_port": "blk",
        "cause_of_leaving": "remains on board",
        "sign_with_mark": "n",
        "notes": "blk"
    },
    {
        "id": "vtls004959717_1_15",
        "type": "sailor",
        "parent": "vtls004959717",
        "name": "thomas murphy",
        "dob": "1878",
        "age": "blk",
        "place_of_birth": "wicklow",
        "home_address": "blk",
        "f": "blk",
        "name_of_ship": "agnes",
        "ship_port": "blk",
        "date_leaving": "1907",
        "joined_ship_date": "1907-07-09",
        "joined_at_port": "wicklow",
        "capacity": "mate",
        "date_left": "1907-08-15",
        "left_port": "wicklow",
        "cause_of_leaving": "discharged",
        "sign_with_mark": "n",
        "notes": "blk"
    },
    {
        "id": "vtls004959717_0_17",
        "type": "sailor",
        "parent": "vtls004959717",
        "name": "patrick barlow",
        "dob": "1877",
        "age": "blk",
        "place_of_birth": "wicklow",
        "home_address": "blk",
        "f": "blk",
        "name_of_ship": "abeja",
        "ship_port": "blk",
        "date_leaving": "1907",
        "joined_ship_date": "1907-04-12",
        "joined_at_port": "wicklow",
        "capacity": "mate",
        "date_left": "blk",
        "left_port": "blk",
        "cause_of_leaving": "remains on board",
        "sign_with_mark": "n",
        "notes": "blk"
    },
    {
        "id": "vtls004959722_0_11",
        "type": "sailor",
        "parent": "vtls004959722",
        "name": "joseph kavanagh",
        "dob": "1867",
        "age": "blk",
        "place_of_birth": "wicklow",
        "home_address": "monkton row, wicklow",
        "f": "monkton row, wicklow",
        "name_of_ship": "sarah & mary",
        "ship_port": "aberystwyth",
        "date_leaving": "1908",
        "joined_ship_date": "1908-01-01",
        "joined_at_port": "wicklow",
        "capacity": "master",
        "date_left": "1908-06-30",
        "left_port": "greystones",
        "cause_of_leaving": "remains on board",
        "sign_with_mark": "n",
        "notes": "blk"
    },
    {
        "id": "vtls004959722_1_11",
        "type": "sailor",
        "parent": "vtls004959722",
        "name": "joseph kavanagh",
        "dob": "1867",
        "age": "blk",
        "place_of_birth": "wicklow",
        "home_address": "monkton row, wicklow",
        "f": "monkton row, wicklow",
        "name_of_ship": "sarah & mary",
        "ship_port": "aberystwyth",
        "date_leaving": "1908",
        "joined_ship_date": "1908-07-04",
        "joined_at_port": "wicklow",
        "capacity": "master",
        "date_left": "blk",
        "left_port": "blk",
        "cause_of_leaving": "remains on board",
        "sign_with_mark": "n",
        "notes": "blk"
    },
    {
        "id": "vtls004959722_0_13",
        "type": "sailor",
        "parent": "vtls004959722",
        "name": "christopher wall",
        "dob": "1888",
        "age": "blk",
        "place_of_birth": "wicklow",
        "home_address": "blk",
        "f": "blk",
        "name_of_ship": "sarah & mary",
        "ship_port": "aberystwyth",
        "date_leaving": "1908",
        "joined_ship_date": "1908-01-01",
        "joined_at_port": "wicklow",
        "capacity": "able seaman",
        "date_left": "1908-06-30",
        "left_port": "greystones",
        "cause_of_leaving": "discharged",
        "sign_with_mark": "n",
        "notes": "blk"
    },
    {
        "id": "vtls004959722_0_12",
        "type": "sailor",
        "parent": "vtls004959722",
        "name": "michael hogan",
        "dob": "1868",
        "age": "blk",
        "place_of_birth": "wicklow",
        "home_address": "blk",
        "f": "blk",
        "name_of_ship": "sarah & mary",
        "ship_port": "aberystwyth",
        "date_leaving": "1908",
        "joined_ship_date": "1908-01-01",
        "joined_at_port": "wicklow",
        "capacity": "mate",
        "date_left": "1908-06-30",
        "left_port": "greystones",
        "cause_of_leaving": "discharged",
        "sign_with_mark": "n",
        "notes": "blk"
    },
    {
        "id": "vtls004959722_1_13",
        "type": "sailor",
        "parent": "vtls004959722",
        "name": "christopher wall",
        "dob": "1879",
        "age": "blk",
        "place_of_birth": "wicklow",
        "home_address": "blk",
        "f": "blk",
        "name_of_ship": "wilson",
        "ship_port": "blk",
        "date_leaving": "1908",
        "joined_ship_date": "1908-07-04",
        "joined_at_port": "liverpool",
        "capacity": "able seaman",
        "date_left": "1908-$$-06",
        "left_port": "garston",
        "cause_of_leaving": "paid off",
        "sign_with_mark": "n",
        "notes": "blk"
    },
    {
        "id": "vtls004959717_1_19",
        "type": "sailor",
        "parent": "vtls004959717",
        "name": "michael hogan",
        "dob": "1866",
        "age": "blk",
        "place_of_birth": "wicklow",
        "home_address": "blk",
        "f": "blk",
        "name_of_ship": "sarah & mary",
        "ship_port": "aberystwyth",
        "date_leaving": "1907",
        "joined_ship_date": "1907-11-26",
        "joined_at_port": "wicklow",
        "capacity": "mate",
        "date_left": "blk",
        "left_port": "blk",
        "cause_of_leaving": "remains on board",
        "sign_with_mark": "n",
        "notes": "blk"
    },
    {
        "id": "vtls004959722_1_12",
        "type": "sailor",
        "parent": "vtls004959722",
        "name": "thomas byrne",
        "dob": "1878",
        "age": "blk",
        "place_of_birth": "wicklow",
        "home_address": "blk",
        "f": "blk",
        "name_of_ship": "naiad",
        "ship_port": "blk",
        "date_leaving": "1908",
        "joined_ship_date": "1908-07-04",
        "joined_at_port": "dungarvan",
        "capacity": "mate",
        "date_left": "1908-08-04",
        "left_port": "wicklow",
        "cause_of_leaving": "paid off",
        "sign_with_mark": "n",
        "notes": "blk"
    },
    {
        "id": "vtls004959724_0_11",
        "type": "sailor",
        "parent": "vtls004959724",
        "name": "joseph kavaragh",
        "dob": "1867",
        "age": "blk",
        "place_of_birth": "wicklow",
        "home_address": "monkton row, wicklow",
        "f": "monkton row, wicklow",
        "name_of_ship": "sarah & mary",
        "ship_port": "aberystwyth",
        "date_leaving": "1908",
        "joined_ship_date": "blk",
        "joined_at_port": "blk",
        "capacity": "master",
        "date_left": "1909-04-19",
        "left_port": "dungarvan",
        "cause_of_leaving": "discharged",
        "sign_with_mark": "n",
        "notes": "blk"
    },
    {
        "id": "vtls004959724_0_14",
        "type": "sailor",
        "parent": "vtls004959724",
        "name": "james wall",
        "dob": "1858",
        "age": "blk",
        "place_of_birth": "wicklow",
        "home_address": "blk",
        "f": "blk",
        "name_of_ship": "sarah & mary",
        "ship_port": "aberystwyth",
        "date_leaving": "1908",
        "joined_ship_date": "1909-02-12",
        "joined_at_port": "wicklow",
        "capacity": "ordinary seaman",
        "date_left": "1909-04-19",
        "left_port": "dungarvan",
        "cause_of_leaving": "discharged",
        "sign_with_mark": "n",
        "notes": "blk"
    },
    {
        "id": "vtls004959724_0_17",
        "type": "sailor",
        "parent": "vtls004959724",
        "name": "john humble",
        "dob": "1889",
        "age": "blk",
        "place_of_birth": "dungarvan",
        "home_address": "blk",
        "f": "blk",
        "name_of_ship": "katherine & ellen",
        "ship_port": "dungarvan",
        "date_leaving": "1909",
        "joined_ship_date": "1909-05-10",
        "joined_at_port": "dungarvan",
        "capacity": "ordinary seaman",
        "date_left": "blk",
        "left_port": "blk",
        "cause_of_leaving": "remains on board",
        "sign_with_mark": "n",
        "notes": "blk"
    },
    {
        "id": "vtls004959724_0_13",
        "type": "sailor",
        "parent": "vtls004959724",
        "name": "andrew byrne",
        "dob": "1860",
        "age": "blk",
        "place_of_birth": "wicklow",
        "home_address": "blk",
        "f": "blk",
        "name_of_ship": "sarah & mary",
        "ship_port": "aberystwyth",
        "date_leaving": "1908",
        "joined_ship_date": "1909-02-12",
        "joined_at_port": "wicklow",
        "capacity": "able seaman",
        "date_left": "1909-04-19",
        "left_port": "dungarvan",
        "cause_of_leaving": "discharged",
        "sign_with_mark": "n",
        "notes": "blk"
    },
    {
        "id": "vtls004959724_0_15",
        "type": "sailor",
        "parent": "vtls004959724",
        "name": "patrick whelan",
        "dob": "1882",
        "age": "blk",
        "place_of_birth": "dungarvan",
        "home_address": "dungarvan",
        "f": "dungarvan",
        "name_of_ship": "twin brothers",
        "ship_port": "barrow",
        "date_leaving": "1909",
        "joined_ship_date": "1909-05-10",
        "joined_at_port": "dungarvan",
        "capacity": "master",
        "date_left": "blk",
        "left_port": "blk",
        "cause_of_leaving": "remains on board",
        "sign_with_mark": "n",
        "notes": "blk"
    },
    {
        "id": "vtls004959724_0_12",
        "type": "sailor",
        "parent": "vtls004959724",
        "name": "thomas byrne",
        "dob": "1869",
        "age": "blk",
        "place_of_birth": "wicklow",
        "home_address": "blk",
        "f": "blk",
        "name_of_ship": "sarah & mary",
        "ship_port": "aberystwyth",
        "date_leaving": "1908",
        "joined_ship_date": "1909-02-12",
        "joined_at_port": "wicklow",
        "capacity": "mate",
        "date_left": "1909-04-19",
        "left_port": "dungarvan",
        "cause_of_leaving": "discharged",
        "sign_with_mark": "n",
        "notes": "blk"
    },
    {
        "id": "vtls004959724_0_16",
        "type": "sailor",
        "parent": "vtls004959724",
        "name": "thomas hiely",
        "dob": "1878",
        "age": "blk",
        "place_of_birth": "dungarvan",
        "home_address": "blk",
        "f": "blk",
        "name_of_ship": "s.s. virent",
        "ship_port": "sunderland",
        "date_leaving": "1909",
        "joined_ship_date": "1909-05-10",
        "joined_at_port": "dungarvan",
        "capacity": "mate",
        "date_left": "blk",
        "left_port": "blk",
        "cause_of_leaving": "remains on board",
        "sign_with_mark": "n",
        "notes": "blk"
    },
    {
        "id": "vtls004959722_1_14",
        "type": "sailor",
        "parent": "vtls004959722",
        "name": "gohrain byrne",
        "dob": "1870",
        "age": "blk",
        "place_of_birth": "wicklow",
        "home_address": "blk",
        "f": "blk",
        "name_of_ship": "walter j cummings",
        "ship_port": "blk",
        "date_leaving": "1908",
        "joined_ship_date": "1908-07-04",
        "joined_at_port": "wicklow",
        "capacity": "mate",
        "date_left": "1908-11-17",
        "left_port": "wicklow",
        "cause_of_leaving": "paid off",
        "sign_with_mark": "n",
        "notes": "blk"
    },
    {
        "id": "vtls004959722_1_15",
        "type": "sailor",
        "parent": "vtls004959722",
        "name": "john carrol",
        "dob": "1880",
        "age": "blk",
        "place_of_birth": "arklow",
        "home_address": "blk",
        "f": "blk",
        "name_of_ship": "[kate]",
        "ship_port": "blk",
        "date_leaving": "1908",
        "joined_ship_date": "1908-11-06",
        "joined_at_port": "garston",
        "capacity": "able seaman",
        "date_left": "1908-11-17",
        "left_port": "wicklow",
        "cause_of_leaving": "paid off",
        "sign_with_mark": "n",
        "notes": "blk"
    },
    {
        "id": "vtls004959733_0_11",
        "type": "sailor",
        "parent": "vtls004959733",
        "name": "patrick whelan",
        "dob": "1882",
        "age": "blk",
        "place_of_birth": "dungarvan",
        "home_address": "main street, dungarvan",
        "f": "main street, dungarvan",
        "name_of_ship": "sarah & mary",
        "ship_port": "aberystwyth",
        "date_leaving": "1909",
        "joined_ship_date": "1910-05-28",
        "joined_at_port": "dungarvan",
        "capacity": "master",
        "date_left": "blk",
        "left_port": "blk",
        "cause_of_leaving": "remains on board",
        "sign_with_mark": "n",
        "notes": "account for jan - june 1910"
    },
    {
        "id": "vtls004959724_1_11",
        "type": "sailor",
        "parent": "vtls004959724",
        "name": "patrick whelan",
        "dob": "1882",
        "age": "blk",
        "place_of_birth": "dungarvan",
        "home_address": "dungarvan",
        "f": "dungarvan",
        "name_of_ship": "sarah & mary",
        "ship_port": "aberystwyth",
        "date_leaving": "1909",
        "joined_ship_date": "1909-07-02",
        "joined_at_port": "runcorn",
        "capacity": "master",
        "date_left": "blk",
        "left_port": "blk",
        "cause_of_leaving": "remains on board",
        "sign_with_mark": "n",
        "notes": "blk"
    },
    {
        "id": "vtls004959724_1_13",
        "type": "sailor",
        "parent": "vtls004959724",
        "name": "john humble",
        "dob": "1889",
        "age": "blk",
        "place_of_birth": "dungarvan",
        "home_address": "blk",
        "f": "blk",
        "name_of_ship": "sarah & mary",
        "ship_port": "aberystwyth",
        "date_leaving": "1909",
        "joined_ship_date": "1909-07-04",
        "joined_at_port": "runcorn",
        "capacity": "able seaman",
        "date_left": "blk",
        "left_port": "blk",
        "cause_of_leaving": "remains on board",
        "sign_with_mark": "n",
        "notes": "blk"
    },
    {
        "id": "vtls004959724_1_12",
        "type": "sailor",
        "parent": "vtls004959724",
        "name": "thomas hiely",
        "dob": "1878",
        "age": "blk",
        "place_of_birth": "dungarvan",
        "home_address": "blk",
        "f": "blk",
        "name_of_ship": "sarah & mary",
        "ship_port": "aberystwyth",
        "date_leaving": "1909",
        "joined_ship_date": "1909-07-03",
        "joined_at_port": "runcorn",
        "capacity": "mate",
        "date_left": "1909-08-31",
        "left_port": "newport",
        "cause_of_leaving": "discharged",
        "sign_with_mark": "n",
        "notes": "blk"
    },
    {
        "id": "vtls004959724_1_14",
        "type": "sailor",
        "parent": "vtls004959724",
        "name": "thomas cardigan",
        "dob": "1879",
        "age": "blk",
        "place_of_birth": "kinsale",
        "home_address": "blk",
        "f": "blk",
        "name_of_ship": "altair",
        "ship_port": "london",
        "date_leaving": "1909",
        "joined_ship_date": "1909-09-21",
        "joined_at_port": "newport",
        "capacity": "mate",
        "date_left": "1909-10-04",
        "left_port": "swansea",
        "cause_of_leaving": "discharged",
        "sign_with_mark": "n",
        "notes": "blk"
    },
    {
        "id": "vtls004959724_1_16",
        "type": "sailor",
        "parent": "vtls004959724",
        "name": "william coleman",
        "dob": "1884",
        "age": "blk",
        "place_of_birth": "dungarvan",
        "home_address": "blk",
        "f": "blk",
        "name_of_ship": "dinorwic",
        "ship_port": "dungarvan",
        "date_leaving": "1909",
        "joined_ship_date": "1909-10-05",
        "joined_at_port": "swansea",
        "capacity": "mate",
        "date_left": "blk",
        "left_port": "blk",
        "cause_of_leaving": "remains on board",
        "sign_with_mark": "n",
        "notes": "blk"
    },
    {
        "id": "vtls004959724_1_15",
        "type": "sailor",
        "parent": "vtls004959724",
        "name": "michael duggan",
        "dob": "1889",
        "age": "blk",
        "place_of_birth": "dungarvan",
        "home_address": "blk",
        "f": "blk",
        "name_of_ship": "first ship",
        "ship_port": "blk",
        "date_leaving": "1909",
        "joined_ship_date": "1909-09-26",
        "joined_at_port": "dungarvan",
        "capacity": "cook",
        "date_left": "blk",
        "left_port": "blk",
        "cause_of_leaving": "remains on board",
        "sign_with_mark": "n",
        "notes": "blk"
    },
    {
        "id": "vtls004959733_1_11",
        "type": "sailor",
        "parent": "vtls004959733",
        "name": "patrick whelan",
        "dob": "1882",
        "age": "blk",
        "place_of_birth": "dungarvan",
        "home_address": "dungarvan",
        "f": "dungarvan",
        "name_of_ship": "sarah & mary",
        "ship_port": "aberystwyth",
        "date_leaving": "1910",
        "joined_ship_date": "1910-07-02",
        "joined_at_port": "bristol",
        "capacity": "master",
        "date_left": "1910-07-17",
        "left_port": "dungarvan",
        "cause_of_leaving": "discharged",
        "sign_with_mark": "n",
        "notes": "blk"
    },
    {
        "id": "vtls004959733_1_13",
        "type": "sailor",
        "parent": "vtls004959733",
        "name": "john humble",
        "dob": "1880",
        "age": "blk",
        "place_of_birth": "dungarvan",
        "home_address": "blk",
        "f": "blk",
        "name_of_ship": "sarah & mary",
        "ship_port": "aberystwyth",
        "date_leaving": "1910",
        "joined_ship_date": "1910-07-02",
        "joined_at_port": "bristol",
        "capacity": "able seaman",
        "date_left": "1910-07-17",
        "left_port": "dungarvan",
        "cause_of_leaving": "discharged",
        "sign_with_mark": "n",
        "notes": "blk"
    },
    {
        "id": "vtls004959733_1_14",
        "type": "sailor",
        "parent": "vtls004959733",
        "name": "patrick drumney",
        "dob": "1891",
        "age": "blk",
        "place_of_birth": "dungarvan",
        "home_address": "blk",
        "f": "blk",
        "name_of_ship": "sarah & mary",
        "ship_port": "aberystwyth",
        "date_leaving": "1910",
        "joined_ship_date": "1910-07-02",
        "joined_at_port": "bristol",
        "capacity": "cook",
        "date_left": "1910-07-17",
        "left_port": "dungarvan",
        "cause_of_leaving": "discharged",
        "sign_with_mark": "n",
        "notes": "blk"
    },
    {
        "id": "vtls004959733_0_13",
        "type": "sailor",
        "parent": "vtls004959733",
        "name": "john humble",
        "dob": "1889",
        "age": "blk",
        "place_of_birth": "dungarvan",
        "home_address": "blk",
        "f": "blk",
        "name_of_ship": "sarah & mary",
        "ship_port": "aberystwyth",
        "date_leaving": "1909",
        "joined_ship_date": "1910-05-28",
        "joined_at_port": "dungarvan",
        "capacity": "able seaman",
        "date_left": "blk",
        "left_port": "blk",
        "cause_of_leaving": "remains on board",
        "sign_with_mark": "n",
        "notes": "blk"
    },
    {
        "id": "vtls004959733_1_12",
        "type": "sailor",
        "parent": "vtls004959733",
        "name": "robert power",
        "dob": "1886",
        "age": "blk",
        "place_of_birth": "dungarvan",
        "home_address": "blk",
        "f": "blk",
        "name_of_ship": "sarah & mary",
        "ship_port": "aberystwyth",
        "date_leaving": "1910",
        "joined_ship_date": "1910-07-02",
        "joined_at_port": "bristol",
        "capacity": "mate",
        "date_left": "1910-07-17",
        "left_port": "dungarvan",
        "cause_of_leaving": "discharged",
        "sign_with_mark": "n",
        "notes": "blk"
    },
    {
        "id": "vtls004959733_0_14",
        "type": "sailor",
        "parent": "vtls004959733",
        "name": "patrick drumney",
        "dob": "1893",
        "age": "blk",
        "place_of_birth": "dungarvan",
        "home_address": "blk",
        "f": "blk",
        "name_of_ship": "sarah & mary",
        "ship_port": "aberystwyth",
        "date_leaving": "1909",
        "joined_ship_date": "1910-05-28",
        "joined_at_port": "dungarvan",
        "capacity": "cook",
        "date_left": "blk",
        "left_port": "blk",
        "cause_of_leaving": "remains on board",
        "sign_with_mark": "n",
        "notes": "blk"
    },
    {
        "id": "vtls004959733_0_12",
        "type": "sailor",
        "parent": "vtls004959733",
        "name": "robert mulcahy",
        "dob": "1889",
        "age": "blk",
        "place_of_birth": "dungarvan",
        "home_address": "blk",
        "f": "blk",
        "name_of_ship": "sarah & mary",
        "ship_port": "aberystwyth",
        "date_leaving": "1909",
        "joined_ship_date": "1910-05-28",
        "joined_at_port": "dungarvan",
        "capacity": "mate",
        "date_left": "blk",
        "left_port": "blk",
        "cause_of_leaving": "remains on board",
        "sign_with_mark": "n",
        "notes": "blk"
    }
]