[
    {
        "id": "vtls004612219_0_14",
        "type": "sailor",
        "parent": "vtls004612219",
        "name": "thomas jones",
        "dob": "blk",
        "age": "15",
        "place_of_birth": "bangor",
        "home_address": "blk",
        "f": "blk",
        "name_of_ship": "mary",
        "ship_port": "barmouth",
        "date_leaving": "1863-02-12",
        "joined_ship_date": "1862-02-12",
        "joined_at_port": "liverpool",
        "capacity": "boy",
        "date_left": "1863-04-27",
        "left_port": "cardiff",
        "cause_of_leaving": "discharged",
        "sign_with_mark": "n",
        "notes": "mary is registered at aberystwyth"
    },
    {
        "id": "vtls004612219_0_13",
        "type": "sailor",
        "parent": "vtls004612219",
        "name": "richard mathews",
        "dob": "blk",
        "age": "29",
        "place_of_birth": "aberaeron",
        "home_address": "blk",
        "f": "blk",
        "name_of_ship": "anne",
        "ship_port": "aberystwyth",
        "date_leaving": "blk",
        "joined_ship_date": "blk",
        "joined_at_port": "blk",
        "capacity": "able seaman",
        "date_left": "1863-04-27",
        "left_port": "cardiff",
        "cause_of_leaving": "discharged",
        "sign_with_mark": "n",
        "notes": "blk"
    },
    {
        "id": "vtls004612219_0_11",
        "type": "sailor",
        "parent": "vtls004612219",
        "name": "john hughes",
        "dob": "blk",
        "age": "32",
        "place_of_birth": "aberystwyth",
        "home_address": "aberystwith ",
        "f": "aberystwith ",
        "name_of_ship": "anne",
        "ship_port": "aberystwyth",
        "date_leaving": "blk",
        "joined_ship_date": "blk",
        "joined_at_port": "blk",
        "capacity": "master",
        "date_left": "blk",
        "left_port": "blk",
        "cause_of_leaving": "remains on board",
        "sign_with_mark": "n",
        "notes": "blk"
    },
    {
        "id": "vtls004612219_0_12",
        "type": "sailor",
        "parent": "vtls004612219",
        "name": "evan morgan",
        "dob": "blk",
        "age": "42",
        "place_of_birth": "aberaeron",
        "home_address": "blk",
        "f": "blk",
        "name_of_ship": "anne",
        "ship_port": "aberystwyth",
        "date_leaving": "blk",
        "joined_ship_date": "blk",
        "joined_at_port": "blk",
        "capacity": "mate",
        "date_left": "1863-04-27",
        "left_port": "cardiff",
        "cause_of_leaving": "discharged",
        "sign_with_mark": "n",
        "notes": "blk"
    },
    {
        "id": "vtls004612219_1_13",
        "type": "sailor",
        "parent": "vtls004612219",
        "name": "peter crogan",
        "dob": "blk",
        "age": "30",
        "place_of_birth": "belfast",
        "home_address": "blk",
        "f": "blk",
        "name_of_ship": "hastings",
        "ship_port": "belfast",
        "date_leaving": "1863-06-30",
        "joined_ship_date": "1863-07-01",
        "joined_at_port": "gloucester",
        "capacity": "able seaman",
        "date_left": "1864-02-12",
        "left_port": "belfast",
        "cause_of_leaving": "discharged",
        "sign_with_mark": "n",
        "notes": "hastings' listed as 'a hastings' on crew list index project"
    },
    {
        "id": "vtls004612219_1_12",
        "type": "sailor",
        "parent": "vtls004612219",
        "name": "william clements",
        "dob": "blk",
        "age": "24",
        "place_of_birth": "gloucester",
        "home_address": "blk",
        "f": "blk",
        "name_of_ship": "samson",
        "ship_port": "gloucester",
        "date_leaving": "1863-06-30",
        "joined_ship_date": "1863-07-01",
        "joined_at_port": "gloucester",
        "capacity": "mate",
        "date_left": "1864-02-12",
        "left_port": "belfast",
        "cause_of_leaving": "discharged",
        "sign_with_mark": "n",
        "notes": "no samson registered at gloucester, though one at bristol"
    },
    {
        "id": "vtls004612219_0_17",
        "type": "sailor",
        "parent": "vtls004612219",
        "name": "evan thomas",
        "dob": "blk",
        "age": "18",
        "place_of_birth": "aberaeron",
        "home_address": "blk",
        "f": "blk",
        "name_of_ship": "berlin",
        "ship_port": "aberystwyth",
        "date_leaving": "1863-02-10",
        "joined_ship_date": "1863-02-12",
        "joined_at_port": "liverpool",
        "capacity": "ordinary seaman",
        "date_left": "1863-06-28",
        "left_port": "gloster gloucester",
        "cause_of_leaving": "discharged",
        "sign_with_mark": "n",
        "notes": "blk"
    },
    {
        "id": "vtls004612219_0_16",
        "type": "sailor",
        "parent": "vtls004612219",
        "name": "robert davies",
        "dob": "blk",
        "age": "27",
        "place_of_birth": "carmarthen",
        "home_address": "blk",
        "f": "blk",
        "name_of_ship": "marquis of bute",
        "ship_port": "blk",
        "date_leaving": "1863-03-10",
        "joined_ship_date": "1863-04-06",
        "joined_at_port": "cardiff",
        "capacity": "able seaman",
        "date_left": "1863-06-28",
        "left_port": "gloster gloucester",
        "cause_of_leaving": "discharged",
        "sign_with_mark": "n",
        "notes": "blk"
    },
    {
        "id": "vtls004612247_0_11",
        "type": "sailor",
        "parent": "vtls004612247",
        "name": "john hughes",
        "dob": "blk",
        "age": "35",
        "place_of_birth": "aberystwyth",
        "home_address": "aberystwyth",
        "f": "aberystwyth",
        "name_of_ship": "anne",
        "ship_port": "aberystwyth",
        "date_leaving": "1865-12-31",
        "joined_ship_date": "1866-01-01",
        "joined_at_port": "aberystwyth",
        "capacity": "master",
        "date_left": "1866-07-30",
        "left_port": "blk",
        "cause_of_leaving": "remains on board",
        "sign_with_mark": "n",
        "notes": "blk"
    },
    {
        "id": "vtls004612219_0_15",
        "type": "sailor",
        "parent": "vtls004612219",
        "name": "thomas davies",
        "dob": "blk",
        "age": "49",
        "place_of_birth": "cardigan",
        "home_address": "blk",
        "f": "blk",
        "name_of_ship": "president",
        "ship_port": "cardigan",
        "date_leaving": "1863-02-27",
        "joined_ship_date": "1863-04-28",
        "joined_at_port": "cardiff",
        "capacity": "mate",
        "date_left": "1863-06-28",
        "left_port": "gloster gloucester",
        "cause_of_leaving": "discharged",
        "sign_with_mark": "n",
        "notes": "blk"
    },
    {
        "id": "vtls004612219_1_14",
        "type": "sailor",
        "parent": "vtls004612219",
        "name": "george bosworth",
        "dob": "blk",
        "age": "19",
        "place_of_birth": "gloucester",
        "home_address": "blk",
        "f": "blk",
        "name_of_ship": "perseverance",
        "ship_port": "gloucester",
        "date_leaving": "1863-06-30",
        "joined_ship_date": "1863-07-01",
        "joined_at_port": "gloucester",
        "capacity": "cook",
        "date_left": "1864-02-12",
        "left_port": "belfast",
        "cause_of_leaving": "discharged",
        "sign_with_mark": "n",
        "notes": "blk"
    },
    {
        "id": "vtls004612219_1_11",
        "type": "sailor",
        "parent": "vtls004612219",
        "name": "john hughes",
        "dob": "blk",
        "age": "32",
        "place_of_birth": "aberystwyth",
        "home_address": "aberystwith ",
        "f": "aberystwith ",
        "name_of_ship": "anne",
        "ship_port": "aberystwyth",
        "date_leaving": "blk",
        "joined_ship_date": "blk",
        "joined_at_port": "blk",
        "capacity": "master",
        "date_left": "blk",
        "left_port": "blk",
        "cause_of_leaving": "remains on board",
        "sign_with_mark": "n",
        "notes": "blk"
    },
    {
        "id": "vtls004612219_0_18",
        "type": "sailor",
        "parent": "vtls004612219",
        "name": "david evans",
        "dob": "blk",
        "age": "12",
        "place_of_birth": "newport",
        "home_address": "blk",
        "f": "blk",
        "name_of_ship": "blk",
        "ship_port": "blk",
        "date_leaving": "blk",
        "joined_ship_date": "1863-04-30",
        "joined_at_port": "cardiff",
        "capacity": "boy",
        "date_left": "blk",
        "left_port": "blk",
        "cause_of_leaving": "remains on board",
        "sign_with_mark": "n",
        "notes": "first ship"
    },
    {
        "id": "vtls004612247_0_13",
        "type": "sailor",
        "parent": "vtls004612247",
        "name": "william? evans",
        "dob": "blk",
        "age": "23",
        "place_of_birth": "aberystwyth",
        "home_address": "blk",
        "f": "blk",
        "name_of_ship": "anne",
        "ship_port": "aberystwyth",
        "date_leaving": "1865-12-20",
        "joined_ship_date": "1866-02-20",
        "joined_at_port": "aberystwyth",
        "capacity": "able seaman",
        "date_left": "1866-07-30",
        "left_port": "blk",
        "cause_of_leaving": "remains on board",
        "sign_with_mark": "n",
        "notes": "blk"
    },
    {
        "id": "vtls004612247_0_15",
        "type": "sailor",
        "parent": "vtls004612247",
        "name": "david williams",
        "dob": "blk",
        "age": "15",
        "place_of_birth": "aberystwyth",
        "home_address": "blk",
        "f": "blk",
        "name_of_ship": "anne",
        "ship_port": "aberystwyth",
        "date_leaving": "1865-11-01",
        "joined_ship_date": "1866-02-20",
        "joined_at_port": "aberystwyth",
        "capacity": "boy",
        "date_left": "1866-07-30",
        "left_port": "blk",
        "cause_of_leaving": "remains on board",
        "sign_with_mark": "n",
        "notes": "blk"
    },
    {
        "id": "vtls004612247_0_12",
        "type": "sailor",
        "parent": "vtls004612247",
        "name": "evan humphrys",
        "dob": "blk",
        "age": "50",
        "place_of_birth": "aberystwyth",
        "home_address": "blk",
        "f": "blk",
        "name_of_ship": "anne",
        "ship_port": "aberystwyth",
        "date_leaving": "1865-12-20",
        "joined_ship_date": "1866-02-20",
        "joined_at_port": "aberystwyth",
        "capacity": "mate",
        "date_left": "1866-07-30",
        "left_port": "blk",
        "cause_of_leaving": "remains on board",
        "sign_with_mark": "n",
        "notes": "blk"
    },
    {
        "id": "vtls004612247_0_14",
        "type": "sailor",
        "parent": "vtls004612247",
        "name": "evan davies",
        "dob": "blk",
        "age": "18",
        "place_of_birth": "aberystwyth",
        "home_address": "blk",
        "f": "blk",
        "name_of_ship": "severn",
        "ship_port": "blk",
        "date_leaving": "1865-11-01",
        "joined_ship_date": "1866-02-20",
        "joined_at_port": "aberystwyth",
        "capacity": "$",
        "date_left": "1866-07-30",
        "left_port": "blk",
        "cause_of_leaving": "remains on board",
        "sign_with_mark": "n",
        "notes": "blk"
    },
    {
        "id": "vtls004612247_1_14",
        "type": "sailor",
        "parent": "vtls004612247",
        "name": "evan jenkin davies",
        "dob": "blk",
        "age": "15",
        "place_of_birth": "aberystwyth",
        "home_address": "blk",
        "f": "blk",
        "name_of_ship": "anne",
        "ship_port": "aberystwith ",
        "date_leaving": "blk",
        "joined_ship_date": "blk",
        "joined_at_port": "blk",
        "capacity": "ordinary seaman",
        "date_left": "blk",
        "left_port": "blk",
        "cause_of_leaving": "remains on board",
        "sign_with_mark": "n",
        "notes": "blk"
    },
    {
        "id": "vtls004612247_1_11",
        "type": "sailor",
        "parent": "vtls004612247",
        "name": "john hughes",
        "dob": "blk",
        "age": "35",
        "place_of_birth": "aberystwyth",
        "home_address": "aberystwith ",
        "f": "aberystwith ",
        "name_of_ship": "anne",
        "ship_port": "aberystwith ",
        "date_leaving": "blk",
        "joined_ship_date": "blk",
        "joined_at_port": "blk",
        "capacity": "master",
        "date_left": "blk",
        "left_port": "blk",
        "cause_of_leaving": "remains on board",
        "sign_with_mark": "n",
        "notes": "blk"
    },
    {
        "id": "vtls004612247_1_13",
        "type": "sailor",
        "parent": "vtls004612247",
        "name": "david lloyd",
        "dob": "blk",
        "age": "18",
        "place_of_birth": "solva",
        "home_address": "blk",
        "f": "blk",
        "name_of_ship": "anne",
        "ship_port": "aberystwith ",
        "date_leaving": "blk",
        "joined_ship_date": "blk",
        "joined_at_port": "blk",
        "capacity": "able seaman",
        "date_left": "blk",
        "left_port": "blk",
        "cause_of_leaving": "remains on board",
        "sign_with_mark": "n",
        "notes": "blk"
    },
    {
        "id": "vtls004612247_1_12",
        "type": "sailor",
        "parent": "vtls004612247",
        "name": "stephen davies",
        "dob": "blk",
        "age": "49",
        "place_of_birth": "llanon",
        "home_address": "blk",
        "f": "blk",
        "name_of_ship": "anne",
        "ship_port": "aberystwith ",
        "date_leaving": "blk",
        "joined_ship_date": "blk",
        "joined_at_port": "blk",
        "capacity": "mate",
        "date_left": "blk",
        "left_port": "blk",
        "cause_of_leaving": "remains on board",
        "sign_with_mark": "n",
        "notes": "blk"
    },
    {
        "id": "vtls004612266_0_18",
        "type": "sailor",
        "parent": "vtls004612266",
        "name": "robert thomas",
        "dob": "blk",
        "age": "16",
        "place_of_birth": "pwllheli",
        "home_address": "blk",
        "f": "blk",
        "name_of_ship": "marvel",
        "ship_port": "caernarvon ",
        "date_leaving": "1867-03-05",
        "joined_ship_date": "1867-04-20",
        "joined_at_port": "portmadoc",
        "capacity": "ordinary seaman",
        "date_left": "blk",
        "left_port": "blk",
        "cause_of_leaving": "remains on board",
        "sign_with_mark": "n",
        "notes": "no marvel registered at caernarvon, only at pwllheli"
    },
    {
        "id": "vtls004612266_0_17",
        "type": "sailor",
        "parent": "vtls004612266",
        "name": "owen humphrieys",
        "dob": "blk",
        "age": "19",
        "place_of_birth": "pwllheli",
        "home_address": "blk",
        "f": "blk",
        "name_of_ship": "catherine & margaret",
        "ship_port": "caernarvon ",
        "date_leaving": "1867-03-10",
        "joined_ship_date": "1867-04-21",
        "joined_at_port": "portmadoc",
        "capacity": "ordinary seaman",
        "date_left": "blk",
        "left_port": "blk",
        "cause_of_leaving": "remains on board",
        "sign_with_mark": "n",
        "notes": "blk"
    },
    {
        "id": "vtls004612266_0_11",
        "type": "sailor",
        "parent": "vtls004612266",
        "name": "john hughes",
        "dob": "blk",
        "age": "36",
        "place_of_birth": "aberystwyth",
        "home_address": "harbour place, aberystwith ",
        "f": "harbour place, aberystwith ",
        "name_of_ship": "anne",
        "ship_port": "aberystwyth",
        "date_leaving": "blk",
        "joined_ship_date": "blk",
        "joined_at_port": "blk",
        "capacity": "master",
        "date_left": "blk",
        "left_port": "blk",
        "cause_of_leaving": "remains on board",
        "sign_with_mark": "n",
        "notes": "blk"
    },
    {
        "id": "vtls004612266_0_14",
        "type": "sailor",
        "parent": "vtls004612266",
        "name": "david williams",
        "dob": "blk",
        "age": "17",
        "place_of_birth": "aberystwyth",
        "home_address": "blk",
        "f": "blk",
        "name_of_ship": "anne",
        "ship_port": "aberystwyth",
        "date_leaving": "blk",
        "joined_ship_date": "blk",
        "joined_at_port": "blk",
        "capacity": "ordinary seaman",
        "date_left": "1867-02-20",
        "left_port": "porthmadog",
        "cause_of_leaving": "discharged",
        "sign_with_mark": "n",
        "notes": "blk"
    },
    {
        "id": "vtls004612266_0_16",
        "type": "sailor",
        "parent": "vtls004612266",
        "name": "william jones",
        "dob": "blk",
        "age": "27",
        "place_of_birth": "pwllheli",
        "home_address": "blk",
        "f": "blk",
        "name_of_ship": "may",
        "ship_port": "caernarvon ",
        "date_leaving": "1867-02-07",
        "joined_ship_date": "1867-04-16",
        "joined_at_port": "portmadoc",
        "capacity": "mate",
        "date_left": "blk",
        "left_port": "blk",
        "cause_of_leaving": "remains on board",
        "sign_with_mark": "n",
        "notes": "blk"
    },
    {
        "id": "vtls004612266_0_13",
        "type": "sailor",
        "parent": "vtls004612266",
        "name": "david lloyd",
        "dob": "blk",
        "age": "21",
        "place_of_birth": "solva",
        "home_address": "blk",
        "f": "blk",
        "name_of_ship": "anne",
        "ship_port": "aberystwyth",
        "date_leaving": "blk",
        "joined_ship_date": "blk",
        "joined_at_port": "blk",
        "capacity": "ordinary seaman",
        "date_left": "1867-02-20",
        "left_port": "porthmadog",
        "cause_of_leaving": "discharged",
        "sign_with_mark": "n",
        "notes": "blk"
    },
    {
        "id": "vtls004612266_0_12",
        "type": "sailor",
        "parent": "vtls004612266",
        "name": "hugh hughes",
        "dob": "blk",
        "age": "32",
        "place_of_birth": "aberystwyth",
        "home_address": "blk",
        "f": "blk",
        "name_of_ship": "anne",
        "ship_port": "aberystwyth",
        "date_leaving": "blk",
        "joined_ship_date": "blk",
        "joined_at_port": "blk",
        "capacity": "mate",
        "date_left": "1867-02-20",
        "left_port": "porthmadog",
        "cause_of_leaving": "discharged",
        "sign_with_mark": "n",
        "notes": "blk"
    },
    {
        "id": "vtls004612266_0_15",
        "type": "sailor",
        "parent": "vtls004612266",
        "name": "john jones",
        "dob": "blk",
        "age": "13",
        "place_of_birth": "aberdovey",
        "home_address": "blk",
        "f": "blk",
        "name_of_ship": "anne",
        "ship_port": "aberystwyth",
        "date_leaving": "blk",
        "joined_ship_date": "blk",
        "joined_at_port": "blk",
        "capacity": "boy",
        "date_left": "1867-02-20",
        "left_port": "porthmadog",
        "cause_of_leaving": "discharged",
        "sign_with_mark": "n",
        "notes": "blk"
    },
    {
        "id": "vtls004612247_1_15",
        "type": "sailor",
        "parent": "vtls004612247",
        "name": "david williams",
        "dob": "blk",
        "age": "15",
        "place_of_birth": "aberystwyth",
        "home_address": "blk",
        "f": "blk",
        "name_of_ship": "anne",
        "ship_port": "aberystwith ",
        "date_leaving": "blk",
        "joined_ship_date": "blk",
        "joined_at_port": "blk",
        "capacity": "boy",
        "date_left": "blk",
        "left_port": "blk",
        "cause_of_leaving": "remains on board",
        "sign_with_mark": "n",
        "notes": "blk"
    },
    {
        "id": "vtls004612266_1_15",
        "type": "sailor",
        "parent": "vtls004612266",
        "name": "william jones",
        "dob": "blk",
        "age": "15",
        "place_of_birth": "aberystwyth",
        "home_address": "blk",
        "f": "blk",
        "name_of_ship": "anne",
        "ship_port": "aberystwyth",
        "date_leaving": "1867-06-30",
        "joined_ship_date": "1867-07-01",
        "joined_at_port": "charlstown",
        "capacity": "boy",
        "date_left": "1867-09-20",
        "left_port": "hamburg, germany",
        "cause_of_leaving": "left\/deserted",
        "sign_with_mark": "n",
        "notes": "original reads harburg, an inland port to the south of hamburg but has been corrected to hamburg in logbook"
    },
    {
        "id": "vtls004612266_1_11",
        "type": "sailor",
        "parent": "vtls004612266",
        "name": "john hughes",
        "dob": "blk",
        "age": "36",
        "place_of_birth": "aberystwyth",
        "home_address": "harbour terrace, aberystwith ",
        "f": "harbour terrace, aberystwith ",
        "name_of_ship": "anne",
        "ship_port": "aberystwyth",
        "date_leaving": "1867-06-30",
        "joined_ship_date": "1867-07-01",
        "joined_at_port": "charlstown",
        "capacity": "master",
        "date_left": "blk",
        "left_port": "blk",
        "cause_of_leaving": "remains on board",
        "sign_with_mark": "n",
        "notes": "blk"
    },
    {
        "id": "vtls004612266_1_14",
        "type": "sailor",
        "parent": "vtls004612266",
        "name": "robert thomas",
        "dob": "blk",
        "age": "17",
        "place_of_birth": "pwllheli",
        "home_address": "blk",
        "f": "blk",
        "name_of_ship": "anne",
        "ship_port": "aberystwyth",
        "date_leaving": "1867-06-30",
        "joined_ship_date": "1867-07-01",
        "joined_at_port": "charlstown",
        "capacity": "ordinary seaman",
        "date_left": "1867-12",
        "left_port": "porthmadog",
        "cause_of_leaving": "paid off",
        "sign_with_mark": "n",
        "notes": "blk"
    },
    {
        "id": "vtls004612266_1_13",
        "type": "sailor",
        "parent": "vtls004612266",
        "name": "owen humphreys",
        "dob": "blk",
        "age": "19",
        "place_of_birth": "pwllheli",
        "home_address": "blk",
        "f": "blk",
        "name_of_ship": "anne",
        "ship_port": "aberystwyth",
        "date_leaving": "1867-06-30",
        "joined_ship_date": "1867-07-01",
        "joined_at_port": "charlstown",
        "capacity": "able seaman",
        "date_left": "1867-12",
        "left_port": "porthmadog",
        "cause_of_leaving": "paid off",
        "sign_with_mark": "n",
        "notes": "blk"
    },
    {
        "id": "vtls004612266_1_12",
        "type": "sailor",
        "parent": "vtls004612266",
        "name": "richard davies",
        "dob": "blk",
        "age": "58",
        "place_of_birth": "aberystwyth",
        "home_address": "blk",
        "f": "blk",
        "name_of_ship": "anne",
        "ship_port": "aberystwyth",
        "date_leaving": "1867-06-30",
        "joined_ship_date": "1867-07-01",
        "joined_at_port": "charlstown",
        "capacity": "mate",
        "date_left": "1867-12",
        "left_port": "porthmadog",
        "cause_of_leaving": "paid off",
        "sign_with_mark": "n",
        "notes": "blk"
    },
    {
        "id": "vtls004612302_0_11",
        "type": "sailor",
        "parent": "vtls004612302",
        "name": "john hughes",
        "dob": "blk",
        "age": "37",
        "place_of_birth": "cardigan",
        "home_address": "borth, portmadoc porthmadog ",
        "f": "borth, portmadoc porthmadog ",
        "name_of_ship": "anne",
        "ship_port": "aberystwyth",
        "date_leaving": "blk",
        "joined_ship_date": "blk",
        "joined_at_port": "blk",
        "capacity": "master",
        "date_left": "blk",
        "left_port": "blk",
        "cause_of_leaving": "remains on board",
        "sign_with_mark": "n",
        "notes": "blk"
    },
    {
        "id": "vtls004612266_0_19",
        "type": "sailor",
        "parent": "vtls004612266",
        "name": "william jones",
        "dob": "blk",
        "age": "13",
        "place_of_birth": "aberystwyth",
        "home_address": "blk",
        "f": "blk",
        "name_of_ship": "blk",
        "ship_port": "blk",
        "date_leaving": "blk",
        "joined_ship_date": "1867-04-20",
        "joined_at_port": "portmadoc",
        "capacity": "boy",
        "date_left": "blk",
        "left_port": "blk",
        "cause_of_leaving": "remains on board",
        "sign_with_mark": "n",
        "notes": "first ship"
    },
    {
        "id": "vtls004612302_0_14",
        "type": "sailor",
        "parent": "vtls004612302",
        "name": "william hughes",
        "dob": "blk",
        "age": "18",
        "place_of_birth": "caernarfon",
        "home_address": "blk",
        "f": "blk",
        "name_of_ship": "prince of wales",
        "ship_port": "caernarvon",
        "date_leaving": "1868-01",
        "joined_ship_date": "1868-02-10",
        "joined_at_port": "portmadoc",
        "capacity": "ordinary seaman",
        "date_left": "1868-05-18",
        "left_port": "porthmadog",
        "cause_of_leaving": "paid off",
        "sign_with_mark": "n",
        "notes": "blk"
    },
    {
        "id": "vtls004612302_0_13",
        "type": "sailor",
        "parent": "vtls004612302",
        "name": "owen humphreys",
        "dob": "blk",
        "age": "21",
        "place_of_birth": "caernarfon",
        "home_address": "blk",
        "f": "blk",
        "name_of_ship": "anne",
        "ship_port": "aberystwyth",
        "date_leaving": "1867-12-31",
        "joined_ship_date": "1868-02-10",
        "joined_at_port": "portmadoc",
        "capacity": "able seaman",
        "date_left": "1868-05-18",
        "left_port": "porthmadog",
        "cause_of_leaving": "paid off",
        "sign_with_mark": "n",
        "notes": "blk"
    },
    {
        "id": "vtls004612330_0_11",
        "type": "sailor",
        "parent": "vtls004612330",
        "name": "john hughes",
        "dob": "blk",
        "age": "38",
        "place_of_birth": "aberystwyth",
        "home_address": "borth, portmadoc ",
        "f": "borth, portmadoc ",
        "name_of_ship": "anne",
        "ship_port": "aberystwyth",
        "date_leaving": "1868-12-31",
        "joined_ship_date": "1869-01-01",
        "joined_at_port": "bristol",
        "capacity": "master",
        "date_left": "blk",
        "left_port": "blk",
        "cause_of_leaving": "remains on board",
        "sign_with_mark": "n",
        "notes": "blk"
    },
    {
        "id": "vtls004612330_0_14",
        "type": "sailor",
        "parent": "vtls004612330",
        "name": "robert harding",
        "dob": "blk",
        "age": "19",
        "place_of_birth": "london",
        "home_address": "blk",
        "f": "blk",
        "name_of_ship": "anne",
        "ship_port": "aberystwyth",
        "date_leaving": "1868-12-31",
        "joined_ship_date": "1869-01-01",
        "joined_at_port": "bristol",
        "capacity": "ordinary seaman",
        "date_left": "blk",
        "left_port": "blk",
        "cause_of_leaving": "remains on board",
        "sign_with_mark": "n",
        "notes": "blk"
    },
    {
        "id": "vtls004612330_0_12",
        "type": "sailor",
        "parent": "vtls004612330",
        "name": "w a evans",
        "dob": "blk",
        "age": "25",
        "place_of_birth": "milford, pembroke",
        "home_address": "blk",
        "f": "blk",
        "name_of_ship": "caradoc",
        "ship_port": "caernarvon ",
        "date_leaving": "1868-11-28",
        "joined_ship_date": "1869-01-01",
        "joined_at_port": "bristol",
        "capacity": "mate",
        "date_left": "blk",
        "left_port": "blk",
        "cause_of_leaving": "remains on board",
        "sign_with_mark": "n",
        "notes": "blk"
    },
    {
        "id": "vtls004612302_1_12",
        "type": "sailor",
        "parent": "vtls004612302",
        "name": "david morris",
        "dob": "blk",
        "age": "24",
        "place_of_birth": "portmadoc",
        "home_address": "blk",
        "f": "blk",
        "name_of_ship": "mary alice",
        "ship_port": "blk",
        "date_leaving": "1868-06-28",
        "joined_ship_date": "1868-07-28",
        "joined_at_port": "portmadoc",
        "capacity": "mate",
        "date_left": "blk",
        "left_port": "blk",
        "cause_of_leaving": "remains on board",
        "sign_with_mark": "n",
        "notes": "blk"
    },
    {
        "id": "vtls004612302_1_11",
        "type": "sailor",
        "parent": "vtls004612302",
        "name": "john hughes",
        "dob": "blk",
        "age": "36",
        "place_of_birth": "aberystwyth",
        "home_address": "portmadoc ",
        "f": "portmadoc ",
        "name_of_ship": "anne",
        "ship_port": "aberystwyth",
        "date_leaving": "blk",
        "joined_ship_date": "blk",
        "joined_at_port": "blk",
        "capacity": "master",
        "date_left": "blk",
        "left_port": "blk",
        "cause_of_leaving": "remains on board",
        "sign_with_mark": "n",
        "notes": "blk"
    },
    {
        "id": "vtls004612302_1_14",
        "type": "sailor",
        "parent": "vtls004612302",
        "name": "john jones",
        "dob": "blk",
        "age": "18",
        "place_of_birth": "cardiff",
        "home_address": "blk",
        "f": "blk",
        "name_of_ship": "anne",
        "ship_port": "aberystwyth",
        "date_leaving": "blk",
        "joined_ship_date": "blk",
        "joined_at_port": "blk",
        "capacity": "ordinary seaman",
        "date_left": "blk",
        "left_port": "blk",
        "cause_of_leaving": "remains on board",
        "sign_with_mark": "n",
        "notes": "blk"
    },
    {
        "id": "vtls004612302_1_15",
        "type": "sailor",
        "parent": "vtls004612302",
        "name": "john hughes",
        "dob": "blk",
        "age": "13",
        "place_of_birth": "portmadoc",
        "home_address": "blk",
        "f": "blk",
        "name_of_ship": "blk",
        "ship_port": "blk",
        "date_leaving": "blk",
        "joined_ship_date": "1868-07-30",
        "joined_at_port": "blk",
        "capacity": "boy",
        "date_left": "blk",
        "left_port": "blk",
        "cause_of_leaving": "remains on board",
        "sign_with_mark": "n",
        "notes": "blk"
    },
    {
        "id": "vtls004612330_1_13",
        "type": "sailor",
        "parent": "vtls004612330",
        "name": "henry framing",
        "dob": "blk",
        "age": "35",
        "place_of_birth": "volgast",
        "home_address": "blk",
        "f": "blk",
        "name_of_ship": "edith",
        "ship_port": "port madoc ",
        "date_leaving": "1869-07-02",
        "joined_ship_date": "1869-08-04",
        "joined_at_port": "portmadoc",
        "capacity": "able seaman",
        "date_left": "blk",
        "left_port": "blk",
        "cause_of_leaving": "remains on board",
        "sign_with_mark": "n",
        "notes": "volgast could be velgast, germany"
    },
    {
        "id": "vtls004612330_1_14",
        "type": "sailor",
        "parent": "vtls004612330",
        "name": "john roberts",
        "dob": "blk",
        "age": "19",
        "place_of_birth": "aberystwyth",
        "home_address": "blk",
        "f": "blk",
        "name_of_ship": "ystwith",
        "ship_port": "aberystwith ",
        "date_leaving": "1869-07-10",
        "joined_ship_date": "1869-08-04",
        "joined_at_port": "portmadoc",
        "capacity": "ordinary seaman",
        "date_left": "blk",
        "left_port": "blk",
        "cause_of_leaving": "remains on board",
        "sign_with_mark": "n",
        "notes": "blk"
    },
    {
        "id": "vtls004612330_1_12",
        "type": "sailor",
        "parent": "vtls004612330",
        "name": "richard jones",
        "dob": "blk",
        "age": "50",
        "place_of_birth": "aberystwyth",
        "home_address": "blk",
        "f": "blk",
        "name_of_ship": "john & margaret",
        "ship_port": "aberystwith ",
        "date_leaving": "1869-07-05",
        "joined_ship_date": "1869-08-04",
        "joined_at_port": "portmadoc",
        "capacity": "mate",
        "date_left": "blk",
        "left_port": "blk",
        "cause_of_leaving": "remains on board",
        "sign_with_mark": "n",
        "notes": "blk"
    },
    {
        "id": "vtls004612330_1_11",
        "type": "sailor",
        "parent": "vtls004612330",
        "name": "john hughes",
        "dob": "blk",
        "age": "38",
        "place_of_birth": "aberystwyth",
        "home_address": "aberystwith aberystwyth",
        "f": "aberystwith aberystwyth",
        "name_of_ship": "anne",
        "ship_port": "aberystwyth",
        "date_leaving": "blk",
        "joined_ship_date": "1869-08-04",
        "joined_at_port": "portmadoc",
        "capacity": "master",
        "date_left": "blk",
        "left_port": "blk",
        "cause_of_leaving": "remains on board",
        "sign_with_mark": "n",
        "notes": "blk"
    },
    {
        "id": "vtls004612341_0_11",
        "type": "sailor",
        "parent": "vtls004612341",
        "name": "john hughes",
        "dob": "blk",
        "age": "38",
        "place_of_birth": "caernarfon",
        "home_address": "borth, portmadoc",
        "f": "borth, portmadoc",
        "name_of_ship": "anne",
        "ship_port": "aberystwyth",
        "date_leaving": "blk",
        "joined_ship_date": "1871-02-28",
        "joined_at_port": "portmadoc",
        "capacity": "master",
        "date_left": "blk",
        "left_port": "blk",
        "cause_of_leaving": "remains on board",
        "sign_with_mark": "n",
        "notes": "blk"
    },
    {
        "id": "vtls004612330_0_15",
        "type": "sailor",
        "parent": "vtls004612330",
        "name": "john hughes",
        "dob": "blk",
        "age": "15",
        "place_of_birth": "pormadoc",
        "home_address": "blk",
        "f": "blk",
        "name_of_ship": "anne",
        "ship_port": "aberystwyth",
        "date_leaving": "1868-12-31",
        "joined_ship_date": "1869-01-01",
        "joined_at_port": "bristol",
        "capacity": "boy",
        "date_left": "blk",
        "left_port": "blk",
        "cause_of_leaving": "remains on board",
        "sign_with_mark": "n",
        "notes": "blk"
    },
    {
        "id": "vtls004612330_1_15",
        "type": "sailor",
        "parent": "vtls004612330",
        "name": "edward griffiths",
        "dob": "blk",
        "age": "13",
        "place_of_birth": "portmadoc",
        "home_address": "blk",
        "f": "blk",
        "name_of_ship": "blk",
        "ship_port": "blk",
        "date_leaving": "blk",
        "joined_ship_date": "1869-08-05",
        "joined_at_port": "portmadoc",
        "capacity": "boy",
        "date_left": "blk",
        "left_port": "blk",
        "cause_of_leaving": "remains on board",
        "sign_with_mark": "n",
        "notes": "blk"
    },
    {
        "id": "vtls004612341_1_14",
        "type": "sailor",
        "parent": "vtls004612341",
        "name": "john hughes",
        "dob": "blk",
        "age": "16",
        "place_of_birth": "aberystwyth",
        "home_address": "blk",
        "f": "blk",
        "name_of_ship": "elenor francis",
        "ship_port": "aberystwith ",
        "date_leaving": "1871-07-25",
        "joined_ship_date": "1871-08-22",
        "joined_at_port": "portmadoc",
        "capacity": "ordinary seaman",
        "date_left": "blk",
        "left_port": "blk",
        "cause_of_leaving": "remains on board",
        "sign_with_mark": "n",
        "notes": "last ship, elenor francis, shipwrecked near lisbon."
    },
    {
        "id": "vtls004612341_1_13",
        "type": "sailor",
        "parent": "vtls004612341",
        "name": "william jones",
        "dob": "blk",
        "age": "35",
        "place_of_birth": "pwllheli $ wales",
        "home_address": "blk",
        "f": "blk",
        "name_of_ship": "ann jones",
        "ship_port": "carnarvon ",
        "date_leaving": "1871-08-20",
        "joined_ship_date": "1871-08-22",
        "joined_at_port": "portmadoc",
        "capacity": "able seaman",
        "date_left": "blk",
        "left_port": "blk",
        "cause_of_leaving": "remains on board",
        "sign_with_mark": "y",
        "notes": "blk"
    },
    {
        "id": "vtls004612341_0_13",
        "type": "sailor",
        "parent": "vtls004612341",
        "name": "william jenkins",
        "dob": "blk",
        "age": "28",
        "place_of_birth": "aberystwyth",
        "home_address": "blk",
        "f": "blk",
        "name_of_ship": "topaz",
        "ship_port": "carnarvon",
        "date_leaving": "1871-01-10",
        "joined_ship_date": "1871-02-28",
        "joined_at_port": "portmadoc",
        "capacity": "able seaman",
        "date_left": "blk",
        "left_port": "blk",
        "cause_of_leaving": "remains on board",
        "sign_with_mark": "y",
        "notes": "blk"
    },
    {
        "id": "vtls004612341_0_14",
        "type": "sailor",
        "parent": "vtls004612341",
        "name": "robert price",
        "dob": "blk",
        "age": "17",
        "place_of_birth": "caernarfon",
        "home_address": "blk",
        "f": "blk",
        "name_of_ship": "mary day",
        "ship_port": "beaumaris",
        "date_leaving": "1871-01-10",
        "joined_ship_date": "1871-02-28",
        "joined_at_port": "portmadoc",
        "capacity": "ordinary seaman",
        "date_left": "blk",
        "left_port": "blk",
        "cause_of_leaving": "remains on board",
        "sign_with_mark": "y",
        "notes": "blk"
    },
    {
        "id": "vtls004612341_1_12",
        "type": "sailor",
        "parent": "vtls004612341",
        "name": "john owen",
        "dob": "blk",
        "age": "30",
        "place_of_birth": "borth, portmadoc",
        "home_address": "blk",
        "f": "blk",
        "name_of_ship": "alice chamney",
        "ship_port": "carnarvon ",
        "date_leaving": "1871-08-06",
        "joined_ship_date": "1871-08-21",
        "joined_at_port": "portmadoc",
        "capacity": "mate",
        "date_left": "blk",
        "left_port": "blk",
        "cause_of_leaving": "remains on board",
        "sign_with_mark": "n",
        "notes": "blk"
    },
    {
        "id": "vtls004612341_0_15",
        "type": "sailor",
        "parent": "vtls004612341",
        "name": "richard griffiths",
        "dob": "blk",
        "age": "14",
        "place_of_birth": "portmadoc",
        "home_address": "blk",
        "f": "blk",
        "name_of_ship": "mary day",
        "ship_port": "beaumaris",
        "date_leaving": "1871-01-10",
        "joined_ship_date": "1871-02-28",
        "joined_at_port": "portmadoc",
        "capacity": "boy",
        "date_left": "blk",
        "left_port": "blk",
        "cause_of_leaving": "remains on board",
        "sign_with_mark": "n",
        "notes": "blk"
    },
    {
        "id": "vtls004612341_1_11",
        "type": "sailor",
        "parent": "vtls004612341",
        "name": "john hughes",
        "dob": "blk",
        "age": "blk",
        "place_of_birth": "borth, portmadoc",
        "home_address": "borth, portmadoc ",
        "f": "borth, portmadoc ",
        "name_of_ship": "anne",
        "ship_port": "aberystwyth",
        "date_leaving": "blk",
        "joined_ship_date": "blk",
        "joined_at_port": "blk",
        "capacity": "master",
        "date_left": "blk",
        "left_port": "blk",
        "cause_of_leaving": "remains on board",
        "sign_with_mark": "n",
        "notes": "blk"
    },
    {
        "id": "vtls004612341_0_12",
        "type": "sailor",
        "parent": "vtls004612341",
        "name": "richard jones",
        "dob": "blk",
        "age": "54",
        "place_of_birth": "aberystwyth",
        "home_address": "blk",
        "f": "blk",
        "name_of_ship": "anne",
        "ship_port": "aberystwyth",
        "date_leaving": "blk",
        "joined_ship_date": "1871-02-28",
        "joined_at_port": "portmadoc",
        "capacity": "mate",
        "date_left": "blk",
        "left_port": "blk",
        "cause_of_leaving": "remains on board",
        "sign_with_mark": "y",
        "notes": "blk"
    },
    {
        "id": "vtls004612341_1_15",
        "type": "sailor",
        "parent": "vtls004612341",
        "name": "morris evans",
        "dob": "blk",
        "age": "14",
        "place_of_birth": "portmadoc",
        "home_address": "blk",
        "f": "blk",
        "name_of_ship": "blk",
        "ship_port": "blk",
        "date_leaving": "blk",
        "joined_ship_date": "1871-08-22",
        "joined_at_port": "portmadoc",
        "capacity": "boy",
        "date_left": "blk",
        "left_port": "blk",
        "cause_of_leaving": "remains on board",
        "sign_with_mark": "n",
        "notes": "first voyage."
    },
    {
        "id": "vtls004612355_1_11",
        "type": "sailor",
        "parent": "vtls004612355",
        "name": "john hughes",
        "dob": "blk",
        "age": "43",
        "place_of_birth": "aberystwyth",
        "home_address": "30 little darkgate street, aberystwyth",
        "f": "30 little darkgate street, aberystwyth",
        "name_of_ship": "anne",
        "ship_port": "aberystwyth",
        "date_leaving": "1872-04-25",
        "joined_ship_date": "1872-07-20",
        "joined_at_port": "aberystwyth",
        "capacity": "master",
        "date_left": "1872-12-07",
        "left_port": "fishguard",
        "cause_of_leaving": "discharged vessel lost",
        "sign_with_mark": "n",
        "notes": "accompanying letter states that the anne was 'lost on the voyage from saundersfoot to drogheda december 7th 1872'."
    },
    {
        "id": "vtls004612355_0_17",
        "type": "sailor",
        "parent": "vtls004612355",
        "name": "john hughes",
        "dob": "blk",
        "age": "43",
        "place_of_birth": "aberystwyth",
        "home_address": "little darkgate street, aberystwyth",
        "f": "little darkgate street, aberystwyth",
        "name_of_ship": "anne",
        "ship_port": "aberystwyth",
        "date_leaving": "1872-04-25",
        "joined_ship_date": "1872-06-26",
        "joined_at_port": "holyhead",
        "capacity": "master",
        "date_left": "blk",
        "left_port": "blk",
        "cause_of_leaving": "remains on board",
        "sign_with_mark": "n",
        "notes": "blk"
    },
    {
        "id": "vtls004612355_0_11",
        "type": "sailor",
        "parent": "vtls004612355",
        "name": "john hughes",
        "dob": "blk",
        "age": "43",
        "place_of_birth": "aberystwyth",
        "home_address": "little darkgate street, aberystwyth",
        "f": "little darkgate street, aberystwyth",
        "name_of_ship": "anne",
        "ship_port": "aberystwyth",
        "date_leaving": "blk",
        "joined_ship_date": "1871-12-31",
        "joined_at_port": "blk",
        "capacity": "master",
        "date_left": "1872-04-25",
        "left_port": "swansea",
        "cause_of_leaving": "discharged",
        "sign_with_mark": "n",
        "notes": "blk"
    },
    {
        "id": "vtls004612355_0_14",
        "type": "sailor",
        "parent": "vtls004612355",
        "name": "william davies",
        "dob": "blk",
        "age": "15",
        "place_of_birth": "aberystwyth",
        "home_address": "blk",
        "f": "blk",
        "name_of_ship": "anne",
        "ship_port": "aberystwyth",
        "date_leaving": "blk",
        "joined_ship_date": "1871-12-31",
        "joined_at_port": "blk",
        "capacity": "ordinary seaman",
        "date_left": "1872-07-12",
        "left_port": "aberystwyth",
        "cause_of_leaving": "discharged",
        "sign_with_mark": "n",
        "notes": "blk"
    },
    {
        "id": "vtls004612355_0_16",
        "type": "sailor",
        "parent": "vtls004612355",
        "name": "lewies jones",
        "dob": "blk",
        "age": "22",
        "place_of_birth": "aberystwyth",
        "home_address": "blk",
        "f": "blk",
        "name_of_ship": "helena",
        "ship_port": "blk",
        "date_leaving": "1872-04-22",
        "joined_ship_date": "1872-04-25",
        "joined_at_port": "swansea",
        "capacity": "master",
        "date_left": "1872-06-26",
        "left_port": "holyhead",
        "cause_of_leaving": "discharged",
        "sign_with_mark": "n",
        "notes": "blk"
    },
    {
        "id": "vtls004612355_0_13",
        "type": "sailor",
        "parent": "vtls004612355",
        "name": "john evans",
        "dob": "blk",
        "age": "42",
        "place_of_birth": "aberystwyth",
        "home_address": "blk",
        "f": "blk",
        "name_of_ship": "anne",
        "ship_port": "aberystwyth",
        "date_leaving": "blk",
        "joined_ship_date": "1871-12-31",
        "joined_at_port": "blk",
        "capacity": "able seaman",
        "date_left": "1872-07-12",
        "left_port": "aberystwyth",
        "cause_of_leaving": "discharged",
        "sign_with_mark": "n",
        "notes": "blk"
    },
    {
        "id": "vtls004612355_0_12",
        "type": "sailor",
        "parent": "vtls004612355",
        "name": "william jones",
        "dob": "blk",
        "age": "35",
        "place_of_birth": "pwllheli",
        "home_address": "blk",
        "f": "blk",
        "name_of_ship": "anne",
        "ship_port": "aberystwyth",
        "date_leaving": "blk",
        "joined_ship_date": "1871-12-31",
        "joined_at_port": "blk",
        "capacity": "mate",
        "date_left": "1872-07-12",
        "left_port": "aberystwyth",
        "cause_of_leaving": "discharged",
        "sign_with_mark": "n",
        "notes": "blk"
    },
    {
        "id": "vtls004612355_0_15",
        "type": "sailor",
        "parent": "vtls004612355",
        "name": "morris evans",
        "dob": "blk",
        "age": "14",
        "place_of_birth": "portmadoc",
        "home_address": "blk",
        "f": "blk",
        "name_of_ship": "anne",
        "ship_port": "aberystwyth",
        "date_leaving": "blk",
        "joined_ship_date": "1871-12-31",
        "joined_at_port": "blk",
        "capacity": "boy",
        "date_left": "blk",
        "left_port": "blk",
        "cause_of_leaving": "remains on board",
        "sign_with_mark": "n",
        "notes": "blk"
    },
    {
        "id": "vtls004612355_1_13",
        "type": "sailor",
        "parent": "vtls004612355",
        "name": "richard roberts",
        "dob": "blk",
        "age": "20",
        "place_of_birth": "aberystwyth",
        "home_address": "blk",
        "f": "blk",
        "name_of_ship": "blk",
        "ship_port": "blk",
        "date_leaving": "blk",
        "joined_ship_date": "1872-07-20",
        "joined_at_port": "aberystwyth",
        "capacity": "able seaman",
        "date_left": "1872-12-07",
        "left_port": "fishguard",
        "cause_of_leaving": "discharged",
        "sign_with_mark": "n",
        "notes": "blk"
    },
    {
        "id": "vtls004612355_1_12",
        "type": "sailor",
        "parent": "vtls004612355",
        "name": "john roberts",
        "dob": "blk",
        "age": "23",
        "place_of_birth": "aberystwyth",
        "home_address": "blk",
        "f": "blk",
        "name_of_ship": "blk",
        "ship_port": "blk",
        "date_leaving": "blk",
        "joined_ship_date": "1872-07-20",
        "joined_at_port": "aberystwyth",
        "capacity": "mate",
        "date_left": "1872-12-07",
        "left_port": "fishguard",
        "cause_of_leaving": "discharged",
        "sign_with_mark": "n",
        "notes": "blk"
    },
    {
        "id": "vtls004612355_1_14",
        "type": "sailor",
        "parent": "vtls004612355",
        "name": "morris evans",
        "dob": "blk",
        "age": "17",
        "place_of_birth": "portmadoc",
        "home_address": "blk",
        "f": "blk",
        "name_of_ship": "blk",
        "ship_port": "blk",
        "date_leaving": "blk",
        "joined_ship_date": "1872-07-20",
        "joined_at_port": "aberystwyth",
        "capacity": "ordinary seaman",
        "date_left": "1872-12-07",
        "left_port": "fishguard",
        "cause_of_leaving": "discharged",
        "sign_with_mark": "n",
        "notes": ""
    }
]