[
    {
        "id": "vtls004924105_0_11",
        "type": "sailor",
        "parent": "vtls004924105",
        "name": "david daniel",
        "dob": "blk",
        "age": "34",
        "place_of_birth": "borth",
        "home_address": "blk",
        "f": "blk",
        "name_of_ship": "mary jane",
        "ship_port": "aberystwyth",
        "date_leaving": "remain",
        "joined_ship_date": "1873-07",
        "joined_at_port": "aberdovey",
        "capacity": "master",
        "date_left": "blk",
        "left_port": "blk",
        "cause_of_leaving": "remains on board",
        "sign_with_mark": "n",
        "notes": "account for jan - june 1873"
    },
    {
        "id": "vtls004924109_0_11",
        "type": "sailor",
        "parent": "vtls004924109",
        "name": "david daniel",
        "dob": "blk",
        "age": "34",
        "place_of_birth": "borth, cardigan",
        "home_address": "blk",
        "f": "blk",
        "name_of_ship": "mary jane",
        "ship_port": "aberystwyth",
        "date_leaving": "remaining",
        "joined_ship_date": "1869",
        "joined_at_port": "aberdovey",
        "capacity": "master",
        "date_left": "blk",
        "left_port": "blk",
        "cause_of_leaving": "remains on board",
        "sign_with_mark": "n",
        "notes": "account for jan- june 1874"
    },
    {
        "id": "vtls004924105_1_14",
        "type": "sailor",
        "parent": "vtls004924105",
        "name": "jenkin evans",
        "dob": "blk",
        "age": "15",
        "place_of_birth": "llangrannog, county cardigan",
        "home_address": "blk",
        "f": "blk",
        "name_of_ship": "mary jane",
        "ship_port": "aberystwyth",
        "date_leaving": "blk",
        "joined_ship_date": "1873-05-06",
        "joined_at_port": "aberdovey",
        "capacity": "boy",
        "date_left": "1873-10-07",
        "left_port": "aberdovey",
        "cause_of_leaving": "discharged",
        "sign_with_mark": "n",
        "notes": "blk"
    },
    {
        "id": "vtls004924105_1_12",
        "type": "sailor",
        "parent": "vtls004924105",
        "name": "richard lewis",
        "dob": "blk",
        "age": "64",
        "place_of_birth": "borth, cardiganshire",
        "home_address": "blk",
        "f": "blk",
        "name_of_ship": "mary jane",
        "ship_port": "aberystwyth",
        "date_leaving": "blk",
        "joined_ship_date": "1873-05-06",
        "joined_at_port": "aberdovey",
        "capacity": "mate",
        "date_left": "1873-12-29",
        "left_port": "aberdovey",
        "cause_of_leaving": "discharged",
        "sign_with_mark": "n",
        "notes": "blk"
    },
    {
        "id": "vtls004924109_0_12",
        "type": "sailor",
        "parent": "vtls004924109",
        "name": "richard lewis",
        "dob": "blk",
        "age": "64",
        "place_of_birth": "borth, cardigan",
        "home_address": "blk",
        "f": "blk",
        "name_of_ship": "mary jane",
        "ship_port": "aberystwyth",
        "date_leaving": "remaining",
        "joined_ship_date": "1873-03-06",
        "joined_at_port": "aberdovey",
        "capacity": "mate",
        "date_left": "blk",
        "left_port": "blk",
        "cause_of_leaving": "remains on board",
        "sign_with_mark": "n",
        "notes": "blk"
    },
    {
        "id": "vtls004924105_1_13",
        "type": "sailor",
        "parent": "vtls004924105",
        "name": "robert williams",
        "dob": "blk",
        "age": "16",
        "place_of_birth": "caernarfon",
        "home_address": "blk",
        "f": "blk",
        "name_of_ship": "mary jane",
        "ship_port": "aberystwyth",
        "date_leaving": "blk",
        "joined_ship_date": "1873-11-06",
        "joined_at_port": "aberdovey",
        "capacity": "boy",
        "date_left": "1873-12-29",
        "left_port": "aberdovey",
        "cause_of_leaving": "discharged",
        "sign_with_mark": "n",
        "notes": "blk"
    },
    {
        "id": "vtls004924105_1_11",
        "type": "sailor",
        "parent": "vtls004924105",
        "name": "david daniel",
        "dob": "blk",
        "age": "35",
        "place_of_birth": "borth, cardiganshire",
        "home_address": "blk",
        "f": "blk",
        "name_of_ship": "mary jane",
        "ship_port": "aberystwyth",
        "date_leaving": "blk",
        "joined_ship_date": "1869",
        "joined_at_port": "aberdovey",
        "capacity": "master",
        "date_left": "blk",
        "left_port": "blk",
        "cause_of_leaving": "remains on board",
        "sign_with_mark": "n",
        "notes": "blk"
    },
    {
        "id": "vtls004924105_0_12",
        "type": "sailor",
        "parent": "vtls004924105",
        "name": "richard lewis",
        "dob": "blk",
        "age": "63",
        "place_of_birth": "borth",
        "home_address": "blk",
        "f": "blk",
        "name_of_ship": "resolute",
        "ship_port": "aberystwyth",
        "date_leaving": "1873-04",
        "joined_ship_date": "1873-05-06",
        "joined_at_port": "aberdovey",
        "capacity": "mate",
        "date_left": "blk",
        "left_port": "blk",
        "cause_of_leaving": "remains on board",
        "sign_with_mark": "n",
        "notes": "blk"
    },
    {
        "id": "vtls004924109_0_13",
        "type": "sailor",
        "parent": "vtls004924109",
        "name": "david jones",
        "dob": "blk",
        "age": "15",
        "place_of_birth": "borth, cardigan",
        "home_address": "blk",
        "f": "blk",
        "name_of_ship": "first ship",
        "ship_port": "blk",
        "date_leaving": "remaining",
        "joined_ship_date": "1874-12",
        "joined_at_port": "aberdovey",
        "capacity": "boy",
        "date_left": "blk",
        "left_port": "blk",
        "cause_of_leaving": "remains on board",
        "sign_with_mark": "n",
        "notes": "blk"
    },
    {
        "id": "vtls004924105_0_13",
        "type": "sailor",
        "parent": "vtls004924105",
        "name": "david evans",
        "dob": "blk",
        "age": "15",
        "place_of_birth": "borth",
        "home_address": "blk",
        "f": "blk",
        "name_of_ship": "amity",
        "ship_port": "aberystwyth",
        "date_leaving": "1873-05",
        "joined_ship_date": "1873-05-06",
        "joined_at_port": "aberdovey",
        "capacity": "boy",
        "date_left": "blk",
        "left_port": "blk",
        "cause_of_leaving": "remains on board",
        "sign_with_mark": "n",
        "notes": "blk"
    },
    {
        "id": "vtls004924112_0_11",
        "type": "sailor",
        "parent": "vtls004924112",
        "name": "david daniel",
        "dob": "blk",
        "age": "36",
        "place_of_birth": "borth",
        "home_address": "blk",
        "f": "blk",
        "name_of_ship": "mary jane",
        "ship_port": "aberystwyth",
        "date_leaving": "remains",
        "joined_ship_date": "1876--01-01",
        "joined_at_port": "pwllheli",
        "capacity": "master",
        "date_left": "blk",
        "left_port": "blk",
        "cause_of_leaving": "remains on board",
        "sign_with_mark": "n",
        "notes": "account for jan - june 1876"
    },
    {
        "id": "vtls004924109_1_11",
        "type": "sailor",
        "parent": "vtls004924109",
        "name": "david daniel",
        "dob": "blk",
        "age": "36",
        "place_of_birth": "borth, cardigan",
        "home_address": "blk",
        "f": "blk",
        "name_of_ship": "mary jane",
        "ship_port": "aberystwyth",
        "date_leaving": "blk",
        "joined_ship_date": "1869",
        "joined_at_port": "bangor",
        "capacity": "master",
        "date_left": "blk",
        "left_port": "blk",
        "cause_of_leaving": "remains on board",
        "sign_with_mark": "n",
        "notes": "account for july - dec 1874"
    },
    {
        "id": "vtls004924109_1_13",
        "type": "sailor",
        "parent": "vtls004924109",
        "name": "richard jenkins",
        "dob": "blk",
        "age": "50",
        "place_of_birth": "borth, cardigan",
        "home_address": "blk",
        "f": "blk",
        "name_of_ship": "[jenny] jones",
        "ship_port": "blk",
        "date_leaving": "1874-09-01",
        "joined_ship_date": "1874-09-10",
        "joined_at_port": "aberdovey",
        "capacity": "mate",
        "date_left": "1874-12-12",
        "left_port": "aberdovey",
        "cause_of_leaving": "discharged",
        "sign_with_mark": "n",
        "notes": "blk"
    },
    {
        "id": "vtls004924109_1_14",
        "type": "sailor",
        "parent": "vtls004924109",
        "name": "david jones",
        "dob": "blk",
        "age": "15",
        "place_of_birth": "borth, cardigan",
        "home_address": "blk",
        "f": "blk",
        "name_of_ship": "mary jane",
        "ship_port": "aberystwyth",
        "date_leaving": "blk",
        "joined_ship_date": "1874-06-01",
        "joined_at_port": "aberdovey",
        "capacity": "boy",
        "date_left": "1874-12-12",
        "left_port": "aberdovey",
        "cause_of_leaving": "discharged",
        "sign_with_mark": "n",
        "notes": "blk"
    },
    {
        "id": "vtls004924112_0_12",
        "type": "sailor",
        "parent": "vtls004924112",
        "name": "thomas jones",
        "dob": "blk",
        "age": "68",
        "place_of_birth": "caernarfon",
        "home_address": "blk",
        "f": "blk",
        "name_of_ship": "mary jane",
        "ship_port": "aberystwyth",
        "date_leaving": "remains",
        "joined_ship_date": "1876--01-01",
        "joined_at_port": "pwllheli",
        "capacity": "boatswain",
        "date_left": "blk",
        "left_port": "blk",
        "cause_of_leaving": "remains on board",
        "sign_with_mark": "n",
        "notes": "blk"
    },
    {
        "id": "vtls004924109_1_12",
        "type": "sailor",
        "parent": "vtls004924109",
        "name": "richard lewis",
        "dob": "blk",
        "age": "66",
        "place_of_birth": "borth, cardigan",
        "home_address": "blk",
        "f": "blk",
        "name_of_ship": "mary jane",
        "ship_port": "aberystwyth",
        "date_leaving": "blk",
        "joined_ship_date": "1872",
        "joined_at_port": "aberdovey",
        "capacity": "mate",
        "date_left": "1874-09-10",
        "left_port": "aberdovey",
        "cause_of_leaving": "discharged",
        "sign_with_mark": "n",
        "notes": "blk"
    },
    {
        "id": "vtls004924112_0_13",
        "type": "sailor",
        "parent": "vtls004924112",
        "name": "morgan griffith",
        "dob": "blk",
        "age": "14",
        "place_of_birth": "caernarfon",
        "home_address": "blk",
        "f": "blk",
        "name_of_ship": "mary jane",
        "ship_port": "aberystwyth",
        "date_leaving": "remains",
        "joined_ship_date": "1876--01-01",
        "joined_at_port": "pwllheli",
        "capacity": "cook",
        "date_left": "blk",
        "left_port": "blk",
        "cause_of_leaving": "remains on board",
        "sign_with_mark": "n",
        "notes": "blk"
    },
    {
        "id": "vtls004924115_1_11",
        "type": "sailor",
        "parent": "vtls004924115",
        "name": "david daniel",
        "dob": "blk",
        "age": "35",
        "place_of_birth": "borth, cardigan",
        "home_address": "blk",
        "f": "blk",
        "name_of_ship": "mary jane",
        "ship_port": "aberystwyth",
        "date_leaving": "continues",
        "joined_ship_date": "continues",
        "joined_at_port": "continues",
        "capacity": "master",
        "date_left": "1877-12-31",
        "left_port": "porthmadog",
        "cause_of_leaving": "remains on board",
        "sign_with_mark": "n",
        "notes": "account for july - dec 1877"
    },
    {
        "id": "vtls004924115_1_12",
        "type": "sailor",
        "parent": "vtls004924115",
        "name": "john morris",
        "dob": "blk",
        "age": "22",
        "place_of_birth": "borth, cardigan",
        "home_address": "blk",
        "f": "blk",
        "name_of_ship": "mary jane",
        "ship_port": "aberystwyth",
        "date_leaving": "continues",
        "joined_ship_date": "continues",
        "joined_at_port": "continues",
        "capacity": "mate",
        "date_left": "1877-12-31",
        "left_port": "porthmadog",
        "cause_of_leaving": "remains on board",
        "sign_with_mark": "n",
        "notes": "blk"
    },
    {
        "id": "vtls004924115_0_12",
        "type": "sailor",
        "parent": "vtls004924115",
        "name": "richard williams",
        "dob": "blk",
        "age": "45",
        "place_of_birth": "borth",
        "home_address": "blk",
        "f": "blk",
        "name_of_ship": "elizabeth & margaret",
        "ship_port": "aberystwyth",
        "date_leaving": "1877-04-24",
        "joined_ship_date": "1877-05-03",
        "joined_at_port": "aberdovey",
        "capacity": "mate",
        "date_left": "blk",
        "left_port": "blk",
        "cause_of_leaving": "remains on board",
        "sign_with_mark": "n",
        "notes": "blk"
    },
    {
        "id": "vtls004924112_1_13",
        "type": "sailor",
        "parent": "vtls004924112",
        "name": "morgan griffiths",
        "dob": "blk",
        "age": "16",
        "place_of_birth": "criccieth",
        "home_address": "blk",
        "f": "blk",
        "name_of_ship": "mary jane",
        "ship_port": "aberystwyth",
        "date_leaving": "remaining",
        "joined_ship_date": "1876-03-01",
        "joined_at_port": "portmadoc",
        "capacity": "boy",
        "date_left": "1876-12-08",
        "left_port": "aberdovey",
        "cause_of_leaving": "discharged",
        "sign_with_mark": "n",
        "notes": "blk"
    },
    {
        "id": "vtls004924115_0_11",
        "type": "sailor",
        "parent": "vtls004924115",
        "name": "david daniel",
        "dob": "blk",
        "age": "37",
        "place_of_birth": "borth",
        "home_address": "blk",
        "f": "blk",
        "name_of_ship": "mary jane",
        "ship_port": "aberystwyth",
        "date_leaving": "remaining",
        "joined_ship_date": "1869",
        "joined_at_port": "cardiff",
        "capacity": "master",
        "date_left": "blk",
        "left_port": "blk",
        "cause_of_leaving": "remains on board",
        "sign_with_mark": "n",
        "notes": "account for jan - june 1877"
    },
    {
        "id": "vtls004924115_0_13",
        "type": "sailor",
        "parent": "vtls004924115",
        "name": "richard james",
        "dob": "blk",
        "age": "16",
        "place_of_birth": "taliesin",
        "home_address": "blk",
        "f": "blk",
        "name_of_ship": "roebuck",
        "ship_port": "sunderland",
        "date_leaving": "1876",
        "joined_ship_date": "1877-05-03",
        "joined_at_port": "aberdovey",
        "capacity": "ordinary seaman",
        "date_left": "blk",
        "left_port": "blk",
        "cause_of_leaving": "remains on board",
        "sign_with_mark": "n",
        "notes": "blk"
    },
    {
        "id": "vtls004924112_1_11",
        "type": "sailor",
        "parent": "vtls004924112",
        "name": "david daniel",
        "dob": "blk",
        "age": "37",
        "place_of_birth": "borth",
        "home_address": "blk",
        "f": "blk",
        "name_of_ship": "mary jane",
        "ship_port": "aberystwyth",
        "date_leaving": "remaining",
        "joined_ship_date": "1869-07-14",
        "joined_at_port": "cardiff",
        "capacity": "master",
        "date_left": "blk",
        "left_port": "blk",
        "cause_of_leaving": "remains on board",
        "sign_with_mark": "n",
        "notes": "blk"
    },
    {
        "id": "vtls004924112_1_14",
        "type": "sailor",
        "parent": "vtls004924112",
        "name": "john jenkins",
        "dob": "blk",
        "age": "27",
        "place_of_birth": "borth",
        "home_address": "blk",
        "f": "blk",
        "name_of_ship": "lorne",
        "ship_port": "aberystwyth",
        "date_leaving": "1876",
        "joined_ship_date": "1876-09-19",
        "joined_at_port": "portmadoc",
        "capacity": "mate",
        "date_left": "1876-12-08",
        "left_port": "aberdovey",
        "cause_of_leaving": "discharged",
        "sign_with_mark": "n",
        "notes": "blk"
    },
    {
        "id": "vtls004924112_1_12",
        "type": "sailor",
        "parent": "vtls004924112",
        "name": "ellis jones",
        "dob": "blk",
        "age": "33",
        "place_of_birth": "pwllheli",
        "home_address": "blk",
        "f": "blk",
        "name_of_ship": "star",
        "ship_port": "caernafon",
        "date_leaving": "1876",
        "joined_ship_date": "1876-07-20",
        "joined_at_port": "bristol",
        "capacity": "mate",
        "date_left": "1876-09-18",
        "left_port": "porthmadog",
        "cause_of_leaving": "discharged",
        "sign_with_mark": "n",
        "notes": "blk"
    },
    {
        "id": "vtls004924123_0_11",
        "type": "sailor",
        "parent": "vtls004924123",
        "name": "david daniels",
        "dob": "blk",
        "age": "36",
        "place_of_birth": "borth, cardiganshire",
        "home_address": "blk",
        "f": "blk",
        "name_of_ship": "mary jane",
        "ship_port": "aberystwyth",
        "date_leaving": "continues",
        "joined_ship_date": "continues",
        "joined_at_port": "continues",
        "capacity": "master",
        "date_left": "blk",
        "left_port": "blk",
        "cause_of_leaving": "remains on board",
        "sign_with_mark": "n",
        "notes": "account for jan - june 1878"
    },
    {
        "id": "vtls004924223_0_13",
        "type": "sailor",
        "parent": "vtls004924223",
        "name": "richard brigges",
        "dob": "blk",
        "age": "15",
        "place_of_birth": "carmarthen",
        "home_address": "blk",
        "f": "blk",
        "name_of_ship": "first voyage",
        "ship_port": "first voyage",
        "date_leaving": "first voyage",
        "joined_ship_date": "1879-01-14",
        "joined_at_port": "carmarthen",
        "capacity": "ordinary seaman",
        "date_left": "1879-02-17",
        "left_port": "beaumaris",
        "cause_of_leaving": "discharged",
        "sign_with_mark": "n",
        "notes": "blk"
    },
    {
        "id": "vtls004924115_1_13",
        "type": "sailor",
        "parent": "vtls004924115",
        "name": "william davies",
        "dob": "blk",
        "age": "16",
        "place_of_birth": "aberdovey",
        "home_address": "blk",
        "f": "blk",
        "name_of_ship": "lizzie jane",
        "ship_port": "aberystwyth",
        "date_leaving": "1877",
        "joined_ship_date": "1877-07-02",
        "joined_at_port": "aberdovey",
        "capacity": "boy",
        "date_left": "1877-12-31",
        "left_port": "porthmadog",
        "cause_of_leaving": "remains on board",
        "sign_with_mark": "n",
        "notes": "blk"
    },
    {
        "id": "vtls004924223_0_11",
        "type": "sailor",
        "parent": "vtls004924223",
        "name": "david daniel",
        "dob": "blk",
        "age": "40",
        "place_of_birth": "borth, cardigan",
        "home_address": "blk",
        "f": "blk",
        "name_of_ship": "mary jane",
        "ship_port": "aberystwyth",
        "date_leaving": "continues",
        "joined_ship_date": "continues",
        "joined_at_port": "continues",
        "capacity": "master",
        "date_left": "1879-06-30",
        "left_port": "porthmadog",
        "cause_of_leaving": "remains on board",
        "sign_with_mark": "n",
        "notes": "blk"
    },
    {
        "id": "vtls004924123_0_12",
        "type": "sailor",
        "parent": "vtls004924123",
        "name": "john morris",
        "dob": "blk",
        "age": "24",
        "place_of_birth": "borth, cardiganshire",
        "home_address": "blk",
        "f": "blk",
        "name_of_ship": "mary jane",
        "ship_port": "aberystwyth",
        "date_leaving": "continues",
        "joined_ship_date": "continues",
        "joined_at_port": "continues",
        "capacity": "mate",
        "date_left": "blk",
        "left_port": "blk",
        "cause_of_leaving": "remains on board",
        "sign_with_mark": "n",
        "notes": "blk"
    },
    {
        "id": "vtls004924223_0_12",
        "type": "sailor",
        "parent": "vtls004924223",
        "name": "george jones",
        "dob": "blk",
        "age": "43",
        "place_of_birth": "carmarthen",
        "home_address": "blk",
        "f": "blk",
        "name_of_ship": "jane",
        "ship_port": "carmarthen",
        "date_leaving": "1878",
        "joined_ship_date": "1879-01-14",
        "joined_at_port": "carmarthen",
        "capacity": "mate",
        "date_left": "1879-02-17",
        "left_port": "beaumaris",
        "cause_of_leaving": "discharged",
        "sign_with_mark": "n",
        "notes": "blk"
    },
    {
        "id": "vtls004924230_1_11",
        "type": "sailor",
        "parent": "vtls004924230",
        "name": "david daniel",
        "dob": "blk",
        "age": "44",
        "place_of_birth": "borth",
        "home_address": "blk",
        "f": "blk",
        "name_of_ship": "mary jane",
        "ship_port": "aberystwyth",
        "date_leaving": "continued",
        "joined_ship_date": "continued",
        "joined_at_port": "continued",
        "capacity": "master",
        "date_left": "1880-12-31",
        "left_port": "porthmadog",
        "cause_of_leaving": "remains on board",
        "sign_with_mark": "n",
        "notes": "account for july - dec 1880"
    },
    {
        "id": "vtls004924230_0_11",
        "type": "sailor",
        "parent": "vtls004924230",
        "name": "david daniel",
        "dob": "blk",
        "age": "41",
        "place_of_birth": "borth, south wales",
        "home_address": "blk",
        "f": "blk",
        "name_of_ship": "mary jane",
        "ship_port": "aberystwyth",
        "date_leaving": "continued",
        "joined_ship_date": "1880-01-09",
        "joined_at_port": "bridgewater",
        "capacity": "master",
        "date_left": "blk",
        "left_port": "blk",
        "cause_of_leaving": "continued in this ship",
        "sign_with_mark": "n",
        "notes": "account for jan - june 1880"
    },
    {
        "id": "vtls004924223_1_11",
        "type": "sailor",
        "parent": "vtls004924223",
        "name": "david daniel",
        "dob": "blk",
        "age": "40",
        "place_of_birth": "borth",
        "home_address": "blk",
        "f": "blk",
        "name_of_ship": "mary jane",
        "ship_port": "aberystwyth",
        "date_leaving": "1879-06-30",
        "joined_ship_date": "1879-07-01",
        "joined_at_port": "portmadoc",
        "capacity": "master",
        "date_left": "blk",
        "left_port": "blk",
        "cause_of_leaving": "remains on board",
        "sign_with_mark": "n",
        "notes": "account for july - dec 1879"
    },
    {
        "id": "vtls004924223_0_15",
        "type": "sailor",
        "parent": "vtls004924223",
        "name": "david williams",
        "dob": "blk",
        "age": "16",
        "place_of_birth": "rhyl",
        "home_address": "blk",
        "f": "blk",
        "name_of_ship": "first voyage",
        "ship_port": "first voyage",
        "date_leaving": "first voyage",
        "joined_ship_date": "1879-03-08",
        "joined_at_port": "beaumaris",
        "capacity": "ordinary seaman",
        "date_left": "1879-06-10",
        "left_port": "porthmadog",
        "cause_of_leaving": "discharged",
        "sign_with_mark": "n",
        "notes": "blk"
    },
    {
        "id": "vtls004924230_0_13",
        "type": "sailor",
        "parent": "vtls004924230",
        "name": "william jones",
        "dob": "blk",
        "age": "19",
        "place_of_birth": "barmouth",
        "home_address": "blk",
        "f": "blk",
        "name_of_ship": "mary jane",
        "ship_port": "aberystwyth",
        "date_leaving": "continued",
        "joined_ship_date": "1880-01-09",
        "joined_at_port": "bridgewater",
        "capacity": "seaman",
        "date_left": "blk",
        "left_port": "blk",
        "cause_of_leaving": "continued in this ship",
        "sign_with_mark": "n",
        "notes": "blk"
    },
    {
        "id": "vtls004924230_0_12",
        "type": "sailor",
        "parent": "vtls004924230",
        "name": "charles jones",
        "dob": "blk",
        "age": "42",
        "place_of_birth": "caernarfon",
        "home_address": "blk",
        "f": "blk",
        "name_of_ship": "mary jane",
        "ship_port": "aberystwyth",
        "date_leaving": "continued",
        "joined_ship_date": "1880-01-09",
        "joined_at_port": "bridgewater",
        "capacity": "mate",
        "date_left": "blk",
        "left_port": "blk",
        "cause_of_leaving": "continued in this ship",
        "sign_with_mark": "n",
        "notes": "blk"
    },
    {
        "id": "vtls004924223_0_14",
        "type": "sailor",
        "parent": "vtls004924223",
        "name": "thomas pierce",
        "dob": "blk",
        "age": "33",
        "place_of_birth": "borth, cardigan",
        "home_address": "blk",
        "f": "blk",
        "name_of_ship": "gowerian",
        "ship_port": "aberystwyth",
        "date_leaving": "1879",
        "joined_ship_date": "1879-03-08",
        "joined_at_port": "beaumaris",
        "capacity": "mate",
        "date_left": "1879-06-10",
        "left_port": "porthmadog",
        "cause_of_leaving": "discharged",
        "sign_with_mark": "n",
        "notes": "blk"
    },
    {
        "id": "vtls004924223_1_12",
        "type": "sailor",
        "parent": "vtls004924223",
        "name": "phillip evans",
        "dob": "blk",
        "age": "32",
        "place_of_birth": "aberdovey",
        "home_address": "blk",
        "f": "blk",
        "name_of_ship": "mary jane",
        "ship_port": "aberystwyth",
        "date_leaving": "1879-06-30",
        "joined_ship_date": "1879-07-01",
        "joined_at_port": "portmadoc",
        "capacity": "mate",
        "date_left": "blk",
        "left_port": "blk",
        "cause_of_leaving": "remains on board",
        "sign_with_mark": "n",
        "notes": "blk"
    },
    {
        "id": "vtls004924223_1_13",
        "type": "sailor",
        "parent": "vtls004924223",
        "name": "john rill",
        "dob": "blk",
        "age": "14",
        "place_of_birth": "aberdovey",
        "home_address": "blk",
        "f": "blk",
        "name_of_ship": "mary jane",
        "ship_port": "aberystwyth",
        "date_leaving": "1879-06-30",
        "joined_ship_date": "1879-07-01",
        "joined_at_port": "portmadoc",
        "capacity": "boy",
        "date_left": "blk",
        "left_port": "blk",
        "cause_of_leaving": "remains on board",
        "sign_with_mark": "n",
        "notes": "blk"
    },
    {
        "id": "vtls004924265_1_11",
        "type": "sailor",
        "parent": "vtls004924265",
        "name": "david daniels",
        "dob": "blk",
        "age": "43",
        "place_of_birth": "borth",
        "home_address": "blk",
        "f": "blk",
        "name_of_ship": "mary jane",
        "ship_port": "aberystwyth",
        "date_leaving": "continued",
        "joined_ship_date": "continued",
        "joined_at_port": "continued",
        "capacity": "master",
        "date_left": "1881-12-31",
        "left_port": "porthmadog",
        "cause_of_leaving": "remains on board",
        "sign_with_mark": "n",
        "notes": "account for july - dec 1881"
    },
    {
        "id": "vtls004924265_0_11",
        "type": "sailor",
        "parent": "vtls004924265",
        "name": "david daniels",
        "dob": "blk",
        "age": "44",
        "place_of_birth": "borth",
        "home_address": "blk",
        "f": "blk",
        "name_of_ship": "mary jane",
        "ship_port": "aberystwyth",
        "date_leaving": "continued",
        "joined_ship_date": "continued",
        "joined_at_port": "continued",
        "capacity": "master",
        "date_left": "1881-06-30",
        "left_port": "porthmadog",
        "cause_of_leaving": "remains on board",
        "sign_with_mark": "n",
        "notes": "account for jan - june 1881"
    },
    {
        "id": "vtls004924265_1_13",
        "type": "sailor",
        "parent": "vtls004924265",
        "name": "evan lloyd",
        "dob": "blk",
        "age": "19",
        "place_of_birth": "portmadoc",
        "home_address": "blk",
        "f": "blk",
        "name_of_ship": "mary jane",
        "ship_port": "aberystwyth",
        "date_leaving": "continued",
        "joined_ship_date": "continued",
        "joined_at_port": "continued",
        "capacity": "cook & ordinary seaman",
        "date_left": "1881-12-25",
        "left_port": "porthmadog",
        "cause_of_leaving": "remains on board",
        "sign_with_mark": "n",
        "notes": "blk"
    },
    {
        "id": "vtls004924265_1_12",
        "type": "sailor",
        "parent": "vtls004924265",
        "name": "richard williams",
        "dob": "blk",
        "age": "55",
        "place_of_birth": "borth",
        "home_address": "blk",
        "f": "blk",
        "name_of_ship": "mary jane",
        "ship_port": "aberystwyth",
        "date_leaving": "continued",
        "joined_ship_date": "continued",
        "joined_at_port": "continued",
        "capacity": "mate",
        "date_left": "1881-12-31",
        "left_port": "porthmadog",
        "cause_of_leaving": "remains on board",
        "sign_with_mark": "n",
        "notes": "blk"
    },
    {
        "id": "vtls004924230_1_12",
        "type": "sailor",
        "parent": "vtls004924230",
        "name": "daniel davies",
        "dob": "blk",
        "age": "19",
        "place_of_birth": "aberporth",
        "home_address": "blk",
        "f": "blk",
        "name_of_ship": "mary jane",
        "ship_port": "aberystwyth",
        "date_leaving": "continued",
        "joined_ship_date": "continued",
        "joined_at_port": "continued",
        "capacity": "mate",
        "date_left": "1880-12-31",
        "left_port": "porthmadog",
        "cause_of_leaving": "remains on board",
        "sign_with_mark": "n",
        "notes": "blk"
    },
    {
        "id": "vtls004924265_0_13",
        "type": "sailor",
        "parent": "vtls004924265",
        "name": "owen roberts",
        "dob": "blk",
        "age": "63",
        "place_of_birth": "moelfre",
        "home_address": "blk",
        "f": "blk",
        "name_of_ship": "mary jane",
        "ship_port": "aberystwyth",
        "date_leaving": "continued",
        "joined_ship_date": "continued",
        "joined_at_port": "continued",
        "capacity": "able seaman",
        "date_left": "1881-06-08",
        "left_port": "porthmadog",
        "cause_of_leaving": "discharged",
        "sign_with_mark": "n",
        "notes": "blk"
    },
    {
        "id": "vtls004924265_0_12",
        "type": "sailor",
        "parent": "vtls004924265",
        "name": "thomas williams",
        "dob": "blk",
        "age": "40",
        "place_of_birth": "chester",
        "home_address": "blk",
        "f": "blk",
        "name_of_ship": "mary jane",
        "ship_port": "aberystwyth",
        "date_leaving": "continued",
        "joined_ship_date": "continued",
        "joined_at_port": "continued",
        "capacity": "mate",
        "date_left": "1881-06-08",
        "left_port": "porthmadog",
        "cause_of_leaving": "discharged",
        "sign_with_mark": "n",
        "notes": "blk"
    },
    {
        "id": "vtls004924270_0_13",
        "type": "sailor",
        "parent": "vtls004924270",
        "name": "thomas pierce",
        "dob": "1867",
        "age": "blk",
        "place_of_birth": "borth",
        "home_address": "blk",
        "f": "blk",
        "name_of_ship": "mary jane",
        "ship_port": "aberystwyth",
        "date_leaving": "1881",
        "joined_ship_date": "1882-01-02",
        "joined_at_port": "portmadoc",
        "capacity": "ordinary seaman",
        "date_left": "1882-06-30",
        "left_port": "porthmadog",
        "cause_of_leaving": "remains on board",
        "sign_with_mark": "n",
        "notes": "blk"
    },
    {
        "id": "vtls004924270_0_11",
        "type": "sailor",
        "parent": "vtls004924270",
        "name": "david daniels",
        "dob": "1837",
        "age": "blk",
        "place_of_birth": "borth",
        "home_address": "blk",
        "f": "blk",
        "name_of_ship": "mary jane",
        "ship_port": "aberystwyth",
        "date_leaving": "1881",
        "joined_ship_date": "1882-01-02",
        "joined_at_port": "portmadoc",
        "capacity": "master",
        "date_left": "1882-06-30",
        "left_port": "porthmadog",
        "cause_of_leaving": "remains on board",
        "sign_with_mark": "n",
        "notes": "blk"
    },
    {
        "id": "vtls004924270_0_12",
        "type": "sailor",
        "parent": "vtls004924270",
        "name": "john pierce",
        "dob": "1837",
        "age": "blk",
        "place_of_birth": "borth",
        "home_address": "blk",
        "f": "blk",
        "name_of_ship": "mary jane",
        "ship_port": "aberystwyth",
        "date_leaving": "1881",
        "joined_ship_date": "1882-01-02",
        "joined_at_port": "portmadoc",
        "capacity": "mate",
        "date_left": "1882-06-30",
        "left_port": "porthmadog",
        "cause_of_leaving": "remains on board",
        "sign_with_mark": "n",
        "notes": "blk"
    },
    {
        "id": "vtls004924270_1_13",
        "type": "sailor",
        "parent": "vtls004924270",
        "name": "william jenkins",
        "dob": "blk",
        "age": "43",
        "place_of_birth": "aberystwyth",
        "home_address": "blk",
        "f": "blk",
        "name_of_ship": "wellington",
        "ship_port": "aberystwyth",
        "date_leaving": "[1882]",
        "joined_ship_date": "1882-12-23",
        "joined_at_port": "cardiff",
        "capacity": "mate",
        "date_left": "blk",
        "left_port": "blk",
        "cause_of_leaving": "remains on board",
        "sign_with_mark": "n",
        "notes": "blk"
    },
    {
        "id": "vtls004924270_1_12",
        "type": "sailor",
        "parent": "vtls004924270",
        "name": "john pierce",
        "dob": "blk",
        "age": "47",
        "place_of_birth": "borth",
        "home_address": "blk",
        "f": "blk",
        "name_of_ship": "mary jane",
        "ship_port": "aberystwyth",
        "date_leaving": "[1882]",
        "joined_ship_date": "1882-07-03",
        "joined_at_port": "portmadoc",
        "capacity": "mate",
        "date_left": "1882-12-23",
        "left_port": "cardiff",
        "cause_of_leaving": "discharged",
        "sign_with_mark": "n",
        "notes": "blk"
    },
    {
        "id": "vtls004924270_1_11",
        "type": "sailor",
        "parent": "vtls004924270",
        "name": "david daniels",
        "dob": "blk",
        "age": "43",
        "place_of_birth": "borth",
        "home_address": "blk",
        "f": "blk",
        "name_of_ship": "mary jane",
        "ship_port": "aberystwyth",
        "date_leaving": "[1882]",
        "joined_ship_date": "1882-07-03",
        "joined_at_port": "portmadoc",
        "capacity": "master",
        "date_left": "blk",
        "left_port": "blk",
        "cause_of_leaving": "remains on board",
        "sign_with_mark": "n",
        "notes": "blk"
    },
    {
        "id": "vtls004924270_1_14",
        "type": "sailor",
        "parent": "vtls004924270",
        "name": "edwin riley",
        "dob": "blk",
        "age": "18",
        "place_of_birth": "london",
        "home_address": "blk",
        "f": "blk",
        "name_of_ship": "tiger",
        "ship_port": "s\/s",
        "date_leaving": "[1882]",
        "joined_ship_date": "1882-12-23",
        "joined_at_port": "cardiff",
        "capacity": "ordinary seaman",
        "date_left": "blk",
        "left_port": "blk",
        "cause_of_leaving": "remains on board",
        "sign_with_mark": "n",
        "notes": "blk"
    },
    {
        "id": "vtls004924273_1_11",
        "type": "sailor",
        "parent": "vtls004924273",
        "name": "david daniels",
        "dob": "1840",
        "age": "blk",
        "place_of_birth": "borth",
        "home_address": "blk",
        "f": "blk",
        "name_of_ship": "mary jane",
        "ship_port": "aberystwyth",
        "date_leaving": "1883",
        "joined_ship_date": "1883-07-01",
        "joined_at_port": "aberdovey",
        "capacity": "master",
        "date_left": "1883-12-31",
        "left_port": "gloucestershire",
        "cause_of_leaving": "remains on board",
        "sign_with_mark": "n",
        "notes": "blk"
    },
    {
        "id": "vtls004923965_0_11",
        "type": "sailor",
        "parent": "vtls004923965",
        "name": "john hughes",
        "dob": "blk",
        "age": "33",
        "place_of_birth": "borth",
        "home_address": "blk",
        "f": "blk",
        "name_of_ship": "mary jane",
        "ship_port": "aberystwyth",
        "date_leaving": "remain",
        "joined_ship_date": "1863-07-04",
        "joined_at_port": "aberdovey",
        "capacity": "master",
        "date_left": "blk",
        "left_port": "blk",
        "cause_of_leaving": "remains on board",
        "sign_with_mark": "n",
        "notes": "account for july - dec 1863"
    },
    {
        "id": "vtls004924273_1_12",
        "type": "sailor",
        "parent": "vtls004924273",
        "name": "edward evans",
        "dob": "1830",
        "age": "blk",
        "place_of_birth": "towyn",
        "home_address": "blk",
        "f": "blk",
        "name_of_ship": "maria anna",
        "ship_port": "aberystwyth",
        "date_leaving": "1883",
        "joined_ship_date": "1883-07-07",
        "joined_at_port": "aberdovey",
        "capacity": "mate",
        "date_left": "1883-12-31",
        "left_port": "gloucestershire",
        "cause_of_leaving": "remains on board",
        "sign_with_mark": "n",
        "notes": "blk"
    },
    {
        "id": "vtls004924273_0_11",
        "type": "sailor",
        "parent": "vtls004924273",
        "name": "david daniel",
        "dob": "blk",
        "age": "46",
        "place_of_birth": "borth, cardigan",
        "home_address": "blk",
        "f": "blk",
        "name_of_ship": "mary jane",
        "ship_port": "aberystwyth",
        "date_leaving": "blk",
        "joined_ship_date": "blk",
        "joined_at_port": "blk",
        "capacity": "master",
        "date_left": "blk",
        "left_port": "blk",
        "cause_of_leaving": "remains on board",
        "sign_with_mark": "n",
        "notes": "account for jan - june 1883"
    },
    {
        "id": "vtls004924273_0_12",
        "type": "sailor",
        "parent": "vtls004924273",
        "name": "thomas hughes",
        "dob": "blk",
        "age": "22",
        "place_of_birth": "borth, cardigan",
        "home_address": "blk",
        "f": "blk",
        "name_of_ship": "mary jane",
        "ship_port": "aberystwyth",
        "date_leaving": "blk",
        "joined_ship_date": "blk",
        "joined_at_port": "blk",
        "capacity": "mate",
        "date_left": "1883-06-19",
        "left_port": "aberdovey",
        "cause_of_leaving": "discharged",
        "sign_with_mark": "n",
        "notes": "blk"
    },
    {
        "id": "vtls004923965_0_12",
        "type": "sailor",
        "parent": "vtls004923965",
        "name": "william jones",
        "dob": "blk",
        "age": "40",
        "place_of_birth": "borth",
        "home_address": "blk",
        "f": "blk",
        "name_of_ship": "mary jane",
        "ship_port": "aberystwyth",
        "date_leaving": "remain",
        "joined_ship_date": "1863-07-04",
        "joined_at_port": "aberdovey",
        "capacity": "mate",
        "date_left": "blk",
        "left_port": "blk",
        "cause_of_leaving": "remains on board",
        "sign_with_mark": "n",
        "notes": "blk"
    },
    {
        "id": "vtls004923965_0_13",
        "type": "sailor",
        "parent": "vtls004923965",
        "name": "john lewis",
        "dob": "blk",
        "age": "17",
        "place_of_birth": "borth",
        "home_address": "blk",
        "f": "blk",
        "name_of_ship": "mary jane",
        "ship_port": "aberystwyth",
        "date_leaving": "remain",
        "joined_ship_date": "1863-07-04",
        "joined_at_port": "aberdovey",
        "capacity": "boy",
        "date_left": "blk",
        "left_port": "blk",
        "cause_of_leaving": "remains on board",
        "sign_with_mark": "n",
        "notes": "blk"
    },
    {
        "id": "vtls004924291_0_12",
        "type": "sailor",
        "parent": "vtls004924291",
        "name": "william davies",
        "dob": "blk",
        "age": "19",
        "place_of_birth": "pwllheli",
        "home_address": "blk",
        "f": "blk",
        "name_of_ship": "mary eleanor",
        "ship_port": "portmadoc",
        "date_leaving": "1886-12-28",
        "joined_ship_date": "1886-01-09",
        "joined_at_port": "portmadoc",
        "capacity": "blk",
        "date_left": "1886-01-12",
        "left_port": "fishguard",
        "cause_of_leaving": "discharged vessel lost",
        "sign_with_mark": "n",
        "notes": "blk"
    },
    {
        "id": "vtls004924291_0_13",
        "type": "sailor",
        "parent": "vtls004924291",
        "name": "william jones",
        "dob": "blk",
        "age": "18",
        "place_of_birth": "melbourne",
        "home_address": "blk",
        "f": "blk",
        "name_of_ship": "mary eleanor",
        "ship_port": "portmadoc",
        "date_leaving": "1886-12-28",
        "joined_ship_date": "1886-01-09",
        "joined_at_port": "portmadoc",
        "capacity": "blk",
        "date_left": "1886-01-12",
        "left_port": "fishguard",
        "cause_of_leaving": "discharged vessel lost",
        "sign_with_mark": "n",
        "notes": "blk"
    },
    {
        "id": "vtls004924284_0_11",
        "type": "sailor",
        "parent": "vtls004924284",
        "name": "david daniel",
        "dob": "blk",
        "age": "36",
        "place_of_birth": "borth",
        "home_address": "blk",
        "f": "blk",
        "name_of_ship": "mary jane",
        "ship_port": "aberystwyth",
        "date_leaving": "remains",
        "joined_ship_date": "blk",
        "joined_at_port": "blk",
        "capacity": "master",
        "date_left": "1884-06-30",
        "left_port": "aberdovey",
        "cause_of_leaving": "remains on board",
        "sign_with_mark": "n",
        "notes": "account for jan - june 1884"
    },
    {
        "id": "vtls004924291_0_11",
        "type": "sailor",
        "parent": "vtls004924291",
        "name": "david daniel",
        "dob": "blk",
        "age": "45",
        "place_of_birth": "borth, cardigan",
        "home_address": "blk",
        "f": "blk",
        "name_of_ship": "mary jane",
        "ship_port": "aberystwyth",
        "date_leaving": "remains",
        "joined_ship_date": "blk",
        "joined_at_port": "blk",
        "capacity": "blk",
        "date_left": "1886-01-12",
        "left_port": "fishguard",
        "cause_of_leaving": "discharged vessel lost",
        "sign_with_mark": "n",
        "notes": "blk"
    },
    {
        "id": "vtls004924284_1_11",
        "type": "sailor",
        "parent": "vtls004924284",
        "name": "david daniel",
        "dob": "1837",
        "age": "blk",
        "place_of_birth": "borth",
        "home_address": "blk",
        "f": "blk",
        "name_of_ship": "mary jane",
        "ship_port": "aberystwyth",
        "date_leaving": "continuous",
        "joined_ship_date": "blk",
        "joined_at_port": "blk",
        "capacity": "master",
        "date_left": "blk",
        "left_port": "blk",
        "cause_of_leaving": "remains on board",
        "sign_with_mark": "n",
        "notes": "account for july - dec 1884"
    },
    {
        "id": "vtls004924284_0_13",
        "type": "sailor",
        "parent": "vtls004924284",
        "name": "david thomas daniel",
        "dob": "blk",
        "age": "13",
        "place_of_birth": "borth",
        "home_address": "blk",
        "f": "blk",
        "name_of_ship": "mary jane",
        "ship_port": "aberystwyth",
        "date_leaving": "remains",
        "joined_ship_date": "blk",
        "joined_at_port": "blk",
        "capacity": "boy",
        "date_left": "1884-06-30",
        "left_port": "aberdovey",
        "cause_of_leaving": "remains on board",
        "sign_with_mark": "n",
        "notes": "blk"
    },
    {
        "id": "vtls004924284_0_12",
        "type": "sailor",
        "parent": "vtls004924284",
        "name": "edwaed evans",
        "dob": "blk",
        "age": "34",
        "place_of_birth": "aberdovey",
        "home_address": "blk",
        "f": "blk",
        "name_of_ship": "mary jane",
        "ship_port": "aberystwyth",
        "date_leaving": "remains",
        "joined_ship_date": "blk",
        "joined_at_port": "blk",
        "capacity": "mate",
        "date_left": "1884-06-30",
        "left_port": "aberdovey",
        "cause_of_leaving": "remains on board",
        "sign_with_mark": "n",
        "notes": "blk"
    },
    {
        "id": "vtls004924284_1_12",
        "type": "sailor",
        "parent": "vtls004924284",
        "name": "edward evans",
        "dob": "1834",
        "age": "blk",
        "place_of_birth": "aberdovey",
        "home_address": "blk",
        "f": "blk",
        "name_of_ship": "mary jane",
        "ship_port": "aberystwyth",
        "date_leaving": "continuous",
        "joined_ship_date": "blk",
        "joined_at_port": "blk",
        "capacity": "mate",
        "date_left": "blk",
        "left_port": "blk",
        "cause_of_leaving": "remains on board",
        "sign_with_mark": "n",
        "notes": "blk"
    },
    {
        "id": "vtls004923971_0_11",
        "type": "sailor",
        "parent": "vtls004923971",
        "name": "john hughes",
        "dob": "blk",
        "age": "35",
        "place_of_birth": "borth",
        "home_address": "blk",
        "f": "blk",
        "name_of_ship": "mary jane",
        "ship_port": "aberystwyth",
        "date_leaving": "remained",
        "joined_ship_date": "1847-04-1847",
        "joined_at_port": "aberystwyth",
        "capacity": "master",
        "date_left": "blk",
        "left_port": "blk",
        "cause_of_leaving": "remains on board",
        "sign_with_mark": "n",
        "notes": "account for jan - june 1866"
    },
    {
        "id": "vtls004923971_0_13",
        "type": "sailor",
        "parent": "vtls004923971",
        "name": "elis jones",
        "dob": "blk",
        "age": "18",
        "place_of_birth": "borth",
        "home_address": "blk",
        "f": "blk",
        "name_of_ship": "catherine & mary",
        "ship_port": "aberystwyth",
        "date_leaving": "1866-01-01",
        "joined_ship_date": "1866-03-05",
        "joined_at_port": "aberdovey",
        "capacity": "ordinary seaman",
        "date_left": "blk",
        "left_port": "blk",
        "cause_of_leaving": "remains on board",
        "sign_with_mark": "n",
        "notes": "blk"
    },
    {
        "id": "vtls004923971_0_12",
        "type": "sailor",
        "parent": "vtls004923971",
        "name": "william jones",
        "dob": "blk",
        "age": "43",
        "place_of_birth": "borth",
        "home_address": "blk",
        "f": "blk",
        "name_of_ship": "falcon",
        "ship_port": "aberystwyth",
        "date_leaving": "1866-02-20",
        "joined_ship_date": "1866-03-05",
        "joined_at_port": "aberdovey",
        "capacity": "mate",
        "date_left": "blk",
        "left_port": "blk",
        "cause_of_leaving": "remains on board",
        "sign_with_mark": "n",
        "notes": "blk"
    },
    {
        "id": "vtls004923971_1_11",
        "type": "sailor",
        "parent": "vtls004923971",
        "name": "john hughes",
        "dob": "blk",
        "age": "36",
        "place_of_birth": "borth, county of cardigan",
        "home_address": "blk",
        "f": "blk",
        "name_of_ship": "mary jane",
        "ship_port": "aberystwyth",
        "date_leaving": "blk",
        "joined_ship_date": "1859-03-10",
        "joined_at_port": "aberystwyth",
        "capacity": "master",
        "date_left": "blk",
        "left_port": "blk",
        "cause_of_leaving": "remains on board",
        "sign_with_mark": "n",
        "notes": "blk"
    },
    {
        "id": "vtls004923968_0_13",
        "type": "sailor",
        "parent": "vtls004923968",
        "name": "thomas williams",
        "dob": "blk",
        "age": "17",
        "place_of_birth": "borth",
        "home_address": "blk",
        "f": "blk",
        "name_of_ship": "mary jane",
        "ship_port": "aberystwyth",
        "date_leaving": "not discharged",
        "joined_ship_date": "blk",
        "joined_at_port": "blk",
        "capacity": "boy",
        "date_left": "blk",
        "left_port": "blk",
        "cause_of_leaving": "remains on board",
        "sign_with_mark": "n",
        "notes": "blk"
    },
    {
        "id": "vtls004923968_0_11",
        "type": "sailor",
        "parent": "vtls004923968",
        "name": "john hughes",
        "dob": "blk",
        "age": "30",
        "place_of_birth": "borth",
        "home_address": "blk",
        "f": "blk",
        "name_of_ship": "mary jane",
        "ship_port": "aberystwyth",
        "date_leaving": "not discharged",
        "joined_ship_date": "blk",
        "joined_at_port": "blk",
        "capacity": "master",
        "date_left": "blk",
        "left_port": "blk",
        "cause_of_leaving": "remains on board",
        "sign_with_mark": "n",
        "notes": "blk"
    },
    {
        "id": "vtls004923968_0_12",
        "type": "sailor",
        "parent": "vtls004923968",
        "name": "william jones",
        "dob": "blk",
        "age": "41",
        "place_of_birth": "borth",
        "home_address": "blk",
        "f": "blk",
        "name_of_ship": "mary jane",
        "ship_port": "aberystwyth",
        "date_leaving": "not discharged",
        "joined_ship_date": "blk",
        "joined_at_port": "blk",
        "capacity": "mate",
        "date_left": "blk",
        "left_port": "blk",
        "cause_of_leaving": "remains on board",
        "sign_with_mark": "n",
        "notes": "blk"
    },
    {
        "id": "vtls004923971_1_12",
        "type": "sailor",
        "parent": "vtls004923971",
        "name": "william jones",
        "dob": "blk",
        "age": "44",
        "place_of_birth": "borth, county of cardigan",
        "home_address": "blk",
        "f": "blk",
        "name_of_ship": "mary jane",
        "ship_port": "aberystwyth",
        "date_leaving": "blk",
        "joined_ship_date": "1866-03-12",
        "joined_at_port": "aberystwyth",
        "capacity": "mate",
        "date_left": "1866-12-31",
        "left_port": "aberdovey",
        "cause_of_leaving": "discharged",
        "sign_with_mark": "n",
        "notes": "blk"
    },
    {
        "id": "vtls004923971_1_13",
        "type": "sailor",
        "parent": "vtls004923971",
        "name": "john humphreys",
        "dob": "blk",
        "age": "17",
        "place_of_birth": "aberdovey",
        "home_address": "blk",
        "f": "blk",
        "name_of_ship": "first ship",
        "ship_port": "blk",
        "date_leaving": "blk",
        "joined_ship_date": "1866-07-24",
        "joined_at_port": "aberdovey",
        "capacity": "boy",
        "date_left": "1866-12-31",
        "left_port": "aberdovey",
        "cause_of_leaving": "discharged",
        "sign_with_mark": "n",
        "notes": "blk"
    },
    {
        "id": "vtls004923986_0_14",
        "type": "sailor",
        "parent": "vtls004923986",
        "name": "thomas hughes",
        "dob": "blk",
        "age": "24",
        "place_of_birth": "borth, cardigan",
        "home_address": "blk",
        "f": "blk",
        "name_of_ship": "sarah davies",
        "ship_port": "aberystwyth",
        "date_leaving": "1867-05-06",
        "joined_ship_date": "1867-06-03",
        "joined_at_port": "aberdovey",
        "capacity": "mate",
        "date_left": "blk",
        "left_port": "blk",
        "cause_of_leaving": "remains on board",
        "sign_with_mark": "n",
        "notes": "blk"
    },
    {
        "id": "vtls004923986_0_12",
        "type": "sailor",
        "parent": "vtls004923986",
        "name": "john davies",
        "dob": "blk",
        "age": "40",
        "place_of_birth": "borth, cardigan",
        "home_address": "blk",
        "f": "blk",
        "name_of_ship": "beatrice",
        "ship_port": "aberystwyth",
        "date_leaving": "1867-01-20",
        "joined_ship_date": "1867-03-20",
        "joined_at_port": "aberdovey",
        "capacity": "mate",
        "date_left": "1867-06-01",
        "left_port": "aberdovey",
        "cause_of_leaving": "discharged",
        "sign_with_mark": "n",
        "notes": "blk"
    },
    {
        "id": "vtls004923986_0_13",
        "type": "sailor",
        "parent": "vtls004923986",
        "name": "john davies",
        "dob": "blk",
        "age": "14",
        "place_of_birth": "borth, cardigan",
        "home_address": "blk",
        "f": "blk",
        "name_of_ship": "beatrice",
        "ship_port": "aberystwyth",
        "date_leaving": "1867-01-20",
        "joined_ship_date": "1867-03-20",
        "joined_at_port": "aberdovey",
        "capacity": "boy",
        "date_left": "1867-06-01",
        "left_port": "aberdovey",
        "cause_of_leaving": "discharged",
        "sign_with_mark": "n",
        "notes": "blk"
    },
    {
        "id": "vtls004923986_0_11",
        "type": "sailor",
        "parent": "vtls004923986",
        "name": "john hughes",
        "dob": "blk",
        "age": "36",
        "place_of_birth": "borth, cardigan",
        "home_address": "blk",
        "f": "blk",
        "name_of_ship": "mary jane",
        "ship_port": "aberystwyth",
        "date_leaving": "remains",
        "joined_ship_date": "1859-03-01",
        "joined_at_port": "aberystwyth",
        "capacity": "master",
        "date_left": "blk",
        "left_port": "blk",
        "cause_of_leaving": "remains on board",
        "sign_with_mark": "n",
        "notes": "blk"
    },
    {
        "id": "vtls004923986_1_12",
        "type": "sailor",
        "parent": "vtls004923986",
        "name": "william williams",
        "dob": "blk",
        "age": "27",
        "place_of_birth": "borth",
        "home_address": "blk",
        "f": "blk",
        "name_of_ship": "mary jane",
        "ship_port": "aberystwyth",
        "date_leaving": "remains",
        "joined_ship_date": "blk",
        "joined_at_port": "blk",
        "capacity": "mate",
        "date_left": "1867-11-12",
        "left_port": "aberdovey",
        "cause_of_leaving": "discharged",
        "sign_with_mark": "n",
        "notes": "blk"
    },
    {
        "id": "vtls004923986_1_11",
        "type": "sailor",
        "parent": "vtls004923986",
        "name": "john hughes",
        "dob": "blk",
        "age": "37",
        "place_of_birth": "borth",
        "home_address": "blk",
        "f": "blk",
        "name_of_ship": "mary jane",
        "ship_port": "aberystwyth",
        "date_leaving": "remains",
        "joined_ship_date": "blk",
        "joined_at_port": "blk",
        "capacity": "master",
        "date_left": "blk",
        "left_port": "blk",
        "cause_of_leaving": "remains on board",
        "sign_with_mark": "n",
        "notes": "blk"
    },
    {
        "id": "vtls004923997_1_13",
        "type": "sailor",
        "parent": "vtls004923997",
        "name": "john hughes",
        "dob": "blk",
        "age": "16",
        "place_of_birth": "borth, county of cardigan",
        "home_address": "blk",
        "f": "blk",
        "name_of_ship": "nanteos",
        "ship_port": "aberystwyth",
        "date_leaving": "1868-06-01",
        "joined_ship_date": "1868-07-29",
        "joined_at_port": "newport",
        "capacity": "boy",
        "date_left": "1868-11-29",
        "left_port": "aberdovey",
        "cause_of_leaving": "discharged",
        "sign_with_mark": "n",
        "notes": "blk"
    },
    {
        "id": "vtls004923986_1_15",
        "type": "sailor",
        "parent": "vtls004923986",
        "name": "david jones",
        "dob": "blk",
        "age": "17",
        "place_of_birth": "aberdovey",
        "home_address": "blk",
        "f": "blk",
        "name_of_ship": "elizabeth margaret",
        "ship_port": "aberdovey",
        "date_leaving": "1867-08-21",
        "joined_ship_date": "1867-12-07",
        "joined_at_port": "aberdovey",
        "capacity": "boy",
        "date_left": "1867-11-12",
        "left_port": "aberdovey",
        "cause_of_leaving": "remains on board",
        "sign_with_mark": "n",
        "notes": "blk"
    },
    {
        "id": "vtls004923997_0_12",
        "type": "sailor",
        "parent": "vtls004923997",
        "name": "evan davis",
        "dob": "blk",
        "age": "32",
        "place_of_birth": "borth, county of cardigan",
        "home_address": "blk",
        "f": "blk",
        "name_of_ship": "mary jane",
        "ship_port": "aberystwyth",
        "date_leaving": "blk",
        "joined_ship_date": "1868-03-25",
        "joined_at_port": "aberdovey",
        "capacity": "mate",
        "date_left": "1868-06-27",
        "left_port": "aberdovey",
        "cause_of_leaving": "discharged",
        "sign_with_mark": "n",
        "notes": "blk"
    },
    {
        "id": "vtls004923997_0_11",
        "type": "sailor",
        "parent": "vtls004923997",
        "name": "john hughes",
        "dob": "blk",
        "age": "37",
        "place_of_birth": "borth, county of cardigan",
        "home_address": "blk",
        "f": "blk",
        "name_of_ship": "mary jane",
        "ship_port": "aberystwyth",
        "date_leaving": "blk",
        "joined_ship_date": "1859-03-02",
        "joined_at_port": "aberystwyth",
        "capacity": "master",
        "date_left": "blk",
        "left_port": "blk",
        "cause_of_leaving": "remains on board",
        "sign_with_mark": "n",
        "notes": "blk"
    },
    {
        "id": "vtls004923997_1_11",
        "type": "sailor",
        "parent": "vtls004923997",
        "name": "john hughes",
        "dob": "blk",
        "age": "32",
        "place_of_birth": "borth, county of cardigan",
        "home_address": "blk",
        "f": "blk",
        "name_of_ship": "mary jane",
        "ship_port": "aberystwyth",
        "date_leaving": "blk",
        "joined_ship_date": "1859",
        "joined_at_port": "aberystwyth",
        "capacity": "master",
        "date_left": "blk",
        "left_port": "blk",
        "cause_of_leaving": "remains on board",
        "sign_with_mark": "n",
        "notes": "blk"
    },
    {
        "id": "vtls004923986_1_14",
        "type": "sailor",
        "parent": "vtls004923986",
        "name": "hugh pugh",
        "dob": "blk",
        "age": "37",
        "place_of_birth": "aberdovey",
        "home_address": "blk",
        "f": "blk",
        "name_of_ship": "[six p]",
        "ship_port": "aberdovey",
        "date_leaving": "1867-10-25",
        "joined_ship_date": "1867-11-21",
        "joined_at_port": "caernarfon",
        "capacity": "mate",
        "date_left": "1867-11-12",
        "left_port": "aberdovey",
        "cause_of_leaving": "remains on board",
        "sign_with_mark": "n",
        "notes": "blk"
    },
    {
        "id": "vtls004923997_0_13",
        "type": "sailor",
        "parent": "vtls004923997",
        "name": "hendry jones",
        "dob": "blk",
        "age": "21",
        "place_of_birth": "aberdovey",
        "home_address": "blk",
        "f": "blk",
        "name_of_ship": "first ship",
        "ship_port": "blk",
        "date_leaving": "blk",
        "joined_ship_date": "1868-03-29",
        "joined_at_port": "aberdovey",
        "capacity": "boy",
        "date_left": "1868-05-12",
        "left_port": "aberdovey",
        "cause_of_leaving": "discharged",
        "sign_with_mark": "n",
        "notes": "blk"
    },
    {
        "id": "vtls004923997_1_12",
        "type": "sailor",
        "parent": "vtls004923997",
        "name": "hugh pugh",
        "dob": "blk",
        "age": "37",
        "place_of_birth": "aberdovey",
        "home_address": "blk",
        "f": "blk",
        "name_of_ship": "mary jane",
        "ship_port": "aberystwyth",
        "date_leaving": "blk",
        "joined_ship_date": "1868-03",
        "joined_at_port": "aberdovey",
        "capacity": "mate",
        "date_left": "1868-12-17",
        "left_port": "aberdovey",
        "cause_of_leaving": "discharged",
        "sign_with_mark": "n",
        "notes": "blk"
    },
    {
        "id": "vtls004924001_0_11",
        "type": "sailor",
        "parent": "vtls004924001",
        "name": "david daniel",
        "dob": "blk",
        "age": "30",
        "place_of_birth": "borth",
        "home_address": "blk",
        "f": "blk",
        "name_of_ship": "mary jane",
        "ship_port": "aberystwyth",
        "date_leaving": "blk",
        "joined_ship_date": "1869-01-01",
        "joined_at_port": "aberdovey",
        "capacity": "master",
        "date_left": "blk",
        "left_port": "blk",
        "cause_of_leaving": "remains on board",
        "sign_with_mark": "n",
        "notes": "account for jan - june 1869"
    },
    {
        "id": "vtls004924001_0_12",
        "type": "sailor",
        "parent": "vtls004924001",
        "name": "william jones",
        "dob": "blk",
        "age": "45",
        "place_of_birth": "borth",
        "home_address": "blk",
        "f": "blk",
        "name_of_ship": "martha lloyd",
        "ship_port": "aberystwyth",
        "date_leaving": "1868-12-12",
        "joined_ship_date": "1869-01-01",
        "joined_at_port": "aberdovey",
        "capacity": "mate",
        "date_left": "blk",
        "left_port": "blk",
        "cause_of_leaving": "remains on board",
        "sign_with_mark": "n",
        "notes": "blk"
    },
    {
        "id": "vtls004924001_1_13",
        "type": "sailor",
        "parent": "vtls004924001",
        "name": "john morris",
        "dob": "blk",
        "age": "14",
        "place_of_birth": "borth",
        "home_address": "blk",
        "f": "blk",
        "name_of_ship": "[ospray]",
        "ship_port": "aberystwyth",
        "date_leaving": "1869-06-01",
        "joined_ship_date": "1869-07-01",
        "joined_at_port": "aberdovey",
        "capacity": "boy",
        "date_left": "1869-12-10",
        "left_port": "aberdovey",
        "cause_of_leaving": "discharged",
        "sign_with_mark": "n",
        "notes": "blk"
    },
    {
        "id": "vtls004924015_0_11",
        "type": "sailor",
        "parent": "vtls004924015",
        "name": "david daniel",
        "dob": "blk",
        "age": "32",
        "place_of_birth": "aberystwyth",
        "home_address": "blk",
        "f": "blk",
        "name_of_ship": "mary jane",
        "ship_port": "aberystwyth",
        "date_leaving": "blk",
        "joined_ship_date": "1869-07-14",
        "joined_at_port": "cardiff",
        "capacity": "master",
        "date_left": "blk",
        "left_port": "blk",
        "cause_of_leaving": "remains on board",
        "sign_with_mark": "n",
        "notes": "account for jan - june 1870"
    },
    {
        "id": "vtls004924001_1_12",
        "type": "sailor",
        "parent": "vtls004924001",
        "name": "william jones",
        "dob": "blk",
        "age": "35",
        "place_of_birth": "borth",
        "home_address": "blk",
        "f": "blk",
        "name_of_ship": "mary jane",
        "ship_port": "aberystwyth",
        "date_leaving": "blk",
        "joined_ship_date": "1866",
        "joined_at_port": "bangor",
        "capacity": "mate",
        "date_left": "1869-12-10",
        "left_port": "aberdovey",
        "cause_of_leaving": "discharged",
        "sign_with_mark": "n",
        "notes": "blk"
    },
    {
        "id": "vtls004924001_1_11",
        "type": "sailor",
        "parent": "vtls004924001",
        "name": "david daniels",
        "dob": "blk",
        "age": "36",
        "place_of_birth": "borth",
        "home_address": "blk",
        "f": "blk",
        "name_of_ship": "mary jane",
        "ship_port": "aberystwyth",
        "date_leaving": "blk",
        "joined_ship_date": "1866",
        "joined_at_port": "bangor",
        "capacity": "master",
        "date_left": "blk",
        "left_port": "blk",
        "cause_of_leaving": "remains on board",
        "sign_with_mark": "n",
        "notes": "blk"
    },
    {
        "id": "vtls004924001_0_13",
        "type": "sailor",
        "parent": "vtls004924001",
        "name": "john jones",
        "dob": "blk",
        "age": "11",
        "place_of_birth": "borth",
        "home_address": "blk",
        "f": "blk",
        "name_of_ship": "first ship",
        "ship_port": "blk",
        "date_leaving": "blk",
        "joined_ship_date": "1869-01-01",
        "joined_at_port": "aberdovey",
        "capacity": "boy",
        "date_left": "blk",
        "left_port": "blk",
        "cause_of_leaving": "remains on board",
        "sign_with_mark": "n",
        "notes": "blk"
    },
    {
        "id": "vtls004924015_1_11",
        "type": "sailor",
        "parent": "vtls004924015",
        "name": "david daniel",
        "dob": "blk",
        "age": "36",
        "place_of_birth": "borth",
        "home_address": "blk",
        "f": "blk",
        "name_of_ship": "mary jane",
        "ship_port": "aberystwyth",
        "date_leaving": "remaining",
        "joined_ship_date": "1868",
        "joined_at_port": "bangor",
        "capacity": "master",
        "date_left": "blk",
        "left_port": "blk",
        "cause_of_leaving": "remains on board",
        "sign_with_mark": "n",
        "notes": "account for july - dec 1870"
    },
    {
        "id": "vtls004924015_1_13",
        "type": "sailor",
        "parent": "vtls004924015",
        "name": "david williams",
        "dob": "blk",
        "age": "16",
        "place_of_birth": "borth",
        "home_address": "blk",
        "f": "blk",
        "name_of_ship": "mary jane",
        "ship_port": "aberystwyth",
        "date_leaving": "remaining",
        "joined_ship_date": "1870-03-10",
        "joined_at_port": "aberdovey",
        "capacity": "boy",
        "date_left": "1870-12-20",
        "left_port": "aberdovey",
        "cause_of_leaving": "discharged",
        "sign_with_mark": "n",
        "notes": "blk"
    },
    {
        "id": "vtls004924027_0_11",
        "type": "sailor",
        "parent": "vtls004924027",
        "name": "david daniel",
        "dob": "blk",
        "age": "32",
        "place_of_birth": "borth",
        "home_address": "blk",
        "f": "blk",
        "name_of_ship": "mary jane",
        "ship_port": "aberystwyth",
        "date_leaving": "blk",
        "joined_ship_date": "1869",
        "joined_at_port": "bangor",
        "capacity": "master",
        "date_left": "blk",
        "left_port": "blk",
        "cause_of_leaving": "remains on board",
        "sign_with_mark": "n",
        "notes": "account for jan - june 1871"
    },
    {
        "id": "vtls004924015_1_12",
        "type": "sailor",
        "parent": "vtls004924015",
        "name": "john lewis",
        "dob": "blk",
        "age": "23",
        "place_of_birth": "borth",
        "home_address": "blk",
        "f": "blk",
        "name_of_ship": "mary jane",
        "ship_port": "aberystwyth",
        "date_leaving": "remaining",
        "joined_ship_date": "1870-02-20",
        "joined_at_port": "aberdovey",
        "capacity": "mate",
        "date_left": "1870-12-20",
        "left_port": "aberdovey",
        "cause_of_leaving": "discharged",
        "sign_with_mark": "n",
        "notes": "blk"
    },
    {
        "id": "vtls004924027_1_11",
        "type": "sailor",
        "parent": "vtls004924027",
        "name": "david daniels",
        "dob": "blk",
        "age": "30",
        "place_of_birth": "aberdovey",
        "home_address": "blk",
        "f": "blk",
        "name_of_ship": "mary jane",
        "ship_port": "aberystwyth",
        "date_leaving": "continues",
        "joined_ship_date": "blk",
        "joined_at_port": "blk",
        "capacity": "master",
        "date_left": "blk",
        "left_port": "blk",
        "cause_of_leaving": "remains on board",
        "sign_with_mark": "n",
        "notes": "account for july - dec 1871"
    },
    {
        "id": "vtls004924027_0_12",
        "type": "sailor",
        "parent": "vtls004924027",
        "name": "richard williams",
        "dob": "blk",
        "age": "30",
        "place_of_birth": "borth",
        "home_address": "blk",
        "f": "blk",
        "name_of_ship": "mary jane",
        "ship_port": "aberystwyth",
        "date_leaving": "blk",
        "joined_ship_date": "1870",
        "joined_at_port": "aberdovey",
        "capacity": "mate",
        "date_left": "blk",
        "left_port": "blk",
        "cause_of_leaving": "remains on board",
        "sign_with_mark": "n",
        "notes": "blk"
    },
    {
        "id": "vtls004924015_0_13",
        "type": "sailor",
        "parent": "vtls004924015",
        "name": "david williams",
        "dob": "blk",
        "age": "16",
        "place_of_birth": "aberystwyth",
        "home_address": "blk",
        "f": "blk",
        "name_of_ship": "mary jane",
        "ship_port": "aberystwyth",
        "date_leaving": "blk",
        "joined_ship_date": "1869-07-14",
        "joined_at_port": "cardiff",
        "capacity": "ordinary seaman",
        "date_left": "blk",
        "left_port": "blk",
        "cause_of_leaving": "remains on board",
        "sign_with_mark": "n",
        "notes": "blk"
    },
    {
        "id": "vtls004924027_0_13",
        "type": "sailor",
        "parent": "vtls004924027",
        "name": "john jones",
        "dob": "blk",
        "age": "16",
        "place_of_birth": "borth",
        "home_address": "blk",
        "f": "blk",
        "name_of_ship": "mary jane",
        "ship_port": "aberystwyth",
        "date_leaving": "blk",
        "joined_ship_date": "1870",
        "joined_at_port": "aberdovey",
        "capacity": "boy",
        "date_left": "blk",
        "left_port": "blk",
        "cause_of_leaving": "remains on board",
        "sign_with_mark": "n",
        "notes": "blk"
    },
    {
        "id": "vtls004924015_0_12",
        "type": "sailor",
        "parent": "vtls004924015",
        "name": "john lock",
        "dob": "blk",
        "age": "23",
        "place_of_birth": "aberystwyth",
        "home_address": "blk",
        "f": "blk",
        "name_of_ship": "mary jane",
        "ship_port": "aberystwyth",
        "date_leaving": "blk",
        "joined_ship_date": "1869-07-14",
        "joined_at_port": "cardiff",
        "capacity": "mate",
        "date_left": "blk",
        "left_port": "blk",
        "cause_of_leaving": "remains on board",
        "sign_with_mark": "n",
        "notes": "blk"
    },
    {
        "id": "vtls004924102_0_13",
        "type": "sailor",
        "parent": "vtls004924102",
        "name": "john jones",
        "dob": "blk",
        "age": "15",
        "place_of_birth": "borth",
        "home_address": "blk",
        "f": "blk",
        "name_of_ship": "elizabeth & margaret",
        "ship_port": "aberystwyth",
        "date_leaving": "1872-12-06",
        "joined_ship_date": "1872-03-06",
        "joined_at_port": "aberdovey",
        "capacity": "ordinary seaman",
        "date_left": "1872-04-27",
        "left_port": "aberdovey",
        "cause_of_leaving": "discharged",
        "sign_with_mark": "n",
        "notes": "blk"
    },
    {
        "id": "vtls004924102_0_14",
        "type": "sailor",
        "parent": "vtls004924102",
        "name": "william morris",
        "dob": "blk",
        "age": "16",
        "place_of_birth": "borth",
        "home_address": "blk",
        "f": "blk",
        "name_of_ship": "[pyrenee]",
        "ship_port": "aberystwyth",
        "date_leaving": "1872-04-08",
        "joined_ship_date": "1872-04-20",
        "joined_at_port": "aberdovey",
        "capacity": "ordinary seaman",
        "date_left": "1872-05-20",
        "left_port": "aberdovey",
        "cause_of_leaving": "discharged",
        "sign_with_mark": "n",
        "notes": "blk"
    },
    {
        "id": "vtls004924102_0_11",
        "type": "sailor",
        "parent": "vtls004924102",
        "name": "david daniel",
        "dob": "blk",
        "age": "31",
        "place_of_birth": "borth",
        "home_address": "blk",
        "f": "blk",
        "name_of_ship": "mary jane",
        "ship_port": "aberystwyth",
        "date_leaving": "blk",
        "joined_ship_date": "1869",
        "joined_at_port": "bangor",
        "capacity": "master",
        "date_left": "blk",
        "left_port": "blk",
        "cause_of_leaving": "remains on board",
        "sign_with_mark": "n",
        "notes": "account for jan - june 1872"
    },
    {
        "id": "vtls004924102_0_12",
        "type": "sailor",
        "parent": "vtls004924102",
        "name": "william jones",
        "dob": "blk",
        "age": "40",
        "place_of_birth": "borth",
        "home_address": "blk",
        "f": "blk",
        "name_of_ship": "koh-i-noor",
        "ship_port": "aberystwyth",
        "date_leaving": "1871-10-27",
        "joined_ship_date": "1872-01-01",
        "joined_at_port": "newport",
        "capacity": "mate",
        "date_left": "blk",
        "left_port": "blk",
        "cause_of_leaving": "remains on board",
        "sign_with_mark": "n",
        "notes": "blk"
    },
    {
        "id": "vtls004924102_0_15",
        "type": "sailor",
        "parent": "vtls004924102",
        "name": "william jenkins",
        "dob": "blk",
        "age": "17",
        "place_of_birth": "borth",
        "home_address": "blk",
        "f": "blk",
        "name_of_ship": "[falcon]",
        "ship_port": "aberystwyth",
        "date_leaving": "1872-06-10",
        "joined_ship_date": "1872-06-20",
        "joined_at_port": "aberdovey",
        "capacity": "boy",
        "date_left": "blk",
        "left_port": "blk",
        "cause_of_leaving": "remains on board",
        "sign_with_mark": "n",
        "notes": "blk"
    },
    {
        "id": "vtls004924027_1_12",
        "type": "sailor",
        "parent": "vtls004924027",
        "name": "richard williams",
        "dob": "blk",
        "age": "40",
        "place_of_birth": "aberdovey",
        "home_address": "blk",
        "f": "blk",
        "name_of_ship": "mary jane",
        "ship_port": "aberystwyth",
        "date_leaving": "continues",
        "joined_ship_date": "blk",
        "joined_at_port": "blk",
        "capacity": "mate",
        "date_left": "blk",
        "left_port": "blk",
        "cause_of_leaving": "remains on board",
        "sign_with_mark": "n",
        "notes": "blk"
    },
    {
        "id": "vtls004924027_1_13",
        "type": "sailor",
        "parent": "vtls004924027",
        "name": "david daniels",
        "dob": "blk",
        "age": "60",
        "place_of_birth": "aberdovey",
        "home_address": "blk",
        "f": "blk",
        "name_of_ship": "mary jane",
        "ship_port": "aberystwyth",
        "date_leaving": "continues",
        "joined_ship_date": "blk",
        "joined_at_port": "blk",
        "capacity": "cook",
        "date_left": "blk",
        "left_port": "blk",
        "cause_of_leaving": "remains on board",
        "sign_with_mark": "n",
        "notes": "blk"
    },
    {
        "id": "vtls004924102_1_13",
        "type": "sailor",
        "parent": "vtls004924102",
        "name": "wiliam jenkins",
        "dob": "blk",
        "age": "12",
        "place_of_birth": "borth",
        "home_address": "blk",
        "f": "blk",
        "name_of_ship": "mary jane",
        "ship_port": "aberystwyth",
        "date_leaving": "blk",
        "joined_ship_date": "1872-03-06",
        "joined_at_port": "aberdovey",
        "capacity": "ordinary seaman",
        "date_left": "1872-07-10",
        "left_port": "aberdovey",
        "cause_of_leaving": "discharged",
        "sign_with_mark": "n",
        "notes": "blk"
    },
    {
        "id": "vtls004924102_1_14",
        "type": "sailor",
        "parent": "vtls004924102",
        "name": "john edwards",
        "dob": "blk",
        "age": "23",
        "place_of_birth": "borth",
        "home_address": "blk",
        "f": "blk",
        "name_of_ship": "[escantles]",
        "ship_port": "blk",
        "date_leaving": "1872-06-28",
        "joined_ship_date": "1872-07-13",
        "joined_at_port": "aberdovey",
        "capacity": "able seaman",
        "date_left": "1872-11-20",
        "left_port": "aberystwyth",
        "cause_of_leaving": "discharged",
        "sign_with_mark": "n",
        "notes": "blk"
    },
    {
        "id": "vtls004924102_1_11",
        "type": "sailor",
        "parent": "vtls004924102",
        "name": "david daniel",
        "dob": "blk",
        "age": "33",
        "place_of_birth": "borth",
        "home_address": "blk",
        "f": "blk",
        "name_of_ship": "mary jane",
        "ship_port": "aberystwyth",
        "date_leaving": "blk",
        "joined_ship_date": "1868",
        "joined_at_port": "aberdovey",
        "capacity": "master",
        "date_left": "blk",
        "left_port": "blk",
        "cause_of_leaving": "remains on board",
        "sign_with_mark": "n",
        "notes": "account for july - dec 1872"
    },
    {
        "id": "vtls004924102_1_12",
        "type": "sailor",
        "parent": "vtls004924102",
        "name": "william jones",
        "dob": "blk",
        "age": "46",
        "place_of_birth": "borth",
        "home_address": "blk",
        "f": "blk",
        "name_of_ship": "mary jane",
        "ship_port": "aberystwyth",
        "date_leaving": "blk",
        "joined_ship_date": "1872-03-06",
        "joined_at_port": "aberdovey",
        "capacity": "mate",
        "date_left": "187[2]-06-13",
        "left_port": "aberystwyth",
        "cause_of_leaving": "discharged",
        "sign_with_mark": "n",
        "notes": "blk"
    }
]