[
    {
        "id": "vtls004672130_0_11",
        "type": "sailor",
        "parent": "vtls004672130",
        "name": "thomas evans",
        "dob": "blk",
        "age": "31",
        "place_of_birth": "newquay",
        "home_address": "on board ship",
        "f": "on board ship",
        "name_of_ship": "hetty ellen",
        "ship_port": "aberystwyth",
        "date_leaving": "blk",
        "joined_ship_date": "blk",
        "joined_at_port": "blk",
        "capacity": "master",
        "date_left": "1874-08-10",
        "left_port": "london",
        "cause_of_leaving": "remains on board",
        "sign_with_mark": "n",
        "notes": "blk"
    },
    {
        "id": "vtls004672130_0_17",
        "type": "sailor",
        "parent": "vtls004672130",
        "name": "william chambers",
        "dob": "blk",
        "age": "19",
        "place_of_birth": "glasgow",
        "home_address": "blk",
        "f": "blk",
        "name_of_ship": "dutch ship",
        "ship_port": "blk",
        "date_leaving": "blk",
        "joined_ship_date": "1873-10-23",
        "joined_at_port": "london",
        "capacity": "ordinary seaman",
        "date_left": "1874-08-10",
        "left_port": "london",
        "cause_of_leaving": "discharged",
        "sign_with_mark": "y",
        "notes": "blk"
    },
    {
        "id": "vtls004672130_0_14",
        "type": "sailor",
        "parent": "vtls004672130",
        "name": "frank diedrich",
        "dob": "blk",
        "age": "34",
        "place_of_birth": "schiedam",
        "home_address": "blk",
        "f": "blk",
        "name_of_ship": "milford",
        "ship_port": "london",
        "date_leaving": "1873",
        "joined_ship_date": "1873-10-23",
        "joined_at_port": "london",
        "capacity": "able seaman",
        "date_left": "1874-05-01",
        "left_port": "natal",
        "cause_of_leaving": "deserted",
        "sign_with_mark": "y",
        "notes": "blk"
    },
    {
        "id": "vtls004672130_0_12",
        "type": "sailor",
        "parent": "vtls004672130",
        "name": "john evans",
        "dob": "blk",
        "age": "28",
        "place_of_birth": "newquay",
        "home_address": "blk",
        "f": "blk",
        "name_of_ship": "aurora australis",
        "ship_port": "london",
        "date_leaving": "1873",
        "joined_ship_date": "1873-10-23",
        "joined_at_port": "london",
        "capacity": "mate",
        "date_left": "1874-08-10",
        "left_port": "london",
        "cause_of_leaving": "discharged",
        "sign_with_mark": "n",
        "notes": "blk"
    },
    {
        "id": "vtls004672130_0_15",
        "type": "sailor",
        "parent": "vtls004672130",
        "name": "charles harris",
        "dob": "blk",
        "age": "22",
        "place_of_birth": "finland",
        "home_address": "blk",
        "f": "blk",
        "name_of_ship": "dutch ship",
        "ship_port": "blk",
        "date_leaving": "blk",
        "joined_ship_date": "1873-10-27",
        "joined_at_port": "london",
        "capacity": "able seaman",
        "date_left": "1874-05-01",
        "left_port": "natal",
        "cause_of_leaving": "deserted",
        "sign_with_mark": "y",
        "notes": "blk"
    },
    {
        "id": "vtls004672130_0_16",
        "type": "sailor",
        "parent": "vtls004672130",
        "name": "john marni",
        "dob": "blk",
        "age": "20",
        "place_of_birth": "finland",
        "home_address": "blk",
        "f": "blk",
        "name_of_ship": "dutch ship",
        "ship_port": "blk",
        "date_leaving": "blk",
        "joined_ship_date": "1873-10-27",
        "joined_at_port": "london",
        "capacity": "ordinary seaman",
        "date_left": "1874-05-01",
        "left_port": "natal",
        "cause_of_leaving": "deserted",
        "sign_with_mark": "y",
        "notes": "blk"
    },
    {
        "id": "vtls004672130_0_13",
        "type": "sailor",
        "parent": "vtls004672130",
        "name": "henry smith",
        "dob": "blk",
        "age": "26",
        "place_of_birth": "rotterdam",
        "home_address": "blk",
        "f": "blk",
        "name_of_ship": "dutch ship",
        "ship_port": "blk",
        "date_leaving": "blk",
        "joined_ship_date": "blk",
        "joined_at_port": "blk",
        "capacity": "cook & steward",
        "date_left": "blk",
        "left_port": "blk",
        "cause_of_leaving": "did not join",
        "sign_with_mark": "n",
        "notes": "blk"
    },
    {
        "id": "vtls004672130_0_22",
        "type": "sailor",
        "parent": "vtls004672130",
        "name": "august cushberg",
        "dob": "blk",
        "age": "19",
        "place_of_birth": "russia",
        "home_address": "blk",
        "f": "blk",
        "name_of_ship": "hedvig",
        "ship_port": "blk",
        "date_leaving": "1873",
        "joined_ship_date": "1874-05-04",
        "joined_at_port": "natal",
        "capacity": "ordinary seaman",
        "date_left": "1874-08-10",
        "left_port": "london",
        "cause_of_leaving": "discharged",
        "sign_with_mark": "n",
        "notes": "this spelling of name is from log book. spelling on agreement looks different but is illegible."
    },
    {
        "id": "vtls004672130_0_19",
        "type": "sailor",
        "parent": "vtls004672130",
        "name": "andrew bogle",
        "dob": "blk",
        "age": "22",
        "place_of_birth": "swansea",
        "home_address": "blk",
        "f": "blk",
        "name_of_ship": "casket",
        "ship_port": "guernsey",
        "date_leaving": "1873",
        "joined_ship_date": "1873-10-27",
        "joined_at_port": "london",
        "capacity": "cook & steward",
        "date_left": "1874-05-04",
        "left_port": "natal",
        "cause_of_leaving": "left in gaol",
        "sign_with_mark": "n",
        "notes": "left in gaol indebted to ship"
    },
    {
        "id": "vtls004672130_0_18",
        "type": "sailor",
        "parent": "vtls004672130",
        "name": "john smith",
        "dob": "blk",
        "age": "15",
        "place_of_birth": "cambridge",
        "home_address": "blk",
        "f": "blk",
        "name_of_ship": "hetty ellen",
        "ship_port": "aberystwyth",
        "date_leaving": "blk",
        "joined_ship_date": "1873-10-23",
        "joined_at_port": "london",
        "capacity": "ordinary seaman",
        "date_left": "1874-08-10",
        "left_port": "london",
        "cause_of_leaving": "discharged",
        "sign_with_mark": "n",
        "notes": "blk"
    },
    {
        "id": "vtls004672130_0_20",
        "type": "sailor",
        "parent": "vtls004672130",
        "name": "thomas laskar",
        "dob": "blk",
        "age": "20",
        "place_of_birth": "gibraltar",
        "home_address": "blk",
        "f": "blk",
        "name_of_ship": "georgia",
        "ship_port": "blk",
        "date_leaving": "1874",
        "joined_ship_date": "1874-05-04",
        "joined_at_port": "natal",
        "capacity": "able seaman",
        "date_left": "1874-08-10",
        "left_port": "london",
        "cause_of_leaving": "discharged",
        "sign_with_mark": "y",
        "notes": "blk"
    },
    {
        "id": "vtls004672130_0_21",
        "type": "sailor",
        "parent": "vtls004672130",
        "name": "antonio costa",
        "dob": "blk",
        "age": "26",
        "place_of_birth": "spain",
        "home_address": "blk",
        "f": "blk",
        "name_of_ship": "china",
        "ship_port": "blk",
        "date_leaving": "1873",
        "joined_ship_date": "1874-05-04",
        "joined_at_port": "natal",
        "capacity": "able seaman",
        "date_left": "1874-08-10",
        "left_port": "london",
        "cause_of_leaving": "discharged",
        "sign_with_mark": "y",
        "notes": "blk"
    }
]