[
    {
        "id": "vtls004971779_0_11",
        "type": "sailor",
        "parent": "vtls004971779",
        "name": "william edwards",
        "dob": "blk",
        "age": "40",
        "place_of_birth": "aberystwyth",
        "home_address": "blk",
        "f": "blk",
        "name_of_ship": "two sisters",
        "ship_port": "aberystwyth",
        "date_leaving": "blk",
        "joined_ship_date": "blk",
        "joined_at_port": "blk",
        "capacity": "master",
        "date_left": "blk",
        "left_port": "blk",
        "cause_of_leaving": "remains on board",
        "sign_with_mark": "n",
        "notes": "blk"
    },
    {
        "id": "vtls004971779_0_13",
        "type": "sailor",
        "parent": "vtls004971779",
        "name": "richard clarage",
        "dob": "blk",
        "age": "18",
        "place_of_birth": "aberystwyth",
        "home_address": "blk",
        "f": "blk",
        "name_of_ship": "two sisters",
        "ship_port": "aberystwyth",
        "date_leaving": "blk",
        "joined_ship_date": "blk",
        "joined_at_port": "blk",
        "capacity": "boy",
        "date_left": "blk",
        "left_port": "blk",
        "cause_of_leaving": "remains on board",
        "sign_with_mark": "n",
        "notes": "blk"
    },
    {
        "id": "vtls004971779_0_12",
        "type": "sailor",
        "parent": "vtls004971779",
        "name": "richard davies",
        "dob": "blk",
        "age": "27",
        "place_of_birth": "bangor",
        "home_address": "blk",
        "f": "blk",
        "name_of_ship": "two sisters",
        "ship_port": "aberystwyth",
        "date_leaving": "blk",
        "joined_ship_date": "blk",
        "joined_at_port": "blk",
        "capacity": "mate",
        "date_left": "blk",
        "left_port": "blk",
        "cause_of_leaving": "remains on board",
        "sign_with_mark": "n",
        "notes": "blk"
    },
    {
        "id": "vtls004971779_0_14",
        "type": "sailor",
        "parent": "vtls004971779",
        "name": "john davies",
        "dob": "blk",
        "age": "15",
        "place_of_birth": "aberystwyth",
        "home_address": "blk",
        "f": "blk",
        "name_of_ship": "two sisters",
        "ship_port": "aberystwyth",
        "date_leaving": "blk",
        "joined_ship_date": "blk",
        "joined_at_port": "blk",
        "capacity": "boy",
        "date_left": "blk",
        "left_port": "blk",
        "cause_of_leaving": "remains on board",
        "sign_with_mark": "n",
        "notes": "blk"
    },
    {
        "id": "vtls004971783_0_13",
        "type": "sailor",
        "parent": "vtls004971783",
        "name": "david edwards",
        "dob": "blk",
        "age": "15",
        "place_of_birth": "aberystwyth",
        "home_address": "blk",
        "f": "blk",
        "name_of_ship": "messenger",
        "ship_port": "aberystwyth",
        "date_leaving": "1863",
        "joined_ship_date": "1864-02",
        "joined_at_port": "aberystwyth",
        "capacity": "seaman",
        "date_left": "1864-06-30",
        "left_port": "aberystwyth",
        "cause_of_leaving": "discharged",
        "sign_with_mark": "n",
        "notes": "blk"
    },
    {
        "id": "vtls004971783_1_11",
        "type": "sailor",
        "parent": "vtls004971783",
        "name": "william edwards",
        "dob": "blk",
        "age": "41",
        "place_of_birth": "aberystwyth",
        "home_address": "blk",
        "f": "blk",
        "name_of_ship": "two sisters",
        "ship_port": "aberystwyth",
        "date_leaving": "blk",
        "joined_ship_date": "1864-07-01",
        "joined_at_port": "aberystwyth",
        "capacity": "master",
        "date_left": "blk",
        "left_port": "blk",
        "cause_of_leaving": "remains on board",
        "sign_with_mark": "n",
        "notes": "blk"
    },
    {
        "id": "vtls004971779_1_14",
        "type": "sailor",
        "parent": "vtls004971779",
        "name": "richard edwards",
        "dob": "blk",
        "age": "20",
        "place_of_birth": "aberystwyth",
        "home_address": "blk",
        "f": "blk",
        "name_of_ship": "law ogilby",
        "ship_port": "london",
        "date_leaving": "1863",
        "joined_ship_date": "1863-10",
        "joined_at_port": "aberystwyth",
        "capacity": "mate",
        "date_left": "1863-12-24",
        "left_port": "aberystwyth",
        "cause_of_leaving": "discharged",
        "sign_with_mark": "n",
        "notes": "blk"
    },
    {
        "id": "vtls004971779_1_15",
        "type": "sailor",
        "parent": "vtls004971779",
        "name": "john davies",
        "dob": "blk",
        "age": "14",
        "place_of_birth": "aberystwyth",
        "home_address": "blk",
        "f": "blk",
        "name_of_ship": "caroline",
        "ship_port": "aberystwyth",
        "date_leaving": "1863",
        "joined_ship_date": "1863-10",
        "joined_at_port": "aberystwyth",
        "capacity": "seaman",
        "date_left": "1863-12-24",
        "left_port": "aberystwyth",
        "cause_of_leaving": "discharged",
        "sign_with_mark": "n",
        "notes": "blk"
    },
    {
        "id": "vtls004971783_0_12",
        "type": "sailor",
        "parent": "vtls004971783",
        "name": "richard edwards",
        "dob": "blk",
        "age": "19",
        "place_of_birth": "aberystwyth",
        "home_address": "blk",
        "f": "blk",
        "name_of_ship": "two sisters",
        "ship_port": "aberystwyth",
        "date_leaving": "blk",
        "joined_ship_date": "blk",
        "joined_at_port": "blk",
        "capacity": "mate",
        "date_left": "1864-06-30",
        "left_port": "aberystwyth",
        "cause_of_leaving": "discharged",
        "sign_with_mark": "n",
        "notes": "blk"
    },
    {
        "id": "vtls004971779_1_12",
        "type": "sailor",
        "parent": "vtls004971779",
        "name": "richard davies",
        "dob": "blk",
        "age": "23",
        "place_of_birth": "aberystwyth",
        "home_address": "blk",
        "f": "blk",
        "name_of_ship": "two sisters",
        "ship_port": "aberystwyth",
        "date_leaving": "blk",
        "joined_ship_date": "blk",
        "joined_at_port": "blk",
        "capacity": "mate",
        "date_left": "1863-09",
        "left_port": "aberystwyth",
        "cause_of_leaving": "discharged",
        "sign_with_mark": "n",
        "notes": "blk"
    },
    {
        "id": "vtls004971779_1_13",
        "type": "sailor",
        "parent": "vtls004971779",
        "name": "john davies",
        "dob": "blk",
        "age": "18",
        "place_of_birth": "aberystwyth",
        "home_address": "blk",
        "f": "blk",
        "name_of_ship": "two sisters",
        "ship_port": "aberystwyth",
        "date_leaving": "blk",
        "joined_ship_date": "blk",
        "joined_at_port": "blk",
        "capacity": "seaman",
        "date_left": "1863-09",
        "left_port": "aberystwyth",
        "cause_of_leaving": "discharged",
        "sign_with_mark": "n",
        "notes": "blk"
    },
    {
        "id": "vtls004971779_1_11",
        "type": "sailor",
        "parent": "vtls004971779",
        "name": "william edwards",
        "dob": "blk",
        "age": "40",
        "place_of_birth": "aberystwyth",
        "home_address": "blk",
        "f": "blk",
        "name_of_ship": "two sisters",
        "ship_port": "aberystwyth",
        "date_leaving": "blk",
        "joined_ship_date": "blk",
        "joined_at_port": "blk",
        "capacity": "master",
        "date_left": "blk",
        "left_port": "blk",
        "cause_of_leaving": "remains on board",
        "sign_with_mark": "n",
        "notes": "blk"
    },
    {
        "id": "vtls004971783_0_11",
        "type": "sailor",
        "parent": "vtls004971783",
        "name": "william edwards",
        "dob": "blk",
        "age": "40",
        "place_of_birth": "aberystwyth",
        "home_address": "blk",
        "f": "blk",
        "name_of_ship": "two sisters",
        "ship_port": "aberystwyth",
        "date_leaving": "blk",
        "joined_ship_date": "blk",
        "joined_at_port": "blk",
        "capacity": "master",
        "date_left": "blk",
        "left_port": "blk",
        "cause_of_leaving": "remains on board",
        "sign_with_mark": "n",
        "notes": "blk"
    },
    {
        "id": "vtls004971783_1_13",
        "type": "sailor",
        "parent": "vtls004971783",
        "name": "william griffiths",
        "dob": "blk",
        "age": "18",
        "place_of_birth": "aberystwyth",
        "home_address": "blk",
        "f": "blk",
        "name_of_ship": "two sisters",
        "ship_port": "aberystwyth",
        "date_leaving": "blk",
        "joined_ship_date": "1864-07-01",
        "joined_at_port": "aberystwyth",
        "capacity": "ordinary seaman",
        "date_left": "blk",
        "left_port": "blk",
        "cause_of_leaving": "remains on board",
        "sign_with_mark": "n",
        "notes": "blk"
    },
    {
        "id": "vtls004971794_1_12",
        "type": "sailor",
        "parent": "vtls004971794",
        "name": "richard jones",
        "dob": "blk",
        "age": "50",
        "place_of_birth": "aberystwyth",
        "home_address": "blk",
        "f": "blk",
        "name_of_ship": "previous to 1st july 1866",
        "ship_port": "blk",
        "date_leaving": "blk",
        "joined_ship_date": "blk",
        "joined_at_port": "blk",
        "capacity": "mate",
        "date_left": "1866-12-04",
        "left_port": "aberystwyth",
        "cause_of_leaving": "discharged",
        "sign_with_mark": "n",
        "notes": "blk"
    },
    {
        "id": "vtls004971794_1_11",
        "type": "sailor",
        "parent": "vtls004971794",
        "name": "william edwards",
        "dob": "blk",
        "age": "44",
        "place_of_birth": "aberystwyth",
        "home_address": "blk",
        "f": "blk",
        "name_of_ship": "previous to 1st july 1866",
        "ship_port": "blk",
        "date_leaving": "blk",
        "joined_ship_date": "blk",
        "joined_at_port": "blk",
        "capacity": "master",
        "date_left": "blk",
        "left_port": "blk",
        "cause_of_leaving": "remains on board",
        "sign_with_mark": "n",
        "notes": "blk"
    },
    {
        "id": "vtls004971783_1_12",
        "type": "sailor",
        "parent": "vtls004971783",
        "name": "john lloyd",
        "dob": "blk",
        "age": "60",
        "place_of_birth": "aberystwyth",
        "home_address": "blk",
        "f": "blk",
        "name_of_ship": "two sisters",
        "ship_port": "aberystwyth",
        "date_leaving": "blk",
        "joined_ship_date": "1864-07-01",
        "joined_at_port": "aberystwyth",
        "capacity": "mate",
        "date_left": "blk",
        "left_port": "blk",
        "cause_of_leaving": "remains on board",
        "sign_with_mark": "n",
        "notes": "blk"
    },
    {
        "id": "vtls004971794_0_11",
        "type": "sailor",
        "parent": "vtls004971794",
        "name": "william edwards",
        "dob": "blk",
        "age": "42",
        "place_of_birth": "aberystwyth",
        "home_address": "blk",
        "f": "blk",
        "name_of_ship": "two sisters",
        "ship_port": "aberystwyth",
        "date_leaving": "blk",
        "joined_ship_date": "blk",
        "joined_at_port": "blk",
        "capacity": "master",
        "date_left": "blk",
        "left_port": "blk",
        "cause_of_leaving": "remains on board",
        "sign_with_mark": "n",
        "notes": "blk"
    },
    {
        "id": "vtls004971794_0_13",
        "type": "sailor",
        "parent": "vtls004971794",
        "name": "david thomas",
        "dob": "blk",
        "age": "20",
        "place_of_birth": "cardigan",
        "home_address": "blk",
        "f": "blk",
        "name_of_ship": "two sisters",
        "ship_port": "aberystwyth",
        "date_leaving": "blk",
        "joined_ship_date": "blk",
        "joined_at_port": "blk",
        "capacity": "seaman",
        "date_left": "blk",
        "left_port": "blk",
        "cause_of_leaving": "remains on board",
        "sign_with_mark": "n",
        "notes": "blk"
    },
    {
        "id": "vtls004971794_0_12",
        "type": "sailor",
        "parent": "vtls004971794",
        "name": "richard jones",
        "dob": "blk",
        "age": "50",
        "place_of_birth": "aberystwyth",
        "home_address": "blk",
        "f": "blk",
        "name_of_ship": "two sisters",
        "ship_port": "aberystwyth",
        "date_leaving": "blk",
        "joined_ship_date": "blk",
        "joined_at_port": "blk",
        "capacity": "mate",
        "date_left": "blk",
        "left_port": "blk",
        "cause_of_leaving": "remains on board",
        "sign_with_mark": "n",
        "notes": "blk"
    },
    {
        "id": "vtls004971799_1_13",
        "type": "sailor",
        "parent": "vtls004971799",
        "name": "william edwards",
        "dob": "blk",
        "age": "17",
        "place_of_birth": "aberystwyth",
        "home_address": "blk",
        "f": "blk",
        "name_of_ship": "two sisters",
        "ship_port": "aberystwyth",
        "date_leaving": "blk",
        "joined_ship_date": "previous to 30 of june 1867",
        "joined_at_port": "blk",
        "capacity": "ordinary seaman",
        "date_left": "1867-12-14",
        "left_port": "aberystwyth",
        "cause_of_leaving": "discharged",
        "sign_with_mark": "n",
        "notes": "blk"
    },
    {
        "id": "vtls004971799_0_11",
        "type": "sailor",
        "parent": "vtls004971799",
        "name": "william edwards",
        "dob": "blk",
        "age": "44",
        "place_of_birth": "aberystwyth",
        "home_address": "blk",
        "f": "blk",
        "name_of_ship": "board of this ship",
        "ship_port": "aberystwyth",
        "date_leaving": "blk",
        "joined_ship_date": "previous to 31 december 1866",
        "joined_at_port": "blk",
        "capacity": "master",
        "date_left": "blk",
        "left_port": "blk",
        "cause_of_leaving": "remains on board",
        "sign_with_mark": "n",
        "notes": "blk"
    },
    {
        "id": "vtls004971799_0_13",
        "type": "sailor",
        "parent": "vtls004971799",
        "name": "william edwards",
        "dob": "blk",
        "age": "15",
        "place_of_birth": "aberystwyth",
        "home_address": "blk",
        "f": "blk",
        "name_of_ship": "two sisters",
        "ship_port": "aberystwyth",
        "date_leaving": "1866-11-10",
        "joined_ship_date": "1867-02-15",
        "joined_at_port": "aberystwyth",
        "capacity": "ordinary seaman",
        "date_left": "blk",
        "left_port": "blk",
        "cause_of_leaving": "remains on board",
        "sign_with_mark": "n",
        "notes": "blk"
    },
    {
        "id": "vtls004971799_1_12",
        "type": "sailor",
        "parent": "vtls004971799",
        "name": "david morgans",
        "dob": "blk",
        "age": "57",
        "place_of_birth": "aberystwyth",
        "home_address": "blk",
        "f": "blk",
        "name_of_ship": "two sisters",
        "ship_port": "aberystwyth",
        "date_leaving": "blk",
        "joined_ship_date": "previous to 30 of june 1867",
        "joined_at_port": "blk",
        "capacity": "mate",
        "date_left": "1867-12-14",
        "left_port": "aberystwyth",
        "cause_of_leaving": "discharged",
        "sign_with_mark": "n",
        "notes": "blk"
    },
    {
        "id": "vtls004971794_1_14",
        "type": "sailor",
        "parent": "vtls004971794",
        "name": "humphrey hughes",
        "dob": "blk",
        "age": "24",
        "place_of_birth": "caernarfon",
        "home_address": "blk",
        "f": "blk",
        "name_of_ship": "previous to 1st july 1866",
        "ship_port": "blk",
        "date_leaving": "blk",
        "joined_ship_date": "blk",
        "joined_at_port": "blk",
        "capacity": "ordinary seaman",
        "date_left": "1866-12-04",
        "left_port": "aberystwyth",
        "cause_of_leaving": "discharged",
        "sign_with_mark": "n",
        "notes": "blk"
    },
    {
        "id": "vtls004971799_1_11",
        "type": "sailor",
        "parent": "vtls004971799",
        "name": "william edwards",
        "dob": "blk",
        "age": "44",
        "place_of_birth": "aberystwyth",
        "home_address": "blk",
        "f": "blk",
        "name_of_ship": "two sisters",
        "ship_port": "aberystwyth",
        "date_leaving": "blk",
        "joined_ship_date": "previous to 30 of june 1867",
        "joined_at_port": "blk",
        "capacity": "master",
        "date_left": "blk",
        "left_port": "blk",
        "cause_of_leaving": "remains on board",
        "sign_with_mark": "n",
        "notes": "blk"
    },
    {
        "id": "vtls004971799_0_12",
        "type": "sailor",
        "parent": "vtls004971799",
        "name": "david morgans",
        "dob": "blk",
        "age": "58",
        "place_of_birth": "aberystwyth",
        "home_address": "blk",
        "f": "blk",
        "name_of_ship": "ann & betsey",
        "ship_port": "aberystwyth",
        "date_leaving": "1866-12-27",
        "joined_ship_date": "1867-02-15",
        "joined_at_port": "aberystwyth",
        "capacity": "mate",
        "date_left": "blk",
        "left_port": "blk",
        "cause_of_leaving": "remains on board",
        "sign_with_mark": "n",
        "notes": "blk"
    },
    {
        "id": "vtls004971794_1_13",
        "type": "sailor",
        "parent": "vtls004971794",
        "name": "john leek",
        "dob": "blk",
        "age": "18",
        "place_of_birth": "aberystwyth",
        "home_address": "blk",
        "f": "blk",
        "name_of_ship": "previous to 1st july 1866",
        "ship_port": "blk",
        "date_leaving": "blk",
        "joined_ship_date": "blk",
        "joined_at_port": "blk",
        "capacity": "ordinary seaman",
        "date_left": "1866-11-07",
        "left_port": "barrow",
        "cause_of_leaving": "discharged",
        "sign_with_mark": "n",
        "notes": "blk"
    },
    {
        "id": "vtls004971799_1_9",
        "type": "sailor",
        "parent": "vtls004971799",
        "name": "pre",
        "dob": "blk",
        "age": "35",
        "place_of_birth": "cardigan",
        "home_address": "blk",
        "f": "blk",
        "name_of_ship": "majestic of aberystwyth",
        "ship_port": "cardiff",
        "date_leaving": "1868",
        "joined_ship_date": "1850-09-21",
        "joined_at_port": "llanelly",
        "capacity": "mate",
        "date_left": "blk",
        "left_port": "blk",
        "cause_of_leaving": "remains on board",
        "sign_with_mark": "n",
        "notes": "blk"
    },
    {
        "id": "vtls004971799_1_14",
        "type": "sailor",
        "parent": "vtls004971799",
        "name": "william edwards",
        "dob": "blk",
        "age": "12",
        "place_of_birth": "aberystwyth",
        "home_address": "blk",
        "f": "blk",
        "name_of_ship": "two sisters",
        "ship_port": "aberystwyth",
        "date_leaving": "blk",
        "joined_ship_date": "previous to 30 of june 1867",
        "joined_at_port": "blk",
        "capacity": "boy",
        "date_left": "1867-12-14",
        "left_port": "aberystwyth",
        "cause_of_leaving": "discharged",
        "sign_with_mark": "n",
        "notes": "blk"
    },
    {
        "id": "vtls004971808_0_11",
        "type": "sailor",
        "parent": "vtls004971808",
        "name": "william edwards",
        "dob": "blk",
        "age": "45",
        "place_of_birth": "aberystwyth",
        "home_address": "blk",
        "f": "blk",
        "name_of_ship": "two sisters",
        "ship_port": "aberystwyth",
        "date_leaving": "blk",
        "joined_ship_date": "previous to 31 of december 1867",
        "joined_at_port": "blk",
        "capacity": "master",
        "date_left": "blk",
        "left_port": "blk",
        "cause_of_leaving": "remains on board",
        "sign_with_mark": "n",
        "notes": "blk"
    },
    {
        "id": "vtls004971808_0_14",
        "type": "sailor",
        "parent": "vtls004971808",
        "name": "william edwards",
        "dob": "blk",
        "age": "12",
        "place_of_birth": "aberystwyth",
        "home_address": "blk",
        "f": "blk",
        "name_of_ship": "two sisters",
        "ship_port": "aberystwyth",
        "date_leaving": "blk",
        "joined_ship_date": "previous to 31 of december 1867",
        "joined_at_port": "blk",
        "capacity": "boy",
        "date_left": "blk",
        "left_port": "blk",
        "cause_of_leaving": "remains on board",
        "sign_with_mark": "n",
        "notes": "blk"
    },
    {
        "id": "vtls004971808_0_12",
        "type": "sailor",
        "parent": "vtls004971808",
        "name": "david morgans",
        "dob": "blk",
        "age": "59",
        "place_of_birth": "aberystwyth",
        "home_address": "blk",
        "f": "blk",
        "name_of_ship": "two sisters",
        "ship_port": "aberystwyth",
        "date_leaving": "blk",
        "joined_ship_date": "previous to 31 of december 1867",
        "joined_at_port": "blk",
        "capacity": "mate",
        "date_left": "blk",
        "left_port": "blk",
        "cause_of_leaving": "remains on board",
        "sign_with_mark": "n",
        "notes": "blk"
    },
    {
        "id": "vtls004971808_1_11",
        "type": "sailor",
        "parent": "vtls004971808",
        "name": "william edwards",
        "dob": "blk",
        "age": "46",
        "place_of_birth": "aberystwyth",
        "home_address": "blk",
        "f": "blk",
        "name_of_ship": "two sisters",
        "ship_port": "aberystwyth",
        "date_leaving": "blk",
        "joined_ship_date": "previous to 30 of june 1868",
        "joined_at_port": "blk",
        "capacity": "master",
        "date_left": "blk",
        "left_port": "blk",
        "cause_of_leaving": "remains on board",
        "sign_with_mark": "n",
        "notes": "blk"
    },
    {
        "id": "vtls004971808_1_12",
        "type": "sailor",
        "parent": "vtls004971808",
        "name": "david morgan",
        "dob": "blk",
        "age": "59",
        "place_of_birth": "aberystwyth",
        "home_address": "blk",
        "f": "blk",
        "name_of_ship": "two sisters",
        "ship_port": "aberystwyth",
        "date_leaving": "blk",
        "joined_ship_date": "previous to 30 of june 1868",
        "joined_at_port": "blk",
        "capacity": "mate",
        "date_left": "blk",
        "left_port": "blk",
        "cause_of_leaving": "remains on board",
        "sign_with_mark": "n",
        "notes": "blk"
    },
    {
        "id": "vtls004971808_0_13",
        "type": "sailor",
        "parent": "vtls004971808",
        "name": "david morgans",
        "dob": "blk",
        "age": "15",
        "place_of_birth": "aberystwyth",
        "home_address": "blk",
        "f": "blk",
        "name_of_ship": "castle",
        "ship_port": "aberystwyth",
        "date_leaving": "1868",
        "joined_ship_date": "1868-03-24",
        "joined_at_port": "swansea",
        "capacity": "ordinary seaman",
        "date_left": "blk",
        "left_port": "blk",
        "cause_of_leaving": "remains on board",
        "sign_with_mark": "n",
        "notes": "blk"
    },
    {
        "id": "vtls004971823_0_11",
        "type": "sailor",
        "parent": "vtls004971823",
        "name": "william edwards",
        "dob": "blk",
        "age": "46",
        "place_of_birth": "aberystwyth",
        "home_address": "blk",
        "f": "blk",
        "name_of_ship": "two sisters",
        "ship_port": "aberystwyth",
        "date_leaving": "blk",
        "joined_ship_date": "previous to 30 june 1869",
        "joined_at_port": "blk",
        "capacity": "master",
        "date_left": "1869-10-27",
        "left_port": "fishguard",
        "cause_of_leaving": "vessel lost - crew saved and landed at fishguard",
        "sign_with_mark": "n",
        "notes": "all that crew saved + discharged"
    },
    {
        "id": "vtls004971823_0_14",
        "type": "sailor",
        "parent": "vtls004971823",
        "name": "william edwards",
        "dob": "blk",
        "age": "13",
        "place_of_birth": "aberystwyth",
        "home_address": "blk",
        "f": "blk",
        "name_of_ship": "two sisters",
        "ship_port": "aberystwyth",
        "date_leaving": "blk",
        "joined_ship_date": "previous to 30 june 1869",
        "joined_at_port": "blk",
        "capacity": "boy",
        "date_left": "1869-10-27",
        "left_port": "fishguard",
        "cause_of_leaving": "vessel lost - crew saved and landed at fishguard",
        "sign_with_mark": "n",
        "notes": "blk"
    },
    {
        "id": "vtls004971823_0_12",
        "type": "sailor",
        "parent": "vtls004971823",
        "name": "david morgans",
        "dob": "blk",
        "age": "60",
        "place_of_birth": "aberystwyth",
        "home_address": "blk",
        "f": "blk",
        "name_of_ship": "two sisters",
        "ship_port": "aberystwyth",
        "date_leaving": "blk",
        "joined_ship_date": "previous to 30 june 1869",
        "joined_at_port": "blk",
        "capacity": "mate",
        "date_left": "1869-10-27",
        "left_port": "fishguard",
        "cause_of_leaving": "vessel lost - crew saved and landed at fishguard",
        "sign_with_mark": "n",
        "notes": "blk"
    },
    {
        "id": "vtls004971808_1_13",
        "type": "sailor",
        "parent": "vtls004971808",
        "name": "william edwards",
        "dob": "blk",
        "age": "12",
        "place_of_birth": "aberystwyth",
        "home_address": "blk",
        "f": "blk",
        "name_of_ship": "two sisters",
        "ship_port": "aberystwyth",
        "date_leaving": "blk",
        "joined_ship_date": "previous to 30 of june 1868",
        "joined_at_port": "blk",
        "capacity": "boy",
        "date_left": "1868-11-25",
        "left_port": "aberdovey",
        "cause_of_leaving": "discharged",
        "sign_with_mark": "n",
        "notes": "blk"
    },
    {
        "id": "vtls004971823_0_13",
        "type": "sailor",
        "parent": "vtls004971823",
        "name": "david doughton",
        "dob": "blk",
        "age": "16",
        "place_of_birth": "aberystwyth",
        "home_address": "blk",
        "f": "blk",
        "name_of_ship": "two sisters",
        "ship_port": "aberystwyth",
        "date_leaving": "blk",
        "joined_ship_date": "previous to 30 june 1869",
        "joined_at_port": "blk",
        "capacity": "boy",
        "date_left": "1869-07",
        "left_port": "liverpool",
        "cause_of_leaving": "discharged",
        "sign_with_mark": "n",
        "notes": "blk"
    },
    {
        "id": "vtls004971808_1_14",
        "type": "sailor",
        "parent": "vtls004971808",
        "name": "philip davies",
        "dob": "blk",
        "age": "18",
        "place_of_birth": "aberystwyth",
        "home_address": "blk",
        "f": "blk",
        "name_of_ship": "mary botwood",
        "ship_port": "aberystwyth",
        "date_leaving": "1868",
        "joined_ship_date": "1868-11-30",
        "joined_at_port": "aberdovey",
        "capacity": "boy",
        "date_left": "blk",
        "left_port": "blk",
        "cause_of_leaving": "remains on board",
        "sign_with_mark": "n",
        "notes": "blk"
    }
]