[
    {
        "id": "vtls004598393_0_17",
        "type": "sailor",
        "parent": "vtls004598393",
        "name": "evan thomas",
        "dob": "blk",
        "age": "21",
        "place_of_birth": "llanon",
        "home_address": "blk",
        "f": "blk",
        "name_of_ship": "strata florida",
        "ship_port": "aberystwyth",
        "date_leaving": "1862-10-03",
        "joined_ship_date": "1862-10-28",
        "joined_at_port": "london",
        "capacity": "ordinary seaman",
        "date_left": "1863-03-25",
        "left_port": "london",
        "cause_of_leaving": "discharged",
        "sign_with_mark": "n",
        "notes": "blk"
    },
    {
        "id": "vtls004598393_0_16",
        "type": "sailor",
        "parent": "vtls004598393",
        "name": "andrew randall",
        "dob": "blk",
        "age": "31",
        "place_of_birth": "heligoland",
        "home_address": "blk",
        "f": "blk",
        "name_of_ship": "athelstan",
        "ship_port": "liverpool",
        "date_leaving": "1862-09-30",
        "joined_ship_date": "1862-10-28",
        "joined_at_port": "london",
        "capacity": "able seaman",
        "date_left": "1863-03-25",
        "left_port": "london",
        "cause_of_leaving": "discharged",
        "sign_with_mark": "n",
        "notes": "blk"
    },
    {
        "id": "vtls004598393_0_15",
        "type": "sailor",
        "parent": "vtls004598393",
        "name": "thomas holmes",
        "dob": "blk",
        "age": "39",
        "place_of_birth": "chatham",
        "home_address": "blk",
        "f": "blk",
        "name_of_ship": "champion",
        "ship_port": "$",
        "date_leaving": "1862-01-22",
        "joined_ship_date": "1862-10-28",
        "joined_at_port": "london",
        "capacity": "able seaman",
        "date_left": "1863-03-25",
        "left_port": "london",
        "cause_of_leaving": "discharged",
        "sign_with_mark": "n",
        "notes": "blk"
    },
    {
        "id": "vtls004598393_0_12",
        "type": "sailor",
        "parent": "vtls004598393",
        "name": "e evans",
        "dob": "blk",
        "age": "25",
        "place_of_birth": "aberaeron",
        "home_address": "blk",
        "f": "blk",
        "name_of_ship": "aretas",
        "ship_port": "aberystwyth",
        "date_leaving": "1862-09-18",
        "joined_ship_date": "1862-10-29",
        "joined_at_port": "london",
        "capacity": "mate",
        "date_left": "1863-03-25",
        "left_port": "london",
        "cause_of_leaving": "discharged",
        "sign_with_mark": "n",
        "notes": "blk"
    },
    {
        "id": "vtls004598393_0_14",
        "type": "sailor",
        "parent": "vtls004598393",
        "name": "george wilis",
        "dob": "blk",
        "age": "30",
        "place_of_birth": "london",
        "home_address": "blk",
        "f": "blk",
        "name_of_ship": "burlington",
        "ship_port": "london",
        "date_leaving": "1862-10-20",
        "joined_ship_date": "1862-10-28",
        "joined_at_port": "london",
        "capacity": "able seaman",
        "date_left": "blk",
        "left_port": "blk",
        "cause_of_leaving": "remains on board",
        "sign_with_mark": "n",
        "notes": "blk"
    },
    {
        "id": "vtls004598393_0_13",
        "type": "sailor",
        "parent": "vtls004598393",
        "name": "j davies",
        "dob": "blk",
        "age": "19",
        "place_of_birth": "cardigan",
        "home_address": "blk",
        "f": "blk",
        "name_of_ship": "first voyage",
        "ship_port": "blk",
        "date_leaving": "blk",
        "joined_ship_date": "1862-10-28",
        "joined_at_port": "london",
        "capacity": "cook",
        "date_left": "1863-03-25",
        "left_port": "london",
        "cause_of_leaving": "discharged",
        "sign_with_mark": "n",
        "notes": "blk"
    },
    {
        "id": "vtls004598393_0_11",
        "type": "sailor",
        "parent": "vtls004598393",
        "name": "john davies",
        "dob": "blk",
        "age": "42",
        "place_of_birth": "cardigan",
        "home_address": "blk",
        "f": "blk",
        "name_of_ship": "albion",
        "ship_port": "aberystwyth",
        "date_leaving": "blk",
        "joined_ship_date": "blk",
        "joined_at_port": "blk",
        "capacity": "master",
        "date_left": "blk",
        "left_port": "blk",
        "cause_of_leaving": "remains on board",
        "sign_with_mark": "n",
        "notes": "blk"
    },
    {
        "id": "vtls004598393_1_16",
        "type": "sailor",
        "parent": "vtls004598393",
        "name": "george brice",
        "dob": "blk",
        "age": "20",
        "place_of_birth": "weymouth",
        "home_address": "blk",
        "f": "blk",
        "name_of_ship": "stella",
        "ship_port": "plymouth",
        "date_leaving": "1863-$-21",
        "joined_ship_date": "1863-04-25",
        "joined_at_port": "london",
        "capacity": "able seaman",
        "date_left": "1863-07-31",
        "left_port": "berbice",
        "cause_of_leaving": "discharged sickness",
        "sign_with_mark": "y",
        "notes": "blk"
    },
    {
        "id": "vtls004598393_1_15",
        "type": "sailor",
        "parent": "vtls004598393",
        "name": "david evans",
        "dob": "blk",
        "age": "23",
        "place_of_birth": "llanon",
        "home_address": "blk",
        "f": "blk",
        "name_of_ship": "[nautica]",
        "ship_port": "aberystwyth",
        "date_leaving": "1863-$-28",
        "joined_ship_date": "1863-04-25",
        "joined_at_port": "london",
        "capacity": "able seaman",
        "date_left": "1863-09-28",
        "left_port": "london",
        "cause_of_leaving": "discharged",
        "sign_with_mark": "y",
        "notes": "blk"
    },
    {
        "id": "vtls004598393_0_18",
        "type": "sailor",
        "parent": "vtls004598393",
        "name": "george carter",
        "dob": "blk",
        "age": "20",
        "place_of_birth": "london",
        "home_address": "bk",
        "f": "bk",
        "name_of_ship": "flying fish",
        "ship_port": "london",
        "date_leaving": "1862-10-21",
        "joined_ship_date": "1862-10-28",
        "joined_at_port": "london",
        "capacity": "ordinary seaman",
        "date_left": "1863-03-25",
        "left_port": "london",
        "cause_of_leaving": "discharged",
        "sign_with_mark": "n",
        "notes": "blk"
    },
    {
        "id": "vtls004598393_0_19",
        "type": "sailor",
        "parent": "vtls004598393",
        "name": "alfred stilwell",
        "dob": "blk",
        "age": "31",
        "place_of_birth": "$",
        "home_address": "blk",
        "f": "blk",
        "name_of_ship": "[hms agamemnon]",
        "ship_port": "london",
        "date_leaving": "1862-10-11",
        "joined_ship_date": "1862-11-01",
        "joined_at_port": "$",
        "capacity": "able seaman",
        "date_left": "1863-03-25",
        "left_port": "london",
        "cause_of_leaving": "discharged",
        "sign_with_mark": "n",
        "notes": "blk"
    },
    {
        "id": "vtls004598393_1_11",
        "type": "sailor",
        "parent": "vtls004598393",
        "name": "john davies",
        "dob": "blk",
        "age": "41",
        "place_of_birth": "aberystwyth",
        "home_address": "blk",
        "f": "blk",
        "name_of_ship": "albion",
        "ship_port": "aberystwyth",
        "date_leaving": "blk",
        "joined_ship_date": "blk",
        "joined_at_port": "blk",
        "capacity": "master",
        "date_left": "blk",
        "left_port": "blk",
        "cause_of_leaving": "remains on board",
        "sign_with_mark": "n",
        "notes": "remained from last journey"
    },
    {
        "id": "vtls004598393_1_12",
        "type": "sailor",
        "parent": "vtls004598393",
        "name": "evan evans",
        "dob": "blk",
        "age": "26",
        "place_of_birth": "aberaeron",
        "home_address": "blk",
        "f": "blk",
        "name_of_ship": "albion",
        "ship_port": "aberystwyth",
        "date_leaving": "1863-03-23",
        "joined_ship_date": "1863-04-18",
        "joined_at_port": "london",
        "capacity": "mate",
        "date_left": "1863-09-28",
        "left_port": "london",
        "cause_of_leaving": "discharged",
        "sign_with_mark": "n",
        "notes": "blk"
    },
    {
        "id": "vtls004598393_1_14",
        "type": "sailor",
        "parent": "vtls004598393",
        "name": "john jones",
        "dob": "blk",
        "age": "21",
        "place_of_birth": "anglesey",
        "home_address": "blk",
        "f": "blk",
        "name_of_ship": "$",
        "ship_port": "$",
        "date_leaving": "1863-03-22",
        "joined_ship_date": "1863-04-18",
        "joined_at_port": "london",
        "capacity": "able seaman",
        "date_left": "1863-09-28",
        "left_port": "london",
        "cause_of_leaving": "discharged",
        "sign_with_mark": "y",
        "notes": "blk"
    },
    {
        "id": "vtls004598393_1_17",
        "type": "sailor",
        "parent": "vtls004598393",
        "name": "evan davies",
        "dob": "blk",
        "age": "23",
        "place_of_birth": "llanon",
        "home_address": "blk",
        "f": "blk",
        "name_of_ship": "$",
        "ship_port": "aberystwyth",
        "date_leaving": "1863-03-04",
        "joined_ship_date": "1863-04-28",
        "joined_at_port": "london",
        "capacity": "able seaman",
        "date_left": "1863-09-28",
        "left_port": "london",
        "cause_of_leaving": "d",
        "sign_with_mark": "n",
        "notes": "blk"
    },
    {
        "id": "vtls004598393_0_20",
        "type": "sailor",
        "parent": "vtls004598393",
        "name": "david jones",
        "dob": "blk",
        "age": "20",
        "place_of_birth": "$",
        "home_address": "blk",
        "f": "blk",
        "name_of_ship": "$",
        "ship_port": "blk",
        "date_leaving": "$",
        "joined_ship_date": "1862-11-$",
        "joined_at_port": "portland",
        "capacity": "able seaman",
        "date_left": "1863-03-25",
        "left_port": "london",
        "cause_of_leaving": "discharged",
        "sign_with_mark": "n",
        "notes": "blk"
    },
    {
        "id": "vtls004598393_1_13",
        "type": "sailor",
        "parent": "vtls004598393",
        "name": "$ jones",
        "dob": "blk",
        "age": "22",
        "place_of_birth": "llanon",
        "home_address": "blk",
        "f": "blk",
        "name_of_ship": "$",
        "ship_port": "$",
        "date_leaving": "1863-03-23",
        "joined_ship_date": "$",
        "joined_at_port": "$",
        "capacity": "$",
        "date_left": "1863-09-28",
        "left_port": "london",
        "cause_of_leaving": "discharged",
        "sign_with_mark": "n",
        "notes": "blk"
    },
    {
        "id": "vtls004598393_1_18",
        "type": "sailor",
        "parent": "vtls004598393",
        "name": "francis waldrondh",
        "dob": "blk",
        "age": "38",
        "place_of_birth": "st johns new brunswick",
        "home_address": "blk",
        "f": "blk",
        "name_of_ship": "contest",
        "ship_port": "$ford",
        "date_leaving": "1863-04-06",
        "joined_ship_date": "1863-04-30",
        "joined_at_port": "$",
        "capacity": "able seaman",
        "date_left": "1863-06-20",
        "left_port": "berbice",
        "cause_of_leaving": "discharged at own request",
        "sign_with_mark": "n",
        "notes": "blk"
    },
    {
        "id": "vtls004598393_1_19",
        "type": "sailor",
        "parent": "vtls004598393",
        "name": "robert joseph",
        "dob": "blk",
        "age": "26",
        "place_of_birth": "cape de verde",
        "home_address": "blk",
        "f": "blk",
        "name_of_ship": "truant",
        "ship_port": "blk",
        "date_leaving": "1862-11-25",
        "joined_ship_date": "1863-07-31",
        "joined_at_port": "berbice",
        "capacity": "able seaman",
        "date_left": "1863-09-28",
        "left_port": "london",
        "cause_of_leaving": "discharged",
        "sign_with_mark": "n",
        "notes": "blk"
    },
    {
        "id": "vtls004598406_0_11",
        "type": "sailor",
        "parent": "vtls004598406",
        "name": "john davies",
        "dob": "blk",
        "age": "41",
        "place_of_birth": "aberystwyth",
        "home_address": "blk",
        "f": "blk",
        "name_of_ship": "albion",
        "ship_port": "aberystwyth",
        "date_leaving": "blk",
        "joined_ship_date": "blk",
        "joined_at_port": "blk",
        "capacity": "master",
        "date_left": "blk",
        "left_port": "blk",
        "cause_of_leaving": "remains on board",
        "sign_with_mark": "n",
        "notes": "remained on board from last journey"
    },
    {
        "id": "vtls004598406_0_14",
        "type": "sailor",
        "parent": "vtls004598406",
        "name": "henry patten",
        "dob": "blk",
        "age": "23",
        "place_of_birth": "norfolk",
        "home_address": "blk",
        "f": "blk",
        "name_of_ship": "sally",
        "ship_port": "wells",
        "date_leaving": "1863-10-07",
        "joined_ship_date": "1863-11-09",
        "joined_at_port": "london",
        "capacity": "able seaman",
        "date_left": "blk",
        "left_port": "blk",
        "cause_of_leaving": "remains on board",
        "sign_with_mark": "n",
        "notes": "blk"
    },
    {
        "id": "vtls004598406_0_13",
        "type": "sailor",
        "parent": "vtls004598406",
        "name": "david jones",
        "dob": "blk",
        "age": "21",
        "place_of_birth": "llanon",
        "home_address": "blk",
        "f": "blk",
        "name_of_ship": "albion",
        "ship_port": "aberystwyth",
        "date_leaving": "blk",
        "joined_ship_date": "1863-10-08",
        "joined_at_port": "london",
        "capacity": "boatswain",
        "date_left": "blk",
        "left_port": "blk",
        "cause_of_leaving": "remains on board",
        "sign_with_mark": "n",
        "notes": "blk"
    },
    {
        "id": "vtls004598393_1_20",
        "type": "sailor",
        "parent": "vtls004598393",
        "name": "issac a mcjohnson",
        "dob": "blk",
        "age": "22",
        "place_of_birth": "berbice",
        "home_address": "blk",
        "f": "blk",
        "name_of_ship": "blk",
        "ship_port": "blk",
        "date_leaving": "blk",
        "joined_ship_date": "1863-07-31",
        "joined_at_port": "berbice",
        "capacity": "boy",
        "date_left": "1863-09-28",
        "left_port": "london",
        "cause_of_leaving": "discharged",
        "sign_with_mark": "n",
        "notes": "blk"
    },
    {
        "id": "vtls004598406_0_12",
        "type": "sailor",
        "parent": "vtls004598406",
        "name": "evan evans",
        "dob": "blk",
        "age": "27",
        "place_of_birth": "aberaeron",
        "home_address": "blk",
        "f": "blk",
        "name_of_ship": "albion",
        "ship_port": "aberystwyth",
        "date_leaving": "blk",
        "joined_ship_date": "1863-10-08",
        "joined_at_port": "london",
        "capacity": "mate",
        "date_left": "blk",
        "left_port": "blk",
        "cause_of_leaving": "remains on board",
        "sign_with_mark": "n",
        "notes": "blk"
    },
    {
        "id": "vtls004598406_0_17",
        "type": "sailor",
        "parent": "vtls004598406",
        "name": "richard starling",
        "dob": "blk",
        "age": "17",
        "place_of_birth": "norfolk",
        "home_address": "blk",
        "f": "blk",
        "name_of_ship": "[wonder]",
        "ship_port": "london",
        "date_leaving": "1863-11-07",
        "joined_ship_date": "1863-11-09",
        "joined_at_port": "london",
        "capacity": "ordinary seaman",
        "date_left": "blk",
        "left_port": "blk",
        "cause_of_leaving": "remains on board",
        "sign_with_mark": "n",
        "notes": "blk"
    },
    {
        "id": "vtls004598406_0_15",
        "type": "sailor",
        "parent": "vtls004598406",
        "name": "joseph robinson",
        "dob": "blk",
        "age": "26",
        "place_of_birth": "norfolk",
        "home_address": "blk",
        "f": "blk",
        "name_of_ship": "danube",
        "ship_port": "shields",
        "date_leaving": "1863-10-08",
        "joined_ship_date": "1862-11-09",
        "joined_at_port": "london",
        "capacity": "able seaman",
        "date_left": "blk",
        "left_port": "blk",
        "cause_of_leaving": "remains on board",
        "sign_with_mark": "y",
        "notes": "blk"
    },
    {
        "id": "vtls004598406_1_13",
        "type": "sailor",
        "parent": "vtls004598406",
        "name": "david jenkins",
        "dob": "blk",
        "age": "25",
        "place_of_birth": "fishguard",
        "home_address": "blk",
        "f": "blk",
        "name_of_ship": "$",
        "ship_port": "penzance",
        "date_leaving": "1864-05-18",
        "joined_ship_date": "1864-05-21",
        "joined_at_port": "london",
        "capacity": "boatswain",
        "date_left": "1864-09-12",
        "left_port": "liverpool",
        "cause_of_leaving": "discharged",
        "sign_with_mark": "n",
        "notes": "blk"
    },
    {
        "id": "vtls004598406_1_12",
        "type": "sailor",
        "parent": "vtls004598406",
        "name": "david jones",
        "dob": "blk",
        "age": "22",
        "place_of_birth": "llanon",
        "home_address": "blk",
        "f": "blk",
        "name_of_ship": "albion",
        "ship_port": "aberystwyth",
        "date_leaving": "1864-05-15",
        "joined_ship_date": "1864-05-23",
        "joined_at_port": "london",
        "capacity": "mate",
        "date_left": "1864-09-12",
        "left_port": "liverpool",
        "cause_of_leaving": "discharged",
        "sign_with_mark": "n",
        "notes": "blk"
    },
    {
        "id": "vtls004598406_1_16",
        "type": "sailor",
        "parent": "vtls004598406",
        "name": "$",
        "dob": "blk",
        "age": "17",
        "place_of_birth": "hamburg",
        "home_address": "blk",
        "f": "blk",
        "name_of_ship": "wilson",
        "ship_port": "aberystwyth",
        "date_leaving": "1864-05-18",
        "joined_ship_date": "1864-05-21",
        "joined_at_port": "london",
        "capacity": "ordinary seaman",
        "date_left": "1864-08-06",
        "left_port": "bermuda",
        "cause_of_leaving": "deserted",
        "sign_with_mark": "n",
        "notes": "blk"
    },
    {
        "id": "vtls004598406_1_11",
        "type": "sailor",
        "parent": "vtls004598406",
        "name": "john davies",
        "dob": "blk",
        "age": "43",
        "place_of_birth": "cardigan",
        "home_address": "blk",
        "f": "blk",
        "name_of_ship": "albion",
        "ship_port": "aberystwyth",
        "date_leaving": "blk",
        "joined_ship_date": "blk",
        "joined_at_port": "blk",
        "capacity": "master",
        "date_left": "blk",
        "left_port": "blk",
        "cause_of_leaving": "remains on board",
        "sign_with_mark": "n",
        "notes": "remained from last journey"
    },
    {
        "id": "vtls004598406_1_15",
        "type": "sailor",
        "parent": "vtls004598406",
        "name": "daniel fitzgerald",
        "dob": "blk",
        "age": "47",
        "place_of_birth": "$",
        "home_address": "blk",
        "f": "blk",
        "name_of_ship": "majestic",
        "ship_port": "aberystwyth",
        "date_leaving": "1864-05-19",
        "joined_ship_date": "1864-05-21",
        "joined_at_port": "london",
        "capacity": "able seaman",
        "date_left": "blk",
        "left_port": "blk",
        "cause_of_leaving": "blk",
        "sign_with_mark": "y",
        "notes": "did not join"
    },
    {
        "id": "vtls004598406_0_18",
        "type": "sailor",
        "parent": "vtls004598406",
        "name": "alexander moore",
        "dob": "blk",
        "age": "26",
        "place_of_birth": "antega",
        "home_address": "blk",
        "f": "blk",
        "name_of_ship": "hms emerald",
        "ship_port": "blk",
        "date_leaving": "1863-11-07",
        "joined_ship_date": "1863-11-25",
        "joined_at_port": "dale",
        "capacity": "carpenter",
        "date_left": "$",
        "left_port": "$",
        "cause_of_leaving": "discharged",
        "sign_with_mark": "n",
        "notes": "blk"
    },
    {
        "id": "vtls004598406_0_16",
        "type": "sailor",
        "parent": "vtls004598406",
        "name": "thomas frost",
        "dob": "blk",
        "age": "18",
        "place_of_birth": "norfolk",
        "home_address": "blk",
        "f": "blk",
        "name_of_ship": "$",
        "ship_port": "lynn",
        "date_leaving": "1863-10-07",
        "joined_ship_date": "1863-11-09",
        "joined_at_port": "london",
        "capacity": "ordinary seaman",
        "date_left": "blk",
        "left_port": "blk",
        "cause_of_leaving": "remains on board",
        "sign_with_mark": "y",
        "notes": "blk"
    },
    {
        "id": "vtls004598406_1_14",
        "type": "sailor",
        "parent": "vtls004598406",
        "name": "james trainer",
        "dob": "blk",
        "age": "26",
        "place_of_birth": "bristol",
        "home_address": "blk",
        "f": "blk",
        "name_of_ship": "marli",
        "ship_port": "leith",
        "date_leaving": "1864-05-20",
        "joined_ship_date": "1864-05-21",
        "joined_at_port": "london",
        "capacity": "able seaman",
        "date_left": "1864-08-06",
        "left_port": "$",
        "cause_of_leaving": "deserted",
        "sign_with_mark": "y",
        "notes": "blk"
    },
    {
        "id": "vtls004598419_0_13",
        "type": "sailor",
        "parent": "vtls004598419",
        "name": "john davies",
        "dob": "blk",
        "age": "25",
        "place_of_birth": "newquay",
        "home_address": "blk",
        "f": "blk",
        "name_of_ship": "[james davidson]",
        "ship_port": "whitehaven",
        "date_leaving": "1866-02-02",
        "joined_ship_date": "1866-02-05",
        "joined_at_port": "liverpool",
        "capacity": "boatswain",
        "date_left": "1866-06-09",
        "left_port": "london",
        "cause_of_leaving": "discharged",
        "sign_with_mark": "n",
        "notes": "blk"
    },
    {
        "id": "vtls004598406_1_17",
        "type": "sailor",
        "parent": "vtls004598406",
        "name": "evan davies",
        "dob": "blk",
        "age": "24",
        "place_of_birth": "llanon",
        "home_address": "blk",
        "f": "blk",
        "name_of_ship": "majestic",
        "ship_port": "aberystwyth",
        "date_leaving": "1864-05-19",
        "joined_ship_date": "1864-05-21",
        "joined_at_port": "london",
        "capacity": "able seaman",
        "date_left": "1864-09-12",
        "left_port": "liverpool",
        "cause_of_leaving": "discharged",
        "sign_with_mark": "n",
        "notes": "blk"
    },
    {
        "id": "vtls004598419_0_11",
        "type": "sailor",
        "parent": "vtls004598419",
        "name": "john davies",
        "dob": "blk",
        "age": "45",
        "place_of_birth": "cardigan",
        "home_address": "blk",
        "f": "blk",
        "name_of_ship": "albion",
        "ship_port": "aberystwyth",
        "date_leaving": "blk",
        "joined_ship_date": "blk",
        "joined_at_port": "blk",
        "capacity": "master",
        "date_left": "blk",
        "left_port": "blk",
        "cause_of_leaving": "remains on board",
        "sign_with_mark": "n",
        "notes": "remained on board from last journey"
    },
    {
        "id": "vtls004598419_0_12",
        "type": "sailor",
        "parent": "vtls004598419",
        "name": "henry morris",
        "dob": "blk",
        "age": "26",
        "place_of_birth": "cardigan",
        "home_address": "blk",
        "f": "blk",
        "name_of_ship": "albion",
        "ship_port": "aberystwyth",
        "date_leaving": "1865-12-11",
        "joined_ship_date": "1866-02-05",
        "joined_at_port": "liverpool",
        "capacity": "mate",
        "date_left": "1866-06-09",
        "left_port": "london",
        "cause_of_leaving": "discharged",
        "sign_with_mark": "n",
        "notes": "blk"
    },
    {
        "id": "vtls004598406_1_19",
        "type": "sailor",
        "parent": "vtls004598406",
        "name": "thomas davies",
        "dob": "blk",
        "age": "22",
        "place_of_birth": "liverpool",
        "home_address": "blk",
        "f": "blk",
        "name_of_ship": "$",
        "ship_port": "blk",
        "date_leaving": "1864-07",
        "joined_ship_date": "1864-08",
        "joined_at_port": "bermuda",
        "capacity": "able seaman",
        "date_left": "1864-09-12",
        "left_port": "liverpool",
        "cause_of_leaving": "discharged",
        "sign_with_mark": "y",
        "notes": "blk"
    },
    {
        "id": "vtls004598406_1_18",
        "type": "sailor",
        "parent": "vtls004598406",
        "name": "john iago",
        "dob": "blk",
        "age": "34",
        "place_of_birth": "france",
        "home_address": "blk",
        "f": "blk",
        "name_of_ship": "$",
        "ship_port": "liverpool",
        "date_leaving": "1864-$-20",
        "joined_ship_date": "1864-05-26",
        "joined_at_port": "liverpool",
        "capacity": "able seaman",
        "date_left": "1864-07-13",
        "left_port": "blk",
        "cause_of_leaving": "deserted",
        "sign_with_mark": "y",
        "notes": "blk"
    },
    {
        "id": "vtls004598406_1_20",
        "type": "sailor",
        "parent": "vtls004598406",
        "name": "neill gall$",
        "dob": "blk",
        "age": "22",
        "place_of_birth": "glenock",
        "home_address": "blk",
        "f": "blk",
        "name_of_ship": "elsie",
        "ship_port": "blk",
        "date_leaving": "1864-07-08",
        "joined_ship_date": "1864-08-08",
        "joined_at_port": "bermuda",
        "capacity": "ordinary seaman",
        "date_left": "blk",
        "left_port": "blk",
        "cause_of_leaving": "cancelled",
        "sign_with_mark": "y",
        "notes": "blk"
    },
    {
        "id": "vtls004598419_0_15",
        "type": "sailor",
        "parent": "vtls004598419",
        "name": "einon williams",
        "dob": "blk",
        "age": "26",
        "place_of_birth": "cardigan",
        "home_address": "blk",
        "f": "blk",
        "name_of_ship": "[james davidson]",
        "ship_port": "whitehaven",
        "date_leaving": "1866-02-02",
        "joined_ship_date": "1866-02-05",
        "joined_at_port": "liverpool",
        "capacity": "able seaman",
        "date_left": "1866-06-09",
        "left_port": "london",
        "cause_of_leaving": "discharged",
        "sign_with_mark": "n",
        "notes": "blk"
    },
    {
        "id": "vtls004598419_0_14",
        "type": "sailor",
        "parent": "vtls004598419",
        "name": "thomas hooker",
        "dob": "blk",
        "age": "19",
        "place_of_birth": "barnstaple",
        "home_address": "blk",
        "f": "blk",
        "name_of_ship": "[fruiter]",
        "ship_port": "plymouth",
        "date_leaving": "1866-01-30",
        "joined_ship_date": "1866-02-05",
        "joined_at_port": "liverpool",
        "capacity": "cook and seaman",
        "date_left": "1866-06-09",
        "left_port": "london",
        "cause_of_leaving": "discharged",
        "sign_with_mark": "n",
        "notes": "blk"
    },
    {
        "id": "vtls004598419_1_16",
        "type": "sailor",
        "parent": "vtls004598419",
        "name": "evan evans",
        "dob": "blk",
        "age": "22",
        "place_of_birth": "cardigan",
        "home_address": "blk",
        "f": "blk",
        "name_of_ship": "clarovine",
        "ship_port": "aberystwyth",
        "date_leaving": "1865-11-13",
        "joined_ship_date": "1866-07-11",
        "joined_at_port": "london",
        "capacity": "ordinary seaman",
        "date_left": "1866-11-21",
        "left_port": "london",
        "cause_of_leaving": "discharged",
        "sign_with_mark": "n",
        "notes": "blk"
    },
    {
        "id": "vtls004598419_1_15",
        "type": "sailor",
        "parent": "vtls004598419",
        "name": "isaac jones",
        "dob": "blk",
        "age": "21",
        "place_of_birth": "cardigan",
        "home_address": "blk",
        "f": "blk",
        "name_of_ship": "[candour]",
        "ship_port": "aberystwyth",
        "date_leaving": "1866-01-29",
        "joined_ship_date": "1866-07-11",
        "joined_at_port": "london",
        "capacity": "able seaman",
        "date_left": "1866-11-21",
        "left_port": "london",
        "cause_of_leaving": "discharged",
        "sign_with_mark": "n",
        "notes": "blk"
    },
    {
        "id": "vtls004598419_1_13",
        "type": "sailor",
        "parent": "vtls004598419",
        "name": "evan richards",
        "dob": "blk",
        "age": "20",
        "place_of_birth": "cardigan",
        "home_address": "blk",
        "f": "blk",
        "name_of_ship": "rosetta",
        "ship_port": " liverpool",
        "date_leaving": "1866-06-10",
        "joined_ship_date": "1866-07-11",
        "joined_at_port": "london",
        "capacity": "boatswain",
        "date_left": "1866-11-21",
        "left_port": "london",
        "cause_of_leaving": "discharged",
        "sign_with_mark": "n",
        "notes": "blk"
    },
    {
        "id": "vtls004598419_0_16",
        "type": "sailor",
        "parent": "vtls004598419",
        "name": "robert peel",
        "dob": "blk",
        "age": "32",
        "place_of_birth": "sweden",
        "home_address": "blk",
        "f": "blk",
        "name_of_ship": "montrose",
        "ship_port": "liverpool",
        "date_leaving": "1865-11-22",
        "joined_ship_date": "1866-02-05",
        "joined_at_port": "liverpool",
        "capacity": "able seaman",
        "date_left": "1866-06-09",
        "left_port": "london",
        "cause_of_leaving": "discharged",
        "sign_with_mark": "n",
        "notes": "blk"
    },
    {
        "id": "vtls004598419_1_14",
        "type": "sailor",
        "parent": "vtls004598419",
        "name": "john neilson",
        "dob": "blk",
        "age": "24",
        "place_of_birth": "sweden",
        "home_address": "blk",
        "f": "blk",
        "name_of_ship": "harmony",
        "ship_port": "[sunderland]",
        "date_leaving": "1866-07-01",
        "joined_ship_date": "1866-07-11",
        "joined_at_port": "london",
        "capacity": "able seaman",
        "date_left": "1866-11-21",
        "left_port": "london",
        "cause_of_leaving": "discharged",
        "sign_with_mark": "y",
        "notes": "blk"
    },
    {
        "id": "vtls004598419_1_11",
        "type": "sailor",
        "parent": "vtls004598419",
        "name": "john davies",
        "dob": "blk",
        "age": "46",
        "place_of_birth": "cardigan",
        "home_address": "blk",
        "f": "blk",
        "name_of_ship": "albion",
        "ship_port": "aberystwyth",
        "date_leaving": "blk",
        "joined_ship_date": "blk",
        "joined_at_port": "blk",
        "capacity": "master",
        "date_left": "blk",
        "left_port": "blk",
        "cause_of_leaving": "remains on board",
        "sign_with_mark": "n",
        "notes": "remained on board from last journey"
    },
    {
        "id": "vtls004598419_1_12",
        "type": "sailor",
        "parent": "vtls004598419",
        "name": "henry morris",
        "dob": "blk",
        "age": "27",
        "place_of_birth": "cardigan",
        "home_address": "blk",
        "f": "blk",
        "name_of_ship": "albion",
        "ship_port": "aberystwyth",
        "date_leaving": "1866-06-11",
        "joined_ship_date": "1866-06-19",
        "joined_at_port": "london",
        "capacity": "mate",
        "date_left": "1866-11-21",
        "left_port": "london",
        "cause_of_leaving": "discharged",
        "sign_with_mark": "n",
        "notes": "blk"
    },
    {
        "id": "vtls004598456_0_14",
        "type": "sailor",
        "parent": "vtls004598456",
        "name": "robert williams",
        "dob": "blk",
        "age": "21",
        "place_of_birth": "cardiff",
        "home_address": "blk",
        "f": "blk",
        "name_of_ship": "[malmont]",
        "ship_port": "whitby",
        "date_leaving": "1866-12-18",
        "joined_ship_date": "1867-01-11",
        "joined_at_port": "london",
        "capacity": "cook & steward",
        "date_left": "1867-05-16",
        "left_port": "berbice",
        "cause_of_leaving": "deserted",
        "sign_with_mark": "y",
        "notes": "blk"
    },
    {
        "id": "vtls004598456_0_12",
        "type": "sailor",
        "parent": "vtls004598456",
        "name": "william clarence clements",
        "dob": "blk",
        "age": "36",
        "place_of_birth": "london",
        "home_address": "blk",
        "f": "blk",
        "name_of_ship": "perilla",
        "ship_port": "liverpool",
        "date_leaving": "1866-12-18",
        "joined_ship_date": "1867-01-11",
        "joined_at_port": "london",
        "capacity": "mate",
        "date_left": "1867-07-15",
        "left_port": "london",
        "cause_of_leaving": "discharged",
        "sign_with_mark": "n",
        "notes": "blk"
    },
    {
        "id": "vtls004598456_0_15",
        "type": "sailor",
        "parent": "vtls004598456",
        "name": "john davies",
        "dob": "blk",
        "age": "20",
        "place_of_birth": "cardigan",
        "home_address": "blk",
        "f": "blk",
        "name_of_ship": "john davies",
        "ship_port": "liverpool",
        "date_leaving": "1866-09-23",
        "joined_ship_date": "1867-01-11",
        "joined_at_port": "london",
        "capacity": "able seaman",
        "date_left": "1867-07-15",
        "left_port": "london",
        "cause_of_leaving": "discharged",
        "sign_with_mark": "n",
        "notes": "blk"
    },
    {
        "id": "vtls004598456_0_17",
        "type": "sailor",
        "parent": "vtls004598456",
        "name": "david evans",
        "dob": "blk",
        "age": "19",
        "place_of_birth": "newquay",
        "home_address": "blk",
        "f": "blk",
        "name_of_ship": "john slater",
        "ship_port": "bremen",
        "date_leaving": "1866-12-20",
        "joined_ship_date": "1867-01-11",
        "joined_at_port": "london",
        "capacity": "able seaman",
        "date_left": "1867-07-15",
        "left_port": "london",
        "cause_of_leaving": "discharged",
        "sign_with_mark": "n",
        "notes": "blk"
    },
    {
        "id": "vtls004598456_0_11",
        "type": "sailor",
        "parent": "vtls004598456",
        "name": "john davies",
        "dob": "blk",
        "age": "45",
        "place_of_birth": "cardigan",
        "home_address": "blk",
        "f": "blk",
        "name_of_ship": "albion",
        "ship_port": "aberystwyth",
        "date_leaving": "blk",
        "joined_ship_date": "blk",
        "joined_at_port": "blk",
        "capacity": "master",
        "date_left": "blk",
        "left_port": "blk",
        "cause_of_leaving": "remains on board",
        "sign_with_mark": "n",
        "notes": "remained on board from last journey"
    },
    {
        "id": "vtls004598456_0_18",
        "type": "sailor",
        "parent": "vtls004598456",
        "name": "hugh busotone",
        "dob": "blk",
        "age": "19",
        "place_of_birth": "london",
        "home_address": "blk",
        "f": "blk",
        "name_of_ship": "clover",
        "ship_port": "london",
        "date_leaving": "1866-12-23",
        "joined_ship_date": "1867-01-11",
        "joined_at_port": "london",
        "capacity": "ordinary seaman",
        "date_left": "1867-07-15",
        "left_port": "london",
        "cause_of_leaving": "discharged",
        "sign_with_mark": "n",
        "notes": "blk"
    },
    {
        "id": "vtls004598456_0_16",
        "type": "sailor",
        "parent": "vtls004598456",
        "name": "harry edwards",
        "dob": "blk",
        "age": "19",
        "place_of_birth": "prussia",
        "home_address": "blk",
        "f": "blk",
        "name_of_ship": "industry",
        "ship_port": "london",
        "date_leaving": "1867-01-07",
        "joined_ship_date": "1867-01-11",
        "joined_at_port": "london",
        "capacity": "able seaman",
        "date_left": "1867-07-15",
        "left_port": "london",
        "cause_of_leaving": "discharged",
        "sign_with_mark": "y",
        "notes": "blk"
    },
    {
        "id": "vtls004598456_0_13",
        "type": "sailor",
        "parent": "vtls004598456",
        "name": "william taylor",
        "dob": "blk",
        "age": "24",
        "place_of_birth": "liverpool",
        "home_address": "blk",
        "f": "blk",
        "name_of_ship": "$ castle",
        "ship_port": "london",
        "date_leaving": "1867-01-02",
        "joined_ship_date": "1867-01-11",
        "joined_at_port": "london",
        "capacity": "$",
        "date_left": "1867-07-15",
        "left_port": "london",
        "cause_of_leaving": "discharged",
        "sign_with_mark": "n",
        "notes": "blk"
    },
    {
        "id": "vtls004598471_0_16",
        "type": "sailor",
        "parent": "vtls004598471",
        "name": "michael courtney",
        "dob": "blk",
        "age": "18",
        "place_of_birth": "cardiff",
        "home_address": "blk",
        "f": "blk",
        "name_of_ship": "[anne warren]",
        "ship_port": "aberystwyth",
        "date_leaving": "$",
        "joined_ship_date": "1867-08-12",
        "joined_at_port": "cardiff",
        "capacity": "able seaman",
        "date_left": "1867-11-30",
        "left_port": "demerara",
        "cause_of_leaving": "discharged",
        "sign_with_mark": "y",
        "notes": "discharged - in hospital"
    },
    {
        "id": "vtls004598456_0_19",
        "type": "sailor",
        "parent": "vtls004598456",
        "name": "alexander gilbert",
        "dob": "blk",
        "age": "blk",
        "place_of_birth": "berbice",
        "home_address": "blk",
        "f": "blk",
        "name_of_ship": "cathrin",
        "ship_port": "demanara",
        "date_leaving": "1866-04",
        "joined_ship_date": "1867-05-22",
        "joined_at_port": "berbice",
        "capacity": "cook & steward",
        "date_left": "1867-05-22",
        "left_port": "berbice",
        "cause_of_leaving": "discharged",
        "sign_with_mark": "n",
        "notes": "mutual consent"
    },
    {
        "id": "vtls004598471_0_14",
        "type": "sailor",
        "parent": "vtls004598471",
        "name": "david lloyd",
        "dob": "blk",
        "age": "19",
        "place_of_birth": "cardigan",
        "home_address": "blk",
        "f": "blk",
        "name_of_ship": "[messenger]",
        "ship_port": "aberystwyth",
        "date_leaving": "1867-07-24",
        "joined_ship_date": "1867-08-10",
        "joined_at_port": "cardiff",
        "capacity": "cook & steward",
        "date_left": "1867",
        "left_port": "london",
        "cause_of_leaving": "discharged",
        "sign_with_mark": "n",
        "notes": "blk"
    },
    {
        "id": "vtls004598471_0_17",
        "type": "sailor",
        "parent": "vtls004598471",
        "name": "james hugkutstone",
        "dob": "blk",
        "age": "20",
        "place_of_birth": "london",
        "home_address": "blk",
        "f": "blk",
        "name_of_ship": "albion",
        "ship_port": "aberystwyth",
        "date_leaving": "blk",
        "joined_ship_date": "1867-08-10",
        "joined_at_port": "cardiff",
        "capacity": "ordinary seaman",
        "date_left": "1868-02",
        "left_port": "london",
        "cause_of_leaving": "discharged",
        "sign_with_mark": "n",
        "notes": "blk"
    },
    {
        "id": "vtls004598471_0_15",
        "type": "sailor",
        "parent": "vtls004598471",
        "name": "thomas wiliams",
        "dob": "blk",
        "age": "23",
        "place_of_birth": "cardigan",
        "home_address": "blk",
        "f": "blk",
        "name_of_ship": "[anne warren]",
        "ship_port": "aberystwyth",
        "date_leaving": "$",
        "joined_ship_date": "1867-08-12",
        "joined_at_port": "cardiff",
        "capacity": "able seaman",
        "date_left": "1867",
        "left_port": "london",
        "cause_of_leaving": "discharged",
        "sign_with_mark": "n",
        "notes": "blk"
    },
    {
        "id": "vtls004598471_0_11",
        "type": "sailor",
        "parent": "vtls004598471",
        "name": "john davies",
        "dob": "blk",
        "age": "45",
        "place_of_birth": "aberystwyth",
        "home_address": "blk",
        "f": "blk",
        "name_of_ship": "albion",
        "ship_port": "aberystwtyh",
        "date_leaving": "blk",
        "joined_ship_date": "1867-08-10",
        "joined_at_port": "cardiff",
        "capacity": "master",
        "date_left": "1868-01-28",
        "left_port": "$",
        "cause_of_leaving": "ship abandoned",
        "sign_with_mark": "n",
        "notes": "blk"
    },
    {
        "id": "vtls004598471_0_18",
        "type": "sailor",
        "parent": "vtls004598471",
        "name": "john baptiste",
        "dob": "blk",
        "age": "23",
        "place_of_birth": "trin$",
        "home_address": "blk",
        "f": "blk",
        "name_of_ship": "$",
        "ship_port": "blk",
        "date_leaving": "blk",
        "joined_ship_date": "1867-12-03",
        "joined_at_port": "demerara",
        "capacity": "able seaman",
        "date_left": "1867-12-04",
        "left_port": "demerara",
        "cause_of_leaving": "blk",
        "sign_with_mark": "y",
        "notes": "all details crossed out"
    },
    {
        "id": "vtls004598471_0_12",
        "type": "sailor",
        "parent": "vtls004598471",
        "name": "david evans",
        "dob": "blk",
        "age": "24",
        "place_of_birth": "aberaeron",
        "home_address": "blk",
        "f": "blk",
        "name_of_ship": "flying cloud",
        "ship_port": "bideford",
        "date_leaving": "1867-05",
        "joined_ship_date": "1867-08-10",
        "joined_at_port": "cardiff",
        "capacity": "mate",
        "date_left": "1867",
        "left_port": "london",
        "cause_of_leaving": "discharged",
        "sign_with_mark": "n",
        "notes": "blk"
    },
    {
        "id": "vtls004598471_0_13",
        "type": "sailor",
        "parent": "vtls004598471",
        "name": "john davies",
        "dob": "blk",
        "age": "21",
        "place_of_birth": "cardigan",
        "home_address": "blk",
        "f": "blk",
        "name_of_ship": "albion",
        "ship_port": "aberystwyth",
        "date_leaving": "blk",
        "joined_ship_date": "1867-08-10",
        "joined_at_port": "cardiff",
        "capacity": "boatswain",
        "date_left": "1867",
        "left_port": "london",
        "cause_of_leaving": "discharged",
        "sign_with_mark": "n",
        "notes": "blk"
    },
    {
        "id": "vtls004598471_0_19",
        "type": "sailor",
        "parent": "vtls004598471",
        "name": "thomas farrall",
        "dob": "blk",
        "age": "30",
        "place_of_birth": "chatham",
        "home_address": "blk",
        "f": "blk",
        "name_of_ship": "[three] sisters",
        "ship_port": "blk",
        "date_leaving": "1867-11-07",
        "joined_ship_date": "1867-12-04",
        "joined_at_port": "demerara",
        "capacity": "cook and seaman",
        "date_left": "1868-02",
        "left_port": "london",
        "cause_of_leaving": "discharged",
        "sign_with_mark": "n",
        "notes": "blk"
    }
]