[
    {
        "id": "vtls004909871_1_11",
        "type": "sailor",
        "parent": "vtls004909871",
        "name": "thomas davies",
        "dob": "blk",
        "age": "39",
        "place_of_birth": "newquay",
        "home_address": "aberystwyth",
        "f": "aberystwyth",
        "name_of_ship": "louisa jane",
        "ship_port": "aberystwyth",
        "date_leaving": "blk",
        "joined_ship_date": "1863-09-14",
        "joined_at_port": "swansea",
        "capacity": "master",
        "date_left": "1863-11-19",
        "left_port": "liverpool",
        "cause_of_leaving": "remains on board",
        "sign_with_mark": "n",
        "notes": "his age has decreased by a year."
    },
    {
        "id": "vtls004909871_0_11",
        "type": "sailor",
        "parent": "vtls004909871",
        "name": "thomas davies",
        "dob": "blk",
        "age": "40",
        "place_of_birth": "newquay",
        "home_address": "newquay, cardigan",
        "f": "newquay, cardigan",
        "name_of_ship": "louisa jane",
        "ship_port": "aberystwyth",
        "date_leaving": "1863-01-08",
        "joined_ship_date": "1863-01-08",
        "joined_at_port": "runcorn",
        "capacity": "master",
        "date_left": "1863-06-30",
        "left_port": "newport",
        "cause_of_leaving": "remains on board",
        "sign_with_mark": "n",
        "notes": "blk"
    },
    {
        "id": "vtls004909871_0_13",
        "type": "sailor",
        "parent": "vtls004909871",
        "name": "william vaughan",
        "dob": "blk",
        "age": "19",
        "place_of_birth": "newquay",
        "home_address": "blk",
        "f": "blk",
        "name_of_ship": "louisa jane",
        "ship_port": "aberystwyth",
        "date_leaving": "1863-01-08",
        "joined_ship_date": "1863-01-08",
        "joined_at_port": "runcorn",
        "capacity": "able seaman",
        "date_left": "1863-06-30",
        "left_port": "newport",
        "cause_of_leaving": "remains on board",
        "sign_with_mark": "n",
        "notes": "blk"
    },
    {
        "id": "vtls004909871_0_14",
        "type": "sailor",
        "parent": "vtls004909871",
        "name": "samuel cann",
        "dob": "blk",
        "age": "17",
        "place_of_birth": "newquay",
        "home_address": "blk",
        "f": "blk",
        "name_of_ship": "louisa jane",
        "ship_port": "aberystwyth",
        "date_leaving": "1863-01-08",
        "joined_ship_date": "1863-01-08",
        "joined_at_port": "runcorn",
        "capacity": "ordinary seaman",
        "date_left": "1863-06-30",
        "left_port": "newport",
        "cause_of_leaving": "remains on board",
        "sign_with_mark": "n",
        "notes": "blk"
    },
    {
        "id": "vtls004909871_0_12",
        "type": "sailor",
        "parent": "vtls004909871",
        "name": "william davies",
        "dob": "blk",
        "age": "36",
        "place_of_birth": "newquay",
        "home_address": "blk",
        "f": "blk",
        "name_of_ship": "louisa jane",
        "ship_port": "aberystwyth",
        "date_leaving": "1863-01-08",
        "joined_ship_date": "1863-01-08",
        "joined_at_port": "runcorn",
        "capacity": "mate",
        "date_left": "1863-06-30",
        "left_port": "newport",
        "cause_of_leaving": "remains on board",
        "sign_with_mark": "n",
        "notes": "blk"
    },
    {
        "id": "vtls004909871_0_15",
        "type": "sailor",
        "parent": "vtls004909871",
        "name": "thomas young",
        "dob": "blk",
        "age": "15",
        "place_of_birth": "newquay",
        "home_address": "blk",
        "f": "blk",
        "name_of_ship": "louisa jane",
        "ship_port": "aberystwyth",
        "date_leaving": "1863-01-08",
        "joined_ship_date": "1863-01-08",
        "joined_at_port": "runcorn",
        "capacity": "boy",
        "date_left": "1863-06-30",
        "left_port": "newport",
        "cause_of_leaving": "remains on board",
        "sign_with_mark": "n",
        "notes": "blk"
    },
    {
        "id": "vtls004909871_1_12",
        "type": "sailor",
        "parent": "vtls004909871",
        "name": "william davies",
        "dob": "blk",
        "age": "35",
        "place_of_birth": "newquay",
        "home_address": "blk",
        "f": "blk",
        "name_of_ship": "louisa jane",
        "ship_port": "aberystwyth",
        "date_leaving": "blk",
        "joined_ship_date": "1863-09-14",
        "joined_at_port": "swansea",
        "capacity": "mate",
        "date_left": "1863-11-19",
        "left_port": "liverpool",
        "cause_of_leaving": "discharged",
        "sign_with_mark": "n",
        "notes": "blk"
    },
    {
        "id": "vtls004909871_2_15",
        "type": "sailor",
        "parent": "vtls004909871",
        "name": "evan jones",
        "dob": "blk",
        "age": "12",
        "place_of_birth": "newquay",
        "home_address": "blk",
        "f": "blk",
        "name_of_ship": "louisa jane",
        "ship_port": "aberystwyth",
        "date_leaving": "1863-11",
        "joined_ship_date": "1863-12-07",
        "joined_at_port": "liverpool",
        "capacity": "ordinary seaman",
        "date_left": "1864-03-07",
        "left_port": "liverpool",
        "cause_of_leaving": "discharged",
        "sign_with_mark": "n",
        "notes": "capacity seems to say \"ordinary\" but he appears on the previous and next accounts as \"boy\"."
    },
    {
        "id": "vtls004909871_3_11",
        "type": "sailor",
        "parent": "vtls004909871",
        "name": "thomas davies",
        "dob": "blk",
        "age": "42",
        "place_of_birth": "newquay",
        "home_address": "newquay",
        "f": "newquay",
        "name_of_ship": "louisa jane",
        "ship_port": "aberystwyth",
        "date_leaving": "1864-06-30",
        "joined_ship_date": "1864-07-01",
        "joined_at_port": "runcorn",
        "capacity": "master",
        "date_left": "1864-12-31",
        "left_port": "dublin",
        "cause_of_leaving": "remains on board",
        "sign_with_mark": "n",
        "notes": "blk"
    },
    {
        "id": "vtls004909871_3_12",
        "type": "sailor",
        "parent": "vtls004909871",
        "name": "william davis",
        "dob": "blk",
        "age": "36",
        "place_of_birth": "newquay",
        "home_address": "blk",
        "f": "blk",
        "name_of_ship": "louisa jane",
        "ship_port": "aberystwyth",
        "date_leaving": "1864-06-30",
        "joined_ship_date": "1864-07-01",
        "joined_at_port": "runcorn",
        "capacity": "mate",
        "date_left": "1864-12-31",
        "left_port": "dublin",
        "cause_of_leaving": "remains on board",
        "sign_with_mark": "n",
        "notes": "blk"
    },
    {
        "id": "vtls004909871_1_13",
        "type": "sailor",
        "parent": "vtls004909871",
        "name": "thomas jones",
        "dob": "blk",
        "age": "19",
        "place_of_birth": "newquay",
        "home_address": "blk",
        "f": "blk",
        "name_of_ship": "louisa jane",
        "ship_port": "aberystwyth",
        "date_leaving": "blk",
        "joined_ship_date": "1863-09-14",
        "joined_at_port": "swansea",
        "capacity": "able seaman",
        "date_left": "1863-11-19",
        "left_port": "liverpool",
        "cause_of_leaving": "discharged",
        "sign_with_mark": "n",
        "notes": "blk"
    },
    {
        "id": "vtls004909871_1_14",
        "type": "sailor",
        "parent": "vtls004909871",
        "name": "samuel cann",
        "dob": "blk",
        "age": "21",
        "place_of_birth": "devonshire",
        "home_address": "blk",
        "f": "blk",
        "name_of_ship": "louisa jane",
        "ship_port": "aberystwyth",
        "date_leaving": "blk",
        "joined_ship_date": "1863-09-14",
        "joined_at_port": "swansea",
        "capacity": "able seaman",
        "date_left": "1863-11-19",
        "left_port": "liverpool",
        "cause_of_leaving": "discharged",
        "sign_with_mark": "n",
        "notes": "blk"
    },
    {
        "id": "vtls004909871_2_12",
        "type": "sailor",
        "parent": "vtls004909871",
        "name": "william davies",
        "dob": "blk",
        "age": "35",
        "place_of_birth": "newquay",
        "home_address": "blk",
        "f": "blk",
        "name_of_ship": "louisa jane",
        "ship_port": "aberystwyth",
        "date_leaving": "1863-11",
        "joined_ship_date": "1863-12-07",
        "joined_at_port": "liverpool",
        "capacity": "mate",
        "date_left": "1864-03-07",
        "left_port": "liverpool",
        "cause_of_leaving": "discharged",
        "sign_with_mark": "n",
        "notes": "blk"
    },
    {
        "id": "vtls004909871_2_13",
        "type": "sailor",
        "parent": "vtls004909871",
        "name": "henry yardell",
        "dob": "blk",
        "age": "25",
        "place_of_birth": "totnes",
        "home_address": "blk",
        "f": "blk",
        "name_of_ship": "louisa jane",
        "ship_port": "aberystwyth",
        "date_leaving": "1863-11",
        "joined_ship_date": "1863-12-07",
        "joined_at_port": "liverpool",
        "capacity": "seaman",
        "date_left": "1864-03-07",
        "left_port": "liverpool",
        "cause_of_leaving": "discharged",
        "sign_with_mark": "n",
        "notes": "blk"
    },
    {
        "id": "vtls004909871_2_14",
        "type": "sailor",
        "parent": "vtls004909871",
        "name": "samuel cann",
        "dob": "blk",
        "age": "20",
        "place_of_birth": "devon",
        "home_address": "blk",
        "f": "blk",
        "name_of_ship": "louisa jane",
        "ship_port": "aberystwyth",
        "date_leaving": "1863-11",
        "joined_ship_date": "1863-12-07",
        "joined_at_port": "liverpool",
        "capacity": "seaman",
        "date_left": "1864-03-07",
        "left_port": "liverpool",
        "cause_of_leaving": "discharged",
        "sign_with_mark": "n",
        "notes": "blk"
    },
    {
        "id": "vtls004909871_2_11",
        "type": "sailor",
        "parent": "vtls004909871",
        "name": "thomas davies",
        "dob": "blk",
        "age": "40",
        "place_of_birth": "newquay",
        "home_address": "newquay",
        "f": "newquay",
        "name_of_ship": "louisa jane",
        "ship_port": "aberystwyth",
        "date_leaving": "blk",
        "joined_ship_date": "blk",
        "joined_at_port": "blk",
        "capacity": "master",
        "date_left": "1864-03-07",
        "left_port": "liverpool",
        "cause_of_leaving": "remains on board",
        "sign_with_mark": "n",
        "notes": "blk"
    },
    {
        "id": "vtls004909871_1_15",
        "type": "sailor",
        "parent": "vtls004909871",
        "name": "evan jones",
        "dob": "blk",
        "age": "12",
        "place_of_birth": "newquay",
        "home_address": "blk",
        "f": "blk",
        "name_of_ship": "louisa jane",
        "ship_port": "aberystwyth",
        "date_leaving": "blk",
        "joined_ship_date": "1863-09-14",
        "joined_at_port": "swansea",
        "capacity": "boy",
        "date_left": "1863-11-19",
        "left_port": "liverpool",
        "cause_of_leaving": "discharged",
        "sign_with_mark": "n",
        "notes": "blk"
    },
    {
        "id": "vtls004909871_3_13",
        "type": "sailor",
        "parent": "vtls004909871",
        "name": "samuel cann",
        "dob": "blk",
        "age": "20",
        "place_of_birth": "teignmouth",
        "home_address": "blk",
        "f": "blk",
        "name_of_ship": "louisa jane",
        "ship_port": "aberystwyth",
        "date_leaving": "1864-06-30",
        "joined_ship_date": "1864-07-01",
        "joined_at_port": "runcorn",
        "capacity": "seaman",
        "date_left": "1864-12-31",
        "left_port": "dublin",
        "cause_of_leaving": "remains on board",
        "sign_with_mark": "n",
        "notes": "probably one and same as samuel cann listed on other voyages in this ship around this time."
    },
    {
        "id": "vtls004909871_3_14",
        "type": "sailor",
        "parent": "vtls004909871",
        "name": "evan jones",
        "dob": "blk",
        "age": "14",
        "place_of_birth": "newquay",
        "home_address": "blk",
        "f": "blk",
        "name_of_ship": "louisa jane",
        "ship_port": "aberystwyth",
        "date_leaving": "1864-06-30",
        "joined_ship_date": "1864-07-01",
        "joined_at_port": "runcorn",
        "capacity": "boy",
        "date_left": "1864-12-31",
        "left_port": "dublin",
        "cause_of_leaving": "remains on board",
        "sign_with_mark": "n",
        "notes": "blk"
    },
    {
        "id": "vtls004909895_0_13",
        "type": "sailor",
        "parent": "vtls004909895",
        "name": "thomas davis",
        "dob": "blk",
        "age": "16",
        "place_of_birth": "newquay",
        "home_address": "blk",
        "f": "blk",
        "name_of_ship": "louisa jane",
        "ship_port": "aberystwyth",
        "date_leaving": "continued",
        "joined_ship_date": "continued",
        "joined_at_port": "blk",
        "capacity": "ordinary seaman",
        "date_left": "continued",
        "left_port": "blk",
        "cause_of_leaving": "remains on board",
        "sign_with_mark": "n",
        "notes": "blk"
    },
    {
        "id": "vtls004909895_0_15",
        "type": "sailor",
        "parent": "vtls004909895",
        "name": "james francis",
        "dob": "blk",
        "age": "50",
        "place_of_birth": "newport, pemprokshire",
        "home_address": "blk",
        "f": "blk",
        "name_of_ship": "james & agnes",
        "ship_port": "barrow",
        "date_leaving": "1868-02-15",
        "joined_ship_date": "1868-02-20",
        "joined_at_port": "liverpool",
        "capacity": "mate",
        "date_left": "continued",
        "left_port": "blk",
        "cause_of_leaving": "remains on board",
        "sign_with_mark": "n",
        "notes": "blk"
    },
    {
        "id": "vtls004909895_1_11",
        "type": "sailor",
        "parent": "vtls004909895",
        "name": "thomas davies",
        "dob": "blk",
        "age": "45",
        "place_of_birth": "newquay",
        "home_address": "blk",
        "f": "blk",
        "name_of_ship": "louisa jane",
        "ship_port": "aberystwyth",
        "date_leaving": "blk",
        "joined_ship_date": "1905-02-01",
        "joined_at_port": "appledore",
        "capacity": "master",
        "date_left": "blk",
        "left_port": "blk",
        "cause_of_leaving": "remains on board",
        "sign_with_mark": "n",
        "notes": "blk"
    },
    {
        "id": "vtls004909895_0_11",
        "type": "sailor",
        "parent": "vtls004909895",
        "name": "thomas davis",
        "dob": "blk",
        "age": "45",
        "place_of_birth": "newquay",
        "home_address": "blk",
        "f": "blk",
        "name_of_ship": "louisa jane",
        "ship_port": "aberystwyth",
        "date_leaving": "continued",
        "joined_ship_date": "continued",
        "joined_at_port": "blk",
        "capacity": "master",
        "date_left": "continued",
        "left_port": "blk",
        "cause_of_leaving": "remains on board",
        "sign_with_mark": "n",
        "notes": "blk"
    },
    {
        "id": "vtls004909895_1_12",
        "type": "sailor",
        "parent": "vtls004909895",
        "name": "william larns",
        "dob": "blk",
        "age": "50",
        "place_of_birth": "newport, pemprokshire",
        "home_address": "blk",
        "f": "blk",
        "name_of_ship": "peep of day",
        "ship_port": "llanelly",
        "date_leaving": "1868-11-01",
        "joined_ship_date": "1868-11-18",
        "joined_at_port": "llanelly",
        "capacity": "mate",
        "date_left": "blk",
        "left_port": "blk",
        "cause_of_leaving": "remains on board",
        "sign_with_mark": "n",
        "notes": "blk"
    },
    {
        "id": "vtls004909895_0_14",
        "type": "sailor",
        "parent": "vtls004909895",
        "name": "evan davis",
        "dob": "blk",
        "age": "13",
        "place_of_birth": "newquay",
        "home_address": "blk",
        "f": "blk",
        "name_of_ship": "louisa jane",
        "ship_port": "aberystwyth",
        "date_leaving": "continued",
        "joined_ship_date": "continued",
        "joined_at_port": "blk",
        "capacity": "boy",
        "date_left": "continued",
        "left_port": "blk",
        "cause_of_leaving": "remains on board",
        "sign_with_mark": "n",
        "notes": "blk"
    },
    {
        "id": "vtls004909895_0_12",
        "type": "sailor",
        "parent": "vtls004909895",
        "name": "john lewis",
        "dob": "blk",
        "age": "50",
        "place_of_birth": "bridgewater",
        "home_address": "blk",
        "f": "blk",
        "name_of_ship": "louisa jane",
        "ship_port": "aberystwyth",
        "date_leaving": "continued",
        "joined_ship_date": "continued",
        "joined_at_port": "blk",
        "capacity": "mate",
        "date_left": "1868-02-15",
        "left_port": "liverpool",
        "cause_of_leaving": "discharged",
        "sign_with_mark": "n",
        "notes": "blk"
    },
    {
        "id": "vtls004909895_1_14",
        "type": "sailor",
        "parent": "vtls004909895",
        "name": "isaac davies",
        "dob": "blk",
        "age": "17",
        "place_of_birth": "newquay",
        "home_address": "blk",
        "f": "blk",
        "name_of_ship": "equity",
        "ship_port": "aberystwyth",
        "date_leaving": "1868-11-01",
        "joined_ship_date": "1868-11-23",
        "joined_at_port": "llanelly",
        "capacity": "able seaman",
        "date_left": "blk",
        "left_port": "blk",
        "cause_of_leaving": "remains on board",
        "sign_with_mark": "n",
        "notes": "blk"
    },
    {
        "id": "vtls004909895_1_13",
        "type": "sailor",
        "parent": "vtls004909895",
        "name": "thomas davies",
        "dob": "blk",
        "age": "16",
        "place_of_birth": "newquay",
        "home_address": "blk",
        "f": "blk",
        "name_of_ship": "louisa jane",
        "ship_port": "aberystwyth",
        "date_leaving": "blk",
        "joined_ship_date": "1905-02-08",
        "joined_at_port": "cardiff",
        "capacity": "able seaman",
        "date_left": "blk",
        "left_port": "blk",
        "cause_of_leaving": "remains on board",
        "sign_with_mark": "n",
        "notes": "blk"
    },
    {
        "id": "vtls004909895_1_15",
        "type": "sailor",
        "parent": "vtls004909895",
        "name": "evan davies",
        "dob": "blk",
        "age": "14",
        "place_of_birth": "newquay",
        "home_address": "blk",
        "f": "blk",
        "name_of_ship": "louisa jane",
        "ship_port": "aberystwyth",
        "date_leaving": "blk",
        "joined_ship_date": "1868-11-23",
        "joined_at_port": "llanelly",
        "capacity": "boy",
        "date_left": "blk",
        "left_port": "blk",
        "cause_of_leaving": "remains on board",
        "sign_with_mark": "n",
        "notes": "blk"
    },
    {
        "id": "vtls004909913_0_14",
        "type": "sailor",
        "parent": "vtls004909913",
        "name": "william hunter",
        "dob": "blk",
        "age": "20",
        "place_of_birth": "newquay",
        "home_address": "blk",
        "f": "blk",
        "name_of_ship": "louisa jane",
        "ship_port": "aberystwyth",
        "date_leaving": "blk",
        "joined_ship_date": "blk",
        "joined_at_port": "blk",
        "capacity": "ordinary seaman",
        "date_left": "blk",
        "left_port": "blk",
        "cause_of_leaving": "blk",
        "sign_with_mark": "n",
        "notes": "blk"
    },
    {
        "id": "vtls004909913_0_13",
        "type": "sailor",
        "parent": "vtls004909913",
        "name": "jenkin phillips",
        "dob": "blk",
        "age": "25",
        "place_of_birth": "newquay",
        "home_address": "blk",
        "f": "blk",
        "name_of_ship": "louisa jane",
        "ship_port": "aberystwyth",
        "date_leaving": "blk",
        "joined_ship_date": "blk",
        "joined_at_port": "blk",
        "capacity": "able seaman",
        "date_left": "blk",
        "left_port": "blk",
        "cause_of_leaving": "blk",
        "sign_with_mark": "n",
        "notes": "blk"
    },
    {
        "id": "vtls004909913_0_11",
        "type": "sailor",
        "parent": "vtls004909913",
        "name": "thomas davies",
        "dob": "blk",
        "age": "42",
        "place_of_birth": "newquay",
        "home_address": "blk",
        "f": "blk",
        "name_of_ship": "louisa jane",
        "ship_port": "aberystwyth",
        "date_leaving": "blk",
        "joined_ship_date": "blk",
        "joined_at_port": "blk",
        "capacity": "master",
        "date_left": "blk",
        "left_port": "blk",
        "cause_of_leaving": "blk",
        "sign_with_mark": "n",
        "notes": "blk"
    },
    {
        "id": "vtls004909913_1_11",
        "type": "sailor",
        "parent": "vtls004909913",
        "name": "thomas davies",
        "dob": "blk",
        "age": "46",
        "place_of_birth": "newquay",
        "home_address": "blk",
        "f": "blk",
        "name_of_ship": "louisa jane",
        "ship_port": "aberystwyth",
        "date_leaving": "blk",
        "joined_ship_date": "blk",
        "joined_at_port": "blk",
        "capacity": "master",
        "date_left": "blk",
        "left_port": "blk",
        "cause_of_leaving": "blk",
        "sign_with_mark": "n",
        "notes": "blk"
    },
    {
        "id": "vtls004909913_0_12",
        "type": "sailor",
        "parent": "vtls004909913",
        "name": "william davies",
        "dob": "blk",
        "age": "40",
        "place_of_birth": "newquay",
        "home_address": "blk",
        "f": "blk",
        "name_of_ship": "louisa jane",
        "ship_port": "aberystwyth",
        "date_leaving": "blk",
        "joined_ship_date": "blk",
        "joined_at_port": "blk",
        "capacity": "mate",
        "date_left": "blk",
        "left_port": "blk",
        "cause_of_leaving": "blk",
        "sign_with_mark": "n",
        "notes": "blk"
    },
    {
        "id": "vtls004909913_0_15",
        "type": "sailor",
        "parent": "vtls004909913",
        "name": "thomas davies",
        "dob": "blk",
        "age": "14",
        "place_of_birth": "newquay",
        "home_address": "blk",
        "f": "blk",
        "name_of_ship": "louisa jane",
        "ship_port": "aberystwyth",
        "date_leaving": "blk",
        "joined_ship_date": "blk",
        "joined_at_port": "blk",
        "capacity": "boy",
        "date_left": "blk",
        "left_port": "blk",
        "cause_of_leaving": "blk",
        "sign_with_mark": "n",
        "notes": "blk"
    },
    {
        "id": "vtls004909963_0_14",
        "type": "sailor",
        "parent": "vtls004909963",
        "name": "evan davies",
        "dob": "blk",
        "age": "16",
        "place_of_birth": "newquay",
        "home_address": "blk",
        "f": "blk",
        "name_of_ship": "louisa jane",
        "ship_port": "aberystwyth",
        "date_leaving": "continues",
        "joined_ship_date": "1870-01-01",
        "joined_at_port": "newport",
        "capacity": "ordinary seaman",
        "date_left": "blk",
        "left_port": "blk",
        "cause_of_leaving": "remains on board",
        "sign_with_mark": "n",
        "notes": "blk"
    },
    {
        "id": "vtls004909963_0_13",
        "type": "sailor",
        "parent": "vtls004909963",
        "name": "thomas davies",
        "dob": "blk",
        "age": "19",
        "place_of_birth": "newquay",
        "home_address": "blk",
        "f": "blk",
        "name_of_ship": "louisa jane",
        "ship_port": "aberystwyth",
        "date_leaving": "continues",
        "joined_ship_date": "1870-01-01",
        "joined_at_port": "newport",
        "capacity": "able seaman",
        "date_left": "blk",
        "left_port": "blk",
        "cause_of_leaving": "remains on board",
        "sign_with_mark": "n",
        "notes": "blk"
    },
    {
        "id": "vtls004909963_0_11",
        "type": "sailor",
        "parent": "vtls004909963",
        "name": "thomas davies",
        "dob": "blk",
        "age": "47",
        "place_of_birth": "newquay",
        "home_address": "blk",
        "f": "blk",
        "name_of_ship": "louisa jane",
        "ship_port": "aberystwyth",
        "date_leaving": "continues",
        "joined_ship_date": "1870-01-01",
        "joined_at_port": "newport",
        "capacity": "master",
        "date_left": "blk",
        "left_port": "blk",
        "cause_of_leaving": "remains on board",
        "sign_with_mark": "n",
        "notes": "blk"
    },
    {
        "id": "vtls004909963_0_12",
        "type": "sailor",
        "parent": "vtls004909963",
        "name": "elias jones",
        "dob": "blk",
        "age": "38",
        "place_of_birth": "newquay",
        "home_address": "blk",
        "f": "blk",
        "name_of_ship": "louisa jane",
        "ship_port": "aberystwyth",
        "date_leaving": "continues",
        "joined_ship_date": "1870-01-01",
        "joined_at_port": "newport",
        "capacity": "mate",
        "date_left": "blk",
        "left_port": "blk",
        "cause_of_leaving": "remains on board",
        "sign_with_mark": "n",
        "notes": "blk"
    },
    {
        "id": "vtls004909913_1_13",
        "type": "sailor",
        "parent": "vtls004909913",
        "name": "thomas davies",
        "dob": "blk",
        "age": "17",
        "place_of_birth": "newquay",
        "home_address": "blk",
        "f": "blk",
        "name_of_ship": "louisa jane",
        "ship_port": "aberystwyth",
        "date_leaving": "1869-10-23",
        "joined_ship_date": "1869-06-20",
        "joined_at_port": "liverpool",
        "capacity": "mate",
        "date_left": "blk",
        "left_port": "blk",
        "cause_of_leaving": "blk",
        "sign_with_mark": "n",
        "notes": "blk"
    },
    {
        "id": "vtls004909913_1_14",
        "type": "sailor",
        "parent": "vtls004909913",
        "name": "evan davies",
        "dob": "blk",
        "age": "15",
        "place_of_birth": "newquay",
        "home_address": "blk",
        "f": "blk",
        "name_of_ship": "louisa jane",
        "ship_port": "aberystwyth",
        "date_leaving": "1869-10-23",
        "joined_ship_date": "1869-06-20",
        "joined_at_port": "liverpool",
        "capacity": "mate",
        "date_left": "blk",
        "left_port": "blk",
        "cause_of_leaving": "blk",
        "sign_with_mark": "n",
        "notes": "blk"
    },
    {
        "id": "vtls004909913_1_12",
        "type": "sailor",
        "parent": "vtls004909913",
        "name": "elias jones",
        "dob": "blk",
        "age": "32",
        "place_of_birth": "cardigan",
        "home_address": "blk",
        "f": "blk",
        "name_of_ship": "mary louise",
        "ship_port": "llanelly",
        "date_leaving": "1869-10-23",
        "joined_ship_date": "1869-06-20",
        "joined_at_port": "liverpool",
        "capacity": "mate",
        "date_left": "blk",
        "left_port": "blk",
        "cause_of_leaving": "blk",
        "sign_with_mark": "n",
        "notes": "blk"
    },
    {
        "id": "vtls004910000_0_12",
        "type": "sailor",
        "parent": "vtls004910000",
        "name": "thomas davies",
        "dob": "blk",
        "age": "19",
        "place_of_birth": "newquay",
        "home_address": "blk",
        "f": "blk",
        "name_of_ship": "louisa jane",
        "ship_port": "aberystwyth",
        "date_leaving": "1871",
        "joined_ship_date": "1871-05-20",
        "joined_at_port": "cork",
        "capacity": "boatswain",
        "date_left": "1871-08-30",
        "left_port": "newquay, cardiganshire",
        "cause_of_leaving": "discharged",
        "sign_with_mark": "y",
        "notes": "blk"
    },
    {
        "id": "vtls004909963_1_14",
        "type": "sailor",
        "parent": "vtls004909963",
        "name": "george powell",
        "dob": "blk",
        "age": "24",
        "place_of_birth": "ipswich",
        "home_address": "blk",
        "f": "blk",
        "name_of_ship": "[spryt]",
        "ship_port": "hull",
        "date_leaving": "1870-10-05",
        "joined_ship_date": "1870-11-20",
        "joined_at_port": "liverpool",
        "capacity": "able seaman",
        "date_left": "1871-01-20",
        "left_port": "brupels",
        "cause_of_leaving": "discharged",
        "sign_with_mark": "n",
        "notes": "blk"
    },
    {
        "id": "vtls004909963_1_13",
        "type": "sailor",
        "parent": "vtls004909963",
        "name": "john donovan",
        "dob": "blk",
        "age": "32",
        "place_of_birth": "kinsale",
        "home_address": "blk",
        "f": "blk",
        "name_of_ship": "louisa jane",
        "ship_port": "aberystwyth",
        "date_leaving": "remain",
        "joined_ship_date": "remain",
        "joined_at_port": "blk",
        "capacity": "able seaman",
        "date_left": "1871-01-20",
        "left_port": "brupels",
        "cause_of_leaving": "discharged",
        "sign_with_mark": "n",
        "notes": "blk"
    },
    {
        "id": "vtls004909963_0_15",
        "type": "sailor",
        "parent": "vtls004909963",
        "name": "david d davies",
        "dob": "blk",
        "age": "14",
        "place_of_birth": "newquay",
        "home_address": "blk",
        "f": "blk",
        "name_of_ship": "louisa jane",
        "ship_port": "aberystwyth",
        "date_leaving": "continues",
        "joined_ship_date": "1870-01-01",
        "joined_at_port": "newport",
        "capacity": "boy",
        "date_left": "blk",
        "left_port": "blk",
        "cause_of_leaving": "remains on board",
        "sign_with_mark": "n",
        "notes": "blk"
    },
    {
        "id": "vtls004909963_1_16",
        "type": "sailor",
        "parent": "vtls004909963",
        "name": "william evans",
        "dob": "blk",
        "age": "23",
        "place_of_birth": "pwllheli",
        "home_address": "blk",
        "f": "blk",
        "name_of_ship": "[saint]",
        "ship_port": "$",
        "date_leaving": "1871-02-15",
        "joined_ship_date": "1870-02-16",
        "joined_at_port": "antwerp",
        "capacity": "able seaman",
        "date_left": "blk",
        "left_port": "blk",
        "cause_of_leaving": "remains on board",
        "sign_with_mark": "n",
        "notes": "blk"
    },
    {
        "id": "vtls004909963_1_12",
        "type": "sailor",
        "parent": "vtls004909963",
        "name": "thomas davies junior",
        "dob": "blk",
        "age": "19",
        "place_of_birth": "newquay",
        "home_address": "blk",
        "f": "blk",
        "name_of_ship": "louisa jane",
        "ship_port": "aberystwyth",
        "date_leaving": "remain",
        "joined_ship_date": "remain",
        "joined_at_port": "blk",
        "capacity": "mate",
        "date_left": "blk",
        "left_port": "blk",
        "cause_of_leaving": "remains on board",
        "sign_with_mark": "n",
        "notes": "blk"
    },
    {
        "id": "vtls004910000_0_11",
        "type": "sailor",
        "parent": "vtls004910000",
        "name": "thomas davies",
        "dob": "blk",
        "age": "47",
        "place_of_birth": "newquay",
        "home_address": "blk",
        "f": "blk",
        "name_of_ship": "louisa jane",
        "ship_port": "aberystwyth",
        "date_leaving": "blk",
        "joined_ship_date": "blk",
        "joined_at_port": "blk",
        "capacity": "master",
        "date_left": "blk",
        "left_port": "blk",
        "cause_of_leaving": "remains on board",
        "sign_with_mark": "n",
        "notes": "blk"
    },
    {
        "id": "vtls004909963_1_15",
        "type": "sailor",
        "parent": "vtls004909963",
        "name": "james phelps",
        "dob": "blk",
        "age": "15",
        "place_of_birth": "saundersfoot",
        "home_address": "blk",
        "f": "blk",
        "name_of_ship": "mute",
        "ship_port": "ispwich",
        "date_leaving": "1870-10-07",
        "joined_ship_date": "1870-10-12",
        "joined_at_port": "poole",
        "capacity": "boy",
        "date_left": "blk",
        "left_port": "blk",
        "cause_of_leaving": "remains on board",
        "sign_with_mark": "n",
        "notes": "blk"
    },
    {
        "id": "vtls004909963_1_11",
        "type": "sailor",
        "parent": "vtls004909963",
        "name": "thomas davies",
        "dob": "blk",
        "age": "47",
        "place_of_birth": "newquay",
        "home_address": "blk",
        "f": "blk",
        "name_of_ship": "louisa jane",
        "ship_port": "aberystwyth",
        "date_leaving": "remain",
        "joined_ship_date": "remain",
        "joined_at_port": "blk",
        "capacity": "master",
        "date_left": "blk",
        "left_port": "blk",
        "cause_of_leaving": "remains on board",
        "sign_with_mark": "n",
        "notes": "blk"
    },
    {
        "id": "vtls004910000_0_13",
        "type": "sailor",
        "parent": "vtls004910000",
        "name": "david jenkins",
        "dob": "blk",
        "age": "39",
        "place_of_birth": "newquay",
        "home_address": "blk",
        "f": "blk",
        "name_of_ship": "louisa jane",
        "ship_port": "aberystwyth",
        "date_leaving": "1871",
        "joined_ship_date": "1871-05-20",
        "joined_at_port": "cork",
        "capacity": "able seaman",
        "date_left": "1871-09-27",
        "left_port": "greenock",
        "cause_of_leaving": "discharged",
        "sign_with_mark": "n",
        "notes": "blk"
    },
    {
        "id": "vtls004910000_0_17",
        "type": "sailor",
        "parent": "vtls004910000",
        "name": "evan williams",
        "dob": "blk",
        "age": "20",
        "place_of_birth": "cardigan",
        "home_address": "blk",
        "f": "blk",
        "name_of_ship": "mary $",
        "ship_port": "aberystwyth",
        "date_leaving": "1871",
        "joined_ship_date": "1871-08-30",
        "joined_at_port": "newquay",
        "capacity": "able seaman",
        "date_left": "1871-09-27",
        "left_port": "greenock",
        "cause_of_leaving": "discharged",
        "sign_with_mark": "n",
        "notes": "blk"
    },
    {
        "id": "vtls004910000_1_13",
        "type": "sailor",
        "parent": "vtls004910000",
        "name": "evan williams",
        "dob": "blk",
        "age": "21",
        "place_of_birth": "newquay",
        "home_address": "blk",
        "f": "blk",
        "name_of_ship": "louisa jane",
        "ship_port": "aberystwyth",
        "date_leaving": "1871-12-30",
        "joined_ship_date": "1871-06-30",
        "joined_at_port": "greenock",
        "capacity": "able seaman",
        "date_left": "blk",
        "left_port": "blk",
        "cause_of_leaving": "remains on board",
        "sign_with_mark": "n",
        "notes": "blk"
    },
    {
        "id": "vtls004910000_0_14",
        "type": "sailor",
        "parent": "vtls004910000",
        "name": "david williams",
        "dob": "blk",
        "age": "18",
        "place_of_birth": "red bay",
        "home_address": "blk",
        "f": "blk",
        "name_of_ship": "louisa jane",
        "ship_port": "aberystwyth",
        "date_leaving": "blk",
        "joined_ship_date": "1871-05-20",
        "joined_at_port": "cork",
        "capacity": "ordinary seaman",
        "date_left": "1871-07-19",
        "left_port": "antwerp",
        "cause_of_leaving": "discharged",
        "sign_with_mark": "y",
        "notes": "blk"
    },
    {
        "id": "vtls004910000_0_16",
        "type": "sailor",
        "parent": "vtls004910000",
        "name": "david williams",
        "dob": "blk",
        "age": "20",
        "place_of_birth": "aberaeron",
        "home_address": "blk",
        "f": "blk",
        "name_of_ship": "mary eliza",
        "ship_port": "newquay",
        "date_leaving": "blk",
        "joined_ship_date": "1871-08-30",
        "joined_at_port": "newquay",
        "capacity": "able seaman",
        "date_left": "1871-09-27",
        "left_port": "greenock",
        "cause_of_leaving": "discharged",
        "sign_with_mark": "n",
        "notes": "blk"
    },
    {
        "id": "vtls004910000_1_11",
        "type": "sailor",
        "parent": "vtls004910000",
        "name": "thomas davies",
        "dob": "blk",
        "age": "47",
        "place_of_birth": "newquay",
        "home_address": "blk",
        "f": "blk",
        "name_of_ship": "louisa jane",
        "ship_port": "aberystwyth",
        "date_leaving": "1871-12-30",
        "joined_ship_date": "1871-06-30",
        "joined_at_port": "greenock",
        "capacity": "master",
        "date_left": "blk",
        "left_port": "blk",
        "cause_of_leaving": "remains on board",
        "sign_with_mark": "n",
        "notes": "blk"
    },
    {
        "id": "vtls004910000_1_12",
        "type": "sailor",
        "parent": "vtls004910000",
        "name": "david jenkins",
        "dob": "blk",
        "age": "40",
        "place_of_birth": "newquay",
        "home_address": "blk",
        "f": "blk",
        "name_of_ship": "louisa jane",
        "ship_port": "aberystwyth",
        "date_leaving": "1871-12-30",
        "joined_ship_date": "1871-06-30",
        "joined_at_port": "greenock",
        "capacity": "mate",
        "date_left": "blk",
        "left_port": "blk",
        "cause_of_leaving": "remains on board",
        "sign_with_mark": "n",
        "notes": "blk"
    },
    {
        "id": "vtls004910000_0_15",
        "type": "sailor",
        "parent": "vtls004910000",
        "name": "francais lecadre",
        "dob": "blk",
        "age": "48",
        "place_of_birth": "france",
        "home_address": "blk",
        "f": "blk",
        "name_of_ship": "deny louis",
        "ship_port": "blk",
        "date_leaving": "1871",
        "joined_ship_date": "1871-06-06",
        "joined_at_port": "nantes",
        "capacity": "able seaman",
        "date_left": "1871-07-17",
        "left_port": "antwerp",
        "cause_of_leaving": "discharged",
        "sign_with_mark": "y",
        "notes": "blk"
    },
    {
        "id": "vtls004910006_0_13",
        "type": "sailor",
        "parent": "vtls004910006",
        "name": "joseph dun",
        "dob": "blk",
        "age": "25",
        "place_of_birth": "waterford",
        "home_address": "blk",
        "f": "blk",
        "name_of_ship": "louisa jane",
        "ship_port": "aberystwyth",
        "date_leaving": "1872-01-01",
        "joined_ship_date": "1872-01-01",
        "joined_at_port": "at sea",
        "capacity": "able seaman",
        "date_left": "1872-06-30",
        "left_port": "at sea",
        "cause_of_leaving": "remains on board",
        "sign_with_mark": "n",
        "notes": "blk"
    },
    {
        "id": "vtls004910006_0_11",
        "type": "sailor",
        "parent": "vtls004910006",
        "name": "thomas davies",
        "dob": "blk",
        "age": "47",
        "place_of_birth": "newquay",
        "home_address": "blk",
        "f": "blk",
        "name_of_ship": "louisa jane",
        "ship_port": "aberystwyth",
        "date_leaving": "1872-01-01",
        "joined_ship_date": "1872-01-01",
        "joined_at_port": "at sea",
        "capacity": "master",
        "date_left": "1872-06-30",
        "left_port": "at sea",
        "cause_of_leaving": "remains on board",
        "sign_with_mark": "n",
        "notes": "blk"
    },
    {
        "id": "vtls004910006_0_12",
        "type": "sailor",
        "parent": "vtls004910006",
        "name": "evan davies",
        "dob": "blk",
        "age": "17",
        "place_of_birth": "newquay",
        "home_address": "blk",
        "f": "blk",
        "name_of_ship": "louisa jane",
        "ship_port": "aberystwyth",
        "date_leaving": "1872-01-01",
        "joined_ship_date": "1872-01-01",
        "joined_at_port": "at sea",
        "capacity": "mate",
        "date_left": "1872-06-30",
        "left_port": "at sea",
        "cause_of_leaving": "remains on board",
        "sign_with_mark": "n",
        "notes": "blk"
    },
    {
        "id": "vtls004910006_1_14",
        "type": "sailor",
        "parent": "vtls004910006",
        "name": "david d davies",
        "dob": "blk",
        "age": "15",
        "place_of_birth": "newquay",
        "home_address": "blk",
        "f": "blk",
        "name_of_ship": "louisa jane",
        "ship_port": "aberystwyth",
        "date_leaving": "continued",
        "joined_ship_date": "continued",
        "joined_at_port": "blk",
        "capacity": "ordinary seaman",
        "date_left": "blk",
        "left_port": "blk",
        "cause_of_leaving": "remains on board",
        "sign_with_mark": "n",
        "notes": "blk"
    },
    {
        "id": "vtls004910006_1_13",
        "type": "sailor",
        "parent": "vtls004910006",
        "name": "frederick spicer",
        "dob": "blk",
        "age": "27",
        "place_of_birth": "faversham",
        "home_address": "blk",
        "f": "blk",
        "name_of_ship": "beasie",
        "ship_port": "fowey",
        "date_leaving": "1872-09-20",
        "joined_ship_date": "1879-09-23",
        "joined_at_port": "plymouth",
        "capacity": "able seaman",
        "date_left": "blk",
        "left_port": "blk",
        "cause_of_leaving": "remains on board",
        "sign_with_mark": "n",
        "notes": "blk"
    },
    {
        "id": "vtls004910006_0_14",
        "type": "sailor",
        "parent": "vtls004910006",
        "name": "david d davies",
        "dob": "blk",
        "age": "16",
        "place_of_birth": "newquay",
        "home_address": "blk",
        "f": "blk",
        "name_of_ship": "anne mitchell",
        "ship_port": "blk",
        "date_leaving": "1872-12-30",
        "joined_ship_date": "1872-01-01",
        "joined_at_port": "newquay",
        "capacity": "boy",
        "date_left": "1872-06-30",
        "left_port": "at sea",
        "cause_of_leaving": "remains on board",
        "sign_with_mark": "n",
        "notes": "blk"
    },
    {
        "id": "vtls004910006_1_11",
        "type": "sailor",
        "parent": "vtls004910006",
        "name": "thomas davies",
        "dob": "blk",
        "age": "48",
        "place_of_birth": "newquay",
        "home_address": "blk",
        "f": "blk",
        "name_of_ship": "louisa jane",
        "ship_port": "aberystwyth",
        "date_leaving": "continued",
        "joined_ship_date": "continued",
        "joined_at_port": "blk",
        "capacity": "master",
        "date_left": "blk",
        "left_port": "blk",
        "cause_of_leaving": "remains on board",
        "sign_with_mark": "n",
        "notes": "blk"
    },
    {
        "id": "vtls004910000_1_14",
        "type": "sailor",
        "parent": "vtls004910000",
        "name": "evan davies",
        "dob": "blk",
        "age": "17",
        "place_of_birth": "newquay",
        "home_address": "blk",
        "f": "blk",
        "name_of_ship": "retriver",
        "ship_port": "newquay",
        "date_leaving": "blk",
        "joined_ship_date": "1871-10-27",
        "joined_at_port": "greenock",
        "capacity": "able seaman",
        "date_left": "blk",
        "left_port": "blk",
        "cause_of_leaving": "remains on board",
        "sign_with_mark": "n",
        "notes": "blk"
    },
    {
        "id": "vtls004910006_1_12",
        "type": "sailor",
        "parent": "vtls004910006",
        "name": "evan davies",
        "dob": "blk",
        "age": "19",
        "place_of_birth": "newquay",
        "home_address": "blk",
        "f": "blk",
        "name_of_ship": "louisa jane",
        "ship_port": "aberystwyth",
        "date_leaving": "continued",
        "joined_ship_date": "continued",
        "joined_at_port": "blk",
        "capacity": "mate",
        "date_left": "blk",
        "left_port": "blk",
        "cause_of_leaving": "remains on board",
        "sign_with_mark": "n",
        "notes": "blk"
    },
    {
        "id": "vtls004910021_0_11",
        "type": "sailor",
        "parent": "vtls004910021",
        "name": "william francis",
        "dob": "blk",
        "age": "51",
        "place_of_birth": "dinas, pembroke",
        "home_address": "blk",
        "f": "blk",
        "name_of_ship": "lovina",
        "ship_port": "aberystwyth",
        "date_leaving": "1873-03",
        "joined_ship_date": "1873-03",
        "joined_at_port": "newport",
        "capacity": "master",
        "date_left": "blk",
        "left_port": "blk",
        "cause_of_leaving": "remains on board",
        "sign_with_mark": "n",
        "notes": "\"this vessel was purchased in march last by the present owner\""
    },
    {
        "id": "vtls004910021_1_11",
        "type": "sailor",
        "parent": "vtls004910021",
        "name": "william francis",
        "dob": "blk",
        "age": "blk",
        "place_of_birth": "dinas, pembroke",
        "home_address": "blk",
        "f": "blk",
        "name_of_ship": "unknown",
        "ship_port": "blk",
        "date_leaving": "unknown",
        "joined_ship_date": "unknown",
        "joined_at_port": "unknown",
        "capacity": "master",
        "date_left": "unknown",
        "left_port": "unknown",
        "cause_of_leaving": "vessel supposed lost",
        "sign_with_mark": "n",
        "notes": "blk"
    },
    {
        "id": "vtls004910021_0_13",
        "type": "sailor",
        "parent": "vtls004910021",
        "name": "frederick lloyd",
        "dob": "blk",
        "age": "26",
        "place_of_birth": "liverpool",
        "home_address": "blk",
        "f": "blk",
        "name_of_ship": "crystal belle",
        "ship_port": "$",
        "date_leaving": "1873-03",
        "joined_ship_date": "1873-03",
        "joined_at_port": "newport",
        "capacity": "able seaman",
        "date_left": "1873-05",
        "left_port": "runcorn",
        "cause_of_leaving": "discharged",
        "sign_with_mark": "n",
        "notes": "blk"
    },
    {
        "id": "vtls004910021_0_12",
        "type": "sailor",
        "parent": "vtls004910021",
        "name": "$ howells",
        "dob": "blk",
        "age": "32",
        "place_of_birth": "cardigan",
        "home_address": "blk",
        "f": "blk",
        "name_of_ship": "[mourton]",
        "ship_port": "liverpool",
        "date_leaving": "1873-03",
        "joined_ship_date": "1873-03",
        "joined_at_port": "newport",
        "capacity": "mate",
        "date_left": "blk",
        "left_port": "blk",
        "cause_of_leaving": "remains on board",
        "sign_with_mark": "n",
        "notes": "blk"
    },
    {
        "id": "vtls004910006_1_15",
        "type": "sailor",
        "parent": "vtls004910006",
        "name": "george williams",
        "dob": "blk",
        "age": "12",
        "place_of_birth": "newquay",
        "home_address": "blk",
        "f": "blk",
        "name_of_ship": "louisa jane",
        "ship_port": "aberystwyth",
        "date_leaving": "continued",
        "joined_ship_date": "continued",
        "joined_at_port": "blk",
        "capacity": "boy",
        "date_left": "blk",
        "left_port": "blk",
        "cause_of_leaving": "remains on board",
        "sign_with_mark": "n",
        "notes": "blk"
    },
    {
        "id": "vtls004910021_0_14",
        "type": "sailor",
        "parent": "vtls004910021",
        "name": "william francis",
        "dob": "blk",
        "age": "14",
        "place_of_birth": "dinas, pembroke",
        "home_address": "blk",
        "f": "blk",
        "name_of_ship": "first ship",
        "ship_port": "blk",
        "date_leaving": "blk",
        "joined_ship_date": "1873-03",
        "joined_at_port": "newport",
        "capacity": "boy",
        "date_left": "blk",
        "left_port": "blk",
        "cause_of_leaving": "remains on board",
        "sign_with_mark": "n",
        "notes": "blk"
    },
    {
        "id": "vtls004910021_1_12",
        "type": "sailor",
        "parent": "vtls004910021",
        "name": "unknown howells",
        "dob": "blk",
        "age": "blk",
        "place_of_birth": "blk",
        "home_address": "blk",
        "f": "blk",
        "name_of_ship": "blk",
        "ship_port": "blk",
        "date_leaving": "unknown",
        "joined_ship_date": "unknown",
        "joined_at_port": "unknown",
        "capacity": "mate",
        "date_left": "unknown",
        "left_port": "unknown",
        "cause_of_leaving": "vessel supposed lost",
        "sign_with_mark": "n",
        "notes": "blk"
    },
    {
        "id": "vtls004910021_1_13",
        "type": "sailor",
        "parent": "vtls004910021",
        "name": "william francis",
        "dob": "blk",
        "age": "blk",
        "place_of_birth": "dinas, pembroke",
        "home_address": "blk",
        "f": "blk",
        "name_of_ship": "unknown",
        "ship_port": "blk",
        "date_leaving": "unknown",
        "joined_ship_date": "unknown",
        "joined_at_port": "unknown",
        "capacity": "boy",
        "date_left": "unknown",
        "left_port": "unknown",
        "cause_of_leaving": "vessel supposed lost",
        "sign_with_mark": "n",
        "notes": "blk"
    }
]