[
    {
        "id": "vtls004973118_0_14",
        "type": "sailor",
        "parent": "vtls004973118",
        "name": "john lewis",
        "dob": "blk",
        "age": "60",
        "place_of_birth": "st dogmaels",
        "home_address": "blk",
        "f": "blk",
        "name_of_ship": "utopia",
        "ship_port": "aberystwyth",
        "date_leaving": "blk",
        "joined_ship_date": "1867-05-23",
        "joined_at_port": "cardiff",
        "capacity": "cook & steward",
        "date_left": "1867-08-28",
        "left_port": "swansea",
        "cause_of_leaving": "discharged",
        "sign_with_mark": "n",
        "notes": "blk"
    },
    {
        "id": "vtls004973118_0_17",
        "type": "sailor",
        "parent": "vtls004973118",
        "name": "david parry",
        "dob": "blk",
        "age": "22",
        "place_of_birth": "newquay",
        "home_address": "blk",
        "f": "blk",
        "name_of_ship": "utopia",
        "ship_port": "aberystwyth",
        "date_leaving": "1867",
        "joined_ship_date": "1867-05-23",
        "joined_at_port": "cardiff",
        "capacity": "ordinary seaman",
        "date_left": "1867-08-28",
        "left_port": "swansea",
        "cause_of_leaving": "discharged",
        "sign_with_mark": "n",
        "notes": "blk"
    },
    {
        "id": "vtls004973118_0_16",
        "type": "sailor",
        "parent": "vtls004973118",
        "name": "david evans",
        "dob": "blk",
        "age": "21",
        "place_of_birth": "newquay",
        "home_address": "blk",
        "f": "blk",
        "name_of_ship": "james & mary",
        "ship_port": "new quay",
        "date_leaving": "1867",
        "joined_ship_date": "1867-05-23",
        "joined_at_port": "cardiff",
        "capacity": "able seaman",
        "date_left": "1867-08-28",
        "left_port": "swansea",
        "cause_of_leaving": "discharged",
        "sign_with_mark": "n",
        "notes": "blk"
    },
    {
        "id": "vtls004973118_0_12",
        "type": "sailor",
        "parent": "vtls004973118",
        "name": "lewis davies",
        "dob": "blk",
        "age": "27",
        "place_of_birth": "newquay",
        "home_address": "blk",
        "f": "blk",
        "name_of_ship": "utopia",
        "ship_port": "aberystwyth",
        "date_leaving": "blk",
        "joined_ship_date": "1867-05-23",
        "joined_at_port": "cardiff",
        "capacity": "mate",
        "date_left": "1867-08-28",
        "left_port": "swansea",
        "cause_of_leaving": "continued on board",
        "sign_with_mark": "n",
        "notes": "blk"
    },
    {
        "id": "vtls004973118_0_13",
        "type": "sailor",
        "parent": "vtls004973118",
        "name": "einon williams",
        "dob": "blk",
        "age": "27",
        "place_of_birth": "newquay",
        "home_address": "blk",
        "f": "blk",
        "name_of_ship": "utopia",
        "ship_port": "aberystwyth",
        "date_leaving": "blk",
        "joined_ship_date": "1867-05-23",
        "joined_at_port": "cardiff",
        "capacity": "boatswain",
        "date_left": "1867-08-28",
        "left_port": "swansea",
        "cause_of_leaving": "discharged",
        "sign_with_mark": "n",
        "notes": "blk"
    },
    {
        "id": "vtls004973118_0_15",
        "type": "sailor",
        "parent": "vtls004973118",
        "name": "owen evans",
        "dob": "blk",
        "age": "22",
        "place_of_birth": "newquay",
        "home_address": "blk",
        "f": "blk",
        "name_of_ship": "gladis",
        "ship_port": "aberystwyth",
        "date_leaving": "1867",
        "joined_ship_date": "1867-05-23",
        "joined_at_port": "cardiff",
        "capacity": "able seaman",
        "date_left": "1867-08-28",
        "left_port": "swansea",
        "cause_of_leaving": "discharged",
        "sign_with_mark": "n",
        "notes": "blk"
    },
    {
        "id": "vtls004973118_0_11",
        "type": "sailor",
        "parent": "vtls004973118",
        "name": "david d davies",
        "dob": "blk",
        "age": "31",
        "place_of_birth": "newquay",
        "home_address": "blk",
        "f": "blk",
        "name_of_ship": "utopia",
        "ship_port": "aberystwyth",
        "date_leaving": "blk",
        "joined_ship_date": "blk",
        "joined_at_port": "blk",
        "capacity": "master",
        "date_left": "1867-08-28",
        "left_port": "swansea",
        "cause_of_leaving": "continued on board",
        "sign_with_mark": "n",
        "notes": "blk"
    },
    {
        "id": "vtls004973118_1_15",
        "type": "sailor",
        "parent": "vtls004973118",
        "name": "david morgans",
        "dob": "blk",
        "age": "23",
        "place_of_birth": "cardigan",
        "home_address": "blk",
        "f": "blk",
        "name_of_ship": "m[ar]y [ann]",
        "ship_port": "cardigan",
        "date_leaving": "1867",
        "joined_ship_date": "1867-09-16",
        "joined_at_port": "swansea",
        "capacity": "able seaman",
        "date_left": "1864-04-13",
        "left_port": "london",
        "cause_of_leaving": "discharged",
        "sign_with_mark": "n",
        "notes": "blk"
    },
    {
        "id": "vtls004973118_0_18",
        "type": "sailor",
        "parent": "vtls004973118",
        "name": "august pricw",
        "dob": "blk",
        "age": "31",
        "place_of_birth": "memel",
        "home_address": "blk",
        "f": "blk",
        "name_of_ship": "h.m.s. london",
        "ship_port": "blk",
        "date_leaving": "1867",
        "joined_ship_date": "1867-05-24",
        "joined_at_port": "cardiff",
        "capacity": "ordinary seaman",
        "date_left": "1867-08-28",
        "left_port": "swansea",
        "cause_of_leaving": "discharged",
        "sign_with_mark": "y",
        "notes": "blk"
    },
    {
        "id": "vtls004973118_1_14",
        "type": "sailor",
        "parent": "vtls004973118",
        "name": "august preufs",
        "dob": "blk",
        "age": "31",
        "place_of_birth": "memel",
        "home_address": "blk",
        "f": "blk",
        "name_of_ship": "utopia",
        "ship_port": "aberystwyth",
        "date_leaving": "blk",
        "joined_ship_date": "1867-09-16",
        "joined_at_port": "swansea",
        "capacity": "cook & steward",
        "date_left": "1864-04-13",
        "left_port": "london",
        "cause_of_leaving": "discharged",
        "sign_with_mark": "n",
        "notes": "blk"
    },
    {
        "id": "vtls004973118_1_18",
        "type": "sailor",
        "parent": "vtls004973118",
        "name": "david parry",
        "dob": "blk",
        "age": "22",
        "place_of_birth": "newquay",
        "home_address": "blk",
        "f": "blk",
        "name_of_ship": "utopia",
        "ship_port": "aberystwyth",
        "date_leaving": "blk",
        "joined_ship_date": "1867-09-16",
        "joined_at_port": "swansea",
        "capacity": "ordinary seaman",
        "date_left": "1864-04-13",
        "left_port": "london",
        "cause_of_leaving": "discharged",
        "sign_with_mark": "n",
        "notes": "blk"
    },
    {
        "id": "vtls004973118_1_13",
        "type": "sailor",
        "parent": "vtls004973118",
        "name": "einon williams",
        "dob": "blk",
        "age": "27",
        "place_of_birth": "newquay",
        "home_address": "blk",
        "f": "blk",
        "name_of_ship": "utopia",
        "ship_port": "aberystwyth",
        "date_leaving": "blk",
        "joined_ship_date": "1867-09-16",
        "joined_at_port": "swansea",
        "capacity": "boatswain",
        "date_left": "1868-04-13",
        "left_port": "london",
        "cause_of_leaving": "discharged",
        "sign_with_mark": "n",
        "notes": "blk"
    },
    {
        "id": "vtls004973118_1_16",
        "type": "sailor",
        "parent": "vtls004973118",
        "name": "david jones",
        "dob": "blk",
        "age": "22",
        "place_of_birth": "newquay",
        "home_address": "blk",
        "f": "blk",
        "name_of_ship": "[e]l[e]ann",
        "ship_port": "new quay",
        "date_leaving": "1867",
        "joined_ship_date": "1867-09-16",
        "joined_at_port": "swansea",
        "capacity": "able seaman",
        "date_left": "1864-04-13",
        "left_port": "london",
        "cause_of_leaving": "discharged",
        "sign_with_mark": "n",
        "notes": "blk"
    },
    {
        "id": "vtls004973118_1_17",
        "type": "sailor",
        "parent": "vtls004973118",
        "name": "evan jenkins",
        "dob": "blk",
        "age": "19",
        "place_of_birth": "newquay",
        "home_address": "blk",
        "f": "blk",
        "name_of_ship": "catherine",
        "ship_port": "new quay",
        "date_leaving": "1867",
        "joined_ship_date": "1867-09-16",
        "joined_at_port": "swansea",
        "capacity": "able seaman",
        "date_left": "1864-04-13",
        "left_port": "london",
        "cause_of_leaving": "discharged",
        "sign_with_mark": "n",
        "notes": "blk"
    },
    {
        "id": "vtls004973118_1_12",
        "type": "sailor",
        "parent": "vtls004973118",
        "name": "lewis davies",
        "dob": "blk",
        "age": "28",
        "place_of_birth": "newquay",
        "home_address": "blk",
        "f": "blk",
        "name_of_ship": "utopia",
        "ship_port": "aberystwyth",
        "date_leaving": "blk",
        "joined_ship_date": "1867-09-16",
        "joined_at_port": "swansea",
        "capacity": "mate",
        "date_left": "1868-04-13",
        "left_port": "london",
        "cause_of_leaving": "discharged",
        "sign_with_mark": "n",
        "notes": "blk"
    },
    {
        "id": "vtls004973118_1_11",
        "type": "sailor",
        "parent": "vtls004973118",
        "name": "david d davies",
        "dob": "blk",
        "age": "31",
        "place_of_birth": "newquay",
        "home_address": "blk",
        "f": "blk",
        "name_of_ship": "utopia",
        "ship_port": "aberystwyth",
        "date_leaving": "blk",
        "joined_ship_date": "1867-09-16",
        "joined_at_port": "swansea",
        "capacity": "master",
        "date_left": "blk",
        "left_port": "blk",
        "cause_of_leaving": "remains on board",
        "sign_with_mark": "n",
        "notes": "blk"
    }
]