[
    {
        "id": "vtls004909884_0_13",
        "type": "sailor",
        "parent": "vtls004909884",
        "name": "daniel davies",
        "dob": "blk",
        "age": "27",
        "place_of_birth": "newquay",
        "home_address": "blk",
        "f": "blk",
        "name_of_ship": "louisa jane",
        "ship_port": "aberystwyth",
        "date_leaving": "blk",
        "joined_ship_date": "1865-12-19",
        "joined_at_port": "port talbot",
        "capacity": "able seaman",
        "date_left": "1866-02-11",
        "left_port": "nantes",
        "cause_of_leaving": "drowned",
        "sign_with_mark": "n",
        "notes": "official log records that he went ashore on 1866-02-11 and did not return. on 1866-02-12 his cap was found in the river. he had no effects and his wages were drawn in advance at each port. it was assumed that he had drowned."
    },
    {
        "id": "vtls004909884_0_12",
        "type": "sailor",
        "parent": "vtls004909884",
        "name": "william davies",
        "dob": "blk",
        "age": "39",
        "place_of_birth": "newquay",
        "home_address": "blk",
        "f": "blk",
        "name_of_ship": "louisa jane",
        "ship_port": "aberystwyth",
        "date_leaving": "blk",
        "joined_ship_date": "1865-12-19",
        "joined_at_port": "port talbot",
        "capacity": "boatswain",
        "date_left": "1866-04-17",
        "left_port": "newry",
        "cause_of_leaving": "discharged",
        "sign_with_mark": "n",
        "notes": "blk"
    },
    {
        "id": "vtls004909884_0_14",
        "type": "sailor",
        "parent": "vtls004909884",
        "name": "david d davies",
        "dob": "blk",
        "age": "20",
        "place_of_birth": "newquay",
        "home_address": "blk",
        "f": "blk",
        "name_of_ship": "[kelahead]",
        "ship_port": "newquay",
        "date_leaving": "1865-08",
        "joined_ship_date": "1865-12-19",
        "joined_at_port": "port talbot",
        "capacity": "able seaman",
        "date_left": "1866-04-17",
        "left_port": "newry",
        "cause_of_leaving": "discharged",
        "sign_with_mark": "n",
        "notes": "blk"
    },
    {
        "id": "vtls004909884_0_11",
        "type": "sailor",
        "parent": "vtls004909884",
        "name": "thomas davies",
        "dob": "blk",
        "age": "42",
        "place_of_birth": "newquay",
        "home_address": "newquay",
        "f": "newquay",
        "name_of_ship": "louisa jane",
        "ship_port": "aberystwyth",
        "date_leaving": "blk",
        "joined_ship_date": "1865-12-19",
        "joined_at_port": "port talbot",
        "capacity": "master",
        "date_left": "blk",
        "left_port": "blk",
        "cause_of_leaving": "remains on board",
        "sign_with_mark": "n",
        "notes": "blk"
    },
    {
        "id": "vtls004909884_0_15",
        "type": "sailor",
        "parent": "vtls004909884",
        "name": "evan jones",
        "dob": "blk",
        "age": "14",
        "place_of_birth": "newquay",
        "home_address": "blk",
        "f": "blk",
        "name_of_ship": "louisa jane",
        "ship_port": "aberystwyth",
        "date_leaving": "blk",
        "joined_ship_date": "1865-12-19",
        "joined_at_port": "port talbot",
        "capacity": "boy",
        "date_left": "1866-04-17",
        "left_port": "newry",
        "cause_of_leaving": "discharged",
        "sign_with_mark": "n",
        "notes": "blk"
    },
    {
        "id": "vtls004909884_2_11",
        "type": "sailor",
        "parent": "vtls004909884",
        "name": "thomas davies",
        "dob": "blk",
        "age": "43",
        "place_of_birth": "newquay",
        "home_address": "newquay cardigan",
        "f": "newquay cardigan",
        "name_of_ship": "louisa jane",
        "ship_port": "newquay",
        "date_leaving": "blk",
        "joined_ship_date": "blk",
        "joined_at_port": "blk",
        "capacity": "master",
        "date_left": "blk",
        "left_port": "blk",
        "cause_of_leaving": "remains on board",
        "sign_with_mark": "n",
        "notes": "under ship on which last served and port ship belonged to it says newquay, but  the headline says port of registy for louisa jane is aberystwyth."
    },
    {
        "id": "vtls004909884_1_12",
        "type": "sailor",
        "parent": "vtls004909884",
        "name": "william davies",
        "dob": "blk",
        "age": "37",
        "place_of_birth": "cardigan",
        "home_address": "blk",
        "f": "blk",
        "name_of_ship": "louisa jane",
        "ship_port": "aberystwyth",
        "date_leaving": "1866-04-18",
        "joined_ship_date": "1866-05-18",
        "joined_at_port": "london",
        "capacity": "boatswain",
        "date_left": "1866-07-10",
        "left_port": "bristol",
        "cause_of_leaving": "discharged",
        "sign_with_mark": "n",
        "notes": "blk"
    },
    {
        "id": "vtls004909884_1_13",
        "type": "sailor",
        "parent": "vtls004909884",
        "name": "charles herbert",
        "dob": "blk",
        "age": "20",
        "place_of_birth": "antwerp",
        "home_address": "blk",
        "f": "blk",
        "name_of_ship": "suffolk",
        "ship_port": "london",
        "date_leaving": "1866-05-10",
        "joined_ship_date": "1866-05-18",
        "joined_at_port": "london",
        "capacity": "able seaman",
        "date_left": "1866-07-10",
        "left_port": "bristol",
        "cause_of_leaving": "discharged",
        "sign_with_mark": "y",
        "notes": "blk"
    },
    {
        "id": "vtls004909884_1_14",
        "type": "sailor",
        "parent": "vtls004909884",
        "name": "r ray",
        "dob": "blk",
        "age": "21",
        "place_of_birth": "london",
        "home_address": "blk",
        "f": "blk",
        "name_of_ship": "[cires]",
        "ship_port": "[sunderland]",
        "date_leaving": "1866-05-02",
        "joined_ship_date": "1866-05-18",
        "joined_at_port": "london",
        "capacity": "ordinary seaman",
        "date_left": "1866-07-10",
        "left_port": "bristol",
        "cause_of_leaving": "discharged",
        "sign_with_mark": "n",
        "notes": "blk"
    },
    {
        "id": "vtls004909884_1_15",
        "type": "sailor",
        "parent": "vtls004909884",
        "name": "evan jones",
        "dob": "blk",
        "age": "15",
        "place_of_birth": "cardigan",
        "home_address": "blk",
        "f": "blk",
        "name_of_ship": "louisa jane",
        "ship_port": "aberystwyth",
        "date_leaving": "1866-04-18",
        "joined_ship_date": "1866-05-18",
        "joined_at_port": "london",
        "capacity": "boy",
        "date_left": "1866-07-10",
        "left_port": "bristol",
        "cause_of_leaving": "discharged",
        "sign_with_mark": "n",
        "notes": "blk"
    },
    {
        "id": "vtls004909884_1_11",
        "type": "sailor",
        "parent": "vtls004909884",
        "name": "thomas davies",
        "dob": "blk",
        "age": "42",
        "place_of_birth": "cardigan",
        "home_address": "newquay cardigan",
        "f": "newquay cardigan",
        "name_of_ship": "louisa jane",
        "ship_port": "aberystwyth",
        "date_leaving": "blk",
        "joined_ship_date": "blk",
        "joined_at_port": "blk",
        "capacity": "master",
        "date_left": "blk",
        "left_port": "blk",
        "cause_of_leaving": "remains on board",
        "sign_with_mark": "n",
        "notes": "blk"
    },
    {
        "id": "vtls004909884_2_13",
        "type": "sailor",
        "parent": "vtls004909884",
        "name": "jenkin phillips",
        "dob": "blk",
        "age": "32",
        "place_of_birth": "newquay",
        "home_address": "blk",
        "f": "blk",
        "name_of_ship": "louisa jane",
        "ship_port": "newquay",
        "date_leaving": "blk",
        "joined_ship_date": "blk",
        "joined_at_port": "blk",
        "capacity": "able seaman",
        "date_left": "blk",
        "left_port": "blk",
        "cause_of_leaving": "remains on board",
        "sign_with_mark": "n",
        "notes": "blk"
    },
    {
        "id": "vtls004909884_2_14",
        "type": "sailor",
        "parent": "vtls004909884",
        "name": "william hunter",
        "dob": "blk",
        "age": "19",
        "place_of_birth": "aberdeen",
        "home_address": "blk",
        "f": "blk",
        "name_of_ship": "louisa jane",
        "ship_port": "newquay",
        "date_leaving": "blk",
        "joined_ship_date": "blk",
        "joined_at_port": "blk",
        "capacity": "ordinary seaman",
        "date_left": "blk",
        "left_port": "blk",
        "cause_of_leaving": "remains on board",
        "sign_with_mark": "n",
        "notes": "blk"
    },
    {
        "id": "vtls004909884_2_12",
        "type": "sailor",
        "parent": "vtls004909884",
        "name": "william davies",
        "dob": "blk",
        "age": "40",
        "place_of_birth": "newquay",
        "home_address": "blk",
        "f": "blk",
        "name_of_ship": "louisa jane",
        "ship_port": "newquay",
        "date_leaving": "blk",
        "joined_ship_date": "blk",
        "joined_at_port": "blk",
        "capacity": "mate",
        "date_left": "blk",
        "left_port": "blk",
        "cause_of_leaving": "remains on board",
        "sign_with_mark": "n",
        "notes": "blk"
    },
    {
        "id": "vtls004909884_2_15",
        "type": "sailor",
        "parent": "vtls004909884",
        "name": "thomas davies",
        "dob": "blk",
        "age": "14",
        "place_of_birth": "newquay",
        "home_address": "blk",
        "f": "blk",
        "name_of_ship": "louisa jane",
        "ship_port": "newquay",
        "date_leaving": "blk",
        "joined_ship_date": "blk",
        "joined_at_port": "blk",
        "capacity": "boy",
        "date_left": "blk",
        "left_port": "blk",
        "cause_of_leaving": "remains on board",
        "sign_with_mark": "n",
        "notes": "blk"
    }
]