[
    {
        "id": "vtls004917081_1_11",
        "type": "sailor",
        "parent": "vtls004917081",
        "name": "david phillips",
        "dob": "1838",
        "age": "blk",
        "place_of_birth": "newquay",
        "home_address": "blk",
        "f": "blk",
        "name_of_ship": "main",
        "ship_port": "aberystwyth",
        "date_leaving": "blk",
        "joined_ship_date": "1894-07-01",
        "joined_at_port": "carnarvon",
        "capacity": "master",
        "date_left": "1894-12-31",
        "left_port": "swansea",
        "cause_of_leaving": "remains on board",
        "sign_with_mark": "n",
        "notes": "the ship had been under repairs at caernafron from june to september"
    },
    {
        "id": "vtls004917081_0_11",
        "type": "sailor",
        "parent": "vtls004917081",
        "name": "david phillips",
        "dob": "1838",
        "age": "blk",
        "place_of_birth": "newquay",
        "home_address": "blk",
        "f": "blk",
        "name_of_ship": "main",
        "ship_port": "aberystwyth",
        "date_leaving": "1893",
        "joined_ship_date": "1894-01-01",
        "joined_at_port": "newquay",
        "capacity": "master",
        "date_left": "1894-06-30",
        "left_port": "caernafron",
        "cause_of_leaving": "remains on board",
        "sign_with_mark": "n",
        "notes": "first half year, from 1894-01-01 to 1894-06-30"
    },
    {
        "id": "vtls004917081_1_13",
        "type": "sailor",
        "parent": "vtls004917081",
        "name": "david henry phillips",
        "dob": "1880",
        "age": "blk",
        "place_of_birth": "newquay",
        "home_address": "blk",
        "f": "blk",
        "name_of_ship": "main",
        "ship_port": "aberystwyth",
        "date_leaving": "blk",
        "joined_ship_date": "1894-09-10",
        "joined_at_port": "carnarvon",
        "capacity": "boy & ordinary seaman",
        "date_left": "1894-12-02",
        "left_port": "newquay",
        "cause_of_leaving": "discharged",
        "sign_with_mark": "n",
        "notes": "blk"
    },
    {
        "id": "vtls004917081_0_13",
        "type": "sailor",
        "parent": "vtls004917081",
        "name": "james edwin morrison",
        "dob": "1880",
        "age": "blk",
        "place_of_birth": "newquay",
        "home_address": "blk",
        "f": "blk",
        "name_of_ship": "blk",
        "ship_port": "first ship",
        "date_leaving": "1894",
        "joined_ship_date": "1894-02-19",
        "joined_at_port": "newquay",
        "capacity": "boy",
        "date_left": "1894-06-06",
        "left_port": "newquay",
        "cause_of_leaving": "discharged",
        "sign_with_mark": "n",
        "notes": "blk"
    },
    {
        "id": "vtls004917081_0_14",
        "type": "sailor",
        "parent": "vtls004917081",
        "name": "evan philip jones",
        "dob": "1864",
        "age": "blk",
        "place_of_birth": "newquay",
        "home_address": "blk",
        "f": "blk",
        "name_of_ship": "harry",
        "ship_port": "swansea",
        "date_leaving": "1893",
        "joined_ship_date": "11894-03-20",
        "joined_at_port": "newquay",
        "capacity": "mate",
        "date_left": "1894-06-22",
        "left_port": "newquay",
        "cause_of_leaving": "discharged",
        "sign_with_mark": "n",
        "notes": "blk"
    },
    {
        "id": "vtls004917081_0_12",
        "type": "sailor",
        "parent": "vtls004917081",
        "name": "john rees",
        "dob": "1836",
        "age": "blk",
        "place_of_birth": "st dogmaels",
        "home_address": "blk",
        "f": "blk",
        "name_of_ship": "main",
        "ship_port": "aberystwyth",
        "date_leaving": "1894",
        "joined_ship_date": "1894-02-19",
        "joined_at_port": "newquay",
        "capacity": "mate",
        "date_left": "1894-03-16",
        "left_port": "newquay",
        "cause_of_leaving": "discharged",
        "sign_with_mark": "n",
        "notes": "blk"
    },
    {
        "id": "vtls004917081_0_15",
        "type": "sailor",
        "parent": "vtls004917081",
        "name": "john jones",
        "dob": "1880",
        "age": "blk",
        "place_of_birth": "newquay",
        "home_address": "blk",
        "f": "blk",
        "name_of_ship": "blk",
        "ship_port": "first ship",
        "date_leaving": "blk",
        "joined_ship_date": "1894-06-07",
        "joined_at_port": "newquay",
        "capacity": "boy",
        "date_left": "1894-06-30",
        "left_port": "caernafron",
        "cause_of_leaving": "discharged",
        "sign_with_mark": "n",
        "notes": "blk"
    },
    {
        "id": "vtls004917081_1_14",
        "type": "sailor",
        "parent": "vtls004917081",
        "name": "robert williams",
        "dob": "1844",
        "age": "blk",
        "place_of_birth": "newquay",
        "home_address": "blk",
        "f": "blk",
        "name_of_ship": "hilda",
        "ship_port": "chester",
        "date_leaving": "blk",
        "joined_ship_date": "1894-12-03",
        "joined_at_port": "newquay",
        "capacity": "mate",
        "date_left": "blk",
        "left_port": "blk",
        "cause_of_leaving": "remains on board",
        "sign_with_mark": "n",
        "notes": "blk"
    },
    {
        "id": "vtls004917081_1_12",
        "type": "sailor",
        "parent": "vtls004917081",
        "name": "john phillips",
        "dob": "1842",
        "age": "blk",
        "place_of_birth": "newquay",
        "home_address": "blk",
        "f": "blk",
        "name_of_ship": "blk",
        "ship_port": "blk",
        "date_leaving": "blk",
        "joined_ship_date": "1894-09-10",
        "joined_at_port": "carnarvon",
        "capacity": "mate",
        "date_left": "1894-12-02",
        "left_port": "newquay",
        "cause_of_leaving": "discharged",
        "sign_with_mark": "n",
        "notes": "blk"
    },
    {
        "id": "vtls004917087_0_11",
        "type": "sailor",
        "parent": "vtls004917087",
        "name": "david phillips",
        "dob": "1838",
        "age": "blk",
        "place_of_birth": "newquay",
        "home_address": "blk",
        "f": "blk",
        "name_of_ship": "main",
        "ship_port": "aberystwyth",
        "date_leaving": "blk",
        "joined_ship_date": "blk",
        "joined_at_port": "blk",
        "capacity": "master",
        "date_left": "blk",
        "left_port": "blk",
        "cause_of_leaving": "remains on board",
        "sign_with_mark": "n",
        "notes": "first half year, from 1896-01-01 to 1896-06-30"
    },
    {
        "id": "vtls004917087_1_11",
        "type": "sailor",
        "parent": "vtls004917087",
        "name": "david phillips",
        "dob": "1838",
        "age": "blk",
        "place_of_birth": "newquay",
        "home_address": "blk",
        "f": "blk",
        "name_of_ship": "main",
        "ship_port": "aberystwyth",
        "date_leaving": "blk",
        "joined_ship_date": "blk",
        "joined_at_port": "blk",
        "capacity": "master",
        "date_left": "blk",
        "left_port": "blk",
        "cause_of_leaving": "remains on board",
        "sign_with_mark": "n",
        "notes": "second half year, 1896-07-01 to 1896-12-31"
    },
    {
        "id": "vtls004917087_0_14",
        "type": "sailor",
        "parent": "vtls004917087",
        "name": "david henry phillips",
        "dob": "1880",
        "age": "blk",
        "place_of_birth": "newquay",
        "home_address": "blk",
        "f": "blk",
        "name_of_ship": "main",
        "ship_port": "aberystwyth",
        "date_leaving": "1895",
        "joined_ship_date": "1896-01-03",
        "joined_at_port": "newquay",
        "capacity": "mate",
        "date_left": "blk",
        "left_port": "blk",
        "cause_of_leaving": "remains on board",
        "sign_with_mark": "n",
        "notes": "blk"
    },
    {
        "id": "vtls004917087_0_12",
        "type": "sailor",
        "parent": "vtls004917087",
        "name": "thomas davies",
        "dob": "blk",
        "age": "blk",
        "place_of_birth": "newquay",
        "home_address": "blk",
        "f": "blk",
        "name_of_ship": "main",
        "ship_port": "aberystwyth",
        "date_leaving": "1895",
        "joined_ship_date": "1896-01-03",
        "joined_at_port": "newquay",
        "capacity": "mate",
        "date_left": "1896-02-12",
        "left_port": "porthmadog",
        "cause_of_leaving": "discharged",
        "sign_with_mark": "n",
        "notes": "blk"
    },
    {
        "id": "vtls004917087_0_15",
        "type": "sailor",
        "parent": "vtls004917087",
        "name": "david john davies",
        "dob": "1881",
        "age": "blk",
        "place_of_birth": "st dogmaels",
        "home_address": "blk",
        "f": "blk",
        "name_of_ship": "blk",
        "ship_port": "first ship",
        "date_leaving": "1896",
        "joined_ship_date": "1896-05-28",
        "joined_at_port": "newquay",
        "capacity": "boy",
        "date_left": "blk",
        "left_port": "blk",
        "cause_of_leaving": "remains on board",
        "sign_with_mark": "n",
        "notes": "blk"
    },
    {
        "id": "vtls004917087_0_13",
        "type": "sailor",
        "parent": "vtls004917087",
        "name": "lewis davies",
        "dob": "1854",
        "age": "blk",
        "place_of_birth": "newquay",
        "home_address": "blk",
        "f": "blk",
        "name_of_ship": "blk",
        "ship_port": "blk",
        "date_leaving": "1895",
        "joined_ship_date": "1896-02-14",
        "joined_at_port": "porthmadog",
        "capacity": "mate",
        "date_left": "1896-05-26",
        "left_port": "newquay",
        "cause_of_leaving": "discharged",
        "sign_with_mark": "n",
        "notes": "blk"
    },
    {
        "id": "vtls004917087_1_12",
        "type": "sailor",
        "parent": "vtls004917087",
        "name": "d h phillips",
        "dob": "1879",
        "age": "blk",
        "place_of_birth": "newquay",
        "home_address": "blk",
        "f": "blk",
        "name_of_ship": "main",
        "ship_port": "aberystwyth",
        "date_leaving": "blk",
        "joined_ship_date": "blk",
        "joined_at_port": "blk",
        "capacity": "mate",
        "date_left": "blk",
        "left_port": "blk",
        "cause_of_leaving": "remains on board",
        "sign_with_mark": "n",
        "notes": "blk"
    },
    {
        "id": "vtls004917095_0_12",
        "type": "sailor",
        "parent": "vtls004917095",
        "name": "e l evans",
        "dob": "1845",
        "age": "blk",
        "place_of_birth": "newquay",
        "home_address": "blk",
        "f": "blk",
        "name_of_ship": "main",
        "ship_port": "aberystwyth",
        "date_leaving": "blk",
        "joined_ship_date": "blk",
        "joined_at_port": "blk",
        "capacity": "mate",
        "date_left": "blk",
        "left_port": "blk",
        "cause_of_leaving": "remains on board",
        "sign_with_mark": "n",
        "notes": "despite this record, there's no evidence of him serving in this ship before"
    },
    {
        "id": "vtls004917093_0_11",
        "type": "sailor",
        "parent": "vtls004917093",
        "name": "david phillips",
        "dob": "1838",
        "age": "blk",
        "place_of_birth": "newquay",
        "home_address": "blk",
        "f": "blk",
        "name_of_ship": "main",
        "ship_port": "aberystwyth",
        "date_leaving": "blk",
        "joined_ship_date": "1897-01-18",
        "joined_at_port": "swansea",
        "capacity": "master",
        "date_left": "blk",
        "left_port": "blk",
        "cause_of_leaving": "remains on board",
        "sign_with_mark": "n",
        "notes": "first half year, from 1896-12-30 to 1897-06-30"
    },
    {
        "id": "vtls004917093_1_11",
        "type": "sailor",
        "parent": "vtls004917093",
        "name": "david phillips",
        "dob": "1838",
        "age": "blk",
        "place_of_birth": "newquay",
        "home_address": "blk",
        "f": "blk",
        "name_of_ship": "main",
        "ship_port": "aberystwyth",
        "date_leaving": "blk",
        "joined_ship_date": "1897-07-01",
        "joined_at_port": "blk",
        "capacity": "master",
        "date_left": "blk",
        "left_port": "blk",
        "cause_of_leaving": "remains on board",
        "sign_with_mark": "n",
        "notes": "second half year, from 1897-06-30 to 1897-12-31"
    },
    {
        "id": "vtls004917095_0_11",
        "type": "sailor",
        "parent": "vtls004917095",
        "name": "david phillips",
        "dob": "1838",
        "age": "blk",
        "place_of_birth": "newquay",
        "home_address": "blk",
        "f": "blk",
        "name_of_ship": "main",
        "ship_port": "aberystwyth",
        "date_leaving": "blk",
        "joined_ship_date": "blk",
        "joined_at_port": "blk",
        "capacity": "master",
        "date_left": "blk",
        "left_port": "blk",
        "cause_of_leaving": "remains on board",
        "sign_with_mark": "n",
        "notes": "first half of year, from 1900-01-01 to 1900-06-30"
    },
    {
        "id": "vtls004917093_0_12",
        "type": "sailor",
        "parent": "vtls004917093",
        "name": "david h phillips",
        "dob": "1880",
        "age": "blk",
        "place_of_birth": "newquay",
        "home_address": "blk",
        "f": "blk",
        "name_of_ship": "main",
        "ship_port": "aberystwyth",
        "date_leaving": "blk",
        "joined_ship_date": "1897-01-18",
        "joined_at_port": "swansea",
        "capacity": "mate",
        "date_left": "blk",
        "left_port": "blk",
        "cause_of_leaving": "remains on board",
        "sign_with_mark": "n",
        "notes": "blk"
    },
    {
        "id": "vtls004917087_1_13",
        "type": "sailor",
        "parent": "vtls004917087",
        "name": "james m thomas",
        "dob": "1879",
        "age": "blk",
        "place_of_birth": "newquay",
        "home_address": "blk",
        "f": "blk",
        "name_of_ship": "main",
        "ship_port": "aberystwyth",
        "date_leaving": "blk",
        "joined_ship_date": "blk",
        "joined_at_port": "blk",
        "capacity": "ordinary seaman",
        "date_left": "blk",
        "left_port": "blk",
        "cause_of_leaving": "remains on board",
        "sign_with_mark": "n",
        "notes": "blk"
    },
    {
        "id": "vtls004917093_1_12",
        "type": "sailor",
        "parent": "vtls004917093",
        "name": "david h phillips",
        "dob": "1880",
        "age": "blk",
        "place_of_birth": "newquay",
        "home_address": "blk",
        "f": "blk",
        "name_of_ship": "main",
        "ship_port": "aberystwyth",
        "date_leaving": "blk",
        "joined_ship_date": "1897-07-01",
        "joined_at_port": "blk",
        "capacity": "mate",
        "date_left": "blk",
        "left_port": "blk",
        "cause_of_leaving": "remains on board",
        "sign_with_mark": "n",
        "notes": "blk"
    },
    {
        "id": "vtls004917099_1_11",
        "type": "sailor",
        "parent": "vtls004917099",
        "name": "david phillips",
        "dob": "1838",
        "age": "blk",
        "place_of_birth": "newquay",
        "home_address": "blk",
        "f": "blk",
        "name_of_ship": "main",
        "ship_port": "aberystwyth",
        "date_leaving": "blk",
        "joined_ship_date": "1901-07-01",
        "joined_at_port": "newquay",
        "capacity": "master",
        "date_left": "blk",
        "left_port": "blk",
        "cause_of_leaving": "remains on board",
        "sign_with_mark": "n",
        "notes": "second half year, from 1901-07-01 to 1901-12-31"
    },
    {
        "id": "vtls004917099_0_11",
        "type": "sailor",
        "parent": "vtls004917099",
        "name": "david phillips",
        "dob": "1838",
        "age": "blk",
        "place_of_birth": "newquay",
        "home_address": "blk",
        "f": "blk",
        "name_of_ship": "main",
        "ship_port": "aberystwyth",
        "date_leaving": "blk",
        "joined_ship_date": "1901-01-01",
        "joined_at_port": "newquay",
        "capacity": "master",
        "date_left": "blk",
        "left_port": "blk",
        "cause_of_leaving": "remains on board",
        "sign_with_mark": "n",
        "notes": "first half year, 1901-01-01 to 1901-06-30"
    },
    {
        "id": "vtls004917095_1_11",
        "type": "sailor",
        "parent": "vtls004917095",
        "name": "david phillips",
        "dob": "1838",
        "age": "blk",
        "place_of_birth": "newquay",
        "home_address": "blk",
        "f": "blk",
        "name_of_ship": "main",
        "ship_port": "aberystwyth",
        "date_leaving": "blk",
        "joined_ship_date": "blk",
        "joined_at_port": "blk",
        "capacity": "master",
        "date_left": "blk",
        "left_port": "blk",
        "cause_of_leaving": "remains on board",
        "sign_with_mark": "n",
        "notes": "second half year, 1900-07-01 to 1900-12-31"
    },
    {
        "id": "vtls004917099_1_12",
        "type": "sailor",
        "parent": "vtls004917099",
        "name": "evan lewyd evans",
        "dob": "1848",
        "age": "blk",
        "place_of_birth": "newquay",
        "home_address": "blk",
        "f": "blk",
        "name_of_ship": "main",
        "ship_port": "aberystwyth",
        "date_leaving": "blk",
        "joined_ship_date": "1901-07-01",
        "joined_at_port": "newquay",
        "capacity": "mate",
        "date_left": "blk",
        "left_port": "blk",
        "cause_of_leaving": "remains on board",
        "sign_with_mark": "n",
        "notes": "he keeps getting younger."
    },
    {
        "id": "vtls004917099_0_12",
        "type": "sailor",
        "parent": "vtls004917099",
        "name": "evan lewyd evans",
        "dob": "1846",
        "age": "blk",
        "place_of_birth": "newquay",
        "home_address": "blk",
        "f": "blk",
        "name_of_ship": "main",
        "ship_port": "aberystwyth",
        "date_leaving": "blk",
        "joined_ship_date": "1901-01-01",
        "joined_at_port": "newquay",
        "capacity": "mate",
        "date_left": "blk",
        "left_port": "blk",
        "cause_of_leaving": "remains on board",
        "sign_with_mark": "n",
        "notes": "blk"
    },
    {
        "id": "vtls004917095_1_12",
        "type": "sailor",
        "parent": "vtls004917095",
        "name": "evan lewyd evans",
        "dob": "1846",
        "age": "blk",
        "place_of_birth": "newquay",
        "home_address": "blk",
        "f": "blk",
        "name_of_ship": "main",
        "ship_port": "aberystwyth",
        "date_leaving": "blk",
        "joined_ship_date": "blk",
        "joined_at_port": "blk",
        "capacity": "mate",
        "date_left": "blk",
        "left_port": "blk",
        "cause_of_leaving": "remains on board",
        "sign_with_mark": "n",
        "notes": "blk"
    }
]