[
    {
        "id": "vtls004907565_0_13",
        "type": "sailor",
        "parent": "vtls004907565",
        "name": "david evans",
        "dob": "blk",
        "age": "23",
        "place_of_birth": "aberaeron",
        "home_address": "blk",
        "f": "blk",
        "name_of_ship": "[priscilla]",
        "ship_port": "aberystwyth",
        "date_leaving": "1863-06-25",
        "joined_ship_date": "1863-07-31",
        "joined_at_port": "cardiff",
        "capacity": "boatswain",
        "date_left": "1864-03-15",
        "left_port": "cork",
        "cause_of_leaving": "paid off",
        "sign_with_mark": "n",
        "notes": "blk"
    },
    {
        "id": "vtls004907565_0_12",
        "type": "sailor",
        "parent": "vtls004907565",
        "name": "daniel jenkins",
        "dob": "blk",
        "age": "35",
        "place_of_birth": "llanon",
        "home_address": "blk",
        "f": "blk",
        "name_of_ship": "st george",
        "ship_port": "bideford",
        "date_leaving": "1864-07-01",
        "joined_ship_date": "1863-07-31",
        "joined_at_port": "cardiff",
        "capacity": "mate",
        "date_left": "1864-03-15",
        "left_port": "cork",
        "cause_of_leaving": "paid off",
        "sign_with_mark": "n",
        "notes": "blk"
    },
    {
        "id": "vtls004907565_0_11",
        "type": "sailor",
        "parent": "vtls004907565",
        "name": "john jones",
        "dob": "blk",
        "age": "42",
        "place_of_birth": "cardigan",
        "home_address": "blk",
        "f": "blk",
        "name_of_ship": "lima",
        "ship_port": "aberystwyth",
        "date_leaving": "continued",
        "joined_ship_date": "1863-07-31",
        "joined_at_port": "cardiff",
        "capacity": "master",
        "date_left": "blk",
        "left_port": "blk",
        "cause_of_leaving": "remains on board",
        "sign_with_mark": "n",
        "notes": "blk"
    },
    {
        "id": "vtls004907565_0_20",
        "type": "sailor",
        "parent": "vtls004907565",
        "name": "george langson",
        "dob": "blk",
        "age": "19",
        "place_of_birth": "bayswater",
        "home_address": "blk",
        "f": "blk",
        "name_of_ship": "[sydenham]",
        "ship_port": "london",
        "date_leaving": "1864-05-24",
        "joined_ship_date": "1863-08-03",
        "joined_at_port": "cardiff",
        "capacity": "ordinary seaman",
        "date_left": "1864-12-25",
        "left_port": "new york",
        "cause_of_leaving": "deserted",
        "sign_with_mark": "n",
        "notes": "blk"
    },
    {
        "id": "vtls004907565_0_15",
        "type": "sailor",
        "parent": "vtls004907565",
        "name": "richard jones",
        "dob": "blk",
        "age": "19",
        "place_of_birth": "holyhead",
        "home_address": "blk",
        "f": "blk",
        "name_of_ship": "lima",
        "ship_port": "aberystwyth",
        "date_leaving": "continued",
        "joined_ship_date": "1863-07-31",
        "joined_at_port": "cardiff",
        "capacity": "ordinary seaman",
        "date_left": "1864-12-25",
        "left_port": "new york",
        "cause_of_leaving": "deserted",
        "sign_with_mark": "y",
        "notes": "blk"
    },
    {
        "id": "vtls004907565_0_19",
        "type": "sailor",
        "parent": "vtls004907565",
        "name": "michael dower",
        "dob": "blk",
        "age": "25",
        "place_of_birth": "dungarvan",
        "home_address": "blk",
        "f": "blk",
        "name_of_ship": "susana",
        "ship_port": "bideford",
        "date_leaving": "1864-08-01",
        "joined_ship_date": "1863-08-03",
        "joined_at_port": "cardiff",
        "capacity": "able seaman",
        "date_left": "1864-03-13",
        "left_port": "cork",
        "cause_of_leaving": "paid off",
        "sign_with_mark": "n",
        "notes": "blk"
    },
    {
        "id": "vtls004907565_0_16",
        "type": "sailor",
        "parent": "vtls004907565",
        "name": "fronk $",
        "dob": "blk",
        "age": "20",
        "place_of_birth": "sligo",
        "home_address": "blk",
        "f": "blk",
        "name_of_ship": "lima",
        "ship_port": "aberystwyth",
        "date_leaving": "continued",
        "joined_ship_date": "1863-07-31",
        "joined_at_port": "cardiff",
        "capacity": "ordinary seaman",
        "date_left": "1864-12-25",
        "left_port": "new york",
        "cause_of_leaving": "deserted",
        "sign_with_mark": "n",
        "notes": "blk"
    },
    {
        "id": "vtls004907565_0_18",
        "type": "sailor",
        "parent": "vtls004907565",
        "name": "martin egon",
        "dob": "blk",
        "age": "31",
        "place_of_birth": "dungarvan",
        "home_address": "blk",
        "f": "blk",
        "name_of_ship": "susana",
        "ship_port": "bideford",
        "date_leaving": "1864-08-01",
        "joined_ship_date": "1863-08-03",
        "joined_at_port": "cardiff",
        "capacity": "able seaman",
        "date_left": "1864-03-15",
        "left_port": "cork",
        "cause_of_leaving": "paid off",
        "sign_with_mark": "n",
        "notes": "blk"
    },
    {
        "id": "vtls004907565_0_14",
        "type": "sailor",
        "parent": "vtls004907565",
        "name": "david jones",
        "dob": "blk",
        "age": "57",
        "place_of_birth": "llanon",
        "home_address": "blk",
        "f": "blk",
        "name_of_ship": "lima",
        "ship_port": "aberystwyth",
        "date_leaving": "continued",
        "joined_ship_date": "1863-07-31",
        "joined_at_port": "cardiff",
        "capacity": "cook & steward",
        "date_left": "1864-03-15",
        "left_port": "cork",
        "cause_of_leaving": "paid off",
        "sign_with_mark": "y",
        "notes": "blk"
    },
    {
        "id": "vtls004907565_0_21",
        "type": "sailor",
        "parent": "vtls004907565",
        "name": "carlos kolloringon",
        "dob": "blk",
        "age": "28",
        "place_of_birth": "germany",
        "home_address": "blk",
        "f": "blk",
        "name_of_ship": "not known",
        "ship_port": "blk",
        "date_leaving": "blk",
        "joined_ship_date": "1863-01-27",
        "joined_at_port": "new york",
        "capacity": "able seaman",
        "date_left": "1864-03-15",
        "left_port": "cork",
        "cause_of_leaving": "discharged",
        "sign_with_mark": "n",
        "notes": "blk"
    },
    {
        "id": "vtls004907565_0_17",
        "type": "sailor",
        "parent": "vtls004907565",
        "name": "jenkins jones",
        "dob": "blk",
        "age": "14",
        "place_of_birth": "llanon",
        "home_address": "blk",
        "f": "blk",
        "name_of_ship": "lima",
        "ship_port": "aberystwyth",
        "date_leaving": "continued",
        "joined_ship_date": "1863-07-31",
        "joined_at_port": "cardiff",
        "capacity": "boy",
        "date_left": "1864-12-25",
        "left_port": "new york",
        "cause_of_leaving": "deserted",
        "sign_with_mark": "y",
        "notes": "blk"
    },
    {
        "id": "vtls004907565_0_22",
        "type": "sailor",
        "parent": "vtls004907565",
        "name": "crourt book",
        "dob": "blk",
        "age": "25",
        "place_of_birth": "germany",
        "home_address": "blk",
        "f": "blk",
        "name_of_ship": "not known",
        "ship_port": "blk",
        "date_leaving": "blk",
        "joined_ship_date": "1863-01-27",
        "joined_at_port": "new york",
        "capacity": "able seaman",
        "date_left": "1864-03-15",
        "left_port": "cork",
        "cause_of_leaving": "discharged",
        "sign_with_mark": "n",
        "notes": "blk"
    },
    {
        "id": "vtls004907565_1_11",
        "type": "sailor",
        "parent": "vtls004907565",
        "name": "john jones",
        "dob": "blk",
        "age": "44",
        "place_of_birth": "aberaeron",
        "home_address": "blk",
        "f": "blk",
        "name_of_ship": "lima",
        "ship_port": "aberystwyth",
        "date_leaving": "blk",
        "joined_ship_date": "blk",
        "joined_at_port": "blk",
        "capacity": "master",
        "date_left": "blk",
        "left_port": "blk",
        "cause_of_leaving": "remains on board",
        "sign_with_mark": "n",
        "notes": "blk"
    },
    {
        "id": "vtls004907565_1_15",
        "type": "sailor",
        "parent": "vtls004907565",
        "name": "joseph brown",
        "dob": "blk",
        "age": "28",
        "place_of_birth": "aghada",
        "home_address": "blk",
        "f": "blk",
        "name_of_ship": "great northern",
        "ship_port": "liverpool",
        "date_leaving": "1864-03-09",
        "joined_ship_date": "1864-04-05",
        "joined_at_port": "cork",
        "capacity": "able seaman",
        "date_left": "1864-07-11",
        "left_port": "cork",
        "cause_of_leaving": "discharged",
        "sign_with_mark": "n",
        "notes": "blk"
    },
    {
        "id": "vtls004907565_1_18",
        "type": "sailor",
        "parent": "vtls004907565",
        "name": "charles lawson",
        "dob": "blk",
        "age": "25",
        "place_of_birth": "bristol",
        "home_address": "blk",
        "f": "blk",
        "name_of_ship": "elizabeth",
        "ship_port": "liverpool",
        "date_leaving": "1864-02-22",
        "joined_ship_date": "1864-04-07",
        "joined_at_port": "cork",
        "capacity": "able seaman",
        "date_left": "1864-07-11",
        "left_port": "cork",
        "cause_of_leaving": "discharged",
        "sign_with_mark": "n",
        "notes": "blk"
    },
    {
        "id": "vtls004907565_1_14",
        "type": "sailor",
        "parent": "vtls004907565",
        "name": "david forrest",
        "dob": "blk",
        "age": "21",
        "place_of_birth": "middleton",
        "home_address": "blk",
        "f": "blk",
        "name_of_ship": "hastings",
        "ship_port": " hull",
        "date_leaving": "1864-03-05",
        "joined_ship_date": "1864-04-08",
        "joined_at_port": "cork",
        "capacity": "cook & steward",
        "date_left": "1864-07-11",
        "left_port": "cork",
        "cause_of_leaving": "discharged",
        "sign_with_mark": "n",
        "notes": "blk"
    },
    {
        "id": "vtls004907565_1_17",
        "type": "sailor",
        "parent": "vtls004907565",
        "name": "michael morrisson",
        "dob": "blk",
        "age": "20",
        "place_of_birth": "aghada",
        "home_address": "blk",
        "f": "blk",
        "name_of_ship": "[chauce]",
        "ship_port": "cork",
        "date_leaving": "1864-04-04",
        "joined_ship_date": "1864-04-07",
        "joined_at_port": "cork",
        "capacity": "ordinary seaman",
        "date_left": "1864-07-11",
        "left_port": "cork",
        "cause_of_leaving": "discharged",
        "sign_with_mark": "y",
        "notes": "blk"
    },
    {
        "id": "vtls004907565_1_12",
        "type": "sailor",
        "parent": "vtls004907565",
        "name": "john howells",
        "dob": "blk",
        "age": "27",
        "place_of_birth": "dinas",
        "home_address": "blk",
        "f": "blk",
        "name_of_ship": "marquis worcester",
        "ship_port": "swansea",
        "date_leaving": "1864-01",
        "joined_ship_date": "1864-04",
        "joined_at_port": "cork",
        "capacity": "mate",
        "date_left": "1864-07-11",
        "left_port": "cork",
        "cause_of_leaving": "remains on board",
        "sign_with_mark": "n",
        "notes": "blk"
    },
    {
        "id": "vtls004907565_1_13",
        "type": "sailor",
        "parent": "vtls004907565",
        "name": "david donavan",
        "dob": "blk",
        "age": "23",
        "place_of_birth": "cork",
        "home_address": "blk",
        "f": "blk",
        "name_of_ship": "m$$$$$$ m$$$$$",
        "ship_port": "blk",
        "date_leaving": "1863-11-06",
        "joined_ship_date": "1864-04-09",
        "joined_at_port": "cork",
        "capacity": "able seaman",
        "date_left": "1864-07-11",
        "left_port": "cork",
        "cause_of_leaving": "discharged",
        "sign_with_mark": "n",
        "notes": "blk"
    },
    {
        "id": "vtls004907565_1_19",
        "type": "sailor",
        "parent": "vtls004907565",
        "name": "c braun",
        "dob": "blk",
        "age": "23",
        "place_of_birth": "prussia",
        "home_address": "blk",
        "f": "blk",
        "name_of_ship": "blanch",
        "ship_port": "holland",
        "date_leaving": "1864-02-27",
        "joined_ship_date": "1864-04-07",
        "joined_at_port": "cork",
        "capacity": "able seaman",
        "date_left": "1864-07-11",
        "left_port": "cork",
        "cause_of_leaving": "discharged",
        "sign_with_mark": "n",
        "notes": "blk"
    },
    {
        "id": "vtls004907565_1_16",
        "type": "sailor",
        "parent": "vtls004907565",
        "name": "j semper",
        "dob": "blk",
        "age": "22",
        "place_of_birth": "holland",
        "home_address": "blk",
        "f": "blk",
        "name_of_ship": "blanch",
        "ship_port": "holland",
        "date_leaving": "1864-02-27",
        "joined_ship_date": "1864-04-07",
        "joined_at_port": "cork",
        "capacity": "able seaman",
        "date_left": "1864-07-11",
        "left_port": "cork",
        "cause_of_leaving": "discharged",
        "sign_with_mark": "n",
        "notes": "blk"
    },
    {
        "id": "vtls004907565_2_11",
        "type": "sailor",
        "parent": "vtls004907565",
        "name": "john jones",
        "dob": "blk",
        "age": "44",
        "place_of_birth": "cardigan",
        "home_address": "blk",
        "f": "blk",
        "name_of_ship": "lima",
        "ship_port": "aberystwyth",
        "date_leaving": "remain",
        "joined_ship_date": "blk",
        "joined_at_port": "blk",
        "capacity": "master",
        "date_left": "blk",
        "left_port": "blk",
        "cause_of_leaving": "blk",
        "sign_with_mark": "n",
        "notes": "blk"
    },
    {
        "id": "vtls004907565_2_17",
        "type": "sailor",
        "parent": "vtls004907565",
        "name": "daniel thomas",
        "dob": "blk",
        "age": "19",
        "place_of_birth": "aberaeron",
        "home_address": "blk",
        "f": "blk",
        "name_of_ship": "james brook",
        "ship_port": "[hartlepool]",
        "date_leaving": "1864-08-05",
        "joined_ship_date": "1864-08-13",
        "joined_at_port": "cardiff",
        "capacity": "ordinary seaman",
        "date_left": "blk",
        "left_port": "blk",
        "cause_of_leaving": "blk",
        "sign_with_mark": "n",
        "notes": "blk"
    },
    {
        "id": "vtls004907565_2_16",
        "type": "sailor",
        "parent": "vtls004907565",
        "name": "owen davies",
        "dob": "blk",
        "age": "18",
        "place_of_birth": "cardigan",
        "home_address": "blk",
        "f": "blk",
        "name_of_ship": "enterprise",
        "ship_port": "aberystwyth",
        "date_leaving": "1864-08-12",
        "joined_ship_date": "1864-08-13",
        "joined_at_port": "cardiff",
        "capacity": "ordinary seaman",
        "date_left": "blk",
        "left_port": "blk",
        "cause_of_leaving": "blk",
        "sign_with_mark": "n",
        "notes": "blk"
    },
    {
        "id": "vtls004907565_2_14",
        "type": "sailor",
        "parent": "vtls004907565",
        "name": "john evans",
        "dob": "blk",
        "age": "20",
        "place_of_birth": "cardigan",
        "home_address": "blk",
        "f": "blk",
        "name_of_ship": "[chancellor]",
        "ship_port": "liverpool",
        "date_leaving": "1864-01-19",
        "joined_ship_date": "1864-08-13",
        "joined_at_port": "cardiff",
        "capacity": "able seaman",
        "date_left": "blk",
        "left_port": "blk",
        "cause_of_leaving": "blk",
        "sign_with_mark": "n",
        "notes": "blk"
    },
    {
        "id": "vtls004907565_2_19",
        "type": "sailor",
        "parent": "vtls004907565",
        "name": "john odonovan",
        "dob": "blk",
        "age": "17",
        "place_of_birth": "blk",
        "home_address": "blk",
        "f": "blk",
        "name_of_ship": "blk",
        "ship_port": "blk",
        "date_leaving": "blk",
        "joined_ship_date": "blk",
        "joined_at_port": "blk",
        "capacity": "apprentice",
        "date_left": "blk",
        "left_port": "blk",
        "cause_of_leaving": "blk",
        "sign_with_mark": "n",
        "notes": "registry of indenture from 1864-06-11 in cork"
    },
    {
        "id": "vtls004907565_2_13",
        "type": "sailor",
        "parent": "vtls004907565",
        "name": "thomas jenkins",
        "dob": "blk",
        "age": "20",
        "place_of_birth": "cardigan",
        "home_address": "blk",
        "f": "blk",
        "name_of_ship": "[huron]",
        "ship_port": "cardiff",
        "date_leaving": "1864-08-06",
        "joined_ship_date": "1864-08-13",
        "joined_at_port": "cardiff",
        "capacity": "able seaman",
        "date_left": "blk",
        "left_port": "blk",
        "cause_of_leaving": "blk",
        "sign_with_mark": "n",
        "notes": "blk"
    },
    {
        "id": "vtls004907565_2_18",
        "type": "sailor",
        "parent": "vtls004907565",
        "name": "john jones",
        "dob": "blk",
        "age": "15",
        "place_of_birth": "aberaeron",
        "home_address": "blk",
        "f": "blk",
        "name_of_ship": "lima",
        "ship_port": "aberystwyth",
        "date_leaving": "blk",
        "joined_ship_date": "1864-08-13",
        "joined_at_port": "cardiff",
        "capacity": "ordinary seaman",
        "date_left": "blk",
        "left_port": "blk",
        "cause_of_leaving": "blk",
        "sign_with_mark": "n",
        "notes": "blk"
    },
    {
        "id": "vtls004907565_2_15",
        "type": "sailor",
        "parent": "vtls004907565",
        "name": "evan evans",
        "dob": "blk",
        "age": "21",
        "place_of_birth": "cardigan",
        "home_address": "blk",
        "f": "blk",
        "name_of_ship": "redan",
        "ship_port": "bristol",
        "date_leaving": "1864-02-18",
        "joined_ship_date": "1864-08-13",
        "joined_at_port": "cardiff",
        "capacity": "able seaman",
        "date_left": "blk",
        "left_port": "blk",
        "cause_of_leaving": "blk",
        "sign_with_mark": "n",
        "notes": "blk"
    },
    {
        "id": "vtls004907565_2_12",
        "type": "sailor",
        "parent": "vtls004907565",
        "name": "john howells",
        "dob": "blk",
        "age": "27",
        "place_of_birth": "dinas",
        "home_address": "blk",
        "f": "blk",
        "name_of_ship": "lima",
        "ship_port": "aberystwyth",
        "date_leaving": "blk",
        "joined_ship_date": "1864-08",
        "joined_at_port": "cardiff",
        "capacity": "mate",
        "date_left": "blk",
        "left_port": "blk",
        "cause_of_leaving": "blk",
        "sign_with_mark": "n",
        "notes": "blk"
    },
    {
        "id": "vtls004907575_0_14",
        "type": "sailor",
        "parent": "vtls004907575",
        "name": "thomas smith",
        "dob": "blk",
        "age": "23",
        "place_of_birth": "nova scotia",
        "home_address": "blk",
        "f": "blk",
        "name_of_ship": "[breeze]",
        "ship_port": "[newfoundland]",
        "date_leaving": "1866-02-15",
        "joined_ship_date": "1866-03-01",
        "joined_at_port": "antwerp",
        "capacity": "cook & steward",
        "date_left": "1866-03-24",
        "left_port": "greenock",
        "cause_of_leaving": "deserted",
        "sign_with_mark": "n",
        "notes": "blk"
    },
    {
        "id": "vtls004907575_0_19",
        "type": "sailor",
        "parent": "vtls004907575",
        "name": "william morgan",
        "dob": "blk",
        "age": "17",
        "place_of_birth": "bristol",
        "home_address": "blk",
        "f": "blk",
        "name_of_ship": "katherine",
        "ship_port": "[bridgewater]",
        "date_leaving": "1866-02-21",
        "joined_ship_date": "1866-03-01",
        "joined_at_port": "antwerp",
        "capacity": "ordinary seaman",
        "date_left": "1866-03-24",
        "left_port": "greenock",
        "cause_of_leaving": "[deserted]",
        "sign_with_mark": "n",
        "notes": "blk"
    },
    {
        "id": "vtls004907575_0_18",
        "type": "sailor",
        "parent": "vtls004907575",
        "name": "william jenkins",
        "dob": "blk",
        "age": "18",
        "place_of_birth": "port say",
        "home_address": "blk",
        "f": "blk",
        "name_of_ship": "lima",
        "ship_port": "aberystwyth",
        "date_leaving": "1866-02",
        "joined_ship_date": "1866-03-01",
        "joined_at_port": "antwerp",
        "capacity": "ordinary seaman",
        "date_left": "1866-03-24",
        "left_port": "greenock",
        "cause_of_leaving": "[discharged]",
        "sign_with_mark": "n",
        "notes": "blk"
    },
    {
        "id": "vtls004907575_0_13",
        "type": "sailor",
        "parent": "vtls004907575",
        "name": "william williams",
        "dob": "blk",
        "age": "27",
        "place_of_birth": "bangor",
        "home_address": "blk",
        "f": "blk",
        "name_of_ship": "lima",
        "ship_port": "aberystwyth",
        "date_leaving": "1866-03-02",
        "joined_ship_date": "1866-03-02",
        "joined_at_port": "antwerp",
        "capacity": "boatswain",
        "date_left": "1866-03-24",
        "left_port": "greenock",
        "cause_of_leaving": "discharged",
        "sign_with_mark": "n",
        "notes": "blk"
    },
    {
        "id": "vtls004907575_0_17",
        "type": "sailor",
        "parent": "vtls004907575",
        "name": "joseph $",
        "dob": "blk",
        "age": "19",
        "place_of_birth": "louvaine",
        "home_address": "blk",
        "f": "blk",
        "name_of_ship": "janette $",
        "ship_port": "blk",
        "date_leaving": "1866-02-21",
        "joined_ship_date": "1866-03-01",
        "joined_at_port": "antwerp",
        "capacity": "ordinary seaman",
        "date_left": "1866-03-24",
        "left_port": "greenock",
        "cause_of_leaving": "deserted",
        "sign_with_mark": "n",
        "notes": "blk"
    },
    {
        "id": "vtls004907575_0_16",
        "type": "sailor",
        "parent": "vtls004907575",
        "name": "andrew parry",
        "dob": "blk",
        "age": "38",
        "place_of_birth": "denmark",
        "home_address": "blk",
        "f": "blk",
        "name_of_ship": "[courier]",
        "ship_port": "blk",
        "date_leaving": "1866-02-25",
        "joined_ship_date": "1866-03-01",
        "joined_at_port": "antwerp",
        "capacity": "able seaman",
        "date_left": "never joined",
        "left_port": "blk",
        "cause_of_leaving": "blk",
        "sign_with_mark": "n",
        "notes": "blk"
    },
    {
        "id": "vtls004907575_0_15",
        "type": "sailor",
        "parent": "vtls004907575",
        "name": "william $",
        "dob": "blk",
        "age": "27",
        "place_of_birth": "holland",
        "home_address": "blk",
        "f": "blk",
        "name_of_ship": "[courier]",
        "ship_port": "blk",
        "date_leaving": "1866-02-25",
        "joined_ship_date": "1866-03-01",
        "joined_at_port": "antwerp",
        "capacity": "able seaman",
        "date_left": "never joined",
        "left_port": "blk",
        "cause_of_leaving": "blk",
        "sign_with_mark": "n",
        "notes": "blk"
    },
    {
        "id": "vtls004907575_0_11",
        "type": "sailor",
        "parent": "vtls004907575",
        "name": "john jones",
        "dob": "blk",
        "age": "46",
        "place_of_birth": "aberaeron",
        "home_address": "blk",
        "f": "blk",
        "name_of_ship": "lima",
        "ship_port": "aberystwyth",
        "date_leaving": "continued",
        "joined_ship_date": "blk",
        "joined_at_port": "blk",
        "capacity": "master",
        "date_left": "blk",
        "left_port": "blk",
        "cause_of_leaving": "remains on board",
        "sign_with_mark": "n",
        "notes": "blk"
    },
    {
        "id": "vtls004907575_0_12",
        "type": "sailor",
        "parent": "vtls004907575",
        "name": "john howells",
        "dob": "blk",
        "age": "29",
        "place_of_birth": "dinas",
        "home_address": "blk",
        "f": "blk",
        "name_of_ship": "lima",
        "ship_port": "aberystwyth",
        "date_leaving": "blk",
        "joined_ship_date": "blk",
        "joined_at_port": "blk",
        "capacity": "mate",
        "date_left": "1866-04-10",
        "left_port": "greenock",
        "cause_of_leaving": "discharged",
        "sign_with_mark": "n",
        "notes": "blk"
    },
    {
        "id": "vtls004907575_1_17",
        "type": "sailor",
        "parent": "vtls004907575",
        "name": "frederick lange",
        "dob": "blk",
        "age": "24",
        "place_of_birth": "trieste",
        "home_address": "blk",
        "f": "blk",
        "name_of_ship": "westmoreland",
        "ship_port": "[sunderland]",
        "date_leaving": "1865-09-25",
        "joined_ship_date": "1865-09-27",
        "joined_at_port": "south shields",
        "capacity": "cook, steward & able seaman",
        "date_left": "1866-01-26",
        "left_port": "antwerp",
        "cause_of_leaving": "discharged",
        "sign_with_mark": "n",
        "notes": "blk"
    },
    {
        "id": "vtls004907575_1_15",
        "type": "sailor",
        "parent": "vtls004907575",
        "name": "william johnson",
        "dob": "blk",
        "age": "33",
        "place_of_birth": "south shields",
        "home_address": "blk",
        "f": "blk",
        "name_of_ship": "josephine",
        "ship_port": "shields",
        "date_leaving": "1865-09-20",
        "joined_ship_date": "1865-09-26",
        "joined_at_port": "south shields",
        "capacity": "able seaman",
        "date_left": "1866-01-26",
        "left_port": "antwerp",
        "cause_of_leaving": "discharged",
        "sign_with_mark": "y",
        "notes": "blk"
    },
    {
        "id": "vtls004907575_0_20",
        "type": "sailor",
        "parent": "vtls004907575",
        "name": "richard greydimer",
        "dob": "blk",
        "age": "37",
        "place_of_birth": "prussia",
        "home_address": "blk",
        "f": "blk",
        "name_of_ship": "[gruepswald]",
        "ship_port": "prussia",
        "date_leaving": "1866-02-23",
        "joined_ship_date": "1866-03-06",
        "joined_at_port": "antwerp",
        "capacity": "able seaman",
        "date_left": "1866-03-24",
        "left_port": "greenock",
        "cause_of_leaving": "[deserted]",
        "sign_with_mark": "n",
        "notes": "blk"
    },
    {
        "id": "vtls004907575_0_21",
        "type": "sailor",
        "parent": "vtls004907575",
        "name": "charley rouken",
        "dob": "blk",
        "age": "24",
        "place_of_birth": "antwerp",
        "home_address": "blk",
        "f": "blk",
        "name_of_ship": "isabella",
        "ship_port": "[antwerp]",
        "date_leaving": "1866-02-23",
        "joined_ship_date": "1866-03-06",
        "joined_at_port": "antwerp",
        "capacity": "able seaman",
        "date_left": "1866-03-24",
        "left_port": "greenock",
        "cause_of_leaving": "[deserted]",
        "sign_with_mark": "n",
        "notes": "blk"
    },
    {
        "id": "vtls004907575_1_14",
        "type": "sailor",
        "parent": "vtls004907575",
        "name": "william williams",
        "dob": "blk",
        "age": "20",
        "place_of_birth": "fishguard",
        "home_address": "blk",
        "f": "blk",
        "name_of_ship": "ark",
        "ship_port": "shields",
        "date_leaving": "1865-09-21",
        "joined_ship_date": "1865-09-25",
        "joined_at_port": "south shields",
        "capacity": "able seaman",
        "date_left": "1866-01-26",
        "left_port": "antwerp",
        "cause_of_leaving": "discharged",
        "sign_with_mark": "n",
        "notes": "blk"
    },
    {
        "id": "vtls004907575_1_13",
        "type": "sailor",
        "parent": "vtls004907575",
        "name": "william williams",
        "dob": "blk",
        "age": "27",
        "place_of_birth": "nevin",
        "home_address": "blk",
        "f": "blk",
        "name_of_ship": "josephine",
        "ship_port": "shields",
        "date_leaving": "1865-09-20",
        "joined_ship_date": "1865-09-25",
        "joined_at_port": "south shields",
        "capacity": "boatswain",
        "date_left": "1866-01-26",
        "left_port": "antwerp",
        "cause_of_leaving": "discharged",
        "sign_with_mark": "y",
        "notes": "blk"
    },
    {
        "id": "vtls004907575_1_16",
        "type": "sailor",
        "parent": "vtls004907575",
        "name": "carl bottyer",
        "dob": "blk",
        "age": "19",
        "place_of_birth": "hanover",
        "home_address": "blk",
        "f": "blk",
        "name_of_ship": "lima",
        "ship_port": "aberystwyth",
        "date_leaving": "blk",
        "joined_ship_date": "1865-09-26",
        "joined_at_port": "south shields",
        "capacity": "ordinary seaman",
        "date_left": "1866-10-18",
        "left_port": "at sea",
        "cause_of_leaving": "drowned",
        "sign_with_mark": "y",
        "notes": "blk"
    },
    {
        "id": "vtls004907575_1_12",
        "type": "sailor",
        "parent": "vtls004907575",
        "name": "john howells",
        "dob": "blk",
        "age": "29",
        "place_of_birth": "dinas",
        "home_address": "blk",
        "f": "blk",
        "name_of_ship": "lima",
        "ship_port": "aberystwyth",
        "date_leaving": "blk",
        "joined_ship_date": "1865-09-26",
        "joined_at_port": "south shields",
        "capacity": "mate",
        "date_left": "1866-01-26",
        "left_port": "antwerp",
        "cause_of_leaving": "discharged",
        "sign_with_mark": "y",
        "notes": "blk"
    },
    {
        "id": "vtls004907575_1_11",
        "type": "sailor",
        "parent": "vtls004907575",
        "name": "john jones",
        "dob": "blk",
        "age": "44",
        "place_of_birth": "llansantffair",
        "home_address": "blk",
        "f": "blk",
        "name_of_ship": "lima",
        "ship_port": "aberystwyth",
        "date_leaving": "blk",
        "joined_ship_date": "blk",
        "joined_at_port": "south shields",
        "capacity": "master",
        "date_left": "blk",
        "left_port": "blk",
        "cause_of_leaving": "remains on board",
        "sign_with_mark": "n",
        "notes": "blk"
    },
    {
        "id": "vtls004907575_1_18",
        "type": "sailor",
        "parent": "vtls004907575",
        "name": "robert mc $",
        "dob": "blk",
        "age": "22",
        "place_of_birth": "dunbar",
        "home_address": "blk",
        "f": "blk",
        "name_of_ship": "squirrel",
        "ship_port": "whiby",
        "date_leaving": "1865-08-09",
        "joined_ship_date": "1865-09-27",
        "joined_at_port": "south shields",
        "capacity": "ordinary seaman",
        "date_left": "1866-01-26",
        "left_port": "antwerp",
        "cause_of_leaving": "discharged",
        "sign_with_mark": "y",
        "notes": "blk"
    },
    {
        "id": "vtls004907575_2_14",
        "type": "sailor",
        "parent": "vtls004907575",
        "name": "james lou",
        "dob": "blk",
        "age": "25",
        "place_of_birth": "antigua",
        "home_address": "blk",
        "f": "blk",
        "name_of_ship": "moderation",
        "ship_port": "shields",
        "date_leaving": "1866-11-24",
        "joined_ship_date": "1866-04-12",
        "joined_at_port": "greenock",
        "capacity": "cook & steward",
        "date_left": "1866-08-20",
        "left_port": "greenock",
        "cause_of_leaving": "discharged",
        "sign_with_mark": "y",
        "notes": "blk"
    },
    {
        "id": "vtls004907575_1_19",
        "type": "sailor",
        "parent": "vtls004907575",
        "name": "willam jenkins",
        "dob": "blk",
        "age": "17",
        "place_of_birth": "port say",
        "home_address": "blk",
        "f": "blk",
        "name_of_ship": "agnes",
        "ship_port": "port say",
        "date_leaving": "1865-09-26",
        "joined_ship_date": "1865-09-28",
        "joined_at_port": "south shields",
        "capacity": "seaman",
        "date_left": "1866-01-26",
        "left_port": "antwerp",
        "cause_of_leaving": "discharged",
        "sign_with_mark": "n",
        "notes": "blk"
    },
    {
        "id": "vtls004907575_2_13",
        "type": "sailor",
        "parent": "vtls004907575",
        "name": "donald kerr",
        "dob": "blk",
        "age": "22",
        "place_of_birth": "argyle",
        "home_address": "blk",
        "f": "blk",
        "name_of_ship": "black boy",
        "ship_port": "london",
        "date_leaving": "1866-04",
        "joined_ship_date": "1866-04-14",
        "joined_at_port": "greenock",
        "capacity": "boatswain",
        "date_left": "1866-08-20",
        "left_port": "greenock",
        "cause_of_leaving": "discharged",
        "sign_with_mark": "n",
        "notes": "blk"
    },
    {
        "id": "vtls004907575_2_16",
        "type": "sailor",
        "parent": "vtls004907575",
        "name": "$ morris",
        "dob": "blk",
        "age": "24",
        "place_of_birth": "argyleshire",
        "home_address": "blk",
        "f": "blk",
        "name_of_ship": "barbadian",
        "ship_port": "greenock",
        "date_leaving": "1866-12",
        "joined_ship_date": "1866-04-12",
        "joined_at_port": "greenock",
        "capacity": "seaman",
        "date_left": "1866-08-20",
        "left_port": "greenock",
        "cause_of_leaving": "discharged",
        "sign_with_mark": "y",
        "notes": "blk"
    },
    {
        "id": "vtls004907575_2_15",
        "type": "sailor",
        "parent": "vtls004907575",
        "name": "arch m arthur",
        "dob": "blk",
        "age": "23",
        "place_of_birth": "argyleshire",
        "home_address": "blk",
        "f": "blk",
        "name_of_ship": "$",
        "ship_port": "liverpool",
        "date_leaving": "1866-11",
        "joined_ship_date": "1866-04-12",
        "joined_at_port": "greenock",
        "capacity": "seaman",
        "date_left": "1866-08-20",
        "left_port": "greenock",
        "cause_of_leaving": "discharged",
        "sign_with_mark": "n",
        "notes": "blk"
    },
    {
        "id": "vtls004907575_2_11",
        "type": "sailor",
        "parent": "vtls004907575",
        "name": "john jones",
        "dob": "blk",
        "age": "46",
        "place_of_birth": "aberaeron",
        "home_address": "blk",
        "f": "blk",
        "name_of_ship": "lima",
        "ship_port": "aberystwyth",
        "date_leaving": "continued",
        "joined_ship_date": "blk",
        "joined_at_port": "blk",
        "capacity": "master",
        "date_left": "blk",
        "left_port": "blk",
        "cause_of_leaving": "remains on board",
        "sign_with_mark": "n",
        "notes": "blk"
    },
    {
        "id": "vtls004907575_2_12",
        "type": "sailor",
        "parent": "vtls004907575",
        "name": "daniel $",
        "dob": "blk",
        "age": "42",
        "place_of_birth": "fife",
        "home_address": "blk",
        "f": "blk",
        "name_of_ship": "greenock",
        "ship_port": "greenock",
        "date_leaving": "1866-03",
        "joined_ship_date": "1866-04-12",
        "joined_at_port": "greenock",
        "capacity": "mate",
        "date_left": "1866-08-20",
        "left_port": "greenock",
        "cause_of_leaving": "discharged",
        "sign_with_mark": "n",
        "notes": "blk"
    },
    {
        "id": "vtls004907575_3_14",
        "type": "sailor",
        "parent": "vtls004907575",
        "name": "james docherty",
        "dob": "blk",
        "age": "23",
        "place_of_birth": "greenock",
        "home_address": "blk",
        "f": "blk",
        "name_of_ship": "city of tanjore",
        "ship_port": "glasgow",
        "date_leaving": "1866-08",
        "joined_ship_date": "1866-10-05",
        "joined_at_port": "glasgow",
        "capacity": "cook & steward",
        "date_left": "1866-10-17",
        "left_port": "30 miles s by e from newry",
        "cause_of_leaving": "drowned",
        "sign_with_mark": "n",
        "notes": "blk"
    },
    {
        "id": "vtls004907575_3_16",
        "type": "sailor",
        "parent": "vtls004907575",
        "name": "arthur young",
        "dob": "blk",
        "age": "30",
        "place_of_birth": "isle of white",
        "home_address": "blk",
        "f": "blk",
        "name_of_ship": "city of the sultan",
        "ship_port": "liverpool",
        "date_leaving": "1866-08",
        "joined_ship_date": "1866-10-05",
        "joined_at_port": "glasgow",
        "capacity": "seaman",
        "date_left": "1866-10-17",
        "left_port": "30 miles s by e from newry",
        "cause_of_leaving": "saved",
        "sign_with_mark": "n",
        "notes": "blk"
    },
    {
        "id": "vtls004907575_3_15",
        "type": "sailor",
        "parent": "vtls004907575",
        "name": "henry maralic",
        "dob": "blk",
        "age": "21",
        "place_of_birth": "boston",
        "home_address": "blk",
        "f": "blk",
        "name_of_ship": "city of the sultan",
        "ship_port": "liverpool",
        "date_leaving": "1866-08",
        "joined_ship_date": "1866-10-05",
        "joined_at_port": "glasgow",
        "capacity": "seaman",
        "date_left": "1866-10-17",
        "left_port": "30 miles s by e from newry",
        "cause_of_leaving": "drowned",
        "sign_with_mark": "n",
        "notes": "blk"
    },
    {
        "id": "vtls004907575_3_13",
        "type": "sailor",
        "parent": "vtls004907575",
        "name": "james mckenzie",
        "dob": "blk",
        "age": "51",
        "place_of_birth": "aberdeen",
        "home_address": "blk",
        "f": "blk",
        "name_of_ship": "eva",
        "ship_port": "liverpool",
        "date_leaving": "1866-10",
        "joined_ship_date": "1866-10-05",
        "joined_at_port": "glasgow",
        "capacity": "bosun",
        "date_left": "1866-10-17",
        "left_port": "30 miles s by e from newry",
        "cause_of_leaving": "ship lost saved",
        "sign_with_mark": "n",
        "notes": "blk"
    },
    {
        "id": "vtls004907575_3_12",
        "type": "sailor",
        "parent": "vtls004907575",
        "name": "william williams",
        "dob": "blk",
        "age": "21",
        "place_of_birth": "bangor",
        "home_address": "blk",
        "f": "blk",
        "name_of_ship": "[wetford]",
        "ship_port": "liverpool",
        "date_leaving": "1866-07",
        "joined_ship_date": "1866-10-06",
        "joined_at_port": "glasgow",
        "capacity": "mate",
        "date_left": "1866-10-17",
        "left_port": "30 miles s by e from newry",
        "cause_of_leaving": "drowned",
        "sign_with_mark": "n",
        "notes": "blk"
    },
    {
        "id": "vtls004907575_3_11",
        "type": "sailor",
        "parent": "vtls004907575",
        "name": "john jones",
        "dob": "blk",
        "age": "46",
        "place_of_birth": "aberaeron",
        "home_address": "blk",
        "f": "blk",
        "name_of_ship": "lima",
        "ship_port": "aberystwyth",
        "date_leaving": "continued",
        "joined_ship_date": "1866-10-05",
        "joined_at_port": "glasgow",
        "capacity": "master",
        "date_left": "1866-10-17",
        "left_port": "30 miles s by e from newry",
        "cause_of_leaving": "drowned",
        "sign_with_mark": "n",
        "notes": "blk"
    },
    {
        "id": "vtls004907575_2_18",
        "type": "sailor",
        "parent": "vtls004907575",
        "name": "william christe",
        "dob": "blk",
        "age": "20",
        "place_of_birth": "greenock",
        "home_address": "blk",
        "f": "blk",
        "name_of_ship": "alexander charles",
        "ship_port": "aberystwyth",
        "date_leaving": "1866-11-08",
        "joined_ship_date": "1866-04-12",
        "joined_at_port": "greenock",
        "capacity": "seaman",
        "date_left": "1866-08-20",
        "left_port": "greenock",
        "cause_of_leaving": "discharged",
        "sign_with_mark": "n",
        "notes": "blk"
    },
    {
        "id": "vtls004907575_3_17",
        "type": "sailor",
        "parent": "vtls004907575",
        "name": "thomas mc carthy",
        "dob": "blk",
        "age": "18",
        "place_of_birth": "dungarvan",
        "home_address": "blk",
        "f": "blk",
        "name_of_ship": "lima",
        "ship_port": "aberystwyth",
        "date_leaving": "1866-08",
        "joined_ship_date": "1866-10-05",
        "joined_at_port": "glasgow",
        "capacity": "ordinary seaman",
        "date_left": "blk",
        "left_port": "blk",
        "cause_of_leaving": "never joined",
        "sign_with_mark": "n",
        "notes": "blk"
    },
    {
        "id": "vtls004907575_2_19",
        "type": "sailor",
        "parent": "vtls004907575",
        "name": "thomas carthy",
        "dob": "blk",
        "age": "19",
        "place_of_birth": "dungarvan",
        "home_address": "blk",
        "f": "blk",
        "name_of_ship": "$",
        "ship_port": "blk",
        "date_leaving": "1866-04-13",
        "joined_ship_date": "1866-04-18",
        "joined_at_port": "greenock",
        "capacity": "ordinary seaman",
        "date_left": "1866-08-20",
        "left_port": "greenock",
        "cause_of_leaving": "discharged",
        "sign_with_mark": "y",
        "notes": "blk"
    },
    {
        "id": "vtls004907575_2_17",
        "type": "sailor",
        "parent": "vtls004907575",
        "name": "alfred gale",
        "dob": "blk",
        "age": "21",
        "place_of_birth": "hampshire",
        "home_address": "blk",
        "f": "blk",
        "name_of_ship": "[macedon]",
        "ship_port": "glasgow",
        "date_leaving": "1866-03",
        "joined_ship_date": "1866-04-12",
        "joined_at_port": "greenock",
        "capacity": "seaman",
        "date_left": "never joined",
        "left_port": "blk",
        "cause_of_leaving": "blk",
        "sign_with_mark": "n",
        "notes": "blk"
    },
    {
        "id": "vtls004907575_3_19",
        "type": "sailor",
        "parent": "vtls004907575",
        "name": "herman weifs",
        "dob": "blk",
        "age": "17",
        "place_of_birth": "hamburg",
        "home_address": "blk",
        "f": "blk",
        "name_of_ship": "hanoverian ship",
        "ship_port": "blk",
        "date_leaving": "1866-09",
        "joined_ship_date": "1866-10-09",
        "joined_at_port": "greenock",
        "capacity": "ordinary seaman",
        "date_left": "1866-10-17",
        "left_port": "30 miles s by e from newry",
        "cause_of_leaving": "drowned",
        "sign_with_mark": "n",
        "notes": "blk"
    },
    {
        "id": "vtls004907575_3_18",
        "type": "sailor",
        "parent": "vtls004907575",
        "name": "henry anderson",
        "dob": "blk",
        "age": "16",
        "place_of_birth": "falmouth",
        "home_address": "blk",
        "f": "blk",
        "name_of_ship": "[dalkeith]",
        "ship_port": "blk",
        "date_leaving": "1866-08",
        "joined_ship_date": "1866-10-06",
        "joined_at_port": "glasgow",
        "capacity": "ordinary seaman",
        "date_left": "1866-10-17",
        "left_port": "30 miles s by e from newry",
        "cause_of_leaving": "saved",
        "sign_with_mark": "y",
        "notes": "blk"
    },
    {
        "id": "vtls004907575_3_20",
        "type": "sailor",
        "parent": "vtls004907575",
        "name": "john jones",
        "dob": "blk",
        "age": "17",
        "place_of_birth": "blk",
        "home_address": "blk",
        "f": "blk",
        "name_of_ship": "blk",
        "ship_port": "blk",
        "date_leaving": "blk",
        "joined_ship_date": "blk",
        "joined_at_port": "blk",
        "capacity": "blk",
        "date_left": "1866-10-17",
        "left_port": "30 miles s by e from newry",
        "cause_of_leaving": "drowned",
        "sign_with_mark": "n",
        "notes": "registry of indenture from 1863-06-09 in aberystwyth"
    }
]