[
    {
        "id": "vtls004660699_0_11",
        "type": "sailor",
        "parent": "vtls004660699",
        "name": "david lewis",
        "dob": "blk",
        "age": "28",
        "place_of_birth": "cardigan",
        "home_address": "queens terrace, aberystwith",
        "f": "queens terrace, aberystwith",
        "name_of_ship": "remains",
        "ship_port": "blk",
        "date_leaving": "blk",
        "joined_ship_date": "1861-06-06",
        "joined_at_port": "aberystwyth",
        "capacity": "master",
        "date_left": "blk",
        "left_port": "blk",
        "cause_of_leaving": "remains on board",
        "sign_with_mark": "n",
        "notes": "blk"
    },
    {
        "id": "vtls004660699_0_12",
        "type": "sailor",
        "parent": "vtls004660699",
        "name": "john james",
        "dob": "blk",
        "age": "28",
        "place_of_birth": "cardigan",
        "home_address": "blk",
        "f": "blk",
        "name_of_ship": "bodotria",
        "ship_port": "aberystwyth",
        "date_leaving": "1863-08-06",
        "joined_ship_date": "1863-09-19",
        "joined_at_port": "newport",
        "capacity": "mate",
        "date_left": "1864-09-08",
        "left_port": "london",
        "cause_of_leaving": "discharged",
        "sign_with_mark": "n",
        "notes": "blk"
    },
    {
        "id": "vtls004660699_0_13",
        "type": "sailor",
        "parent": "vtls004660699",
        "name": "john wilson",
        "dob": "blk",
        "age": "32",
        "place_of_birth": "manchester",
        "home_address": "blk",
        "f": "blk",
        "name_of_ship": "same ship",
        "ship_port": "blk",
        "date_leaving": "blk",
        "joined_ship_date": "1863-09-19",
        "joined_at_port": "newport",
        "capacity": "boatswain",
        "date_left": "1864-04-13",
        "left_port": "colombo, sri lanka",
        "cause_of_leaving": "discharged",
        "sign_with_mark": "n",
        "notes": "blk"
    },
    {
        "id": "vtls004660699_0_18",
        "type": "sailor",
        "parent": "vtls004660699",
        "name": "evan evans",
        "dob": "blk",
        "age": "20",
        "place_of_birth": "caernarfon",
        "home_address": "blk",
        "f": "blk",
        "name_of_ship": "maria and ellen",
        "ship_port": "caernarvon",
        "date_leaving": "1863-09-12",
        "joined_ship_date": "1863-09-19",
        "joined_at_port": "newport",
        "capacity": "ordinary seaman",
        "date_left": "1864-09-08",
        "left_port": "london",
        "cause_of_leaving": "discharged",
        "sign_with_mark": "n",
        "notes": "blk"
    },
    {
        "id": "vtls004660699_0_19",
        "type": "sailor",
        "parent": "vtls004660699",
        "name": "john rodrick",
        "dob": "blk",
        "age": "20",
        "place_of_birth": "cardigan",
        "home_address": "blk",
        "f": "blk",
        "name_of_ship": "credo",
        "ship_port": "aberystwyth",
        "date_leaving": "1863-08-14",
        "joined_ship_date": "1863-09-19",
        "joined_at_port": "newport",
        "capacity": "ordinary seaman",
        "date_left": "1864-09-08",
        "left_port": "london",
        "cause_of_leaving": "discharged",
        "sign_with_mark": "n",
        "notes": "blk"
    },
    {
        "id": "vtls004660699_0_17",
        "type": "sailor",
        "parent": "vtls004660699",
        "name": "william jones",
        "dob": "blk",
        "age": "18",
        "place_of_birth": "caernarfon",
        "home_address": "blk",
        "f": "blk",
        "name_of_ship": "queen",
        "ship_port": "liverpool",
        "date_leaving": "1863-08-07",
        "joined_ship_date": "1863-09-19",
        "joined_at_port": "newport",
        "capacity": "ordinary seaman",
        "date_left": "1864-09-08",
        "left_port": "london",
        "cause_of_leaving": "discharged",
        "sign_with_mark": "n",
        "notes": "blk"
    },
    {
        "id": "vtls004660699_0_14",
        "type": "sailor",
        "parent": "vtls004660699",
        "name": "t f allen",
        "dob": "blk",
        "age": "29",
        "place_of_birth": "newport",
        "home_address": "blk",
        "f": "blk",
        "name_of_ship": "metafond$$",
        "ship_port": "boston us",
        "date_leaving": "1863-09-04",
        "joined_ship_date": "1863-09-19",
        "joined_at_port": "newport",
        "capacity": "cook & steward",
        "date_left": "1864-03-31",
        "left_port": "colombo, sri lanka",
        "cause_of_leaving": "deserted",
        "sign_with_mark": "n",
        "notes": "blk"
    },
    {
        "id": "vtls004660699_0_15",
        "type": "sailor",
        "parent": "vtls004660699",
        "name": "thomas morgans",
        "dob": "blk",
        "age": "18",
        "place_of_birth": "cardigan",
        "home_address": "blk",
        "f": "blk",
        "name_of_ship": "credo",
        "ship_port": "aberystwyth",
        "date_leaving": "1863-08-14",
        "joined_ship_date": "1863-09-19",
        "joined_at_port": "newport",
        "capacity": "able seaman",
        "date_left": "1864-09-08",
        "left_port": "london",
        "cause_of_leaving": "discharged",
        "sign_with_mark": "n",
        "notes": "blk"
    },
    {
        "id": "vtls004660699_0_22",
        "type": "sailor",
        "parent": "vtls004660699",
        "name": "daniel evans",
        "dob": "blk",
        "age": "21",
        "place_of_birth": "pembroke",
        "home_address": "blk",
        "f": "blk",
        "name_of_ship": "breeze",
        "ship_port": "ch$$$on",
        "date_leaving": "1863-09-16",
        "joined_ship_date": "1863-04-13",
        "joined_at_port": "newport",
        "capacity": "ordinary seaman",
        "date_left": "1864-09-08",
        "left_port": "london",
        "cause_of_leaving": "discharged",
        "sign_with_mark": "y",
        "notes": "blk"
    },
    {
        "id": "vtls004660699_0_21",
        "type": "sailor",
        "parent": "vtls004660699",
        "name": "william stranger",
        "dob": "blk",
        "age": "21",
        "place_of_birth": "portland",
        "home_address": "blk",
        "f": "blk",
        "name_of_ship": "shif$$$$",
        "ship_port": "blk",
        "date_leaving": "1863-01-12",
        "joined_ship_date": "1863-04-13",
        "joined_at_port": "colombo",
        "capacity": "able seaman",
        "date_left": "1864-09-08",
        "left_port": "london",
        "cause_of_leaving": "discharged",
        "sign_with_mark": "n",
        "notes": "blk"
    },
    {
        "id": "vtls004660699_0_20",
        "type": "sailor",
        "parent": "vtls004660699",
        "name": "john davies",
        "dob": "blk",
        "age": "41",
        "place_of_birth": "bangor",
        "home_address": "blk",
        "f": "blk",
        "name_of_ship": "arica",
        "ship_port": "aberystwyth",
        "date_leaving": "1863-09-13",
        "joined_ship_date": "1863-09-21",
        "joined_at_port": "newport",
        "capacity": "able seaman",
        "date_left": "1864-09-08",
        "left_port": "london",
        "cause_of_leaving": "discharged",
        "sign_with_mark": "n",
        "notes": "blk"
    },
    {
        "id": "vtls004660699_0_16",
        "type": "sailor",
        "parent": "vtls004660699",
        "name": "robert dun",
        "dob": "blk",
        "age": "40",
        "place_of_birth": "finland",
        "home_address": "blk",
        "f": "blk",
        "name_of_ship": "same ship",
        "ship_port": "blk",
        "date_leaving": "blk",
        "joined_ship_date": "1863-09-19",
        "joined_at_port": "newport",
        "capacity": "able seaman",
        "date_left": "1864-09-08",
        "left_port": "london",
        "cause_of_leaving": "discharged",
        "sign_with_mark": "y",
        "notes": "blk"
    },
    {
        "id": "vtls004660702_0_14",
        "type": "sailor",
        "parent": "vtls004660702",
        "name": "john r$dnick",
        "dob": "blk",
        "age": "22",
        "place_of_birth": "aberystwyth",
        "home_address": "blk",
        "f": "blk",
        "name_of_ship": "eunice",
        "ship_port": "aberystwyth",
        "date_leaving": "1864-09-03",
        "joined_ship_date": "1864-11-19",
        "joined_at_port": "london",
        "capacity": "carpenter and seaman",
        "date_left": "1866-02-02",
        "left_port": "london",
        "cause_of_leaving": "discharged",
        "sign_with_mark": "y",
        "notes": "blk"
    },
    {
        "id": "vtls004660702_0_18",
        "type": "sailor",
        "parent": "vtls004660702",
        "name": "james livingstone",
        "dob": "blk",
        "age": "27",
        "place_of_birth": "arbroath",
        "home_address": "blk",
        "f": "blk",
        "name_of_ship": "netherby",
        "ship_port": "liverpool",
        "date_leaving": "1864-10-15",
        "joined_ship_date": "1864-11-19",
        "joined_at_port": "london",
        "capacity": "able seaman",
        "date_left": "1866-09-12",
        "left_port": "colombo, sri lanka",
        "cause_of_leaving": "discharged",
        "sign_with_mark": "n",
        "notes": "blk"
    },
    {
        "id": "vtls004660702_0_13",
        "type": "sailor",
        "parent": "vtls004660702",
        "name": "hermann hamkens",
        "dob": "blk",
        "age": "23",
        "place_of_birth": "hamburg",
        "home_address": "blk",
        "f": "blk",
        "name_of_ship": "n$$$ $alls",
        "ship_port": "north shields",
        "date_leaving": "1864-11-18",
        "joined_ship_date": "1864-11-19",
        "joined_at_port": "london",
        "capacity": "boatswain",
        "date_left": "1866-02-02",
        "left_port": "london",
        "cause_of_leaving": "discharged",
        "sign_with_mark": "n",
        "notes": "blk"
    },
    {
        "id": "vtls004660702_0_15",
        "type": "sailor",
        "parent": "vtls004660702",
        "name": "john gould",
        "dob": "blk",
        "age": "23",
        "place_of_birth": "barnstaple",
        "home_address": "blk",
        "f": "blk",
        "name_of_ship": "john bull",
        "ship_port": "s'dm",
        "date_leaving": "1864-10-21",
        "joined_ship_date": "1864-11-19",
        "joined_at_port": "london",
        "capacity": "cook & steward",
        "date_left": "1866-02-02",
        "left_port": "london",
        "cause_of_leaving": "discharged",
        "sign_with_mark": "y",
        "notes": "blk"
    },
    {
        "id": "vtls004660702_0_16",
        "type": "sailor",
        "parent": "vtls004660702",
        "name": "john rawlinds",
        "dob": "blk",
        "age": "33",
        "place_of_birth": "caernarfon",
        "home_address": "blk",
        "f": "blk",
        "name_of_ship": "elin [evans]",
        "ship_port": "caernarvon",
        "date_leaving": "1864-11-17",
        "joined_ship_date": "1864-11-19",
        "joined_at_port": "london",
        "capacity": "able seaman",
        "date_left": "blk",
        "left_port": "blk",
        "cause_of_leaving": "never joined'",
        "sign_with_mark": "y",
        "notes": "blk"
    },
    {
        "id": "vtls004660702_0_17",
        "type": "sailor",
        "parent": "vtls004660702",
        "name": "charles francis",
        "dob": "blk",
        "age": "24",
        "place_of_birth": "italy",
        "home_address": "blk",
        "f": "blk",
        "name_of_ship": "swiftsure",
        "ship_port": "london",
        "date_leaving": "1864-10-19",
        "joined_ship_date": "1864-11-19",
        "joined_at_port": "london",
        "capacity": "able seaman",
        "date_left": "1866-09-12",
        "left_port": "colombo, sri lanka",
        "cause_of_leaving": "discharged",
        "sign_with_mark": "y",
        "notes": "blk"
    },
    {
        "id": "vtls004660702_0_11",
        "type": "sailor",
        "parent": "vtls004660702",
        "name": "david lewis",
        "dob": "blk",
        "age": "29",
        "place_of_birth": "aberystwyth",
        "home_address": "36, minories, london",
        "f": "36, minories, london",
        "name_of_ship": "eunice",
        "ship_port": "aberystwyth",
        "date_leaving": "blk",
        "joined_ship_date": "blk",
        "joined_at_port": "blk",
        "capacity": "master",
        "date_left": "blk",
        "left_port": "blk",
        "cause_of_leaving": "remains on board",
        "sign_with_mark": "n",
        "notes": "blk"
    },
    {
        "id": "vtls004660702_0_12",
        "type": "sailor",
        "parent": "vtls004660702",
        "name": "thomas james",
        "dob": "blk",
        "age": "41",
        "place_of_birth": "cardigan",
        "home_address": "blk",
        "f": "blk",
        "name_of_ship": "claymore",
        "ship_port": "leith",
        "date_leaving": "1864-08-01",
        "joined_ship_date": "1864-11-19",
        "joined_at_port": "london",
        "capacity": "mate",
        "date_left": "1866-02-02",
        "left_port": "london",
        "cause_of_leaving": "discharged",
        "sign_with_mark": "n",
        "notes": "blk"
    },
    {
        "id": "vtls004660702_0_21",
        "type": "sailor",
        "parent": "vtls004660702",
        "name": "duncan gardener",
        "dob": "blk",
        "age": "32",
        "place_of_birth": "glasgow",
        "home_address": "blk",
        "f": "blk",
        "name_of_ship": "clay $",
        "ship_port": "blk",
        "date_leaving": "1864-11-02",
        "joined_ship_date": "1864-11-26",
        "joined_at_port": "london",
        "capacity": "able seaman",
        "date_left": "1865-09-12",
        "left_port": "colombo, sri lanka",
        "cause_of_leaving": "discharged",
        "sign_with_mark": "y",
        "notes": "in a note on the back of the first sheet his surname is given as 'gardner'."
    },
    {
        "id": "vtls004660702_1_11",
        "type": "sailor",
        "parent": "vtls004660702",
        "name": "jenkin jones",
        "dob": "blk",
        "age": "26",
        "place_of_birth": "cardigan",
        "home_address": "8 albert street, aberdeen",
        "f": "8 albert street, aberdeen",
        "name_of_ship": "eunice",
        "ship_port": "aberystwyth",
        "date_leaving": "remains",
        "joined_ship_date": "blk",
        "joined_at_port": "blk",
        "capacity": "master",
        "date_left": "1866-09-17",
        "left_port": "at sea",
        "cause_of_leaving": "abandoned",
        "sign_with_mark": "n",
        "notes": "he doen't appear on the previous crew list for the eunice"
    },
    {
        "id": "vtls004660702_0_24",
        "type": "sailor",
        "parent": "vtls004660702",
        "name": "samuel reynolds",
        "dob": "blk",
        "age": "18",
        "place_of_birth": "whigton",
        "home_address": "blk",
        "f": "blk",
        "name_of_ship": "pandora",
        "ship_port": "dartmouth",
        "date_leaving": "1864-11-10",
        "joined_ship_date": "1864-11-19",
        "joined_at_port": "london",
        "capacity": "ordinary seaman",
        "date_left": "1865-02-02",
        "left_port": "london",
        "cause_of_leaving": "discharged",
        "sign_with_mark": "y",
        "notes": "blk"
    },
    {
        "id": "vtls004660702_0_19",
        "type": "sailor",
        "parent": "vtls004660702",
        "name": "alexander holden",
        "dob": "blk",
        "age": "19",
        "place_of_birth": "ireland",
        "home_address": "blk",
        "f": "blk",
        "name_of_ship": "jane lakey",
        "ship_port": "scilly",
        "date_leaving": "1864-11-17",
        "joined_ship_date": "1864-11-19",
        "joined_at_port": "london",
        "capacity": "able seaman",
        "date_left": "1866-02-02",
        "left_port": "london",
        "cause_of_leaving": "discharged",
        "sign_with_mark": "n",
        "notes": "blk"
    },
    {
        "id": "vtls004660702_0_20",
        "type": "sailor",
        "parent": "vtls004660702",
        "name": "john davies",
        "dob": "blk",
        "age": "18",
        "place_of_birth": "cardigan",
        "home_address": "blk",
        "f": "blk",
        "name_of_ship": "eigen",
        "ship_port": "aberystwyth",
        "date_leaving": "1864-11-02",
        "joined_ship_date": "1864-11-19",
        "joined_at_port": "london",
        "capacity": "ordinary seaman",
        "date_left": "1866-02-02",
        "left_port": "london",
        "cause_of_leaving": "discharged",
        "sign_with_mark": "n",
        "notes": "blk"
    },
    {
        "id": "vtls004660702_0_25",
        "type": "sailor",
        "parent": "vtls004660702",
        "name": "nathaniel morris",
        "dob": "blk",
        "age": "30",
        "place_of_birth": "holywell",
        "home_address": "blk",
        "f": "blk",
        "name_of_ship": "no discharge'",
        "ship_port": "blk",
        "date_leaving": "blk",
        "joined_ship_date": "[1864-04-22]",
        "joined_at_port": "columbo",
        "capacity": "able seaman",
        "date_left": "1865-02-02",
        "left_port": "london",
        "cause_of_leaving": "discharged",
        "sign_with_mark": "n",
        "notes": "blk"
    },
    {
        "id": "vtls004660702_1_13",
        "type": "sailor",
        "parent": "vtls004660702",
        "name": "robert henry prous",
        "dob": "blk",
        "age": "blk",
        "place_of_birth": "devon",
        "home_address": "blk",
        "f": "blk",
        "name_of_ship": "alice",
        "ship_port": "salcombe",
        "date_leaving": "1866-02-18",
        "joined_ship_date": "1866-03-19",
        "joined_at_port": "london",
        "capacity": "mate",
        "date_left": "1866-10-11",
        "left_port": "vigo",
        "cause_of_leaving": "discharged",
        "sign_with_mark": "n",
        "notes": "blk"
    },
    {
        "id": "vtls004660702_1_12",
        "type": "sailor",
        "parent": "vtls004660702",
        "name": "thomas james",
        "dob": "blk",
        "age": "44",
        "place_of_birth": "cardigan",
        "home_address": "blk",
        "f": "blk",
        "name_of_ship": "eunice",
        "ship_port": "aberystwyth",
        "date_leaving": "1866-02-04",
        "joined_ship_date": "1866-03-19",
        "joined_at_port": "london",
        "capacity": "mate",
        "date_left": "1866-10-11",
        "left_port": "vigo",
        "cause_of_leaving": "discharged",
        "sign_with_mark": "n",
        "notes": "blk"
    },
    {
        "id": "vtls004660702_0_22",
        "type": "sailor",
        "parent": "vtls004660702",
        "name": "george davies",
        "dob": "blk",
        "age": "15",
        "place_of_birth": "blk",
        "home_address": "blk",
        "f": "blk",
        "name_of_ship": "blk",
        "ship_port": "blk",
        "date_leaving": "blk",
        "joined_ship_date": "blk",
        "joined_at_port": "blk",
        "capacity": "apprentice",
        "date_left": "blk",
        "left_port": "blk",
        "cause_of_leaving": "blk",
        "sign_with_mark": "n",
        "notes": "his indenture was registered at aberystwith on 08 september 1863"
    },
    {
        "id": "vtls004660702_0_23",
        "type": "sailor",
        "parent": "vtls004660702",
        "name": "frederick smith",
        "dob": "blk",
        "age": "16",
        "place_of_birth": "blk",
        "home_address": "blk",
        "f": "blk",
        "name_of_ship": "blk",
        "ship_port": "blk",
        "date_leaving": "blk",
        "joined_ship_date": "blk",
        "joined_at_port": "blk",
        "capacity": "apprentice",
        "date_left": "blk",
        "left_port": "blk",
        "cause_of_leaving": "blk",
        "sign_with_mark": "n",
        "notes": "his indenture was registered at london on 22 november 1864"
    },
    {
        "id": "vtls004660702_1_22",
        "type": "sailor",
        "parent": "vtls004660702",
        "name": "harry fred dunn",
        "dob": "blk",
        "age": "18",
        "place_of_birth": "london",
        "home_address": "blk",
        "f": "blk",
        "name_of_ship": "blenheim",
        "ship_port": "london",
        "date_leaving": "1865-08-20",
        "joined_ship_date": "1866-03-21",
        "joined_at_port": "london",
        "capacity": "ordinary seaman",
        "date_left": "blk",
        "left_port": "blk",
        "cause_of_leaving": "never came",
        "sign_with_mark": "n",
        "notes": "note says: 'harry fred dunn signed articles march 21st 1866 and to be on board at once but never came.'"
    },
    {
        "id": "vtls004660702_1_14",
        "type": "sailor",
        "parent": "vtls004660702",
        "name": "john gould",
        "dob": "blk",
        "age": "26",
        "place_of_birth": "boswell barnstable",
        "home_address": "blk",
        "f": "blk",
        "name_of_ship": "eunice",
        "ship_port": "aberystwyth",
        "date_leaving": "1866-02-04",
        "joined_ship_date": "1866-03-19",
        "joined_at_port": "london",
        "capacity": "cook & steward",
        "date_left": "1866-10-11",
        "left_port": "vigo",
        "cause_of_leaving": "discharged",
        "sign_with_mark": "y",
        "notes": "blk"
    },
    {
        "id": "vtls004660702_1_17",
        "type": "sailor",
        "parent": "vtls004660702",
        "name": "charles buryl",
        "dob": "blk",
        "age": "20",
        "place_of_birth": "barnstaple",
        "home_address": "blk",
        "f": "blk",
        "name_of_ship": "rhoda",
        "ship_port": "salcombe [dartmouth]",
        "date_leaving": "1866-02-13",
        "joined_ship_date": "1866-03-19",
        "joined_at_port": "london",
        "capacity": "able seaman",
        "date_left": "1866-10-11",
        "left_port": "vigo",
        "cause_of_leaving": "discharged",
        "sign_with_mark": "n",
        "notes": "blk"
    },
    {
        "id": "vtls004660702_1_20",
        "type": "sailor",
        "parent": "vtls004660702",
        "name": "james cheesworth",
        "dob": "blk",
        "age": "19",
        "place_of_birth": "teignmouth",
        "home_address": "blk",
        "f": "blk",
        "name_of_ship": "john & rebecca",
        "ship_port": "hull",
        "date_leaving": "1866-03-14",
        "joined_ship_date": "1866-03-19",
        "joined_at_port": "london",
        "capacity": "ordinary seaman",
        "date_left": "1866-10-11",
        "left_port": "vigo",
        "cause_of_leaving": "discharged",
        "sign_with_mark": "y",
        "notes": "blk"
    },
    {
        "id": "vtls004660702_1_18",
        "type": "sailor",
        "parent": "vtls004660702",
        "name": "henry shepherd",
        "dob": "blk",
        "age": "21",
        "place_of_birth": "salcombe",
        "home_address": "blk",
        "f": "blk",
        "name_of_ship": "rhoda",
        "ship_port": "salcombe [dartmouth]",
        "date_leaving": "1866-02-13",
        "joined_ship_date": "1866-03-19",
        "joined_at_port": "london",
        "capacity": "able seaman",
        "date_left": "1866-10-11",
        "left_port": "vigo",
        "cause_of_leaving": "discharged",
        "sign_with_mark": "y",
        "notes": "blk"
    },
    {
        "id": "vtls004660702_1_16",
        "type": "sailor",
        "parent": "vtls004660702",
        "name": "william blank",
        "dob": "blk",
        "age": "22",
        "place_of_birth": "salcombe",
        "home_address": "blk",
        "f": "blk",
        "name_of_ship": "jane",
        "ship_port": "salcombe [dartmouth]",
        "date_leaving": "1866-01-28",
        "joined_ship_date": "1866-03-19",
        "joined_at_port": "london",
        "capacity": "able seaman",
        "date_left": "1866-10-11",
        "left_port": "vigo",
        "cause_of_leaving": "discharged",
        "sign_with_mark": "n",
        "notes": "blk"
    },
    {
        "id": "vtls004660702_1_15",
        "type": "sailor",
        "parent": "vtls004660702",
        "name": "david lewis",
        "dob": "blk",
        "age": "30",
        "place_of_birth": "newquay",
        "home_address": "blk",
        "f": "blk",
        "name_of_ship": "alert",
        "ship_port": "aberystwyth",
        "date_leaving": "1866-04-01",
        "joined_ship_date": "1866-04-18",
        "joined_at_port": "london",
        "capacity": "carpenter & seaman",
        "date_left": "1866-10-11",
        "left_port": "vigo",
        "cause_of_leaving": "discharged",
        "sign_with_mark": "n",
        "notes": "blk"
    },
    {
        "id": "vtls004660702_1_21",
        "type": "sailor",
        "parent": "vtls004660702",
        "name": "george davies",
        "dob": "blk",
        "age": "14",
        "place_of_birth": "blk",
        "home_address": "blk",
        "f": "blk",
        "name_of_ship": "eunice",
        "ship_port": "aberystwyth",
        "date_leaving": "blk",
        "joined_ship_date": "blk",
        "joined_at_port": "blk",
        "capacity": "apprentice",
        "date_left": "blk",
        "left_port": "blk",
        "cause_of_leaving": "blk",
        "sign_with_mark": "n",
        "notes": "his indenture was registered at aberystwith on 08 september 1863"
    },
    {
        "id": "vtls004660702_1_19",
        "type": "sailor",
        "parent": "vtls004660702",
        "name": "david james",
        "dob": "blk",
        "age": "19",
        "place_of_birth": "cardigan",
        "home_address": "blk",
        "f": "blk",
        "name_of_ship": "hephzibah",
        "ship_port": "caernarfon",
        "date_leaving": "1866-02-17",
        "joined_ship_date": "1866-03-19",
        "joined_at_port": "london",
        "capacity": "able seaman",
        "date_left": "1866-10-11",
        "left_port": "vigo",
        "cause_of_leaving": "discharged",
        "sign_with_mark": "n",
        "notes": "blk"
    },
    {
        "id": "vtls004660702_1_23",
        "type": "sailor",
        "parent": "vtls004660702",
        "name": "jenkin jones",
        "dob": "blk",
        "age": "18",
        "place_of_birth": "aberaeron",
        "home_address": "blk",
        "f": "blk",
        "name_of_ship": "king of the forest",
        "ship_port": "newport",
        "date_leaving": "1866-03-01",
        "joined_ship_date": "1866-04-18",
        "joined_at_port": "newport",
        "capacity": "ordinary seaman",
        "date_left": "1866-10-11",
        "left_port": "vigo",
        "cause_of_leaving": "discharged",
        "sign_with_mark": "n",
        "notes": "blk"
    }
]