[
    {
        "id": "vtls004679775_0_11",
        "type": "sailor",
        "parent": "vtls004679775",
        "name": "john morgans",
        "dob": "blk",
        "age": "35",
        "place_of_birth": "aberaeron",
        "home_address": "rhywgoch, aberayron",
        "f": "rhywgoch, aberayron",
        "name_of_ship": "jane",
        "ship_port": "aberayron",
        "date_leaving": "1883-12-31",
        "joined_ship_date": "1864-01-01",
        "joined_at_port": "aberayron",
        "capacity": "master",
        "date_left": "1864-06-30",
        "left_port": "neath",
        "cause_of_leaving": "remains on board",
        "sign_with_mark": "n",
        "notes": "jane' was registered in aberystwyth"
    },
    {
        "id": "vtls004679775_1_11",
        "type": "sailor",
        "parent": "vtls004679775",
        "name": "john morgans",
        "dob": "blk",
        "age": "36",
        "place_of_birth": "aberaeron",
        "home_address": "rhywgoch, aberayron",
        "f": "rhywgoch, aberayron",
        "name_of_ship": "jane",
        "ship_port": "aberystwyth",
        "date_leaving": "1864-06-30",
        "joined_ship_date": "1864-07-01",
        "joined_at_port": "milford",
        "capacity": "master",
        "date_left": "1864-12-31",
        "left_port": "aberaeron",
        "cause_of_leaving": "remains on board",
        "sign_with_mark": "n",
        "notes": "blk"
    },
    {
        "id": "vtls004679786_0_11",
        "type": "sailor",
        "parent": "vtls004679786",
        "name": "john morgans",
        "dob": "blk",
        "age": "36",
        "place_of_birth": "aberaeron",
        "home_address": "rhiwgoch, aberayron",
        "f": "rhiwgoch, aberayron",
        "name_of_ship": "jane",
        "ship_port": "aberystwyth",
        "date_leaving": "1865-12-31",
        "joined_ship_date": "1866-01-01",
        "joined_at_port": "aberayron",
        "capacity": "master",
        "date_left": "1866-06-30",
        "left_port": "newquay",
        "cause_of_leaving": "remains on board",
        "sign_with_mark": "n",
        "notes": "blk"
    },
    {
        "id": "vtls004679775_0_12",
        "type": "sailor",
        "parent": "vtls004679775",
        "name": "thomas evans",
        "dob": "blk",
        "age": "60",
        "place_of_birth": "aberaeron",
        "home_address": "blk",
        "f": "blk",
        "name_of_ship": "jane",
        "ship_port": "aberayron",
        "date_leaving": "1883-12-31",
        "joined_ship_date": "1864-01-01",
        "joined_at_port": "aberayron",
        "capacity": "mate",
        "date_left": "1864-06-30",
        "left_port": "neath",
        "cause_of_leaving": "remains on board",
        "sign_with_mark": "n",
        "notes": "blk"
    },
    {
        "id": "vtls004679775_1_12",
        "type": "sailor",
        "parent": "vtls004679775",
        "name": "thomas evans",
        "dob": "blk",
        "age": "60",
        "place_of_birth": "aberaeron",
        "home_address": "blk",
        "f": "blk",
        "name_of_ship": "jane",
        "ship_port": "aberystwyth",
        "date_leaving": "1864-06-30",
        "joined_ship_date": "1864-07-01",
        "joined_at_port": "milford",
        "capacity": "mate",
        "date_left": "1864-12-31",
        "left_port": "aberaeron",
        "cause_of_leaving": "remains on board",
        "sign_with_mark": "n",
        "notes": "blk"
    },
    {
        "id": "vtls004679786_0_12",
        "type": "sailor",
        "parent": "vtls004679786",
        "name": "thomas evans",
        "dob": "blk",
        "age": "60",
        "place_of_birth": "aberaeron",
        "home_address": "blk",
        "f": "blk",
        "name_of_ship": "jane",
        "ship_port": "aberystwyth",
        "date_leaving": "1865-12-31",
        "joined_ship_date": "1866-01-01",
        "joined_at_port": "aberayron",
        "capacity": "mate",
        "date_left": "1866-06-30",
        "left_port": "newquay",
        "cause_of_leaving": "remains on board",
        "sign_with_mark": "n",
        "notes": "blk"
    },
    {
        "id": "vtls004679844_0_11",
        "type": "sailor",
        "parent": "vtls004679844",
        "name": "john morgans",
        "dob": "blk",
        "age": "38",
        "place_of_birth": "aberaeron",
        "home_address": "rhiwgoch, aberayron",
        "f": "rhiwgoch, aberayron",
        "name_of_ship": "jane",
        "ship_port": "aberystwyth",
        "date_leaving": "1866-12-31",
        "joined_ship_date": "1867-01-01",
        "joined_at_port": "carnarvon",
        "capacity": "master",
        "date_left": "1867-06-30",
        "left_port": "at sea",
        "cause_of_leaving": "remains on board",
        "sign_with_mark": "n",
        "notes": "blk"
    },
    {
        "id": "vtls004679844_1_11",
        "type": "sailor",
        "parent": "vtls004679844",
        "name": "john morgans",
        "dob": "blk",
        "age": "38",
        "place_of_birth": "aberaeron",
        "home_address": "rhiwgoch, aberayron ",
        "f": "rhiwgoch, aberayron ",
        "name_of_ship": "jane",
        "ship_port": "aberystwyth",
        "date_leaving": "1867-06-30",
        "joined_ship_date": "1867-07-01",
        "joined_at_port": "milford",
        "capacity": "master",
        "date_left": "1867-11-16",
        "left_port": "fishguard",
        "cause_of_leaving": "discharged",
        "sign_with_mark": "n",
        "notes": "blk"
    },
    {
        "id": "vtls004679786_1_11",
        "type": "sailor",
        "parent": "vtls004679786",
        "name": "john morgans",
        "dob": "blk",
        "age": "37",
        "place_of_birth": "aberaeron",
        "home_address": "rhiwgoch, aberayron",
        "f": "rhiwgoch, aberayron",
        "name_of_ship": "jane",
        "ship_port": "aberystwyth",
        "date_leaving": "1866-06-30",
        "joined_ship_date": "1866-07-01",
        "joined_at_port": "aberayron",
        "capacity": "master",
        "date_left": "1866-12-31",
        "left_port": "caernarfon",
        "cause_of_leaving": "remains on board",
        "sign_with_mark": "n",
        "notes": "blk"
    },
    {
        "id": "vtls004679844_0_13",
        "type": "sailor",
        "parent": "vtls004679844",
        "name": "david llewelyn",
        "dob": "blk",
        "age": "13",
        "place_of_birth": "aberaeron",
        "home_address": "blk",
        "f": "blk",
        "name_of_ship": "jane",
        "ship_port": "aberystwyth",
        "date_leaving": "1866-12-31",
        "joined_ship_date": "1867-01-01",
        "joined_at_port": "carnarvon",
        "capacity": "boy",
        "date_left": "1867-06-30",
        "left_port": "at sea",
        "cause_of_leaving": "remains on board",
        "sign_with_mark": "n",
        "notes": "blk"
    },
    {
        "id": "vtls004679844_0_12",
        "type": "sailor",
        "parent": "vtls004679844",
        "name": "thomas evans",
        "dob": "blk",
        "age": "60",
        "place_of_birth": "aberaeron",
        "home_address": "blk",
        "f": "blk",
        "name_of_ship": "jane",
        "ship_port": "aberystwyth",
        "date_leaving": "1866-12-31",
        "joined_ship_date": "1867-01-01",
        "joined_at_port": "carnarvon",
        "capacity": "mate",
        "date_left": "1867-06-30",
        "left_port": "at sea",
        "cause_of_leaving": "remains on board",
        "sign_with_mark": "n",
        "notes": "blk"
    },
    {
        "id": "vtls004679786_0_13",
        "type": "sailor",
        "parent": "vtls004679786",
        "name": "david llewelyn",
        "dob": "blk",
        "age": "13",
        "place_of_birth": "aberaeron",
        "home_address": "blk",
        "f": "blk",
        "name_of_ship": "this being his first ship",
        "ship_port": "blk",
        "date_leaving": "blk",
        "joined_ship_date": "1866-03-16",
        "joined_at_port": "aberayron",
        "capacity": "boy",
        "date_left": "1866-06-30",
        "left_port": "newquay",
        "cause_of_leaving": "remains on board",
        "sign_with_mark": "n",
        "notes": "blk"
    },
    {
        "id": "vtls004679786_1_13",
        "type": "sailor",
        "parent": "vtls004679786",
        "name": "david llewelyn",
        "dob": "blk",
        "age": "13",
        "place_of_birth": "aberaeron",
        "home_address": "blk",
        "f": "blk",
        "name_of_ship": "jane",
        "ship_port": "aberystwyth",
        "date_leaving": "1866-06-30",
        "joined_ship_date": "1866-07-01",
        "joined_at_port": "aberayron",
        "capacity": "boy",
        "date_left": "1866-12-31",
        "left_port": "caernarfon",
        "cause_of_leaving": "remains on board",
        "sign_with_mark": "n",
        "notes": "blk"
    },
    {
        "id": "vtls004679786_1_12",
        "type": "sailor",
        "parent": "vtls004679786",
        "name": "thomas evans",
        "dob": "blk",
        "age": "60",
        "place_of_birth": "aberaeron",
        "home_address": "blk",
        "f": "blk",
        "name_of_ship": "jane",
        "ship_port": "aberystwyth",
        "date_leaving": "1866-06-30",
        "joined_ship_date": "1866-07-01",
        "joined_at_port": "aberayron",
        "capacity": "mate",
        "date_left": "1866-12-31",
        "left_port": "caernarfon",
        "cause_of_leaving": "remains on board",
        "sign_with_mark": "n",
        "notes": "blk"
    },
    {
        "id": "vtls004679844_1_13",
        "type": "sailor",
        "parent": "vtls004679844",
        "name": "david llewelyn",
        "dob": "blk",
        "age": "13",
        "place_of_birth": "aberaeron",
        "home_address": "blk",
        "f": "blk",
        "name_of_ship": "jane",
        "ship_port": "aberystwyth",
        "date_leaving": "1867-06-30",
        "joined_ship_date": "1867-07-01",
        "joined_at_port": "milford",
        "capacity": "boy",
        "date_left": "1867-11-16",
        "left_port": "fishguard",
        "cause_of_leaving": "discharged",
        "sign_with_mark": "n",
        "notes": "blk"
    },
    {
        "id": "vtls004679844_1_12",
        "type": "sailor",
        "parent": "vtls004679844",
        "name": "thomas evans",
        "dob": "blk",
        "age": "61",
        "place_of_birth": "aberaeron",
        "home_address": "blk",
        "f": "blk",
        "name_of_ship": "jane",
        "ship_port": "aberystwyth",
        "date_leaving": "1867-06-30",
        "joined_ship_date": "1867-07-01",
        "joined_at_port": "milford",
        "capacity": "mate",
        "date_left": "1867-11-16",
        "left_port": "fishguard",
        "cause_of_leaving": "discharged",
        "sign_with_mark": "n",
        "notes": "blk"
    }
]