[
    {
        "id": "vtls004687367_0_14",
        "type": "sailor",
        "parent": "vtls004687367",
        "name": "frank benjamin",
        "dob": "blk",
        "age": "23",
        "place_of_birth": "hanover",
        "home_address": "blk",
        "f": "blk",
        "name_of_ship": "sceptre",
        "ship_port": "sunderland",
        "date_leaving": "1863-02-24",
        "joined_ship_date": "1863-03-04",
        "joined_at_port": "south shields",
        "capacity": "able seaman",
        "date_left": "blk",
        "left_port": "blk",
        "cause_of_leaving": "remains on board",
        "sign_with_mark": "n",
        "notes": "blk"
    },
    {
        "id": "vtls004687367_0_13",
        "type": "sailor",
        "parent": "vtls004687367",
        "name": "thomas vaughan",
        "dob": "blk",
        "age": "40",
        "place_of_birth": "fishguard",
        "home_address": "blk",
        "f": "blk",
        "name_of_ship": "jane elizabeth",
        "ship_port": "aberystwyth",
        "date_leaving": "blk",
        "joined_ship_date": "blk",
        "joined_at_port": "blk",
        "capacity": "able seaman",
        "date_left": "blk",
        "left_port": "blk",
        "cause_of_leaving": "remains on board",
        "sign_with_mark": "n",
        "notes": "blk"
    },
    {
        "id": "vtls004687367_0_11",
        "type": "sailor",
        "parent": "vtls004687367",
        "name": "edward morris",
        "dob": "blk",
        "age": "30",
        "place_of_birth": "aberystwyth",
        "home_address": "blk",
        "f": "blk",
        "name_of_ship": "jane elizabeth",
        "ship_port": "aberystwyth",
        "date_leaving": "blk",
        "joined_ship_date": "blk",
        "joined_at_port": "blk",
        "capacity": "master",
        "date_left": "blk",
        "left_port": "blk",
        "cause_of_leaving": "remains on board",
        "sign_with_mark": "n",
        "notes": "blk"
    },
    {
        "id": "vtls004687367_0_12",
        "type": "sailor",
        "parent": "vtls004687367",
        "name": "david lewis",
        "dob": "blk",
        "age": "35",
        "place_of_birth": "borth",
        "home_address": "blk",
        "f": "blk",
        "name_of_ship": "jane elizabeth",
        "ship_port": "aberystwyth",
        "date_leaving": "blk",
        "joined_ship_date": "blk",
        "joined_at_port": "blk",
        "capacity": "mate",
        "date_left": "1863-04-13",
        "left_port": "cardiff",
        "cause_of_leaving": "discharged",
        "sign_with_mark": "n",
        "notes": "blk"
    },
    {
        "id": "vtls004687367_1_11",
        "type": "sailor",
        "parent": "vtls004687367",
        "name": "edward morris",
        "dob": "blk",
        "age": "blk",
        "place_of_birth": "aberystwyth",
        "home_address": "aberystwyth",
        "f": "aberystwyth",
        "name_of_ship": "elizabeth jane",
        "ship_port": "aberystwyth",
        "date_leaving": "blk",
        "joined_ship_date": "blk",
        "joined_at_port": "blk",
        "capacity": "master",
        "date_left": "1863-12-31",
        "left_port": "at sea",
        "cause_of_leaving": "remains on board",
        "sign_with_mark": "n",
        "notes": "blk"
    },
    {
        "id": "vtls004687367_0_18",
        "type": "sailor",
        "parent": "vtls004687367",
        "name": "carl baier",
        "dob": "blk",
        "age": "17",
        "place_of_birth": "hanover",
        "home_address": "blk",
        "f": "blk",
        "name_of_ship": "three sisters",
        "ship_port": "$",
        "date_leaving": "1863-04-[12]",
        "joined_ship_date": "1863-04-13",
        "joined_at_port": "cardiff",
        "capacity": "ordinary seaman",
        "date_left": "blk",
        "left_port": "blk",
        "cause_of_leaving": "remains on board",
        "sign_with_mark": "n",
        "notes": "blk"
    },
    {
        "id": "vtls004687367_1_13",
        "type": "sailor",
        "parent": "vtls004687367",
        "name": "fritz benjaimin",
        "dob": "blk",
        "age": "24",
        "place_of_birth": "hanover",
        "home_address": "blk",
        "f": "blk",
        "name_of_ship": "elizabeth jane",
        "ship_port": "aberystwyth",
        "date_leaving": "blk",
        "joined_ship_date": "blk",
        "joined_at_port": "blk",
        "capacity": "able seaman",
        "date_left": "1863-10-01",
        "left_port": "cardiff",
        "cause_of_leaving": "discharged",
        "sign_with_mark": "n",
        "notes": "blk"
    },
    {
        "id": "vtls004687367_0_15",
        "type": "sailor",
        "parent": "vtls004687367",
        "name": "thomas morris",
        "dob": "blk",
        "age": "19",
        "place_of_birth": "aberystwyth",
        "home_address": "blk",
        "f": "blk",
        "name_of_ship": "jane elizabeth",
        "ship_port": "aberystwyth",
        "date_leaving": "blk",
        "joined_ship_date": "blk",
        "joined_at_port": "blk",
        "capacity": "ordinary seaman",
        "date_left": "blk",
        "left_port": "blk",
        "cause_of_leaving": "remains on board",
        "sign_with_mark": "n",
        "notes": "blk"
    },
    {
        "id": "vtls004687367_0_17",
        "type": "sailor",
        "parent": "vtls004687367",
        "name": "richard hunter",
        "dob": "blk",
        "age": "35",
        "place_of_birth": "plymouth",
        "home_address": "blk",
        "f": "blk",
        "name_of_ship": "h.m.s. exmouth",
        "ship_port": "$",
        "date_leaving": "blk",
        "joined_ship_date": "1863-04-01",
        "joined_at_port": "cardiff",
        "capacity": "able seaman",
        "date_left": "1863-05-04",
        "left_port": "poole",
        "cause_of_leaving": "discharged",
        "sign_with_mark": "n",
        "notes": "blk"
    },
    {
        "id": "vtls004687367_1_12",
        "type": "sailor",
        "parent": "vtls004687367",
        "name": "thomas morris",
        "dob": "blk",
        "age": "19",
        "place_of_birth": "aberystwyth",
        "home_address": "blk",
        "f": "blk",
        "name_of_ship": "elizabeth jane",
        "ship_port": "aberystwyth",
        "date_leaving": "blk",
        "joined_ship_date": "blk",
        "joined_at_port": "blk",
        "capacity": "mate",
        "date_left": "1863-12-31",
        "left_port": "at sea",
        "cause_of_leaving": "remains on board",
        "sign_with_mark": "n",
        "notes": "blk"
    },
    {
        "id": "vtls004687367_0_16",
        "type": "sailor",
        "parent": "vtls004687367",
        "name": "henry martindale",
        "dob": "blk",
        "age": "15",
        "place_of_birth": "liverpool",
        "home_address": "blk",
        "f": "blk",
        "name_of_ship": "jane elizabeth",
        "ship_port": "aberystwyth",
        "date_leaving": "blk",
        "joined_ship_date": "blk",
        "joined_at_port": "blk",
        "capacity": "boy",
        "date_left": "blk",
        "left_port": "blk",
        "cause_of_leaving": "remains on board",
        "sign_with_mark": "n",
        "notes": "blk"
    },
    {
        "id": "vtls004687367_0_19",
        "type": "sailor",
        "parent": "vtls004687367",
        "name": "james hunter",
        "dob": "blk",
        "age": "15",
        "place_of_birth": "poole",
        "home_address": "blk",
        "f": "blk",
        "name_of_ship": "first ship",
        "ship_port": "blk",
        "date_leaving": "blk",
        "joined_ship_date": "1863-06-15",
        "joined_at_port": "poole",
        "capacity": "boy",
        "date_left": "blk",
        "left_port": "blk",
        "cause_of_leaving": "remains on board",
        "sign_with_mark": "n",
        "notes": "blk"
    },
    {
        "id": "vtls004687373_0_14",
        "type": "sailor",
        "parent": "vtls004687373",
        "name": "owen jones hughes",
        "dob": "blk",
        "age": "22",
        "place_of_birth": "anglesey",
        "home_address": "blk",
        "f": "blk",
        "name_of_ship": "blk",
        "ship_port": "blk",
        "date_leaving": "1864-05-24",
        "joined_ship_date": "1864-05-24",
        "joined_at_port": "liverpool",
        "capacity": "mate",
        "date_left": "blk",
        "left_port": "blk",
        "cause_of_leaving": "remains on board",
        "sign_with_mark": "n",
        "notes": "probably rejoined (replacing previous mate)"
    },
    {
        "id": "vtls004687367_1_18",
        "type": "sailor",
        "parent": "vtls004687367",
        "name": "john thomas",
        "dob": "blk",
        "age": "23",
        "place_of_birth": "st dogmaels",
        "home_address": "blk",
        "f": "blk",
        "name_of_ship": "arica",
        "ship_port": "aberystwyth",
        "date_leaving": "1863-08-19",
        "joined_ship_date": "cardiff",
        "joined_at_port": "$",
        "capacity": "able seaman",
        "date_left": "1863-12-31",
        "left_port": "at sea",
        "cause_of_leaving": "remains on board",
        "sign_with_mark": "n",
        "notes": "blk"
    },
    {
        "id": "vtls004687373_0_13",
        "type": "sailor",
        "parent": "vtls004687373",
        "name": "owen jones hughes",
        "dob": "blk",
        "age": "22",
        "place_of_birth": "anglesey",
        "home_address": "blk",
        "f": "blk",
        "name_of_ship": "revival",
        "ship_port": "cardigan",
        "date_leaving": "1864-02-11",
        "joined_ship_date": "1864-02-15",
        "joined_at_port": "liverpool",
        "capacity": "able seaman",
        "date_left": "1864-05-24",
        "left_port": "runcorn",
        "cause_of_leaving": "discharged",
        "sign_with_mark": "n",
        "notes": "blk"
    },
    {
        "id": "vtls004687367_1_15",
        "type": "sailor",
        "parent": "vtls004687367",
        "name": "joel leuais",
        "dob": "blk",
        "age": "18",
        "place_of_birth": "macklenburg",
        "home_address": "blk",
        "f": "blk",
        "name_of_ship": "elizabeth jane",
        "ship_port": "aberystwyth",
        "date_leaving": "blk",
        "joined_ship_date": "blk",
        "joined_at_port": "blk",
        "capacity": "ordinary seaman",
        "date_left": "1863-10-01",
        "left_port": "cardiff",
        "cause_of_leaving": "discharged",
        "sign_with_mark": "n",
        "notes": "blk"
    },
    {
        "id": "vtls004687367_1_14",
        "type": "sailor",
        "parent": "vtls004687367",
        "name": "thomas vaughan",
        "dob": "blk",
        "age": "41",
        "place_of_birth": "fishguard",
        "home_address": "blk",
        "f": "blk",
        "name_of_ship": "elizabeth jane",
        "ship_port": "aberystwyth",
        "date_leaving": "blk",
        "joined_ship_date": "blk",
        "joined_at_port": "blk",
        "capacity": "able seaman",
        "date_left": "1863-12-31",
        "left_port": "at sea",
        "cause_of_leaving": "remains on board",
        "sign_with_mark": "n",
        "notes": "blk"
    },
    {
        "id": "vtls004687373_0_12",
        "type": "sailor",
        "parent": "vtls004687373",
        "name": "rich humphreys",
        "dob": "blk",
        "age": "31",
        "place_of_birth": "aberystwyth",
        "home_address": "blk",
        "f": "blk",
        "name_of_ship": "adroit",
        "ship_port": "aberystwyth",
        "date_leaving": "1864-02-15",
        "joined_ship_date": "1864-02-15",
        "joined_at_port": "liverpool",
        "capacity": "mate",
        "date_left": "1864-05-24",
        "left_port": "runcorn",
        "cause_of_leaving": "discharged",
        "sign_with_mark": "n",
        "notes": "blk"
    },
    {
        "id": "vtls004687367_1_16",
        "type": "sailor",
        "parent": "vtls004687367",
        "name": "henry martindale",
        "dob": "blk",
        "age": "17",
        "place_of_birth": "liverpool",
        "home_address": "blk",
        "f": "blk",
        "name_of_ship": "elizabeth jane",
        "ship_port": "aberystwyth",
        "date_leaving": "blk",
        "joined_ship_date": "blk",
        "joined_at_port": "blk",
        "capacity": "boy",
        "date_left": "1863-12-31",
        "left_port": "at sea",
        "cause_of_leaving": "remains on board",
        "sign_with_mark": "n",
        "notes": "blk"
    },
    {
        "id": "vtls004687367_1_17",
        "type": "sailor",
        "parent": "vtls004687367",
        "name": "james jarret",
        "dob": "blk",
        "age": "17",
        "place_of_birth": "poole",
        "home_address": "blk",
        "f": "blk",
        "name_of_ship": "elizabeth jane",
        "ship_port": "aberystwyth",
        "date_leaving": "blk",
        "joined_ship_date": "blk",
        "joined_at_port": "blk",
        "capacity": "boy",
        "date_left": "1863-12-31",
        "left_port": "at sea",
        "cause_of_leaving": "remains on board",
        "sign_with_mark": "n",
        "notes": "blk"
    },
    {
        "id": "vtls004687373_0_11",
        "type": "sailor",
        "parent": "vtls004687373",
        "name": "edward morris",
        "dob": "blk",
        "age": "31",
        "place_of_birth": "aberystwyth",
        "home_address": "aberystwyth",
        "f": "aberystwyth",
        "name_of_ship": "jane elizabeth",
        "ship_port": "aberystwyth",
        "date_leaving": "blk",
        "joined_ship_date": "blk",
        "joined_at_port": "blk",
        "capacity": "master",
        "date_left": "blk",
        "left_port": "blk",
        "cause_of_leaving": "remains on board",
        "sign_with_mark": "n",
        "notes": "blk"
    },
    {
        "id": "vtls004687373_0_15",
        "type": "sailor",
        "parent": "vtls004687373",
        "name": "evan evans",
        "dob": "blk",
        "age": "15",
        "place_of_birth": "newquay",
        "home_address": "blk",
        "f": "blk",
        "name_of_ship": "[equity]",
        "ship_port": "[newquay]",
        "date_leaving": "1864-02-09",
        "joined_ship_date": "1864-02-15",
        "joined_at_port": "liverpool",
        "capacity": "ordinary seaman",
        "date_left": "1864-05-24",
        "left_port": "runcorn",
        "cause_of_leaving": "discharged",
        "sign_with_mark": "n",
        "notes": "may not be registered to newquay (non listed)"
    },
    {
        "id": "vtls004687373_0_20",
        "type": "sailor",
        "parent": "vtls004687373",
        "name": "evan evans",
        "dob": "blk",
        "age": "17",
        "place_of_birth": "anglesey",
        "home_address": "blk",
        "f": "blk",
        "name_of_ship": "[falcon]",
        "ship_port": "[barmouth]",
        "date_leaving": "1864-05-10",
        "joined_ship_date": "1864-05-25",
        "joined_at_port": "liverpool",
        "capacity": "ordinary seaman",
        "date_left": "blk",
        "left_port": "blk",
        "cause_of_leaving": "remains on board",
        "sign_with_mark": "n",
        "notes": "not registered to barmouth"
    },
    {
        "id": "vtls004687373_0_22",
        "type": "sailor",
        "parent": "vtls004687373",
        "name": "mark hall wood",
        "dob": "blk",
        "age": "23",
        "place_of_birth": "liverpool",
        "home_address": "blk",
        "f": "blk",
        "name_of_ship": "little ada",
        "ship_port": "liverpool",
        "date_leaving": "1864-04-20",
        "joined_ship_date": "1864-05-20",
        "joined_at_port": "liverpool",
        "capacity": "able seaman",
        "date_left": "blk",
        "left_port": "blk",
        "cause_of_leaving": "remains on board",
        "sign_with_mark": "n",
        "notes": "blk"
    },
    {
        "id": "vtls004687373_0_19",
        "type": "sailor",
        "parent": "vtls004687373",
        "name": "hugh o'neil",
        "dob": "blk",
        "age": "35",
        "place_of_birth": "dundalk",
        "home_address": "blk",
        "f": "blk",
        "name_of_ship": "mary ann",
        "ship_port": "[dundalk]",
        "date_leaving": "1864-05-21",
        "joined_ship_date": "1864-05-23",
        "joined_at_port": "liverpool",
        "capacity": "able seaman",
        "date_left": "blk",
        "left_port": "blk",
        "cause_of_leaving": "remains on board",
        "sign_with_mark": "n",
        "notes": "blk"
    },
    {
        "id": "vtls004687373_0_16",
        "type": "sailor",
        "parent": "vtls004687373",
        "name": "thomas vaughan",
        "dob": "blk",
        "age": "45",
        "place_of_birth": "fishguard",
        "home_address": "blk",
        "f": "blk",
        "name_of_ship": "jane elizabeth",
        "ship_port": "aberystwyth",
        "date_leaving": "blk",
        "joined_ship_date": "blk",
        "joined_at_port": "blk",
        "capacity": "able seaman",
        "date_left": "blk",
        "left_port": "blk",
        "cause_of_leaving": "remains on board",
        "sign_with_mark": "n",
        "notes": "blk"
    },
    {
        "id": "vtls004687373_0_17",
        "type": "sailor",
        "parent": "vtls004687373",
        "name": "henry martindale",
        "dob": "blk",
        "age": "16",
        "place_of_birth": "liverpool",
        "home_address": "blk",
        "f": "blk",
        "name_of_ship": "jane elizabeth",
        "ship_port": "aberystwyth",
        "date_leaving": "blk",
        "joined_ship_date": "blk",
        "joined_at_port": "blk",
        "capacity": "boy",
        "date_left": "1864-05-20",
        "left_port": "runcorn",
        "cause_of_leaving": "discharged",
        "sign_with_mark": "n",
        "notes": "blk"
    },
    {
        "id": "vtls004687373_0_18",
        "type": "sailor",
        "parent": "vtls004687373",
        "name": "james jeritt",
        "dob": "blk",
        "age": "17",
        "place_of_birth": "poole",
        "home_address": "blk",
        "f": "blk",
        "name_of_ship": "jane elizabeth",
        "ship_port": "aberystwyth",
        "date_leaving": "blk",
        "joined_ship_date": "blk",
        "joined_at_port": "blk",
        "capacity": "boy",
        "date_left": "1864-04-17",
        "left_port": "charlestown",
        "cause_of_leaving": "discharged",
        "sign_with_mark": "n",
        "notes": "blk"
    },
    {
        "id": "vtls004687373_0_21",
        "type": "sailor",
        "parent": "vtls004687373",
        "name": "william hughes",
        "dob": "blk",
        "age": "14",
        "place_of_birth": "anglesey",
        "home_address": "blk",
        "f": "blk",
        "name_of_ship": "first ship",
        "ship_port": "blk",
        "date_leaving": "blk",
        "joined_ship_date": "1864-05-18",
        "joined_at_port": "liverpool",
        "capacity": "boy",
        "date_left": "blk",
        "left_port": "blk",
        "cause_of_leaving": "remains on board",
        "sign_with_mark": "n",
        "notes": "blk"
    },
    {
        "id": "vtls004687373_1_18",
        "type": "sailor",
        "parent": "vtls004687373",
        "name": "richard morgan",
        "dob": "blk",
        "age": "22",
        "place_of_birth": "carmarthen",
        "home_address": "blk",
        "f": "blk",
        "name_of_ship": "[belle france]",
        "ship_port": "[fowey]",
        "date_leaving": "1864-09-16",
        "joined_ship_date": "1864-10-05",
        "joined_at_port": "cardiff",
        "capacity": "able seaman",
        "date_left": "1864-11-10",
        "left_port": "limerick",
        "cause_of_leaving": "discharged",
        "sign_with_mark": "n",
        "notes": "blk"
    },
    {
        "id": "vtls004687373_1_17",
        "type": "sailor",
        "parent": "vtls004687373",
        "name": "evan aurthur",
        "dob": "blk",
        "age": "40",
        "place_of_birth": "carmarthen",
        "home_address": "blk",
        "f": "blk",
        "name_of_ship": "angharad",
        "ship_port": "caernarvon",
        "date_leaving": "1864-09-12",
        "joined_ship_date": "1864-09-12",
        "joined_at_port": "galway",
        "capacity": "able seaman",
        "date_left": "1864-10-05",
        "left_port": "cardiff",
        "cause_of_leaving": "discharged",
        "sign_with_mark": "n",
        "notes": "blk"
    },
    {
        "id": "vtls004687373_1_20",
        "type": "sailor",
        "parent": "vtls004687373",
        "name": "harri lyarfich",
        "dob": "blk",
        "age": "25",
        "place_of_birth": "prussia",
        "home_address": "blk",
        "f": "blk",
        "name_of_ship": "fanny",
        "ship_port": "shoreham",
        "date_leaving": "1864-09-16",
        "joined_ship_date": "1864-10-13",
        "joined_at_port": "cardiff",
        "capacity": "able seaman",
        "date_left": "1864-11-10",
        "left_port": "limerick",
        "cause_of_leaving": "discharged",
        "sign_with_mark": "n",
        "notes": "blk"
    },
    {
        "id": "vtls004687373_1_13",
        "type": "sailor",
        "parent": "vtls004687373",
        "name": "thomas vaughan",
        "dob": "blk",
        "age": "46",
        "place_of_birth": "fishguard",
        "home_address": "blk",
        "f": "blk",
        "name_of_ship": "jane elizabeth",
        "ship_port": "aberystwyth",
        "date_leaving": "blk",
        "joined_ship_date": "blk",
        "joined_at_port": "blk",
        "capacity": "able seaman",
        "date_left": "1864-[07]-02",
        "left_port": "cardiff",
        "cause_of_leaving": "discharged",
        "sign_with_mark": "n",
        "notes": "blk"
    },
    {
        "id": "vtls004687373_1_15",
        "type": "sailor",
        "parent": "vtls004687373",
        "name": "evan evans",
        "dob": "blk",
        "age": "18",
        "place_of_birth": "anglesey",
        "home_address": "blk",
        "f": "blk",
        "name_of_ship": "jane elizabeth",
        "ship_port": "aberystwyth",
        "date_leaving": "blk",
        "joined_ship_date": "blk",
        "joined_at_port": "blk",
        "capacity": "ordinary seaman",
        "date_left": "1864-07-20",
        "left_port": "loch $",
        "cause_of_leaving": "discharged",
        "sign_with_mark": "n",
        "notes": "blk"
    },
    {
        "id": "vtls004687373_1_14",
        "type": "sailor",
        "parent": "vtls004687373",
        "name": "marshall woods",
        "dob": "blk",
        "age": "23",
        "place_of_birth": "liverpool",
        "home_address": "blk",
        "f": "blk",
        "name_of_ship": "jane elizabeth",
        "ship_port": "aberystwyth",
        "date_leaving": "blk",
        "joined_ship_date": "blk",
        "joined_at_port": "blk",
        "capacity": "able seaman",
        "date_left": "1864-08-30",
        "left_port": "galway",
        "cause_of_leaving": "discharged",
        "sign_with_mark": "n",
        "notes": "blk"
    },
    {
        "id": "vtls004687373_1_16",
        "type": "sailor",
        "parent": "vtls004687373",
        "name": "william jones hughes",
        "dob": "blk",
        "age": "15",
        "place_of_birth": "anglesey",
        "home_address": "blk",
        "f": "blk",
        "name_of_ship": "jane elizabeth",
        "ship_port": "aberystwyth",
        "date_leaving": "blk",
        "joined_ship_date": "blk",
        "joined_at_port": "blk",
        "capacity": "boy",
        "date_left": "1864-12-20",
        "left_port": "bristol",
        "cause_of_leaving": "discharged",
        "sign_with_mark": "n",
        "notes": "blk"
    },
    {
        "id": "vtls004687373_1_12",
        "type": "sailor",
        "parent": "vtls004687373",
        "name": "owen jones hughes",
        "dob": "blk",
        "age": "23",
        "place_of_birth": "anglesey",
        "home_address": "blk",
        "f": "blk",
        "name_of_ship": "jane elizabeth",
        "ship_port": "aberystwyth",
        "date_leaving": "blk",
        "joined_ship_date": "blk",
        "joined_at_port": "blk",
        "capacity": "mate",
        "date_left": "1864-12-20",
        "left_port": "bristol",
        "cause_of_leaving": "discharged",
        "sign_with_mark": "n",
        "notes": "blk"
    },
    {
        "id": "vtls004687373_1_11",
        "type": "sailor",
        "parent": "vtls004687373",
        "name": "edward morris",
        "dob": "blk",
        "age": "blk",
        "place_of_birth": "aberystwyth",
        "home_address": "aberystwyth",
        "f": "aberystwyth",
        "name_of_ship": "jane elizabeth",
        "ship_port": "aberystwyth",
        "date_leaving": "blk",
        "joined_ship_date": "blk",
        "joined_at_port": "blk",
        "capacity": "master",
        "date_left": "blk",
        "left_port": "blk",
        "cause_of_leaving": "remains on board",
        "sign_with_mark": "n",
        "notes": "blk"
    },
    {
        "id": "vtls004687373_1_19",
        "type": "sailor",
        "parent": "vtls004687373",
        "name": "evan aurthur",
        "dob": "blk",
        "age": "15",
        "place_of_birth": "carmarthen",
        "home_address": "blk",
        "f": "blk",
        "name_of_ship": "first ship",
        "ship_port": "blk",
        "date_leaving": "blk",
        "joined_ship_date": "1864-10-05",
        "joined_at_port": "cardiff",
        "capacity": "boy",
        "date_left": "blk",
        "left_port": "blk",
        "cause_of_leaving": "remains on board",
        "sign_with_mark": "n",
        "notes": "blk"
    },
    {
        "id": "vtls004687385_0_13",
        "type": "sailor",
        "parent": "vtls004687385",
        "name": "david morgans",
        "dob": "blk",
        "age": "blk",
        "place_of_birth": "cardigan",
        "home_address": "blk",
        "f": "blk",
        "name_of_ship": "jane elizabeth",
        "ship_port": "aberystwyth",
        "date_leaving": "blk",
        "joined_ship_date": "1867-01-01",
        "joined_at_port": "limerick",
        "capacity": "able seaman",
        "date_left": "1864-04-28",
        "left_port": "liverpool",
        "cause_of_leaving": "discharged",
        "sign_with_mark": "n",
        "notes": "continued from previous voyage"
    },
    {
        "id": "vtls004687385_0_11",
        "type": "sailor",
        "parent": "vtls004687385",
        "name": "edward morris",
        "dob": "blk",
        "age": "32",
        "place_of_birth": "aberystwyth",
        "home_address": "blk",
        "f": "blk",
        "name_of_ship": "jane elizabeth",
        "ship_port": "aberystwyth",
        "date_leaving": "blk",
        "joined_ship_date": "1867-01-01",
        "joined_at_port": "limerick",
        "capacity": "master",
        "date_left": "1864-04-28",
        "left_port": "liverpool",
        "cause_of_leaving": "discharged",
        "sign_with_mark": "n",
        "notes": "continued from previous voyage"
    },
    {
        "id": "vtls004687385_0_12",
        "type": "sailor",
        "parent": "vtls004687385",
        "name": "richard thomas",
        "dob": "blk",
        "age": "blk",
        "place_of_birth": "aberystwyth",
        "home_address": "blk",
        "f": "blk",
        "name_of_ship": "jane elizabeth",
        "ship_port": "aberystwyth",
        "date_leaving": "blk",
        "joined_ship_date": "1867-01-01",
        "joined_at_port": "limerick",
        "capacity": "mate",
        "date_left": "1864-04-28",
        "left_port": "liverpool",
        "cause_of_leaving": "discharged",
        "sign_with_mark": "n",
        "notes": "continued from previous voyage"
    },
    {
        "id": "vtls004687385_0_14",
        "type": "sailor",
        "parent": "vtls004687385",
        "name": "charles johnson",
        "dob": "blk",
        "age": "blk",
        "place_of_birth": "sweden",
        "home_address": "blk",
        "f": "blk",
        "name_of_ship": "magna charta",
        "ship_port": "blk",
        "date_leaving": "blk",
        "joined_ship_date": "1864-02-23",
        "joined_at_port": "london",
        "capacity": "able seaman",
        "date_left": "1864-04-28",
        "left_port": "liverpool",
        "cause_of_leaving": "discharged",
        "sign_with_mark": "n",
        "notes": "blk"
    },
    {
        "id": "vtls004687385_0_15",
        "type": "sailor",
        "parent": "vtls004687385",
        "name": "joseph fair",
        "dob": "blk",
        "age": "blk",
        "place_of_birth": "london",
        "home_address": "blk",
        "f": "blk",
        "name_of_ship": "first voyage",
        "ship_port": "blk",
        "date_leaving": "blk",
        "joined_ship_date": "1864-02-23",
        "joined_at_port": "london",
        "capacity": "ordinary seaman",
        "date_left": "1864-04-28",
        "left_port": "liverpool",
        "cause_of_leaving": "discharged",
        "sign_with_mark": "n",
        "notes": "blk"
    },
    {
        "id": "vtls004687373_1_21",
        "type": "sailor",
        "parent": "vtls004687373",
        "name": "john au$$$s",
        "dob": "blk",
        "age": "33",
        "place_of_birth": "clare",
        "home_address": "blk",
        "f": "blk",
        "name_of_ship": "jess[y]",
        "ship_port": "limerick",
        "date_leaving": "1869-11-10",
        "joined_ship_date": "1864-11-19",
        "joined_at_port": "limerick",
        "capacity": "able seaman",
        "date_left": "blk",
        "left_port": "blk",
        "cause_of_leaving": "remains on board",
        "sign_with_mark": "n",
        "notes": "blk"
    },
    {
        "id": "vtls004687373_1_22",
        "type": "sailor",
        "parent": "vtls004687373",
        "name": "george thomas",
        "dob": "blk",
        "age": "24",
        "place_of_birth": "swansea",
        "home_address": "blk",
        "f": "blk",
        "name_of_ship": "bee",
        "ship_port": "limerick",
        "date_leaving": "1869-11-10",
        "joined_ship_date": "1864-11-19",
        "joined_at_port": "limerick",
        "capacity": "able seaman",
        "date_left": "blk",
        "left_port": "blk",
        "cause_of_leaving": "remains on board",
        "sign_with_mark": "n",
        "notes": "blk"
    },
    {
        "id": "vtls004687385_0_18",
        "type": "sailor",
        "parent": "vtls004687385",
        "name": "thomas henery",
        "dob": "blk",
        "age": "19",
        "place_of_birth": "dundalk",
        "home_address": "blk",
        "f": "blk",
        "name_of_ship": "jane elizabeth",
        "ship_port": "aberystwyth",
        "date_leaving": "blk",
        "joined_ship_date": "1864-01-01",
        "joined_at_port": "limerick",
        "capacity": "ordinary seaman",
        "date_left": "1864-02-02",
        "left_port": "london",
        "cause_of_leaving": "discharged",
        "sign_with_mark": "n",
        "notes": "blk"
    },
    {
        "id": "vtls004687385_0_19",
        "type": "sailor",
        "parent": "vtls004687385",
        "name": "william davies",
        "dob": "blk",
        "age": "21",
        "place_of_birth": "aberaeron",
        "home_address": "blk",
        "f": "blk",
        "name_of_ship": "ann [katharine]",
        "ship_port": "blk",
        "date_leaving": "1864-07-02",
        "joined_ship_date": "1864-02-05",
        "joined_at_port": "london",
        "capacity": "able seaman",
        "date_left": "1864-04-28",
        "left_port": "liverpool",
        "cause_of_leaving": "discharged",
        "sign_with_mark": "n",
        "notes": "blk"
    },
    {
        "id": "vtls004687385_0_16",
        "type": "sailor",
        "parent": "vtls004687385",
        "name": "charles tin$$y",
        "dob": "blk",
        "age": "blk",
        "place_of_birth": "london",
        "home_address": "blk",
        "f": "blk",
        "name_of_ship": "jane elizabeth",
        "ship_port": "aberystwyth",
        "date_leaving": "blk",
        "joined_ship_date": "1864-01-01",
        "joined_at_port": "limerick",
        "capacity": "able seaman",
        "date_left": "1864-02-02",
        "left_port": "london",
        "cause_of_leaving": "discharged",
        "sign_with_mark": "n",
        "notes": "blk"
    },
    {
        "id": "vtls004687385_0_17",
        "type": "sailor",
        "parent": "vtls004687385",
        "name": "david thomas",
        "dob": "blk",
        "age": "20",
        "place_of_birth": "aberaeron",
        "home_address": "blk",
        "f": "blk",
        "name_of_ship": "jane elizabeth",
        "ship_port": "aberystwyth",
        "date_leaving": "blk",
        "joined_ship_date": "1864-01-01",
        "joined_at_port": "limerick",
        "capacity": "able seaman",
        "date_left": "1864-02-02",
        "left_port": "london",
        "cause_of_leaving": "discharged",
        "sign_with_mark": "n",
        "notes": "blk"
    }
]