[
    {
        "id": "vtls004929736_0_11",
        "type": "sailor",
        "parent": "vtls004929736",
        "name": "thomas clayton",
        "dob": "blk",
        "age": "50",
        "place_of_birth": "aberystwyth",
        "home_address": "[prospect row] aberystwith",
        "f": "[prospect row] aberystwith",
        "name_of_ship": "messenger",
        "ship_port": "aberystwyth",
        "date_leaving": "continued ",
        "joined_ship_date": "blk",
        "joined_at_port": "blk",
        "capacity": "master",
        "date_left": "blk",
        "left_port": "blk",
        "cause_of_leaving": "remains on board",
        "sign_with_mark": "n",
        "notes": "blk"
    },
    {
        "id": "vtls004929736_0_12",
        "type": "sailor",
        "parent": "vtls004929736",
        "name": "david hughes",
        "dob": "blk",
        "age": "22",
        "place_of_birth": "perth",
        "home_address": "blk",
        "f": "blk",
        "name_of_ship": "south",
        "ship_port": "liverpool",
        "date_leaving": "1862-10-[14]",
        "joined_ship_date": "1862-12-3",
        "joined_at_port": "swansea",
        "capacity": "mate",
        "date_left": "1863-06-08",
        "left_port": "london",
        "cause_of_leaving": "discharged",
        "sign_with_mark": "y",
        "notes": "blk"
    },
    {
        "id": "vtls004929736_0_13",
        "type": "sailor",
        "parent": "vtls004929736",
        "name": "heinrich balho",
        "dob": "blk",
        "age": "28",
        "place_of_birth": "hamburg",
        "home_address": "blk",
        "f": "blk",
        "name_of_ship": "messenger",
        "ship_port": "aberystwyth",
        "date_leaving": "blk",
        "joined_ship_date": "blk",
        "joined_at_port": "blk",
        "capacity": "boatsman",
        "date_left": "1863-06-09",
        "left_port": "london",
        "cause_of_leaving": "discharged",
        "sign_with_mark": "n",
        "notes": "blk"
    },
    {
        "id": "vtls004929736_0_21",
        "type": "sailor",
        "parent": "vtls004929736",
        "name": "william chanley",
        "dob": "blk",
        "age": "17",
        "place_of_birth": "braunton",
        "home_address": "blk",
        "f": "blk",
        "name_of_ship": "berkshire",
        "ship_port": "plymouth",
        "date_leaving": "1863-01-15",
        "joined_ship_date": "1863-02-28",
        "joined_at_port": "kingston, jamaica",
        "capacity": "ordinary seaman",
        "date_left": "1863-06-07",
        "left_port": "london",
        "cause_of_leaving": "discharged",
        "sign_with_mark": "n",
        "notes": "the [undersigned] [agree] for a voyage from kingston to port or ports in jamaica thence to a port of discharge in the united kingdom"
    },
    {
        "id": "vtls004929736_0_15",
        "type": "sailor",
        "parent": "vtls004929736",
        "name": "benjamin franklin",
        "dob": "blk",
        "age": "45",
        "place_of_birth": "dantzic",
        "home_address": "blk",
        "f": "blk",
        "name_of_ship": "haidee",
        "ship_port": "liverpool",
        "date_leaving": "1862-11-24",
        "joined_ship_date": "1862-12-03",
        "joined_at_port": "swansea",
        "capacity": "able seaman",
        "date_left": "1863-02-21",
        "left_port": "kingston, jamaica",
        "cause_of_leaving": "sentenced to [penitentiary]",
        "sign_with_mark": "y",
        "notes": "blk"
    },
    {
        "id": "vtls004929736_0_19",
        "type": "sailor",
        "parent": "vtls004929736",
        "name": "william jones",
        "dob": "blk",
        "age": "18",
        "place_of_birth": "aberystwyth",
        "home_address": "blk",
        "f": "blk",
        "name_of_ship": "john davies",
        "ship_port": "liverpool",
        "date_leaving": "1862-10-23",
        "joined_ship_date": "1862-12-03",
        "joined_at_port": "bristol",
        "capacity": "ordinary seaman",
        "date_left": "1863-06-07",
        "left_port": "london",
        "cause_of_leaving": "discharged",
        "sign_with_mark": "n",
        "notes": "blk"
    },
    {
        "id": "vtls004929736_0_16",
        "type": "sailor",
        "parent": "vtls004929736",
        "name": "edward williams",
        "dob": "blk",
        "age": "20",
        "place_of_birth": "aberystwyth",
        "home_address": "blk",
        "f": "blk",
        "name_of_ship": "malvina",
        "ship_port": "aberystwyth",
        "date_leaving": "1862-10-24",
        "joined_ship_date": "1862-12-03",
        "joined_at_port": "swansea",
        "capacity": "able seaman",
        "date_left": "1863-06-07",
        "left_port": "london",
        "cause_of_leaving": "discharged",
        "sign_with_mark": "n",
        "notes": "blk"
    },
    {
        "id": "vtls004929736_1_12",
        "type": "sailor",
        "parent": "vtls004929736",
        "name": "david hughes",
        "dob": "blk",
        "age": "22",
        "place_of_birth": "aberystwyth",
        "home_address": "blk",
        "f": "blk",
        "name_of_ship": "messenger",
        "ship_port": "aberystwyth",
        "date_leaving": "1863-06-07",
        "joined_ship_date": "1863-07-03",
        "joined_at_port": "london",
        "capacity": "mate",
        "date_left": "1863-11-12",
        "left_port": "ilfracombe",
        "cause_of_leaving": "paid off",
        "sign_with_mark": "n",
        "notes": "blk"
    },
    {
        "id": "vtls004929736_0_20",
        "type": "sailor",
        "parent": "vtls004929736",
        "name": "david sutherland",
        "dob": "blk",
        "age": "18",
        "place_of_birth": "leith",
        "home_address": "blk",
        "f": "blk",
        "name_of_ship": "taglioni",
        "ship_port": "shields",
        "date_leaving": "1862-11-04",
        "joined_ship_date": "1862-12-03",
        "joined_at_port": "swansea",
        "capacity": "ordinary seaman",
        "date_left": "1863-06-07",
        "left_port": "london",
        "cause_of_leaving": "discharged",
        "sign_with_mark": "n",
        "notes": "blk"
    },
    {
        "id": "vtls004929736_0_17",
        "type": "sailor",
        "parent": "vtls004929736",
        "name": "william john",
        "dob": "blk",
        "age": "19",
        "place_of_birth": "fishguard",
        "home_address": "blk",
        "f": "blk",
        "name_of_ship": "florence",
        "ship_port": "swansea",
        "date_leaving": "1862-11-29",
        "joined_ship_date": "1862-12-03",
        "joined_at_port": "swansea",
        "capacity": "able seaman",
        "date_left": "1863-06-07",
        "left_port": "london",
        "cause_of_leaving": "discharged",
        "sign_with_mark": "n",
        "notes": "blk"
    },
    {
        "id": "vtls004929736_0_18",
        "type": "sailor",
        "parent": "vtls004929736",
        "name": "carle kruger",
        "dob": "blk",
        "age": "21",
        "place_of_birth": "steltem",
        "home_address": "blk",
        "f": "blk",
        "name_of_ship": "messenger",
        "ship_port": "aberyswith",
        "date_leaving": "stayed on board",
        "joined_ship_date": "blk",
        "joined_at_port": "blk",
        "capacity": "able seaman",
        "date_left": "1863-06-07",
        "left_port": "london",
        "cause_of_leaving": "discharged",
        "sign_with_mark": "n",
        "notes": "blk"
    },
    {
        "id": "vtls004929736_0_14",
        "type": "sailor",
        "parent": "vtls004929736",
        "name": "george haslest",
        "dob": "blk",
        "age": "19",
        "place_of_birth": "new york",
        "home_address": "blk",
        "f": "blk",
        "name_of_ship": "zouave",
        "ship_port": "liverpool",
        "date_leaving": "1862-10-06",
        "joined_ship_date": "1862-12-03",
        "joined_at_port": "swansea",
        "capacity": "cook",
        "date_left": "1863-06-07",
        "left_port": "london",
        "cause_of_leaving": "discharged",
        "sign_with_mark": "n",
        "notes": "blk"
    },
    {
        "id": "vtls004929736_1_11",
        "type": "sailor",
        "parent": "vtls004929736",
        "name": "thomas clayton",
        "dob": "blk",
        "age": "51",
        "place_of_birth": "aberystwyth",
        "home_address": "blk",
        "f": "blk",
        "name_of_ship": "messenger",
        "ship_port": "aberystwyth",
        "date_leaving": "continued",
        "joined_ship_date": "blk",
        "joined_at_port": "blk",
        "capacity": "master",
        "date_left": "blk",
        "left_port": "blk",
        "cause_of_leaving": "remains on board",
        "sign_with_mark": "n",
        "notes": "blk"
    },
    {
        "id": "vtls004929736_1_14",
        "type": "sailor",
        "parent": "vtls004929736",
        "name": "david evans",
        "dob": "blk",
        "age": "23",
        "place_of_birth": "cardigan",
        "home_address": "blk",
        "f": "blk",
        "name_of_ship": "mary jane",
        "ship_port": "aberystwyth",
        "date_leaving": "1863-06-11",
        "joined_ship_date": "1863-07-07",
        "joined_at_port": "london",
        "capacity": "carpenter and seaman",
        "date_left": "1863-10-06",
        "left_port": "ilfracombe",
        "cause_of_leaving": "paid off",
        "sign_with_mark": "n",
        "notes": "blk"
    },
    {
        "id": "vtls004929736_1_13",
        "type": "sailor",
        "parent": "vtls004929736",
        "name": "richard humphrey",
        "dob": "blk",
        "age": "27",
        "place_of_birth": "aberystwyth",
        "home_address": "blk",
        "f": "blk",
        "name_of_ship": "south",
        "ship_port": "liverpool",
        "date_leaving": "1862-11-07",
        "joined_ship_date": "1863-07-07",
        "joined_at_port": "london",
        "capacity": "boatswain",
        "date_left": "1863-11-12",
        "left_port": "ilfracombe",
        "cause_of_leaving": "paid off",
        "sign_with_mark": "n",
        "notes": "blk"
    },
    {
        "id": "vtls004929736_1_15",
        "type": "sailor",
        "parent": "vtls004929736",
        "name": "john campbell",
        "dob": "blk",
        "age": "12",
        "place_of_birth": "edinburgh",
        "home_address": "blk",
        "f": "blk",
        "name_of_ship": "[akha]",
        "ship_port": "swansea",
        "date_leaving": "1863-06-07",
        "joined_ship_date": "1863-07-07",
        "joined_at_port": "london",
        "capacity": "cook & steward",
        "date_left": "1863-10-06",
        "left_port": "ilfracombe",
        "cause_of_leaving": "paid off",
        "sign_with_mark": "n",
        "notes": "blk"
    },
    {
        "id": "vtls004929736_1_20",
        "type": "sailor",
        "parent": "vtls004929736",
        "name": "william gr\u00d3\u00a7newole",
        "dob": "blk",
        "age": "20",
        "place_of_birth": "dantzic",
        "home_address": "blk",
        "f": "blk",
        "name_of_ship": "eliza",
        "ship_port": "new york",
        "date_leaving": "1863-06-29",
        "joined_ship_date": "1863-07-07",
        "joined_at_port": "london",
        "capacity": "ordinary seaman",
        "date_left": "1863-08-24",
        "left_port": "quebec",
        "cause_of_leaving": "deserted",
        "sign_with_mark": "n",
        "notes": "blk"
    },
    {
        "id": "vtls004929736_1_21",
        "type": "sailor",
        "parent": "vtls004929736",
        "name": "william crane",
        "dob": "blk",
        "age": "19",
        "place_of_birth": "new york",
        "home_address": "blk",
        "f": "blk",
        "name_of_ship": "[mede]",
        "ship_port": "new york",
        "date_leaving": "1863-06-07",
        "joined_ship_date": "1863-07-07",
        "joined_at_port": "london",
        "capacity": "ordinary seaman",
        "date_left": "1863-10-06",
        "left_port": "ilfracombe",
        "cause_of_leaving": "paid off",
        "sign_with_mark": "n",
        "notes": "blk"
    },
    {
        "id": "vtls004929736_1_16",
        "type": "sailor",
        "parent": "vtls004929736",
        "name": "frederic knipper",
        "dob": "blk",
        "age": "22",
        "place_of_birth": "hanover",
        "home_address": "blk",
        "f": "blk",
        "name_of_ship": "[nautilius]",
        "ship_port": "london",
        "date_leaving": "1863-06-06",
        "joined_ship_date": "1863-07-07",
        "joined_at_port": "london",
        "capacity": "able seaman",
        "date_left": "1863-09-06",
        "left_port": "quebec",
        "cause_of_leaving": "deserted",
        "sign_with_mark": "n",
        "notes": "blk"
    },
    {
        "id": "vtls004929736_1_17",
        "type": "sailor",
        "parent": "vtls004929736",
        "name": "henri walter",
        "dob": "blk",
        "age": "20",
        "place_of_birth": "stettin",
        "home_address": "blk",
        "f": "blk",
        "name_of_ship": "eliza",
        "ship_port": "new york",
        "date_leaving": "1863-06-29",
        "joined_ship_date": "1863-07-07",
        "joined_at_port": "london",
        "capacity": "able seaman",
        "date_left": "1863-10-06",
        "left_port": "ilfracombe",
        "cause_of_leaving": "paid off",
        "sign_with_mark": "n",
        "notes": "blk"
    },
    {
        "id": "vtls004929736_1_19",
        "type": "sailor",
        "parent": "vtls004929736",
        "name": "murdo mciver",
        "dob": "blk",
        "age": "22",
        "place_of_birth": "stornoway",
        "home_address": "blk",
        "f": "blk",
        "name_of_ship": "spray",
        "ship_port": "bridgewater",
        "date_leaving": "1863-06-28",
        "joined_ship_date": "1863-07-07",
        "joined_at_port": "london",
        "capacity": "able seaman",
        "date_left": "1863-08-24",
        "left_port": "quebec",
        "cause_of_leaving": "deserted",
        "sign_with_mark": "n",
        "notes": "blk"
    },
    {
        "id": "vtls004929736_1_18",
        "type": "sailor",
        "parent": "vtls004929736",
        "name": "john clayton",
        "dob": "blk",
        "age": "16",
        "place_of_birth": "aberystwyth",
        "home_address": "blk",
        "f": "blk",
        "name_of_ship": "messenger",
        "ship_port": "aberystwyth",
        "date_leaving": "1863-06-07",
        "joined_ship_date": "1863-07-03",
        "joined_at_port": "london",
        "capacity": "boy",
        "date_left": "1863-11-12",
        "left_port": "ilfracombe",
        "cause_of_leaving": "paid off",
        "sign_with_mark": "n",
        "notes": "blk"
    },
    {
        "id": "vtls004929736_2_13",
        "type": "sailor",
        "parent": "vtls004929736",
        "name": "richard humphries",
        "dob": "blk",
        "age": "22",
        "place_of_birth": "aberystwyth",
        "home_address": "blk",
        "f": "blk",
        "name_of_ship": "messenger",
        "ship_port": "aberystwyth",
        "date_leaving": "remains",
        "joined_ship_date": "1863-12-24",
        "joined_at_port": "cardiff",
        "capacity": "boatswain",
        "date_left": "1864-07-29",
        "left_port": "ilfracombe",
        "cause_of_leaving": "discharged",
        "sign_with_mark": "n",
        "notes": "blk"
    },
    {
        "id": "vtls004929736_1_25",
        "type": "sailor",
        "parent": "vtls004929736",
        "name": "charles phillips",
        "dob": "blk",
        "age": "12",
        "place_of_birth": "cambridge",
        "home_address": "blk",
        "f": "blk",
        "name_of_ship": "[$pheria$]",
        "ship_port": "london",
        "date_leaving": "blk",
        "joined_ship_date": "1863-09-21",
        "joined_at_port": "quebec",
        "capacity": "ordinary seaman",
        "date_left": "1863-11-06",
        "left_port": "ilfracombe",
        "cause_of_leaving": "paid off",
        "sign_with_mark": "n",
        "notes": "blk"
    },
    {
        "id": "vtls004929736_1_22",
        "type": "sailor",
        "parent": "vtls004929736",
        "name": "john mccoll",
        "dob": "blk",
        "age": "35",
        "place_of_birth": "isle of skye",
        "home_address": "blk",
        "f": "blk",
        "name_of_ship": "nina",
        "ship_port": "montrose",
        "date_leaving": "blk",
        "joined_ship_date": "1863-09-19",
        "joined_at_port": "quebec",
        "capacity": "able seaman",
        "date_left": "blk",
        "left_port": "quebec",
        "cause_of_leaving": "deserted before leaving quebec",
        "sign_with_mark": "y",
        "notes": "blk"
    },
    {
        "id": "vtls004929736_1_24",
        "type": "sailor",
        "parent": "vtls004929736",
        "name": "thomas humphreys",
        "dob": "blk",
        "age": "18",
        "place_of_birth": "liverpool",
        "home_address": "blk",
        "f": "blk",
        "name_of_ship": "kate prince",
        "ship_port": "u.s.",
        "date_leaving": "blk",
        "joined_ship_date": "1863-09-19",
        "joined_at_port": "quebec",
        "capacity": "ordinary seaman",
        "date_left": "1863-11-07",
        "left_port": "ilfracombe",
        "cause_of_leaving": "paid off",
        "sign_with_mark": "y",
        "notes": "blk"
    },
    {
        "id": "vtls004929736_2_14",
        "type": "sailor",
        "parent": "vtls004929736",
        "name": "daniel jones",
        "dob": "blk",
        "age": "53",
        "place_of_birth": "cardigan",
        "home_address": "blk",
        "f": "blk",
        "name_of_ship": "messenger",
        "ship_port": "aberystwyth",
        "date_leaving": "remains",
        "joined_ship_date": "1863-12-24",
        "joined_at_port": "cardiff",
        "capacity": "cook & steward",
        "date_left": "1863-12-24",
        "left_port": "cardiff",
        "cause_of_leaving": "deserted",
        "sign_with_mark": "n",
        "notes": "blk"
    },
    {
        "id": "vtls004929736_1_23",
        "type": "sailor",
        "parent": "vtls004929736",
        "name": "james mc caul",
        "dob": "blk",
        "age": "50",
        "place_of_birth": "kirkaldy",
        "home_address": "blk",
        "f": "blk",
        "name_of_ship": "david",
        "ship_port": "st. johns nb",
        "date_leaving": "blk",
        "joined_ship_date": "1863-09-19",
        "joined_at_port": "quebec",
        "capacity": "able seaman",
        "date_left": "1863-11-06",
        "left_port": "ilfracombe",
        "cause_of_leaving": "paid off",
        "sign_with_mark": "y",
        "notes": "blk"
    },
    {
        "id": "vtls004929736_2_12",
        "type": "sailor",
        "parent": "vtls004929736",
        "name": "david d davies",
        "dob": "blk",
        "age": "23",
        "place_of_birth": "newquay",
        "home_address": "blk",
        "f": "blk",
        "name_of_ship": "mary lewis",
        "ship_port": "aberystwyth",
        "date_leaving": "blk",
        "joined_ship_date": "1863-12-24",
        "joined_at_port": "cardiff",
        "capacity": "mate",
        "date_left": "1864-08-02",
        "left_port": "ilfracombe",
        "cause_of_leaving": "discharged",
        "sign_with_mark": "n",
        "notes": "blk"
    },
    {
        "id": "vtls004929736_2_11",
        "type": "sailor",
        "parent": "vtls004929736",
        "name": "thomas clayton",
        "dob": "blk",
        "age": "51",
        "place_of_birth": "aberystwyth",
        "home_address": "blk",
        "f": "blk",
        "name_of_ship": "messenger",
        "ship_port": "aberystwyth",
        "date_leaving": "remains",
        "joined_ship_date": "remains",
        "joined_at_port": "blk",
        "capacity": "master",
        "date_left": "remains",
        "left_port": "blk",
        "cause_of_leaving": "remains on board",
        "sign_with_mark": "n",
        "notes": "blk"
    },
    {
        "id": "vtls004929736_2_19",
        "type": "sailor",
        "parent": "vtls004929736",
        "name": "john clayton",
        "dob": "blk",
        "age": "16",
        "place_of_birth": "aberystwyth",
        "home_address": "blk",
        "f": "blk",
        "name_of_ship": "messenger",
        "ship_port": "aberystwyth",
        "date_leaving": "remains",
        "joined_ship_date": "1863-12-24",
        "joined_at_port": "cardiff",
        "capacity": "ordinary seaman",
        "date_left": "1864-08-02",
        "left_port": "ilfracombe",
        "cause_of_leaving": "discharged",
        "sign_with_mark": "n",
        "notes": "blk"
    },
    {
        "id": "vtls004929736_2_21",
        "type": "sailor",
        "parent": "vtls004929736",
        "name": "john thomas",
        "dob": "blk",
        "age": "22",
        "place_of_birth": "merioneth",
        "home_address": "blk",
        "f": "blk",
        "name_of_ship": "cambrian bell",
        "ship_port": "aberystwyth",
        "date_leaving": "1863-12-28",
        "joined_ship_date": "1863-12-28",
        "joined_at_port": "cardiff",
        "capacity": "cook",
        "date_left": "1864-04-05",
        "left_port": "nassau, germany",
        "cause_of_leaving": "joined hms vesuvius",
        "sign_with_mark": "n",
        "notes": "blk"
    },
    {
        "id": "vtls004929751_0_11",
        "type": "sailor",
        "parent": "vtls004929751",
        "name": "thomas clayton",
        "dob": "blk",
        "age": "55",
        "place_of_birth": "aberystwyth",
        "home_address": "prospect street, aberystwyth",
        "f": "prospect street, aberystwyth",
        "name_of_ship": "messenger",
        "ship_port": "aberystwyth",
        "date_leaving": "blk",
        "joined_ship_date": "blk",
        "joined_at_port": "blk",
        "capacity": "master",
        "date_left": "blk",
        "left_port": "blk",
        "cause_of_leaving": "remains on board",
        "sign_with_mark": "n",
        "notes": "blk"
    },
    {
        "id": "vtls004929736_2_16",
        "type": "sailor",
        "parent": "vtls004929736",
        "name": "william brown",
        "dob": "blk",
        "age": "25",
        "place_of_birth": "devonport",
        "home_address": "blk",
        "f": "blk",
        "name_of_ship": "[gildmaze]",
        "ship_port": "bristol",
        "date_leaving": "1863-02-19",
        "joined_ship_date": "1863-12-24",
        "joined_at_port": "cardiff",
        "capacity": "able seaman",
        "date_left": "1864-07-25",
        "left_port": "ilfracombe",
        "cause_of_leaving": "discharged",
        "sign_with_mark": "n",
        "notes": "blk"
    },
    {
        "id": "vtls004929736_2_18",
        "type": "sailor",
        "parent": "vtls004929736",
        "name": "andrew muir",
        "dob": "blk",
        "age": "18",
        "place_of_birth": "scotland",
        "home_address": "blk",
        "f": "blk",
        "name_of_ship": "rebecca",
        "ship_port": "newport",
        "date_leaving": "1863-10-12",
        "joined_ship_date": "1863-12-24",
        "joined_at_port": "cardiff",
        "capacity": "ordinary seaman",
        "date_left": "1864-07-25",
        "left_port": "ilfracombe",
        "cause_of_leaving": "discharged",
        "sign_with_mark": "y",
        "notes": "blk"
    },
    {
        "id": "vtls004929751_0_12",
        "type": "sailor",
        "parent": "vtls004929751",
        "name": "john thomas",
        "dob": "blk",
        "age": "42",
        "place_of_birth": "aberystwyth",
        "home_address": "blk",
        "f": "blk",
        "name_of_ship": "messenger",
        "ship_port": "aberystwyth",
        "date_leaving": "1867-12-20",
        "joined_ship_date": "1868-03-31",
        "joined_at_port": "aberystwyth",
        "capacity": "mate",
        "date_left": "1868-07-27",
        "left_port": "aberystwyth",
        "cause_of_leaving": "paid off",
        "sign_with_mark": "n",
        "notes": "blk"
    },
    {
        "id": "vtls004929736_2_17",
        "type": "sailor",
        "parent": "vtls004929736",
        "name": "william slater",
        "dob": "blk",
        "age": "19",
        "place_of_birth": "dover",
        "home_address": "blk",
        "f": "blk",
        "name_of_ship": "[justice]",
        "ship_port": "cardiff",
        "date_leaving": "1863-12-10",
        "joined_ship_date": "1863-12-24",
        "joined_at_port": "cardiff",
        "capacity": "ordinary seaman",
        "date_left": "1864-07-25",
        "left_port": "ilfracombe",
        "cause_of_leaving": "discharged",
        "sign_with_mark": "y",
        "notes": "blk"
    },
    {
        "id": "vtls004929736_2_20",
        "type": "sailor",
        "parent": "vtls004929736",
        "name": "daniel jones",
        "dob": "blk",
        "age": "23",
        "place_of_birth": "aberystwyth",
        "home_address": "blk",
        "f": "blk",
        "name_of_ship": "phoebe",
        "ship_port": "liverpool",
        "date_leaving": "blk",
        "joined_ship_date": "1863-12-28",
        "joined_at_port": "cardiff",
        "capacity": "able seaman",
        "date_left": "1864-07-25",
        "left_port": "ilfracombe",
        "cause_of_leaving": "discharged",
        "sign_with_mark": "y",
        "notes": "blk"
    },
    {
        "id": "vtls004929736_2_15",
        "type": "sailor",
        "parent": "vtls004929736",
        "name": "thomas marks",
        "dob": "blk",
        "age": "35",
        "place_of_birth": "bristol",
        "home_address": "blk",
        "f": "blk",
        "name_of_ship": "banner",
        "ship_port": "quebec",
        "date_leaving": "blk",
        "joined_ship_date": "1863-12-24",
        "joined_at_port": "cardiff",
        "capacity": "able seaman",
        "date_left": "1864-07-25",
        "left_port": "ilfracombe",
        "cause_of_leaving": "discharged",
        "sign_with_mark": "n",
        "notes": "blk"
    },
    {
        "id": "vtls004929751_0_19",
        "type": "sailor",
        "parent": "vtls004929751",
        "name": "david williams",
        "dob": "blk",
        "age": "16",
        "place_of_birth": "penparcau",
        "home_address": "blk",
        "f": "blk",
        "name_of_ship": "countess of bective",
        "ship_port": "sunderland",
        "date_leaving": "1868-03-",
        "joined_ship_date": "1868-03-31",
        "joined_at_port": "aberystwyth",
        "capacity": "ordinary seaman",
        "date_left": "1868-07-27",
        "left_port": "aberystwyth",
        "cause_of_leaving": "paid off",
        "sign_with_mark": "n",
        "notes": "blk"
    },
    {
        "id": "vtls004929751_0_13",
        "type": "sailor",
        "parent": "vtls004929751",
        "name": "john clayton",
        "dob": "blk",
        "age": "21",
        "place_of_birth": "aberystwyth",
        "home_address": "blk",
        "f": "blk",
        "name_of_ship": "messenger",
        "ship_port": "aberystwyth",
        "date_leaving": "1867-12-20",
        "joined_ship_date": "1868-03-31",
        "joined_at_port": "aberystwyth",
        "capacity": "2nd mate",
        "date_left": "1868-07-27",
        "left_port": "aberystwyth",
        "cause_of_leaving": "paid off",
        "sign_with_mark": "n",
        "notes": "blk"
    },
    {
        "id": "vtls004929751_0_18",
        "type": "sailor",
        "parent": "vtls004929751",
        "name": "john davies",
        "dob": "blk",
        "age": "19",
        "place_of_birth": "aberystwyth",
        "home_address": "blk",
        "f": "blk",
        "name_of_ship": "messenger",
        "ship_port": "aberystwyth",
        "date_leaving": "1867-12-20",
        "joined_ship_date": "1868-03-31",
        "joined_at_port": "aberystwyth",
        "capacity": "ordinary seaman",
        "date_left": "1868-07-27",
        "left_port": "aberystwyth",
        "cause_of_leaving": "paid off",
        "sign_with_mark": "n",
        "notes": "blk"
    },
    {
        "id": "vtls004929751_0_14",
        "type": "sailor",
        "parent": "vtls004929751",
        "name": "william lewis",
        "dob": "blk",
        "age": "30",
        "place_of_birth": "llanbadarn fawr",
        "home_address": "blk",
        "f": "blk",
        "name_of_ship": "mary ann",
        "ship_port": "aberystwyth",
        "date_leaving": "1867-06-",
        "joined_ship_date": "1868-03-31",
        "joined_at_port": "aberystwyth",
        "capacity": "carpenter",
        "date_left": "1868-07-27",
        "left_port": "aberystwyth",
        "cause_of_leaving": "paid off",
        "sign_with_mark": "n",
        "notes": "blk"
    },
    {
        "id": "vtls004929751_0_17",
        "type": "sailor",
        "parent": "vtls004929751",
        "name": "david jenkins",
        "dob": "blk",
        "age": "19",
        "place_of_birth": "borth",
        "home_address": "blk",
        "f": "blk",
        "name_of_ship": "jane ellen",
        "ship_port": "aberystwyth",
        "date_leaving": "1867-12-",
        "joined_ship_date": "1868-03-31",
        "joined_at_port": "aberystwyth",
        "capacity": "ordinary seaman",
        "date_left": "1868-07-27",
        "left_port": "aberystwyth",
        "cause_of_leaving": "paid off",
        "sign_with_mark": "n",
        "notes": "blk"
    },
    {
        "id": "vtls004929751_0_20",
        "type": "sailor",
        "parent": "vtls004929751",
        "name": "john davies",
        "dob": "blk",
        "age": "14",
        "place_of_birth": "borth",
        "home_address": "blk",
        "f": "blk",
        "name_of_ship": "escape",
        "ship_port": "liverpool",
        "date_leaving": "1868-01-01",
        "joined_ship_date": "1868-03-31",
        "joined_at_port": "aberystwyth",
        "capacity": "cook & steward",
        "date_left": "1868-07-27",
        "left_port": "aberystwyth",
        "cause_of_leaving": "paid off",
        "sign_with_mark": "n",
        "notes": "blk"
    },
    {
        "id": "vtls004929751_0_15",
        "type": "sailor",
        "parent": "vtls004929751",
        "name": "david arter",
        "dob": "blk",
        "age": "22",
        "place_of_birth": "borth",
        "home_address": "blk",
        "f": "blk",
        "name_of_ship": "messenger",
        "ship_port": "aberystwyth",
        "date_leaving": "1867-12-20",
        "joined_ship_date": "1868-03-31",
        "joined_at_port": "aberystwyth",
        "capacity": "able seaman",
        "date_left": "1868-07-27",
        "left_port": "aberystwyth",
        "cause_of_leaving": "paid off",
        "sign_with_mark": "n",
        "notes": "blk"
    },
    {
        "id": "vtls004929751_0_16",
        "type": "sailor",
        "parent": "vtls004929751",
        "name": "david owens",
        "dob": "blk",
        "age": "28",
        "place_of_birth": "llanon",
        "home_address": "blk",
        "f": "blk",
        "name_of_ship": "mary ismay",
        "ship_port": "llannon",
        "date_leaving": "1867-12-30",
        "joined_ship_date": "1868-03-31",
        "joined_at_port": "aberystwyth",
        "capacity": "able seaman",
        "date_left": "1868-07-27",
        "left_port": "aberystwyth",
        "cause_of_leaving": "paid off",
        "sign_with_mark": "n",
        "notes": "blk"
    },
    {
        "id": "vtls004929751_1_16",
        "type": "sailor",
        "parent": "vtls004929751",
        "name": "thomas clayton",
        "dob": "blk",
        "age": "18",
        "place_of_birth": "aberystwyth",
        "home_address": "blk",
        "f": "blk",
        "name_of_ship": "sir john mandeville",
        "ship_port": "liverpool",
        "date_leaving": "1868-05-",
        "joined_ship_date": "1868-08-03",
        "joined_at_port": "aberystwyth",
        "capacity": "ordinary seaman",
        "date_left": "1868-12-18",
        "left_port": "pwllheli",
        "cause_of_leaving": "paid off",
        "sign_with_mark": "n",
        "notes": "blk"
    },
    {
        "id": "vtls004929751_1_11",
        "type": "sailor",
        "parent": "vtls004929751",
        "name": "thomas clayton",
        "dob": "blk",
        "age": "55",
        "place_of_birth": "aberystwyth",
        "home_address": "no 8 shipbuilders row, aberystwyth",
        "f": "no 8 shipbuilders row, aberystwyth",
        "name_of_ship": "messenger",
        "ship_port": "aberystwyth",
        "date_leaving": "remains",
        "joined_ship_date": "blk",
        "joined_at_port": "blk",
        "capacity": "master",
        "date_left": "blk",
        "left_port": "blk",
        "cause_of_leaving": "remains on board",
        "sign_with_mark": "n",
        "notes": "blk"
    },
    {
        "id": "vtls004929751_1_20",
        "type": "sailor",
        "parent": "vtls004929751",
        "name": "david morgans",
        "dob": "blk",
        "age": "16",
        "place_of_birth": "aberystwyth",
        "home_address": "blk",
        "f": "blk",
        "name_of_ship": "two sisters",
        "ship_port": "aberystwyth",
        "date_leaving": "1868-07-13",
        "joined_ship_date": "1868-08-03",
        "joined_at_port": "aberystwyth",
        "capacity": "cook and sreward",
        "date_left": "1868-12-17",
        "left_port": "pwllheli",
        "cause_of_leaving": "paid off",
        "sign_with_mark": "y",
        "notes": "blk"
    },
    {
        "id": "vtls004929751_1_18",
        "type": "sailor",
        "parent": "vtls004929751",
        "name": "david williams",
        "dob": "blk",
        "age": "17",
        "place_of_birth": "penparcau",
        "home_address": "blk",
        "f": "blk",
        "name_of_ship": "messenger",
        "ship_port": "aberystwyth",
        "date_leaving": "1868-07-27",
        "joined_ship_date": "1868-08-03",
        "joined_at_port": "aberystwyth",
        "capacity": "ordinary seaman",
        "date_left": "1868-12-17",
        "left_port": "pwllheli",
        "cause_of_leaving": "paid off",
        "sign_with_mark": "n",
        "notes": "blk"
    },
    {
        "id": "vtls004929751_1_14",
        "type": "sailor",
        "parent": "vtls004929751",
        "name": "william lewis",
        "dob": "blk",
        "age": "30",
        "place_of_birth": "llanbadarn fawr",
        "home_address": "blk",
        "f": "blk",
        "name_of_ship": "messenger",
        "ship_port": "aberystwyth",
        "date_leaving": "1868-07-27",
        "joined_ship_date": "1868-08-03",
        "joined_at_port": "aberystwyth",
        "capacity": "carpenter",
        "date_left": "1868-12-17",
        "left_port": "pwllheli",
        "cause_of_leaving": "paid off",
        "sign_with_mark": "n",
        "notes": "blk"
    },
    {
        "id": "vtls004929751_1_13",
        "type": "sailor",
        "parent": "vtls004929751",
        "name": "john clayton",
        "dob": "blk",
        "age": "21",
        "place_of_birth": "aberystwyth",
        "home_address": "blk",
        "f": "blk",
        "name_of_ship": "messenger",
        "ship_port": "aberystwyth",
        "date_leaving": "1868-07-27",
        "joined_ship_date": "1868-08-03",
        "joined_at_port": "aberystwyth",
        "capacity": "2nd mate",
        "date_left": "1868-12-18",
        "left_port": "pwllheli",
        "cause_of_leaving": "paid off",
        "sign_with_mark": "n",
        "notes": "blk"
    },
    {
        "id": "vtls004929751_1_17",
        "type": "sailor",
        "parent": "vtls004929751",
        "name": "john davies",
        "dob": "blk",
        "age": "18",
        "place_of_birth": "aberystwyth",
        "home_address": "blk",
        "f": "blk",
        "name_of_ship": "messenger",
        "ship_port": "aberystwyth",
        "date_leaving": "1868-07-27",
        "joined_ship_date": "1868-08-03",
        "joined_at_port": "aberystwyth",
        "capacity": "ordinary seaman",
        "date_left": "1868-12-17",
        "left_port": "pwllheli",
        "cause_of_leaving": "paid off",
        "sign_with_mark": "n",
        "notes": "blk"
    },
    {
        "id": "vtls004929751_1_12",
        "type": "sailor",
        "parent": "vtls004929751",
        "name": "john thomas",
        "dob": "blk",
        "age": "42",
        "place_of_birth": "aberystwyth",
        "home_address": "blk",
        "f": "blk",
        "name_of_ship": "messenger",
        "ship_port": "aberystwyth",
        "date_leaving": "1868-07-27",
        "joined_ship_date": "1868-08-03",
        "joined_at_port": "aberystwyth",
        "capacity": "mate",
        "date_left": "1868-12-18",
        "left_port": "pwllheli",
        "cause_of_leaving": "paid off",
        "sign_with_mark": "n",
        "notes": "blk"
    },
    {
        "id": "vtls004929751_1_19",
        "type": "sailor",
        "parent": "vtls004929751",
        "name": "david owens",
        "dob": "blk",
        "age": "29",
        "place_of_birth": "llanon",
        "home_address": "blk",
        "f": "blk",
        "name_of_ship": "messenger",
        "ship_port": "aberystwyth",
        "date_leaving": "1868-07-27",
        "joined_ship_date": "1868-08-03",
        "joined_at_port": "aberystwyth",
        "capacity": "able seaman",
        "date_left": "1868-12-17",
        "left_port": "pwllheli",
        "cause_of_leaving": "paid off",
        "sign_with_mark": "n",
        "notes": "blk"
    },
    {
        "id": "vtls004929751_1_15",
        "type": "sailor",
        "parent": "vtls004929751",
        "name": "john evans",
        "dob": "blk",
        "age": "23",
        "place_of_birth": "aberystwyth",
        "home_address": "blk",
        "f": "blk",
        "name_of_ship": "glenmark",
        "ship_port": "london",
        "date_leaving": "1868-06-21",
        "joined_ship_date": "1868-08-03",
        "joined_at_port": "aberystwyth",
        "capacity": "able seaman",
        "date_left": "1868-12-17",
        "left_port": "pwllheli",
        "cause_of_leaving": "paid off",
        "sign_with_mark": "n",
        "notes": "blk"
    },
    {
        "id": "vtls004929770_0_13",
        "type": "sailor",
        "parent": "vtls004929770",
        "name": "john clayton",
        "dob": "blk",
        "age": "22",
        "place_of_birth": "aberystwyth",
        "home_address": "blk",
        "f": "blk",
        "name_of_ship": "messenger",
        "ship_port": "aberystwyth",
        "date_leaving": "[1868-12-17]",
        "joined_ship_date": "1869-04-06",
        "joined_at_port": "pwllheli",
        "capacity": "2nd mate",
        "date_left": "1869-08-05",
        "left_port": "caernarfon",
        "cause_of_leaving": "discharged",
        "sign_with_mark": "n",
        "notes": "certificate no: 84405"
    },
    {
        "id": "vtls004929770_0_12",
        "type": "sailor",
        "parent": "vtls004929770",
        "name": "john edwards",
        "dob": "blk",
        "age": "24",
        "place_of_birth": "aberystwyth",
        "home_address": "blk",
        "f": "blk",
        "name_of_ship": "ford mill",
        "ship_port": "swansea 13998",
        "date_leaving": "1869-03-11",
        "joined_ship_date": "1869-04-05",
        "joined_at_port": "pwllheli",
        "capacity": "mate",
        "date_left": "1869-08-05",
        "left_port": "caernarfon",
        "cause_of_leaving": "discharged",
        "sign_with_mark": "n",
        "notes": "certificate no: 87024"
    },
    {
        "id": "vtls004929770_0_15",
        "type": "sailor",
        "parent": "vtls004929770",
        "name": "thomas clayton",
        "dob": "blk",
        "age": "19",
        "place_of_birth": "aberystwyth",
        "home_address": "blk",
        "f": "blk",
        "name_of_ship": "messenger",
        "ship_port": "aberystwyth 41582",
        "date_leaving": "1868-12-17",
        "joined_ship_date": "1869-04-05",
        "joined_at_port": "pwllheli",
        "capacity": "able seaman",
        "date_left": "1869-08-05",
        "left_port": "caernarfon",
        "cause_of_leaving": "discharged",
        "sign_with_mark": "n",
        "notes": "blk"
    },
    {
        "id": "vtls004929770_0_17",
        "type": "sailor",
        "parent": "vtls004929770",
        "name": "john davies",
        "dob": "blk",
        "age": "20",
        "place_of_birth": "aberystwyth",
        "home_address": "blk",
        "f": "blk",
        "name_of_ship": "messenger",
        "ship_port": "aberystwyth 41582",
        "date_leaving": "1868-12-17",
        "joined_ship_date": "1869-04-05",
        "joined_at_port": "pwllheli",
        "capacity": "cook & steward",
        "date_left": "1869-08-04",
        "left_port": "caernarfon",
        "cause_of_leaving": "discharged",
        "sign_with_mark": "n",
        "notes": "blk"
    },
    {
        "id": "vtls004929770_0_16",
        "type": "sailor",
        "parent": "vtls004929770",
        "name": "owen evans",
        "dob": "blk",
        "age": "23",
        "place_of_birth": "pwllheli",
        "home_address": "blk",
        "f": "blk",
        "name_of_ship": "laura williams",
        "ship_port": "caernarvon 20659",
        "date_leaving": "[1868-12-24]",
        "joined_ship_date": "1869-04-05",
        "joined_at_port": "pwllheli",
        "capacity": "able seaman",
        "date_left": "1869-08-04",
        "left_port": "caernarfon",
        "cause_of_leaving": "discharged",
        "sign_with_mark": "n",
        "notes": "blk"
    },
    {
        "id": "vtls004929770_0_18",
        "type": "sailor",
        "parent": "vtls004929770",
        "name": "thomas griffiths",
        "dob": "blk",
        "age": "18",
        "place_of_birth": "llangian",
        "home_address": "blk",
        "f": "blk",
        "name_of_ship": "eagle",
        "ship_port": "caernarvon 3642",
        "date_leaving": "1868-12-10",
        "joined_ship_date": "1869-04-05",
        "joined_at_port": "pwllheli",
        "capacity": "ordinary seaman",
        "date_left": "1869-08-04",
        "left_port": "caernarfon",
        "cause_of_leaving": "discharged",
        "sign_with_mark": "n",
        "notes": "blk"
    },
    {
        "id": "vtls004929770_0_11",
        "type": "sailor",
        "parent": "vtls004929770",
        "name": "thomas clayton",
        "dob": "blk",
        "age": "56",
        "place_of_birth": "aberystwyth",
        "home_address": "raydol aberystwith",
        "f": "raydol aberystwith",
        "name_of_ship": "messenger",
        "ship_port": "aberystwyth",
        "date_leaving": "continues",
        "joined_ship_date": "continues",
        "joined_at_port": "blk",
        "capacity": "master",
        "date_left": "remains",
        "left_port": "blk",
        "cause_of_leaving": "remains on board",
        "sign_with_mark": "n",
        "notes": "blk"
    },
    {
        "id": "vtls004929820_0_11",
        "type": "sailor",
        "parent": "vtls004929820",
        "name": "james b 0'brian",
        "dob": "blk",
        "age": "39",
        "place_of_birth": "st john newfoundland",
        "home_address": "blk",
        "f": "blk",
        "name_of_ship": "lizzie",
        "ship_port": "halifax",
        "date_leaving": "1872-06-13",
        "joined_ship_date": "1872-04-18",
        "joined_at_port": "halifax nova scotia",
        "capacity": "master",
        "date_left": "187[3]-01-05",
        "left_port": "liverpool",
        "cause_of_leaving": "remains on board",
        "sign_with_mark": "n",
        "notes": "blk"
    },
    {
        "id": "vtls004929820_0_14",
        "type": "sailor",
        "parent": "vtls004929820",
        "name": "james dickberlet",
        "dob": "blk",
        "age": "47",
        "place_of_birth": "edinburgh",
        "home_address": "blk",
        "f": "blk",
        "name_of_ship": "m.e. purney",
        "ship_port": "blk",
        "date_leaving": "1872",
        "joined_ship_date": "1872-04-18",
        "joined_at_port": "halifax nova scotia",
        "capacity": "cook & steward",
        "date_left": "187[3]-01-05",
        "left_port": "liverpool",
        "cause_of_leaving": "discharged",
        "sign_with_mark": "n",
        "notes": "blk"
    },
    {
        "id": "vtls004929770_0_20",
        "type": "sailor",
        "parent": "vtls004929770",
        "name": "thomas morris",
        "dob": "blk",
        "age": "24",
        "place_of_birth": "aberystwyth",
        "home_address": "blk",
        "f": "blk",
        "name_of_ship": "oneida",
        "ship_port": "aberystwith 55977",
        "date_leaving": "1869-02-09",
        "joined_ship_date": "1869-04-06",
        "joined_at_port": "pwllheli",
        "capacity": "able seaman",
        "date_left": "1869-08-04",
        "left_port": "caernarfon",
        "cause_of_leaving": "discharged",
        "sign_with_mark": "n",
        "notes": "blk"
    },
    {
        "id": "vtls004929820_0_15",
        "type": "sailor",
        "parent": "vtls004929820",
        "name": "edward mccloskey",
        "dob": "blk",
        "age": "38",
        "place_of_birth": "ireland",
        "home_address": "blk",
        "f": "blk",
        "name_of_ship": "messenger",
        "ship_port": "aberystwyth",
        "date_leaving": "1872",
        "joined_ship_date": "1872-09-05",
        "joined_at_port": "monte video",
        "capacity": "able seaman",
        "date_left": "187[3]-01-05",
        "left_port": "liverpool",
        "cause_of_leaving": "discharged",
        "sign_with_mark": "n",
        "notes": "blk"
    },
    {
        "id": "vtls004929820_0_12",
        "type": "sailor",
        "parent": "vtls004929820",
        "name": "henry james",
        "dob": "blk",
        "age": "35",
        "place_of_birth": "windsor",
        "home_address": "blk",
        "f": "blk",
        "name_of_ship": "messenger",
        "ship_port": "aberystwyth",
        "date_leaving": "1872",
        "joined_ship_date": "1872-04-18",
        "joined_at_port": "halifax nova scotia",
        "capacity": "mate",
        "date_left": "187[3]-01-05",
        "left_port": "liverpool",
        "cause_of_leaving": "discharged",
        "sign_with_mark": "n",
        "notes": "blk"
    },
    {
        "id": "vtls004929770_0_19",
        "type": "sailor",
        "parent": "vtls004929770",
        "name": "evan jones",
        "dob": "blk",
        "age": "18",
        "place_of_birth": "caernarfon",
        "home_address": "blk",
        "f": "blk",
        "name_of_ship": "mary & jane",
        "ship_port": "caernarvon",
        "date_leaving": "1868-12-25",
        "joined_ship_date": "1869-04-05",
        "joined_at_port": "pwllheli",
        "capacity": "ordinary seaman",
        "date_left": "1869-08-04",
        "left_port": "caernarfon",
        "cause_of_leaving": "discharged",
        "sign_with_mark": "n",
        "notes": "blk"
    },
    {
        "id": "vtls004929820_0_17",
        "type": "sailor",
        "parent": "vtls004929820",
        "name": "carles holster",
        "dob": "blk",
        "age": "30",
        "place_of_birth": "hamburg",
        "home_address": "blk",
        "f": "blk",
        "name_of_ship": "[rhode] jacob",
        "ship_port": "blk",
        "date_leaving": "1872",
        "joined_ship_date": "1872-09-07",
        "joined_at_port": "monte video",
        "capacity": "able seaman",
        "date_left": "187[3]-01-05",
        "left_port": "liverpool",
        "cause_of_leaving": "discharged",
        "sign_with_mark": "n",
        "notes": "blk"
    },
    {
        "id": "vtls004929820_0_16",
        "type": "sailor",
        "parent": "vtls004929820",
        "name": "william anderson",
        "dob": "blk",
        "age": "28",
        "place_of_birth": "scotland",
        "home_address": "blk",
        "f": "blk",
        "name_of_ship": "[germita]",
        "ship_port": "blk",
        "date_leaving": "1872",
        "joined_ship_date": "1872-09-07",
        "joined_at_port": "monte video",
        "capacity": "able seaman",
        "date_left": "187[3]-01-05",
        "left_port": "liverpool",
        "cause_of_leaving": "discharged",
        "sign_with_mark": "n",
        "notes": "blk"
    },
    {
        "id": "vtls004929820_0_13",
        "type": "sailor",
        "parent": "vtls004929820",
        "name": "c huilt",
        "dob": "blk",
        "age": "28",
        "place_of_birth": "hanover",
        "home_address": "blk",
        "f": "blk",
        "name_of_ship": "premier",
        "ship_port": "blk",
        "date_leaving": "1872",
        "joined_ship_date": "1872-04-18",
        "joined_at_port": "halifax nova scotia",
        "capacity": "2nd mate",
        "date_left": "187[3]-01-05",
        "left_port": "liverpool",
        "cause_of_leaving": "discharged",
        "sign_with_mark": "n",
        "notes": "blk"
    },
    {
        "id": "vtls004929820_0_19",
        "type": "sailor",
        "parent": "vtls004929820",
        "name": "william gannon",
        "dob": "blk",
        "age": "26",
        "place_of_birth": "london",
        "home_address": "blk",
        "f": "blk",
        "name_of_ship": "six brothers",
        "ship_port": "blk",
        "date_leaving": "1872",
        "joined_ship_date": "1872-04-10",
        "joined_at_port": "halifax nova scotia",
        "capacity": "able seaman",
        "date_left": "1872-08-19",
        "left_port": "buenos aires",
        "cause_of_leaving": "discharged",
        "sign_with_mark": "n",
        "notes": "blk"
    },
    {
        "id": "vtls004929820_0_22",
        "type": "sailor",
        "parent": "vtls004929820",
        "name": "francis higgins",
        "dob": "blk",
        "age": "26",
        "place_of_birth": "bristol",
        "home_address": "blk",
        "f": "blk",
        "name_of_ship": "montrose",
        "ship_port": "blk",
        "date_leaving": "1872",
        "joined_ship_date": "1872-04-10",
        "joined_at_port": "halifax nova scotia",
        "capacity": "able seaman",
        "date_left": "1872-08-19",
        "left_port": "buenos aires",
        "cause_of_leaving": "discharged",
        "sign_with_mark": "n",
        "notes": "blk"
    },
    {
        "id": "vtls004929820_0_21",
        "type": "sailor",
        "parent": "vtls004929820",
        "name": "neil mccullum",
        "dob": "blk",
        "age": "18",
        "place_of_birth": "greenwich",
        "home_address": "blk",
        "f": "blk",
        "name_of_ship": "empress",
        "ship_port": "blk",
        "date_leaving": "1872",
        "joined_ship_date": "1872-04-10",
        "joined_at_port": "halifax nova scotia",
        "capacity": "able seaman",
        "date_left": "1872-08-19",
        "left_port": "buenos aires",
        "cause_of_leaving": "discharged",
        "sign_with_mark": "n",
        "notes": "blk"
    },
    {
        "id": "vtls004929820_0_20",
        "type": "sailor",
        "parent": "vtls004929820",
        "name": "robert dunn",
        "dob": "blk",
        "age": "26",
        "place_of_birth": "liverpool",
        "home_address": "blk",
        "f": "blk",
        "name_of_ship": "wennona",
        "ship_port": "blk",
        "date_leaving": "1872",
        "joined_ship_date": "1872-04-10",
        "joined_at_port": "halifax nova scotia",
        "capacity": "able seaman",
        "date_left": "1872-08-19",
        "left_port": "buenos aires",
        "cause_of_leaving": "deserted",
        "sign_with_mark": "n",
        "notes": "blk"
    },
    {
        "id": "vtls004929820_0_23",
        "type": "sailor",
        "parent": "vtls004929820",
        "name": "edwin doliver",
        "dob": "blk",
        "age": "19",
        "place_of_birth": "london",
        "home_address": "blk",
        "f": "blk",
        "name_of_ship": "bessie",
        "ship_port": "blk",
        "date_leaving": "1872",
        "joined_ship_date": "1872-04-10",
        "joined_at_port": "halifax nova scotia",
        "capacity": "able seaman",
        "date_left": "1872-08-19",
        "left_port": "buenos aires",
        "cause_of_leaving": "discharged",
        "sign_with_mark": "n",
        "notes": "blk"
    },
    {
        "id": "vtls004929820_0_24",
        "type": "sailor",
        "parent": "vtls004929820",
        "name": "james comey",
        "dob": "blk",
        "age": "19",
        "place_of_birth": "scotland",
        "home_address": "blk",
        "f": "blk",
        "name_of_ship": "bessie",
        "ship_port": "blk",
        "date_leaving": "1872",
        "joined_ship_date": "1872-04-10",
        "joined_at_port": "halifax nova scotia",
        "capacity": "able seaman",
        "date_left": "1872-10-14",
        "left_port": "pernambuco",
        "cause_of_leaving": "discharged",
        "sign_with_mark": "n",
        "notes": "blk"
    },
    {
        "id": "vtls004929820_0_18",
        "type": "sailor",
        "parent": "vtls004929820",
        "name": "james thomas",
        "dob": "blk",
        "age": "22",
        "place_of_birth": "england",
        "home_address": "blk",
        "f": "blk",
        "name_of_ship": "bessie",
        "ship_port": "blk",
        "date_leaving": "1872",
        "joined_ship_date": "1872-09-05",
        "joined_at_port": "monte video",
        "capacity": "able seaman",
        "date_left": "187[3]-01-05",
        "left_port": "liverpool",
        "cause_of_leaving": "discharged",
        "sign_with_mark": "n",
        "notes": "blk"
    },
    {
        "id": "vtls004929820_0_25",
        "type": "sailor",
        "parent": "vtls004929820",
        "name": "frank mills",
        "dob": "blk",
        "age": "26",
        "place_of_birth": "england",
        "home_address": "blk",
        "f": "blk",
        "name_of_ship": "blk",
        "ship_port": "blk",
        "date_leaving": "1872",
        "joined_ship_date": "1872-09-07",
        "joined_at_port": "monte video",
        "capacity": "able seaman",
        "date_left": "did not join",
        "left_port": "did not join",
        "cause_of_leaving": "did not join",
        "sign_with_mark": "n",
        "notes": "blk"
    },
    {
        "id": "vtls004929820_2_12",
        "type": "sailor",
        "parent": "vtls004929820",
        "name": "evan davies",
        "dob": "blk",
        "age": "44",
        "place_of_birth": "aberaeron",
        "home_address": "blk",
        "f": "blk",
        "name_of_ship": "elizabeth alice",
        "ship_port": "lancaster",
        "date_leaving": "1873",
        "joined_ship_date": "1873-06-13",
        "joined_at_port": "swansea",
        "capacity": "boatswain & mate",
        "date_left": "1873-11-24",
        "left_port": "liverpool",
        "cause_of_leaving": "discharged",
        "sign_with_mark": "n",
        "notes": "blk"
    },
    {
        "id": "vtls004929820_2_11",
        "type": "sailor",
        "parent": "vtls004929820",
        "name": "james richards",
        "dob": "blk",
        "age": "53",
        "place_of_birth": "st dogmaels",
        "home_address": "$ matthew street, swansea",
        "f": "$ matthew street, swansea",
        "name_of_ship": "clara",
        "ship_port": "st. johns",
        "date_leaving": "1873",
        "joined_ship_date": "1873-06-12",
        "joined_at_port": "swansea",
        "capacity": "master",
        "date_left": "blk",
        "left_port": "blk",
        "cause_of_leaving": "remains on board",
        "sign_with_mark": "n",
        "notes": "blk"
    },
    {
        "id": "vtls004929820_1_14",
        "type": "sailor",
        "parent": "vtls004929820",
        "name": "charles robinson",
        "dob": "blk",
        "age": "21",
        "place_of_birth": "portaferry",
        "home_address": "blk",
        "f": "blk",
        "name_of_ship": "nagpore",
        "ship_port": "liverpool",
        "date_leaving": "1872-12-22",
        "joined_ship_date": "1873-03-26",
        "joined_at_port": "liverpool",
        "capacity": "able seaman",
        "date_left": "1873-06-10",
        "left_port": "swansea",
        "cause_of_leaving": "discharged",
        "sign_with_mark": "n",
        "notes": "blk"
    },
    {
        "id": "vtls004929820_1_17",
        "type": "sailor",
        "parent": "vtls004929820",
        "name": "william clark",
        "dob": "blk",
        "age": "21",
        "place_of_birth": "islandmagee",
        "home_address": "blk",
        "f": "blk",
        "name_of_ship": "humber",
        "ship_port": "belfast",
        "date_leaving": "1872-12-13",
        "joined_ship_date": "1873-03-26",
        "joined_at_port": "liverpool",
        "capacity": "able seaman",
        "date_left": "1873-06-10",
        "left_port": "swansea",
        "cause_of_leaving": "discharged",
        "sign_with_mark": "n",
        "notes": "blk"
    },
    {
        "id": "vtls004929820_1_16",
        "type": "sailor",
        "parent": "vtls004929820",
        "name": "bernard breen",
        "dob": "blk",
        "age": "24",
        "place_of_birth": "portaferry",
        "home_address": "blk",
        "f": "blk",
        "name_of_ship": "nagpore",
        "ship_port": "liverpool",
        "date_leaving": "1872-12-22",
        "joined_ship_date": "1873-03-26",
        "joined_at_port": "liverpool",
        "capacity": "able seaman",
        "date_left": "1873-06-10",
        "left_port": "swansea",
        "cause_of_leaving": "discharged",
        "sign_with_mark": "n",
        "notes": "blk"
    },
    {
        "id": "vtls004929820_1_18",
        "type": "sailor",
        "parent": "vtls004929820",
        "name": "charles matherton",
        "dob": "blk",
        "age": "19",
        "place_of_birth": "crobstown",
        "home_address": "blk",
        "f": "blk",
        "name_of_ship": "first ship",
        "ship_port": "first ship",
        "date_leaving": "first ship",
        "joined_ship_date": "1873-04-10",
        "joined_at_port": "barrow",
        "capacity": "cook",
        "date_left": "1873-06-10",
        "left_port": "swansea",
        "cause_of_leaving": "discharged",
        "sign_with_mark": "n",
        "notes": "blk"
    },
    {
        "id": "vtls004929820_1_11",
        "type": "sailor",
        "parent": "vtls004929820",
        "name": "joseph vickers",
        "dob": "blk",
        "age": "34",
        "place_of_birth": "connahs quay",
        "home_address": "blk",
        "f": "blk",
        "name_of_ship": "problem",
        "ship_port": "runcorn",
        "date_leaving": "1873-03-17",
        "joined_ship_date": "1873-03-18",
        "joined_at_port": "liverpool",
        "capacity": "master",
        "date_left": "1873-06-10",
        "left_port": "swansea",
        "cause_of_leaving": "discharged",
        "sign_with_mark": "n",
        "notes": "blk"
    },
    {
        "id": "vtls004929820_1_12",
        "type": "sailor",
        "parent": "vtls004929820",
        "name": "james davies",
        "dob": "blk",
        "age": "32",
        "place_of_birth": "connahs quay",
        "home_address": "blk",
        "f": "blk",
        "name_of_ship": "jane hughes",
        "ship_port": "chester",
        "date_leaving": "1873-03-24",
        "joined_ship_date": "1873-03-26",
        "joined_at_port": "liverpool",
        "capacity": "mate",
        "date_left": "1873-06-10",
        "left_port": "swansea",
        "cause_of_leaving": "discharged",
        "sign_with_mark": "n",
        "notes": "blk"
    },
    {
        "id": "vtls004929820_1_15",
        "type": "sailor",
        "parent": "vtls004929820",
        "name": "james mcnamara",
        "dob": "blk",
        "age": "24",
        "place_of_birth": "portaferry",
        "home_address": "blk",
        "f": "blk",
        "name_of_ship": "ann",
        "ship_port": "portaferry",
        "date_leaving": "1873-03-04",
        "joined_ship_date": "1873-03-26",
        "joined_at_port": "liverpool",
        "capacity": "able seaman",
        "date_left": "1873-06-10",
        "left_port": "swansea",
        "cause_of_leaving": "discharged",
        "sign_with_mark": "n",
        "notes": "blk"
    },
    {
        "id": "vtls004929820_1_13",
        "type": "sailor",
        "parent": "vtls004929820",
        "name": "william green",
        "dob": "blk",
        "age": "54",
        "place_of_birth": "preston",
        "home_address": "blk",
        "f": "blk",
        "name_of_ship": "laconia",
        "ship_port": "blk",
        "date_leaving": "1873-02-01",
        "joined_ship_date": "1873-03-26",
        "joined_at_port": "liverpool",
        "capacity": "able seaman",
        "date_left": "1873-04-28",
        "left_port": "barrow",
        "cause_of_leaving": "discharged",
        "sign_with_mark": "n",
        "notes": "blk"
    },
    {
        "id": "vtls004929820_2_18",
        "type": "sailor",
        "parent": "vtls004929820",
        "name": "charles robinson",
        "dob": "blk",
        "age": "21",
        "place_of_birth": "portaferry",
        "home_address": "blk",
        "f": "blk",
        "name_of_ship": "messenger",
        "ship_port": "aberystwyth",
        "date_leaving": "1873",
        "joined_ship_date": "1873-06-12",
        "joined_at_port": "swansea",
        "capacity": "able seaman",
        "date_left": "1873-11-24",
        "left_port": "liverpool",
        "cause_of_leaving": "discharged",
        "sign_with_mark": "n",
        "notes": "blk"
    },
    {
        "id": "vtls004929820_2_17",
        "type": "sailor",
        "parent": "vtls004929820",
        "name": "bernard bran",
        "dob": "blk",
        "age": "21",
        "place_of_birth": "county down",
        "home_address": "blk",
        "f": "blk",
        "name_of_ship": "messenger",
        "ship_port": "aberystwyth",
        "date_leaving": "1873",
        "joined_ship_date": "1873-06-12",
        "joined_at_port": "swansea",
        "capacity": "able seaman",
        "date_left": "1873-11-24",
        "left_port": "liverpool",
        "cause_of_leaving": "discharged",
        "sign_with_mark": "n",
        "notes": "blk"
    },
    {
        "id": "vtls004929820_2_14",
        "type": "sailor",
        "parent": "vtls004929820",
        "name": "james davies",
        "dob": "blk",
        "age": "32",
        "place_of_birth": "chester",
        "home_address": "blk",
        "f": "blk",
        "name_of_ship": "jane hughes",
        "ship_port": "carnarvon",
        "date_leaving": "1873",
        "joined_ship_date": "1873-06-12",
        "joined_at_port": "swansea",
        "capacity": "cook & steward",
        "date_left": "1873-11-24",
        "left_port": "liverpool",
        "cause_of_leaving": "discharged",
        "sign_with_mark": "n",
        "notes": "blk"
    },
    {
        "id": "vtls004929820_2_13",
        "type": "sailor",
        "parent": "vtls004929820",
        "name": "joseph vickers",
        "dob": "blk",
        "age": "35",
        "place_of_birth": "connahs quay",
        "home_address": "blk",
        "f": "blk",
        "name_of_ship": "messenger",
        "ship_port": "aberystwyth",
        "date_leaving": "1873",
        "joined_ship_date": "1873-06-12",
        "joined_at_port": "swansea",
        "capacity": "purser",
        "date_left": "1873-11-24",
        "left_port": "liverpool",
        "cause_of_leaving": "discharged",
        "sign_with_mark": "n",
        "notes": "blk"
    },
    {
        "id": "vtls004929820_2_15",
        "type": "sailor",
        "parent": "vtls004929820",
        "name": "joseph j clarke",
        "dob": "blk",
        "age": "22",
        "place_of_birth": "antrim",
        "home_address": "blk",
        "f": "blk",
        "name_of_ship": "messenger",
        "ship_port": "aberystwyth",
        "date_leaving": "1873",
        "joined_ship_date": "1873-06-12",
        "joined_at_port": "swansea",
        "capacity": "able seaman",
        "date_left": "1873-11-24",
        "left_port": "liverpool",
        "cause_of_leaving": "discharged",
        "sign_with_mark": "n",
        "notes": "blk"
    },
    {
        "id": "vtls004929820_2_16",
        "type": "sailor",
        "parent": "vtls004929820",
        "name": "j mcnamara",
        "dob": "blk",
        "age": "25",
        "place_of_birth": "portaferry",
        "home_address": "blk",
        "f": "blk",
        "name_of_ship": "messenger",
        "ship_port": "aberystwyth",
        "date_leaving": "1873",
        "joined_ship_date": "1873-06-12",
        "joined_at_port": "swansea",
        "capacity": "able seaman",
        "date_left": "1873-11-24",
        "left_port": "liverpool",
        "cause_of_leaving": "discharged",
        "sign_with_mark": "n",
        "notes": "blk"
    }
]