[
    {
        "id": "vtls004624223_1_11",
        "type": "sailor",
        "parent": "vtls004624223",
        "name": "jenkin williams",
        "dob": "blk",
        "age": "38",
        "place_of_birth": "aberaeron",
        "home_address": "blk",
        "f": "blk",
        "name_of_ship": "atlantic",
        "ship_port": "aberystwyth",
        "date_leaving": "blk",
        "joined_ship_date": "1863-06-03",
        "joined_at_port": "newport, mon.",
        "capacity": "master",
        "date_left": "blk",
        "left_port": "blk",
        "cause_of_leaving": "remains on board",
        "sign_with_mark": "n",
        "notes": "sailed to barcelona & other ports in spain & portugal & back to uk"
    },
    {
        "id": "vtls004624223_0_11",
        "type": "sailor",
        "parent": "vtls004624223",
        "name": "jenkin williams",
        "dob": "blk",
        "age": "38",
        "place_of_birth": "aberaeron",
        "home_address": "blk",
        "f": "blk",
        "name_of_ship": "eliza bowen",
        "ship_port": "liverpool",
        "date_leaving": "1862-12-24",
        "joined_ship_date": "1863-03-04",
        "joined_at_port": "swansea",
        "capacity": "master",
        "date_left": "blk",
        "left_port": "blk",
        "cause_of_leaving": "remains on board",
        "sign_with_mark": "n",
        "notes": "blk"
    },
    {
        "id": "vtls004624223_0_15",
        "type": "sailor",
        "parent": "vtls004624223",
        "name": "daniel thomas",
        "dob": "blk",
        "age": "16",
        "place_of_birth": "cardigan",
        "home_address": "blk",
        "f": "blk",
        "name_of_ship": "atlantic",
        "ship_port": "aberystwyth",
        "date_leaving": "blk",
        "joined_ship_date": "blk",
        "joined_at_port": "blk",
        "capacity": "ordinary seaman",
        "date_left": "1863-04-24",
        "left_port": "lancaster",
        "cause_of_leaving": "discharged",
        "sign_with_mark": "n",
        "notes": "termination of voyage"
    },
    {
        "id": "vtls004624223_0_14",
        "type": "sailor",
        "parent": "vtls004624223",
        "name": "benjamin thomas",
        "dob": "blk",
        "age": "34",
        "place_of_birth": "cardigan",
        "home_address": "blk",
        "f": "blk",
        "name_of_ship": "atlantic",
        "ship_port": "aberystwyth",
        "date_leaving": "blk",
        "joined_ship_date": "blk",
        "joined_at_port": "blk",
        "capacity": "able seaman",
        "date_left": "1863-04-24",
        "left_port": "lancaster",
        "cause_of_leaving": "discharged",
        "sign_with_mark": "n",
        "notes": "termination of voyage"
    },
    {
        "id": "vtls004624223_0_13",
        "type": "sailor",
        "parent": "vtls004624223",
        "name": "john $e$h$",
        "dob": "blk",
        "age": "21",
        "place_of_birth": "fishguard",
        "home_address": "blk",
        "f": "blk",
        "name_of_ship": "atlantic",
        "ship_port": "aberystwyth",
        "date_leaving": "blk",
        "joined_ship_date": "blk",
        "joined_at_port": "blk",
        "capacity": "able seaman",
        "date_left": "1863-04-24",
        "left_port": "lancaster",
        "cause_of_leaving": "discharged",
        "sign_with_mark": "n",
        "notes": "termination of voyage"
    },
    {
        "id": "vtls004624223_0_12",
        "type": "sailor",
        "parent": "vtls004624223",
        "name": "james evans",
        "dob": "blk",
        "age": "26",
        "place_of_birth": "cardigan",
        "home_address": "blk",
        "f": "blk",
        "name_of_ship": "atlantic",
        "ship_port": "aberystwyth",
        "date_leaving": "blk",
        "joined_ship_date": "blk",
        "joined_at_port": "blk",
        "capacity": "boatswain",
        "date_left": "1863-04-24",
        "left_port": "lancaster",
        "cause_of_leaving": "discharged",
        "sign_with_mark": "n",
        "notes": "termination of voyage"
    },
    {
        "id": "vtls004624231_0_11",
        "type": "sailor",
        "parent": "vtls004624231",
        "name": "jenkin williams",
        "dob": "blk",
        "age": "39",
        "place_of_birth": "cardigan",
        "home_address": "blk",
        "f": "blk",
        "name_of_ship": "atlantic",
        "ship_port": "aberystwyth",
        "date_leaving": "blk",
        "joined_ship_date": "blk",
        "joined_at_port": "blk",
        "capacity": "master",
        "date_left": "blk",
        "left_port": "blk",
        "cause_of_leaving": "remains on board",
        "sign_with_mark": "n",
        "notes": "ship left cardiff 1863-09-30 ,arrived hull 1864-01-30"
    },
    {
        "id": "vtls004624223_1_13",
        "type": "sailor",
        "parent": "vtls004624223",
        "name": "thomas george",
        "dob": "blk",
        "age": "21",
        "place_of_birth": "newport, pembs",
        "home_address": "blk",
        "f": "blk",
        "name_of_ship": "victory",
        "ship_port": "bristol",
        "date_leaving": "1863-05-25",
        "joined_ship_date": "1863-06-05",
        "joined_at_port": "newport, mon.",
        "capacity": "able seaman",
        "date_left": "1863-09-19",
        "left_port": "gloucestershire",
        "cause_of_leaving": "discharged",
        "sign_with_mark": "n",
        "notes": "blk"
    },
    {
        "id": "vtls004624223_1_12",
        "type": "sailor",
        "parent": "vtls004624223",
        "name": "griffith evans",
        "dob": "blk",
        "age": "23",
        "place_of_birth": "aberaeron",
        "home_address": "blk",
        "f": "blk",
        "name_of_ship": "atlantic",
        "ship_port": "aberystwyth",
        "date_leaving": "blk",
        "joined_ship_date": "1863-06-05",
        "joined_at_port": "newport, mon.",
        "capacity": "boatswain",
        "date_left": "1863-09-19",
        "left_port": "gloucestershire",
        "cause_of_leaving": "discharged",
        "sign_with_mark": "n",
        "notes": "blk"
    },
    {
        "id": "vtls004624223_1_14",
        "type": "sailor",
        "parent": "vtls004624223",
        "name": "owen jones",
        "dob": "blk",
        "age": "24",
        "place_of_birth": "anglesey",
        "home_address": "blk",
        "f": "blk",
        "name_of_ship": "maria",
        "ship_port": "beaumaris",
        "date_leaving": "1863-06-02",
        "joined_ship_date": "1863-06-05",
        "joined_at_port": "newport, mon.",
        "capacity": "able seaman",
        "date_left": "1863-09-19",
        "left_port": "gloucestershire",
        "cause_of_leaving": "discharged",
        "sign_with_mark": "y",
        "notes": "blk"
    },
    {
        "id": "vtls004624231_0_13",
        "type": "sailor",
        "parent": "vtls004624231",
        "name": "thomas george",
        "dob": "blk",
        "age": "21",
        "place_of_birth": "newport, pembs",
        "home_address": "blk",
        "f": "blk",
        "name_of_ship": "atlantic",
        "ship_port": "aberystwyth",
        "date_leaving": "blk",
        "joined_ship_date": "1863-09-30",
        "joined_at_port": "cardiff",
        "capacity": "able seaman",
        "date_left": "1864-02-01",
        "left_port": "hull",
        "cause_of_leaving": "discharged",
        "sign_with_mark": "n",
        "notes": "blk"
    },
    {
        "id": "vtls004624231_0_12",
        "type": "sailor",
        "parent": "vtls004624231",
        "name": "griffith evans",
        "dob": "blk",
        "age": "23",
        "place_of_birth": "aberaeron",
        "home_address": "blk",
        "f": "blk",
        "name_of_ship": "atlantic",
        "ship_port": "aberystwyth",
        "date_leaving": "blk",
        "joined_ship_date": "1863-09-30",
        "joined_at_port": "cardiff",
        "capacity": "boatswain",
        "date_left": "1864-02-01",
        "left_port": "hull",
        "cause_of_leaving": "discharged",
        "sign_with_mark": "n",
        "notes": "blk"
    },
    {
        "id": "vtls004624231_0_14",
        "type": "sailor",
        "parent": "vtls004624231",
        "name": "henry morris",
        "dob": "blk",
        "age": "24",
        "place_of_birth": "cardigan",
        "home_address": "blk",
        "f": "blk",
        "name_of_ship": "china",
        "ship_port": "cardiff",
        "date_leaving": "1863-08-31",
        "joined_ship_date": "1863-10-03",
        "joined_at_port": "cardiff",
        "capacity": "able seaman",
        "date_left": "1864-02-01",
        "left_port": "hull",
        "cause_of_leaving": "discharged",
        "sign_with_mark": "n",
        "notes": "blk"
    },
    {
        "id": "vtls004624231_2_11",
        "type": "sailor",
        "parent": "vtls004624231",
        "name": "jenkin williams",
        "dob": "blk",
        "age": "39",
        "place_of_birth": "aberaeron",
        "home_address": "blk",
        "f": "blk",
        "name_of_ship": "atlantic",
        "ship_port": "aberystwyth",
        "date_leaving": "1864-04-28",
        "joined_ship_date": "1864-05-04",
        "joined_at_port": "runcorn",
        "capacity": "master",
        "date_left": "blk",
        "left_port": "blk",
        "cause_of_leaving": "remains on board",
        "sign_with_mark": "n",
        "notes": "left runcorn may 1864 for st. petersburg &back to uk"
    },
    {
        "id": "vtls004624239_0_11",
        "type": "sailor",
        "parent": "vtls004624239",
        "name": "jenkin williams",
        "dob": "blk",
        "age": "41",
        "place_of_birth": "aberaeron",
        "home_address": "blk",
        "f": "blk",
        "name_of_ship": "atlantic",
        "ship_port": "aberystwyth",
        "date_leaving": "blk",
        "joined_ship_date": "1866-01-31",
        "joined_at_port": "newcastle",
        "capacity": "master",
        "date_left": "blk",
        "left_port": "blk",
        "cause_of_leaving": "remains on board",
        "sign_with_mark": "n",
        "notes": "sailed from newcastle to lisbon &other european ports"
    },
    {
        "id": "vtls004624231_1_11",
        "type": "sailor",
        "parent": "vtls004624231",
        "name": "jenkin williams",
        "dob": "blk",
        "age": "39",
        "place_of_birth": "aberaeron",
        "home_address": "blk",
        "f": "blk",
        "name_of_ship": "atlantic",
        "ship_port": "aberystwyth",
        "date_leaving": "blk",
        "joined_ship_date": "blk",
        "joined_at_port": "blk",
        "capacity": "master",
        "date_left": "blk",
        "left_port": "blk",
        "cause_of_leaving": "remains on board",
        "sign_with_mark": "n",
        "notes": "left hull 1864-02-11 , final destination runcorn on 1864-04-28"
    },
    {
        "id": "vtls004624231_2_13",
        "type": "sailor",
        "parent": "vtls004624231",
        "name": "william lewis",
        "dob": "blk",
        "age": "19",
        "place_of_birth": "cardigan",
        "home_address": "blk",
        "f": "blk",
        "name_of_ship": "prairie flower",
        "ship_port": "aberystwyth",
        "date_leaving": "1864-05-03",
        "joined_ship_date": "1864-05-11",
        "joined_at_port": "runcorn",
        "capacity": "able seaman",
        "date_left": "1864-08-17",
        "left_port": "cork",
        "cause_of_leaving": "discharged",
        "sign_with_mark": "n",
        "notes": "\""
    },
    {
        "id": "vtls004624231_2_14",
        "type": "sailor",
        "parent": "vtls004624231",
        "name": "david jenkins",
        "dob": "blk",
        "age": "24",
        "place_of_birth": "fishguard",
        "home_address": "blk",
        "f": "blk",
        "name_of_ship": "capricorn",
        "ship_port": "aberystwyth",
        "date_leaving": "1864--04-30",
        "joined_ship_date": "1864-05-12",
        "joined_at_port": "liverpool",
        "capacity": "able seaman",
        "date_left": "1864-08-17",
        "left_port": "cork",
        "cause_of_leaving": "discharged",
        "sign_with_mark": "n",
        "notes": "\""
    },
    {
        "id": "vtls004624231_2_12",
        "type": "sailor",
        "parent": "vtls004624231",
        "name": "henry morris",
        "dob": "blk",
        "age": "25",
        "place_of_birth": "cardigan",
        "home_address": "blk",
        "f": "blk",
        "name_of_ship": "atlantic",
        "ship_port": "aberystwyth",
        "date_leaving": "1864-04-28",
        "joined_ship_date": "1864-05-11",
        "joined_at_port": "runcorn",
        "capacity": "boatswain",
        "date_left": "1864-08-17",
        "left_port": "cork",
        "cause_of_leaving": "discharged",
        "sign_with_mark": "blk",
        "notes": "\""
    },
    {
        "id": "vtls004624231_1_12",
        "type": "sailor",
        "parent": "vtls004624231",
        "name": "griffith evans",
        "dob": "blk",
        "age": "24",
        "place_of_birth": "aberaeron",
        "home_address": "blk",
        "f": "blk",
        "name_of_ship": "atlantic",
        "ship_port": "aberystwyth",
        "date_leaving": "blk",
        "joined_ship_date": "blk",
        "joined_at_port": "blk",
        "capacity": "boatswain",
        "date_left": "blk",
        "left_port": "blk",
        "cause_of_leaving": "remains on board",
        "sign_with_mark": "n",
        "notes": "\""
    },
    {
        "id": "vtls004624231_1_13",
        "type": "sailor",
        "parent": "vtls004624231",
        "name": "thomas george",
        "dob": "blk",
        "age": "22",
        "place_of_birth": "newport",
        "home_address": "blk",
        "f": "blk",
        "name_of_ship": "atlantic",
        "ship_port": "aberystwyth",
        "date_leaving": "blk",
        "joined_ship_date": "blk",
        "joined_at_port": "blk",
        "capacity": "able seaman",
        "date_left": "blk",
        "left_port": "blk",
        "cause_of_leaving": "remains on board",
        "sign_with_mark": "n",
        "notes": "\""
    },
    {
        "id": "vtls004624231_1_14",
        "type": "sailor",
        "parent": "vtls004624231",
        "name": "henry morris",
        "dob": "blk",
        "age": "24",
        "place_of_birth": "cardigan",
        "home_address": "blk",
        "f": "blk",
        "name_of_ship": "atlantic",
        "ship_port": "aberystwyth",
        "date_leaving": "blk",
        "joined_ship_date": "blk",
        "joined_at_port": "blk",
        "capacity": "able seaman",
        "date_left": "blk",
        "left_port": "blk",
        "cause_of_leaving": "remains on board",
        "sign_with_mark": "n",
        "notes": "\""
    },
    {
        "id": "vtls004624239_2_11",
        "type": "sailor",
        "parent": "vtls004624239",
        "name": "jenkin williams",
        "dob": "blk",
        "age": "41",
        "place_of_birth": "aberaeron",
        "home_address": "blk",
        "f": "blk",
        "name_of_ship": "atlantic",
        "ship_port": "aberystwyth",
        "date_leaving": "blk",
        "joined_ship_date": "blk",
        "joined_at_port": "blk",
        "capacity": "master",
        "date_left": "1866-09-06",
        "left_port": "swansea",
        "cause_of_leaving": "discharged",
        "sign_with_mark": "n",
        "notes": "sailed to vigo& other spanish ports &back to uk"
    },
    {
        "id": "vtls004624239_1_11",
        "type": "sailor",
        "parent": "vtls004624239",
        "name": "jenkin williams",
        "dob": "blk",
        "age": "41",
        "place_of_birth": "aberaeron",
        "home_address": "blk",
        "f": "blk",
        "name_of_ship": "atlantic",
        "ship_port": "aberystwyth",
        "date_leaving": "blk",
        "joined_ship_date": "blk",
        "joined_at_port": "blk",
        "capacity": "master",
        "date_left": "blk",
        "left_port": "blk",
        "cause_of_leaving": "remains on board",
        "sign_with_mark": "n",
        "notes": "sailed from ardrossan to swansea -1866-07-07"
    },
    {
        "id": "vtls004624239_0_14",
        "type": "sailor",
        "parent": "vtls004624239",
        "name": "josiah davies",
        "dob": "blk",
        "age": "17",
        "place_of_birth": "cardigan",
        "home_address": "blk",
        "f": "blk",
        "name_of_ship": "atlantic",
        "ship_port": "aberystwyth",
        "date_leaving": "blk",
        "joined_ship_date": "1866-01-31",
        "joined_at_port": "newcastle",
        "capacity": "ordinary seaman",
        "date_left": "1866-05-08",
        "left_port": "glasgow",
        "cause_of_leaving": "discharged",
        "sign_with_mark": "n",
        "notes": "blk"
    },
    {
        "id": "vtls004624239_1_13",
        "type": "sailor",
        "parent": "vtls004624239",
        "name": "dougal cambell",
        "dob": "blk",
        "age": "24",
        "place_of_birth": "glasgow",
        "home_address": "blk",
        "f": "blk",
        "name_of_ship": "falcon",
        "ship_port": "glasgow",
        "date_leaving": "1866-06-04",
        "joined_ship_date": "1866-06-16",
        "joined_at_port": "ardrossan",
        "capacity": "able seaman",
        "date_left": "1866-07-05",
        "left_port": "swansea",
        "cause_of_leaving": "discharged",
        "sign_with_mark": "n",
        "notes": "blk"
    },
    {
        "id": "vtls004624239_1_14",
        "type": "sailor",
        "parent": "vtls004624239",
        "name": "james mcdonale",
        "dob": "blk",
        "age": "21",
        "place_of_birth": "glasgow",
        "home_address": "blk",
        "f": "blk",
        "name_of_ship": "falcon",
        "ship_port": "glasgow",
        "date_leaving": "1866-06-04",
        "joined_ship_date": "1866-06-16",
        "joined_at_port": "ardrossan",
        "capacity": "able seaman",
        "date_left": "1866-06-18",
        "left_port": "ardrossan",
        "cause_of_leaving": "deserted",
        "sign_with_mark": "n",
        "notes": "blk"
    },
    {
        "id": "vtls004624239_0_12",
        "type": "sailor",
        "parent": "vtls004624239",
        "name": "jenkin jones",
        "dob": "blk",
        "age": "49",
        "place_of_birth": "cardigan",
        "home_address": "blk",
        "f": "blk",
        "name_of_ship": "atlantic",
        "ship_port": "aberystwyth",
        "date_leaving": "blk",
        "joined_ship_date": "1866-01-31",
        "joined_at_port": "newcastle",
        "capacity": "leading seaman",
        "date_left": "1866-05-08",
        "left_port": "glasgow",
        "cause_of_leaving": "discharged",
        "sign_with_mark": "n",
        "notes": "\""
    },
    {
        "id": "vtls004624239_0_13",
        "type": "sailor",
        "parent": "vtls004624239",
        "name": "david evans",
        "dob": "blk",
        "age": "25",
        "place_of_birth": "cardigan",
        "home_address": "blk",
        "f": "blk",
        "name_of_ship": "atlantic",
        "ship_port": "aberystwyth",
        "date_leaving": "blk",
        "joined_ship_date": "1866-01-31",
        "joined_at_port": "newcastle",
        "capacity": "able seaman",
        "date_left": "1866-05-08",
        "left_port": "glasgow",
        "cause_of_leaving": "discharged",
        "sign_with_mark": "y",
        "notes": "\""
    },
    {
        "id": "vtls004624239_1_12",
        "type": "sailor",
        "parent": "vtls004624239",
        "name": "jenkin jones",
        "dob": "blk",
        "age": "48",
        "place_of_birth": "aberaeron",
        "home_address": "blk",
        "f": "blk",
        "name_of_ship": "atlantic",
        "ship_port": "aberystwyth",
        "date_leaving": "blk",
        "joined_ship_date": "blk",
        "joined_at_port": "blk",
        "capacity": "mate",
        "date_left": "blk",
        "left_port": "blk",
        "cause_of_leaving": "remains on board",
        "sign_with_mark": "n",
        "notes": "\""
    },
    {
        "id": "vtls004624267_0_13",
        "type": "sailor",
        "parent": "vtls004624267",
        "name": "thomas evans",
        "dob": "blk",
        "age": "23",
        "place_of_birth": "newquay",
        "home_address": "blk",
        "f": "blk",
        "name_of_ship": "landsborough",
        "ship_port": "liverpool",
        "date_leaving": "1868-03-23",
        "joined_ship_date": "1868-03-18",
        "joined_at_port": "gloucester",
        "capacity": "able seaman",
        "date_left": "1868-06-19",
        "left_port": "london",
        "cause_of_leaving": "discharged",
        "sign_with_mark": "n",
        "notes": "dates of leaving & joining ships contradict"
    },
    {
        "id": "vtls004624267_1_11",
        "type": "sailor",
        "parent": "vtls004624267",
        "name": "jenkin williams",
        "dob": "blk",
        "age": "43",
        "place_of_birth": "aberaeron",
        "home_address": "blk",
        "f": "blk",
        "name_of_ship": "atlantic",
        "ship_port": "aberystwyth",
        "date_leaving": "blk",
        "joined_ship_date": "blk",
        "joined_at_port": "blk",
        "capacity": "master",
        "date_left": "blk",
        "left_port": "blk",
        "cause_of_leaving": "remains on board",
        "sign_with_mark": "n",
        "notes": "ship sailed from london to any ports in mediterranean"
    },
    {
        "id": "vtls004624267_0_11",
        "type": "sailor",
        "parent": "vtls004624267",
        "name": "jenkin williams",
        "dob": "blk",
        "age": "43",
        "place_of_birth": "aberaeron",
        "home_address": "blk",
        "f": "blk",
        "name_of_ship": "atlantic",
        "ship_port": "aberystwyth",
        "date_leaving": "blk",
        "joined_ship_date": "blk",
        "joined_at_port": "blk",
        "capacity": "master",
        "date_left": "blk",
        "left_port": "blk",
        "cause_of_leaving": "remains on board",
        "sign_with_mark": "n",
        "notes": "sailed from gloucester to riga & other ports"
    },
    {
        "id": "vtls004624267_1_12",
        "type": "sailor",
        "parent": "vtls004624267",
        "name": "john rees",
        "dob": "blk",
        "age": "26",
        "place_of_birth": "newquay",
        "home_address": "blk",
        "f": "blk",
        "name_of_ship": "atlantic",
        "ship_port": "aberystwyth",
        "date_leaving": "1868-06-22",
        "joined_ship_date": "1868-06-23",
        "joined_at_port": "london",
        "capacity": "bosun",
        "date_left": "1868-11-29",
        "left_port": "london",
        "cause_of_leaving": "discharged",
        "sign_with_mark": "n",
        "notes": "blk"
    },
    {
        "id": "vtls004624267_0_15",
        "type": "sailor",
        "parent": "vtls004624267",
        "name": "evan evans",
        "dob": "blk",
        "age": "15",
        "place_of_birth": "blk",
        "home_address": "blk",
        "f": "blk",
        "name_of_ship": "blk",
        "ship_port": "blk",
        "date_leaving": "blk",
        "joined_ship_date": "blk",
        "joined_at_port": "blk",
        "capacity": "apprentice",
        "date_left": "blk",
        "left_port": "blk",
        "cause_of_leaving": "blk",
        "sign_with_mark": "n",
        "notes": "186$-03-18 registry of indenture at liverpool. no other info."
    },
    {
        "id": "vtls004624239_2_14",
        "type": "sailor",
        "parent": "vtls004624239",
        "name": "robert pritchard",
        "dob": "blk",
        "age": "40",
        "place_of_birth": "bangor",
        "home_address": "blk",
        "f": "blk",
        "name_of_ship": "[g walter cummings]",
        "ship_port": "[miramichi]",
        "date_leaving": "1866-06-28",
        "joined_ship_date": "1866-07-12",
        "joined_at_port": "swansea",
        "capacity": "able seaman",
        "date_left": "1866-09-06",
        "left_port": "swansea",
        "cause_of_leaving": "discharged",
        "sign_with_mark": "y",
        "notes": "\"  \""
    },
    {
        "id": "vtls004624239_2_13",
        "type": "sailor",
        "parent": "vtls004624239",
        "name": "john griffiths",
        "dob": "blk",
        "age": "48",
        "place_of_birth": "cardigan",
        "home_address": "blk",
        "f": "blk",
        "name_of_ship": "victoria",
        "ship_port": "dundee",
        "date_leaving": "1866-05",
        "joined_ship_date": "1866-07-11",
        "joined_at_port": "swansea",
        "capacity": "able seaman",
        "date_left": "1866-09-06",
        "left_port": "swansea",
        "cause_of_leaving": "discharged",
        "sign_with_mark": "n",
        "notes": "\"  \""
    },
    {
        "id": "vtls004624267_0_12",
        "type": "sailor",
        "parent": "vtls004624267",
        "name": "john rees",
        "dob": "blk",
        "age": "26",
        "place_of_birth": "newquay",
        "home_address": "blk",
        "f": "blk",
        "name_of_ship": "atlantic",
        "ship_port": "aberystwyth",
        "date_leaving": "1868-03-17",
        "joined_ship_date": "1868-03-18",
        "joined_at_port": "gloucester",
        "capacity": "bosun",
        "date_left": "1868-06-19",
        "left_port": "london",
        "cause_of_leaving": "discharged",
        "sign_with_mark": "n",
        "notes": "\"  \""
    },
    {
        "id": "vtls004624239_2_12",
        "type": "sailor",
        "parent": "vtls004624239",
        "name": "jenkin jones",
        "dob": "blk",
        "age": "49",
        "place_of_birth": "aberaeron",
        "home_address": "blk",
        "f": "blk",
        "name_of_ship": "atlantic",
        "ship_port": "aberystwyth",
        "date_leaving": "blk",
        "joined_ship_date": "blk",
        "joined_at_port": "blk",
        "capacity": "bosun",
        "date_left": "1866-09-06",
        "left_port": "swansea",
        "cause_of_leaving": "discharged",
        "sign_with_mark": "n",
        "notes": "\"  \""
    },
    {
        "id": "vtls004624338_0_11",
        "type": "sailor",
        "parent": "vtls004624338",
        "name": "jenkin williams",
        "dob": "blk",
        "age": "43",
        "place_of_birth": "aberaeron",
        "home_address": "blk",
        "f": "blk",
        "name_of_ship": "atlantic",
        "ship_port": "aberystwyth",
        "date_leaving": "blk",
        "joined_ship_date": "blk",
        "joined_at_port": "blk",
        "capacity": "master",
        "date_left": "blk",
        "left_port": "blk",
        "cause_of_leaving": "remains on board",
        "sign_with_mark": "n",
        "notes": "sailed london to newcastle then to european ports"
    },
    {
        "id": "vtls004624338_1_11",
        "type": "sailor",
        "parent": "vtls004624338",
        "name": "jenkin williams",
        "dob": "blk",
        "age": "43",
        "place_of_birth": "aberaeron",
        "home_address": "blk",
        "f": "blk",
        "name_of_ship": "atlantic",
        "ship_port": "aberystwyth",
        "date_leaving": "blk",
        "joined_ship_date": "blk",
        "joined_at_port": "blk",
        "capacity": "master",
        "date_left": "1869-03-19",
        "left_port": "at sea",
        "cause_of_leaving": "blk",
        "sign_with_mark": "n",
        "notes": "vessel lost &all hands drowned"
    },
    {
        "id": "vtls004624267_1_14",
        "type": "sailor",
        "parent": "vtls004624267",
        "name": "lars nelson",
        "dob": "blk",
        "age": "19",
        "place_of_birth": "denmark",
        "home_address": "blk",
        "f": "blk",
        "name_of_ship": "nautilus",
        "ship_port": "london",
        "date_leaving": "1868-04-28",
        "joined_ship_date": "1868-07-23",
        "joined_at_port": "london",
        "capacity": "ordinary seaman",
        "date_left": "1868-11-29",
        "left_port": "london",
        "cause_of_leaving": "discharged",
        "sign_with_mark": "n",
        "notes": "blk"
    },
    {
        "id": "vtls004624338_0_13",
        "type": "sailor",
        "parent": "vtls004624338",
        "name": "david kidney",
        "dob": "blk",
        "age": "64",
        "place_of_birth": "cork",
        "home_address": "blk",
        "f": "blk",
        "name_of_ship": "grand bonny",
        "ship_port": "liverpool",
        "date_leaving": "1868-08-12",
        "joined_ship_date": "1869-01-04",
        "joined_at_port": "london",
        "capacity": "able seaman",
        "date_left": "blk",
        "left_port": "blk",
        "cause_of_leaving": "remains on board",
        "sign_with_mark": "y",
        "notes": "blk"
    },
    {
        "id": "vtls004624338_0_12",
        "type": "sailor",
        "parent": "vtls004624338",
        "name": "david rees",
        "dob": "blk",
        "age": "29",
        "place_of_birth": "newquay",
        "home_address": "blk",
        "f": "blk",
        "name_of_ship": "[m lansing]",
        "ship_port": "aberystwyth",
        "date_leaving": "1868006-29",
        "joined_ship_date": "1869-01-04",
        "joined_at_port": "london",
        "capacity": "bosun",
        "date_left": "blk",
        "left_port": "blk",
        "cause_of_leaving": "remains on board",
        "sign_with_mark": "n",
        "notes": "blk"
    },
    {
        "id": "vtls004624267_1_15",
        "type": "sailor",
        "parent": "vtls004624267",
        "name": "evan evans",
        "dob": "blk",
        "age": "17",
        "place_of_birth": "blk",
        "home_address": "blk",
        "f": "blk",
        "name_of_ship": "blk",
        "ship_port": "blk",
        "date_leaving": "blk",
        "joined_ship_date": "blk",
        "joined_at_port": "blk",
        "capacity": "apprentice",
        "date_left": "blk",
        "left_port": "blk",
        "cause_of_leaving": "remains on board",
        "sign_with_mark": "blk",
        "notes": "registry of indenture at swansea 1867-03-18"
    },
    {
        "id": "vtls004624338_0_14",
        "type": "sailor",
        "parent": "vtls004624338",
        "name": "evan evans",
        "dob": "blk",
        "age": "16",
        "place_of_birth": "blk",
        "home_address": "blk",
        "f": "blk",
        "name_of_ship": "blk",
        "ship_port": "blk",
        "date_leaving": "blk",
        "joined_ship_date": "blk",
        "joined_at_port": "blk",
        "capacity": "apprentice",
        "date_left": "blk",
        "left_port": "blk",
        "cause_of_leaving": "blk",
        "sign_with_mark": "n",
        "notes": "1867-03-18 registry of indenture at swansea. no other info."
    },
    {
        "id": "vtls004624338_1_13",
        "type": "sailor",
        "parent": "vtls004624338",
        "name": "david kidney",
        "dob": "blk",
        "age": "64",
        "place_of_birth": "cork",
        "home_address": "blk",
        "f": "blk",
        "name_of_ship": "grand bonny",
        "ship_port": "liverpool",
        "date_leaving": "1868-08-12",
        "joined_ship_date": "1869-01-04",
        "joined_at_port": "london",
        "capacity": "able seaman",
        "date_left": "1869-03-19",
        "left_port": "at sea",
        "cause_of_leaving": "blk",
        "sign_with_mark": "n",
        "notes": "vessel lost &all hands drowned"
    },
    {
        "id": "vtls004624338_1_12",
        "type": "sailor",
        "parent": "vtls004624338",
        "name": "david rees",
        "dob": "blk",
        "age": "29",
        "place_of_birth": "newquay",
        "home_address": "blk",
        "f": "blk",
        "name_of_ship": "[m lansing]",
        "ship_port": "aberystwyth",
        "date_leaving": "1868-09-29",
        "joined_ship_date": "1869-01-04",
        "joined_at_port": "london",
        "capacity": "bosun",
        "date_left": "1869-03-19",
        "left_port": "at sea",
        "cause_of_leaving": "blk",
        "sign_with_mark": "n",
        "notes": "vessel lost &all hands drowned"
    },
    {
        "id": "vtls004624338_1_15",
        "type": "sailor",
        "parent": "vtls004624338",
        "name": "evan evans",
        "dob": "blk",
        "age": "16",
        "place_of_birth": "cardiganshire",
        "home_address": "blk",
        "f": "blk",
        "name_of_ship": "blk",
        "ship_port": "blk",
        "date_leaving": "blk",
        "joined_ship_date": "blk",
        "joined_at_port": "blk",
        "capacity": "apprentice",
        "date_left": "1869-03-19",
        "left_port": "at sea",
        "cause_of_leaving": "blk",
        "sign_with_mark": "n",
        "notes": "vessel lost &all hands drowned"
    }
]