[
    {
        "id": "vtls004638782_0_12",
        "type": "sailor",
        "parent": "vtls004638782",
        "name": "thomas daniel",
        "dob": "blk",
        "age": "33",
        "place_of_birth": "aberdovey",
        "home_address": "aberdovey",
        "f": "aberdovey",
        "name_of_ship": "charlotte",
        "ship_port": "aberystwyth",
        "date_leaving": "remains",
        "joined_ship_date": "blk",
        "joined_at_port": "south shields",
        "capacity": "master",
        "date_left": "blk",
        "left_port": "blk",
        "cause_of_leaving": "remains on board",
        "sign_with_mark": "n",
        "notes": "to sail 1865-07-28 from s. shields to malaga & on to any other port if required."
    },
    {
        "id": "vtls004638785_0_13",
        "type": "sailor",
        "parent": "vtls004638785",
        "name": "owen rowlands",
        "dob": "blk",
        "age": "28",
        "place_of_birth": "barmouth",
        "home_address": "blk",
        "f": "blk",
        "name_of_ship": "charlotte",
        "ship_port": "aberystwyth",
        "date_leaving": "blk",
        "joined_ship_date": "1879-10-02",
        "joined_at_port": "hamburg",
        "capacity": "boatswain",
        "date_left": "1879-12-16",
        "left_port": "cuxhaven, germany",
        "cause_of_leaving": "mutual agreement",
        "sign_with_mark": "n",
        "notes": "the men discharged by mutual consent were paid & provision made to send home."
    },
    {
        "id": "vtls004638785_0_11",
        "type": "sailor",
        "parent": "vtls004638785",
        "name": "john evans",
        "dob": "blk",
        "age": "31",
        "place_of_birth": "barmouth",
        "home_address": "blk",
        "f": "blk",
        "name_of_ship": "coul$$$$",
        "ship_port": "blk",
        "date_leaving": "blk",
        "joined_ship_date": "blk",
        "joined_at_port": "blk",
        "capacity": "master",
        "date_left": "blk",
        "left_port": "blk",
        "cause_of_leaving": "remains on board",
        "sign_with_mark": "n",
        "notes": "1879-10-03 sailed from hamburg to copenhagen& then to any other port as required."
    },
    {
        "id": "vtls004638782_0_15",
        "type": "sailor",
        "parent": "vtls004638782",
        "name": "john mcpheil",
        "dob": "blk",
        "age": "25",
        "place_of_birth": "isle of man",
        "home_address": "blk",
        "f": "blk",
        "name_of_ship": "ironside",
        "ship_port": "london",
        "date_leaving": "1865-$$-25",
        "joined_ship_date": "1865-07-31",
        "joined_at_port": "south shields",
        "capacity": "able seaman",
        "date_left": "1866-01-25",
        "left_port": "london",
        "cause_of_leaving": "discharged",
        "sign_with_mark": "y",
        "notes": "blk"
    },
    {
        "id": "vtls004638782_0_17",
        "type": "sailor",
        "parent": "vtls004638782",
        "name": "william daniel",
        "dob": "blk",
        "age": "15",
        "place_of_birth": "aberdovey",
        "home_address": "blk",
        "f": "blk",
        "name_of_ship": "charlotte",
        "ship_port": "aberystwyth",
        "date_leaving": "blk",
        "joined_ship_date": "1865-07-28",
        "joined_at_port": "south shields",
        "capacity": "able seaman",
        "date_left": "1866-01-25",
        "left_port": "london",
        "cause_of_leaving": "discharged",
        "sign_with_mark": "n",
        "notes": "blk"
    },
    {
        "id": "vtls004638782_0_16",
        "type": "sailor",
        "parent": "vtls004638782",
        "name": "thomas hay",
        "dob": "blk",
        "age": "21",
        "place_of_birth": "dyserth",
        "home_address": "blk",
        "f": "blk",
        "name_of_ship": "ironside",
        "ship_port": "london",
        "date_leaving": "1865-$$-25",
        "joined_ship_date": "1865-07-31",
        "joined_at_port": "south shields",
        "capacity": "able seaman",
        "date_left": "1866-01-25",
        "left_port": "london",
        "cause_of_leaving": "discharged",
        "sign_with_mark": "n",
        "notes": "blk"
    },
    {
        "id": "vtls004638782_0_14",
        "type": "sailor",
        "parent": "vtls004638782",
        "name": "john smith",
        "dob": "blk",
        "age": "22",
        "place_of_birth": "liverpool",
        "home_address": "blk",
        "f": "blk",
        "name_of_ship": "cruizer",
        "ship_port": "jersey",
        "date_leaving": "1865-07-27",
        "joined_ship_date": "1865-07-29",
        "joined_at_port": "south shields",
        "capacity": "able seaman",
        "date_left": "1866-01-25",
        "left_port": "london",
        "cause_of_leaving": "discharged",
        "sign_with_mark": "n",
        "notes": "blk"
    },
    {
        "id": "vtls004638782_0_13",
        "type": "sailor",
        "parent": "vtls004638782",
        "name": "thomas thomas",
        "dob": "blk",
        "age": "29",
        "place_of_birth": "aberporth",
        "home_address": "blk",
        "f": "blk",
        "name_of_ship": "jenny lind",
        "ship_port": "london",
        "date_leaving": "1865-04-28",
        "joined_ship_date": "1865-07-28",
        "joined_at_port": "south shields",
        "capacity": "mate",
        "date_left": "1866-01-25",
        "left_port": "london",
        "cause_of_leaving": "discharged",
        "sign_with_mark": "n",
        "notes": "blk"
    },
    {
        "id": "vtls004638785_0_12",
        "type": "sailor",
        "parent": "vtls004638785",
        "name": "william davies",
        "dob": "blk",
        "age": "37",
        "place_of_birth": "barmouth",
        "home_address": "blk",
        "f": "blk",
        "name_of_ship": "charlotte",
        "ship_port": "aberystwyth",
        "date_leaving": "blk",
        "joined_ship_date": "1879-10-02",
        "joined_at_port": "hamburg",
        "capacity": "mate",
        "date_left": "1880-03-31",
        "left_port": "london",
        "cause_of_leaving": "discharged",
        "sign_with_mark": "n",
        "notes": "blk"
    },
    {
        "id": "vtls004638782_0_18",
        "type": "sailor",
        "parent": "vtls004638782",
        "name": "thomas black",
        "dob": "blk",
        "age": "26",
        "place_of_birth": "blk",
        "home_address": "blk",
        "f": "blk",
        "name_of_ship": "blk",
        "ship_port": "blk",
        "date_leaving": "blk",
        "joined_ship_date": "blk",
        "joined_at_port": "blk",
        "capacity": "apprentice",
        "date_left": "blk",
        "left_port": "blk",
        "cause_of_leaving": "blk",
        "sign_with_mark": "blk",
        "notes": "registry of indenture at cardiff on 1864 -03-19"
    },
    {
        "id": "vtls004638785_0_14",
        "type": "sailor",
        "parent": "vtls004638785",
        "name": "robert williams",
        "dob": "blk",
        "age": "17",
        "place_of_birth": "barmouth",
        "home_address": "blk",
        "f": "blk",
        "name_of_ship": "charlotte",
        "ship_port": "aberystwyth",
        "date_leaving": "blk",
        "joined_ship_date": "1879-10-02",
        "joined_at_port": "hamburg",
        "capacity": "cook & steward",
        "date_left": "1879-12-16",
        "left_port": "cuxhaven, germany",
        "cause_of_leaving": "mutual agreement",
        "sign_with_mark": "n",
        "notes": "blk"
    },
    {
        "id": "vtls004638785_0_15",
        "type": "sailor",
        "parent": "vtls004638785",
        "name": "griffith roberts",
        "dob": "blk",
        "age": "21",
        "place_of_birth": "barmouth",
        "home_address": "blk",
        "f": "blk",
        "name_of_ship": "charlotte",
        "ship_port": "aberystwyth",
        "date_leaving": "blk",
        "joined_ship_date": "1879-10-02",
        "joined_at_port": "hamburg",
        "capacity": "able seaman",
        "date_left": "1879-12-16",
        "left_port": "cuxhaven, germany",
        "cause_of_leaving": "mutual agreement",
        "sign_with_mark": "n",
        "notes": "blk"
    },
    {
        "id": "vtls004638785_0_16",
        "type": "sailor",
        "parent": "vtls004638785",
        "name": "evan evans",
        "dob": "blk",
        "age": "19",
        "place_of_birth": "barmouth",
        "home_address": "blk",
        "f": "blk",
        "name_of_ship": "charlotte",
        "ship_port": "aberystwyth",
        "date_leaving": "blk",
        "joined_ship_date": "1879-10-02",
        "joined_at_port": "hamburg",
        "capacity": "able seaman",
        "date_left": "1879-12-16",
        "left_port": "cuxhaven, germany",
        "cause_of_leaving": "mutual agreement",
        "sign_with_mark": "n",
        "notes": "blk"
    },
    {
        "id": "vtls004638785_0_17",
        "type": "sailor",
        "parent": "vtls004638785",
        "name": "evan evans",
        "dob": "blk",
        "age": "21",
        "place_of_birth": "barmouth",
        "home_address": "blk",
        "f": "blk",
        "name_of_ship": "charlotte",
        "ship_port": "aberystwyth",
        "date_leaving": "1880",
        "joined_ship_date": "1880-03-09",
        "joined_at_port": "hamburg",
        "capacity": "boatswain",
        "date_left": "1880-03-31",
        "left_port": "london",
        "cause_of_leaving": "discharged",
        "sign_with_mark": "n",
        "notes": "blk"
    },
    {
        "id": "vtls004638785_0_19",
        "type": "sailor",
        "parent": "vtls004638785",
        "name": "toh ed kahl",
        "dob": "blk",
        "age": "19",
        "place_of_birth": "hamburg",
        "home_address": "blk",
        "f": "blk",
        "name_of_ship": "[saturnus]",
        "ship_port": "blk",
        "date_leaving": "1880",
        "joined_ship_date": "1880-03-09",
        "joined_at_port": "hamburg",
        "capacity": "able seaman",
        "date_left": "1880-03-31",
        "left_port": "london",
        "cause_of_leaving": "discharged",
        "sign_with_mark": "n",
        "notes": "blk"
    },
    {
        "id": "vtls004638785_0_18",
        "type": "sailor",
        "parent": "vtls004638785",
        "name": "henry kunzelman",
        "dob": "blk",
        "age": "20",
        "place_of_birth": "hamburg",
        "home_address": "blk",
        "f": "blk",
        "name_of_ship": "lina",
        "ship_port": "blk",
        "date_leaving": "1880",
        "joined_ship_date": "1880-03-09",
        "joined_at_port": "hamburg",
        "capacity": "able seaman",
        "date_left": "1880-03-31",
        "left_port": "london",
        "cause_of_leaving": "discharged",
        "sign_with_mark": "n",
        "notes": "blk"
    },
    {
        "id": "vtls004638785_0_20",
        "type": "sailor",
        "parent": "vtls004638785",
        "name": "h v aspen",
        "dob": "blk",
        "age": "19",
        "place_of_birth": "hamburg",
        "home_address": "blk",
        "f": "blk",
        "name_of_ship": "m$$$a",
        "ship_port": "blk",
        "date_leaving": "1880",
        "joined_ship_date": "1880-03-09",
        "joined_at_port": "hamburg",
        "capacity": "cook & steward",
        "date_left": "1880-03-31",
        "left_port": "london",
        "cause_of_leaving": "discharged",
        "sign_with_mark": "n",
        "notes": "blk"
    }
]