[
    {
        "id": "vtls004692273_0_12",
        "type": "sailor",
        "parent": "vtls004692273",
        "name": "jenkin evans",
        "dob": "blk",
        "age": "27",
        "place_of_birth": "cardigan",
        "home_address": "blk",
        "f": "blk",
        "name_of_ship": "young australia",
        "ship_port": "liverpool",
        "date_leaving": "1867-03-01",
        "joined_ship_date": "1868-02",
        "joined_at_port": "london",
        "capacity": "mate",
        "date_left": "1869-03-02",
        "left_port": "dordrecht",
        "cause_of_leaving": "discharged",
        "sign_with_mark": "n",
        "notes": "blk"
    },
    {
        "id": "vtls004692273_0_11",
        "type": "sailor",
        "parent": "vtls004692273",
        "name": "evan jones",
        "dob": "blk",
        "age": "38",
        "place_of_birth": "cardigan",
        "home_address": "blk",
        "f": "blk",
        "name_of_ship": "joan cunllo",
        "ship_port": "aberystwyth",
        "date_leaving": "continued",
        "joined_ship_date": "1868-03",
        "joined_at_port": "blk",
        "capacity": "master",
        "date_left": "blk",
        "left_port": "blk",
        "cause_of_leaving": "remains on board",
        "sign_with_mark": "n",
        "notes": "blk"
    },
    {
        "id": "vtls004692273_0_19",
        "type": "sailor",
        "parent": "vtls004692273",
        "name": "dennis crowley",
        "dob": "blk",
        "age": "19",
        "place_of_birth": "cork",
        "home_address": "blk",
        "f": "blk",
        "name_of_ship": "[winifred]",
        "ship_port": "portmadoc",
        "date_leaving": "1868-02-27",
        "joined_ship_date": "1868-02-29",
        "joined_at_port": "london",
        "capacity": "ordinary seaman",
        "date_left": "1869-03-02",
        "left_port": "dordrecht",
        "cause_of_leaving": "discharged",
        "sign_with_mark": "y",
        "notes": "blk"
    },
    {
        "id": "vtls004692273_0_21",
        "type": "sailor",
        "parent": "vtls004692273",
        "name": "samuel morris",
        "dob": "blk",
        "age": "28",
        "place_of_birth": "cardigan",
        "home_address": "blk",
        "f": "blk",
        "name_of_ship": "joan cunllo",
        "ship_port": "aberystwyth",
        "date_leaving": "1868-01-15",
        "joined_ship_date": "1868-03-02",
        "joined_at_port": "london",
        "capacity": "steward",
        "date_left": "1868-08-18",
        "left_port": "rangoon",
        "cause_of_leaving": "died",
        "sign_with_mark": "n",
        "notes": "with [leopracy]"
    },
    {
        "id": "vtls004692273_0_13",
        "type": "sailor",
        "parent": "vtls004692273",
        "name": "thomas morgen",
        "dob": "blk",
        "age": "22",
        "place_of_birth": "cardigan",
        "home_address": "blk",
        "f": "blk",
        "name_of_ship": "elizabeth",
        "ship_port": "aberystwyth",
        "date_leaving": "1868-$$-20",
        "joined_ship_date": "1868-03-02",
        "joined_at_port": "london",
        "capacity": "boatswain",
        "date_left": "[1869-07-28]",
        "left_port": "$",
        "cause_of_leaving": "discharged",
        "sign_with_mark": "n",
        "notes": "blk"
    },
    {
        "id": "vtls004692273_0_18",
        "type": "sailor",
        "parent": "vtls004692273",
        "name": "thomas lloyd",
        "dob": "blk",
        "age": "25",
        "place_of_birth": "cardigan",
        "home_address": "blk",
        "f": "blk",
        "name_of_ship": "[winifred]",
        "ship_port": "portmadoc",
        "date_leaving": "1868-02-27",
        "joined_ship_date": "1868-02-29",
        "joined_at_port": "london",
        "capacity": "able seaman",
        "date_left": "1868-03-05",
        "left_port": "london",
        "cause_of_leaving": "did not join",
        "sign_with_mark": "y",
        "notes": "blk"
    },
    {
        "id": "vtls004692273_0_14",
        "type": "sailor",
        "parent": "vtls004692273",
        "name": "george bound",
        "dob": "blk",
        "age": "27",
        "place_of_birth": "bristol",
        "home_address": "blk",
        "f": "blk",
        "name_of_ship": "orange",
        "ship_port": "cork",
        "date_leaving": "1868-01-29",
        "joined_ship_date": "1868-02-29",
        "joined_at_port": "london",
        "capacity": "cook and seaman",
        "date_left": "1869-03-02",
        "left_port": "dordrecht",
        "cause_of_leaving": "discharged",
        "sign_with_mark": "y",
        "notes": "blk"
    },
    {
        "id": "vtls004692273_0_16",
        "type": "sailor",
        "parent": "vtls004692273",
        "name": "henry evans",
        "dob": "blk",
        "age": "25",
        "place_of_birth": "milford",
        "home_address": "blk",
        "f": "blk",
        "name_of_ship": "[winifred]",
        "ship_port": "portmadoc",
        "date_leaving": "1868-02-27",
        "joined_ship_date": "1868-02-29",
        "joined_at_port": "london",
        "capacity": "able seaman",
        "date_left": "1868-03-20",
        "left_port": "portland",
        "cause_of_leaving": "deserted",
        "sign_with_mark": "n",
        "notes": "blk"
    },
    {
        "id": "vtls004692273_0_15",
        "type": "sailor",
        "parent": "vtls004692273",
        "name": "william davies",
        "dob": "blk",
        "age": "27",
        "place_of_birth": "monmouthshire",
        "home_address": "blk",
        "f": "blk",
        "name_of_ship": "emily",
        "ship_port": "london",
        "date_leaving": "1868-02-19",
        "joined_ship_date": "1868-02-29",
        "joined_at_port": "london",
        "capacity": "able seaman",
        "date_left": "1868-08-15",
        "left_port": "rangoon",
        "cause_of_leaving": "deserted",
        "sign_with_mark": "n",
        "notes": "blk"
    },
    {
        "id": "vtls004692273_0_17",
        "type": "sailor",
        "parent": "vtls004692273",
        "name": "james price",
        "dob": "blk",
        "age": "38",
        "place_of_birth": "bristol",
        "home_address": "blk",
        "f": "blk",
        "name_of_ship": "emily",
        "ship_port": "london",
        "date_leaving": "1868-02-19",
        "joined_ship_date": "1868-02-29",
        "joined_at_port": "london",
        "capacity": "able seaman",
        "date_left": "1868-08-15",
        "left_port": "rangoon",
        "cause_of_leaving": "deserted",
        "sign_with_mark": "y",
        "notes": "blk"
    },
    {
        "id": "vtls004692273_0_26",
        "type": "sailor",
        "parent": "vtls004692273",
        "name": "joseph williams",
        "dob": "blk",
        "age": "19",
        "place_of_birth": "woolwich",
        "home_address": "blk",
        "f": "blk",
        "name_of_ship": "yorplu$e",
        "ship_port": "weymouth",
        "date_leaving": "1868-03-26",
        "joined_ship_date": "1868-03-27",
        "joined_at_port": "weymouth",
        "capacity": "able seaman",
        "date_left": "1869-03-02",
        "left_port": "dordrecht",
        "cause_of_leaving": "discharged",
        "sign_with_mark": "y",
        "notes": "blk"
    },
    {
        "id": "vtls004692273_0_25",
        "type": "sailor",
        "parent": "vtls004692273",
        "name": "george samways",
        "dob": "blk",
        "age": "23",
        "place_of_birth": "weymouth",
        "home_address": "blk",
        "f": "blk",
        "name_of_ship": "louisa",
        "ship_port": "weymouth",
        "date_leaving": "1868-03-19",
        "joined_ship_date": "1868-03-27",
        "joined_at_port": "weymouth",
        "capacity": "able seaman",
        "date_left": "1869-03-02",
        "left_port": "dordrecht",
        "cause_of_leaving": "discharged",
        "sign_with_mark": "n",
        "notes": "blk"
    },
    {
        "id": "vtls004692273_0_24",
        "type": "sailor",
        "parent": "vtls004692273",
        "name": "bernard baker",
        "dob": "blk",
        "age": "27",
        "place_of_birth": "bristol",
        "home_address": "blk",
        "f": "blk",
        "name_of_ship": "wanderer",
        "ship_port": "hamburg",
        "date_leaving": "1868-02-07",
        "joined_ship_date": "1868-03-09",
        "joined_at_port": "london",
        "capacity": "able seaman",
        "date_left": "1868-03-20",
        "left_port": "portland",
        "cause_of_leaving": "deserted",
        "sign_with_mark": "n",
        "notes": "blk"
    },
    {
        "id": "vtls004692273_0_22",
        "type": "sailor",
        "parent": "vtls004692273",
        "name": "henry parker",
        "dob": "blk",
        "age": "26",
        "place_of_birth": "lincolnshire",
        "home_address": "blk",
        "f": "blk",
        "name_of_ship": "minia",
        "ship_port": "london",
        "date_leaving": "1868-02-05",
        "joined_ship_date": "1868-03-05",
        "joined_at_port": "london",
        "capacity": "able seaman",
        "date_left": "1868-03-07",
        "left_port": "gravesend",
        "cause_of_leaving": "deserted",
        "sign_with_mark": "n",
        "notes": "blk"
    },
    {
        "id": "vtls004692273_0_23",
        "type": "sailor",
        "parent": "vtls004692273",
        "name": "h brendon",
        "dob": "blk",
        "age": "46",
        "place_of_birth": "havre",
        "home_address": "blk",
        "f": "blk",
        "name_of_ship": "nant y glo",
        "ship_port": "london",
        "date_leaving": "1868-02-21",
        "joined_ship_date": "1868-03-06",
        "joined_at_port": "london",
        "capacity": "carpenter",
        "date_left": "1869-03-02",
        "left_port": "dordrecht",
        "cause_of_leaving": "discharged",
        "sign_with_mark": "n",
        "notes": "blk"
    },
    {
        "id": "vtls004692273_0_28",
        "type": "sailor",
        "parent": "vtls004692273",
        "name": "g cimundson",
        "dob": "blk",
        "age": "27",
        "place_of_birth": "norway",
        "home_address": "blk",
        "f": "blk",
        "name_of_ship": "[silestia]",
        "ship_port": "blk",
        "date_leaving": "1868",
        "joined_ship_date": "1868-08-19",
        "joined_at_port": "rangoon",
        "capacity": "able seaman",
        "date_left": "1869-03-02",
        "left_port": "dordrecht",
        "cause_of_leaving": "discharged",
        "sign_with_mark": "y",
        "notes": "blk"
    },
    {
        "id": "vtls004692273_0_27",
        "type": "sailor",
        "parent": "vtls004692273",
        "name": "charles thomson",
        "dob": "blk",
        "age": "23",
        "place_of_birth": "norway",
        "home_address": "blk",
        "f": "blk",
        "name_of_ship": "effort",
        "ship_port": "blk",
        "date_leaving": "1868",
        "joined_ship_date": "1868-08-19",
        "joined_at_port": "rangoon",
        "capacity": "able seaman",
        "date_left": "1869-03-02",
        "left_port": "dordrecht",
        "cause_of_leaving": "discharged",
        "sign_with_mark": "y",
        "notes": "blk"
    },
    {
        "id": "vtls004692281_0_12",
        "type": "sailor",
        "parent": "vtls004692281",
        "name": "john hughes",
        "dob": "blk",
        "age": "24",
        "place_of_birth": "llanelly",
        "home_address": "blk",
        "f": "blk",
        "name_of_ship": "cornubia",
        "ship_port": "newport",
        "date_leaving": "1869-05-17",
        "joined_ship_date": "1869-05-26",
        "joined_at_port": "newport",
        "capacity": "mate",
        "date_left": "blk",
        "left_port": "blk",
        "cause_of_leaving": "blk",
        "sign_with_mark": "n",
        "notes": "blk"
    },
    {
        "id": "vtls004692281_0_11",
        "type": "sailor",
        "parent": "vtls004692281",
        "name": "evan jones",
        "dob": "blk",
        "age": "39",
        "place_of_birth": "cardigan",
        "home_address": "blk",
        "f": "blk",
        "name_of_ship": "joan cunllo",
        "ship_port": "aberystwyth",
        "date_leaving": "blk",
        "joined_ship_date": "blk",
        "joined_at_port": "continues",
        "capacity": "master",
        "date_left": "blk",
        "left_port": "blk",
        "cause_of_leaving": "blk",
        "sign_with_mark": "n",
        "notes": "blk"
    },
    {
        "id": "vtls004692281_0_20",
        "type": "sailor",
        "parent": "vtls004692281",
        "name": "john peter jones",
        "dob": "blk",
        "age": "18",
        "place_of_birth": "prussia",
        "home_address": "blk",
        "f": "blk",
        "name_of_ship": "[annie cecelio]",
        "ship_port": "prussia",
        "date_leaving": "1869-05-25",
        "joined_ship_date": "1869-05-25",
        "joined_at_port": "newport",
        "capacity": "ordinary seaman",
        "date_left": "blk",
        "left_port": "blk",
        "cause_of_leaving": "blk",
        "sign_with_mark": "n",
        "notes": "blk"
    },
    {
        "id": "vtls004692281_0_13",
        "type": "sailor",
        "parent": "vtls004692281",
        "name": "john roderick",
        "dob": "blk",
        "age": "27",
        "place_of_birth": "aberystwyth",
        "home_address": "blk",
        "f": "blk",
        "name_of_ship": "beckworth",
        "ship_port": "north shields",
        "date_leaving": "1869-03-10",
        "joined_ship_date": "1869-05-26",
        "joined_at_port": "newport",
        "capacity": "carpenter",
        "date_left": "blk",
        "left_port": "blk",
        "cause_of_leaving": "blk",
        "sign_with_mark": "y",
        "notes": "blk"
    },
    {
        "id": "vtls004692281_0_15",
        "type": "sailor",
        "parent": "vtls004692281",
        "name": "michael donovan",
        "dob": "blk",
        "age": "24",
        "place_of_birth": "cork",
        "home_address": "blk",
        "f": "blk",
        "name_of_ship": "sunny south",
        "ship_port": "st.johns",
        "date_leaving": "1868-06-20",
        "joined_ship_date": "1869-05-25",
        "joined_at_port": "newport",
        "capacity": "able seaman",
        "date_left": "blk",
        "left_port": "blk",
        "cause_of_leaving": "blk",
        "sign_with_mark": "n",
        "notes": "blk"
    },
    {
        "id": "vtls004692281_0_17",
        "type": "sailor",
        "parent": "vtls004692281",
        "name": "joseph cox",
        "dob": "blk",
        "age": "35",
        "place_of_birth": "guernsey",
        "home_address": "blk",
        "f": "blk",
        "name_of_ship": "glen osmond",
        "ship_port": "london",
        "date_leaving": "1868-11-04",
        "joined_ship_date": "1869-05-25",
        "joined_at_port": "newport",
        "capacity": "able seaman",
        "date_left": "blk",
        "left_port": "blk",
        "cause_of_leaving": "blk",
        "sign_with_mark": "n",
        "notes": "blk"
    },
    {
        "id": "vtls004692281_0_16",
        "type": "sailor",
        "parent": "vtls004692281",
        "name": "william marshall",
        "dob": "blk",
        "age": "21",
        "place_of_birth": "liverpool",
        "home_address": "blk",
        "f": "blk",
        "name_of_ship": "medea",
        "ship_port": "plymouth",
        "date_leaving": "1869-05-08",
        "joined_ship_date": "1869-05-25",
        "joined_at_port": "newport",
        "capacity": "able seaman",
        "date_left": "blk",
        "left_port": "blk",
        "cause_of_leaving": "blk",
        "sign_with_mark": "n",
        "notes": "blk"
    },
    {
        "id": "vtls004692281_0_18",
        "type": "sailor",
        "parent": "vtls004692281",
        "name": "william knight",
        "dob": "blk",
        "age": "42",
        "place_of_birth": "liverpool",
        "home_address": "blk",
        "f": "blk",
        "name_of_ship": "[sygil]",
        "ship_port": "liverpool",
        "date_leaving": "1869-03-15",
        "joined_ship_date": "1869-05-25",
        "joined_at_port": "newport",
        "capacity": "able seaman",
        "date_left": "blk",
        "left_port": "blk",
        "cause_of_leaving": "blk",
        "sign_with_mark": "n",
        "notes": "blk"
    },
    {
        "id": "vtls004692281_0_14",
        "type": "sailor",
        "parent": "vtls004692281",
        "name": "ferdinand reiner",
        "dob": "blk",
        "age": "26",
        "place_of_birth": "bremen",
        "home_address": "blk",
        "f": "blk",
        "name_of_ship": "eliza",
        "ship_port": "newport",
        "date_leaving": "1869-05-06",
        "joined_ship_date": "1869-05-25",
        "joined_at_port": "newport",
        "capacity": "cook & steward",
        "date_left": "blk",
        "left_port": "blk",
        "cause_of_leaving": "blk",
        "sign_with_mark": "n",
        "notes": "blk"
    },
    {
        "id": "vtls004692281_0_19",
        "type": "sailor",
        "parent": "vtls004692281",
        "name": "henry kingston",
        "dob": "blk",
        "age": "17",
        "place_of_birth": "whitby",
        "home_address": "blk",
        "f": "blk",
        "name_of_ship": "first ship",
        "ship_port": "blk",
        "date_leaving": "1869-03-15",
        "joined_ship_date": "1869-05-25",
        "joined_at_port": "newport",
        "capacity": "boy",
        "date_left": "blk",
        "left_port": "blk",
        "cause_of_leaving": "blk",
        "sign_with_mark": "n",
        "notes": "blk"
    },
    {
        "id": "vtls004692281_1_13",
        "type": "sailor",
        "parent": "vtls004692281",
        "name": "john roderick",
        "dob": "blk",
        "age": "27",
        "place_of_birth": "aberystwyth",
        "home_address": "blk",
        "f": "blk",
        "name_of_ship": "backworth",
        "ship_port": "north shields",
        "date_leaving": "1869-05-25",
        "joined_ship_date": "1869-05-26",
        "joined_at_port": "newport",
        "capacity": "carpenter",
        "date_left": "1869-12-12",
        "left_port": "callao",
        "cause_of_leaving": "deserted",
        "sign_with_mark": "y",
        "notes": "blk"
    },
    {
        "id": "vtls004692281_1_15",
        "type": "sailor",
        "parent": "vtls004692281",
        "name": "huckail wonoran",
        "dob": "blk",
        "age": "24",
        "place_of_birth": "cork",
        "home_address": "blk",
        "f": "blk",
        "name_of_ship": "sunny south",
        "ship_port": "st.johns",
        "date_leaving": "1869-06-20",
        "joined_ship_date": "1869-05-25",
        "joined_at_port": "newport",
        "capacity": "able seaman",
        "date_left": "1870-09-01",
        "left_port": "genoa",
        "cause_of_leaving": "discharged",
        "sign_with_mark": "n",
        "notes": "blk"
    },
    {
        "id": "vtls004692281_1_17",
        "type": "sailor",
        "parent": "vtls004692281",
        "name": "joseph cor",
        "dob": "blk",
        "age": "35",
        "place_of_birth": "guernsey",
        "home_address": "blk",
        "f": "blk",
        "name_of_ship": "glen osmond",
        "ship_port": "london",
        "date_leaving": "1868-04-04",
        "joined_ship_date": "1869-05-25",
        "joined_at_port": "newport",
        "capacity": "able seaman",
        "date_left": "1869-12-12",
        "left_port": "callao",
        "cause_of_leaving": "deserted",
        "sign_with_mark": "n",
        "notes": "blk"
    },
    {
        "id": "vtls004692281_1_18",
        "type": "sailor",
        "parent": "vtls004692281",
        "name": "william knight",
        "dob": "blk",
        "age": "42",
        "place_of_birth": "liverpool",
        "home_address": "blk",
        "f": "blk",
        "name_of_ship": "[sygil]",
        "ship_port": "liverpool",
        "date_leaving": "1869-03-15",
        "joined_ship_date": "1869-05-25",
        "joined_at_port": "newport",
        "capacity": "able seaman",
        "date_left": "1879-12-12",
        "left_port": "callao",
        "cause_of_leaving": "deserted",
        "sign_with_mark": "n",
        "notes": "blk"
    },
    {
        "id": "vtls004692281_1_14",
        "type": "sailor",
        "parent": "vtls004692281",
        "name": "ferdinand reiner",
        "dob": "blk",
        "age": "26",
        "place_of_birth": "bremen",
        "home_address": "blk",
        "f": "blk",
        "name_of_ship": "eliza",
        "ship_port": "newport",
        "date_leaving": "1869-05-06",
        "joined_ship_date": "1869-05-25",
        "joined_at_port": "newport",
        "capacity": "cook & steward",
        "date_left": "1869-09-18",
        "left_port": "rosario",
        "cause_of_leaving": "deserted",
        "sign_with_mark": "n",
        "notes": "blk"
    },
    {
        "id": "vtls004692281_1_16",
        "type": "sailor",
        "parent": "vtls004692281",
        "name": "william marshall",
        "dob": "blk",
        "age": "21",
        "place_of_birth": "liverpool",
        "home_address": "blk",
        "f": "blk",
        "name_of_ship": "medea",
        "ship_port": "liverpool",
        "date_leaving": "1869-05-08",
        "joined_ship_date": "1869-05-25",
        "joined_at_port": "newport",
        "capacity": "able seaman",
        "date_left": "1869-09-18",
        "left_port": "genoa",
        "cause_of_leaving": "deserted",
        "sign_with_mark": "n",
        "notes": "blk"
    },
    {
        "id": "vtls004692281_1_12",
        "type": "sailor",
        "parent": "vtls004692281",
        "name": "john hughes",
        "dob": "blk",
        "age": "24",
        "place_of_birth": "llanelly",
        "home_address": "blk",
        "f": "blk",
        "name_of_ship": "cornubia",
        "ship_port": "newport",
        "date_leaving": "1869-03-10",
        "joined_ship_date": "1869-05-26",
        "joined_at_port": "newport",
        "capacity": "mate",
        "date_left": "1871-08-25",
        "left_port": "greenock",
        "cause_of_leaving": "discharged",
        "sign_with_mark": "n",
        "notes": "blk"
    },
    {
        "id": "vtls004692281_1_11",
        "type": "sailor",
        "parent": "vtls004692281",
        "name": "evan jones",
        "dob": "blk",
        "age": "39",
        "place_of_birth": "cardigan",
        "home_address": "blk",
        "f": "blk",
        "name_of_ship": "joan cunllo",
        "ship_port": "aberystwyth",
        "date_leaving": "1869-05-17",
        "joined_ship_date": "1869-05-26",
        "joined_at_port": "blk",
        "capacity": "master",
        "date_left": "blk",
        "left_port": "blk",
        "cause_of_leaving": "remains on board",
        "sign_with_mark": "n",
        "notes": "blk"
    },
    {
        "id": "vtls004692281_1_19",
        "type": "sailor",
        "parent": "vtls004692281",
        "name": "henry kingston",
        "dob": "blk",
        "age": "17",
        "place_of_birth": "whitley",
        "home_address": "blk",
        "f": "blk",
        "name_of_ship": "first ship",
        "ship_port": "blk",
        "date_leaving": "1869-03-15",
        "joined_ship_date": "1869-05-25",
        "joined_at_port": "newport",
        "capacity": "boy",
        "date_left": "1869-12-12",
        "left_port": "callao",
        "cause_of_leaving": "deserted",
        "sign_with_mark": "n",
        "notes": "blk"
    },
    {
        "id": "vtls004692281_0_21",
        "type": "sailor",
        "parent": "vtls004692281",
        "name": "john gill",
        "dob": "blk",
        "age": "19",
        "place_of_birth": "plymouth",
        "home_address": "blk",
        "f": "blk",
        "name_of_ship": "cornubia",
        "ship_port": "newport",
        "date_leaving": "1869-05-22",
        "joined_ship_date": "1869-05-25",
        "joined_at_port": "newport",
        "capacity": "ordinary seaman",
        "date_left": "blk",
        "left_port": "blk",
        "cause_of_leaving": "blk",
        "sign_with_mark": "n",
        "notes": "blk"
    },
    {
        "id": "vtls004692281_1_29",
        "type": "sailor",
        "parent": "vtls004692281",
        "name": "james ferguson",
        "dob": "blk",
        "age": "23",
        "place_of_birth": "brunswick, st.john",
        "home_address": "blk",
        "f": "blk",
        "name_of_ship": "rosario service ship",
        "ship_port": "blk",
        "date_leaving": "1869-09-01",
        "joined_ship_date": "1869-09-24",
        "joined_at_port": "callao",
        "capacity": "able seaman",
        "date_left": "1870-09-01",
        "left_port": "genoa",
        "cause_of_leaving": "discharged",
        "sign_with_mark": "n",
        "notes": "blk"
    },
    {
        "id": "vtls004692281_1_21",
        "type": "sailor",
        "parent": "vtls004692281",
        "name": "john peter jones",
        "dob": "blk",
        "age": "18",
        "place_of_birth": "prussia",
        "home_address": "blk",
        "f": "blk",
        "name_of_ship": "[annie cecelio]",
        "ship_port": "prussia",
        "date_leaving": "1869-05-25",
        "joined_ship_date": "1869-05-25",
        "joined_at_port": "newport",
        "capacity": "ordinary seaman",
        "date_left": "1869-09-18",
        "left_port": "rosario",
        "cause_of_leaving": "deserted",
        "sign_with_mark": "n",
        "notes": "blk"
    },
    {
        "id": "vtls004692281_1_27",
        "type": "sailor",
        "parent": "vtls004692281",
        "name": "a brooks",
        "dob": "blk",
        "age": "28",
        "place_of_birth": "united states",
        "home_address": "blk",
        "f": "blk",
        "name_of_ship": "emily heriman",
        "ship_port": "blk",
        "date_leaving": "1868-03",
        "joined_ship_date": "1869-09-21",
        "joined_at_port": "london",
        "capacity": "cook & steward",
        "date_left": "1870-08-19",
        "left_port": "gibraltar",
        "cause_of_leaving": "deserted",
        "sign_with_mark": "n",
        "notes": "blk"
    },
    {
        "id": "vtls004692281_1_20",
        "type": "sailor",
        "parent": "vtls004692281",
        "name": "john griffith",
        "dob": "blk",
        "age": "20",
        "place_of_birth": "swansea",
        "home_address": "blk",
        "f": "blk",
        "name_of_ship": "[william s$]",
        "ship_port": "blk",
        "date_leaving": "1869-03-15",
        "joined_ship_date": "1870-05-18",
        "joined_at_port": "callao",
        "capacity": "ordinary seaman",
        "date_left": "1870-08-10",
        "left_port": "gibraltar",
        "cause_of_leaving": "deserted",
        "sign_with_mark": "y",
        "notes": "blk"
    },
    {
        "id": "vtls004692281_1_24",
        "type": "sailor",
        "parent": "vtls004692281",
        "name": "william paycon",
        "dob": "blk",
        "age": "31",
        "place_of_birth": "birmingham",
        "home_address": "blk",
        "f": "blk",
        "name_of_ship": "[dahnotan]",
        "ship_port": "blk",
        "date_leaving": "[1865-11]",
        "joined_ship_date": "1869-09-02",
        "joined_at_port": "rosario",
        "capacity": "cook & steward",
        "date_left": "1869-12-12",
        "left_port": "callao",
        "cause_of_leaving": "deserted",
        "sign_with_mark": "n",
        "notes": "blk"
    },
    {
        "id": "vtls004692281_1_22",
        "type": "sailor",
        "parent": "vtls004692281",
        "name": "john gill",
        "dob": "blk",
        "age": "19",
        "place_of_birth": "plymouth",
        "home_address": "blk",
        "f": "blk",
        "name_of_ship": "cornubia",
        "ship_port": "newport",
        "date_leaving": "1869-05-22",
        "joined_ship_date": "1869-05-25",
        "joined_at_port": "newport",
        "capacity": "ordinary seaman",
        "date_left": "1869-09-18",
        "left_port": "rosario",
        "cause_of_leaving": "deserted",
        "sign_with_mark": "n",
        "notes": "blk"
    },
    {
        "id": "vtls004692281_1_26",
        "type": "sailor",
        "parent": "vtls004692281",
        "name": "charles church",
        "dob": "blk",
        "age": "50",
        "place_of_birth": "bristol",
        "home_address": "blk",
        "f": "blk",
        "name_of_ship": "mayflower",
        "ship_port": "blk",
        "date_leaving": "1868-01",
        "joined_ship_date": "1869-09-16",
        "joined_at_port": "london",
        "capacity": "ordinary seaman",
        "date_left": "1869-09-18",
        "left_port": "rosario",
        "cause_of_leaving": "deserted",
        "sign_with_mark": "n",
        "notes": "blk"
    },
    {
        "id": "vtls004692281_1_25",
        "type": "sailor",
        "parent": "vtls004692281",
        "name": "janer cameron",
        "dob": "blk",
        "age": "28",
        "place_of_birth": "belfast",
        "home_address": "blk",
        "f": "blk",
        "name_of_ship": "panama",
        "ship_port": "blk",
        "date_leaving": "1868-11-03",
        "joined_ship_date": "1869-09-02",
        "joined_at_port": "london",
        "capacity": "ordinary seaman",
        "date_left": "1869-09-18",
        "left_port": "rosario",
        "cause_of_leaving": "deserted",
        "sign_with_mark": "n",
        "notes": "blk"
    },
    {
        "id": "vtls004692281_1_28",
        "type": "sailor",
        "parent": "vtls004692281",
        "name": "richard waston",
        "dob": "blk",
        "age": "30",
        "place_of_birth": "ireland",
        "home_address": "blk",
        "f": "blk",
        "name_of_ship": "marmion",
        "ship_port": "blk",
        "date_leaving": "1869-07-20",
        "joined_ship_date": "1869-09-21",
        "joined_at_port": "london",
        "capacity": "able seaman",
        "date_left": "1869-12-12",
        "left_port": "callao",
        "cause_of_leaving": "deserted",
        "sign_with_mark": "n",
        "notes": "blk"
    },
    {
        "id": "vtls004692281_1_31",
        "type": "sailor",
        "parent": "vtls004692281",
        "name": "robert kenp",
        "dob": "blk",
        "age": "25",
        "place_of_birth": "staffordshire",
        "home_address": "blk",
        "f": "blk",
        "name_of_ship": "foreign ship",
        "ship_port": "blk",
        "date_leaving": "blk",
        "joined_ship_date": "1869-12-20",
        "joined_at_port": "callao",
        "capacity": "cook & steward",
        "date_left": "1870-07-20",
        "left_port": "guanape islands",
        "cause_of_leaving": "deserted",
        "sign_with_mark": "n",
        "notes": "blk"
    },
    {
        "id": "vtls004692281_1_34",
        "type": "sailor",
        "parent": "vtls004692281",
        "name": "juan de dios gonzalez",
        "dob": "blk",
        "age": "21",
        "place_of_birth": "peru",
        "home_address": "blk",
        "f": "blk",
        "name_of_ship": "foreign ship",
        "ship_port": "blk",
        "date_leaving": "1869-12-03",
        "joined_ship_date": "1869-07-03",
        "joined_at_port": "callao",
        "capacity": "able seaman",
        "date_left": "1870-07",
        "left_port": "guanape islands",
        "cause_of_leaving": "deserted",
        "sign_with_mark": "n",
        "notes": "blk"
    },
    {
        "id": "vtls004692281_1_36",
        "type": "sailor",
        "parent": "vtls004692281",
        "name": "carmen carazeo",
        "dob": "blk",
        "age": "21",
        "place_of_birth": "peru",
        "home_address": "blk",
        "f": "blk",
        "name_of_ship": "foreign ship",
        "ship_port": "blk",
        "date_leaving": "1869-12-03",
        "joined_ship_date": "1869-07-03",
        "joined_at_port": "callao",
        "capacity": "able seaman",
        "date_left": "1870-07-22",
        "left_port": "guanape islands",
        "cause_of_leaving": "deserted",
        "sign_with_mark": "n",
        "notes": "blk"
    },
    {
        "id": "vtls004692281_1_37",
        "type": "sailor",
        "parent": "vtls004692281",
        "name": "jose  rojas",
        "dob": "blk",
        "age": "29",
        "place_of_birth": "chile",
        "home_address": "blk",
        "f": "blk",
        "name_of_ship": "foreign ship",
        "ship_port": "blk",
        "date_leaving": "1869-12-03",
        "joined_ship_date": "1869-07-03",
        "joined_at_port": "callao",
        "capacity": "able seaman",
        "date_left": "1871-07-02",
        "left_port": "guanape islands",
        "cause_of_leaving": "derserted",
        "sign_with_mark": "n",
        "notes": "blk"
    },
    {
        "id": "vtls004692281_1_35",
        "type": "sailor",
        "parent": "vtls004692281",
        "name": "thades morally",
        "dob": "blk",
        "age": "20",
        "place_of_birth": "chile",
        "home_address": "blk",
        "f": "blk",
        "name_of_ship": "foreign ship",
        "ship_port": "blk",
        "date_leaving": "1869-12-03",
        "joined_ship_date": "1869-07-03",
        "joined_at_port": "callao",
        "capacity": "able seaman",
        "date_left": "1870-07",
        "left_port": "guanape islands",
        "cause_of_leaving": "deserted",
        "sign_with_mark": "n",
        "notes": "blk"
    },
    {
        "id": "vtls004692281_1_30",
        "type": "sailor",
        "parent": "vtls004692281",
        "name": "john russell",
        "dob": "blk",
        "age": "21",
        "place_of_birth": "st johns new brunswick",
        "home_address": "blk",
        "f": "blk",
        "name_of_ship": "[idem]",
        "ship_port": "blk",
        "date_leaving": "blk",
        "joined_ship_date": "1869-09-24",
        "joined_at_port": "callao",
        "capacity": "able seaman",
        "date_left": "1870-09-01",
        "left_port": "genoa",
        "cause_of_leaving": "discharged",
        "sign_with_mark": "n",
        "notes": "blk"
    },
    {
        "id": "vtls004692281_1_33",
        "type": "sailor",
        "parent": "vtls004692281",
        "name": "david m jones",
        "dob": "blk",
        "age": "11",
        "place_of_birth": "cardigan",
        "home_address": "blk",
        "f": "blk",
        "name_of_ship": "first ship",
        "ship_port": "blk",
        "date_leaving": "blk",
        "joined_ship_date": "1869-12-31",
        "joined_at_port": "callao",
        "capacity": "boy",
        "date_left": "1871-08-21",
        "left_port": "greenock",
        "cause_of_leaving": "discharged",
        "sign_with_mark": "n",
        "notes": "blk"
    },
    {
        "id": "vtls004692281_1_32",
        "type": "sailor",
        "parent": "vtls004692281",
        "name": "john pascal",
        "dob": "blk",
        "age": "17",
        "place_of_birth": "guernsey",
        "home_address": "blk",
        "f": "blk",
        "name_of_ship": "favorite",
        "ship_port": "blk",
        "date_leaving": "1869-12-19",
        "joined_ship_date": "1869-12-22",
        "joined_at_port": "callao",
        "capacity": "boy",
        "date_left": "1870-12-12",
        "left_port": "callao",
        "cause_of_leaving": "deserted",
        "sign_with_mark": "n",
        "notes": "blk"
    },
    {
        "id": "vtls004692281_2_11",
        "type": "sailor",
        "parent": "vtls004692281",
        "name": "george mariman",
        "dob": "blk",
        "age": "37",
        "place_of_birth": "richmond",
        "home_address": "blk",
        "f": "blk",
        "name_of_ship": "albert edward",
        "ship_port": "south shields",
        "date_leaving": "1870-09-01",
        "joined_ship_date": "1870-09-01",
        "joined_at_port": "genoa, italy",
        "capacity": "carpenter and able seaman",
        "date_left": "1871-03-02",
        "left_port": "lisbon",
        "cause_of_leaving": "discharged",
        "sign_with_mark": "n",
        "notes": "blk"
    },
    {
        "id": "vtls004692281_2_17",
        "type": "sailor",
        "parent": "vtls004692281",
        "name": "john m george",
        "dob": "blk",
        "age": "45",
        "place_of_birth": "fifeshire",
        "home_address": "blk",
        "f": "blk",
        "name_of_ship": "italian barque chili",
        "ship_port": "geona",
        "date_leaving": "1870-09",
        "joined_ship_date": "1870-10-11",
        "joined_at_port": "genoa, italy",
        "capacity": "able seaman",
        "date_left": "blk",
        "left_port": "blk",
        "cause_of_leaving": "never joined this ship",
        "sign_with_mark": "n",
        "notes": "blk"
    },
    {
        "id": "vtls004692281_2_16",
        "type": "sailor",
        "parent": "vtls004692281",
        "name": "william peuss",
        "dob": "blk",
        "age": "17",
        "place_of_birth": "prussia",
        "home_address": "blk",
        "f": "blk",
        "name_of_ship": "foreign ship",
        "ship_port": "blk",
        "date_leaving": "blk",
        "joined_ship_date": "1870-09-30",
        "joined_at_port": "genoa, italy",
        "capacity": "ordinary seaman",
        "date_left": "1871-05-14",
        "left_port": "boston",
        "cause_of_leaving": "discharged",
        "sign_with_mark": "n",
        "notes": "blk"
    },
    {
        "id": "vtls004692281_2_12",
        "type": "sailor",
        "parent": "vtls004692281",
        "name": "robert doughty",
        "dob": "blk",
        "age": "24",
        "place_of_birth": "barbados",
        "home_address": "blk",
        "f": "blk",
        "name_of_ship": "aletheia",
        "ship_port": "london",
        "date_leaving": "1870-08-24",
        "joined_ship_date": "1870-09-07",
        "joined_at_port": "genoa, italy",
        "capacity": "cook",
        "date_left": "1870-12-03",
        "left_port": "gibraltar",
        "cause_of_leaving": "discharged",
        "sign_with_mark": "n",
        "notes": "blk"
    },
    {
        "id": "vtls004692281_2_14",
        "type": "sailor",
        "parent": "vtls004692281",
        "name": "george dethalf",
        "dob": "blk",
        "age": "24",
        "place_of_birth": "dantzic",
        "home_address": "blk",
        "f": "blk",
        "name_of_ship": "foreign ship",
        "ship_port": "blk",
        "date_leaving": "blk",
        "joined_ship_date": "1870-09-12",
        "joined_at_port": "genoa, italy",
        "capacity": "ordinary seaman",
        "date_left": "1871-05-14",
        "left_port": "boston",
        "cause_of_leaving": "discharged",
        "sign_with_mark": "y",
        "notes": "blk"
    },
    {
        "id": "vtls004692281_2_13",
        "type": "sailor",
        "parent": "vtls004692281",
        "name": "george donald",
        "dob": "blk",
        "age": "34",
        "place_of_birth": "dundee",
        "home_address": "blk",
        "f": "blk",
        "name_of_ship": "aletheia",
        "ship_port": "london",
        "date_leaving": "1870-08-24",
        "joined_ship_date": "1870-09-12",
        "joined_at_port": "genoa, italy",
        "capacity": "able seaman",
        "date_left": "1870-11-12",
        "left_port": "leghorn",
        "cause_of_leaving": "deserted",
        "sign_with_mark": "n",
        "notes": "blk"
    },
    {
        "id": "vtls004692281_1_38",
        "type": "sailor",
        "parent": "vtls004692281",
        "name": "henry thomson",
        "dob": "blk",
        "age": "23",
        "place_of_birth": "dantzic",
        "home_address": "blk",
        "f": "blk",
        "name_of_ship": "foreign ship",
        "ship_port": "blk",
        "date_leaving": "blk",
        "joined_ship_date": "1870-$$-17",
        "joined_at_port": "callao",
        "capacity": "able seaman",
        "date_left": "1870-05-02",
        "left_port": "lisbon",
        "cause_of_leaving": "discharged",
        "sign_with_mark": "n",
        "notes": "blk"
    },
    {
        "id": "vtls004692281_1_39",
        "type": "sailor",
        "parent": "vtls004692281",
        "name": "robert micheal",
        "dob": "blk",
        "age": "21",
        "place_of_birth": "cardiff",
        "home_address": "blk",
        "f": "blk",
        "name_of_ship": "foreign ship",
        "ship_port": "blk",
        "date_leaving": "blk",
        "joined_ship_date": "1870-$$-17",
        "joined_at_port": "callao",
        "capacity": "able seaman",
        "date_left": "1871-09-01",
        "left_port": "genoa",
        "cause_of_leaving": "discharged",
        "sign_with_mark": "n",
        "notes": "blk"
    },
    {
        "id": "vtls004692281_1_40",
        "type": "sailor",
        "parent": "vtls004692281",
        "name": "charles price",
        "dob": "blk",
        "age": "20",
        "place_of_birth": "cardiff",
        "home_address": "blk",
        "f": "blk",
        "name_of_ship": "foreign ship",
        "ship_port": "blk",
        "date_leaving": "blk",
        "joined_ship_date": "1870-$$-17",
        "joined_at_port": "callao",
        "capacity": "able seaman",
        "date_left": "1870-09-01",
        "left_port": "genoa",
        "cause_of_leaving": "discharged",
        "sign_with_mark": "y",
        "notes": "blk"
    },
    {
        "id": "vtls004692281_2_15",
        "type": "sailor",
        "parent": "vtls004692281",
        "name": "joseph meyer",
        "dob": "blk",
        "age": "23",
        "place_of_birth": "hamburg",
        "home_address": "blk",
        "f": "blk",
        "name_of_ship": "foreign ship",
        "ship_port": "blk",
        "date_leaving": "blk",
        "joined_ship_date": "1870-09-13",
        "joined_at_port": "genoa, italy",
        "capacity": "able seaman",
        "date_left": "1870-11-12",
        "left_port": "leghorn",
        "cause_of_leaving": "deserted",
        "sign_with_mark": "n",
        "notes": "blk"
    },
    {
        "id": "vtls004692281_2_18",
        "type": "sailor",
        "parent": "vtls004692281",
        "name": "ludwig fisher",
        "dob": "blk",
        "age": "17",
        "place_of_birth": "leghorn",
        "home_address": "blk",
        "f": "blk",
        "name_of_ship": "[sophia pate]",
        "ship_port": "leghorn",
        "date_leaving": "1870-08-21",
        "joined_ship_date": "1870-11-11",
        "joined_at_port": "leghorn",
        "capacity": "boy",
        "date_left": "1871-05-14",
        "left_port": "boston",
        "cause_of_leaving": "discharged",
        "sign_with_mark": "n",
        "notes": "livorno : english traditionally leghorn"
    },
    {
        "id": "vtls004692281_2_21",
        "type": "sailor",
        "parent": "vtls004692281",
        "name": "galaberto freesqui",
        "dob": "blk",
        "age": "31",
        "place_of_birth": "civita vecchia",
        "home_address": "blk",
        "f": "blk",
        "name_of_ship": "foreign ship",
        "ship_port": "blk",
        "date_leaving": "1870",
        "joined_ship_date": "1870-12-06",
        "joined_at_port": "leghorn",
        "capacity": "able seaman",
        "date_left": "1871-05-14",
        "left_port": "boston",
        "cause_of_leaving": "discharged",
        "sign_with_mark": "y",
        "notes": "blk"
    },
    {
        "id": "vtls004692281_2_26",
        "type": "sailor",
        "parent": "vtls004692281",
        "name": "john nelson",
        "dob": "blk",
        "age": "19",
        "place_of_birth": "earlston, scotland",
        "home_address": "blk",
        "f": "blk",
        "name_of_ship": "liffey",
        "ship_port": "chester",
        "date_leaving": "1870",
        "joined_ship_date": "1871-01-10",
        "joined_at_port": "lisbon",
        "capacity": "ordinary seaman",
        "date_left": "1871-08-21",
        "left_port": "greenock",
        "cause_of_leaving": "discharged",
        "sign_with_mark": "y",
        "notes": "blk"
    },
    {
        "id": "vtls004692281_2_24",
        "type": "sailor",
        "parent": "vtls004692281",
        "name": "edward revill",
        "dob": "blk",
        "age": "21",
        "place_of_birth": "baden, lincolnshire",
        "home_address": "blk",
        "f": "blk",
        "name_of_ship": "liffey",
        "ship_port": "chester",
        "date_leaving": "1870",
        "joined_ship_date": "1871-01-10",
        "joined_at_port": "lisbon",
        "capacity": "able seaman",
        "date_left": "1871-08-21",
        "left_port": "greenock",
        "cause_of_leaving": "discharged",
        "sign_with_mark": "n",
        "notes": "blk"
    },
    {
        "id": "vtls004692281_2_20",
        "type": "sailor",
        "parent": "vtls004692281",
        "name": "william tandring",
        "dob": "blk",
        "age": "26",
        "place_of_birth": "prussia",
        "home_address": "blk",
        "f": "blk",
        "name_of_ship": "n.g.l. ship",
        "ship_port": "blk",
        "date_leaving": "1870",
        "joined_ship_date": "1870-12-05",
        "joined_at_port": "leghorn",
        "capacity": "cook & steward",
        "date_left": "1871-05-02",
        "left_port": "lisbon",
        "cause_of_leaving": "discharged",
        "sign_with_mark": "n",
        "notes": "blk"
    },
    {
        "id": "vtls004692281_2_23",
        "type": "sailor",
        "parent": "vtls004692281",
        "name": "richard wheelan",
        "dob": "blk",
        "age": "24",
        "place_of_birth": "liverpool",
        "home_address": "blk",
        "f": "blk",
        "name_of_ship": "f.h. odioine",
        "ship_port": "[picton n s]",
        "date_leaving": "1870-12-06",
        "joined_ship_date": "1870-12-07",
        "joined_at_port": "leghorn",
        "capacity": "mate",
        "date_left": "1871-05-14",
        "left_port": "boston",
        "cause_of_leaving": "discharged",
        "sign_with_mark": "n",
        "notes": "blk"
    },
    {
        "id": "vtls004692281_2_19",
        "type": "sailor",
        "parent": "vtls004692281",
        "name": "thomas sealis",
        "dob": "blk",
        "age": "29",
        "place_of_birth": "new york",
        "home_address": "blk",
        "f": "blk",
        "name_of_ship": "evadne",
        "ship_port": "sunderland",
        "date_leaving": "1870-11-07",
        "joined_ship_date": "1870-11-11",
        "joined_at_port": "leghorn",
        "capacity": "able seaman",
        "date_left": "1871-05-14",
        "left_port": "boston",
        "cause_of_leaving": "discharged",
        "sign_with_mark": "n",
        "notes": "blk"
    },
    {
        "id": "vtls004692281_2_22",
        "type": "sailor",
        "parent": "vtls004692281",
        "name": "augusto desoiza",
        "dob": "blk",
        "age": "25",
        "place_of_birth": "olhao",
        "home_address": "blk",
        "f": "blk",
        "name_of_ship": "blk",
        "ship_port": "blk",
        "date_leaving": "blk",
        "joined_ship_date": "1870-12-06",
        "joined_at_port": "leghorn",
        "capacity": "apprentice & ordinary seaman",
        "date_left": "1871-05-02",
        "left_port": "lisbon",
        "cause_of_leaving": "deserted",
        "sign_with_mark": "y",
        "notes": "blk"
    },
    {
        "id": "vtls004692281_2_25",
        "type": "sailor",
        "parent": "vtls004692281",
        "name": "christen hansen",
        "dob": "blk",
        "age": "22",
        "place_of_birth": "copenhagen",
        "home_address": "blk",
        "f": "blk",
        "name_of_ship": "liffey",
        "ship_port": "chester",
        "date_leaving": "1870",
        "joined_ship_date": "1871-01-10",
        "joined_at_port": "lisbon",
        "capacity": "able seaman",
        "date_left": "1871-05-02",
        "left_port": "lisbon",
        "cause_of_leaving": "discharged",
        "sign_with_mark": "n",
        "notes": "blk"
    },
    {
        "id": "vtls004692281_3_17",
        "type": "sailor",
        "parent": "vtls004692281",
        "name": "alen p pi$$",
        "dob": "blk",
        "age": "23",
        "place_of_birth": "new york",
        "home_address": "blk",
        "f": "blk",
        "name_of_ship": "plymouth rock",
        "ship_port": "baltimore",
        "date_leaving": "1871",
        "joined_ship_date": "1871-05-06",
        "joined_at_port": "boston",
        "capacity": "able seaman",
        "date_left": "1871-05-18",
        "left_port": "boston",
        "cause_of_leaving": "failed to join",
        "sign_with_mark": "n",
        "notes": "blk"
    },
    {
        "id": "vtls004692281_3_14",
        "type": "sailor",
        "parent": "vtls004692281",
        "name": "william johnston",
        "dob": "blk",
        "age": "24",
        "place_of_birth": "ireland",
        "home_address": "blk",
        "f": "blk",
        "name_of_ship": "maggie vale",
        "ship_port": "baltimore",
        "date_leaving": "1871",
        "joined_ship_date": "1871-05-06",
        "joined_at_port": "boston",
        "capacity": "able seaman",
        "date_left": "1871-08-21",
        "left_port": "greenock",
        "cause_of_leaving": "discharged",
        "sign_with_mark": "n",
        "notes": "blk"
    },
    {
        "id": "vtls004692281_3_15",
        "type": "sailor",
        "parent": "vtls004692281",
        "name": "william orr",
        "dob": "blk",
        "age": "19",
        "place_of_birth": "scotland",
        "home_address": "blk",
        "f": "blk",
        "name_of_ship": "maggie vale",
        "ship_port": "baltimore",
        "date_leaving": "1871",
        "joined_ship_date": "1871-05-06",
        "joined_at_port": "boston",
        "capacity": "able seaman",
        "date_left": "1871-05-16",
        "left_port": "boston",
        "cause_of_leaving": "did not join",
        "sign_with_mark": "n",
        "notes": "blk"
    },
    {
        "id": "vtls004692281_3_16",
        "type": "sailor",
        "parent": "vtls004692281",
        "name": "david smith",
        "dob": "blk",
        "age": "21",
        "place_of_birth": "scotland",
        "home_address": "blk",
        "f": "blk",
        "name_of_ship": "maggie vale",
        "ship_port": "baltimore",
        "date_leaving": "1871",
        "joined_ship_date": "1871-05-06",
        "joined_at_port": "boston",
        "capacity": "able seaman",
        "date_left": "1871-05-16",
        "left_port": "boston",
        "cause_of_leaving": "did not join",
        "sign_with_mark": "n",
        "notes": "blk"
    },
    {
        "id": "vtls004692281_2_27",
        "type": "sailor",
        "parent": "vtls004692281",
        "name": "john perreira",
        "dob": "blk",
        "age": "40",
        "place_of_birth": "gibraltar",
        "home_address": "blk",
        "f": "blk",
        "name_of_ship": "foreign ship",
        "ship_port": "blk",
        "date_leaving": "1871",
        "joined_ship_date": "1871-03-09",
        "joined_at_port": "lisbon",
        "capacity": "able seaman",
        "date_left": "blk",
        "left_port": "blk",
        "cause_of_leaving": "never joined this ship",
        "sign_with_mark": "y",
        "notes": "blk"
    },
    {
        "id": "vtls004692281_3_11",
        "type": "sailor",
        "parent": "vtls004692281",
        "name": "george fletcher",
        "dob": "blk",
        "age": "22",
        "place_of_birth": "st kitts",
        "home_address": "blk",
        "f": "blk",
        "name_of_ship": "maili",
        "ship_port": "blk",
        "date_leaving": "1870",
        "joined_ship_date": "1871-07-08",
        "joined_at_port": "st. kitts",
        "capacity": "ordinary seaman",
        "date_left": "1871-08-21",
        "left_port": "greenock",
        "cause_of_leaving": "discharged",
        "sign_with_mark": "y",
        "notes": "blk"
    },
    {
        "id": "vtls004692281_3_13",
        "type": "sailor",
        "parent": "vtls004692281",
        "name": "henry burges",
        "dob": "blk",
        "age": "29",
        "place_of_birth": "kingston",
        "home_address": "blk",
        "f": "blk",
        "name_of_ship": "the queen",
        "ship_port": "blk",
        "date_leaving": "1871",
        "joined_ship_date": "1871-05-15",
        "joined_at_port": "boston",
        "capacity": "cook & steward",
        "date_left": "blk",
        "left_port": "blk",
        "cause_of_leaving": "did not join",
        "sign_with_mark": "y",
        "notes": "blk"
    },
    {
        "id": "vtls004692281_3_12",
        "type": "sailor",
        "parent": "vtls004692281",
        "name": "c williams",
        "dob": "blk",
        "age": "23",
        "place_of_birth": "st helena",
        "home_address": "blk",
        "f": "blk",
        "name_of_ship": "annie s",
        "ship_port": "blk",
        "date_leaving": "1871",
        "joined_ship_date": "1871-05-16",
        "joined_at_port": "boston",
        "capacity": "cook & steward",
        "date_left": "blk",
        "left_port": "blk",
        "cause_of_leaving": "never joined",
        "sign_with_mark": "n",
        "notes": "blk"
    },
    {
        "id": "vtls004692281_3_26",
        "type": "sailor",
        "parent": "vtls004692281",
        "name": "c williams",
        "dob": "blk",
        "age": "27",
        "place_of_birth": "st helena",
        "home_address": "blk",
        "f": "blk",
        "name_of_ship": "john cunllo",
        "ship_port": "aberystwyth",
        "date_leaving": "1871",
        "joined_ship_date": "1871-03-30",
        "joined_at_port": "st. kitts",
        "capacity": "cook & steward",
        "date_left": "1871-07-06",
        "left_port": "st kitts",
        "cause_of_leaving": "deserted",
        "sign_with_mark": "n",
        "notes": "blk"
    },
    {
        "id": "vtls004692281_3_27",
        "type": "sailor",
        "parent": "vtls004692281",
        "name": "william johnson",
        "dob": "blk",
        "age": "23",
        "place_of_birth": "st vincent",
        "home_address": "blk",
        "f": "blk",
        "name_of_ship": "[turerora]",
        "ship_port": "blk",
        "date_leaving": "1870",
        "joined_ship_date": "1871-07-07",
        "joined_at_port": "st. kitts",
        "capacity": "ordinary seaman",
        "date_left": "1871-08-21",
        "left_port": "greenock",
        "cause_of_leaving": "discharged",
        "sign_with_mark": "n",
        "notes": "blk"
    },
    {
        "id": "vtls004692281_3_19",
        "type": "sailor",
        "parent": "vtls004692281",
        "name": "john anderson",
        "dob": "blk",
        "age": "30",
        "place_of_birth": "scotland",
        "home_address": "blk",
        "f": "blk",
        "name_of_ship": "j clark",
        "ship_port": "philadephia",
        "date_leaving": "1871",
        "joined_ship_date": "1871-05-15",
        "joined_at_port": "boston",
        "capacity": "able seaman",
        "date_left": "1871-07-06",
        "left_port": "st kitts",
        "cause_of_leaving": "deserted",
        "sign_with_mark": "n",
        "notes": "blk"
    },
    {
        "id": "vtls004692281_3_18",
        "type": "sailor",
        "parent": "vtls004692281",
        "name": "james leonard",
        "dob": "blk",
        "age": "38",
        "place_of_birth": "bristol",
        "home_address": "blk",
        "f": "blk",
        "name_of_ship": "lizzie carr",
        "ship_port": "blk",
        "date_leaving": "1871",
        "joined_ship_date": "1871-05-15",
        "joined_at_port": "boston",
        "capacity": "able seaman",
        "date_left": "1871-08-21",
        "left_port": "greenock",
        "cause_of_leaving": "discharged",
        "sign_with_mark": "n",
        "notes": "blk"
    },
    {
        "id": "vtls004692281_3_21",
        "type": "sailor",
        "parent": "vtls004692281",
        "name": "dennis qinom",
        "dob": "blk",
        "age": "20",
        "place_of_birth": "boston",
        "home_address": "blk",
        "f": "blk",
        "name_of_ship": "cromwell",
        "ship_port": "blk",
        "date_leaving": "1871",
        "joined_ship_date": "1871-05-18",
        "joined_at_port": "boston",
        "capacity": "able seaman",
        "date_left": "1871-06-13",
        "left_port": "st kitts",
        "cause_of_leaving": "discharged",
        "sign_with_mark": "n",
        "notes": "blk"
    },
    {
        "id": "vtls004692281_3_20",
        "type": "sailor",
        "parent": "vtls004692281",
        "name": "whfurleng",
        "dob": "blk",
        "age": "26",
        "place_of_birth": "new york",
        "home_address": "blk",
        "f": "blk",
        "name_of_ship": "raindeer",
        "ship_port": "blk",
        "date_leaving": "1871",
        "joined_ship_date": "1871-05-18",
        "joined_at_port": "boston",
        "capacity": "able seaman",
        "date_left": "1871-05-18",
        "left_port": "boston",
        "cause_of_leaving": "did not join",
        "sign_with_mark": "y",
        "notes": "blk"
    },
    {
        "id": "vtls004692281_3_23",
        "type": "sailor",
        "parent": "vtls004692281",
        "name": "henry bond",
        "dob": "blk",
        "age": "38",
        "place_of_birth": "bristol",
        "home_address": "blk",
        "f": "blk",
        "name_of_ship": "dacia",
        "ship_port": "london",
        "date_leaving": "1871",
        "joined_ship_date": "1871-06-15",
        "joined_at_port": "st. kitts",
        "capacity": "able seaman",
        "date_left": "1871-07-06",
        "left_port": "st kitts",
        "cause_of_leaving": "deserted",
        "sign_with_mark": "n",
        "notes": "blk"
    },
    {
        "id": "vtls004692281_3_22",
        "type": "sailor",
        "parent": "vtls004692281",
        "name": "john lloyd",
        "dob": "blk",
        "age": "39",
        "place_of_birth": "antigua",
        "home_address": "blk",
        "f": "blk",
        "name_of_ship": "flying scud",
        "ship_port": "ns",
        "date_leaving": "1870",
        "joined_ship_date": "1871-06-12",
        "joined_at_port": "st. kitts",
        "capacity": "able seaman",
        "date_left": "blk",
        "left_port": "blk",
        "cause_of_leaving": "did not join",
        "sign_with_mark": "n",
        "notes": "blk"
    },
    {
        "id": "vtls004692281_3_24",
        "type": "sailor",
        "parent": "vtls004692281",
        "name": "h dickason",
        "dob": "blk",
        "age": "21",
        "place_of_birth": "$",
        "home_address": "blk",
        "f": "blk",
        "name_of_ship": "lochleven",
        "ship_port": "blk",
        "date_leaving": "1870",
        "joined_ship_date": "1871-06-14",
        "joined_at_port": "st. kitts",
        "capacity": "able seaman",
        "date_left": "1871-07-06",
        "left_port": "st kitts",
        "cause_of_leaving": "deserted",
        "sign_with_mark": "n",
        "notes": "blk"
    },
    {
        "id": "vtls004692281_3_25",
        "type": "sailor",
        "parent": "vtls004692281",
        "name": "edwin pickwood",
        "dob": "blk",
        "age": "19",
        "place_of_birth": "st kitts",
        "home_address": "blk",
        "f": "blk",
        "name_of_ship": "blk",
        "ship_port": "blk",
        "date_leaving": "blk",
        "joined_ship_date": "1871-06-23",
        "joined_at_port": "st. kitts",
        "capacity": "carpenter",
        "date_left": "1871-07-06",
        "left_port": "st kitts",
        "cause_of_leaving": "deserted",
        "sign_with_mark": "n",
        "notes": "blk"
    },
    {
        "id": "vtls004692281_3_28",
        "type": "sailor",
        "parent": "vtls004692281",
        "name": "henry page",
        "dob": "blk",
        "age": "blk",
        "place_of_birth": "st kitts",
        "home_address": "blk",
        "f": "blk",
        "name_of_ship": "[alabar]",
        "ship_port": "london",
        "date_leaving": "1867",
        "joined_ship_date": "1871-07-09",
        "joined_at_port": "st. kitts",
        "capacity": "able seaman",
        "date_left": "1871-08-21",
        "left_port": "greenock",
        "cause_of_leaving": "discharged",
        "sign_with_mark": "n",
        "notes": "blk"
    }
]