[
    {
        "id": "vtls004933794_0_11",
        "type": "sailor",
        "parent": "vtls004933794",
        "name": "evan jones",
        "dob": "blk",
        "age": "29",
        "place_of_birth": "aberaeron",
        "home_address": "blk",
        "f": "blk",
        "name_of_ship": "native pearl",
        "ship_port": "aberystwyth",
        "date_leaving": "1879",
        "joined_ship_date": "1879-12-13",
        "joined_at_port": "cardiff",
        "capacity": "master",
        "date_left": "blk",
        "left_port": "blk",
        "cause_of_leaving": "remains on board",
        "sign_with_mark": "n",
        "notes": "blk"
    },
    {
        "id": "vtls004933794_0_12",
        "type": "sailor",
        "parent": "vtls004933794",
        "name": "evan jones",
        "dob": "blk",
        "age": "37",
        "place_of_birth": "aberaeron",
        "home_address": "blk",
        "f": "blk",
        "name_of_ship": "emulous",
        "ship_port": "london",
        "date_leaving": "1879",
        "joined_ship_date": "1879-12-13",
        "joined_at_port": "cardiff",
        "capacity": "mate",
        "date_left": "1880-08-24",
        "left_port": "runcorn",
        "cause_of_leaving": "discharged",
        "sign_with_mark": "n",
        "notes": "blk"
    },
    {
        "id": "vtls004933794_0_17",
        "type": "sailor",
        "parent": "vtls004933794",
        "name": "benjamin jones",
        "dob": "blk",
        "age": "34",
        "place_of_birth": "aberaeron",
        "home_address": "blk",
        "f": "blk",
        "name_of_ship": "native pearl",
        "ship_port": "aberystwyth",
        "date_leaving": "1879",
        "joined_ship_date": "1879-12-15",
        "joined_at_port": "cardiff",
        "capacity": "cook & able seaman",
        "date_left": "1880-08-11",
        "left_port": "runcorn",
        "cause_of_leaving": "discharged",
        "sign_with_mark": "n",
        "notes": "blk"
    },
    {
        "id": "vtls004933794_0_13",
        "type": "sailor",
        "parent": "vtls004933794",
        "name": "edward john lewis",
        "dob": "blk",
        "age": "18",
        "place_of_birth": "holyhead",
        "home_address": "blk",
        "f": "blk",
        "name_of_ship": "native pearl",
        "ship_port": "aberystwyth",
        "date_leaving": "1879",
        "joined_ship_date": "1879-12-13",
        "joined_at_port": "cardiff",
        "capacity": "boatswain",
        "date_left": "1880-08-11",
        "left_port": "runcorn",
        "cause_of_leaving": "discharged",
        "sign_with_mark": "n",
        "notes": "blk"
    },
    {
        "id": "vtls004933794_0_14",
        "type": "sailor",
        "parent": "vtls004933794",
        "name": "morgan jones",
        "dob": "blk",
        "age": "18",
        "place_of_birth": "aberaeron",
        "home_address": "blk",
        "f": "blk",
        "name_of_ship": "native pearl",
        "ship_port": "aberystwyth",
        "date_leaving": "1879",
        "joined_ship_date": "1879-12-13",
        "joined_at_port": "cardiff",
        "capacity": "able seaman",
        "date_left": "1880-08-11",
        "left_port": "runcorn",
        "cause_of_leaving": "discharged",
        "sign_with_mark": "n",
        "notes": "blk"
    },
    {
        "id": "vtls004933794_0_18",
        "type": "sailor",
        "parent": "vtls004933794",
        "name": "john onola",
        "dob": "blk",
        "age": "24",
        "place_of_birth": "finland",
        "home_address": "blk",
        "f": "blk",
        "name_of_ship": "[hammerman]",
        "ship_port": "newcastle",
        "date_leaving": "1879",
        "joined_ship_date": "1879-12-18",
        "joined_at_port": "cardiff",
        "capacity": "able seaman",
        "date_left": "1880-08-11",
        "left_port": "runcorn",
        "cause_of_leaving": "discharged",
        "sign_with_mark": "y",
        "notes": "blk"
    },
    {
        "id": "vtls004933794_0_16",
        "type": "sailor",
        "parent": "vtls004933794",
        "name": "a hansen",
        "dob": "blk",
        "age": "23",
        "place_of_birth": "newry",
        "home_address": "blk",
        "f": "blk",
        "name_of_ship": "[diligent]",
        "ship_port": "norway",
        "date_leaving": "1879",
        "joined_ship_date": "1879-12-15",
        "joined_at_port": "cardiff",
        "capacity": "able seaman",
        "date_left": "1880-08-11",
        "left_port": "runcorn",
        "cause_of_leaving": "discharged",
        "sign_with_mark": "n",
        "notes": "blk"
    },
    {
        "id": "vtls004934059_0_11",
        "type": "sailor",
        "parent": "vtls004934059",
        "name": "evan jones",
        "dob": "1849",
        "age": "blk",
        "place_of_birth": "cardigan",
        "home_address": "blk",
        "f": "blk",
        "name_of_ship": "native pearl",
        "ship_port": "aberystwyth",
        "date_leaving": "blk",
        "joined_ship_date": "blk",
        "joined_at_port": "blk",
        "capacity": "master",
        "date_left": "blk",
        "left_port": "greenock",
        "cause_of_leaving": "remains on board",
        "sign_with_mark": "n",
        "notes": "blk"
    },
    {
        "id": "vtls004933794_0_15",
        "type": "sailor",
        "parent": "vtls004933794",
        "name": "d jackson",
        "dob": "blk",
        "age": "25",
        "place_of_birth": "sydney",
        "home_address": "blk",
        "f": "blk",
        "name_of_ship": "orient",
        "ship_port": "glasgow",
        "date_leaving": "1879",
        "joined_ship_date": "1879-12-15",
        "joined_at_port": "cardiff",
        "capacity": "able seaman",
        "date_left": "1880-12-17",
        "left_port": "cardiff",
        "cause_of_leaving": "deserted",
        "sign_with_mark": "n",
        "notes": "blk"
    },
    {
        "id": "vtls004934059_0_17",
        "type": "sailor",
        "parent": "vtls004934059",
        "name": "cornelius hurrley",
        "dob": "1863",
        "age": "blk",
        "place_of_birth": "baltimore, ireland",
        "home_address": "blk",
        "f": "blk",
        "name_of_ship": "waterloo",
        "ship_port": "aberystwyth",
        "date_leaving": "1880",
        "joined_ship_date": "1880-09-04",
        "joined_at_port": "liverpool",
        "capacity": "ordinary seaman",
        "date_left": "1881-07-01",
        "left_port": "greenock",
        "cause_of_leaving": "discharged",
        "sign_with_mark": "n",
        "notes": "blk"
    },
    {
        "id": "vtls004934059_0_14",
        "type": "sailor",
        "parent": "vtls004934059",
        "name": "a sidemond",
        "dob": "1856",
        "age": "blk",
        "place_of_birth": "laurvig, norway",
        "home_address": "blk",
        "f": "blk",
        "name_of_ship": "native pearl",
        "ship_port": "aberystwyth",
        "date_leaving": "1880",
        "joined_ship_date": "1880-09-04",
        "joined_at_port": "liverpool",
        "capacity": "able seaman",
        "date_left": "1881-07-01",
        "left_port": "rio grande",
        "cause_of_leaving": "discharged",
        "sign_with_mark": "n",
        "notes": "blk"
    },
    {
        "id": "vtls004934059_0_15",
        "type": "sailor",
        "parent": "vtls004934059",
        "name": "patrick mcilroy",
        "dob": "1857",
        "age": "blk",
        "place_of_birth": "glasgow",
        "home_address": "blk",
        "f": "blk",
        "name_of_ship": "c m  reynolds",
        "ship_port": "belfast",
        "date_leaving": "1880",
        "joined_ship_date": "1880-09-04",
        "joined_at_port": "liverpool",
        "capacity": "able seaman",
        "date_left": "1881-07-01",
        "left_port": "rio grande",
        "cause_of_leaving": "discharged",
        "sign_with_mark": "n",
        "notes": "blk"
    },
    {
        "id": "vtls004934059_0_18",
        "type": "sailor",
        "parent": "vtls004934059",
        "name": "johan fredrick lassfon",
        "dob": "1855",
        "age": "blk",
        "place_of_birth": "sweden",
        "home_address": "blk",
        "f": "blk",
        "name_of_ship": "johan carl",
        "ship_port": "blk",
        "date_leaving": "1880",
        "joined_ship_date": "1881-01-10",
        "joined_at_port": "rio grande",
        "capacity": "able seaman",
        "date_left": "1881-07-01",
        "left_port": "greenock",
        "cause_of_leaving": "discharged",
        "sign_with_mark": "n",
        "notes": "blk"
    },
    {
        "id": "vtls004934059_0_13",
        "type": "sailor",
        "parent": "vtls004934059",
        "name": "joseph foster",
        "dob": "1858",
        "age": "blk",
        "place_of_birth": "halifax, n.s.",
        "home_address": "blk",
        "f": "blk",
        "name_of_ship": "william",
        "ship_port": "ns",
        "date_leaving": "1880",
        "joined_ship_date": "1880-09-04",
        "joined_at_port": "liverpool",
        "capacity": "cook & able seaman",
        "date_left": "1881-01-01",
        "left_port": "rio grande",
        "cause_of_leaving": "deserted",
        "sign_with_mark": "n",
        "notes": "blk"
    },
    {
        "id": "vtls004934059_1_11",
        "type": "sailor",
        "parent": "vtls004934059",
        "name": "evan jones",
        "dob": "1850",
        "age": "blk",
        "place_of_birth": "aberaeron",
        "home_address": "blk",
        "f": "blk",
        "name_of_ship": "native pearl",
        "ship_port": "aberystwyth",
        "date_leaving": "1881",
        "joined_ship_date": "1881-07-04",
        "joined_at_port": "greenock",
        "capacity": "master",
        "date_left": "blk",
        "left_port": "blk",
        "cause_of_leaving": "remains on board",
        "sign_with_mark": "n",
        "notes": "blk"
    },
    {
        "id": "vtls004934059_0_16",
        "type": "sailor",
        "parent": "vtls004934059",
        "name": "john doyle",
        "dob": "1849",
        "age": "blk",
        "place_of_birth": "waterford",
        "home_address": "blk",
        "f": "blk",
        "name_of_ship": "[narcisus]",
        "ship_port": "liverpool",
        "date_leaving": "1880",
        "joined_ship_date": "1880-09-04",
        "joined_at_port": "liverpool",
        "capacity": "able seaman",
        "date_left": "1881-06-16",
        "left_port": "falmouth",
        "cause_of_leaving": "discharged",
        "sign_with_mark": "n",
        "notes": "blk"
    },
    {
        "id": "vtls004934059_0_12",
        "type": "sailor",
        "parent": "vtls004934059",
        "name": "evan jones",
        "dob": "1841",
        "age": "blk",
        "place_of_birth": "cardigan",
        "home_address": "blk",
        "f": "blk",
        "name_of_ship": "native pearl",
        "ship_port": "aberystwyth",
        "date_leaving": "1880",
        "joined_ship_date": "1880-09-04",
        "joined_at_port": "liverpool",
        "capacity": "mate",
        "date_left": "1881-09-04",
        "left_port": "greenock",
        "cause_of_leaving": "discharged",
        "sign_with_mark": "n",
        "notes": "blk"
    },
    {
        "id": "vtls004934059_1_13",
        "type": "sailor",
        "parent": "vtls004934059",
        "name": "no petterson",
        "dob": "blk",
        "age": "22",
        "place_of_birth": "sweden",
        "home_address": "blk",
        "f": "blk",
        "name_of_ship": "[patria]",
        "ship_port": "blk",
        "date_leaving": "1881",
        "joined_ship_date": "1881-07-18",
        "joined_at_port": "greenock",
        "capacity": "boatswain",
        "date_left": "1881-09-16",
        "left_port": "cardiff",
        "cause_of_leaving": "discharged",
        "sign_with_mark": "n",
        "notes": "blk"
    },
    {
        "id": "vtls004934059_1_12",
        "type": "sailor",
        "parent": "vtls004934059",
        "name": "jenkin jones",
        "dob": "1858",
        "age": "blk",
        "place_of_birth": "aberaeron",
        "home_address": "blk",
        "f": "blk",
        "name_of_ship": "milicent",
        "ship_port": "blk",
        "date_leaving": "1881",
        "joined_ship_date": "1881-07-11",
        "joined_at_port": "greenock",
        "capacity": "mate",
        "date_left": "1881-09-16",
        "left_port": "cardiff",
        "cause_of_leaving": "discharged",
        "sign_with_mark": "n",
        "notes": "blk"
    },
    {
        "id": "vtls004934070_0_13",
        "type": "sailor",
        "parent": "vtls004934070",
        "name": "william thomson",
        "dob": "blk",
        "age": "19",
        "place_of_birth": "galway",
        "home_address": "blk",
        "f": "blk",
        "name_of_ship": "native pearl",
        "ship_port": "aberystwyth",
        "date_leaving": "1881",
        "joined_ship_date": "1881-10-07",
        "joined_at_port": "cardiff",
        "capacity": "cook & seaman",
        "date_left": "1882-01-31",
        "left_port": "monte video",
        "cause_of_leaving": "discharged - see note",
        "sign_with_mark": "n",
        "notes": "ship totally lost in the harbour of montevideo"
    },
    {
        "id": "vtls004934070_0_11",
        "type": "sailor",
        "parent": "vtls004934070",
        "name": "evan jones",
        "dob": "blk",
        "age": "31",
        "place_of_birth": "aberaeron",
        "home_address": "blk",
        "f": "blk",
        "name_of_ship": "native pearl",
        "ship_port": "aberystwyth",
        "date_leaving": "1881",
        "joined_ship_date": "1881-10-07",
        "joined_at_port": "cardiff",
        "capacity": "master",
        "date_left": "1882-01-31",
        "left_port": "monte video",
        "cause_of_leaving": "discharged - see note",
        "sign_with_mark": "n",
        "notes": "ship totally lost in the harbour of montevideo"
    },
    {
        "id": "vtls004934070_0_12",
        "type": "sailor",
        "parent": "vtls004934070",
        "name": "jenkin jones",
        "dob": "blk",
        "age": "22",
        "place_of_birth": "aberaeron",
        "home_address": "blk",
        "f": "blk",
        "name_of_ship": "millicent",
        "ship_port": "swansea",
        "date_leaving": "1881",
        "joined_ship_date": "1881-10-07",
        "joined_at_port": "cardiff",
        "capacity": "mate",
        "date_left": "1882-01-31",
        "left_port": "monte video",
        "cause_of_leaving": "discharged - see note",
        "sign_with_mark": "n",
        "notes": "ship totally lost in the harbour of montevideo"
    },
    {
        "id": "vtls004934059_1_15",
        "type": "sailor",
        "parent": "vtls004934059",
        "name": "axel lundquist",
        "dob": "blk",
        "age": "20",
        "place_of_birth": "stockholm",
        "home_address": "blk",
        "f": "blk",
        "name_of_ship": "[patria]",
        "ship_port": "aberystwyth",
        "date_leaving": "1881",
        "joined_ship_date": "1881-07-18",
        "joined_at_port": "greenock",
        "capacity": "able seaman",
        "date_left": "1881-09-16",
        "left_port": "cardiff",
        "cause_of_leaving": "discharged",
        "sign_with_mark": "n",
        "notes": "blk"
    },
    {
        "id": "vtls004934059_1_14",
        "type": "sailor",
        "parent": "vtls004934059",
        "name": "john tomlinson",
        "dob": "blk",
        "age": "30",
        "place_of_birth": "gibralter",
        "home_address": "blk",
        "f": "blk",
        "name_of_ship": "[patria]",
        "ship_port": "blk",
        "date_leaving": "1881",
        "joined_ship_date": "1881-07-18",
        "joined_at_port": "greenock",
        "capacity": "cook and seaman",
        "date_left": "1881-09-16",
        "left_port": "cardiff",
        "cause_of_leaving": "discharged",
        "sign_with_mark": "n",
        "notes": "blk"
    },
    {
        "id": "vtls004934059_1_16",
        "type": "sailor",
        "parent": "vtls004934059",
        "name": "conn hurley",
        "dob": "1863",
        "age": "blk",
        "place_of_birth": "skibbereen",
        "home_address": "blk",
        "f": "blk",
        "name_of_ship": "native pearl",
        "ship_port": "blk",
        "date_leaving": "1881",
        "joined_ship_date": "1881-07-07",
        "joined_at_port": "greenock",
        "capacity": "able seaman",
        "date_left": "1881-09-16",
        "left_port": "cardiff",
        "cause_of_leaving": "discharged",
        "sign_with_mark": "y",
        "notes": "blk"
    },
    {
        "id": "vtls004934059_1_17",
        "type": "sailor",
        "parent": "vtls004934059",
        "name": "william williams",
        "dob": "1866",
        "age": "blk",
        "place_of_birth": "aberaeron",
        "home_address": "blk",
        "f": "blk",
        "name_of_ship": "[none]",
        "ship_port": "blk",
        "date_leaving": "1881",
        "joined_ship_date": "1881-07-07",
        "joined_at_port": "greenock",
        "capacity": "ordinary seaman",
        "date_left": "1881-09-16",
        "left_port": "cardiff",
        "cause_of_leaving": "discharged",
        "sign_with_mark": "n",
        "notes": "blk"
    },
    {
        "id": "vtls004934070_0_17",
        "type": "sailor",
        "parent": "vtls004934070",
        "name": "william williams",
        "dob": "blk",
        "age": "15",
        "place_of_birth": "aberaeron",
        "home_address": "blk",
        "f": "blk",
        "name_of_ship": "native pearl",
        "ship_port": "aberystwyth",
        "date_leaving": "1881",
        "joined_ship_date": "1881-10-07",
        "joined_at_port": "cardiff",
        "capacity": "ordinary seaman",
        "date_left": "1882-01-31",
        "left_port": "monte video",
        "cause_of_leaving": "discharged - see note",
        "sign_with_mark": "n",
        "notes": "ship totally lost in the harbour of montevideo"
    },
    {
        "id": "vtls004934070_0_16",
        "type": "sailor",
        "parent": "vtls004934070",
        "name": "john davies",
        "dob": "blk",
        "age": "18",
        "place_of_birth": "aberaeron",
        "home_address": "blk",
        "f": "blk",
        "name_of_ship": "catherine [ann]",
        "ship_port": "aberystwyth",
        "date_leaving": "1881",
        "joined_ship_date": "1881-10-07",
        "joined_at_port": "cardiff",
        "capacity": "able seaman",
        "date_left": "1882-01-31",
        "left_port": "monte video",
        "cause_of_leaving": "discharged - see note",
        "sign_with_mark": "n",
        "notes": "ship totally lost in the harbour of montevideo"
    },
    {
        "id": "vtls004934070_0_15",
        "type": "sailor",
        "parent": "vtls004934070",
        "name": "thomas jones",
        "dob": "blk",
        "age": "20",
        "place_of_birth": "aberaeron",
        "home_address": "blk",
        "f": "blk",
        "name_of_ship": "louisa",
        "ship_port": "cardiff",
        "date_leaving": "1881",
        "joined_ship_date": "1881-10-07",
        "joined_at_port": "cardiff",
        "capacity": "able seaman",
        "date_left": "1882-01-31",
        "left_port": "monte video",
        "cause_of_leaving": "discharged - see note",
        "sign_with_mark": "n",
        "notes": "ship totally lost in the harbour of montevideo"
    },
    {
        "id": "vtls004934070_0_14",
        "type": "sailor",
        "parent": "vtls004934070",
        "name": "david jones",
        "dob": "blk",
        "age": "21",
        "place_of_birth": "aberaeron",
        "home_address": "blk",
        "f": "blk",
        "name_of_ship": "louisa",
        "ship_port": "cardiff",
        "date_leaving": "1881",
        "joined_ship_date": "1881-10-07",
        "joined_at_port": "cardiff",
        "capacity": "bosun",
        "date_left": "1882-01-31",
        "left_port": "monte video",
        "cause_of_leaving": "discharged - see note",
        "sign_with_mark": "n",
        "notes": "ship totally lost in the harbour of montevideo"
    }
]