[
    {
        "id": "vtls004935432_0_11",
        "type": "sailor",
        "parent": "vtls004935432",
        "name": "edward morris",
        "dob": "blk",
        "age": "34",
        "place_of_birth": "aberystwyth",
        "home_address": "10 portland street, aberystwyth",
        "f": "10 portland street, aberystwyth",
        "name_of_ship": "jane elizabeth",
        "ship_port": "aberystwyth",
        "date_leaving": "1867",
        "joined_ship_date": "1867-05-08",
        "joined_at_port": "liverpool",
        "capacity": "master",
        "date_left": "1867-07-09",
        "left_port": "sunderland",
        "cause_of_leaving": "remains on board",
        "sign_with_mark": "n",
        "notes": "blk"
    },
    {
        "id": "vtls004935432_0_13",
        "type": "sailor",
        "parent": "vtls004935432",
        "name": "charles johnson",
        "dob": "blk",
        "age": "21",
        "place_of_birth": "swedish",
        "home_address": "blk",
        "f": "blk",
        "name_of_ship": "jane elizabeth",
        "ship_port": "aberystwyth",
        "date_leaving": "1867-05-08",
        "joined_ship_date": "1867-05-08",
        "joined_at_port": "liverpool",
        "capacity": "able seaman",
        "date_left": "1867-07-09",
        "left_port": "sunderland",
        "cause_of_leaving": "remains on board",
        "sign_with_mark": "y",
        "notes": "blk"
    },
    {
        "id": "vtls004935432_0_12",
        "type": "sailor",
        "parent": "vtls004935432",
        "name": "richard thomas",
        "dob": "blk",
        "age": "30",
        "place_of_birth": "aberystwyth",
        "home_address": "blk",
        "f": "blk",
        "name_of_ship": "jane elizabeth",
        "ship_port": "aberystwyth",
        "date_leaving": "1867-05-08",
        "joined_ship_date": "1867-05-08",
        "joined_at_port": "liverpool",
        "capacity": "mate",
        "date_left": "1867-07-09",
        "left_port": "sunderland",
        "cause_of_leaving": "remains on board",
        "sign_with_mark": "n",
        "notes": "blk"
    },
    {
        "id": "vtls004935432_1_11",
        "type": "sailor",
        "parent": "vtls004935432",
        "name": "edward morris",
        "dob": "blk",
        "age": "34",
        "place_of_birth": "aberystwyth",
        "home_address": "10 portland street, aberystwyth",
        "f": "10 portland street, aberystwyth",
        "name_of_ship": "oneida",
        "ship_port": "aberystwyth",
        "date_leaving": "1867-06-30",
        "joined_ship_date": "1867-07-01",
        "joined_at_port": "sunderland",
        "capacity": "master",
        "date_left": "1868-01-14",
        "left_port": "newcastle",
        "cause_of_leaving": "remains on board",
        "sign_with_mark": "n",
        "notes": "blk"
    },
    {
        "id": "vtls004935432_0_15",
        "type": "sailor",
        "parent": "vtls004935432",
        "name": "david evans",
        "dob": "blk",
        "age": "blk",
        "place_of_birth": "st. dogmaels, pembrokeshire",
        "home_address": "blk",
        "f": "blk",
        "name_of_ship": "francis banfield",
        "ship_port": "blk",
        "date_leaving": "1867-05-13",
        "joined_ship_date": "1867-06-03",
        "joined_at_port": "liverpool",
        "capacity": "able seaman",
        "date_left": "1867-07-09",
        "left_port": "sunderland",
        "cause_of_leaving": "remains on board",
        "sign_with_mark": "n",
        "notes": "blk"
    },
    {
        "id": "vtls004935432_0_14",
        "type": "sailor",
        "parent": "vtls004935432",
        "name": "joseph fair",
        "dob": "blk",
        "age": "18",
        "place_of_birth": "london",
        "home_address": "blk",
        "f": "blk",
        "name_of_ship": "jane elizabeth",
        "ship_port": "aberystwyth",
        "date_leaving": "1867-05-08",
        "joined_ship_date": "1867-05-08",
        "joined_at_port": "liverpool",
        "capacity": "ordinary seaman",
        "date_left": "1867-07-09",
        "left_port": "sunderland",
        "cause_of_leaving": "remains on board",
        "sign_with_mark": "n",
        "notes": "blk"
    },
    {
        "id": "vtls004935432_0_16",
        "type": "sailor",
        "parent": "vtls004935432",
        "name": "william jenkins",
        "dob": "blk",
        "age": "28",
        "place_of_birth": "aberystwyth",
        "home_address": "blk",
        "f": "blk",
        "name_of_ship": "dreadnot",
        "ship_port": "aberystwyth",
        "date_leaving": "1867-06-11",
        "joined_ship_date": "1867-06-11",
        "joined_at_port": "liverpool",
        "capacity": "able seaman",
        "date_left": "1867-07-09",
        "left_port": "sunderland",
        "cause_of_leaving": "remains on board",
        "sign_with_mark": "n",
        "notes": "blk"
    },
    {
        "id": "vtls004935432_0_17",
        "type": "sailor",
        "parent": "vtls004935432",
        "name": "john garnor",
        "dob": "blk",
        "age": "23",
        "place_of_birth": "cardiff",
        "home_address": "blk",
        "f": "blk",
        "name_of_ship": "gleaner",
        "ship_port": "north shields",
        "date_leaving": "1867-05-30",
        "joined_ship_date": "1867-06-10",
        "joined_at_port": "liverpool",
        "capacity": "able seaman",
        "date_left": "1867-07-09",
        "left_port": "sunderland",
        "cause_of_leaving": "remains on board",
        "sign_with_mark": "n",
        "notes": "blk"
    },
    {
        "id": "vtls004935432_1_13",
        "type": "sailor",
        "parent": "vtls004935432",
        "name": "david evans",
        "dob": "blk",
        "age": "27",
        "place_of_birth": "cardigan",
        "home_address": "blk",
        "f": "blk",
        "name_of_ship": "oneida",
        "ship_port": "aberystwyth",
        "date_leaving": "1867-06-30",
        "joined_ship_date": "1867-07-01",
        "joined_at_port": "sunderland",
        "capacity": "able seaman",
        "date_left": "1868-01-14",
        "left_port": "newcastle",
        "cause_of_leaving": "remains on board",
        "sign_with_mark": "n",
        "notes": "blk"
    },
    {
        "id": "vtls004935432_1_14",
        "type": "sailor",
        "parent": "vtls004935432",
        "name": "john carnon",
        "dob": "blk",
        "age": "23",
        "place_of_birth": "cardigan",
        "home_address": "blk",
        "f": "blk",
        "name_of_ship": "oneida",
        "ship_port": "aberystwyth",
        "date_leaving": "1867-06-30",
        "joined_ship_date": "1867-07-01",
        "joined_at_port": "sunderland",
        "capacity": "able seaman",
        "date_left": "1867-08-14",
        "left_port": "llanelli",
        "cause_of_leaving": "discharged",
        "sign_with_mark": "n",
        "notes": "blk"
    },
    {
        "id": "vtls004935432_1_12",
        "type": "sailor",
        "parent": "vtls004935432",
        "name": "richard thomas",
        "dob": "blk",
        "age": "27",
        "place_of_birth": "aberystwyth",
        "home_address": "blk",
        "f": "blk",
        "name_of_ship": "oneida",
        "ship_port": "aberystwyth",
        "date_leaving": "1867-06-30",
        "joined_ship_date": "1867-07-01",
        "joined_at_port": "sunderland",
        "capacity": "mate",
        "date_left": "1867-08-14",
        "left_port": "llanelli",
        "cause_of_leaving": "discharged",
        "sign_with_mark": "n",
        "notes": "blk"
    },
    {
        "id": "vtls004935432_1_22",
        "type": "sailor",
        "parent": "vtls004935432",
        "name": "evan jenkins",
        "dob": "blk",
        "age": "26",
        "place_of_birth": "aberystwyth",
        "home_address": "blk",
        "f": "blk",
        "name_of_ship": "village belle",
        "ship_port": "newport",
        "date_leaving": "1867-12-18",
        "joined_ship_date": "1867-12-20",
        "joined_at_port": "liverpool",
        "capacity": "able seaman",
        "date_left": "1868-01-14",
        "left_port": "newcastle",
        "cause_of_leaving": "remains on board",
        "sign_with_mark": "n",
        "notes": "blk"
    },
    {
        "id": "vtls004935432_1_16",
        "type": "sailor",
        "parent": "vtls004935432",
        "name": "william jenkins",
        "dob": "blk",
        "age": "28",
        "place_of_birth": "aberystwyth",
        "home_address": "blk",
        "f": "blk",
        "name_of_ship": "oneida",
        "ship_port": "aberystwyth",
        "date_leaving": "1867-06-30",
        "joined_ship_date": "1867-07-01",
        "joined_at_port": "sunderland",
        "capacity": "able seaman",
        "date_left": "1868-01-14",
        "left_port": "newcastle",
        "cause_of_leaving": "remains on board",
        "sign_with_mark": "n",
        "notes": "blk"
    },
    {
        "id": "vtls004935432_1_23",
        "type": "sailor",
        "parent": "vtls004935432",
        "name": "thomas morris",
        "dob": "blk",
        "age": "22",
        "place_of_birth": "aberystwyth",
        "home_address": "blk",
        "f": "blk",
        "name_of_ship": "progress",
        "ship_port": "aberystwyth",
        "date_leaving": "1867-11-26",
        "joined_ship_date": "1867-12-01",
        "joined_at_port": "liverpool",
        "capacity": "able seaman",
        "date_left": "1868-01-14",
        "left_port": "newcastle",
        "cause_of_leaving": "remains on board",
        "sign_with_mark": "n",
        "notes": "blk"
    },
    {
        "id": "vtls004935432_1_17",
        "type": "sailor",
        "parent": "vtls004935432",
        "name": "joseph fair",
        "dob": "blk",
        "age": "18",
        "place_of_birth": "london",
        "home_address": "blk",
        "f": "blk",
        "name_of_ship": "oneida",
        "ship_port": "aberystwyth",
        "date_leaving": "1867-06-30",
        "joined_ship_date": "1867-07-01",
        "joined_at_port": "sunderland",
        "capacity": "able seaman",
        "date_left": "1868-01-14",
        "left_port": "newcastle",
        "cause_of_leaving": "remains on board",
        "sign_with_mark": "n",
        "notes": "blk"
    },
    {
        "id": "vtls004935432_1_19",
        "type": "sailor",
        "parent": "vtls004935432",
        "name": "benjamin thomas",
        "dob": "blk",
        "age": "19",
        "place_of_birth": "fishguard",
        "home_address": "blk",
        "f": "blk",
        "name_of_ship": "oceola",
        "ship_port": "blk",
        "date_leaving": "1867-08-16",
        "joined_ship_date": "1867-08-26",
        "joined_at_port": "llanelly",
        "capacity": "ordinary seaman",
        "date_left": "1868-01-14",
        "left_port": "newcastle",
        "cause_of_leaving": "remains on board",
        "sign_with_mark": "n",
        "notes": "blk"
    },
    {
        "id": "vtls004935432_1_18",
        "type": "sailor",
        "parent": "vtls004935432",
        "name": "william williams",
        "dob": "blk",
        "age": "22",
        "place_of_birth": "carmarthen",
        "home_address": "blk",
        "f": "blk",
        "name_of_ship": "water lily",
        "ship_port": "llanelli",
        "date_leaving": "1867-08-14",
        "joined_ship_date": "1867-08-23",
        "joined_at_port": "llanelly",
        "capacity": "able seaman",
        "date_left": "1867-11-29",
        "left_port": "runcorn",
        "cause_of_leaving": "discharged",
        "sign_with_mark": "n",
        "notes": "blk"
    },
    {
        "id": "vtls004935432_1_15",
        "type": "sailor",
        "parent": "vtls004935432",
        "name": "charles johnson",
        "dob": "blk",
        "age": "21",
        "place_of_birth": "danish",
        "home_address": "blk",
        "f": "blk",
        "name_of_ship": "oneida",
        "ship_port": "aberystwyth",
        "date_leaving": "1867-06-30",
        "joined_ship_date": "1867-07-01",
        "joined_at_port": "sunderland",
        "capacity": "able seaman",
        "date_left": "1867-08-14",
        "left_port": "llanelli",
        "cause_of_leaving": "discharged",
        "sign_with_mark": "y",
        "notes": "blk"
    },
    {
        "id": "vtls004935432_1_21",
        "type": "sailor",
        "parent": "vtls004935432",
        "name": "david evans",
        "dob": "blk",
        "age": "27",
        "place_of_birth": "cardigan",
        "home_address": "blk",
        "f": "blk",
        "name_of_ship": "oneida",
        "ship_port": "aberystwyth",
        "date_leaving": "1867-06-30",
        "joined_ship_date": "1867-08-15",
        "joined_at_port": "llanelly",
        "capacity": "mate",
        "date_left": "1868-01-14",
        "left_port": "newcastle",
        "cause_of_leaving": "remains on board",
        "sign_with_mark": "n",
        "notes": "blk"
    },
    {
        "id": "vtls004935432_1_20",
        "type": "sailor",
        "parent": "vtls004935432",
        "name": "william thomas",
        "dob": "blk",
        "age": "26",
        "place_of_birth": "carmarthen",
        "home_address": "blk",
        "f": "blk",
        "name_of_ship": "oceola",
        "ship_port": "blk",
        "date_leaving": "1867-08-27",
        "joined_ship_date": "1867-08-27",
        "joined_at_port": "llanelly",
        "capacity": "able seaman",
        "date_left": "1867-11-29",
        "left_port": "runcorn",
        "cause_of_leaving": "discharged",
        "sign_with_mark": "n",
        "notes": "blk"
    },
    {
        "id": "vtls004935452_0_11",
        "type": "sailor",
        "parent": "vtls004935452",
        "name": "edward morris",
        "dob": "blk",
        "age": "35",
        "place_of_birth": "aberystwyth",
        "home_address": "10 portland street, aberystwyth",
        "f": "10 portland street, aberystwyth",
        "name_of_ship": "oneida",
        "ship_port": "aberystwyth",
        "date_leaving": "blk",
        "joined_ship_date": "1867-12-31",
        "joined_at_port": "newcastle",
        "capacity": "master",
        "date_left": "1868-08-04",
        "left_port": "sunderland",
        "cause_of_leaving": "remains on board",
        "sign_with_mark": "n",
        "notes": "blk"
    },
    {
        "id": "vtls004935452_0_14",
        "type": "sailor",
        "parent": "vtls004935452",
        "name": "peter luke",
        "dob": "blk",
        "age": "28",
        "place_of_birth": "berwick upon tweed",
        "home_address": "blk",
        "f": "blk",
        "name_of_ship": "ann gibson",
        "ship_port": "berwick-upon-tweed",
        "date_leaving": "1867-12-03",
        "joined_ship_date": "1868-01-18",
        "joined_at_port": "newcastle",
        "capacity": "able seaman",
        "date_left": "1868-04-06",
        "left_port": "runcorn",
        "cause_of_leaving": "discharged",
        "sign_with_mark": "n",
        "notes": "blk"
    },
    {
        "id": "vtls004935452_0_13",
        "type": "sailor",
        "parent": "vtls004935452",
        "name": "thomas morris",
        "dob": "blk",
        "age": "23",
        "place_of_birth": "aberystwyth",
        "home_address": "blk",
        "f": "blk",
        "name_of_ship": "oneida",
        "ship_port": "aberystwyth",
        "date_leaving": "blk",
        "joined_ship_date": "1867-12-31",
        "joined_at_port": "newcastle",
        "capacity": "able seaman & mate",
        "date_left": "1868-08-04",
        "left_port": "sunderland",
        "cause_of_leaving": "remains on board",
        "sign_with_mark": "n",
        "notes": "blk"
    },
    {
        "id": "vtls004935452_0_16",
        "type": "sailor",
        "parent": "vtls004935452",
        "name": "benjamin thomas",
        "dob": "blk",
        "age": "19",
        "place_of_birth": "fishguard",
        "home_address": "blk",
        "f": "blk",
        "name_of_ship": "oneida",
        "ship_port": "aberystwyth",
        "date_leaving": "blk",
        "joined_ship_date": "1867-12-31",
        "joined_at_port": "newcastle",
        "capacity": "able seaman",
        "date_left": "1868-08-04",
        "left_port": "sunderland",
        "cause_of_leaving": "remains on board",
        "sign_with_mark": "n",
        "notes": "blk"
    },
    {
        "id": "vtls004935452_0_15",
        "type": "sailor",
        "parent": "vtls004935452",
        "name": "william jenkins",
        "dob": "blk",
        "age": "28",
        "place_of_birth": "aberystwyth",
        "home_address": "blk",
        "f": "blk",
        "name_of_ship": "oneida",
        "ship_port": "aberystwyth",
        "date_leaving": "blk",
        "joined_ship_date": "1867-12-31",
        "joined_at_port": "newcastle",
        "capacity": "able seaman",
        "date_left": "1868-08-04",
        "left_port": "sunderland",
        "cause_of_leaving": "remains on board",
        "sign_with_mark": "y",
        "notes": "blk"
    },
    {
        "id": "vtls004935452_0_17",
        "type": "sailor",
        "parent": "vtls004935452",
        "name": "thomas evans",
        "dob": "blk",
        "age": "23",
        "place_of_birth": "newcastle emlyn",
        "home_address": "blk",
        "f": "blk",
        "name_of_ship": "[warrior]",
        "ship_port": "liverpool",
        "date_leaving": "1868-03-06",
        "joined_ship_date": "1868-03-09",
        "joined_at_port": "swansea",
        "capacity": "able seaman",
        "date_left": "1868-04-06",
        "left_port": "runcorn",
        "cause_of_leaving": "discharged",
        "sign_with_mark": "n",
        "notes": "blk"
    },
    {
        "id": "vtls004935452_0_18",
        "type": "sailor",
        "parent": "vtls004935452",
        "name": "e mccaskie",
        "dob": "blk",
        "age": "23",
        "place_of_birth": "gloucester",
        "home_address": "blk",
        "f": "blk",
        "name_of_ship": "industry",
        "ship_port": "gloster",
        "date_leaving": "1868-03-02",
        "joined_ship_date": "1868-03-09",
        "joined_at_port": "swansea",
        "capacity": "ordinary seaman",
        "date_left": "1868-08-04",
        "left_port": "sunderland",
        "cause_of_leaving": "remains on board",
        "sign_with_mark": "n",
        "notes": "blk"
    },
    {
        "id": "vtls004935452_0_12",
        "type": "sailor",
        "parent": "vtls004935452",
        "name": "david evans",
        "dob": "blk",
        "age": "28",
        "place_of_birth": "cardigan",
        "home_address": "blk",
        "f": "blk",
        "name_of_ship": "oneida",
        "ship_port": "aberystwyth",
        "date_leaving": "blk",
        "joined_ship_date": "1867-12-31",
        "joined_at_port": "newcastle",
        "capacity": "mate",
        "date_left": "1868-03-03",
        "left_port": "swansea",
        "cause_of_leaving": "discharged",
        "sign_with_mark": "n",
        "notes": "blk"
    },
    {
        "id": "vtls004935452_1_11",
        "type": "sailor",
        "parent": "vtls004935452",
        "name": "george mileson",
        "dob": "blk",
        "age": "52",
        "place_of_birth": "sunderland",
        "home_address": "21 shadow buildings, sunderland",
        "f": "21 shadow buildings, sunderland",
        "name_of_ship": "sky lark",
        "ship_port": "sunderland",
        "date_leaving": "1868-07-05",
        "joined_ship_date": "1868-08-08",
        "joined_at_port": "sunderland",
        "capacity": "master",
        "date_left": "1869-02-09",
        "left_port": "glasgow",
        "cause_of_leaving": "remains on board",
        "sign_with_mark": "n",
        "notes": "blk"
    },
    {
        "id": "vtls004935452_0_19",
        "type": "sailor",
        "parent": "vtls004935452",
        "name": "david james",
        "dob": "blk",
        "age": "38",
        "place_of_birth": "aberystwyth",
        "home_address": "blk",
        "f": "blk",
        "name_of_ship": "richard smith",
        "ship_port": "barrow",
        "date_leaving": "1868-05-19",
        "joined_ship_date": "1868-05-25",
        "joined_at_port": "liverpool",
        "capacity": "able seaman",
        "date_left": "1868-08-04",
        "left_port": "sunderland",
        "cause_of_leaving": "remains on board",
        "sign_with_mark": "n",
        "notes": "blk"
    },
    {
        "id": "vtls004935452_1_16",
        "type": "sailor",
        "parent": "vtls004935452",
        "name": "benjamin thomas",
        "dob": "blk",
        "age": "20",
        "place_of_birth": "fishguard",
        "home_address": "blk",
        "f": "blk",
        "name_of_ship": "oneida",
        "ship_port": "aberystwyth",
        "date_leaving": "1868-08-07",
        "joined_ship_date": "1868-08-08",
        "joined_at_port": "sunderland",
        "capacity": "ordinary seaman",
        "date_left": "1869-02-09",
        "left_port": "glasgow",
        "cause_of_leaving": "discharged",
        "sign_with_mark": "n",
        "notes": "blk"
    },
    {
        "id": "vtls004935452_1_18",
        "type": "sailor",
        "parent": "vtls004935452",
        "name": "edward mccoskine",
        "dob": "blk",
        "age": "19",
        "place_of_birth": "gloucester",
        "home_address": "blk",
        "f": "blk",
        "name_of_ship": "oneida",
        "ship_port": "aberystwyth",
        "date_leaving": "1868-08-07",
        "joined_ship_date": "1868-08-08",
        "joined_at_port": "sunderland",
        "capacity": "ordinary seaman",
        "date_left": "1869-02-09",
        "left_port": "glasgow",
        "cause_of_leaving": "discharged",
        "sign_with_mark": "n",
        "notes": "blk"
    },
    {
        "id": "vtls004935452_1_14",
        "type": "sailor",
        "parent": "vtls004935452",
        "name": "william jenkins",
        "dob": "blk",
        "age": "29",
        "place_of_birth": "aberystwyth",
        "home_address": "blk",
        "f": "blk",
        "name_of_ship": "oneida",
        "ship_port": "aberystwyth",
        "date_leaving": "1868-08-07",
        "joined_ship_date": "1868-08-08",
        "joined_at_port": "sunderland",
        "capacity": "able seaman",
        "date_left": "1869-02-09",
        "left_port": "glasgow",
        "cause_of_leaving": "discharged",
        "sign_with_mark": "n",
        "notes": "blk"
    },
    {
        "id": "vtls004935452_0_20",
        "type": "sailor",
        "parent": "vtls004935452",
        "name": "david j jones",
        "dob": "blk",
        "age": "20",
        "place_of_birth": "newquay",
        "home_address": "blk",
        "f": "blk",
        "name_of_ship": "mary",
        "ship_port": "[mosten]",
        "date_leaving": "1868-05-04",
        "joined_ship_date": "1868-05-25",
        "joined_at_port": "liverpool",
        "capacity": "able seaman",
        "date_left": "1868-08-04",
        "left_port": "sunderland",
        "cause_of_leaving": "remains on board",
        "sign_with_mark": "n",
        "notes": "blk"
    },
    {
        "id": "vtls004935452_1_17",
        "type": "sailor",
        "parent": "vtls004935452",
        "name": "david james",
        "dob": "blk",
        "age": "38",
        "place_of_birth": "aberystwyth",
        "home_address": "blk",
        "f": "blk",
        "name_of_ship": "oneida",
        "ship_port": "aberystwyth",
        "date_leaving": "1868-08-07",
        "joined_ship_date": "1868-08-08",
        "joined_at_port": "sunderland",
        "capacity": "able seaman",
        "date_left": "1869-02-09",
        "left_port": "glasgow",
        "cause_of_leaving": "never joined",
        "sign_with_mark": "n",
        "notes": "blk"
    },
    {
        "id": "vtls004935452_1_15",
        "type": "sailor",
        "parent": "vtls004935452",
        "name": "david g jones",
        "dob": "blk",
        "age": "21",
        "place_of_birth": "newquay",
        "home_address": "blk",
        "f": "blk",
        "name_of_ship": "oneida",
        "ship_port": "aberystwyth",
        "date_leaving": "1868-08-07",
        "joined_ship_date": "1868-08-08",
        "joined_at_port": "sunderland",
        "capacity": "able seaman",
        "date_left": "1869-02-09",
        "left_port": "glasgow",
        "cause_of_leaving": "discharged",
        "sign_with_mark": "n",
        "notes": "blk"
    },
    {
        "id": "vtls004935452_1_13",
        "type": "sailor",
        "parent": "vtls004935452",
        "name": "thomas morris",
        "dob": "blk",
        "age": "24",
        "place_of_birth": "aberystwyth",
        "home_address": "blk",
        "f": "blk",
        "name_of_ship": "oneida",
        "ship_port": "aberystwyth",
        "date_leaving": "1868-08-07",
        "joined_ship_date": "1868-08-08",
        "joined_at_port": "sunderland",
        "capacity": "boatswain",
        "date_left": "1869-02-09",
        "left_port": "glasgow",
        "cause_of_leaving": "discharged",
        "sign_with_mark": "n",
        "notes": "blk"
    },
    {
        "id": "vtls004935452_1_12",
        "type": "sailor",
        "parent": "vtls004935452",
        "name": "edward morris",
        "dob": "blk",
        "age": "35",
        "place_of_birth": "aberystwyth",
        "home_address": "blk",
        "f": "blk",
        "name_of_ship": "oneida",
        "ship_port": "aberystwyth",
        "date_leaving": "1868-08-07",
        "joined_ship_date": "1868-08-08",
        "joined_at_port": "sunderland",
        "capacity": "mate",
        "date_left": "1869-02-09",
        "left_port": "glasgow",
        "cause_of_leaving": "discharged",
        "sign_with_mark": "n",
        "notes": "blk"
    },
    {
        "id": "vtls004935499_0_15",
        "type": "sailor",
        "parent": "vtls004935499",
        "name": "nicholas herbert",
        "dob": "blk",
        "age": "19",
        "place_of_birth": "baldoyle",
        "home_address": "blk",
        "f": "blk",
        "name_of_ship": "oneida",
        "ship_port": "aberystwyth",
        "date_leaving": "blk",
        "joined_ship_date": "1869-04-13",
        "joined_at_port": "swansea",
        "capacity": "ordinary seaman",
        "date_left": "1869-07-30",
        "left_port": "hull",
        "cause_of_leaving": "discharged",
        "sign_with_mark": "y",
        "notes": "blk"
    },
    {
        "id": "vtls004935499_0_14",
        "type": "sailor",
        "parent": "vtls004935499",
        "name": "donald mcphail",
        "dob": "blk",
        "age": "18",
        "place_of_birth": "argyleshire",
        "home_address": "blk",
        "f": "blk",
        "name_of_ship": "oneida",
        "ship_port": "aberystwyth",
        "date_leaving": "blk",
        "joined_ship_date": "1869-04-13",
        "joined_at_port": "swansea",
        "capacity": "able seaman",
        "date_left": "1869-07-30",
        "left_port": "hull",
        "cause_of_leaving": "discharged",
        "sign_with_mark": "n",
        "notes": "blk"
    },
    {
        "id": "vtls004935499_0_11",
        "type": "sailor",
        "parent": "vtls004935499",
        "name": "edward morris",
        "dob": "blk",
        "age": "36",
        "place_of_birth": "aberystwyth",
        "home_address": "blk",
        "f": "blk",
        "name_of_ship": "oneida",
        "ship_port": "aberystwyth",
        "date_leaving": "blk",
        "joined_ship_date": "1869-04-13",
        "joined_at_port": "swansea",
        "capacity": "master",
        "date_left": "1869-07-30",
        "left_port": "hull",
        "cause_of_leaving": "remains on board",
        "sign_with_mark": "n",
        "notes": "blk"
    },
    {
        "id": "vtls004935452_1_19",
        "type": "sailor",
        "parent": "vtls004935452",
        "name": "james brooks",
        "dob": "blk",
        "age": "20",
        "place_of_birth": "essex",
        "home_address": "blk",
        "f": "blk",
        "name_of_ship": "blk",
        "ship_port": "blk",
        "date_leaving": "1868-08-07",
        "joined_ship_date": "1868-08-08",
        "joined_at_port": "sunderland",
        "capacity": "ordinary seaman",
        "date_left": "1869-02-09",
        "left_port": "glasgow",
        "cause_of_leaving": "discharged",
        "sign_with_mark": "n",
        "notes": "blk"
    },
    {
        "id": "vtls004935499_0_16",
        "type": "sailor",
        "parent": "vtls004935499",
        "name": "michael reed",
        "dob": "blk",
        "age": "19",
        "place_of_birth": "howth",
        "home_address": "blk",
        "f": "blk",
        "name_of_ship": "oneida",
        "ship_port": "aberystwyth",
        "date_leaving": "blk",
        "joined_ship_date": "1869-04-13",
        "joined_at_port": "swansea",
        "capacity": "ordinary seaman",
        "date_left": "1869-07-30",
        "left_port": "hull",
        "cause_of_leaving": "discharged",
        "sign_with_mark": "y",
        "notes": "blk"
    },
    {
        "id": "vtls004935499_0_12",
        "type": "sailor",
        "parent": "vtls004935499",
        "name": "david d davies",
        "dob": "blk",
        "age": "23",
        "place_of_birth": "newquay",
        "home_address": "blk",
        "f": "blk",
        "name_of_ship": "confidence",
        "ship_port": "newquay",
        "date_leaving": "1868-04-14",
        "joined_ship_date": "1869-04-13",
        "joined_at_port": "swansea",
        "capacity": "mate",
        "date_left": "1869-07-30",
        "left_port": "hull",
        "cause_of_leaving": "discharged",
        "sign_with_mark": "n",
        "notes": "blk"
    },
    {
        "id": "vtls004935499_0_13",
        "type": "sailor",
        "parent": "vtls004935499",
        "name": "evan rees",
        "dob": "blk",
        "age": "25",
        "place_of_birth": "aberystwyth",
        "home_address": "blk",
        "f": "blk",
        "name_of_ship": "oneida",
        "ship_port": "aberystwyth",
        "date_leaving": "blk",
        "joined_ship_date": "1869-04-13",
        "joined_at_port": "swansea",
        "capacity": "boatswain",
        "date_left": "1869-07-30",
        "left_port": "hull",
        "cause_of_leaving": "discharged",
        "sign_with_mark": "n",
        "notes": "blk"
    },
    {
        "id": "vtls004935499_1_11",
        "type": "sailor",
        "parent": "vtls004935499",
        "name": "edward morris",
        "dob": "blk",
        "age": "37",
        "place_of_birth": "aberystwyth",
        "home_address": "blk",
        "f": "blk",
        "name_of_ship": "oneida",
        "ship_port": "aberystwyth",
        "date_leaving": "blk",
        "joined_ship_date": "1869-09-01",
        "joined_at_port": "hull",
        "capacity": "master",
        "date_left": "1869-09-12",
        "left_port": "eastbound beach",
        "cause_of_leaving": "drowned",
        "sign_with_mark": "n",
        "notes": "ship wrecked at eastbound beach, 12 september, 1969"
    },
    {
        "id": "vtls004935499_1_13",
        "type": "sailor",
        "parent": "vtls004935499",
        "name": "george carter",
        "dob": "blk",
        "age": "25",
        "place_of_birth": "linton",
        "home_address": "blk",
        "f": "blk",
        "name_of_ship": "scottish chief",
        "ship_port": "liverpool",
        "date_leaving": "1869-08-02",
        "joined_ship_date": "1869-09-01",
        "joined_at_port": "hull",
        "capacity": "carpenter & boatswain",
        "date_left": "1869-09-12",
        "left_port": "eastbound beach",
        "cause_of_leaving": "discharged",
        "sign_with_mark": "n",
        "notes": "blk"
    },
    {
        "id": "vtls004935499_1_17",
        "type": "sailor",
        "parent": "vtls004935499",
        "name": "henry bryant",
        "dob": "blk",
        "age": "17",
        "place_of_birth": "london",
        "home_address": "blk",
        "f": "blk",
        "name_of_ship": "coumoundouros",
        "ship_port": "hartlepool",
        "date_leaving": "1869-08-02",
        "joined_ship_date": "1869-09-02",
        "joined_at_port": "hull",
        "capacity": "cook & ordinary seaman",
        "date_left": "1869-09-12",
        "left_port": "eastbound beach",
        "cause_of_leaving": "drowned",
        "sign_with_mark": "y",
        "notes": "blk"
    },
    {
        "id": "vtls004935499_1_14",
        "type": "sailor",
        "parent": "vtls004935499",
        "name": "peter mc master",
        "dob": "blk",
        "age": "20",
        "place_of_birth": "creetown",
        "home_address": "blk",
        "f": "blk",
        "name_of_ship": "scottish chief",
        "ship_port": "liverpool",
        "date_leaving": "1869-08-02",
        "joined_ship_date": "1869-09-01",
        "joined_at_port": "hull",
        "capacity": "able seaman",
        "date_left": "1869-09-12",
        "left_port": "eastbound beach",
        "cause_of_leaving": "discharged",
        "sign_with_mark": "n",
        "notes": "blk"
    },
    {
        "id": "vtls004935499_0_17",
        "type": "sailor",
        "parent": "vtls004935499",
        "name": "richard williams",
        "dob": "blk",
        "age": "18",
        "place_of_birth": "aberystwyth",
        "home_address": "blk",
        "f": "blk",
        "name_of_ship": "oneida",
        "ship_port": "aberystwyth",
        "date_leaving": "blk",
        "joined_ship_date": "1869-04-13",
        "joined_at_port": "swansea",
        "capacity": "cook & ordinary seaman",
        "date_left": "1869-07-30",
        "left_port": "hull",
        "cause_of_leaving": "discharged",
        "sign_with_mark": "n",
        "notes": "blk"
    },
    {
        "id": "vtls004935499_1_16",
        "type": "sailor",
        "parent": "vtls004935499",
        "name": "richmond wells",
        "dob": "blk",
        "age": "19",
        "place_of_birth": "barton",
        "home_address": "blk",
        "f": "blk",
        "name_of_ship": "olive",
        "ship_port": "goole",
        "date_leaving": "1869-07-25",
        "joined_ship_date": "1869-09-02",
        "joined_at_port": "hull",
        "capacity": "able seaman",
        "date_left": "1869-09-12",
        "left_port": "eastbound beach",
        "cause_of_leaving": "discharged",
        "sign_with_mark": "n",
        "notes": "blk"
    },
    {
        "id": "vtls004935499_1_15",
        "type": "sailor",
        "parent": "vtls004935499",
        "name": "nicholas herbert",
        "dob": "blk",
        "age": "20",
        "place_of_birth": "dublin",
        "home_address": "blk",
        "f": "blk",
        "name_of_ship": "oneida",
        "ship_port": "aberystwyth",
        "date_leaving": "blk",
        "joined_ship_date": "1869-09-01",
        "joined_at_port": "hull",
        "capacity": "able seaman",
        "date_left": "1869-09-12",
        "left_port": "eastbound beach",
        "cause_of_leaving": "drowned",
        "sign_with_mark": "y",
        "notes": "blk"
    },
    {
        "id": "vtls004935499_1_12",
        "type": "sailor",
        "parent": "vtls004935499",
        "name": "david d davies",
        "dob": "blk",
        "age": "23",
        "place_of_birth": "newquay",
        "home_address": "blk",
        "f": "blk",
        "name_of_ship": "oneida",
        "ship_port": "aberystwyth",
        "date_leaving": "blk",
        "joined_ship_date": "1869-09-01",
        "joined_at_port": "hull",
        "capacity": "mate",
        "date_left": "1869-09-12",
        "left_port": "eastbound beach",
        "cause_of_leaving": "discharged",
        "sign_with_mark": "n",
        "notes": "blk"
    }
]