[
    {
        "id": "vtls004978188_0_15",
        "type": "sailor",
        "parent": "vtls004978188",
        "name": "james thomas",
        "dob": "blk",
        "age": "24",
        "place_of_birth": "llanfihangel, cardiganshire",
        "home_address": "blk",
        "f": "blk",
        "name_of_ship": "william & mary",
        "ship_port": "aberystwyth",
        "date_leaving": "blk",
        "joined_ship_date": "1867-11-07",
        "joined_at_port": "cardiff",
        "capacity": "ordinary seaman",
        "date_left": "1868-01-06",
        "left_port": "newport",
        "cause_of_leaving": "discharged",
        "sign_with_mark": "n",
        "notes": "blk"
    },
    {
        "id": "vtls004978188_0_11",
        "type": "sailor",
        "parent": "vtls004978188",
        "name": "william james",
        "dob": "blk",
        "age": "25",
        "place_of_birth": "aberystwyth",
        "home_address": "queen street, aberystwyth",
        "f": "queen street, aberystwyth",
        "name_of_ship": "william & mary",
        "ship_port": "aberystwyth",
        "date_leaving": "blk",
        "joined_ship_date": "1867-11-07",
        "joined_at_port": "cardiff",
        "capacity": "master",
        "date_left": "1868-01-06",
        "left_port": "newport",
        "cause_of_leaving": "remains on board",
        "sign_with_mark": "n",
        "notes": "blk"
    },
    {
        "id": "vtls004978188_1_11",
        "type": "sailor",
        "parent": "vtls004978188",
        "name": "william james",
        "dob": "blk",
        "age": "25",
        "place_of_birth": "aberystwyth",
        "home_address": "aberystwyth",
        "f": "aberystwyth",
        "name_of_ship": "william & mary",
        "ship_port": "aberystwyth",
        "date_leaving": "1868",
        "joined_ship_date": "1867-07-19",
        "joined_at_port": "aberystwyth",
        "capacity": "master",
        "date_left": "1868-04-24",
        "left_port": "newcastle",
        "cause_of_leaving": "remains on board",
        "sign_with_mark": "n",
        "notes": "blk"
    },
    {
        "id": "vtls004978188_0_14",
        "type": "sailor",
        "parent": "vtls004978188",
        "name": "william thomas",
        "dob": "blk",
        "age": "23",
        "place_of_birth": "llanfihangel, cardiganshire",
        "home_address": "blk",
        "f": "blk",
        "name_of_ship": "william & mary",
        "ship_port": "aberystwyth",
        "date_leaving": "blk",
        "joined_ship_date": "1867-11-07",
        "joined_at_port": "cardiff",
        "capacity": "able seaman",
        "date_left": "1868-01-06",
        "left_port": "newport",
        "cause_of_leaving": "discharged",
        "sign_with_mark": "n",
        "notes": "blk"
    },
    {
        "id": "vtls004978188_1_13",
        "type": "sailor",
        "parent": "vtls004978188",
        "name": "william thomas",
        "dob": "blk",
        "age": "23",
        "place_of_birth": "aberystwyth",
        "home_address": "blk",
        "f": "blk",
        "name_of_ship": "william & mary",
        "ship_port": "aberystwyth",
        "date_leaving": "1868",
        "joined_ship_date": "1868-01-06",
        "joined_at_port": "newport",
        "capacity": "able seaman",
        "date_left": "1868-04-24",
        "left_port": "newcastle",
        "cause_of_leaving": "discharged",
        "sign_with_mark": "n",
        "notes": "blk"
    },
    {
        "id": "vtls004978188_0_13",
        "type": "sailor",
        "parent": "vtls004978188",
        "name": "evan jenkins",
        "dob": "blk",
        "age": "25",
        "place_of_birth": "aberystwyth",
        "home_address": "blk",
        "f": "blk",
        "name_of_ship": "william & mary",
        "ship_port": "aberystwyth",
        "date_leaving": "blk",
        "joined_ship_date": "1867-11-07",
        "joined_at_port": "cardiff",
        "capacity": "able seaman",
        "date_left": "1868-01-06",
        "left_port": "newport",
        "cause_of_leaving": "discharged",
        "sign_with_mark": "n",
        "notes": "blk"
    },
    {
        "id": "vtls004978188_0_16",
        "type": "sailor",
        "parent": "vtls004978188",
        "name": "david owens",
        "dob": "blk",
        "age": "16",
        "place_of_birth": "aberystwyth",
        "home_address": "blk",
        "f": "blk",
        "name_of_ship": "william & mary",
        "ship_port": "aberystwyth",
        "date_leaving": "blk",
        "joined_ship_date": "1867-11-07",
        "joined_at_port": "cardiff",
        "capacity": "boy",
        "date_left": "1868-01-06",
        "left_port": "newport",
        "cause_of_leaving": "discharged",
        "sign_with_mark": "n",
        "notes": "blk"
    },
    {
        "id": "vtls004978207_0_11",
        "type": "sailor",
        "parent": "vtls004978207",
        "name": "william james",
        "dob": "blk",
        "age": "26",
        "place_of_birth": "aberystwyth",
        "home_address": "queen street, aberystwyth",
        "f": "queen street, aberystwyth",
        "name_of_ship": "william & mary",
        "ship_port": "aberystwyth",
        "date_leaving": "1868",
        "joined_ship_date": "1868-05-30",
        "joined_at_port": "poole",
        "capacity": "master",
        "date_left": "1868-08-26",
        "left_port": "goole",
        "cause_of_leaving": "remains on board",
        "sign_with_mark": "n",
        "notes": "blk"
    },
    {
        "id": "vtls004978188_1_15",
        "type": "sailor",
        "parent": "vtls004978188",
        "name": "james thomas",
        "dob": "blk",
        "age": "24",
        "place_of_birth": "aberystwyth",
        "home_address": "blk",
        "f": "blk",
        "name_of_ship": "william & mary",
        "ship_port": "aberystwyth",
        "date_leaving": "1868",
        "joined_ship_date": "1868-01-06",
        "joined_at_port": "newport",
        "capacity": "ordinary seaman",
        "date_left": "1868-04-24",
        "left_port": "newcastle",
        "cause_of_leaving": "discharged",
        "sign_with_mark": "n",
        "notes": "blk"
    },
    {
        "id": "vtls004978207_1_11",
        "type": "sailor",
        "parent": "vtls004978207",
        "name": "william james",
        "dob": "blk",
        "age": "26",
        "place_of_birth": "aberystwyth",
        "home_address": "aberystwyth",
        "f": "aberystwyth",
        "name_of_ship": "william & mary",
        "ship_port": "aberystwyth",
        "date_leaving": "1868",
        "joined_ship_date": "1868-08-26",
        "joined_at_port": "goole",
        "capacity": "master",
        "date_left": "1869-01-28",
        "left_port": "london",
        "cause_of_leaving": "remains on board",
        "sign_with_mark": "n",
        "notes": "blk"
    },
    {
        "id": "vtls004978207_0_13",
        "type": "sailor",
        "parent": "vtls004978207",
        "name": "william thomas",
        "dob": "blk",
        "age": "23",
        "place_of_birth": "aberystwyth",
        "home_address": "blk",
        "f": "blk",
        "name_of_ship": "william & mary",
        "ship_port": "aberystwyth",
        "date_leaving": "1868",
        "joined_ship_date": "1868-05-30",
        "joined_at_port": "poole",
        "capacity": "able seaman",
        "date_left": "1868-08-26",
        "left_port": "goole",
        "cause_of_leaving": "discharged",
        "sign_with_mark": "n",
        "notes": "blk"
    },
    {
        "id": "vtls004978207_0_14",
        "type": "sailor",
        "parent": "vtls004978207",
        "name": "james thomas",
        "dob": "blk",
        "age": "25",
        "place_of_birth": "aberystwyth",
        "home_address": "blk",
        "f": "blk",
        "name_of_ship": "william & mary",
        "ship_port": "aberystwyth",
        "date_leaving": "1868",
        "joined_ship_date": "1868-05-30",
        "joined_at_port": "poole",
        "capacity": "able seaman",
        "date_left": "1868-08-26",
        "left_port": "goole",
        "cause_of_leaving": "discharged",
        "sign_with_mark": "n",
        "notes": "blk"
    },
    {
        "id": "vtls004978188_1_16",
        "type": "sailor",
        "parent": "vtls004978188",
        "name": "david owens",
        "dob": "blk",
        "age": "15",
        "place_of_birth": "aberystwyth",
        "home_address": "blk",
        "f": "blk",
        "name_of_ship": "william & mary",
        "ship_port": "aberystwyth",
        "date_leaving": "1868",
        "joined_ship_date": "1868-01-07",
        "joined_at_port": "newport",
        "capacity": "boy",
        "date_left": "1868-04-24",
        "left_port": "newcastle",
        "cause_of_leaving": "discharged",
        "sign_with_mark": "n",
        "notes": "blk"
    },
    {
        "id": "vtls004978207_0_12",
        "type": "sailor",
        "parent": "vtls004978207",
        "name": "john evans",
        "dob": "blk",
        "age": "30",
        "place_of_birth": "aberystwyth",
        "home_address": "blk",
        "f": "blk",
        "name_of_ship": "william & mary",
        "ship_port": "aberystwyth",
        "date_leaving": "1868",
        "joined_ship_date": "1868-05-30",
        "joined_at_port": "poole",
        "capacity": "boatswain",
        "date_left": "1868-08-26",
        "left_port": "goole",
        "cause_of_leaving": "discharged",
        "sign_with_mark": "n",
        "notes": "blk"
    },
    {
        "id": "vtls004978188_1_14",
        "type": "sailor",
        "parent": "vtls004978188",
        "name": "henry shepherd",
        "dob": "blk",
        "age": "22",
        "place_of_birth": "exeter",
        "home_address": "blk",
        "f": "blk",
        "name_of_ship": "kate",
        "ship_port": "plymouth",
        "date_leaving": "1868",
        "joined_ship_date": "1868-01-06",
        "joined_at_port": "newport",
        "capacity": "able seaman",
        "date_left": "1868-04-24",
        "left_port": "newcastle",
        "cause_of_leaving": "discharged",
        "sign_with_mark": "n",
        "notes": "blk"
    },
    {
        "id": "vtls004978207_0_15",
        "type": "sailor",
        "parent": "vtls004978207",
        "name": "david owens",
        "dob": "blk",
        "age": "16",
        "place_of_birth": "aberystwyth",
        "home_address": "blk",
        "f": "blk",
        "name_of_ship": "william & mary",
        "ship_port": "aberystwyth",
        "date_leaving": "1868",
        "joined_ship_date": "1868-05-30",
        "joined_at_port": "poole",
        "capacity": "boy",
        "date_left": "1868-08-26",
        "left_port": "goole",
        "cause_of_leaving": "discharged",
        "sign_with_mark": "n",
        "notes": "blk"
    },
    {
        "id": "vtls004978236_0_11",
        "type": "sailor",
        "parent": "vtls004978236",
        "name": "william james",
        "dob": "blk",
        "age": "27",
        "place_of_birth": "aberystwyth",
        "home_address": "queen street, aberystwyth",
        "f": "queen street, aberystwyth",
        "name_of_ship": "william & mary",
        "ship_port": "aberystwyth",
        "date_leaving": "1869",
        "joined_ship_date": "1867-08-20",
        "joined_at_port": "aberystwyth",
        "capacity": "master",
        "date_left": "1869-07-15",
        "left_port": "dublin",
        "cause_of_leaving": "remains on board",
        "sign_with_mark": "n",
        "notes": "blk"
    },
    {
        "id": "vtls004978207_1_14",
        "type": "sailor",
        "parent": "vtls004978207",
        "name": "james thomas",
        "dob": "blk",
        "age": "25",
        "place_of_birth": "aberystwyth",
        "home_address": "blk",
        "f": "blk",
        "name_of_ship": "william & mary",
        "ship_port": "aberystwyth",
        "date_leaving": "1868",
        "joined_ship_date": "1868-08-26",
        "joined_at_port": "goole",
        "capacity": "ordinary seaman",
        "date_left": "1869-01-27",
        "left_port": "london",
        "cause_of_leaving": "discharged",
        "sign_with_mark": "n",
        "notes": "blk"
    },
    {
        "id": "vtls004978207_1_13",
        "type": "sailor",
        "parent": "vtls004978207",
        "name": "william thomas",
        "dob": "blk",
        "age": "23",
        "place_of_birth": "aberystwyth",
        "home_address": "blk",
        "f": "blk",
        "name_of_ship": "william & mary",
        "ship_port": "aberystwyth",
        "date_leaving": "1868",
        "joined_ship_date": "1868-08-26",
        "joined_at_port": "goole",
        "capacity": "able seaman",
        "date_left": "1869-01-27",
        "left_port": "london",
        "cause_of_leaving": "discharged",
        "sign_with_mark": "n",
        "notes": "blk"
    },
    {
        "id": "vtls004978207_1_12",
        "type": "sailor",
        "parent": "vtls004978207",
        "name": "john evans",
        "dob": "blk",
        "age": "30",
        "place_of_birth": "aberystwyth",
        "home_address": "blk",
        "f": "blk",
        "name_of_ship": "william & mary",
        "ship_port": "aberystwyth",
        "date_leaving": "1868",
        "joined_ship_date": "1868-08-26",
        "joined_at_port": "goole",
        "capacity": "boatswain",
        "date_left": "1868-11-12",
        "left_port": "algeria",
        "cause_of_leaving": "discharged",
        "sign_with_mark": "n",
        "notes": "blk"
    },
    {
        "id": "vtls004978236_0_12",
        "type": "sailor",
        "parent": "vtls004978236",
        "name": "evan jenkins",
        "dob": "blk",
        "age": "26",
        "place_of_birth": "aberystwyth",
        "home_address": "blk",
        "f": "blk",
        "name_of_ship": "wonder",
        "ship_port": "port talbot",
        "date_leaving": "1869",
        "joined_ship_date": "1869-04-19",
        "joined_at_port": "newport",
        "capacity": "boatswain",
        "date_left": "1869-07-15",
        "left_port": "dublin",
        "cause_of_leaving": "discharged",
        "sign_with_mark": "n",
        "notes": "blk"
    },
    {
        "id": "vtls004978207_1_15",
        "type": "sailor",
        "parent": "vtls004978207",
        "name": "david owens",
        "dob": "blk",
        "age": "16",
        "place_of_birth": "aberystwyth",
        "home_address": "blk",
        "f": "blk",
        "name_of_ship": "william & mary",
        "ship_port": "aberystwyth",
        "date_leaving": "1868",
        "joined_ship_date": "1868-08-26",
        "joined_at_port": "goole",
        "capacity": "boy",
        "date_left": "1869-01-27",
        "left_port": "london",
        "cause_of_leaving": "discharged",
        "sign_with_mark": "n",
        "notes": "blk"
    },
    {
        "id": "vtls004978207_1_16",
        "type": "sailor",
        "parent": "vtls004978207",
        "name": "john roberts",
        "dob": "blk",
        "age": "21",
        "place_of_birth": "amlwch",
        "home_address": "blk",
        "f": "blk",
        "name_of_ship": "[winifred]",
        "ship_port": "blk",
        "date_leaving": "1868",
        "joined_ship_date": "1868-11-12",
        "joined_at_port": "algeria",
        "capacity": "ordinary seaman",
        "date_left": "1869-01-27",
        "left_port": "london",
        "cause_of_leaving": "discharged",
        "sign_with_mark": "n",
        "notes": "blk"
    },
    {
        "id": "vtls004978236_0_15",
        "type": "sailor",
        "parent": "vtls004978236",
        "name": "gaubert louis",
        "dob": "blk",
        "age": "22",
        "place_of_birth": "france",
        "home_address": "blk",
        "f": "blk",
        "name_of_ship": "william & mary",
        "ship_port": "aberystwyth",
        "date_leaving": "1869",
        "joined_ship_date": "1869-04-19",
        "joined_at_port": "newport",
        "capacity": "cook & ordinary seaman",
        "date_left": "1869-07-15",
        "left_port": "dublin",
        "cause_of_leaving": "discharged",
        "sign_with_mark": "n",
        "notes": "blk"
    },
    {
        "id": "vtls004978236_1_11",
        "type": "sailor",
        "parent": "vtls004978236",
        "name": "william james",
        "dob": "blk",
        "age": "27",
        "place_of_birth": "aberystwyth",
        "home_address": "aberystwyth",
        "f": "aberystwyth",
        "name_of_ship": "william & mary",
        "ship_port": "aberystywyth",
        "date_leaving": "1869",
        "joined_ship_date": "1869-08-13",
        "joined_at_port": "newport",
        "capacity": "master",
        "date_left": "1869-10-21",
        "left_port": "dublin",
        "cause_of_leaving": "remains on board",
        "sign_with_mark": "n",
        "notes": "blk"
    },
    {
        "id": "vtls004978236_1_15",
        "type": "sailor",
        "parent": "vtls004978236",
        "name": "gaubert louis",
        "dob": "blk",
        "age": "23",
        "place_of_birth": "france",
        "home_address": "blk",
        "f": "blk",
        "name_of_ship": "william & mary",
        "ship_port": "aberystywyth",
        "date_leaving": "1869",
        "joined_ship_date": "1869-08-13",
        "joined_at_port": "newport",
        "capacity": "ordinary seaman",
        "date_left": "1869-10-21",
        "left_port": "dublin",
        "cause_of_leaving": "discharged",
        "sign_with_mark": "n",
        "notes": "blk"
    },
    {
        "id": "vtls004978236_1_13",
        "type": "sailor",
        "parent": "vtls004978236",
        "name": "william thomas",
        "dob": "blk",
        "age": "24",
        "place_of_birth": "aberystwyth",
        "home_address": "blk",
        "f": "blk",
        "name_of_ship": "william & mary",
        "ship_port": "aberystywyth",
        "date_leaving": "1869",
        "joined_ship_date": "1869-08-13",
        "joined_at_port": "newport",
        "capacity": "able seaman",
        "date_left": "1869-10-21",
        "left_port": "dublin",
        "cause_of_leaving": "discharged",
        "sign_with_mark": "n",
        "notes": "blk"
    },
    {
        "id": "vtls004978236_1_14",
        "type": "sailor",
        "parent": "vtls004978236",
        "name": "james thomas",
        "dob": "blk",
        "age": "26",
        "place_of_birth": "aberystwyth",
        "home_address": "blk",
        "f": "blk",
        "name_of_ship": "william & mary",
        "ship_port": "aberystywyth",
        "date_leaving": "1869",
        "joined_ship_date": "1869-08-13",
        "joined_at_port": "newport",
        "capacity": "able seaman",
        "date_left": "1869-10-21",
        "left_port": "dublin",
        "cause_of_leaving": "discharged",
        "sign_with_mark": "n",
        "notes": "blk"
    },
    {
        "id": "vtls004978236_1_12",
        "type": "sailor",
        "parent": "vtls004978236",
        "name": "evan jenkins",
        "dob": "blk",
        "age": "26",
        "place_of_birth": "aberystwyth",
        "home_address": "blk",
        "f": "blk",
        "name_of_ship": "william & mary",
        "ship_port": "aberystywyth",
        "date_leaving": "1869",
        "joined_ship_date": "1869-08-13",
        "joined_at_port": "newport",
        "capacity": "boatswain",
        "date_left": "1869-10-21",
        "left_port": "dublin",
        "cause_of_leaving": "discharged",
        "sign_with_mark": "n",
        "notes": "blk"
    },
    {
        "id": "vtls004978236_0_14",
        "type": "sailor",
        "parent": "vtls004978236",
        "name": "james thomas",
        "dob": "blk",
        "age": "40",
        "place_of_birth": "aberystwyth",
        "home_address": "blk",
        "f": "blk",
        "name_of_ship": "william & mary",
        "ship_port": "aberystwyth",
        "date_leaving": "1869",
        "joined_ship_date": "1869-04-19",
        "joined_at_port": "newport",
        "capacity": "able seaman",
        "date_left": "1869-07-15",
        "left_port": "dublin",
        "cause_of_leaving": "discharged",
        "sign_with_mark": "n",
        "notes": "blk"
    },
    {
        "id": "vtls004978236_0_13",
        "type": "sailor",
        "parent": "vtls004978236",
        "name": "william thomas",
        "dob": "blk",
        "age": "23",
        "place_of_birth": "cardigan",
        "home_address": "blk",
        "f": "blk",
        "name_of_ship": "william & mary",
        "ship_port": "aberystwyth",
        "date_leaving": "1869",
        "joined_ship_date": "1869-04-19",
        "joined_at_port": "newport",
        "capacity": "able seaman",
        "date_left": "1869-07-15",
        "left_port": "dublin",
        "cause_of_leaving": "discharged",
        "sign_with_mark": "n",
        "notes": "blk"
    },
    {
        "id": "vtls004978275_0_11",
        "type": "sailor",
        "parent": "vtls004978275",
        "name": "william james",
        "dob": "blk",
        "age": "blk",
        "place_of_birth": "aberystwyth",
        "home_address": "aberystwyth",
        "f": "aberystwyth",
        "name_of_ship": "william & mary",
        "ship_port": "aberystwyth",
        "date_leaving": "1869",
        "joined_ship_date": "blk",
        "joined_at_port": "dublin",
        "capacity": "master",
        "date_left": "1869-12-31",
        "left_port": "liverpool",
        "cause_of_leaving": "discharged",
        "sign_with_mark": "n",
        "notes": "blk"
    },
    {
        "id": "vtls004978275_1_11",
        "type": "sailor",
        "parent": "vtls004978275",
        "name": "william james",
        "dob": "blk",
        "age": "28",
        "place_of_birth": "aberystwyth",
        "home_address": "aberystwyth",
        "f": "aberystwyth",
        "name_of_ship": "william & mary",
        "ship_port": "aberystwyth",
        "date_leaving": "1869",
        "joined_ship_date": "1870-01-01",
        "joined_at_port": "garston",
        "capacity": "master",
        "date_left": "1870-04-26",
        "left_port": "terschelling island",
        "cause_of_leaving": "discharged",
        "sign_with_mark": "n",
        "notes": "the vessel was lost near terschelling island"
    },
    {
        "id": "vtls004978275_1_13",
        "type": "sailor",
        "parent": "vtls004978275",
        "name": "william thomas",
        "dob": "blk",
        "age": "25",
        "place_of_birth": "aberystwyth",
        "home_address": "blk",
        "f": "blk",
        "name_of_ship": "william & mary",
        "ship_port": "aberystwyth",
        "date_leaving": "1869",
        "joined_ship_date": "1870-01-01",
        "joined_at_port": "garston",
        "capacity": "able seaman",
        "date_left": "1870-04-26",
        "left_port": "terschelling island",
        "cause_of_leaving": "discharged",
        "sign_with_mark": "n",
        "notes": "blk"
    },
    {
        "id": "vtls004978275_1_14",
        "type": "sailor",
        "parent": "vtls004978275",
        "name": "james thomas",
        "dob": "blk",
        "age": "27",
        "place_of_birth": "aberystwyth",
        "home_address": "blk",
        "f": "blk",
        "name_of_ship": "william & mary",
        "ship_port": "aberystwyth",
        "date_leaving": "1869",
        "joined_ship_date": "1870-01-01",
        "joined_at_port": "garston",
        "capacity": "able seaman",
        "date_left": "1870-04-26",
        "left_port": "terschelling island",
        "cause_of_leaving": "discharged",
        "sign_with_mark": "n",
        "notes": "blk"
    },
    {
        "id": "vtls004978275_1_12",
        "type": "sailor",
        "parent": "vtls004978275",
        "name": "evan jenkins",
        "dob": "blk",
        "age": "27",
        "place_of_birth": "aberystwyth",
        "home_address": "blk",
        "f": "blk",
        "name_of_ship": "william & mary",
        "ship_port": "aberystwyth",
        "date_leaving": "1869",
        "joined_ship_date": "1870-01-01",
        "joined_at_port": "garston",
        "capacity": "boatswain",
        "date_left": "1870-04-26",
        "left_port": "terschelling island",
        "cause_of_leaving": "discharged",
        "sign_with_mark": "n",
        "notes": "blk"
    },
    {
        "id": "vtls004978275_0_15",
        "type": "sailor",
        "parent": "vtls004978275",
        "name": "gaubert lewis",
        "dob": "blk",
        "age": "23",
        "place_of_birth": "france",
        "home_address": "blk",
        "f": "blk",
        "name_of_ship": "william & mary",
        "ship_port": "aberystwyth",
        "date_leaving": "1869",
        "joined_ship_date": "1869-11-04",
        "joined_at_port": "dublin",
        "capacity": "ordinary seaman",
        "date_left": "1869-12-31",
        "left_port": "liverpool",
        "cause_of_leaving": "discharged",
        "sign_with_mark": "n",
        "notes": "blk"
    },
    {
        "id": "vtls004978275_0_13",
        "type": "sailor",
        "parent": "vtls004978275",
        "name": "william thomas",
        "dob": "blk",
        "age": "24",
        "place_of_birth": "aberystwyth",
        "home_address": "blk",
        "f": "blk",
        "name_of_ship": "william & mary",
        "ship_port": "aberystwyth",
        "date_leaving": "1869",
        "joined_ship_date": "1869-11-04",
        "joined_at_port": "dublin",
        "capacity": "able seaman",
        "date_left": "1869-12-31",
        "left_port": "liverpool",
        "cause_of_leaving": "discharged",
        "sign_with_mark": "n",
        "notes": "blk"
    },
    {
        "id": "vtls004978275_0_14",
        "type": "sailor",
        "parent": "vtls004978275",
        "name": "james thomas",
        "dob": "blk",
        "age": "26",
        "place_of_birth": "aberystwyth",
        "home_address": "blk",
        "f": "blk",
        "name_of_ship": "william & mary",
        "ship_port": "aberystwyth",
        "date_leaving": "1869",
        "joined_ship_date": "1869-11-04",
        "joined_at_port": "dublin",
        "capacity": "able seaman",
        "date_left": "1869-12-31",
        "left_port": "liverpool",
        "cause_of_leaving": "discharged",
        "sign_with_mark": "n",
        "notes": "blk"
    },
    {
        "id": "vtls004978275_0_12",
        "type": "sailor",
        "parent": "vtls004978275",
        "name": "evan jenkins",
        "dob": "blk",
        "age": "26",
        "place_of_birth": "aberystwyth",
        "home_address": "blk",
        "f": "blk",
        "name_of_ship": "william & mary",
        "ship_port": "aberystwyth",
        "date_leaving": "1869",
        "joined_ship_date": "1869-11-04",
        "joined_at_port": "dublin",
        "capacity": "boatswain",
        "date_left": "1869-12-31",
        "left_port": "liverpool",
        "cause_of_leaving": "discharged",
        "sign_with_mark": "n",
        "notes": "blk"
    },
    {
        "id": "vtls004978275_1_15",
        "type": "sailor",
        "parent": "vtls004978275",
        "name": "gaubert louis",
        "dob": "blk",
        "age": "24",
        "place_of_birth": "france",
        "home_address": "blk",
        "f": "blk",
        "name_of_ship": "william & mary",
        "ship_port": "aberystwyth",
        "date_leaving": "1869",
        "joined_ship_date": "1870-01-01",
        "joined_at_port": "garston",
        "capacity": "ordinary seaman",
        "date_left": "1870-04-26",
        "left_port": "terschelling island",
        "cause_of_leaving": "discharged",
        "sign_with_mark": "n",
        "notes": "blk"
    }
]