[
    {
        "id": "vtls004970474_0_14",
        "type": "sailor",
        "parent": "vtls004970474",
        "name": "david lloyd",
        "dob": "blk",
        "age": "19",
        "place_of_birth": "newquay",
        "home_address": "blk",
        "f": "blk",
        "name_of_ship": "prince llewellyn",
        "ship_port": "aberystwyth",
        "date_leaving": "1867-10-20",
        "joined_ship_date": "1867-11-07",
        "joined_at_port": "swansea",
        "capacity": "cook & steward",
        "date_left": "1868-03-13",
        "left_port": "bristol",
        "cause_of_leaving": "discharged",
        "sign_with_mark": "n",
        "notes": "blk"
    },
    {
        "id": "vtls004970474_0_12",
        "type": "sailor",
        "parent": "vtls004970474",
        "name": "william morris",
        "dob": "blk",
        "age": "47",
        "place_of_birth": "kidwelly",
        "home_address": "blk",
        "f": "blk",
        "name_of_ship": "triton",
        "ship_port": "aberystwyth",
        "date_leaving": "continued",
        "joined_ship_date": "1867-11-07",
        "joined_at_port": "swansea",
        "capacity": "mate",
        "date_left": "1868-03-13",
        "left_port": "bristol",
        "cause_of_leaving": "discharged",
        "sign_with_mark": "n",
        "notes": "certificate no: 63668"
    },
    {
        "id": "vtls004970474_0_16",
        "type": "sailor",
        "parent": "vtls004970474",
        "name": "william davis",
        "dob": "blk",
        "age": "23",
        "place_of_birth": "fishguard",
        "home_address": "blk",
        "f": "blk",
        "name_of_ship": "commodore",
        "ship_port": "shields",
        "date_leaving": "1867-09-24",
        "joined_ship_date": "1867-11-07",
        "joined_at_port": "swansea",
        "capacity": "able seaman",
        "date_left": "1868-03-13",
        "left_port": "bristol",
        "cause_of_leaving": "discharged",
        "sign_with_mark": "n",
        "notes": "blk"
    },
    {
        "id": "vtls004970474_0_15",
        "type": "sailor",
        "parent": "vtls004970474",
        "name": "evan evans",
        "dob": "blk",
        "age": "21",
        "place_of_birth": "newquay",
        "home_address": "blk",
        "f": "blk",
        "name_of_ship": "triton",
        "ship_port": "aberystwyth",
        "date_leaving": "continued",
        "joined_ship_date": "1867-11-07",
        "joined_at_port": "swansea",
        "capacity": "able seaman",
        "date_left": "1868-03-13",
        "left_port": "bristol",
        "cause_of_leaving": "discharged",
        "sign_with_mark": "n",
        "notes": "blk"
    },
    {
        "id": "vtls004970474_0_13",
        "type": "sailor",
        "parent": "vtls004970474",
        "name": "evan daniels",
        "dob": "blk",
        "age": "35",
        "place_of_birth": "newquay",
        "home_address": "blk",
        "f": "blk",
        "name_of_ship": "triton",
        "ship_port": "aberystwyth",
        "date_leaving": "continued",
        "joined_ship_date": "1867-11-07",
        "joined_at_port": "swansea",
        "capacity": "bosun",
        "date_left": "1868-03-13",
        "left_port": "bristol",
        "cause_of_leaving": "discharged",
        "sign_with_mark": "n",
        "notes": "blk"
    },
    {
        "id": "vtls004970474_0_11",
        "type": "sailor",
        "parent": "vtls004970474",
        "name": "thomas jones",
        "dob": "blk",
        "age": "31",
        "place_of_birth": "newquay",
        "home_address": "blk",
        "f": "blk",
        "name_of_ship": "triton",
        "ship_port": "aberystwyth",
        "date_leaving": "continued",
        "joined_ship_date": "1867-11-07",
        "joined_at_port": "swansea",
        "capacity": "master",
        "date_left": "1868",
        "left_port": "blk",
        "cause_of_leaving": "remains on board",
        "sign_with_mark": "n",
        "notes": "blk"
    },
    {
        "id": "vtls004970474_1_16",
        "type": "sailor",
        "parent": "vtls004970474",
        "name": "johan nelsfin",
        "dob": "blk",
        "age": "20",
        "place_of_birth": "sweden",
        "home_address": "blk",
        "f": "blk",
        "name_of_ship": "foreign ship",
        "ship_port": "blk",
        "date_leaving": "blk",
        "joined_ship_date": "1868-04-03",
        "joined_at_port": "cardiff",
        "capacity": "ordinary seaman",
        "date_left": "1868-10-13",
        "left_port": "gloucestershire",
        "cause_of_leaving": "discharged",
        "sign_with_mark": "n",
        "notes": "his name appears as john nelson in official log and termination of voyage papers."
    },
    {
        "id": "vtls004970474_1_12",
        "type": "sailor",
        "parent": "vtls004970474",
        "name": "william morris",
        "dob": "blk",
        "age": "49",
        "place_of_birth": "kidwelly",
        "home_address": "blk",
        "f": "blk",
        "name_of_ship": "triton",
        "ship_port": "aberystwyth",
        "date_leaving": "blk",
        "joined_ship_date": "1868-04-03",
        "joined_at_port": "cardiff",
        "capacity": "mate",
        "date_left": "1868-10-13",
        "left_port": "gloucestershire",
        "cause_of_leaving": "discharged",
        "sign_with_mark": "n",
        "notes": "certificate no: 63668"
    },
    {
        "id": "vtls004970474_1_14",
        "type": "sailor",
        "parent": "vtls004970474",
        "name": "jenkin evans",
        "dob": "blk",
        "age": "23",
        "place_of_birth": "newquay",
        "home_address": "blk",
        "f": "blk",
        "name_of_ship": "crinoline",
        "ship_port": "liverpool",
        "date_leaving": "1868-03-11",
        "joined_ship_date": "1868-04-03",
        "joined_at_port": "cardiff",
        "capacity": "able seaman",
        "date_left": "1868-10-13",
        "left_port": "gloucestershire",
        "cause_of_leaving": "discharged",
        "sign_with_mark": "n",
        "notes": "blk"
    },
    {
        "id": "vtls004970474_0_17",
        "type": "sailor",
        "parent": "vtls004970474",
        "name": "thomas evans",
        "dob": "blk",
        "age": "19",
        "place_of_birth": "newquay",
        "home_address": "blk",
        "f": "blk",
        "name_of_ship": "triton",
        "ship_port": "aberystwyth",
        "date_leaving": "continued",
        "joined_ship_date": "1867-11-07",
        "joined_at_port": "swansea",
        "capacity": "able seaman",
        "date_left": "1868-03-13",
        "left_port": "bristol",
        "cause_of_leaving": "discharged",
        "sign_with_mark": "n",
        "notes": "blk"
    },
    {
        "id": "vtls004970474_0_18",
        "type": "sailor",
        "parent": "vtls004970474",
        "name": "john davies",
        "dob": "blk",
        "age": "23",
        "place_of_birth": "newquay",
        "home_address": "blk",
        "f": "blk",
        "name_of_ship": "triton",
        "ship_port": "aberystwyth",
        "date_leaving": "continued",
        "joined_ship_date": "1867-11-07",
        "joined_at_port": "swansea",
        "capacity": "able seaman",
        "date_left": "1868-03-13",
        "left_port": "bristol",
        "cause_of_leaving": "discharged",
        "sign_with_mark": "n",
        "notes": "blk"
    },
    {
        "id": "vtls004970474_1_15",
        "type": "sailor",
        "parent": "vtls004970474",
        "name": "david lloyd",
        "dob": "blk",
        "age": "20",
        "place_of_birth": "newquay",
        "home_address": "blk",
        "f": "blk",
        "name_of_ship": "triton",
        "ship_port": "aberystwyth",
        "date_leaving": "blk",
        "joined_ship_date": "1868-04-03",
        "joined_at_port": "cardiff",
        "capacity": "able seaman",
        "date_left": "1868-10-13",
        "left_port": "gloucestershire",
        "cause_of_leaving": "discharged",
        "sign_with_mark": "n",
        "notes": "blk"
    },
    {
        "id": "vtls004970474_1_13",
        "type": "sailor",
        "parent": "vtls004970474",
        "name": "john davies",
        "dob": "blk",
        "age": "24",
        "place_of_birth": "newquay",
        "home_address": "blk",
        "f": "blk",
        "name_of_ship": "triton",
        "ship_port": "aberystwyth",
        "date_leaving": "blk",
        "joined_ship_date": "1868-04-03",
        "joined_at_port": "cardiff",
        "capacity": "carpenter",
        "date_left": "1868-10-13",
        "left_port": "gloucestershire",
        "cause_of_leaving": "discharged",
        "sign_with_mark": "n",
        "notes": "blk"
    },
    {
        "id": "vtls004970474_1_11",
        "type": "sailor",
        "parent": "vtls004970474",
        "name": "thos jones",
        "dob": "blk",
        "age": "32",
        "place_of_birth": "newquay",
        "home_address": "blk",
        "f": "blk",
        "name_of_ship": "triton",
        "ship_port": "aberystwyth",
        "date_leaving": "blk",
        "joined_ship_date": "blk",
        "joined_at_port": "blk",
        "capacity": "master",
        "date_left": "blk",
        "left_port": "blk",
        "cause_of_leaving": "remains on board",
        "sign_with_mark": "n",
        "notes": "blk"
    },
    {
        "id": "vtls004970474_1_18",
        "type": "sailor",
        "parent": "vtls004970474",
        "name": "j young",
        "dob": "blk",
        "age": "17",
        "place_of_birth": "devizes",
        "home_address": "blk",
        "f": "blk",
        "name_of_ship": "first voyage",
        "ship_port": "blk",
        "date_leaving": "blk",
        "joined_ship_date": "1868-04-03",
        "joined_at_port": "cardiff",
        "capacity": "cook",
        "date_left": "1868-10-13",
        "left_port": "gloucestershire",
        "cause_of_leaving": "discharged",
        "sign_with_mark": "n",
        "notes": "listed as joseph owen young in official log and termination of voyage papers."
    },
    {
        "id": "vtls004970490_0_15",
        "type": "sailor",
        "parent": "vtls004970490",
        "name": "lewis grifiths",
        "dob": "blk",
        "age": "22",
        "place_of_birth": "cardigan",
        "home_address": "blk",
        "f": "blk",
        "name_of_ship": "patricia",
        "ship_port": "aberystwyth",
        "date_leaving": "1868-12-15",
        "joined_ship_date": "1869-01-04",
        "joined_at_port": "cardiff",
        "capacity": "able seaman",
        "date_left": "1869-07-12",
        "left_port": "stockton",
        "cause_of_leaving": "discharged",
        "sign_with_mark": "n",
        "notes": "surname spelt griffiths on official log."
    },
    {
        "id": "vtls004970474_1_17",
        "type": "sailor",
        "parent": "vtls004970474",
        "name": "john owens",
        "dob": "blk",
        "age": "17",
        "place_of_birth": "cardigan",
        "home_address": "blk",
        "f": "blk",
        "name_of_ship": "electric flash",
        "ship_port": "hayle",
        "date_leaving": "1868-02-02",
        "joined_ship_date": "1868-04-03",
        "joined_at_port": "cardiff",
        "capacity": "ordinary seaman",
        "date_left": "1868-10-13",
        "left_port": "gloucestershire",
        "cause_of_leaving": "discharged",
        "sign_with_mark": "n",
        "notes": "blk"
    },
    {
        "id": "vtls004970490_0_16",
        "type": "sailor",
        "parent": "vtls004970490",
        "name": "james griffiths",
        "dob": "blk",
        "age": "21",
        "place_of_birth": "st dogmaels",
        "home_address": "blk",
        "f": "blk",
        "name_of_ship": "$$$$wright",
        "ship_port": "$",
        "date_leaving": "1868-12-26",
        "joined_ship_date": "1869-01-04",
        "joined_at_port": "cardiff",
        "capacity": "ordinary seaman",
        "date_left": "1869-07-12",
        "left_port": "stockton",
        "cause_of_leaving": "discharged",
        "sign_with_mark": "n",
        "notes": "blk"
    },
    {
        "id": "vtls004970490_0_12",
        "type": "sailor",
        "parent": "vtls004970490",
        "name": "william morris",
        "dob": "blk",
        "age": "49",
        "place_of_birth": "kidwelly",
        "home_address": "blk",
        "f": "blk",
        "name_of_ship": "triton",
        "ship_port": "aberystwyth",
        "date_leaving": "blk",
        "joined_ship_date": "1869-01-01",
        "joined_at_port": "cardiff",
        "capacity": "mate",
        "date_left": "1869-07-11",
        "left_port": "stockton",
        "cause_of_leaving": "discharged",
        "sign_with_mark": "n",
        "notes": "certificate no: 63668"
    },
    {
        "id": "vtls004970490_0_13",
        "type": "sailor",
        "parent": "vtls004970490",
        "name": "jenkin evans",
        "dob": "blk",
        "age": "24",
        "place_of_birth": "newquay",
        "home_address": "blk",
        "f": "blk",
        "name_of_ship": "triton",
        "ship_port": "aberystwyth",
        "date_leaving": "blk",
        "joined_ship_date": "1869-01-04",
        "joined_at_port": "cardiff",
        "capacity": "able seaman & bosun",
        "date_left": "1869-07-11",
        "left_port": "stockton",
        "cause_of_leaving": "discharged",
        "sign_with_mark": "n",
        "notes": "blk"
    },
    {
        "id": "vtls004970490_0_14",
        "type": "sailor",
        "parent": "vtls004970490",
        "name": "david d davies",
        "dob": "blk",
        "age": "20",
        "place_of_birth": "newquay",
        "home_address": "blk",
        "f": "blk",
        "name_of_ship": "[minnie]",
        "ship_port": "[preston]",
        "date_leaving": "1868-12-10",
        "joined_ship_date": "1869-01-04",
        "joined_at_port": "cardiff",
        "capacity": "able seaman",
        "date_left": "1869-07-12",
        "left_port": "stockton",
        "cause_of_leaving": "discharged",
        "sign_with_mark": "n",
        "notes": "blk"
    },
    {
        "id": "vtls004970490_0_11",
        "type": "sailor",
        "parent": "vtls004970490",
        "name": "thomas jones",
        "dob": "blk",
        "age": "33",
        "place_of_birth": "newquay",
        "home_address": "blk",
        "f": "blk",
        "name_of_ship": "triton",
        "ship_port": "aberystwyth",
        "date_leaving": "blk",
        "joined_ship_date": "same ship",
        "joined_at_port": "blk",
        "capacity": "master",
        "date_left": "1869-07-11",
        "left_port": "stockton",
        "cause_of_leaving": "remains on board",
        "sign_with_mark": "n",
        "notes": "blk"
    },
    {
        "id": "vtls004970490_0_17",
        "type": "sailor",
        "parent": "vtls004970490",
        "name": "daniel jones",
        "dob": "blk",
        "age": "16",
        "place_of_birth": "newquay",
        "home_address": "blk",
        "f": "blk",
        "name_of_ship": "first voyage",
        "ship_port": "blk",
        "date_leaving": "blk",
        "joined_ship_date": "1869-01-01",
        "joined_at_port": "cardiff",
        "capacity": "boy",
        "date_left": "1869-07-12",
        "left_port": "stockton",
        "cause_of_leaving": "discharged",
        "sign_with_mark": "n",
        "notes": "blk"
    },
    {
        "id": "vtls004970490_1_12",
        "type": "sailor",
        "parent": "vtls004970490",
        "name": "hugh pugh",
        "dob": "blk",
        "age": "23",
        "place_of_birth": "merioneth",
        "home_address": "blk",
        "f": "blk",
        "name_of_ship": "zion hill",
        "ship_port": "caernarfon",
        "date_leaving": "1869-07-21",
        "joined_ship_date": "1869-07-24",
        "joined_at_port": "middlesbrough",
        "capacity": "mate",
        "date_left": "1869-11-23",
        "left_port": "london",
        "cause_of_leaving": "discharged",
        "sign_with_mark": "n",
        "notes": "certificate no: 87650"
    },
    {
        "id": "vtls004970490_1_16",
        "type": "sailor",
        "parent": "vtls004970490",
        "name": "thomas davies",
        "dob": "blk",
        "age": "17",
        "place_of_birth": "newquay",
        "home_address": "blk",
        "f": "blk",
        "name_of_ship": "owen $",
        "ship_port": "new quay",
        "date_leaving": "1869-07",
        "joined_ship_date": "1869-07-23",
        "joined_at_port": "liverpool",
        "capacity": "ordinary seaman",
        "date_left": "1869-11-23",
        "left_port": "london",
        "cause_of_leaving": "discharged",
        "sign_with_mark": "y",
        "notes": "blk"
    },
    {
        "id": "vtls004970490_1_15",
        "type": "sailor",
        "parent": "vtls004970490",
        "name": "david jones",
        "dob": "blk",
        "age": "24",
        "place_of_birth": "newquay",
        "home_address": "blk",
        "f": "blk",
        "name_of_ship": "u. larsing",
        "ship_port": "new quay",
        "date_leaving": "1869-07",
        "joined_ship_date": "1869-07-23",
        "joined_at_port": "liverpool",
        "capacity": "able seaman",
        "date_left": "1869-11-23",
        "left_port": "london",
        "cause_of_leaving": "discharged",
        "sign_with_mark": "n",
        "notes": "blk"
    },
    {
        "id": "vtls004970490_1_14",
        "type": "sailor",
        "parent": "vtls004970490",
        "name": "enoch thomas",
        "dob": "blk",
        "age": "34",
        "place_of_birth": "newquay",
        "home_address": "blk",
        "f": "blk",
        "name_of_ship": "lady dufferin",
        "ship_port": "liverpool",
        "date_leaving": "1869-07",
        "joined_ship_date": "1869-07-23",
        "joined_at_port": "liverpool",
        "capacity": "bosun",
        "date_left": "1869-11-23",
        "left_port": "london",
        "cause_of_leaving": "discharged",
        "sign_with_mark": "y",
        "notes": "blk"
    },
    {
        "id": "vtls004970490_1_17",
        "type": "sailor",
        "parent": "vtls004970490",
        "name": "john parry",
        "dob": "blk",
        "age": "24",
        "place_of_birth": "newquay",
        "home_address": "blk",
        "f": "blk",
        "name_of_ship": "[rhodas]",
        "ship_port": "blk",
        "date_leaving": "1869-07-17",
        "joined_ship_date": "1869-07-24",
        "joined_at_port": "middlesbrough",
        "capacity": "able seaman",
        "date_left": "1869-11-23",
        "left_port": "london",
        "cause_of_leaving": "discharged",
        "sign_with_mark": "n",
        "notes": "blk"
    },
    {
        "id": "vtls004970490_1_13",
        "type": "sailor",
        "parent": "vtls004970490",
        "name": "daniel jones",
        "dob": "blk",
        "age": "17",
        "place_of_birth": "newquay",
        "home_address": "blk",
        "f": "blk",
        "name_of_ship": "triton",
        "ship_port": "aberystwyth",
        "date_leaving": "blk",
        "joined_ship_date": "1869-07-24",
        "joined_at_port": "middlesbrough",
        "capacity": "boy",
        "date_left": "1869-11-23",
        "left_port": "london",
        "cause_of_leaving": "discharged",
        "sign_with_mark": "n",
        "notes": "blk"
    },
    {
        "id": "vtls004970490_1_11",
        "type": "sailor",
        "parent": "vtls004970490",
        "name": "thomas jones",
        "dob": "blk",
        "age": "34",
        "place_of_birth": "newquay",
        "home_address": "blk",
        "f": "blk",
        "name_of_ship": "triton",
        "ship_port": "aberystwyth",
        "date_leaving": "remains",
        "joined_ship_date": "blk",
        "joined_at_port": "blk",
        "capacity": "master",
        "date_left": "blk",
        "left_port": "blk",
        "cause_of_leaving": "remains on board",
        "sign_with_mark": "n",
        "notes": "blk"
    },
    {
        "id": "vtls004970503_0_11",
        "type": "sailor",
        "parent": "vtls004970503",
        "name": "thomas jones",
        "dob": "blk",
        "age": "33",
        "place_of_birth": "newquay",
        "home_address": "blk",
        "f": "blk",
        "name_of_ship": "triton",
        "ship_port": "aberystwyth",
        "date_leaving": "continues",
        "joined_ship_date": "blk",
        "joined_at_port": "blk",
        "capacity": "master",
        "date_left": "1870-07-23",
        "left_port": "martinique",
        "cause_of_leaving": "discharged",
        "sign_with_mark": "n",
        "notes": "official log book, articles, ship's register and master's certificate lost with the ship."
    },
    {
        "id": "vtls004970503_0_13",
        "type": "sailor",
        "parent": "vtls004970503",
        "name": "daniel bellamy",
        "dob": "blk",
        "age": "22",
        "place_of_birth": "yarmouth norwich",
        "home_address": "blk",
        "f": "blk",
        "name_of_ship": "clara",
        "ship_port": "salcombe",
        "date_leaving": "1869",
        "joined_ship_date": "1870-01",
        "joined_at_port": "london",
        "capacity": "able seaman",
        "date_left": "1870-07-23",
        "left_port": "martinique",
        "cause_of_leaving": "discharged",
        "sign_with_mark": "n",
        "notes": "blk"
    },
    {
        "id": "vtls004970503_0_16",
        "type": "sailor",
        "parent": "vtls004970503",
        "name": "martin thomson",
        "dob": "blk",
        "age": "23",
        "place_of_birth": "copenhagen",
        "home_address": "blk",
        "f": "blk",
        "name_of_ship": "archipelago",
        "ship_port": "shields",
        "date_leaving": "1869",
        "joined_ship_date": "1870-01",
        "joined_at_port": "london",
        "capacity": "able seaman",
        "date_left": "1870-07-23",
        "left_port": "martinique",
        "cause_of_leaving": "discharged",
        "sign_with_mark": "y",
        "notes": "blk"
    },
    {
        "id": "vtls004970503_0_15",
        "type": "sailor",
        "parent": "vtls004970503",
        "name": "david jenkins",
        "dob": "blk",
        "age": "19",
        "place_of_birth": "cardigan",
        "home_address": "blk",
        "f": "blk",
        "name_of_ship": "triton",
        "ship_port": "aberystwyth",
        "date_leaving": "1869",
        "joined_ship_date": "1870-01",
        "joined_at_port": "london",
        "capacity": "cook & steward",
        "date_left": "1870-07-23",
        "left_port": "martinique",
        "cause_of_leaving": "discharged",
        "sign_with_mark": "n",
        "notes": "blk"
    },
    {
        "id": "vtls004970503_0_12",
        "type": "sailor",
        "parent": "vtls004970503",
        "name": "hugh pugh",
        "dob": "blk",
        "age": "23",
        "place_of_birth": "merioneth",
        "home_address": "blk",
        "f": "blk",
        "name_of_ship": "triton",
        "ship_port": "aberystwyth",
        "date_leaving": "1869",
        "joined_ship_date": "1870-01",
        "joined_at_port": "london",
        "capacity": "mate",
        "date_left": "1870-07-23",
        "left_port": "martinique",
        "cause_of_leaving": "discharged",
        "sign_with_mark": "n",
        "notes": "certificate: 07650"
    },
    {
        "id": "vtls004970503_0_14",
        "type": "sailor",
        "parent": "vtls004970503",
        "name": "richard heard",
        "dob": "blk",
        "age": "30",
        "place_of_birth": "london",
        "home_address": "blk",
        "f": "blk",
        "name_of_ship": "surprise",
        "ship_port": "inverness",
        "date_leaving": "1869",
        "joined_ship_date": "1870-01",
        "joined_at_port": "london",
        "capacity": "able seaman",
        "date_left": "1870-07-23",
        "left_port": "martinique",
        "cause_of_leaving": "discharged",
        "sign_with_mark": "n",
        "notes": "blk"
    },
    {
        "id": "vtls004970503_0_17",
        "type": "sailor",
        "parent": "vtls004970503",
        "name": "john miller",
        "dob": "blk",
        "age": "17",
        "place_of_birth": "london",
        "home_address": "blk",
        "f": "blk",
        "name_of_ship": "tamana",
        "ship_port": "glasgow",
        "date_leaving": "1869",
        "joined_ship_date": "1870-01",
        "joined_at_port": "london",
        "capacity": "ordinary seaman",
        "date_left": "1870-07-23",
        "left_port": "martinique",
        "cause_of_leaving": "discharged",
        "sign_with_mark": "n",
        "notes": "blk"
    }
]