[
    {
        "id": "vtls00004621834_0_11",
        "type": "sailor",
        "parent": "vtls00004621834",
        "name": "enoch thomas",
        "dob": "1822",
        "age": "blk",
        "place_of_birth": "newquay",
        "home_address": "high terrace, new quay",
        "f": "high terrace, new quay",
        "name_of_ship": "antelope",
        "ship_port": "aberystwyth",
        "date_leaving": "1880",
        "joined_ship_date": "1881-01-01",
        "joined_at_port": "newquay",
        "capacity": "master",
        "date_left": "1881-06-30",
        "left_port": "liverpool",
        "cause_of_leaving": "remains on board",
        "sign_with_mark": "n",
        "notes": "blk"
    },
    {
        "id": "vtls00004621834_1_11",
        "type": "sailor",
        "parent": "vtls00004621834",
        "name": "enoch thomas",
        "dob": "1821",
        "age": "blk",
        "place_of_birth": "newquay",
        "home_address": "high terrace, new quay",
        "f": "high terrace, new quay",
        "name_of_ship": "antelope",
        "ship_port": "aberystwyth",
        "date_leaving": "1881",
        "joined_ship_date": "1881-07-01",
        "joined_at_port": "newquay",
        "capacity": "master",
        "date_left": "1881-12-31",
        "left_port": "newquay",
        "cause_of_leaving": "remains on board",
        "sign_with_mark": "n",
        "notes": "blk"
    },
    {
        "id": "vtls004621823_1_11",
        "type": "sailor",
        "parent": "vtls004621823",
        "name": "enoch thomas",
        "dob": "1821",
        "age": "blk",
        "place_of_birth": "newquay",
        "home_address": "high terrace, new quay",
        "f": "high terrace, new quay",
        "name_of_ship": "antelope",
        "ship_port": "aberystwyth",
        "date_leaving": "remained on board",
        "joined_ship_date": "1880-07-01",
        "joined_at_port": "swansea",
        "capacity": "master",
        "date_left": "blk",
        "left_port": "blk",
        "cause_of_leaving": "remains on board",
        "sign_with_mark": "n",
        "notes": "blk"
    },
    {
        "id": "vtls004621823_0_11",
        "type": "sailor",
        "parent": "vtls004621823",
        "name": "enoch thomas",
        "dob": "blk",
        "age": "59",
        "place_of_birth": "newquay",
        "home_address": "high terrace, new quay",
        "f": "high terrace, new quay",
        "name_of_ship": "antelope",
        "ship_port": "aberystwyth",
        "date_leaving": "remained on board",
        "joined_ship_date": "1880-01-01",
        "joined_at_port": "newquay",
        "capacity": "master",
        "date_left": "blk",
        "left_port": "blk",
        "cause_of_leaving": "remains on board",
        "sign_with_mark": "n",
        "notes": "blk"
    },
    {
        "id": "vtls00004621834_0_12",
        "type": "sailor",
        "parent": "vtls00004621834",
        "name": "henry davies",
        "dob": "1851",
        "age": "blk",
        "place_of_birth": "newquay",
        "home_address": "blk",
        "f": "blk",
        "name_of_ship": "antelope",
        "ship_port": "aberystwyth",
        "date_leaving": "1881",
        "joined_ship_date": "1881-07-01",
        "joined_at_port": "newquay",
        "capacity": "mate",
        "date_left": "1881-06-30",
        "left_port": "liverpool",
        "cause_of_leaving": "remains on board",
        "sign_with_mark": "n",
        "notes": "blk"
    },
    {
        "id": "vtls004621823_1_12",
        "type": "sailor",
        "parent": "vtls004621823",
        "name": "david d davies",
        "dob": "18124",
        "age": "blk",
        "place_of_birth": "newquay",
        "home_address": "blk",
        "f": "blk",
        "name_of_ship": "antelope",
        "ship_port": "aberystwyth",
        "date_leaving": "remained on board",
        "joined_ship_date": "1880-01-01",
        "joined_at_port": "swansea",
        "capacity": "mate",
        "date_left": "blk",
        "left_port": "blk",
        "cause_of_leaving": "remains on board",
        "sign_with_mark": "n",
        "notes": "blk"
    },
    {
        "id": "vtls004621823_0_12",
        "type": "sailor",
        "parent": "vtls004621823",
        "name": "david d davies",
        "dob": "blk",
        "age": "56",
        "place_of_birth": "newquay",
        "home_address": "blk",
        "f": "blk",
        "name_of_ship": "antelope",
        "ship_port": "aberystwyth",
        "date_leaving": "1879",
        "joined_ship_date": "1880-01-01",
        "joined_at_port": "newquay",
        "capacity": "mate",
        "date_left": "blk",
        "left_port": "blk",
        "cause_of_leaving": "remains on board",
        "sign_with_mark": "n",
        "notes": "blk"
    },
    {
        "id": "vtls004621879_1_14",
        "type": "sailor",
        "parent": "vtls004621879",
        "name": "john jenkins",
        "dob": "1825",
        "age": "blk",
        "place_of_birth": "newquay",
        "home_address": "blk",
        "f": "blk",
        "name_of_ship": "maelota",
        "ship_port": "aberystwyth",
        "date_leaving": "1882",
        "joined_ship_date": "1882-11-04",
        "joined_at_port": "newquay",
        "capacity": "mate",
        "date_left": "1883-01-04",
        "left_port": "swansea",
        "cause_of_leaving": "remains on board",
        "sign_with_mark": "n",
        "notes": "note 1  - registered port name for maelota taken from clip as no port indicated on document."
    },
    {
        "id": "vtls004621879_1_11",
        "type": "sailor",
        "parent": "vtls004621879",
        "name": "henry davies",
        "dob": "1851",
        "age": "blk",
        "place_of_birth": "newquay",
        "home_address": "penygoylan, newquay, car",
        "f": "penygoylan, newquay, car",
        "name_of_ship": "antelope",
        "ship_port": "aberystwyth",
        "date_leaving": "remained on board",
        "joined_ship_date": "1882-07-13",
        "joined_at_port": "briton ferry",
        "capacity": "master",
        "date_left": "1883-01-04",
        "left_port": "swansea",
        "cause_of_leaving": "remains on board",
        "sign_with_mark": "n",
        "notes": "blk"
    },
    {
        "id": "vtls004621879_0_11",
        "type": "sailor",
        "parent": "vtls004621879",
        "name": "henry davies",
        "dob": "1857",
        "age": "blk",
        "place_of_birth": "newquay",
        "home_address": "penygoylan, newquay, wales",
        "f": "penygoylan, newquay, wales",
        "name_of_ship": "antelope",
        "ship_port": "aberystwyth",
        "date_leaving": "blk",
        "joined_ship_date": "february 1882",
        "joined_at_port": "newquay",
        "capacity": "master",
        "date_left": "1882-07-13",
        "left_port": "briton ferry",
        "cause_of_leaving": "remains on board",
        "sign_with_mark": "n",
        "notes": "blk"
    },
    {
        "id": "vtls00004621834_1_12",
        "type": "sailor",
        "parent": "vtls00004621834",
        "name": "henry davies",
        "dob": "1851",
        "age": "blk",
        "place_of_birth": "newquay",
        "home_address": "blk",
        "f": "blk",
        "name_of_ship": "antelope",
        "ship_port": "aberystwyth",
        "date_leaving": "1881",
        "joined_ship_date": "1881-07-01",
        "joined_at_port": "newquay",
        "capacity": "mate",
        "date_left": "1881-12-31",
        "left_port": "newquay",
        "cause_of_leaving": "remains on board",
        "sign_with_mark": "n",
        "notes": "blk"
    },
    {
        "id": "vtls004621879_0_12",
        "type": "sailor",
        "parent": "vtls004621879",
        "name": "john jones",
        "dob": "1820",
        "age": "blk",
        "place_of_birth": "newquay",
        "home_address": "blk",
        "f": "blk",
        "name_of_ship": "antelope",
        "ship_port": "aberystwyth",
        "date_leaving": "blk",
        "joined_ship_date": "february 1882",
        "joined_at_port": "newquay",
        "capacity": "able seaman",
        "date_left": "1882-07-13",
        "left_port": "briton ferry",
        "cause_of_leaving": "remains on board",
        "sign_with_mark": "n",
        "notes": "blk"
    },
    {
        "id": "vtls004621879_1_12",
        "type": "sailor",
        "parent": "vtls004621879",
        "name": "john owen",
        "dob": "1870",
        "age": "blk",
        "place_of_birth": "newquay",
        "home_address": "blk",
        "f": "blk",
        "name_of_ship": "antelope",
        "ship_port": "aberystwyth",
        "date_leaving": "1882",
        "joined_ship_date": "1882-07-13",
        "joined_at_port": "briton ferry",
        "capacity": "mate",
        "date_left": "1882-11-04",
        "left_port": "newquay",
        "cause_of_leaving": "discharged",
        "sign_with_mark": "n",
        "notes": "blk"
    },
    {
        "id": "vtls004621879_1_13",
        "type": "sailor",
        "parent": "vtls004621879",
        "name": "john davies",
        "dob": "1871",
        "age": "blk",
        "place_of_birth": "newquay",
        "home_address": "blk",
        "f": "blk",
        "name_of_ship": "first ship",
        "ship_port": "blk",
        "date_leaving": "blk",
        "joined_ship_date": "1882-07-13",
        "joined_at_port": "briton ferry",
        "capacity": "boy",
        "date_left": "1882-11-04",
        "left_port": "newquay",
        "cause_of_leaving": "discharged",
        "sign_with_mark": "n",
        "notes": "blk"
    },
    {
        "id": "vtls004621879_0_13",
        "type": "sailor",
        "parent": "vtls004621879",
        "name": "john lewis",
        "dob": "1870",
        "age": "blk",
        "place_of_birth": "newquay",
        "home_address": "blk",
        "f": "blk",
        "name_of_ship": "blk",
        "ship_port": "blk",
        "date_leaving": "blk",
        "joined_ship_date": "may 1882",
        "joined_at_port": "newquay",
        "capacity": "cook",
        "date_left": "1882-07-13",
        "left_port": "briton ferry",
        "cause_of_leaving": "remains on board",
        "sign_with_mark": "n",
        "notes": "blk"
    },
    {
        "id": "vtls004621892_1_12",
        "type": "sailor",
        "parent": "vtls004621892",
        "name": "david jones",
        "dob": "1841",
        "age": "blk",
        "place_of_birth": "newquay",
        "home_address": "blk",
        "f": "blk",
        "name_of_ship": "antelope",
        "ship_port": "aberystwyth",
        "date_leaving": "remained on board",
        "joined_ship_date": "blk",
        "joined_at_port": "blk",
        "capacity": "mate",
        "date_left": "blk",
        "left_port": "blk",
        "cause_of_leaving": "remains on board",
        "sign_with_mark": "n",
        "notes": "note 1 - pencil note against david jones stating \"not on previous year\""
    },
    {
        "id": "vtls004621891_0_11",
        "type": "sailor",
        "parent": "vtls004621891",
        "name": "henry davies",
        "dob": "blk",
        "age": "33",
        "place_of_birth": "newquay",
        "home_address": "penygoylan, newquay, car",
        "f": "penygoylan, newquay, car",
        "name_of_ship": "antelope",
        "ship_port": "aberystwyth",
        "date_leaving": "remained on board",
        "joined_ship_date": "blk",
        "joined_at_port": "blk",
        "capacity": "master",
        "date_left": "blk",
        "left_port": "blk",
        "cause_of_leaving": "remains on board",
        "sign_with_mark": "n",
        "notes": "blk"
    },
    {
        "id": "vtls004621892_1_11",
        "type": "sailor",
        "parent": "vtls004621892",
        "name": "henry davies",
        "dob": "1851",
        "age": "blk",
        "place_of_birth": "newquay",
        "home_address": "newquay, cardiganshire",
        "f": "newquay, cardiganshire",
        "name_of_ship": "antelope",
        "ship_port": "aberystwyth",
        "date_leaving": "remained on board",
        "joined_ship_date": "blk",
        "joined_at_port": "blk",
        "capacity": "master",
        "date_left": "blk",
        "left_port": "blk",
        "cause_of_leaving": "remains on board",
        "sign_with_mark": "n",
        "notes": "blk"
    },
    {
        "id": "vtls004621892_0_11",
        "type": "sailor",
        "parent": "vtls004621892",
        "name": "henry davies",
        "dob": "1851",
        "age": "blk",
        "place_of_birth": "newquay",
        "home_address": "penygoylan, new quay",
        "f": "penygoylan, new quay",
        "name_of_ship": "antelope",
        "ship_port": "aberystwyth",
        "date_leaving": "remained on board",
        "joined_ship_date": "blk",
        "joined_at_port": "blk",
        "capacity": "master",
        "date_left": "blk",
        "left_port": "blk",
        "cause_of_leaving": "remains on board",
        "sign_with_mark": "n",
        "notes": "blk"
    },
    {
        "id": "vtls004621892_0_13",
        "type": "sailor",
        "parent": "vtls004621892",
        "name": "john thomas",
        "dob": "1850",
        "age": "blk",
        "place_of_birth": "aberaeron",
        "home_address": "blk",
        "f": "blk",
        "name_of_ship": "agnes cairns",
        "ship_port": "aberystwyth",
        "date_leaving": "1884",
        "joined_ship_date": "1884-04-10",
        "joined_at_port": "newquay",
        "capacity": "mate",
        "date_left": "blk",
        "left_port": "blk",
        "cause_of_leaving": "remains on board",
        "sign_with_mark": "n",
        "notes": "blk"
    },
    {
        "id": "vtls004621891_0_12",
        "type": "sailor",
        "parent": "vtls004621891",
        "name": "john jenkins",
        "dob": "blk",
        "age": "59",
        "place_of_birth": "newquay",
        "home_address": "blk",
        "f": "blk",
        "name_of_ship": "antelope",
        "ship_port": "aberystwyth",
        "date_leaving": "remained on board",
        "joined_ship_date": "blk",
        "joined_at_port": "blk",
        "capacity": "mate",
        "date_left": "blk",
        "left_port": "blk",
        "cause_of_leaving": "remains on board",
        "sign_with_mark": "n",
        "notes": "blk"
    },
    {
        "id": "vtls004621892_0_12",
        "type": "sailor",
        "parent": "vtls004621892",
        "name": "evan davies",
        "dob": "1857",
        "age": "blk",
        "place_of_birth": "newquay",
        "home_address": "blk",
        "f": "blk",
        "name_of_ship": "unknown",
        "ship_port": "blk",
        "date_leaving": "unknown",
        "joined_ship_date": "1884-02-27",
        "joined_at_port": "newquay",
        "capacity": "mate",
        "date_left": "1884-04-04",
        "left_port": "newquay",
        "cause_of_leaving": "discharged",
        "sign_with_mark": "n",
        "notes": "blk"
    },
    {
        "id": "vtls004622027_1_11",
        "type": "sailor",
        "parent": "vtls004622027",
        "name": "henry evans",
        "dob": "1840",
        "age": "blk",
        "place_of_birth": "newquay",
        "home_address": "12 high terrace, newquay",
        "f": "12 high terrace, newquay",
        "name_of_ship": "antelope",
        "ship_port": "aberystwyth",
        "date_leaving": "1887",
        "joined_ship_date": "jan 1887",
        "joined_at_port": "newquay",
        "capacity": "master",
        "date_left": "1887-07-21",
        "left_port": "swansea",
        "cause_of_leaving": "remains on board",
        "sign_with_mark": "n",
        "notes": "note 1 - d.o.b. is as stated, which is a difference of 1 year from that given for the previous 6 months (55-16-1)"
    },
    {
        "id": "vtls004622070_1_11",
        "type": "sailor",
        "parent": "vtls004622070",
        "name": "henry evans",
        "dob": "1840",
        "age": "blk",
        "place_of_birth": "newquay",
        "home_address": "12, high terrace, new quay",
        "f": "12, high terrace, new quay",
        "name_of_ship": "antelope",
        "ship_port": "aberystwyth",
        "date_leaving": "remained on board",
        "joined_ship_date": "1887-02-09",
        "joined_at_port": "newquay",
        "capacity": "master",
        "date_left": "blk",
        "left_port": "blk",
        "cause_of_leaving": "remains on board",
        "sign_with_mark": "n",
        "notes": "note 1 - d.o.b. differs by 1 year from that given for the previous 6 months list on 55-17-1"
    },
    {
        "id": "vtls004622027_1_12",
        "type": "sailor",
        "parent": "vtls004622027",
        "name": "thomas evans",
        "dob": "1832",
        "age": "blk",
        "place_of_birth": "newquay",
        "home_address": "blk",
        "f": "blk",
        "name_of_ship": "antelope",
        "ship_port": "aberystwyth",
        "date_leaving": "1887",
        "joined_ship_date": "jan 1887",
        "joined_at_port": "newquay",
        "capacity": "mate",
        "date_left": "1887-07-21",
        "left_port": "swansea",
        "cause_of_leaving": "remains on board",
        "sign_with_mark": "n",
        "notes": "note 1 - d.o.b. is as stated, which is a difference of 5 years from that given for the previous 6 months (55-16-1)"
    },
    {
        "id": "vtls004622070_0_11",
        "type": "sailor",
        "parent": "vtls004622070",
        "name": "henry evans",
        "dob": "1841",
        "age": "blk",
        "place_of_birth": "cardiganshire",
        "home_address": "12 high terrace, newquay, cardigan",
        "f": "12 high terrace, newquay, cardigan",
        "name_of_ship": "antelope",
        "ship_port": "aberystwyth",
        "date_leaving": "remained on board",
        "joined_ship_date": "blk",
        "joined_at_port": "blk",
        "capacity": "master",
        "date_left": "blk",
        "left_port": "blk",
        "cause_of_leaving": "remains on board",
        "sign_with_mark": "n",
        "notes": "blk"
    },
    {
        "id": "vtls004622027_0_11",
        "type": "sailor",
        "parent": "vtls004622027",
        "name": "henry evans",
        "dob": "1841",
        "age": "blk",
        "place_of_birth": "newquay",
        "home_address": "newquay, card",
        "f": "newquay, card",
        "name_of_ship": "antelope",
        "ship_port": "aberystwyth",
        "date_leaving": "1887",
        "joined_ship_date": "1887-02-10",
        "joined_at_port": "newquay",
        "capacity": "master",
        "date_left": "1887-07-21",
        "left_port": "swansea",
        "cause_of_leaving": "remains on board",
        "sign_with_mark": "n",
        "notes": "blk"
    },
    {
        "id": "vtls004622027_0_12",
        "type": "sailor",
        "parent": "vtls004622027",
        "name": "thomas evans",
        "dob": "1827",
        "age": "blk",
        "place_of_birth": "newquay",
        "home_address": "blk",
        "f": "blk",
        "name_of_ship": "antelope",
        "ship_port": "aberystwyth",
        "date_leaving": "1887",
        "joined_ship_date": "1887-02-10",
        "joined_at_port": "newquay",
        "capacity": "able seaman",
        "date_left": "1887-07-21",
        "left_port": "swansea",
        "cause_of_leaving": "remains on board",
        "sign_with_mark": "n",
        "notes": "blk"
    },
    {
        "id": "vtls004622070_0_12",
        "type": "sailor",
        "parent": "vtls004622070",
        "name": "thomas evans",
        "dob": "1827",
        "age": "blk",
        "place_of_birth": "cardiganshire",
        "home_address": "blk",
        "f": "blk",
        "name_of_ship": "antelope",
        "ship_port": "aberystwyth",
        "date_leaving": "remained on board",
        "joined_ship_date": "blk",
        "joined_at_port": "blk",
        "capacity": "mate",
        "date_left": "blk",
        "left_port": "blk",
        "cause_of_leaving": "remains on board",
        "sign_with_mark": "n",
        "notes": "blk"
    },
    {
        "id": "vtls004622078_1_12",
        "type": "sailor",
        "parent": "vtls004622078",
        "name": "benjamin davies",
        "dob": "1845",
        "age": "blk",
        "place_of_birth": "newquay",
        "home_address": "blk",
        "f": "blk",
        "name_of_ship": "celynen",
        "ship_port": "newport",
        "date_leaving": "1889",
        "joined_ship_date": "1889-02-01",
        "joined_at_port": "newquay",
        "capacity": "mate",
        "date_left": "1889-09-12",
        "left_port": "newquay",
        "cause_of_leaving": "discharged",
        "sign_with_mark": "n",
        "notes": "note 1 - d.o.b. differs by 1 year from previous 6 months list (55-18-1)\nnote 2 - on the previous 6 monthly list, ship on which he last served was given as the monmouthshire - this is now the celynen.\nnote 3- original entry for the reason for leaving the ship was given as \"own accord\"; this has been crossed out in pencil and discharge written in"
    },
    {
        "id": "vtls004622070_1_12",
        "type": "sailor",
        "parent": "vtls004622070",
        "name": "thomas evans",
        "dob": "1824",
        "age": "blk",
        "place_of_birth": "newquay",
        "home_address": "blk",
        "f": "blk",
        "name_of_ship": "antelope",
        "ship_port": "aberystwyth",
        "date_leaving": "remained on board",
        "joined_ship_date": "1887-02-09",
        "joined_at_port": "newquay",
        "capacity": "mate",
        "date_left": "1889-01-01",
        "left_port": "swansea",
        "cause_of_leaving": "drowned",
        "sign_with_mark": "n",
        "notes": "note 1 - d.o.b. differs by 3 years from previous 6 months list.\nnote 2 - during a thick fog, thomas evans fell into the canal at swansea whilst proceeding to his vessel."
    },
    {
        "id": "vtls004622078_0_11",
        "type": "sailor",
        "parent": "vtls004622078",
        "name": "henry evans",
        "dob": "1840",
        "age": "blk",
        "place_of_birth": "newquay",
        "home_address": "12, high terrace, newquay, s wales",
        "f": "12, high terrace, newquay, s wales",
        "name_of_ship": "antelope",
        "ship_port": "aberystwyth",
        "date_leaving": "remained on board",
        "joined_ship_date": "1887-02-09",
        "joined_at_port": "newquay",
        "capacity": "master",
        "date_left": "blk",
        "left_port": "blk",
        "cause_of_leaving": "remains on board",
        "sign_with_mark": "n",
        "notes": "note 1 - difference in birth year from previous lists"
    },
    {
        "id": "vtls004622078_1_11",
        "type": "sailor",
        "parent": "vtls004622078",
        "name": "henry evans",
        "dob": "1840",
        "age": "blk",
        "place_of_birth": "newquay",
        "home_address": "12 high terrace, newquay, s. wales",
        "f": "12 high terrace, newquay, s. wales",
        "name_of_ship": "antelope",
        "ship_port": "aberystwthy",
        "date_leaving": "remained on board",
        "joined_ship_date": "1887-02-09",
        "joined_at_port": "newquay",
        "capacity": "master",
        "date_left": "blk",
        "left_port": "blk",
        "cause_of_leaving": "remains on board",
        "sign_with_mark": "n",
        "notes": "blk"
    },
    {
        "id": "vtls004622078_0_12",
        "type": "sailor",
        "parent": "vtls004622078",
        "name": "benjamin davies",
        "dob": "1844",
        "age": "blk",
        "place_of_birth": "newquay",
        "home_address": "blk",
        "f": "blk",
        "name_of_ship": "monmouthshire (s.s.)",
        "ship_port": "newport",
        "date_leaving": "1888",
        "joined_ship_date": "1889-02-19",
        "joined_at_port": "newquay",
        "capacity": "mate",
        "date_left": "blk",
        "left_port": "blk",
        "cause_of_leaving": "remains on board",
        "sign_with_mark": "n",
        "notes": "blk"
    },
    {
        "id": "vtls004622498_0_11",
        "type": "sailor",
        "parent": "vtls004622498",
        "name": "henry evans",
        "dob": "blk",
        "age": "49",
        "place_of_birth": "newquay",
        "home_address": "new quay",
        "f": "new quay",
        "name_of_ship": "antelope",
        "ship_port": "aberystwyth",
        "date_leaving": "remained on board",
        "joined_ship_date": "blk",
        "joined_at_port": "blk",
        "capacity": "master",
        "date_left": "1890-07-17",
        "left_port": "holyhead",
        "cause_of_leaving": "remains on board",
        "sign_with_mark": "n",
        "notes": "blk"
    },
    {
        "id": "vtls004622078_1_13",
        "type": "sailor",
        "parent": "vtls004622078",
        "name": "david jones",
        "dob": "1840",
        "age": "blk",
        "place_of_birth": "newquay",
        "home_address": "blk",
        "f": "blk",
        "name_of_ship": "jane",
        "ship_port": "aberystwyth",
        "date_leaving": "1889",
        "joined_ship_date": "1889-10-01",
        "joined_at_port": "newquay",
        "capacity": "mate",
        "date_left": "blk",
        "left_port": "blk",
        "cause_of_leaving": "remains on board",
        "sign_with_mark": "n",
        "notes": "blk"
    },
    {
        "id": "vtls004622498_1_11",
        "type": "sailor",
        "parent": "vtls004622498",
        "name": "henry evans",
        "dob": "1840",
        "age": "blk",
        "place_of_birth": "newquay",
        "home_address": "12 high terrace, newquay, cardigan",
        "f": "12 high terrace, newquay, cardigan",
        "name_of_ship": "antelope",
        "ship_port": "aberystwyth",
        "date_leaving": "remained on board",
        "joined_ship_date": "1886-02-09",
        "joined_at_port": "newquay",
        "capacity": "master",
        "date_left": "blk",
        "left_port": "blk",
        "cause_of_leaving": "remains on board",
        "sign_with_mark": "n",
        "notes": "note 1 - date of joining this ship is a year previous to other such entries"
    },
    {
        "id": "vtls004617865_1_11",
        "type": "sailor",
        "parent": "vtls004617865",
        "name": "evan griffith",
        "dob": "blk",
        "age": "39",
        "place_of_birth": "llwyndafydd, cardiganshire",
        "home_address": "llwyndafydd, cardiganshire",
        "f": "llwyndafydd, cardiganshire",
        "name_of_ship": "antelope",
        "ship_port": "aberystwyth",
        "date_leaving": "remained on board",
        "joined_ship_date": "1868-06-30",
        "joined_at_port": "at sea",
        "capacity": "master",
        "date_left": "blk",
        "left_port": "aberaeron",
        "cause_of_leaving": "remains on board",
        "sign_with_mark": "n",
        "notes": "blk"
    },
    {
        "id": "vtls004617865_0_11",
        "type": "sailor",
        "parent": "vtls004617865",
        "name": "evan griffiths",
        "dob": "blk",
        "age": "39",
        "place_of_birth": "llwyndafydd, cardiganshire",
        "home_address": "llwyndafydd, cardiganshire",
        "f": "llwyndafydd, cardiganshire",
        "name_of_ship": "this being his first vessel",
        "ship_port": "blk",
        "date_leaving": "blk",
        "joined_ship_date": "1868-01-30",
        "joined_at_port": "newquay",
        "capacity": "master",
        "date_left": "blk",
        "left_port": "blk",
        "cause_of_leaving": "remains on board",
        "sign_with_mark": "n",
        "notes": "blk"
    },
    {
        "id": "vtls004622498_0_13",
        "type": "sailor",
        "parent": "vtls004622498",
        "name": "david evans",
        "dob": "blk",
        "age": "15",
        "place_of_birth": "newquay",
        "home_address": "blk",
        "f": "blk",
        "name_of_ship": "antelope",
        "ship_port": "aberystwyth",
        "date_leaving": "remained on board",
        "joined_ship_date": "1890-02-25",
        "joined_at_port": "newquay",
        "capacity": "boy",
        "date_left": "1890-07-17",
        "left_port": "holyhead",
        "cause_of_leaving": "remains on board",
        "sign_with_mark": "n",
        "notes": "blk"
    },
    {
        "id": "vtls004622498_1_13",
        "type": "sailor",
        "parent": "vtls004622498",
        "name": "david evans",
        "dob": "1875",
        "age": "blk",
        "place_of_birth": "newquay",
        "home_address": "blk",
        "f": "blk",
        "name_of_ship": "antelope",
        "ship_port": "aberystwyth",
        "date_leaving": "remained on board",
        "joined_ship_date": "feb 1890",
        "joined_at_port": "newquay",
        "capacity": "boy",
        "date_left": "1890-10-24",
        "left_port": "newquay",
        "cause_of_leaving": "discharged",
        "sign_with_mark": "n",
        "notes": "blk"
    },
    {
        "id": "vtls004617865_0_12",
        "type": "sailor",
        "parent": "vtls004617865",
        "name": "evan davies",
        "dob": "blk",
        "age": "55",
        "place_of_birth": "newquay",
        "home_address": "blk",
        "f": "blk",
        "name_of_ship": "loyalty",
        "ship_port": "aberystwyth",
        "date_leaving": "1866",
        "joined_ship_date": "1868-01-30",
        "joined_at_port": "newquay",
        "capacity": "mate",
        "date_left": "blk",
        "left_port": "blk",
        "cause_of_leaving": "remains on board",
        "sign_with_mark": "n",
        "notes": "blk"
    },
    {
        "id": "vtls004622498_0_12",
        "type": "sailor",
        "parent": "vtls004622498",
        "name": "david jones",
        "dob": "blk",
        "age": "49",
        "place_of_birth": "newquay",
        "home_address": "blk",
        "f": "blk",
        "name_of_ship": "antelope",
        "ship_port": "aberystwyth",
        "date_leaving": "remained on board",
        "joined_ship_date": "blk",
        "joined_at_port": "blk",
        "capacity": "mate",
        "date_left": "1890-07-17",
        "left_port": "holyhead",
        "cause_of_leaving": "remains on board",
        "sign_with_mark": "n",
        "notes": "blk"
    },
    {
        "id": "vtls004622498_1_12",
        "type": "sailor",
        "parent": "vtls004622498",
        "name": "david jones",
        "dob": "1840",
        "age": "blk",
        "place_of_birth": "newquay",
        "home_address": "blk",
        "f": "blk",
        "name_of_ship": "antelope",
        "ship_port": "aberystwyth",
        "date_leaving": "remained on board",
        "joined_ship_date": "sept 1889",
        "joined_at_port": "newquay",
        "capacity": "mate",
        "date_left": "blk",
        "left_port": "blk",
        "cause_of_leaving": "remains on board",
        "sign_with_mark": "n",
        "notes": "blk"
    },
    {
        "id": "vtls004617865_0_13",
        "type": "sailor",
        "parent": "vtls004617865",
        "name": "jenkin davies",
        "dob": "blk",
        "age": "14",
        "place_of_birth": "newquay",
        "home_address": "blk",
        "f": "blk",
        "name_of_ship": "eaglet",
        "ship_port": "cardigan",
        "date_leaving": "1868",
        "joined_ship_date": "1868-01-30",
        "joined_at_port": "newquay",
        "capacity": "boy",
        "date_left": "blk",
        "left_port": "blk",
        "cause_of_leaving": "remains on board",
        "sign_with_mark": "n",
        "notes": "blk"
    },
    {
        "id": "vtls004622509_1_11",
        "type": "sailor",
        "parent": "vtls004622509",
        "name": "thomas evans",
        "dob": "1840",
        "age": "blk",
        "place_of_birth": "newquay",
        "home_address": "high terrace, new quay, cardiganshire, s. wales",
        "f": "high terrace, new quay, cardiganshire, s. wales",
        "name_of_ship": "antelope",
        "ship_port": "aberystwyth",
        "date_leaving": "1891",
        "joined_ship_date": "1892-07-01",
        "joined_at_port": "newquay",
        "capacity": "master",
        "date_left": "blk",
        "left_port": "blk",
        "cause_of_leaving": "remains on board",
        "sign_with_mark": "n",
        "notes": "master's name entered as thomas evans, rather than henry evans but all other entries for master are under the name of henry evans"
    },
    {
        "id": "vtls004622509_0_12",
        "type": "sailor",
        "parent": "vtls004622509",
        "name": "james thomas",
        "dob": "1837",
        "age": "blk",
        "place_of_birth": "newquay",
        "home_address": "blk",
        "f": "blk",
        "name_of_ship": "antelope",
        "ship_port": "aberystwyth",
        "date_leaving": "1891",
        "joined_ship_date": "1892-01-01",
        "joined_at_port": "new quay, card",
        "capacity": "mate",
        "date_left": "blk",
        "left_port": "blk",
        "cause_of_leaving": "remains on board",
        "sign_with_mark": "n",
        "notes": "note 1 - birth year not same as previous crew list (55-20-2)"
    },
    {
        "id": "vtls004622509_0_11",
        "type": "sailor",
        "parent": "vtls004622509",
        "name": "henry evans",
        "dob": "1840",
        "age": "blk",
        "place_of_birth": "newquay",
        "home_address": "12 high terrace, new quay, cardiganshire",
        "f": "12 high terrace, new quay, cardiganshire",
        "name_of_ship": "antelope",
        "ship_port": "aberystwyth",
        "date_leaving": "1891",
        "joined_ship_date": "1892-01-01",
        "joined_at_port": "new quay, card",
        "capacity": "master",
        "date_left": "blk",
        "left_port": "blk",
        "cause_of_leaving": "remains on board",
        "sign_with_mark": "n",
        "notes": "blk"
    },
    {
        "id": "vtls004617865_1_13",
        "type": "sailor",
        "parent": "vtls004617865",
        "name": "jenkin davies",
        "dob": "blk",
        "age": "14",
        "place_of_birth": "newquay",
        "home_address": "blk",
        "f": "blk",
        "name_of_ship": "antelope",
        "ship_port": "aberystwyth",
        "date_leaving": "remained on board",
        "joined_ship_date": "1868-06-30",
        "joined_at_port": "at sea",
        "capacity": "boy",
        "date_left": "1868-10-17",
        "left_port": "aberaeron",
        "cause_of_leaving": "discharged",
        "sign_with_mark": "n",
        "notes": "blk"
    },
    {
        "id": "vtls004617865_1_12",
        "type": "sailor",
        "parent": "vtls004617865",
        "name": "evan davies",
        "dob": "blk",
        "age": "58",
        "place_of_birth": "cardiganshire",
        "home_address": "blk",
        "f": "blk",
        "name_of_ship": "antelope",
        "ship_port": "aberystwyth",
        "date_leaving": "remained on board",
        "joined_ship_date": "1868-06-30",
        "joined_at_port": "at sea",
        "capacity": "mate",
        "date_left": "1868-10-17",
        "left_port": "aberaeron",
        "cause_of_leaving": "discharged",
        "sign_with_mark": "n",
        "notes": "blk"
    },
    {
        "id": "vtls004622509_1_12",
        "type": "sailor",
        "parent": "vtls004622509",
        "name": "james thomas",
        "dob": "1837",
        "age": "blk",
        "place_of_birth": "newquay",
        "home_address": "blk",
        "f": "blk",
        "name_of_ship": "antelope",
        "ship_port": "aberystwyth",
        "date_leaving": "1891",
        "joined_ship_date": "1892-07-01",
        "joined_at_port": "newquay",
        "capacity": "mate",
        "date_left": "1892-11-05",
        "left_port": "newquay",
        "cause_of_leaving": "discharged",
        "sign_with_mark": "n",
        "notes": "blk"
    },
    {
        "id": "vtls004622531_1_11",
        "type": "sailor",
        "parent": "vtls004622531",
        "name": "henry evans",
        "dob": "1840",
        "age": "blk",
        "place_of_birth": "new quay, cadigan",
        "home_address": "12, high terrace, new quay, cardiganshire",
        "f": "12, high terrace, new quay, cardiganshire",
        "name_of_ship": "antelope",
        "ship_port": "aberystwyth",
        "date_leaving": "1892",
        "joined_ship_date": "1893-07-01",
        "joined_at_port": "swansea",
        "capacity": "master",
        "date_left": "1893-08-26",
        "left_port": "cymtydu",
        "cause_of_leaving": "discharged - vessel lost",
        "sign_with_mark": "n",
        "notes": "blk"
    },
    {
        "id": "vtls004621439_1_11",
        "type": "sailor",
        "parent": "vtls004621439",
        "name": "evan griffiths",
        "dob": "blk",
        "age": "40",
        "place_of_birth": "llwyndafydd, cardiganshire",
        "home_address": "llwyndafydd, cardiganshire",
        "f": "llwyndafydd, cardiganshire",
        "name_of_ship": "antelope",
        "ship_port": "aberystwyth",
        "date_leaving": "remained on board",
        "joined_ship_date": "1869-07-01",
        "joined_at_port": "llanelly",
        "capacity": "master",
        "date_left": "blk",
        "left_port": "blk",
        "cause_of_leaving": "remains on board",
        "sign_with_mark": "n",
        "notes": "blk"
    },
    {
        "id": "vtls004621439_0_11",
        "type": "sailor",
        "parent": "vtls004621439",
        "name": "evan griffiths",
        "dob": "blk",
        "age": "39",
        "place_of_birth": "cardiganshire",
        "home_address": "llwyndafydd, cardiganshire",
        "f": "llwyndafydd, cardiganshire",
        "name_of_ship": "antelope",
        "ship_port": "aberystwyth",
        "date_leaving": "remianed on board",
        "joined_ship_date": "1869-01-01",
        "joined_at_port": "aberayron",
        "capacity": "master",
        "date_left": "blk",
        "left_port": "blk",
        "cause_of_leaving": "remains on board",
        "sign_with_mark": "n",
        "notes": "blk"
    },
    {
        "id": "vtls004621439_1_12",
        "type": "sailor",
        "parent": "vtls004621439",
        "name": "evan davies",
        "dob": "blk",
        "age": "60",
        "place_of_birth": "newquay",
        "home_address": "blk",
        "f": "blk",
        "name_of_ship": "antelope",
        "ship_port": "aberystwyth",
        "date_leaving": "remained on board",
        "joined_ship_date": "1869-07-01",
        "joined_at_port": "llanelly",
        "capacity": "mate",
        "date_left": "1869-10-29",
        "left_port": "carmarthen",
        "cause_of_leaving": "discharged",
        "sign_with_mark": "n",
        "notes": "blk"
    },
    {
        "id": "vtls004622531_1_12",
        "type": "sailor",
        "parent": "vtls004622531",
        "name": "david evans",
        "dob": "1874",
        "age": "blk",
        "place_of_birth": "new quay, cadigan",
        "home_address": "blk",
        "f": "blk",
        "name_of_ship": "antelope",
        "ship_port": "aberystwyth",
        "date_leaving": "1892",
        "joined_ship_date": "1893-07-01",
        "joined_at_port": "swansea",
        "capacity": "mate",
        "date_left": "1893-08-26",
        "left_port": "cymtydu",
        "cause_of_leaving": "discharged - vessel lost",
        "sign_with_mark": "n",
        "notes": "blk"
    },
    {
        "id": "vtls004622531_0_12",
        "type": "sailor",
        "parent": "vtls004622531",
        "name": "henry evans",
        "dob": "1840",
        "age": "blk",
        "place_of_birth": "newquay",
        "home_address": "high terrace, newquay",
        "f": "high terrace, newquay",
        "name_of_ship": "antelope",
        "ship_port": "aberystwyth",
        "date_leaving": "1892",
        "joined_ship_date": "1893-02-24",
        "joined_at_port": "swansea",
        "capacity": "mate",
        "date_left": "blk",
        "left_port": "blk",
        "cause_of_leaving": "remains on board",
        "sign_with_mark": "n",
        "notes": "blk"
    },
    {
        "id": "vtls004621439_0_13",
        "type": "sailor",
        "parent": "vtls004621439",
        "name": "david d davies",
        "dob": "blk",
        "age": "14",
        "place_of_birth": "cardiganshire",
        "home_address": "blk",
        "f": "blk",
        "name_of_ship": "this being his first ship",
        "ship_port": "blk",
        "date_leaving": "blk",
        "joined_ship_date": "1869-03-15",
        "joined_at_port": "aberayron",
        "capacity": "boy",
        "date_left": "blk",
        "left_port": "blk",
        "cause_of_leaving": "remains on board",
        "sign_with_mark": "n",
        "notes": "blk"
    },
    {
        "id": "vtls004622531_0_11",
        "type": "sailor",
        "parent": "vtls004622531",
        "name": "david evans",
        "dob": "1874",
        "age": "blk",
        "place_of_birth": "newquay",
        "home_address": "high terrace, newquay",
        "f": "high terrace, newquay",
        "name_of_ship": "ione",
        "ship_port": "swansea",
        "date_leaving": "1892",
        "joined_ship_date": "1893-02-24",
        "joined_at_port": "swansea",
        "capacity": "master",
        "date_left": "blk",
        "left_port": "blk",
        "cause_of_leaving": "remains on board",
        "sign_with_mark": "n",
        "notes": "blk"
    },
    {
        "id": "vtls004621439_0_12",
        "type": "sailor",
        "parent": "vtls004621439",
        "name": "evan davies",
        "dob": "blk",
        "age": "58",
        "place_of_birth": "cardiganshire",
        "home_address": "blk",
        "f": "blk",
        "name_of_ship": "antelope",
        "ship_port": "aberystwyth",
        "date_leaving": "blk",
        "joined_ship_date": "1869-03-15",
        "joined_at_port": "aberayron",
        "capacity": "mate",
        "date_left": "blk",
        "left_port": "blk",
        "cause_of_leaving": "remains on board",
        "sign_with_mark": "n",
        "notes": "blk"
    },
    {
        "id": "vtls004621503_0_11",
        "type": "sailor",
        "parent": "vtls004621503",
        "name": "evan griffiths",
        "dob": "blk",
        "age": "39",
        "place_of_birth": "llwyndafydd",
        "home_address": "llwyndafydd, cardiganshire",
        "f": "llwyndafydd, cardiganshire",
        "name_of_ship": "antelope",
        "ship_port": "aberystwyth",
        "date_leaving": "remianed on board",
        "joined_ship_date": "1869-01-01",
        "joined_at_port": "sandarsfoot",
        "capacity": "master",
        "date_left": "blk",
        "left_port": "blk",
        "cause_of_leaving": "remains on board",
        "sign_with_mark": "n",
        "notes": "note 1 - age given is 39 - in the agreement list immediately prior to this age was given as 40."
    },
    {
        "id": "vtls004621526_0_11",
        "type": "sailor",
        "parent": "vtls004621526",
        "name": "evan griffiths",
        "dob": "blk",
        "age": "42",
        "place_of_birth": "newquay",
        "home_address": "llwyndafydd, cardiganshire",
        "f": "llwyndafydd, cardiganshire",
        "name_of_ship": "antelope",
        "ship_port": "aberystwyth",
        "date_leaving": "remained on board",
        "joined_ship_date": "1871-01-01",
        "joined_at_port": "cardiff",
        "capacity": "master",
        "date_left": "blk",
        "left_port": "newquay",
        "cause_of_leaving": "remains on board",
        "sign_with_mark": "n",
        "notes": "note 1  - birthplace now given as new quay"
    },
    {
        "id": "vtls004621503_1_11",
        "type": "sailor",
        "parent": "vtls004621503",
        "name": "evan griffiths",
        "dob": "blk",
        "age": "42",
        "place_of_birth": "cardiganshire",
        "home_address": "llwyndafydd, cardiganshire",
        "f": "llwyndafydd, cardiganshire",
        "name_of_ship": "antelope",
        "ship_port": "aberystwyth",
        "date_leaving": "remianed on board",
        "joined_ship_date": "1870-07-01",
        "joined_at_port": "runcorn",
        "capacity": "master",
        "date_left": "1870-10-31",
        "left_port": "cardiff",
        "cause_of_leaving": "remains on board",
        "sign_with_mark": "n",
        "notes": "blk"
    },
    {
        "id": "vtls004621439_1_13",
        "type": "sailor",
        "parent": "vtls004621439",
        "name": "david d davies",
        "dob": "blk",
        "age": "15",
        "place_of_birth": "newquay",
        "home_address": "blk",
        "f": "blk",
        "name_of_ship": "antelope",
        "ship_port": "aberystwyth",
        "date_leaving": "remained on board",
        "joined_ship_date": "1860-07-01",
        "joined_at_port": "llanelly",
        "capacity": "boy",
        "date_left": "1869-10-29",
        "left_port": "carmarthen",
        "cause_of_leaving": "discharged",
        "sign_with_mark": "n",
        "notes": "blk"
    },
    {
        "id": "vtls004621503_1_12",
        "type": "sailor",
        "parent": "vtls004621503",
        "name": "john jones",
        "dob": "blk",
        "age": "45",
        "place_of_birth": "llwyndafydd",
        "home_address": "blk",
        "f": "blk",
        "name_of_ship": "antelope",
        "ship_port": "aberystwyth",
        "date_leaving": "remianed on board",
        "joined_ship_date": "1870-07-01",
        "joined_at_port": "runcorn",
        "capacity": "mate",
        "date_left": "1870-10-27",
        "left_port": "cardiff",
        "cause_of_leaving": "remains on board",
        "sign_with_mark": "n",
        "notes": "blk"
    },
    {
        "id": "vtls004621503_0_12",
        "type": "sailor",
        "parent": "vtls004621503",
        "name": "john jones",
        "dob": "blk",
        "age": "45",
        "place_of_birth": "llwyndafydd",
        "home_address": "blk",
        "f": "blk",
        "name_of_ship": "antelope",
        "ship_port": "aberystwyth",
        "date_leaving": "1869-12-31",
        "joined_ship_date": "1870-01-01",
        "joined_at_port": "sandarsfoot",
        "capacity": "mate",
        "date_left": "blk",
        "left_port": "blk",
        "cause_of_leaving": "remains on board",
        "sign_with_mark": "n",
        "notes": "blk"
    },
    {
        "id": "vtls004621531_0_11",
        "type": "sailor",
        "parent": "vtls004621531",
        "name": "evan griffiths",
        "dob": "blk",
        "age": "42",
        "place_of_birth": "newquay",
        "home_address": "newquay, cardiganshire",
        "f": "newquay, cardiganshire",
        "name_of_ship": "antelope",
        "ship_port": "aberystwyth",
        "date_leaving": "remained on board",
        "joined_ship_date": "1872-01-01",
        "joined_at_port": "porthmadoc",
        "capacity": "master",
        "date_left": "blk",
        "left_port": "blk",
        "cause_of_leaving": "remains on board",
        "sign_with_mark": "n",
        "notes": "blk"
    },
    {
        "id": "vtls004621531_1_11",
        "type": "sailor",
        "parent": "vtls004621531",
        "name": "evan griffiths",
        "dob": "blk",
        "age": "42",
        "place_of_birth": "newquay",
        "home_address": "newquay, cardiganshire",
        "f": "newquay, cardiganshire",
        "name_of_ship": "antelope",
        "ship_port": "aberystwyth",
        "date_leaving": "remained on board",
        "joined_ship_date": "blk",
        "joined_at_port": "blk",
        "capacity": "master",
        "date_left": "blk",
        "left_port": "blk",
        "cause_of_leaving": "remains on board",
        "sign_with_mark": "n",
        "notes": "blk"
    },
    {
        "id": "vtls004621531_0_12",
        "type": "sailor",
        "parent": "vtls004621531",
        "name": "evan davies",
        "dob": "blk",
        "age": "60",
        "place_of_birth": "newquay",
        "home_address": "blk",
        "f": "blk",
        "name_of_ship": "antelope",
        "ship_port": "aberystwyth",
        "date_leaving": "remained on board",
        "joined_ship_date": "1872-01-01",
        "joined_at_port": "porthmadoc",
        "capacity": "mate",
        "date_left": "blk",
        "left_port": "blk",
        "cause_of_leaving": "remains on board",
        "sign_with_mark": "n",
        "notes": "blk"
    },
    {
        "id": "vtls004621526_1_11",
        "type": "sailor",
        "parent": "vtls004621526",
        "name": "evan griffiths",
        "dob": "blk",
        "age": "42",
        "place_of_birth": "cardiganshire",
        "home_address": "new quay",
        "f": "new quay",
        "name_of_ship": "antelope",
        "ship_port": "aberystwyth",
        "date_leaving": "remained on board",
        "joined_ship_date": "1871-06-30",
        "joined_at_port": "milford",
        "capacity": "master",
        "date_left": "blk",
        "left_port": "blk",
        "cause_of_leaving": "remains on board",
        "sign_with_mark": "n",
        "notes": "blk"
    },
    {
        "id": "vtls004621526_0_12",
        "type": "sailor",
        "parent": "vtls004621526",
        "name": "john evans",
        "dob": "blk",
        "age": "52",
        "place_of_birth": "newquay",
        "home_address": "blk",
        "f": "blk",
        "name_of_ship": "angelina",
        "ship_port": "cardigan",
        "date_leaving": "unknown",
        "joined_ship_date": "1871-03-06",
        "joined_at_port": "cardiff",
        "capacity": "mate",
        "date_left": "blk",
        "left_port": "newquay",
        "cause_of_leaving": "remains on board",
        "sign_with_mark": "n",
        "notes": "blk"
    },
    {
        "id": "vtls004621526_1_12",
        "type": "sailor",
        "parent": "vtls004621526",
        "name": "evan davies",
        "dob": "blk",
        "age": "60",
        "place_of_birth": "cardiganshire",
        "home_address": "blk",
        "f": "blk",
        "name_of_ship": "antelope",
        "ship_port": "aberystwyth",
        "date_leaving": "remained on board",
        "joined_ship_date": "1871-06-30",
        "joined_at_port": "milford",
        "capacity": "mate",
        "date_left": "blk",
        "left_port": "blk",
        "cause_of_leaving": "remains on board",
        "sign_with_mark": "n",
        "notes": "blk"
    },
    {
        "id": "vtls004621531_1_12",
        "type": "sailor",
        "parent": "vtls004621531",
        "name": "evan davies",
        "dob": "blk",
        "age": "60",
        "place_of_birth": "newquay",
        "home_address": "blk",
        "f": "blk",
        "name_of_ship": "antelope",
        "ship_port": "aberystwyth",
        "date_leaving": "remained on board",
        "joined_ship_date": "blk",
        "joined_at_port": "blk",
        "capacity": "mate",
        "date_left": "blk",
        "left_port": "blk",
        "cause_of_leaving": "remains on board",
        "sign_with_mark": "n",
        "notes": "blk"
    },
    {
        "id": "vtls004621577_1_11",
        "type": "sailor",
        "parent": "vtls004621577",
        "name": "evan griffiths",
        "dob": "blk",
        "age": "44",
        "place_of_birth": "newquay",
        "home_address": "llwyndafydd, cardiganshire",
        "f": "llwyndafydd, cardiganshire",
        "name_of_ship": "antelope",
        "ship_port": "aberystwyth",
        "date_leaving": "remained on board",
        "joined_ship_date": "1873-07-01",
        "joined_at_port": "milford",
        "capacity": "master",
        "date_left": "blk",
        "left_port": "blk",
        "cause_of_leaving": "remains on board",
        "sign_with_mark": "n",
        "notes": "blk"
    },
    {
        "id": "vtls004621703_1_11",
        "type": "sailor",
        "parent": "vtls004621703",
        "name": "evan griffiths",
        "dob": "blk",
        "age": "45",
        "place_of_birth": "newquay",
        "home_address": "llwyndafydd, co. of cardigan",
        "f": "llwyndafydd, co. of cardigan",
        "name_of_ship": "antelope",
        "ship_port": "aberystwyth",
        "date_leaving": "remained on board",
        "joined_ship_date": "1874-07-01",
        "joined_at_port": "neath",
        "capacity": "master",
        "date_left": "blk",
        "left_port": "blk",
        "cause_of_leaving": "remains on board",
        "sign_with_mark": "n",
        "notes": "blk"
    },
    {
        "id": "vtls004621577_1_12",
        "type": "sailor",
        "parent": "vtls004621577",
        "name": "evan davies",
        "dob": "blk",
        "age": "60",
        "place_of_birth": "newquay",
        "home_address": "blk",
        "f": "blk",
        "name_of_ship": "antelope",
        "ship_port": "aberystwyth",
        "date_leaving": "remained on board",
        "joined_ship_date": "1873-07-01",
        "joined_at_port": "milford",
        "capacity": "mate",
        "date_left": "1873-09-20",
        "left_port": "newport",
        "cause_of_leaving": "discharged",
        "sign_with_mark": "n",
        "notes": "blk"
    },
    {
        "id": "vtls004621703_0_11",
        "type": "sailor",
        "parent": "vtls004621703",
        "name": "evan griffiths",
        "dob": "blk",
        "age": "45",
        "place_of_birth": "cardigan",
        "home_address": "newquay",
        "f": "newquay",
        "name_of_ship": "antelope",
        "ship_port": "aberystwyth",
        "date_leaving": "remained on board",
        "joined_ship_date": "1874-03-14",
        "joined_at_port": "swansea",
        "capacity": "master",
        "date_left": "blk",
        "left_port": "blk",
        "cause_of_leaving": "remains on board",
        "sign_with_mark": "n",
        "notes": "blk"
    },
    {
        "id": "vtls004621703_0_12",
        "type": "sailor",
        "parent": "vtls004621703",
        "name": "david evans",
        "dob": "blk",
        "age": "65",
        "place_of_birth": "cardigan",
        "home_address": "blk",
        "f": "blk",
        "name_of_ship": "antelope",
        "ship_port": "aberystwyth",
        "date_leaving": "remained on board",
        "joined_ship_date": "1874-03-14",
        "joined_at_port": "swansea",
        "capacity": "mate",
        "date_left": "blk",
        "left_port": "blk",
        "cause_of_leaving": "remains on board",
        "sign_with_mark": "n",
        "notes": "blk"
    },
    {
        "id": "vtls004621577_0_11",
        "type": "sailor",
        "parent": "vtls004621577",
        "name": "evan griffiths",
        "dob": "blk",
        "age": "43",
        "place_of_birth": "newquay",
        "home_address": "new quay",
        "f": "new quay",
        "name_of_ship": "antelope",
        "ship_port": "aberystwyth",
        "date_leaving": "remained on board",
        "joined_ship_date": "blk",
        "joined_at_port": "blk",
        "capacity": "master",
        "date_left": "blk",
        "left_port": "blk",
        "cause_of_leaving": "remains on board",
        "sign_with_mark": "n",
        "notes": "blk"
    },
    {
        "id": "vtls004621577_1_13",
        "type": "sailor",
        "parent": "vtls004621577",
        "name": "evan phillips",
        "dob": "blk",
        "age": "13",
        "place_of_birth": "newquay",
        "home_address": "blk",
        "f": "blk",
        "name_of_ship": "atalanta",
        "ship_port": "cardigan",
        "date_leaving": "blk",
        "joined_ship_date": "1873-11-07",
        "joined_at_port": "newquay",
        "capacity": "mate",
        "date_left": "1873-12-05",
        "left_port": "newquay",
        "cause_of_leaving": "discharged",
        "sign_with_mark": "n",
        "notes": "blk"
    },
    {
        "id": "vtls004621577_0_12",
        "type": "sailor",
        "parent": "vtls004621577",
        "name": "evan davies",
        "dob": "blk",
        "age": "60",
        "place_of_birth": "newquay",
        "home_address": "blk",
        "f": "blk",
        "name_of_ship": "antelope",
        "ship_port": "aberystwyth",
        "date_leaving": "remained on board",
        "joined_ship_date": "blk",
        "joined_at_port": "blk",
        "capacity": "mate",
        "date_left": "blk",
        "left_port": "blk",
        "cause_of_leaving": "remains on board",
        "sign_with_mark": "n",
        "notes": "blk"
    },
    {
        "id": "vtls004621577_0_13",
        "type": "sailor",
        "parent": "vtls004621577",
        "name": "evan phillips",
        "dob": "blk",
        "age": "13",
        "place_of_birth": "newquay",
        "home_address": "blk",
        "f": "blk",
        "name_of_ship": "first ship",
        "ship_port": "blk",
        "date_leaving": "blk",
        "joined_ship_date": "1873-01-14",
        "joined_at_port": "newquay",
        "capacity": "boy",
        "date_left": "blk",
        "left_port": "blk",
        "cause_of_leaving": "remains on board",
        "sign_with_mark": "n",
        "notes": "blk"
    },
    {
        "id": "vtls004621715_1_11",
        "type": "sailor",
        "parent": "vtls004621715",
        "name": "benjamin davies",
        "dob": "blk",
        "age": "46",
        "place_of_birth": "newquay",
        "home_address": "new quay, cardiganshire",
        "f": "new quay, cardiganshire",
        "name_of_ship": "antelope",
        "ship_port": "aberystwyth",
        "date_leaving": "1878",
        "joined_ship_date": "1878-07-01",
        "joined_at_port": "listep",
        "capacity": "master",
        "date_left": "1878-10-31",
        "left_port": "newquay",
        "cause_of_leaving": "discharged",
        "sign_with_mark": "n",
        "notes": "blk"
    },
    {
        "id": "vtls004621715_0_11",
        "type": "sailor",
        "parent": "vtls004621715",
        "name": "enoch thomas",
        "dob": "blk",
        "age": "57",
        "place_of_birth": "newquay",
        "home_address": "high terrace, new quay",
        "f": "high terrace, new quay",
        "name_of_ship": "antelope",
        "ship_port": "aberystwyth",
        "date_leaving": "1877",
        "joined_ship_date": "1878-01-01",
        "joined_at_port": "newquay",
        "capacity": "master",
        "date_left": "blk",
        "left_port": "blk",
        "cause_of_leaving": "remains on board",
        "sign_with_mark": "n",
        "notes": "blk"
    },
    {
        "id": "vtls004621703_1_12",
        "type": "sailor",
        "parent": "vtls004621703",
        "name": "david evans",
        "dob": "blk",
        "age": "67",
        "place_of_birth": "newquay",
        "home_address": "blk",
        "f": "blk",
        "name_of_ship": "antelope",
        "ship_port": "aberystwyth",
        "date_leaving": "remained on board",
        "joined_ship_date": "1874-07-01",
        "joined_at_port": "neath",
        "capacity": "able seaman",
        "date_left": "1874-10-30",
        "left_port": "newquay",
        "cause_of_leaving": "discharged",
        "sign_with_mark": "n",
        "notes": "blk"
    },
    {
        "id": "vtls004621703_1_13",
        "type": "sailor",
        "parent": "vtls004621703",
        "name": "evan davies",
        "dob": "blk",
        "age": "59",
        "place_of_birth": "newquay",
        "home_address": "blk",
        "f": "blk",
        "name_of_ship": "george evans",
        "ship_port": "aberystwyth",
        "date_leaving": "1873",
        "joined_ship_date": "1874-10-31",
        "joined_at_port": "newquay",
        "capacity": "able seaman",
        "date_left": "blk",
        "left_port": "blk",
        "cause_of_leaving": "remains on board",
        "sign_with_mark": "n",
        "notes": "blk"
    },
    {
        "id": "vtls004621715_0_12",
        "type": "sailor",
        "parent": "vtls004621715",
        "name": "benjamin davies",
        "dob": "blk",
        "age": "37",
        "place_of_birth": "newquay",
        "home_address": "blk",
        "f": "blk",
        "name_of_ship": "antelope",
        "ship_port": "aberystwyth",
        "date_leaving": "1877",
        "joined_ship_date": "1878-01-01",
        "joined_at_port": "newquay",
        "capacity": "mate",
        "date_left": "blk",
        "left_port": "blk",
        "cause_of_leaving": "remains on board",
        "sign_with_mark": "n",
        "notes": "blk"
    },
    {
        "id": "vtls004621715_0_14",
        "type": "sailor",
        "parent": "vtls004621715",
        "name": "david james davies",
        "dob": "blk",
        "age": "14",
        "place_of_birth": "newquay",
        "home_address": "blk",
        "f": "blk",
        "name_of_ship": "first ship",
        "ship_port": "blk",
        "date_leaving": "blk",
        "joined_ship_date": "1878-06-19",
        "joined_at_port": "newquay",
        "capacity": "boy",
        "date_left": "blk",
        "left_port": "blk",
        "cause_of_leaving": "remains on board",
        "sign_with_mark": "n",
        "notes": "blk"
    },
    {
        "id": "vtls004621715_0_13",
        "type": "sailor",
        "parent": "vtls004621715",
        "name": "william evans",
        "dob": "blk",
        "age": "14",
        "place_of_birth": "newquay",
        "home_address": "blk",
        "f": "blk",
        "name_of_ship": "first ship",
        "ship_port": "blk",
        "date_leaving": "blk",
        "joined_ship_date": "1878-01-01",
        "joined_at_port": "newquay",
        "capacity": "boy",
        "date_left": "1878-06-19",
        "left_port": "newquay",
        "cause_of_leaving": "discharged",
        "sign_with_mark": "n",
        "notes": "blk"
    },
    {
        "id": "vtls004621715_1_13",
        "type": "sailor",
        "parent": "vtls004621715",
        "name": "david jones",
        "dob": "blk",
        "age": "14",
        "place_of_birth": "newquay",
        "home_address": "blk",
        "f": "blk",
        "name_of_ship": "antelope",
        "ship_port": "aberystwyth",
        "date_leaving": "1878",
        "joined_ship_date": "1878-07-01",
        "joined_at_port": "listep",
        "capacity": "boy",
        "date_left": "1878-10-31",
        "left_port": "newquay",
        "cause_of_leaving": "discharged",
        "sign_with_mark": "n",
        "notes": "note 1 - place of joining this vessel is given as listep (place not found), but this could be lydstep"
    },
    {
        "id": "vtls004621812_1_11",
        "type": "sailor",
        "parent": "vtls004621812",
        "name": "enoch thomas",
        "dob": "blk",
        "age": "58",
        "place_of_birth": "newquay",
        "home_address": "high terrace, new quay",
        "f": "high terrace, new quay",
        "name_of_ship": "antelope",
        "ship_port": "aberystwyth",
        "date_leaving": "remained on board",
        "joined_ship_date": "1879-07-01",
        "joined_at_port": "newquay",
        "capacity": "master",
        "date_left": "blk",
        "left_port": "blk",
        "cause_of_leaving": "remains on board",
        "sign_with_mark": "n",
        "notes": "blk"
    },
    {
        "id": "vtls004621812_0_11",
        "type": "sailor",
        "parent": "vtls004621812",
        "name": "enoch thomas",
        "dob": "blk",
        "age": "58",
        "place_of_birth": "newquay",
        "home_address": "high terrace, new quay",
        "f": "high terrace, new quay",
        "name_of_ship": "antelope",
        "ship_port": "aberystwyth",
        "date_leaving": "1878",
        "joined_ship_date": "1879-01-01",
        "joined_at_port": "newquay",
        "capacity": "master",
        "date_left": "blk",
        "left_port": "blk",
        "cause_of_leaving": "remains on board",
        "sign_with_mark": "n",
        "notes": "blk"
    },
    {
        "id": "vtls004621715_1_12",
        "type": "sailor",
        "parent": "vtls004621715",
        "name": "john jones",
        "dob": "blk",
        "age": "55",
        "place_of_birth": "newquay",
        "home_address": "blk",
        "f": "blk",
        "name_of_ship": "hetty mary",
        "ship_port": "aberystwyth",
        "date_leaving": "1878",
        "joined_ship_date": "1878-07-02",
        "joined_at_port": "newquay",
        "capacity": "mate",
        "date_left": "1878-10-31",
        "left_port": "newquay",
        "cause_of_leaving": "discharged",
        "sign_with_mark": "n",
        "notes": "blk"
    },
    {
        "id": "vtls004621812_1_12",
        "type": "sailor",
        "parent": "vtls004621812",
        "name": "david d davies",
        "dob": "blk",
        "age": "56",
        "place_of_birth": "newquay",
        "home_address": "blk",
        "f": "blk",
        "name_of_ship": "antelope",
        "ship_port": "aberystwyth",
        "date_leaving": "1879",
        "joined_ship_date": "1879-07-01",
        "joined_at_port": "newquay",
        "capacity": "mate",
        "date_left": "1879-12-31",
        "left_port": "newquay",
        "cause_of_leaving": "discharged",
        "sign_with_mark": "n",
        "notes": "blk"
    },
    {
        "id": "vtls004621812_0_12",
        "type": "sailor",
        "parent": "vtls004621812",
        "name": "thomas evans",
        "dob": "blk",
        "age": "54",
        "place_of_birth": "newquay",
        "home_address": "blk",
        "f": "blk",
        "name_of_ship": "not known",
        "ship_port": "blk",
        "date_leaving": "1878",
        "joined_ship_date": "1879-01-01",
        "joined_at_port": "newquay",
        "capacity": "mate",
        "date_left": "blk",
        "left_port": "blk",
        "cause_of_leaving": "remains on board",
        "sign_with_mark": "n",
        "notes": "blk"
    },
    {
        "id": "vtls004621812_0_13",
        "type": "sailor",
        "parent": "vtls004621812",
        "name": "thomas jones",
        "dob": "blk",
        "age": "14",
        "place_of_birth": "newquay",
        "home_address": "blk",
        "f": "blk",
        "name_of_ship": "first ship",
        "ship_port": "blk",
        "date_leaving": "blk",
        "joined_ship_date": "1879-01-01",
        "joined_at_port": "newquay",
        "capacity": "boy",
        "date_left": "blk",
        "left_port": "blk",
        "cause_of_leaving": "remains on board",
        "sign_with_mark": "n",
        "notes": "blk"
    }
]