[
    {
        "id": "vtls004690361_0_15",
        "type": "sailor",
        "parent": "vtls004690361",
        "name": "theophilus rees",
        "dob": "blk",
        "age": "31",
        "place_of_birth": "borth, cardigan",
        "home_address": "blk",
        "f": "blk",
        "name_of_ship": "jane rowland",
        "ship_port": "aberystwyth",
        "date_leaving": "remaining",
        "joined_ship_date": "1868-04-14",
        "joined_at_port": "cardiff",
        "capacity": "cook & steward",
        "date_left": "1869-04-17",
        "left_port": "amsterdam",
        "cause_of_leaving": "discharged voyage having ended",
        "sign_with_mark": "n",
        "notes": "blk"
    },
    {
        "id": "vtls004690361_0_16",
        "type": "sailor",
        "parent": "vtls004690361",
        "name": "hugh hughes",
        "dob": "blk",
        "age": "22",
        "place_of_birth": "borth, cardigan",
        "home_address": "blk",
        "f": "blk",
        "name_of_ship": "jane rowland",
        "ship_port": "aberystwyth",
        "date_leaving": "remaining",
        "joined_ship_date": "1868-04-14",
        "joined_at_port": "cardiff",
        "capacity": "able seaman",
        "date_left": "1869-04-24",
        "left_port": "amsterdam",
        "cause_of_leaving": "discharged voyage having ended",
        "sign_with_mark": "n",
        "notes": "blk"
    },
    {
        "id": "vtls004690361_0_13",
        "type": "sailor",
        "parent": "vtls004690361",
        "name": "david hughes",
        "dob": "blk",
        "age": "23",
        "place_of_birth": "borth, cardigan",
        "home_address": "blk",
        "f": "blk",
        "name_of_ship": "jane rowland",
        "ship_port": "aberystwyth",
        "date_leaving": "remaining",
        "joined_ship_date": "1868-04-14",
        "joined_at_port": "cardiff",
        "capacity": "boatswain",
        "date_left": "1869-04-24",
        "left_port": "amsterdam",
        "cause_of_leaving": "discharged voyage having ended",
        "sign_with_mark": "n",
        "notes": "blk"
    },
    {
        "id": "vtls004690361_0_14",
        "type": "sailor",
        "parent": "vtls004690361",
        "name": "thomas griffiths",
        "dob": "blk",
        "age": "26",
        "place_of_birth": "aberystwyth",
        "home_address": "blk",
        "f": "blk",
        "name_of_ship": "jane rowland",
        "ship_port": "aberystwyth",
        "date_leaving": "remaining",
        "joined_ship_date": "1868-04-14",
        "joined_at_port": "cardiff",
        "capacity": "carpenter",
        "date_left": "1869-04-24",
        "left_port": "amsterdam",
        "cause_of_leaving": "discharged voyage having ended",
        "sign_with_mark": "n",
        "notes": "blk"
    },
    {
        "id": "vtls004690361_0_12",
        "type": "sailor",
        "parent": "vtls004690361",
        "name": "john jenkins",
        "dob": "blk",
        "age": "27",
        "place_of_birth": "borth, cardigan",
        "home_address": "blk",
        "f": "blk",
        "name_of_ship": "jane rowland",
        "ship_port": "aberystwyth",
        "date_leaving": "remaining",
        "joined_ship_date": "1868-04-14",
        "joined_at_port": "cardiff",
        "capacity": "mate",
        "date_left": "1869-05-03",
        "left_port": "amsterdam",
        "cause_of_leaving": "discharged voyage having ended",
        "sign_with_mark": "n",
        "notes": "blk"
    },
    {
        "id": "vtls004690361_0_11",
        "type": "sailor",
        "parent": "vtls004690361",
        "name": "richard hughes",
        "dob": "blk",
        "age": "26",
        "place_of_birth": "borth, cardigan",
        "home_address": "blk",
        "f": "blk",
        "name_of_ship": "jane rowland",
        "ship_port": "aberystwyth",
        "date_leaving": "remaining",
        "joined_ship_date": "1868-04-14",
        "joined_at_port": "cardiff",
        "capacity": "master",
        "date_left": "blk",
        "left_port": "blk",
        "cause_of_leaving": "blk",
        "sign_with_mark": "n",
        "notes": "blk"
    },
    {
        "id": "vtls004690361_0_20",
        "type": "sailor",
        "parent": "vtls004690361",
        "name": "thomas james alford",
        "dob": "blk",
        "age": "23",
        "place_of_birth": "bayswater",
        "home_address": "blk",
        "f": "blk",
        "name_of_ship": "sterling",
        "ship_port": "brixham",
        "date_leaving": "1868-03-10",
        "joined_ship_date": "1868-04-15",
        "joined_at_port": "cardiff",
        "capacity": "able seaman",
        "date_left": "1869-04-17",
        "left_port": "amsterdam",
        "cause_of_leaving": "discharged voyage having ended",
        "sign_with_mark": "n",
        "notes": "on a continuation sheet"
    },
    {
        "id": "vtls004690361_0_17",
        "type": "sailor",
        "parent": "vtls004690361",
        "name": "henry hughes",
        "dob": "blk",
        "age": "18",
        "place_of_birth": "borth, cardigan",
        "home_address": "blk",
        "f": "blk",
        "name_of_ship": "jane rowland",
        "ship_port": "aberystwyth",
        "date_leaving": "remaining",
        "joined_ship_date": "1868-04-14",
        "joined_at_port": "cardiff",
        "capacity": "ordinary seaman",
        "date_left": "1869-04-24",
        "left_port": "amsterdam",
        "cause_of_leaving": "discharged voyage having ended",
        "sign_with_mark": "n",
        "notes": "blk"
    },
    {
        "id": "vtls004690361_0_18",
        "type": "sailor",
        "parent": "vtls004690361",
        "name": "charles corbett",
        "dob": "blk",
        "age": "16",
        "place_of_birth": "blk",
        "home_address": "blk",
        "f": "blk",
        "name_of_ship": "blk",
        "ship_port": "blk",
        "date_leaving": "blk",
        "joined_ship_date": "blk",
        "joined_at_port": "blk",
        "capacity": "apprentice",
        "date_left": "1869-05-03",
        "left_port": "amsterdam",
        "cause_of_leaving": "transferred to home trade agreement",
        "sign_with_mark": "n",
        "notes": "registry of indenture - date of 1869-03-06 - port of aberystwyth"
    },
    {
        "id": "vtls004690361_0_21",
        "type": "sailor",
        "parent": "vtls004690361",
        "name": "john thomas",
        "dob": "blk",
        "age": "23",
        "place_of_birth": "wakefield",
        "home_address": "blk",
        "f": "blk",
        "name_of_ship": "alexandra",
        "ship_port": "blk",
        "date_leaving": "1868-04-07",
        "joined_ship_date": "1868-04-15",
        "joined_at_port": "cardiff",
        "capacity": "able seaman",
        "date_left": "1869-04-17",
        "left_port": "amsterdam",
        "cause_of_leaving": "discharged voyage having ended",
        "sign_with_mark": "y",
        "notes": "on a continuation sheet"
    },
    {
        "id": "vtls004690361_0_19",
        "type": "sailor",
        "parent": "vtls004690361",
        "name": "john hughes",
        "dob": "blk",
        "age": "17",
        "place_of_birth": "blk",
        "home_address": "blk",
        "f": "blk",
        "name_of_ship": "blk",
        "ship_port": "blk",
        "date_leaving": "blk",
        "joined_ship_date": "blk",
        "joined_at_port": "blk",
        "capacity": "apprentice",
        "date_left": "1869-05-03",
        "left_port": "amsterdam",
        "cause_of_leaving": "transferred to home trade agreement",
        "sign_with_mark": "n",
        "notes": "registry of indenture - date of 1869-03-06 - port of aberystwyth"
    },
    {
        "id": "vtls004690361_1_12",
        "type": "sailor",
        "parent": "vtls004690361",
        "name": "david hughes",
        "dob": "blk",
        "age": "24",
        "place_of_birth": "borth",
        "home_address": "blk",
        "f": "blk",
        "name_of_ship": "jane rowland",
        "ship_port": "aberystwyth",
        "date_leaving": "1869-04-24",
        "joined_ship_date": "1869-04-24",
        "joined_at_port": "amsterdam",
        "capacity": "boatswain",
        "date_left": "1869-05-18",
        "left_port": "newport",
        "cause_of_leaving": "blk",
        "sign_with_mark": "n",
        "notes": "blk"
    },
    {
        "id": "vtls004690361_1_13",
        "type": "sailor",
        "parent": "vtls004690361",
        "name": "thomas griffiths",
        "dob": "blk",
        "age": "27",
        "place_of_birth": "aberystwyth",
        "home_address": "blk",
        "f": "blk",
        "name_of_ship": "jane rowland",
        "ship_port": "aberystwyth",
        "date_leaving": "1869-04-24",
        "joined_ship_date": "1869-04-24",
        "joined_at_port": "amsterdam",
        "capacity": "carpenter",
        "date_left": "1869-05-18",
        "left_port": "newport",
        "cause_of_leaving": "blk",
        "sign_with_mark": "n",
        "notes": "blk"
    },
    {
        "id": "vtls004690361_1_11",
        "type": "sailor",
        "parent": "vtls004690361",
        "name": "richard hughes",
        "dob": "blk",
        "age": "27",
        "place_of_birth": "borth",
        "home_address": "blk",
        "f": "blk",
        "name_of_ship": "jane rowland",
        "ship_port": "aberystwyth",
        "date_leaving": "blk",
        "joined_ship_date": "blk",
        "joined_at_port": "blk",
        "capacity": "master",
        "date_left": "blk",
        "left_port": "blk",
        "cause_of_leaving": "blk",
        "sign_with_mark": "n",
        "notes": "blk"
    },
    {
        "id": "vtls004690361_1_15",
        "type": "sailor",
        "parent": "vtls004690361",
        "name": "henry hughes",
        "dob": "blk",
        "age": "19",
        "place_of_birth": "borth",
        "home_address": "blk",
        "f": "blk",
        "name_of_ship": "jane rowland",
        "ship_port": "aberystwyth",
        "date_leaving": "1869-04-24",
        "joined_ship_date": "1869-04-24",
        "joined_at_port": "amsterdam",
        "capacity": "ordinary seaman",
        "date_left": "1869-05-18",
        "left_port": "newport",
        "cause_of_leaving": "blk",
        "sign_with_mark": "n",
        "notes": "blk"
    },
    {
        "id": "vtls004690361_1_14",
        "type": "sailor",
        "parent": "vtls004690361",
        "name": "hugh hughes",
        "dob": "blk",
        "age": "23",
        "place_of_birth": "borth",
        "home_address": "blk",
        "f": "blk",
        "name_of_ship": "jane rowland",
        "ship_port": "aberystwyth",
        "date_leaving": "1869-04-24",
        "joined_ship_date": "1869-04-24",
        "joined_at_port": "amsterdam",
        "capacity": "able seaman",
        "date_left": "1869-05-18",
        "left_port": "newport",
        "cause_of_leaving": "blk",
        "sign_with_mark": "n",
        "notes": "blk"
    },
    {
        "id": "vtls004690361_1_16",
        "type": "sailor",
        "parent": "vtls004690361",
        "name": "john jenkins",
        "dob": "blk",
        "age": "28",
        "place_of_birth": "borth",
        "home_address": "blk",
        "f": "blk",
        "name_of_ship": "jane rowland",
        "ship_port": "aberystwyth",
        "date_leaving": "1869-05-03",
        "joined_ship_date": "1869-05-03",
        "joined_at_port": "amsterdam",
        "capacity": "mate",
        "date_left": "1869-05-18",
        "left_port": "newport",
        "cause_of_leaving": "blk",
        "sign_with_mark": "n",
        "notes": "blk"
    },
    {
        "id": "vtls004690361_1_19",
        "type": "sailor",
        "parent": "vtls004690361",
        "name": "chales corbett",
        "dob": "blk",
        "age": "18",
        "place_of_birth": "aberystwyth",
        "home_address": "blk",
        "f": "blk",
        "name_of_ship": "blk",
        "ship_port": "blk",
        "date_leaving": "blk",
        "joined_ship_date": "blk",
        "joined_at_port": "blk",
        "capacity": "apprentice",
        "date_left": "blk",
        "left_port": "blk",
        "cause_of_leaving": "blk",
        "sign_with_mark": "n",
        "notes": "registry of indenture - date of 1869-03-06 - port of aberystwyth"
    },
    {
        "id": "vtls004690361_1_18",
        "type": "sailor",
        "parent": "vtls004690361",
        "name": "h w lesyo",
        "dob": "blk",
        "age": "42",
        "place_of_birth": "amsterdam",
        "home_address": "blk",
        "f": "blk",
        "name_of_ship": "parana",
        "ship_port": "liverpool",
        "date_leaving": "1869-03-25",
        "joined_ship_date": "1869-05-07",
        "joined_at_port": "amsterdam",
        "capacity": "able seaman",
        "date_left": "1869-05-18",
        "left_port": "newport",
        "cause_of_leaving": "blk",
        "sign_with_mark": "n",
        "notes": "blk"
    },
    {
        "id": "vtls004690361_1_20",
        "type": "sailor",
        "parent": "vtls004690361",
        "name": "john hughes",
        "dob": "blk",
        "age": "18",
        "place_of_birth": "aberystwyth",
        "home_address": "blk",
        "f": "blk",
        "name_of_ship": "blk",
        "ship_port": "blk",
        "date_leaving": "blk",
        "joined_ship_date": "blk",
        "joined_at_port": "blk",
        "capacity": "apprentice",
        "date_left": "blk",
        "left_port": "blk",
        "cause_of_leaving": "blk",
        "sign_with_mark": "n",
        "notes": "registry of indenture - date of 1869-03-06 - port of aberystwyth"
    },
    {
        "id": "vtls004690361_1_17",
        "type": "sailor",
        "parent": "vtls004690361",
        "name": "t bamberg",
        "dob": "blk",
        "age": "37",
        "place_of_birth": "amsterdam",
        "home_address": "blk",
        "f": "blk",
        "name_of_ship": "parana",
        "ship_port": "liverpool",
        "date_leaving": "1869-03-25",
        "joined_ship_date": "1869-05-07",
        "joined_at_port": "amsterdam",
        "capacity": "able seaman",
        "date_left": "1869-05-18",
        "left_port": "newport",
        "cause_of_leaving": "blk",
        "sign_with_mark": "n",
        "notes": "blk"
    },
    {
        "id": "vtls004690368_0_11",
        "type": "sailor",
        "parent": "vtls004690368",
        "name": "richard hughes",
        "dob": "blk",
        "age": "23",
        "place_of_birth": "borth",
        "home_address": "blk",
        "f": "blk",
        "name_of_ship": "jane rowland",
        "ship_port": "aberystwyth",
        "date_leaving": "remains",
        "joined_ship_date": "blk",
        "joined_at_port": "blk",
        "capacity": "master",
        "date_left": "1870-05-16",
        "left_port": "blk",
        "cause_of_leaving": "remains on board",
        "sign_with_mark": "n",
        "notes": "blk"
    },
    {
        "id": "vtls004690368_0_12",
        "type": "sailor",
        "parent": "vtls004690368",
        "name": "william thomas",
        "dob": "blk",
        "age": "27",
        "place_of_birth": "borth",
        "home_address": "blk",
        "f": "blk",
        "name_of_ship": "$",
        "ship_port": "aberystwyth",
        "date_leaving": "1869-04-23",
        "joined_ship_date": "1869-06-15",
        "joined_at_port": "newport",
        "capacity": "mate",
        "date_left": "1870-05-16",
        "left_port": "london",
        "cause_of_leaving": "discharged",
        "sign_with_mark": "n",
        "notes": "blk"
    },
    {
        "id": "vtls004690368_0_18",
        "type": "sailor",
        "parent": "vtls004690368",
        "name": "john griffith",
        "dob": "blk",
        "age": "21",
        "place_of_birth": "aberystwyth",
        "home_address": "blk",
        "f": "blk",
        "name_of_ship": "two brothers",
        "ship_port": "aberystwyth",
        "date_leaving": "1869-06-13",
        "joined_ship_date": "1869-06-15",
        "joined_at_port": "newport",
        "capacity": "ordinary seaman",
        "date_left": "1870-05-16",
        "left_port": "london",
        "cause_of_leaving": "discharged",
        "sign_with_mark": "y",
        "notes": "blk"
    },
    {
        "id": "vtls004690368_0_13",
        "type": "sailor",
        "parent": "vtls004690368",
        "name": "griffith lewis",
        "dob": "blk",
        "age": "23",
        "place_of_birth": "newcastle emlyn",
        "home_address": "blk",
        "f": "blk",
        "name_of_ship": "alert",
        "ship_port": "aberystwyth",
        "date_leaving": "1869-05-20",
        "joined_ship_date": "1869-06-15",
        "joined_at_port": "newport",
        "capacity": "boatswain",
        "date_left": "1870-05-16",
        "left_port": "london",
        "cause_of_leaving": "discharged",
        "sign_with_mark": "n",
        "notes": "blk"
    },
    {
        "id": "vtls004690368_0_20",
        "type": "sailor",
        "parent": "vtls004690368",
        "name": "reinher j kirst",
        "dob": "blk",
        "age": "27",
        "place_of_birth": "holland",
        "home_address": "blk",
        "f": "blk",
        "name_of_ship": "glen rose",
        "ship_port": "london",
        "date_leaving": "1869-06-04",
        "joined_ship_date": "189-06-17",
        "joined_at_port": "newport",
        "capacity": "able seaman",
        "date_left": "1870-05-16",
        "left_port": "london",
        "cause_of_leaving": "discharged",
        "sign_with_mark": "n",
        "notes": "blk"
    },
    {
        "id": "vtls004690368_0_14",
        "type": "sailor",
        "parent": "vtls004690368",
        "name": "james newman",
        "dob": "blk",
        "age": "20",
        "place_of_birth": "yarmouth",
        "home_address": "blk",
        "f": "blk",
        "name_of_ship": "arrival",
        "ship_port": "dartmouth",
        "date_leaving": "1869-06-09",
        "joined_ship_date": "189-06-15",
        "joined_at_port": "newport",
        "capacity": "cook & steward",
        "date_left": "1870-05-16",
        "left_port": "london",
        "cause_of_leaving": "discharged",
        "sign_with_mark": "n",
        "notes": "blk"
    },
    {
        "id": "vtls004690368_0_17",
        "type": "sailor",
        "parent": "vtls004690368",
        "name": "john roberts",
        "dob": "blk",
        "age": "22",
        "place_of_birth": "amlwch",
        "home_address": "blk",
        "f": "blk",
        "name_of_ship": "mary williams",
        "ship_port": "barrow",
        "date_leaving": "1869-06-01",
        "joined_ship_date": "189-06-16",
        "joined_at_port": "newport",
        "capacity": "able seaman",
        "date_left": "1870-05-16",
        "left_port": "london",
        "cause_of_leaving": "discharged",
        "sign_with_mark": "n",
        "notes": "blk"
    },
    {
        "id": "vtls004690368_0_16",
        "type": "sailor",
        "parent": "vtls004690368",
        "name": "hugh hughes",
        "dob": "blk",
        "age": "23",
        "place_of_birth": "borth",
        "home_address": "blk",
        "f": "blk",
        "name_of_ship": "jane rowland",
        "ship_port": "aberystwyth",
        "date_leaving": "blk",
        "joined_ship_date": "1869-06-15",
        "joined_at_port": "newport",
        "capacity": "able seaman",
        "date_left": "1870-05-16",
        "left_port": "london",
        "cause_of_leaving": "discharged",
        "sign_with_mark": "n",
        "notes": "blk"
    },
    {
        "id": "vtls004690368_0_19",
        "type": "sailor",
        "parent": "vtls004690368",
        "name": "richard hughes",
        "dob": "blk",
        "age": "19",
        "place_of_birth": "borth",
        "home_address": "blk",
        "f": "blk",
        "name_of_ship": "first ship",
        "ship_port": "blk",
        "date_leaving": "blk",
        "joined_ship_date": "1869-06-15",
        "joined_at_port": "newport",
        "capacity": "ordinary seaman",
        "date_left": "1870-05-16",
        "left_port": "london",
        "cause_of_leaving": "discharged",
        "sign_with_mark": "n",
        "notes": "blk"
    },
    {
        "id": "vtls004690368_0_15",
        "type": "sailor",
        "parent": "vtls004690368",
        "name": "john francis",
        "dob": "blk",
        "age": "24",
        "place_of_birth": "fishguard",
        "home_address": "blk",
        "f": "blk",
        "name_of_ship": "avon",
        "ship_port": "london",
        "date_leaving": "1869-04-19",
        "joined_ship_date": "1869-06-15",
        "joined_at_port": "newport",
        "capacity": "carpenter",
        "date_left": "1870-05-16",
        "left_port": "london",
        "cause_of_leaving": "discharged",
        "sign_with_mark": "n",
        "notes": "blk"
    },
    {
        "id": "vtls004690488_0_13",
        "type": "sailor",
        "parent": "vtls004690488",
        "name": "j a richards",
        "dob": "blk",
        "age": "26",
        "place_of_birth": "aberystwyth",
        "home_address": "blk",
        "f": "blk",
        "name_of_ship": "[hercules]",
        "ship_port": "[boston ns]",
        "date_leaving": "1870",
        "joined_ship_date": "1870-07-28",
        "joined_at_port": "london",
        "capacity": "boatswain",
        "date_left": "1871-01-07",
        "left_port": "rangoon",
        "cause_of_leaving": "mutual consent",
        "sign_with_mark": "y",
        "notes": "blk"
    },
    {
        "id": "vtls004690488_0_14",
        "type": "sailor",
        "parent": "vtls004690488",
        "name": "john francis",
        "dob": "blk",
        "age": "26",
        "place_of_birth": "fishguard",
        "home_address": "blk",
        "f": "blk",
        "name_of_ship": "jane rowland",
        "ship_port": "aberystwyth",
        "date_leaving": "1870",
        "joined_ship_date": "1870-07-28",
        "joined_at_port": "london",
        "capacity": "carpenter",
        "date_left": "1871-07-21",
        "left_port": "middlesbrough",
        "cause_of_leaving": "discharged",
        "sign_with_mark": "n",
        "notes": "blk"
    },
    {
        "id": "vtls004690488_0_11",
        "type": "sailor",
        "parent": "vtls004690488",
        "name": "richard hughes",
        "dob": "blk",
        "age": "30",
        "place_of_birth": "borth",
        "home_address": "blk",
        "f": "blk",
        "name_of_ship": "jane rowland",
        "ship_port": "aberystwyth",
        "date_leaving": "blk",
        "joined_ship_date": "continued",
        "joined_at_port": "london",
        "capacity": "master",
        "date_left": "1871-07-21",
        "left_port": "middlesbrough",
        "cause_of_leaving": "discharged",
        "sign_with_mark": "n",
        "notes": "blk"
    },
    {
        "id": "vtls004690368_0_21",
        "type": "sailor",
        "parent": "vtls004690368",
        "name": "john hughes",
        "dob": "blk",
        "age": "17",
        "place_of_birth": "blk",
        "home_address": "blk",
        "f": "blk",
        "name_of_ship": "blk",
        "ship_port": "blk",
        "date_leaving": "blk",
        "joined_ship_date": "1869-06-15",
        "joined_at_port": "newport",
        "capacity": "apprentice",
        "date_left": "blk",
        "left_port": "blk",
        "cause_of_leaving": "blk",
        "sign_with_mark": "n",
        "notes": "registry of indenture - date of 1868-05-06 - port of aberystwyth"
    },
    {
        "id": "vtls004690488_0_12",
        "type": "sailor",
        "parent": "vtls004690488",
        "name": "william thomas",
        "dob": "blk",
        "age": "24",
        "place_of_birth": "borth",
        "home_address": "blk",
        "f": "blk",
        "name_of_ship": "jane rowland",
        "ship_port": "aberystwyth",
        "date_leaving": "1870",
        "joined_ship_date": "1870-07-28",
        "joined_at_port": "london",
        "capacity": "mate",
        "date_left": "1871-07-21",
        "left_port": "middlesbrough",
        "cause_of_leaving": "discharged",
        "sign_with_mark": "n",
        "notes": "blk"
    },
    {
        "id": "vtls004690488_0_17",
        "type": "sailor",
        "parent": "vtls004690488",
        "name": "james weller",
        "dob": "blk",
        "age": "21",
        "place_of_birth": "winchelsea",
        "home_address": "blk",
        "f": "blk",
        "name_of_ship": "tyne",
        "ship_port": "[glasgow]",
        "date_leaving": "1870",
        "joined_ship_date": "1870-07-28",
        "joined_at_port": "london",
        "capacity": "able seaman",
        "date_left": "1871-06-05",
        "left_port": "holland",
        "cause_of_leaving": "discharged",
        "sign_with_mark": "n",
        "notes": "blk"
    },
    {
        "id": "vtls004690488_0_15",
        "type": "sailor",
        "parent": "vtls004690488",
        "name": "richard booker",
        "dob": "blk",
        "age": "20",
        "place_of_birth": "london",
        "home_address": "blk",
        "f": "blk",
        "name_of_ship": "sydney hall",
        "ship_port": "london",
        "date_leaving": "1870",
        "joined_ship_date": "1870-07-28",
        "joined_at_port": "london",
        "capacity": "cook & steward",
        "date_left": "blk",
        "left_port": "rangoon",
        "cause_of_leaving": "mutual consent",
        "sign_with_mark": "n",
        "notes": "blk"
    },
    {
        "id": "vtls004690488_0_16",
        "type": "sailor",
        "parent": "vtls004690488",
        "name": "john w riley",
        "dob": "blk",
        "age": "20",
        "place_of_birth": "london",
        "home_address": "blk",
        "f": "blk",
        "name_of_ship": "neville",
        "ship_port": "london",
        "date_leaving": "1870",
        "joined_ship_date": "1870-07-28",
        "joined_at_port": "london",
        "capacity": "able seaman",
        "date_left": "1871-06-14",
        "left_port": "queenstown",
        "cause_of_leaving": "discharged",
        "sign_with_mark": "y",
        "notes": "blk"
    },
    {
        "id": "vtls004690488_0_18",
        "type": "sailor",
        "parent": "vtls004690488",
        "name": "william manning",
        "dob": "blk",
        "age": "26",
        "place_of_birth": "hull",
        "home_address": "blk",
        "f": "blk",
        "name_of_ship": "cwmmell",
        "ship_port": "london",
        "date_leaving": "1870",
        "joined_ship_date": "1870-07-28",
        "joined_at_port": "london",
        "capacity": "able seaman",
        "date_left": "blk",
        "left_port": "blk",
        "cause_of_leaving": "never joined",
        "sign_with_mark": "y",
        "notes": "blk"
    },
    {
        "id": "vtls004690488_0_24",
        "type": "sailor",
        "parent": "vtls004690488",
        "name": "john hughes",
        "dob": "blk",
        "age": "19",
        "place_of_birth": "blk",
        "home_address": "blk",
        "f": "blk",
        "name_of_ship": "blk",
        "ship_port": "blk",
        "date_leaving": "blk",
        "joined_ship_date": "blk",
        "joined_at_port": "blk",
        "capacity": "apprentice",
        "date_left": "1871-06-21",
        "left_port": "middlesbrough",
        "cause_of_leaving": "discharged",
        "sign_with_mark": "n",
        "notes": "registry of indenture - date of 1868-03-06 - port of aberystwyth"
    },
    {
        "id": "vtls004690488_0_19",
        "type": "sailor",
        "parent": "vtls004690488",
        "name": "james francis",
        "dob": "blk",
        "age": "18",
        "place_of_birth": "fishguard",
        "home_address": "blk",
        "f": "blk",
        "name_of_ship": "john & grace",
        "ship_port": "fishguard",
        "date_leaving": "1870",
        "joined_ship_date": "1870-07-28",
        "joined_at_port": "london",
        "capacity": "ordinary seaman",
        "date_left": "1871-07-21",
        "left_port": "middlesbrough",
        "cause_of_leaving": "discharged",
        "sign_with_mark": "y",
        "notes": "blk"
    },
    {
        "id": "vtls004690488_0_23",
        "type": "sailor",
        "parent": "vtls004690488",
        "name": "henry taylor",
        "dob": "blk",
        "age": "24",
        "place_of_birth": "london",
        "home_address": "blk",
        "f": "blk",
        "name_of_ship": "montego",
        "ship_port": "blk",
        "date_leaving": "1870",
        "joined_ship_date": "1871-01-31",
        "joined_at_port": "rangoon",
        "capacity": "able seaman",
        "date_left": "1871-06-14",
        "left_port": "queenstown",
        "cause_of_leaving": "discharged",
        "sign_with_mark": "n",
        "notes": "blk"
    },
    {
        "id": "vtls004690498_0_11",
        "type": "sailor",
        "parent": "vtls004690498",
        "name": "richard hughes",
        "dob": "blk",
        "age": "29",
        "place_of_birth": "aberystwyth",
        "home_address": "blk",
        "f": "blk",
        "name_of_ship": "jane rowland",
        "ship_port": "aberystwyth",
        "date_leaving": "1871",
        "joined_ship_date": "1871-10-14",
        "joined_at_port": "middlesbrough",
        "capacity": "master",
        "date_left": "blk",
        "left_port": "blk",
        "cause_of_leaving": "blk",
        "sign_with_mark": "n",
        "notes": "blk"
    },
    {
        "id": "vtls004690488_0_22",
        "type": "sailor",
        "parent": "vtls004690488",
        "name": "joseph arthur",
        "dob": "blk",
        "age": "24",
        "place_of_birth": "london",
        "home_address": "blk",
        "f": "blk",
        "name_of_ship": "vimeira",
        "ship_port": "blk",
        "date_leaving": "1870",
        "joined_ship_date": "1871-01-04",
        "joined_at_port": "rangoon",
        "capacity": "2nd mate",
        "date_left": "1871-06-05",
        "left_port": "holland",
        "cause_of_leaving": "discharged",
        "sign_with_mark": "y",
        "notes": "blk"
    },
    {
        "id": "vtls004690488_0_21",
        "type": "sailor",
        "parent": "vtls004690488",
        "name": "edward hallson",
        "dob": "blk",
        "age": "18",
        "place_of_birth": "london",
        "home_address": "blk",
        "f": "blk",
        "name_of_ship": "first voyage",
        "ship_port": "blk",
        "date_leaving": "1870",
        "joined_ship_date": "1870-08-03",
        "joined_at_port": "london",
        "capacity": "boy",
        "date_left": "1871-06-05",
        "left_port": "holland",
        "cause_of_leaving": "discharged",
        "sign_with_mark": "n",
        "notes": "blk"
    },
    {
        "id": "vtls004690488_0_20",
        "type": "sailor",
        "parent": "vtls004690488",
        "name": "james smith",
        "dob": "blk",
        "age": "15",
        "place_of_birth": "london",
        "home_address": "blk",
        "f": "blk",
        "name_of_ship": "first voyage",
        "ship_port": "blk",
        "date_leaving": "1870",
        "joined_ship_date": "1870-07-28",
        "joined_at_port": "london",
        "capacity": "boy",
        "date_left": "1871-06-05",
        "left_port": "holland",
        "cause_of_leaving": "discharged",
        "sign_with_mark": "n",
        "notes": "blk"
    },
    {
        "id": "vtls004690498_0_14",
        "type": "sailor",
        "parent": "vtls004690498",
        "name": "richard williams",
        "dob": "blk",
        "age": "21",
        "place_of_birth": "borth",
        "home_address": "blk",
        "f": "blk",
        "name_of_ship": "mary anne",
        "ship_port": "aberystwyth",
        "date_leaving": "1871",
        "joined_ship_date": "1871-10-14",
        "joined_at_port": "middlesbrough",
        "capacity": "cook & steward",
        "date_left": "1872-11-02",
        "left_port": "amsterdam",
        "cause_of_leaving": "discharged",
        "sign_with_mark": "n",
        "notes": "blk"
    },
    {
        "id": "vtls004690498_0_15",
        "type": "sailor",
        "parent": "vtls004690498",
        "name": "john francis",
        "dob": "blk",
        "age": "28",
        "place_of_birth": "fishguard",
        "home_address": "blk",
        "f": "blk",
        "name_of_ship": "jane rowland",
        "ship_port": "aberystwyth",
        "date_leaving": "1871",
        "joined_ship_date": "1871-10-14",
        "joined_at_port": "middlesbrough",
        "capacity": "carpenter",
        "date_left": "1872-11-02",
        "left_port": "amsterdam",
        "cause_of_leaving": "discharged",
        "sign_with_mark": "n",
        "notes": "blk"
    },
    {
        "id": "vtls004690498_0_20",
        "type": "sailor",
        "parent": "vtls004690498",
        "name": "david richard",
        "dob": "blk",
        "age": "23",
        "place_of_birth": "newquay",
        "home_address": "blk",
        "f": "blk",
        "name_of_ship": "peter james",
        "ship_port": "liverpool",
        "date_leaving": "1871",
        "joined_ship_date": "1871-10-14",
        "joined_at_port": "middlesbrough",
        "capacity": "able seaman",
        "date_left": "1872-10-17",
        "left_port": "amsterdam",
        "cause_of_leaving": "discharged",
        "sign_with_mark": "n",
        "notes": "blk"
    },
    {
        "id": "vtls004690498_0_18",
        "type": "sailor",
        "parent": "vtls004690498",
        "name": "harry g allen",
        "dob": "blk",
        "age": "24",
        "place_of_birth": "sittingbourne",
        "home_address": "blk",
        "f": "blk",
        "name_of_ship": "pelham",
        "ship_port": "london",
        "date_leaving": "1871",
        "joined_ship_date": "1871-10-14",
        "joined_at_port": "middlesbrough",
        "capacity": "able seaman",
        "date_left": "1872-10-17",
        "left_port": "amsterdam",
        "cause_of_leaving": "discharged",
        "sign_with_mark": "n",
        "notes": "blk"
    },
    {
        "id": "vtls004690498_0_17",
        "type": "sailor",
        "parent": "vtls004690498",
        "name": "ellis jones",
        "dob": "blk",
        "age": "22",
        "place_of_birth": "borth",
        "home_address": "blk",
        "f": "blk",
        "name_of_ship": "[la govie]",
        "ship_port": "windsor ns",
        "date_leaving": "1871",
        "joined_ship_date": "1871-10-14",
        "joined_at_port": "middlesbrough",
        "capacity": "able seaman",
        "date_left": "1872-10-17",
        "left_port": "amsterdam",
        "cause_of_leaving": "discharged",
        "sign_with_mark": "y",
        "notes": "blk"
    },
    {
        "id": "vtls004690498_0_13",
        "type": "sailor",
        "parent": "vtls004690498",
        "name": "evan james",
        "dob": "blk",
        "age": "21",
        "place_of_birth": "borth",
        "home_address": "blk",
        "f": "blk",
        "name_of_ship": "dovey belle",
        "ship_port": "aberystwyth",
        "date_leaving": "1871",
        "joined_ship_date": "1871-10-14",
        "joined_at_port": "middlesbrough",
        "capacity": "boatswain",
        "date_left": "1872-11-02",
        "left_port": "amsterdam",
        "cause_of_leaving": "discharged",
        "sign_with_mark": "n",
        "notes": "blk"
    },
    {
        "id": "vtls004690498_0_12",
        "type": "sailor",
        "parent": "vtls004690498",
        "name": "david hughes",
        "dob": "blk",
        "age": "26",
        "place_of_birth": "borth",
        "home_address": "blk",
        "f": "blk",
        "name_of_ship": "jane rowland",
        "ship_port": "aberystwyth",
        "date_leaving": "1871",
        "joined_ship_date": "1871-10-14",
        "joined_at_port": "middlesbrough",
        "capacity": "mate",
        "date_left": "1872-11-02",
        "left_port": "amsterdam",
        "cause_of_leaving": "discharged",
        "sign_with_mark": "n",
        "notes": "blk"
    },
    {
        "id": "vtls004690498_0_16",
        "type": "sailor",
        "parent": "vtls004690498",
        "name": "john evans",
        "dob": "blk",
        "age": "58",
        "place_of_birth": "nevin",
        "home_address": "blk",
        "f": "blk",
        "name_of_ship": "[cossack]",
        "ship_port": "carnarvon",
        "date_leaving": "1871",
        "joined_ship_date": "1871-10-14",
        "joined_at_port": "middlesbrough",
        "capacity": "able seaman",
        "date_left": "1872-10-17",
        "left_port": "amsterdam",
        "cause_of_leaving": "discharged",
        "sign_with_mark": "n",
        "notes": "blk"
    },
    {
        "id": "vtls004690498_0_19",
        "type": "sailor",
        "parent": "vtls004690498",
        "name": "george hartup",
        "dob": "blk",
        "age": "20",
        "place_of_birth": "milton",
        "home_address": "blk",
        "f": "blk",
        "name_of_ship": "eliza",
        "ship_port": "rochester",
        "date_leaving": "1871",
        "joined_ship_date": "1871-10-14",
        "joined_at_port": "middlesbrough",
        "capacity": "able seaman",
        "date_left": "1872-10-17",
        "left_port": "amsterdam",
        "cause_of_leaving": "discharged",
        "sign_with_mark": "n",
        "notes": "blk"
    },
    {
        "id": "vtls004690524_0_13",
        "type": "sailor",
        "parent": "vtls004690524",
        "name": "john francis",
        "dob": "blk",
        "age": "28",
        "place_of_birth": "fighguard",
        "home_address": "blk",
        "f": "blk",
        "name_of_ship": "jane rowland",
        "ship_port": "aberystwyth",
        "date_leaving": "1872-11-02",
        "joined_ship_date": "1872-11-02",
        "joined_at_port": "amsterdam",
        "capacity": "carpenter",
        "date_left": "1873-01-28",
        "left_port": "cardiff",
        "cause_of_leaving": "discharged",
        "sign_with_mark": "n",
        "notes": "blk"
    },
    {
        "id": "vtls004690524_0_15",
        "type": "sailor",
        "parent": "vtls004690524",
        "name": "taen gibegs",
        "dob": "blk",
        "age": "26",
        "place_of_birth": "finland",
        "home_address": "blk",
        "f": "blk",
        "name_of_ship": "algonquin",
        "ship_port": "halifax",
        "date_leaving": "1872-08-12",
        "joined_ship_date": "1872-11-02",
        "joined_at_port": "amsterdam",
        "capacity": "able seaman",
        "date_left": "1873-01-28",
        "left_port": "cardiff",
        "cause_of_leaving": "discharged",
        "sign_with_mark": "n",
        "notes": "blk"
    },
    {
        "id": "vtls004690524_0_17",
        "type": "sailor",
        "parent": "vtls004690524",
        "name": "jacob jacobson",
        "dob": "blk",
        "age": "42",
        "place_of_birth": "sweden",
        "home_address": "blk",
        "f": "blk",
        "name_of_ship": "dutch ship",
        "ship_port": "blk",
        "date_leaving": "1872-10-18",
        "joined_ship_date": "1872-11-02",
        "joined_at_port": "amsterdam",
        "capacity": "able seaman",
        "date_left": "1873-01-28",
        "left_port": "cardiff",
        "cause_of_leaving": "discharged",
        "sign_with_mark": "n",
        "notes": "blk"
    },
    {
        "id": "vtls004690524_0_16",
        "type": "sailor",
        "parent": "vtls004690524",
        "name": "john m hansen",
        "dob": "blk",
        "age": "22",
        "place_of_birth": "norway",
        "home_address": "blk",
        "f": "blk",
        "name_of_ship": "dutch ship",
        "ship_port": "blk",
        "date_leaving": "1872-10-21",
        "joined_ship_date": "1872-11-02",
        "joined_at_port": "amsterdam",
        "capacity": "able seaman",
        "date_left": "1873-01-28",
        "left_port": "cardiff",
        "cause_of_leaving": "discharged",
        "sign_with_mark": "n",
        "notes": "blk"
    },
    {
        "id": "vtls004690524_0_18",
        "type": "sailor",
        "parent": "vtls004690524",
        "name": "f kirkerit",
        "dob": "blk",
        "age": "25",
        "place_of_birth": "prussia",
        "home_address": "blk",
        "f": "blk",
        "name_of_ship": "dutch ship",
        "ship_port": "blk",
        "date_leaving": "1872-10-28",
        "joined_ship_date": "1872-11-02",
        "joined_at_port": "amsterdam",
        "capacity": "able seaman",
        "date_left": "1873-01-28",
        "left_port": "cardiff",
        "cause_of_leaving": "discharged",
        "sign_with_mark": "n",
        "notes": "blk"
    },
    {
        "id": "vtls004690524_0_11",
        "type": "sailor",
        "parent": "vtls004690524",
        "name": "richard hughes",
        "dob": "blk",
        "age": "30",
        "place_of_birth": "aberystwyth",
        "home_address": "blk",
        "f": "blk",
        "name_of_ship": "jane rowland",
        "ship_port": "aberystwyth",
        "date_leaving": "remain",
        "joined_ship_date": "1872-04-02",
        "joined_at_port": "amsterdam",
        "capacity": "master",
        "date_left": "blk",
        "left_port": "blk",
        "cause_of_leaving": "remains on board",
        "sign_with_mark": "n",
        "notes": "blk"
    },
    {
        "id": "vtls004690524_0_12",
        "type": "sailor",
        "parent": "vtls004690524",
        "name": "david hughes",
        "dob": "blk",
        "age": "23",
        "place_of_birth": "aberystwyth",
        "home_address": "blk",
        "f": "blk",
        "name_of_ship": "jane rowland",
        "ship_port": "aberystwyth",
        "date_leaving": "1872-11-02",
        "joined_ship_date": "1872-11-02",
        "joined_at_port": "amsterdam",
        "capacity": "mate",
        "date_left": "blk",
        "left_port": "blk",
        "cause_of_leaving": "remains on board",
        "sign_with_mark": "n",
        "notes": "blk"
    },
    {
        "id": "vtls004690524_0_14",
        "type": "sailor",
        "parent": "vtls004690524",
        "name": "a vollis",
        "dob": "blk",
        "age": "35",
        "place_of_birth": "hamburg",
        "home_address": "blk",
        "f": "blk",
        "name_of_ship": "german ship",
        "ship_port": "blk",
        "date_leaving": "1872-10-18",
        "joined_ship_date": "1872-11-02",
        "joined_at_port": "amsterdam",
        "capacity": "cook",
        "date_left": "1873-01-28",
        "left_port": "cardiff",
        "cause_of_leaving": "discharged",
        "sign_with_mark": "n",
        "notes": "blk"
    },
    {
        "id": "vtls004690533_0_18",
        "type": "sailor",
        "parent": "vtls004690533",
        "name": "thomas morris",
        "dob": "blk",
        "age": "25",
        "place_of_birth": "nassau",
        "home_address": "blk",
        "f": "blk",
        "name_of_ship": "rosewell castle",
        "ship_port": "newcastle",
        "date_leaving": "1877",
        "joined_ship_date": "1877-07-06",
        "joined_at_port": "glasgow",
        "capacity": "able seaman",
        "date_left": "1877-10-10",
        "left_port": "bahia",
        "cause_of_leaving": "discharged",
        "sign_with_mark": "y",
        "notes": "blk"
    },
    {
        "id": "vtls004690533_0_17",
        "type": "sailor",
        "parent": "vtls004690533",
        "name": "william collet",
        "dob": "blk",
        "age": "22",
        "place_of_birth": "edinburgh",
        "home_address": "blk",
        "f": "blk",
        "name_of_ship": "america",
        "ship_port": "sunderland",
        "date_leaving": "1877",
        "joined_ship_date": "1877-07-06",
        "joined_at_port": "glasgow",
        "capacity": "able seaman",
        "date_left": "1878-04-15",
        "left_port": "greenock",
        "cause_of_leaving": "deserted",
        "sign_with_mark": "n",
        "notes": "blk"
    },
    {
        "id": "vtls004690533_0_16",
        "type": "sailor",
        "parent": "vtls004690533",
        "name": "christian olsen",
        "dob": "blk",
        "age": "37",
        "place_of_birth": "denmark",
        "home_address": "blk",
        "f": "blk",
        "name_of_ship": "aldytha",
        "ship_port": "st john",
        "date_leaving": "1877",
        "joined_ship_date": "1877-07-06",
        "joined_at_port": "glasgow",
        "capacity": "able seaman",
        "date_left": "1878-04-05",
        "left_port": "liverpool",
        "cause_of_leaving": "discharged",
        "sign_with_mark": "y",
        "notes": "blk"
    },
    {
        "id": "vtls004690533_0_12",
        "type": "sailor",
        "parent": "vtls004690533",
        "name": "john smith",
        "dob": "blk",
        "age": "50",
        "place_of_birth": "stonehaven",
        "home_address": "blk",
        "f": "blk",
        "name_of_ship": "ribston",
        "ship_port": "sunderland",
        "date_leaving": "1877",
        "joined_ship_date": "1877-07-06",
        "joined_at_port": "glasgow",
        "capacity": "mate",
        "date_left": "1878-04-05",
        "left_port": "liverpool",
        "cause_of_leaving": "remains on board",
        "sign_with_mark": "n",
        "notes": "blk"
    },
    {
        "id": "vtls004690533_0_13",
        "type": "sailor",
        "parent": "vtls004690533",
        "name": "donald m kay",
        "dob": "blk",
        "age": "28",
        "place_of_birth": "caithness",
        "home_address": "blk",
        "f": "blk",
        "name_of_ship": "mauritius",
        "ship_port": "greenock",
        "date_leaving": "1877",
        "joined_ship_date": "1877-07-06",
        "joined_at_port": "glasgow",
        "capacity": "boatswain",
        "date_left": "1877-07-14",
        "left_port": "glasgow",
        "cause_of_leaving": "never joined",
        "sign_with_mark": "n",
        "notes": "blk"
    },
    {
        "id": "vtls004690524_0_20",
        "type": "sailor",
        "parent": "vtls004690524",
        "name": "alf mechan",
        "dob": "blk",
        "age": "22",
        "place_of_birth": "london",
        "home_address": "blk",
        "f": "blk",
        "name_of_ship": "dutch ship",
        "ship_port": "blk",
        "date_leaving": "1872-10-24",
        "joined_ship_date": "1872-11-02",
        "joined_at_port": "amsterdam",
        "capacity": "able seaman",
        "date_left": "1873-01-28",
        "left_port": "cardiff",
        "cause_of_leaving": "discharged",
        "sign_with_mark": "n",
        "notes": "blk"
    },
    {
        "id": "vtls004690524_0_19",
        "type": "sailor",
        "parent": "vtls004690524",
        "name": "jan janson",
        "dob": "blk",
        "age": "23",
        "place_of_birth": "sweden",
        "home_address": "blk",
        "f": "blk",
        "name_of_ship": "dutch ship",
        "ship_port": "blk",
        "date_leaving": "1872-10-26",
        "joined_ship_date": "1872-11-02",
        "joined_at_port": "amsterdam",
        "capacity": "able seaman",
        "date_left": "1873-01-28",
        "left_port": "cardiff",
        "cause_of_leaving": "discharged",
        "sign_with_mark": "n",
        "notes": "blk"
    },
    {
        "id": "vtls004690533_0_15",
        "type": "sailor",
        "parent": "vtls004690533",
        "name": "james howard",
        "dob": "blk",
        "age": "21",
        "place_of_birth": "wales",
        "home_address": "blk",
        "f": "blk",
        "name_of_ship": "jane morely",
        "ship_port": "[greenock]",
        "date_leaving": "1877",
        "joined_ship_date": "1877-07-06",
        "joined_at_port": "glasgow",
        "capacity": "able seaman",
        "date_left": "1877-07-15",
        "left_port": "greenock",
        "cause_of_leaving": "deserted",
        "sign_with_mark": "y",
        "notes": "blk"
    },
    {
        "id": "vtls004690533_0_14",
        "type": "sailor",
        "parent": "vtls004690533",
        "name": "john price",
        "dob": "blk",
        "age": "32",
        "place_of_birth": "newport",
        "home_address": "blk",
        "f": "blk",
        "name_of_ship": "myvanwy",
        "ship_port": "blk",
        "date_leaving": "1877",
        "joined_ship_date": "1877-07-06",
        "joined_at_port": "glasgow",
        "capacity": "cook & steward",
        "date_left": "1877-07-14",
        "left_port": "glasgow",
        "cause_of_leaving": "never joined",
        "sign_with_mark": "n",
        "notes": "blk"
    },
    {
        "id": "vtls004690533_0_20",
        "type": "sailor",
        "parent": "vtls004690533",
        "name": "william john campbell",
        "dob": "blk",
        "age": "20",
        "place_of_birth": "edinburgh",
        "home_address": "blk",
        "f": "blk",
        "name_of_ship": "tamesa",
        "ship_port": "london",
        "date_leaving": "1877",
        "joined_ship_date": "1877-07-06",
        "joined_at_port": "glasgow",
        "capacity": "ordinary seaman",
        "date_left": "1878-04-05",
        "left_port": "liverpool",
        "cause_of_leaving": "discharged",
        "sign_with_mark": "n",
        "notes": "blk"
    },
    {
        "id": "vtls004690533_0_26",
        "type": "sailor",
        "parent": "vtls004690533",
        "name": "nils m petters",
        "dob": "blk",
        "age": "22",
        "place_of_birth": "norway",
        "home_address": "blk",
        "f": "blk",
        "name_of_ship": "enoch train",
        "ship_port": "port glasgow",
        "date_leaving": "1877",
        "joined_ship_date": "1877-07-19",
        "joined_at_port": "greenock",
        "capacity": "able seaman",
        "date_left": "1878-04-03",
        "left_port": "atoro",
        "cause_of_leaving": "discharged",
        "sign_with_mark": "n",
        "notes": "blk"
    },
    {
        "id": "vtls004690533_0_24",
        "type": "sailor",
        "parent": "vtls004690533",
        "name": "g l petterson",
        "dob": "blk",
        "age": "23",
        "place_of_birth": "sweden",
        "home_address": "blk",
        "f": "blk",
        "name_of_ship": "enoch train",
        "ship_port": "port glasgow",
        "date_leaving": "1877",
        "joined_ship_date": "1877-07-19",
        "joined_at_port": "greenock",
        "capacity": "able seaman",
        "date_left": "1878-04-02",
        "left_port": "atoro",
        "cause_of_leaving": "discharged",
        "sign_with_mark": "n",
        "notes": "blk"
    },
    {
        "id": "vtls004690533_0_25",
        "type": "sailor",
        "parent": "vtls004690533",
        "name": "carl holst",
        "dob": "blk",
        "age": "20",
        "place_of_birth": "denmark",
        "home_address": "blk",
        "f": "blk",
        "name_of_ship": "imperial",
        "ship_port": "port glasgow",
        "date_leaving": "1877",
        "joined_ship_date": "1877-07-19",
        "joined_at_port": "greenock",
        "capacity": "able seaman",
        "date_left": "1878-04-05",
        "left_port": "liverpool",
        "cause_of_leaving": "discharged",
        "sign_with_mark": "n",
        "notes": "blk"
    },
    {
        "id": "vtls004690533_0_23",
        "type": "sailor",
        "parent": "vtls004690533",
        "name": "john burne",
        "dob": "blk",
        "age": "39",
        "place_of_birth": "dublin",
        "home_address": "blk",
        "f": "blk",
        "name_of_ship": "george bell",
        "ship_port": "[yarmouth] ns",
        "date_leaving": "1877",
        "joined_ship_date": "1877-07-14",
        "joined_at_port": "greenock",
        "capacity": "able seaman",
        "date_left": "1877-07-15",
        "left_port": "greenock",
        "cause_of_leaving": "deserted",
        "sign_with_mark": "n",
        "notes": "blk"
    },
    {
        "id": "vtls004690533_0_19",
        "type": "sailor",
        "parent": "vtls004690533",
        "name": "john dunning",
        "dob": "blk",
        "age": "18",
        "place_of_birth": "clonmel",
        "home_address": "blk",
        "f": "blk",
        "name_of_ship": "jane milloy",
        "ship_port": "greenock",
        "date_leaving": "1877",
        "joined_ship_date": "1877-07-06",
        "joined_at_port": "glasgow",
        "capacity": "ordinary seaman",
        "date_left": "1877-07-15",
        "left_port": "greenock",
        "cause_of_leaving": "deserted",
        "sign_with_mark": "n",
        "notes": "blk"
    },
    {
        "id": "vtls004690533_0_21",
        "type": "sailor",
        "parent": "vtls004690533",
        "name": "thomas lucas",
        "dob": "blk",
        "age": "29",
        "place_of_birth": "guernsey",
        "home_address": "blk",
        "f": "blk",
        "name_of_ship": "red $",
        "ship_port": "blk",
        "date_leaving": "1877",
        "joined_ship_date": "1877-07-14",
        "joined_at_port": "glasgow",
        "capacity": "boatswain",
        "date_left": "1878-04-05",
        "left_port": "liverpool",
        "cause_of_leaving": "discharged",
        "sign_with_mark": "n",
        "notes": "blk"
    },
    {
        "id": "vtls004690533_0_22",
        "type": "sailor",
        "parent": "vtls004690533",
        "name": "john mccall",
        "dob": "blk",
        "age": "20",
        "place_of_birth": "glasgow",
        "home_address": "blk",
        "f": "blk",
        "name_of_ship": "selina",
        "ship_port": "blk",
        "date_leaving": "1877",
        "joined_ship_date": "1877-07-14",
        "joined_at_port": "glasgow",
        "capacity": "able seaman",
        "date_left": "1877-07-14",
        "left_port": "glasgow",
        "cause_of_leaving": "never joined",
        "sign_with_mark": "n",
        "notes": "blk"
    },
    {
        "id": "vtls004690533_0_27",
        "type": "sailor",
        "parent": "vtls004690533",
        "name": "oskan lamberg",
        "dob": "blk",
        "age": "18",
        "place_of_birth": "sweden",
        "home_address": "blk",
        "f": "blk",
        "name_of_ship": "isabella",
        "ship_port": "newcastle",
        "date_leaving": "1877",
        "joined_ship_date": "1877-07-19",
        "joined_at_port": "greenock",
        "capacity": "ordinary seaman",
        "date_left": "1877-12-07",
        "left_port": "at sea",
        "cause_of_leaving": "died",
        "sign_with_mark": "n",
        "notes": "\"supposed to have died from fever, but the precise nature of his illness, (which is reported to have been of short duration) could not be ascertained.\""
    },
    {
        "id": "vtls004690542_0_19",
        "type": "sailor",
        "parent": "vtls004690542",
        "name": "james james",
        "dob": "blk",
        "age": "18",
        "place_of_birth": "aberystwyth",
        "home_address": "blk",
        "f": "blk",
        "name_of_ship": "[margaret & jane]",
        "ship_port": "aberystwyth",
        "date_leaving": "1878",
        "joined_ship_date": "1878-05-24",
        "joined_at_port": "liverpool",
        "capacity": "ordinary seaman",
        "date_left": "1879-02-26",
        "left_port": "antwerp",
        "cause_of_leaving": "discharged",
        "sign_with_mark": "y",
        "notes": "blk"
    },
    {
        "id": "vtls004690542_0_18",
        "type": "sailor",
        "parent": "vtls004690542",
        "name": "lewis roberts",
        "dob": "blk",
        "age": "19",
        "place_of_birth": "portmadoc",
        "home_address": "blk",
        "f": "blk",
        "name_of_ship": "george casson",
        "ship_port": "port madoc",
        "date_leaving": "1878",
        "joined_ship_date": "1878-05-24",
        "joined_at_port": "liverpool",
        "capacity": "ordinary seaman",
        "date_left": "1879-02-26",
        "left_port": "antwerp",
        "cause_of_leaving": "discharged",
        "sign_with_mark": "n",
        "notes": "blk"
    },
    {
        "id": "vtls004690542_0_14",
        "type": "sailor",
        "parent": "vtls004690542",
        "name": "william edwards",
        "dob": "blk",
        "age": "49",
        "place_of_birth": "aberystwyth",
        "home_address": "blk",
        "f": "blk",
        "name_of_ship": "[sudoc]",
        "ship_port": "aberystwyth",
        "date_leaving": "1878",
        "joined_ship_date": "1878-05-24",
        "joined_at_port": "liverpool",
        "capacity": "cook & steward",
        "date_left": "1879-02-26",
        "left_port": "antwerp",
        "cause_of_leaving": "discharged",
        "sign_with_mark": "n",
        "notes": "blk"
    },
    {
        "id": "vtls004690542_0_13",
        "type": "sailor",
        "parent": "vtls004690542",
        "name": "john davies",
        "dob": "blk",
        "age": "32",
        "place_of_birth": "aberystwyth",
        "home_address": "blk",
        "f": "blk",
        "name_of_ship": "margaret lewis",
        "ship_port": "aberystwyth",
        "date_leaving": "1878",
        "joined_ship_date": "1878-05-24",
        "joined_at_port": "liverpool",
        "capacity": "boatswain",
        "date_left": "1879-02-26",
        "left_port": "antwerp",
        "cause_of_leaving": "discharged",
        "sign_with_mark": "n",
        "notes": "blk"
    },
    {
        "id": "vtls004690542_0_15",
        "type": "sailor",
        "parent": "vtls004690542",
        "name": "john davies",
        "dob": "blk",
        "age": "25",
        "place_of_birth": "aberystwyth",
        "home_address": "blk",
        "f": "blk",
        "name_of_ship": "peruvian",
        "ship_port": "liverpool",
        "date_leaving": "1878",
        "joined_ship_date": "1878-05-24",
        "joined_at_port": "liverpool",
        "capacity": "able seaman",
        "date_left": "1879-02-26",
        "left_port": "antwerp",
        "cause_of_leaving": "discharged",
        "sign_with_mark": "n",
        "notes": "blk"
    },
    {
        "id": "vtls004690542_0_17",
        "type": "sailor",
        "parent": "vtls004690542",
        "name": "edward l powers",
        "dob": "blk",
        "age": "19",
        "place_of_birth": "yarmouth",
        "home_address": "blk",
        "f": "blk",
        "name_of_ship": "[ninapher]",
        "ship_port": "ns",
        "date_leaving": "1878",
        "joined_ship_date": "1878-05-24",
        "joined_at_port": "liverpool",
        "capacity": "able seaman",
        "date_left": "1879-02-26",
        "left_port": "antwerp",
        "cause_of_leaving": "discharged",
        "sign_with_mark": "n",
        "notes": "blk"
    },
    {
        "id": "vtls004690533_0_28",
        "type": "sailor",
        "parent": "vtls004690533",
        "name": "a robertson",
        "dob": "blk",
        "age": "23",
        "place_of_birth": "ardrossan",
        "home_address": "blk",
        "f": "blk",
        "name_of_ship": "mary annie",
        "ship_port": "blk",
        "date_leaving": "1877",
        "joined_ship_date": "[1877-11-10]",
        "joined_at_port": "bahia",
        "capacity": "cook",
        "date_left": "1878-04-05",
        "left_port": "liverpool",
        "cause_of_leaving": "discharged",
        "sign_with_mark": "n",
        "notes": "blk"
    },
    {
        "id": "vtls004690542_0_16",
        "type": "sailor",
        "parent": "vtls004690542",
        "name": "john pierce",
        "dob": "blk",
        "age": "29",
        "place_of_birth": "london",
        "home_address": "blk",
        "f": "blk",
        "name_of_ship": "ellen",
        "ship_port": "liverpool",
        "date_leaving": "1878",
        "joined_ship_date": "1878-05-24",
        "joined_at_port": "liverpool",
        "capacity": "able seaman",
        "date_left": "1879-02-26",
        "left_port": "antwerp",
        "cause_of_leaving": "discharged",
        "sign_with_mark": "y",
        "notes": "blk"
    },
    {
        "id": "vtls004690542_0_20",
        "type": "sailor",
        "parent": "vtls004690542",
        "name": "william campbell",
        "dob": "blk",
        "age": "20",
        "place_of_birth": "newcastle",
        "home_address": "blk",
        "f": "blk",
        "name_of_ship": "newcastle",
        "ship_port": "blk",
        "date_leaving": "1878",
        "joined_ship_date": "1878-05-24",
        "joined_at_port": "liverpool",
        "capacity": "able seaman",
        "date_left": "1879-02-26",
        "left_port": "antwerp",
        "cause_of_leaving": "discharged",
        "sign_with_mark": "n",
        "notes": "blk"
    }
]