[
    {
        "id": "vtls004658651_0_11",
        "type": "sailor",
        "parent": "vtls004658651",
        "name": "john evans",
        "dob": "blk",
        "age": "43",
        "place_of_birth": "newquay",
        "home_address": "newquay",
        "f": "newquay",
        "name_of_ship": "emma alice",
        "ship_port": "aberystwyth",
        "date_leaving": "continued",
        "joined_ship_date": "blk",
        "joined_at_port": "blk",
        "capacity": "master",
        "date_left": "1870-06-30",
        "left_port": "plymouth",
        "cause_of_leaving": "remains on board",
        "sign_with_mark": "n",
        "notes": "blk"
    },
    {
        "id": "vtls004658651_0_17",
        "type": "sailor",
        "parent": "vtls004658651",
        "name": "benjamin williams",
        "dob": "blk",
        "age": "30",
        "place_of_birth": "cardigan",
        "home_address": "blk",
        "f": "blk",
        "name_of_ship": "ellen ann",
        "ship_port": "newquay",
        "date_leaving": "1870-03-14",
        "joined_ship_date": "1870-05-13",
        "joined_at_port": "runcorn",
        "capacity": "mate",
        "date_left": "1870-06-30",
        "left_port": "plymouth",
        "cause_of_leaving": "remains on board",
        "sign_with_mark": "n",
        "notes": "there is some discrepancy between the 'crewlist' and the 'agreement' regarding the dates of this crewman leaving his last vessel and joining this ship."
    },
    {
        "id": "vtls004658651_0_18",
        "type": "sailor",
        "parent": "vtls004658651",
        "name": "griffith davies",
        "dob": "blk",
        "age": "22",
        "place_of_birth": "llangranog",
        "home_address": "blk",
        "f": "blk",
        "name_of_ship": "lord muncaster",
        "ship_port": "barrow",
        "date_leaving": "1869-12-20",
        "joined_ship_date": "1870-02-13",
        "joined_at_port": "runcorn",
        "capacity": "seaman",
        "date_left": "blk",
        "left_port": "blk",
        "cause_of_leaving": "blk",
        "sign_with_mark": "blk",
        "notes": "this crewman only appears in the 'agreement' of the voyage, and not on the crewlists. there is another crewman present with the same name, but different age and birthplace."
    },
    {
        "id": "vtls004658651_0_13",
        "type": "sailor",
        "parent": "vtls004658651",
        "name": "griffith davies",
        "dob": "blk",
        "age": "20",
        "place_of_birth": "aberystwyth",
        "home_address": "blk",
        "f": "blk",
        "name_of_ship": "emma alice",
        "ship_port": "aberystwyth",
        "date_leaving": "continued",
        "joined_ship_date": "1870-01-01",
        "joined_at_port": "briton ferry",
        "capacity": "able seaman",
        "date_left": "1870-06-30",
        "left_port": "plymouth",
        "cause_of_leaving": "remains on board",
        "sign_with_mark": "n",
        "notes": "blk"
    },
    {
        "id": "vtls004658651_0_15",
        "type": "sailor",
        "parent": "vtls004658651",
        "name": "john evans",
        "dob": "blk",
        "age": "14",
        "place_of_birth": "newquay",
        "home_address": "blk",
        "f": "blk",
        "name_of_ship": "emma alice",
        "ship_port": "aberystwyth",
        "date_leaving": "continued",
        "joined_ship_date": "1870-01-01",
        "joined_at_port": "briton ferry",
        "capacity": "ordinary seaman",
        "date_left": "1870-06-30",
        "left_port": "plymouth",
        "cause_of_leaving": "remains on board",
        "sign_with_mark": "n",
        "notes": "blk"
    },
    {
        "id": "vtls004658651_0_16",
        "type": "sailor",
        "parent": "vtls004658651",
        "name": "john evans",
        "dob": "blk",
        "age": "12",
        "place_of_birth": "newquay",
        "home_address": "blk",
        "f": "blk",
        "name_of_ship": "emma alice",
        "ship_port": "aberystwyth",
        "date_leaving": "continued",
        "joined_ship_date": "1870-01-01",
        "joined_at_port": "briton ferry",
        "capacity": "ordinary seaman",
        "date_left": "1870-06-30",
        "left_port": "plymouth",
        "cause_of_leaving": "remains on board",
        "sign_with_mark": "n",
        "notes": "blk"
    },
    {
        "id": "vtls004658651_0_14",
        "type": "sailor",
        "parent": "vtls004658651",
        "name": "william davies",
        "dob": "blk",
        "age": "19",
        "place_of_birth": "cardigan",
        "home_address": "blk",
        "f": "blk",
        "name_of_ship": "emma alice",
        "ship_port": "aberystwyth",
        "date_leaving": "continued",
        "joined_ship_date": "1870-01-01",
        "joined_at_port": "briton ferry",
        "capacity": "able seaman",
        "date_left": "1870-06-24",
        "left_port": "swansea",
        "cause_of_leaving": "discharged",
        "sign_with_mark": "n",
        "notes": "blk"
    },
    {
        "id": "vtls004658651_0_19",
        "type": "sailor",
        "parent": "vtls004658651",
        "name": "peter thomas",
        "dob": "blk",
        "age": "19",
        "place_of_birth": "fishguard",
        "home_address": "blk",
        "f": "blk",
        "name_of_ship": "john russel",
        "ship_port": "barrow",
        "date_leaving": "1870-06-24",
        "joined_ship_date": "1870-06-24",
        "joined_at_port": "swansea",
        "capacity": "ordinary seaman",
        "date_left": "1870-06-30",
        "left_port": "plymouth",
        "cause_of_leaving": "remains on board",
        "sign_with_mark": "n",
        "notes": "blk"
    },
    {
        "id": "vtls004658651_0_12",
        "type": "sailor",
        "parent": "vtls004658651",
        "name": "evan jones",
        "dob": "blk",
        "age": "22",
        "place_of_birth": "newquay",
        "home_address": "blk",
        "f": "blk",
        "name_of_ship": "emma alice",
        "ship_port": "aberystwyth",
        "date_leaving": "continued",
        "joined_ship_date": "1870-01-01",
        "joined_at_port": "briton ferry",
        "capacity": "mate",
        "date_left": "1870-02-13",
        "left_port": "runcorn",
        "cause_of_leaving": "discharged",
        "sign_with_mark": "n",
        "notes": "blk"
    },
    {
        "id": "vtls004658651_1_14",
        "type": "sailor",
        "parent": "vtls004658651",
        "name": "richard pugh",
        "dob": "blk",
        "age": "20",
        "place_of_birth": "aberystwyth",
        "home_address": "blk",
        "f": "blk",
        "name_of_ship": "emma alice",
        "ship_port": "aberystwyth",
        "date_leaving": "continued",
        "joined_ship_date": "blk",
        "joined_at_port": "blk",
        "capacity": "ordinary seaman",
        "date_left": "1870-12-02",
        "left_port": "liverpool",
        "cause_of_leaving": "discharged",
        "sign_with_mark": "n",
        "notes": "blk"
    },
    {
        "id": "vtls004658651_1_13",
        "type": "sailor",
        "parent": "vtls004658651",
        "name": "griffith davies",
        "dob": "blk",
        "age": "24",
        "place_of_birth": "aberporth",
        "home_address": "blk",
        "f": "blk",
        "name_of_ship": "emma alice",
        "ship_port": "aberystwyth",
        "date_leaving": "continued",
        "joined_ship_date": "blk",
        "joined_at_port": "blk",
        "capacity": "able seaman",
        "date_left": "1870-12-02",
        "left_port": "liverpool",
        "cause_of_leaving": "discharged",
        "sign_with_mark": "n",
        "notes": "blk"
    },
    {
        "id": "vtls004658651_1_15",
        "type": "sailor",
        "parent": "vtls004658651",
        "name": "john wiliams",
        "dob": "blk",
        "age": "24",
        "place_of_birth": "barrow",
        "home_address": "blk",
        "f": "blk",
        "name_of_ship": "sarah ann",
        "ship_port": "barrow",
        "date_leaving": "[1869]-12-09",
        "joined_ship_date": "1870-12-05",
        "joined_at_port": "liverpool",
        "capacity": "able seaman",
        "date_left": "blk",
        "left_port": "blk",
        "cause_of_leaving": "remains on board",
        "sign_with_mark": "y",
        "notes": "blk"
    },
    {
        "id": "vtls004658651_1_16",
        "type": "sailor",
        "parent": "vtls004658651",
        "name": "john hughes",
        "dob": "blk",
        "age": "21",
        "place_of_birth": "barrow",
        "home_address": "blk",
        "f": "blk",
        "name_of_ship": "reform",
        "ship_port": "barrow",
        "date_leaving": "[1869]-12-09",
        "joined_ship_date": "1870-12-05",
        "joined_at_port": "liverpool",
        "capacity": "ordinary seaman",
        "date_left": "blk",
        "left_port": "blk",
        "cause_of_leaving": "remains on board",
        "sign_with_mark": "n",
        "notes": "blk"
    },
    {
        "id": "vtls004658651_1_12",
        "type": "sailor",
        "parent": "vtls004658651",
        "name": "benjamin williams",
        "dob": "blk",
        "age": "30",
        "place_of_birth": "newquay",
        "home_address": "blk",
        "f": "blk",
        "name_of_ship": "emma alice",
        "ship_port": "aberystwyth",
        "date_leaving": "continued",
        "joined_ship_date": "blk",
        "joined_at_port": "blk",
        "capacity": "mate",
        "date_left": "blk",
        "left_port": "blk",
        "cause_of_leaving": "remains on board",
        "sign_with_mark": "n",
        "notes": "blk"
    },
    {
        "id": "vtls004658651_1_11",
        "type": "sailor",
        "parent": "vtls004658651",
        "name": "john evans",
        "dob": "blk",
        "age": "44",
        "place_of_birth": "newquay",
        "home_address": "newquay",
        "f": "newquay",
        "name_of_ship": "emma alice",
        "ship_port": "aberystwyth",
        "date_leaving": "continued",
        "joined_ship_date": "blk",
        "joined_at_port": "blk",
        "capacity": "master",
        "date_left": "blk",
        "left_port": "blk",
        "cause_of_leaving": "remains on board",
        "sign_with_mark": "n",
        "notes": "blk"
    },
    {
        "id": "vtls004658651_1_17",
        "type": "sailor",
        "parent": "vtls004658651",
        "name": "john evans",
        "dob": "blk",
        "age": "13",
        "place_of_birth": "newquay",
        "home_address": "blk",
        "f": "blk",
        "name_of_ship": "emma alice",
        "ship_port": "aberystwyth",
        "date_leaving": "continued",
        "joined_ship_date": "blk",
        "joined_at_port": "blk",
        "capacity": "boy",
        "date_left": "blk",
        "left_port": "blk",
        "cause_of_leaving": "remains on board",
        "sign_with_mark": "n",
        "notes": "blk"
    }
]