[
    {
        "id": "vtls004968353_1_11",
        "type": "sailor",
        "parent": "vtls004968353",
        "name": "richard lewis",
        "dob": "blk",
        "age": "29",
        "place_of_birth": "borth, cardigan",
        "home_address": "blk",
        "f": "blk",
        "name_of_ship": "nanhoron",
        "ship_port": "caernarfon",
        "date_leaving": "1877",
        "joined_ship_date": "1877-07-13",
        "joined_at_port": "liverpool",
        "capacity": "master",
        "date_left": "1878-04-18",
        "left_port": "porthmadog",
        "cause_of_leaving": "remains on board",
        "sign_with_mark": "n",
        "notes": "blk"
    },
    {
        "id": "vtls004968353_0_11",
        "type": "sailor",
        "parent": "vtls004968353",
        "name": "richard corrin",
        "dob": "blk",
        "age": "28",
        "place_of_birth": "douglas, isle of man",
        "home_address": "blk",
        "f": "blk",
        "name_of_ship": "swallow",
        "ship_port": "aberystwyth",
        "date_leaving": "1877",
        "joined_ship_date": "1877-01-06",
        "joined_at_port": "peel",
        "capacity": "master",
        "date_left": "1877-05-06",
        "left_port": "liverpool",
        "cause_of_leaving": "discharged",
        "sign_with_mark": "n",
        "notes": "blk"
    },
    {
        "id": "vtls004968353_0_12",
        "type": "sailor",
        "parent": "vtls004968353",
        "name": "w e cannell",
        "dob": "blk",
        "age": "25",
        "place_of_birth": "douglas, isle of man",
        "home_address": "blk",
        "f": "blk",
        "name_of_ship": "swallow",
        "ship_port": "aberystwyth",
        "date_leaving": "blk",
        "joined_ship_date": "1877-01-06",
        "joined_at_port": "peel",
        "capacity": "mate",
        "date_left": "1877-04-26",
        "left_port": "liverpool",
        "cause_of_leaving": "discharged",
        "sign_with_mark": "n",
        "notes": "blk"
    },
    {
        "id": "vtls004968353_0_13",
        "type": "sailor",
        "parent": "vtls004968353",
        "name": "j gibson",
        "dob": "blk",
        "age": "20",
        "place_of_birth": "wexford",
        "home_address": "blk",
        "f": "blk",
        "name_of_ship": "swallow",
        "ship_port": "aberystwyth",
        "date_leaving": "blk",
        "joined_ship_date": "1877-01-06",
        "joined_at_port": "peel",
        "capacity": "ordinary seaman",
        "date_left": "1877-04-26",
        "left_port": "liverpool",
        "cause_of_leaving": "discharged",
        "sign_with_mark": "n",
        "notes": "blk"
    },
    {
        "id": "vtls004968353_1_12",
        "type": "sailor",
        "parent": "vtls004968353",
        "name": "ellis jones",
        "dob": "blk",
        "age": "28",
        "place_of_birth": "borth",
        "home_address": "blk",
        "f": "blk",
        "name_of_ship": "beatrice",
        "ship_port": "aberystwyth",
        "date_leaving": "1877",
        "joined_ship_date": "1877-07-18",
        "joined_at_port": "runcorn",
        "capacity": "mate",
        "date_left": "1878-01-22",
        "left_port": "rotterdam",
        "cause_of_leaving": "discharged",
        "sign_with_mark": "n",
        "notes": "blk"
    },
    {
        "id": "vtls004968353_0_14",
        "type": "sailor",
        "parent": "vtls004968353",
        "name": "e black",
        "dob": "blk",
        "age": "17",
        "place_of_birth": "belfast",
        "home_address": "blk",
        "f": "blk",
        "name_of_ship": "swallow",
        "ship_port": "aberystwyth",
        "date_leaving": "blk",
        "joined_ship_date": "187-01-06",
        "joined_at_port": "peel",
        "capacity": "boy",
        "date_left": "1877-04-26",
        "left_port": "liverpool",
        "cause_of_leaving": "discharged",
        "sign_with_mark": "n",
        "notes": "blk"
    },
    {
        "id": "vtls004968353_1_13",
        "type": "sailor",
        "parent": "vtls004968353",
        "name": "edward medrings",
        "dob": "blk",
        "age": "18",
        "place_of_birth": "newton",
        "home_address": "blk",
        "f": "blk",
        "name_of_ship": "hagar",
        "ship_port": "aberystwyth",
        "date_leaving": "1877",
        "joined_ship_date": "1877-07-25",
        "joined_at_port": "liverpool",
        "capacity": "ordinary seaman",
        "date_left": "1878-04-16",
        "left_port": "porthmadog",
        "cause_of_leaving": "discharged",
        "sign_with_mark": "n",
        "notes": "blk"
    },
    {
        "id": "vtls004968353_1_15",
        "type": "sailor",
        "parent": "vtls004968353",
        "name": "partick diamond",
        "dob": "blk",
        "age": "19",
        "place_of_birth": "county derry",
        "home_address": "blk",
        "f": "blk",
        "name_of_ship": "tyngm$$th",
        "ship_port": "blk",
        "date_leaving": "1877-03-25",
        "joined_ship_date": "1877-08-20",
        "joined_at_port": "newcastle",
        "capacity": "ordinary seaman",
        "date_left": "1877-09-19",
        "left_port": "kinsale",
        "cause_of_leaving": "blk",
        "sign_with_mark": "n",
        "notes": "blk"
    },
    {
        "id": "vtls004968353_1_17",
        "type": "sailor",
        "parent": "vtls004968353",
        "name": "james cook",
        "dob": "blk",
        "age": "18",
        "place_of_birth": "colchester",
        "home_address": "blk",
        "f": "blk",
        "name_of_ship": "maria",
        "ship_port": "london",
        "date_leaving": "1877-10-22",
        "joined_ship_date": "1877-10-22",
        "joined_at_port": "milford",
        "capacity": "ordinary seaman",
        "date_left": "1878-04-16",
        "left_port": "porthmadog",
        "cause_of_leaving": "discharged",
        "sign_with_mark": "y",
        "notes": "blk"
    },
    {
        "id": "vtls004968353_1_14",
        "type": "sailor",
        "parent": "vtls004968353",
        "name": "john mckenna",
        "dob": "blk",
        "age": "17",
        "place_of_birth": "liverpool",
        "home_address": "blk",
        "f": "blk",
        "name_of_ship": "millon castle",
        "ship_port": "[barrow]",
        "date_leaving": "1877-04-26",
        "joined_ship_date": "1877-07-22",
        "joined_at_port": "liverpool",
        "capacity": "cook",
        "date_left": "1877-10-22",
        "left_port": "kinsale",
        "cause_of_leaving": "discharged",
        "sign_with_mark": "n",
        "notes": "blk"
    },
    {
        "id": "vtls004968353_1_16",
        "type": "sailor",
        "parent": "vtls004968353",
        "name": "joseph mckarthy",
        "dob": "blk",
        "age": "23",
        "place_of_birth": "kinsale",
        "home_address": "blk",
        "f": "blk",
        "name_of_ship": "[harris] william",
        "ship_port": "blk",
        "date_leaving": "1877-09-25",
        "joined_ship_date": "1877-07-29",
        "joined_at_port": "kinsale",
        "capacity": "able seaman",
        "date_left": "blk",
        "left_port": "newcastle",
        "cause_of_leaving": "deserted",
        "sign_with_mark": "y",
        "notes": "blk"
    },
    {
        "id": "vtls004968405_0_13",
        "type": "sailor",
        "parent": "vtls004968405",
        "name": "john thomas",
        "dob": "blk",
        "age": "23",
        "place_of_birth": "letterstone",
        "home_address": "blk",
        "f": "blk",
        "name_of_ship": "jones bros",
        "ship_port": "blk",
        "date_leaving": "1874",
        "joined_ship_date": "1879-05-02",
        "joined_at_port": "cardiff",
        "capacity": "able seaman",
        "date_left": "1879-10-28",
        "left_port": "plymouth",
        "cause_of_leaving": "discharged",
        "sign_with_mark": "n",
        "notes": "blk"
    },
    {
        "id": "vtls004968405_0_12",
        "type": "sailor",
        "parent": "vtls004968405",
        "name": "william gelling",
        "dob": "blk",
        "age": "22",
        "place_of_birth": "douglas",
        "home_address": "blk",
        "f": "blk",
        "name_of_ship": "swallow",
        "ship_port": "aberystwyth",
        "date_leaving": "1874",
        "joined_ship_date": "1879-05-02",
        "joined_at_port": "cardiff",
        "capacity": "bosun",
        "date_left": "1879-10-28",
        "left_port": "plymouth",
        "cause_of_leaving": "discharged",
        "sign_with_mark": "n",
        "notes": "blk"
    },
    {
        "id": "vtls004968405_0_11",
        "type": "sailor",
        "parent": "vtls004968405",
        "name": "john jones",
        "dob": "blk",
        "age": "41",
        "place_of_birth": "borth, cardigan",
        "home_address": "blk",
        "f": "blk",
        "name_of_ship": "swallow",
        "ship_port": "aberystwyth",
        "date_leaving": "1874",
        "joined_ship_date": "1879-05-02",
        "joined_at_port": "cardiff",
        "capacity": "master",
        "date_left": "blk",
        "left_port": "blk",
        "cause_of_leaving": "remains on board",
        "sign_with_mark": "n",
        "notes": "blk"
    },
    {
        "id": "vtls004968353_1_18",
        "type": "sailor",
        "parent": "vtls004968353",
        "name": "w niwlai",
        "dob": "blk",
        "age": "38",
        "place_of_birth": "rotterdam",
        "home_address": "blk",
        "f": "blk",
        "name_of_ship": "[danae]",
        "ship_port": "blk",
        "date_leaving": "1878",
        "joined_ship_date": "1878-02-01",
        "joined_at_port": "rotterdam",
        "capacity": "mate",
        "date_left": "1878-04-16",
        "left_port": "porthmadog",
        "cause_of_leaving": "discharged",
        "sign_with_mark": "n",
        "notes": "blk"
    },
    {
        "id": "vtls004968405_1_13",
        "type": "sailor",
        "parent": "vtls004968405",
        "name": "alfred blatchford",
        "dob": "blk",
        "age": "25",
        "place_of_birth": "plymouth",
        "home_address": "22 green st, plymouth",
        "f": "22 green st, plymouth",
        "name_of_ship": "london",
        "ship_port": "plymouth",
        "date_leaving": "1879",
        "joined_ship_date": "1879-11-19",
        "joined_at_port": "plymouth",
        "capacity": "able seaman",
        "date_left": "1879-12-04",
        "left_port": "rivadesella",
        "cause_of_leaving": "shipwrecked",
        "sign_with_mark": "n",
        "notes": "(discharged at gijon 1879-12-10)"
    },
    {
        "id": "vtls004968405_1_14",
        "type": "sailor",
        "parent": "vtls004968405",
        "name": "william h blatchford",
        "dob": "blk",
        "age": "26",
        "place_of_birth": "plymouth",
        "home_address": "22 green st, plymouth",
        "f": "22 green st, plymouth",
        "name_of_ship": "[ringalock]",
        "ship_port": "fowey",
        "date_leaving": "1879",
        "joined_ship_date": "1879-11-19",
        "joined_at_port": "plymouth",
        "capacity": "cook",
        "date_left": "1879-12-04",
        "left_port": "rivadesella",
        "cause_of_leaving": "shipwrecked",
        "sign_with_mark": "n",
        "notes": "(discharged at gijon 1879-12-10)"
    },
    {
        "id": "vtls004968405_1_12",
        "type": "sailor",
        "parent": "vtls004968405",
        "name": "w h webber",
        "dob": "blk",
        "age": "29",
        "place_of_birth": "cardiff",
        "home_address": "6 finwell st, plymouth",
        "f": "6 finwell st, plymouth",
        "name_of_ship": "prosperity",
        "ship_port": "[teigmouth]",
        "date_leaving": "1879",
        "joined_ship_date": "1879-11-19",
        "joined_at_port": "plymouth",
        "capacity": "bosun",
        "date_left": "1879-12-04",
        "left_port": "rivadesella",
        "cause_of_leaving": "shipwrecked",
        "sign_with_mark": "n",
        "notes": "(discharged at gijon 1879-12-10)"
    },
    {
        "id": "vtls004968405_0_14",
        "type": "sailor",
        "parent": "vtls004968405",
        "name": "stephen charnley",
        "dob": "blk",
        "age": "15",
        "place_of_birth": "barrow",
        "home_address": "blk",
        "f": "blk",
        "name_of_ship": "swallow",
        "ship_port": "aberystwyth",
        "date_leaving": "1874",
        "joined_ship_date": "1879-05-02",
        "joined_at_port": "cardiff",
        "capacity": "ordinary seaman",
        "date_left": "1879-09-11",
        "left_port": "st. johns",
        "cause_of_leaving": "deserted",
        "sign_with_mark": "n",
        "notes": "blk"
    },
    {
        "id": "vtls004968405_1_11",
        "type": "sailor",
        "parent": "vtls004968405",
        "name": "john jones",
        "dob": "blk",
        "age": "44",
        "place_of_birth": "borth, cardigan",
        "home_address": "blk",
        "f": "blk",
        "name_of_ship": "swallow",
        "ship_port": "aberystwyth",
        "date_leaving": "continues",
        "joined_ship_date": "blk",
        "joined_at_port": "blk",
        "capacity": "master",
        "date_left": "1879-12-04",
        "left_port": "rivadesella",
        "cause_of_leaving": "shipwrecked",
        "sign_with_mark": "n",
        "notes": "blk"
    },
    {
        "id": "vtls004968405_0_15",
        "type": "sailor",
        "parent": "vtls004968405",
        "name": "william stone",
        "dob": "blk",
        "age": "19",
        "place_of_birth": "devon",
        "home_address": "blk",
        "f": "blk",
        "name_of_ship": "spring",
        "ship_port": "blk",
        "date_leaving": "1879",
        "joined_ship_date": "1879-09-11",
        "joined_at_port": "st. john",
        "capacity": "able seaman",
        "date_left": "1879-10-28",
        "left_port": "plymouth",
        "cause_of_leaving": "discharged",
        "sign_with_mark": "n",
        "notes": "blk"
    }
]