[
    {
        "id": "vtls004656089_0_16",
        "type": "sailor",
        "parent": "vtls004656089",
        "name": "john smith",
        "dob": "blk",
        "age": "55",
        "place_of_birth": "new york",
        "home_address": "blk",
        "f": "blk",
        "name_of_ship": "a sutherland",
        "ship_port": "liverpool",
        "date_leaving": "1881",
        "joined_ship_date": "1881-02-03",
        "joined_at_port": "cardiff",
        "capacity": "able seaman",
        "date_left": "1882-$-10",
        "left_port": "trieste, italy",
        "cause_of_leaving": "sick",
        "sign_with_mark": "n",
        "notes": "further information in ship's log book"
    },
    {
        "id": "vtls004656089_0_15",
        "type": "sailor",
        "parent": "vtls004656089",
        "name": "e a lindberg",
        "dob": "blk",
        "age": "21",
        "place_of_birth": "sweden",
        "home_address": "blk",
        "f": "blk",
        "name_of_ship": "ada",
        "ship_port": "truro",
        "date_leaving": "1881",
        "joined_ship_date": "1881-02-03",
        "joined_at_port": "cardiff",
        "capacity": "able seaman",
        "date_left": "1881-10-24",
        "left_port": "savannah",
        "cause_of_leaving": "discharged",
        "sign_with_mark": "n",
        "notes": "further information in ship's log book"
    },
    {
        "id": "vtls004656089_0_14",
        "type": "sailor",
        "parent": "vtls004656089",
        "name": "f thomsen",
        "dob": "blk",
        "age": "39",
        "place_of_birth": "norway",
        "home_address": "blk",
        "f": "blk",
        "name_of_ship": "[satalik]",
        "ship_port": "cardiff",
        "date_leaving": "1881",
        "joined_ship_date": "1881-02-03",
        "joined_at_port": "cardiff",
        "capacity": "cook & steward",
        "date_left": "1882-03-31",
        "left_port": "cardiff",
        "cause_of_leaving": "discharged",
        "sign_with_mark": "n",
        "notes": "blk"
    },
    {
        "id": "vtls004656089_0_13",
        "type": "sailor",
        "parent": "vtls004656089",
        "name": "david rees",
        "dob": "blk",
        "age": "19",
        "place_of_birth": "aberaeron",
        "home_address": "blk",
        "f": "blk",
        "name_of_ship": "[trion fleak]",
        "ship_port": "runcorn",
        "date_leaving": "1881",
        "joined_ship_date": "1881-02-03",
        "joined_at_port": "cardiff",
        "capacity": "boatswain",
        "date_left": "1881-12-05",
        "left_port": "trieste, italy",
        "cause_of_leaving": "deserted",
        "sign_with_mark": "n",
        "notes": "blk"
    },
    {
        "id": "vtls004656089_0_12",
        "type": "sailor",
        "parent": "vtls004656089",
        "name": "edward j robertson",
        "dob": "blk",
        "age": "30",
        "place_of_birth": "aberaeron",
        "home_address": "blk",
        "f": "blk",
        "name_of_ship": "m lyne",
        "ship_port": "[new york]",
        "date_leaving": "1881",
        "joined_ship_date": "1881-02-03",
        "joined_at_port": "cardiff",
        "capacity": "mate",
        "date_left": "1882-03-31",
        "left_port": "cardiff",
        "cause_of_leaving": "discharged",
        "sign_with_mark": "n",
        "notes": "blk"
    },
    {
        "id": "vtls004656089_0_11",
        "type": "sailor",
        "parent": "vtls004656089",
        "name": "david thomas",
        "dob": "blk",
        "age": "36",
        "place_of_birth": "aberaeron",
        "home_address": "blk",
        "f": "blk",
        "name_of_ship": "same ship",
        "ship_port": "blk",
        "date_leaving": "1881",
        "joined_ship_date": "1881-02-03",
        "joined_at_port": "cardiff",
        "capacity": "master",
        "date_left": "1881-12-30",
        "left_port": "trieste, italy",
        "cause_of_leaving": "$",
        "sign_with_mark": "n",
        "notes": "blk"
    },
    {
        "id": "vtls004656089_0_19",
        "type": "sailor",
        "parent": "vtls004656089",
        "name": "william williams",
        "dob": "blk",
        "age": "21",
        "place_of_birth": "guernsey",
        "home_address": "blk",
        "f": "blk",
        "name_of_ship": "minnie carmichael",
        "ship_port": "charlottetown prince edward island",
        "date_leaving": "1881",
        "joined_ship_date": "1881-02-03",
        "joined_at_port": "cardiff",
        "capacity": "ordinary seaman",
        "date_left": "1882-03-31",
        "left_port": "cardiff",
        "cause_of_leaving": "deserted",
        "sign_with_mark": "y",
        "notes": "blk"
    },
    {
        "id": "vtls004656089_0_23",
        "type": "sailor",
        "parent": "vtls004656089",
        "name": "james yellop",
        "dob": "blk",
        "age": "20",
        "place_of_birth": "boston",
        "home_address": "blk",
        "f": "blk",
        "name_of_ship": "foreign ship",
        "ship_port": "blk",
        "date_leaving": "1881",
        "joined_ship_date": "1881-10-25",
        "joined_at_port": "savannah",
        "capacity": "able seaman",
        "date_left": "1882-01-11",
        "left_port": "trieste, italy",
        "cause_of_leaving": "sick",
        "sign_with_mark": "n",
        "notes": "may be 'jellop'. further information in ship's log book"
    },
    {
        "id": "vtls004656089_0_18",
        "type": "sailor",
        "parent": "vtls004656089",
        "name": "william vincent",
        "dob": "blk",
        "age": "23",
        "place_of_birth": "towr$$",
        "home_address": "blk",
        "f": "blk",
        "name_of_ship": "i owens",
        "ship_port": "aberdovey",
        "date_leaving": "1881",
        "joined_ship_date": "1881-02-03",
        "joined_at_port": "cardiff",
        "capacity": "ordinary seaman",
        "date_left": "1882-01-10",
        "left_port": "trieste, italy",
        "cause_of_leaving": "sick",
        "sign_with_mark": "n",
        "notes": "further information in ship's log book"
    },
    {
        "id": "vtls004656089_0_26",
        "type": "sailor",
        "parent": "vtls004656089",
        "name": "frank kiffert",
        "dob": "blk",
        "age": "42",
        "place_of_birth": "norway",
        "home_address": "blk",
        "f": "blk",
        "name_of_ship": "[hectanooga]",
        "ship_port": "[yarmouth ns]",
        "date_leaving": "1881",
        "joined_ship_date": "1882-01-04",
        "joined_at_port": "trieste",
        "capacity": "boatswain",
        "date_left": "1882-03-31",
        "left_port": "cardiff",
        "cause_of_leaving": "discharged",
        "sign_with_mark": "n",
        "notes": "blk"
    },
    {
        "id": "vtls004656089_0_22",
        "type": "sailor",
        "parent": "vtls004656089",
        "name": "eugene roussel",
        "dob": "blk",
        "age": "17",
        "place_of_birth": "paris",
        "home_address": "blk",
        "f": "blk",
        "name_of_ship": "frank carvil",
        "ship_port": "liverpool",
        "date_leaving": "1881",
        "joined_ship_date": "1881-02-06",
        "joined_at_port": "cardiff",
        "capacity": "ordinary seaman",
        "date_left": "1882-01-11",
        "left_port": "savannah",
        "cause_of_leaving": "deserted",
        "sign_with_mark": "n",
        "notes": "blk"
    },
    {
        "id": "vtls004656089_0_24",
        "type": "sailor",
        "parent": "vtls004656089",
        "name": "benjamin watson",
        "dob": "blk",
        "age": "22",
        "place_of_birth": "california",
        "home_address": "blk",
        "f": "blk",
        "name_of_ship": "foreign ship",
        "ship_port": "blk",
        "date_leaving": "1881",
        "joined_ship_date": "1881-10-25",
        "joined_at_port": "savannah",
        "capacity": "able seaman",
        "date_left": "1882-03-31",
        "left_port": "cardiff",
        "cause_of_leaving": "discharged",
        "sign_with_mark": "y",
        "notes": "blk"
    },
    {
        "id": "vtls004656089_0_20",
        "type": "sailor",
        "parent": "vtls004656089",
        "name": "charles buchan",
        "dob": "blk",
        "age": "24",
        "place_of_birth": "chester",
        "home_address": "blk",
        "f": "blk",
        "name_of_ship": "w. castle",
        "ship_port": "london",
        "date_leaving": "1881",
        "joined_ship_date": "1881-02-03",
        "joined_at_port": "cardiff",
        "capacity": "ordinary seaman",
        "date_left": "1881-10-10",
        "left_port": "savannah",
        "cause_of_leaving": "deserted",
        "sign_with_mark": "n",
        "notes": "blk"
    },
    {
        "id": "vtls004656089_0_25",
        "type": "sailor",
        "parent": "vtls004656089",
        "name": "evan jones",
        "dob": "blk",
        "age": "47",
        "place_of_birth": "cardigan",
        "home_address": "blk",
        "f": "blk",
        "name_of_ship": "chieftain",
        "ship_port": "[inverness]",
        "date_leaving": "1881",
        "joined_ship_date": "1881-12-30",
        "joined_at_port": "trieste",
        "capacity": "master",
        "date_left": "1882-03-31",
        "left_port": "cardiff",
        "cause_of_leaving": "discharged",
        "sign_with_mark": "n",
        "notes": "blk"
    },
    {
        "id": "vtls004656089_0_17",
        "type": "sailor",
        "parent": "vtls004656089",
        "name": "hugh williams",
        "dob": "blk",
        "age": "31",
        "place_of_birth": "$",
        "home_address": "blk",
        "f": "blk",
        "name_of_ship": "islander",
        "ship_port": "liverpool",
        "date_leaving": "1881",
        "joined_ship_date": "1881-02-03",
        "joined_at_port": "cardiff",
        "capacity": "able seaman",
        "date_left": "1881-02-06",
        "left_port": "cardiff",
        "cause_of_leaving": "never joined",
        "sign_with_mark": "n",
        "notes": "blk"
    },
    {
        "id": "vtls004656089_0_21",
        "type": "sailor",
        "parent": "vtls004656089",
        "name": "david evans",
        "dob": "blk",
        "age": "14",
        "place_of_birth": "aberaeron",
        "home_address": "blk",
        "f": "blk",
        "name_of_ship": "commerce",
        "ship_port": "aberayron",
        "date_leaving": "1881",
        "joined_ship_date": "1881-02-03",
        "joined_at_port": "cardiff",
        "capacity": "boy",
        "date_left": "1882-03-31",
        "left_port": "cardiff",
        "cause_of_leaving": "discharged",
        "sign_with_mark": "n",
        "notes": "blk"
    },
    {
        "id": "vtls004656089_0_28",
        "type": "sailor",
        "parent": "vtls004656089",
        "name": "michal anderson",
        "dob": "blk",
        "age": "38",
        "place_of_birth": "russia",
        "home_address": "blk",
        "f": "blk",
        "name_of_ship": "foreign",
        "ship_port": "blk",
        "date_leaving": "1881",
        "joined_ship_date": "1882-01-11",
        "joined_at_port": "trieste",
        "capacity": "ordinary seaman",
        "date_left": "1882-02-22",
        "left_port": "bordeaux",
        "cause_of_leaving": "discharged",
        "sign_with_mark": "y",
        "notes": "further information in ship's log book"
    },
    {
        "id": "vtls004656089_0_27",
        "type": "sailor",
        "parent": "vtls004656089",
        "name": "malcolm moffat",
        "dob": "blk",
        "age": "36",
        "place_of_birth": "scotland",
        "home_address": "blk",
        "f": "blk",
        "name_of_ship": "william cochrane",
        "ship_port": "dorchester nb",
        "date_leaving": "1881",
        "joined_ship_date": "1882-01-10",
        "joined_at_port": "trieste",
        "capacity": "ordinary seaman",
        "date_left": "1882-03-31",
        "left_port": "cardiff",
        "cause_of_leaving": "discharged",
        "sign_with_mark": "n",
        "notes": "blk"
    },
    {
        "id": "vtls004656089_0_30",
        "type": "sailor",
        "parent": "vtls004656089",
        "name": "otto siclaff",
        "dob": "blk",
        "age": "24",
        "place_of_birth": "germany",
        "home_address": "blk",
        "f": "blk",
        "name_of_ship": "harry douglas",
        "ship_port": "[weymouth ns]",
        "date_leaving": "1882",
        "joined_ship_date": "1882-02-27",
        "joined_at_port": "bordeaux",
        "capacity": "able seaman",
        "date_left": "1882-03-31",
        "left_port": "cardiff",
        "cause_of_leaving": "discharged",
        "sign_with_mark": "n",
        "notes": "blk"
    },
    {
        "id": "vtls004656089_1_14",
        "type": "sailor",
        "parent": "vtls004656089",
        "name": "james robertson",
        "dob": "blk",
        "age": "23",
        "place_of_birth": "aberaeron",
        "home_address": "blk",
        "f": "blk",
        "name_of_ship": "xanthippe",
        "ship_port": "aberystwyth",
        "date_leaving": "1882",
        "joined_ship_date": "1882-04-25",
        "joined_at_port": "cardiff",
        "capacity": "able seaman",
        "date_left": "1883-04-17",
        "left_port": "exmouth",
        "cause_of_leaving": "discharged",
        "sign_with_mark": "n",
        "notes": "blk"
    },
    {
        "id": "vtls004656089_1_15",
        "type": "sailor",
        "parent": "vtls004656089",
        "name": "henry miller",
        "dob": "blk",
        "age": "45",
        "place_of_birth": "east cowes",
        "home_address": "blk",
        "f": "blk",
        "name_of_ship": "europe",
        "ship_port": "sunderland",
        "date_leaving": "1882",
        "joined_ship_date": "1882-04-25",
        "joined_at_port": "cardiff",
        "capacity": "cook & steward",
        "date_left": "1883-04-17",
        "left_port": "exmouth",
        "cause_of_leaving": "discharged",
        "sign_with_mark": "n",
        "notes": "blk"
    },
    {
        "id": "vtls004656089_1_13",
        "type": "sailor",
        "parent": "vtls004656089",
        "name": "thomas jones",
        "dob": "blk",
        "age": "23",
        "place_of_birth": "aberaeron",
        "home_address": "blk",
        "f": "blk",
        "name_of_ship": "xanthippe",
        "ship_port": "aberystwyth",
        "date_leaving": "1882",
        "joined_ship_date": "1882-04-25",
        "joined_at_port": "cardiff",
        "capacity": "boatswain",
        "date_left": "1883-04-17",
        "left_port": "exmouth",
        "cause_of_leaving": "discharged",
        "sign_with_mark": "n",
        "notes": "blk"
    },
    {
        "id": "vtls004656089_0_29",
        "type": "sailor",
        "parent": "vtls004656089",
        "name": "romeo raffaele",
        "dob": "blk",
        "age": "45",
        "place_of_birth": "austria",
        "home_address": "blk",
        "f": "blk",
        "name_of_ship": "foreign",
        "ship_port": "blk",
        "date_leaving": "1881",
        "joined_ship_date": "1882-01-11",
        "joined_at_port": "trieste",
        "capacity": "able seaman",
        "date_left": "1882-03-31",
        "left_port": "cardiff",
        "cause_of_leaving": "discharged",
        "sign_with_mark": "y",
        "notes": "blk"
    },
    {
        "id": "vtls004656089_1_12",
        "type": "sailor",
        "parent": "vtls004656089",
        "name": "e j robertson",
        "dob": "blk",
        "age": "31",
        "place_of_birth": "aberaeron",
        "home_address": "blk",
        "f": "blk",
        "name_of_ship": "same ship",
        "ship_port": "blk",
        "date_leaving": "1882",
        "joined_ship_date": "1882-04-25",
        "joined_at_port": "cardiff",
        "capacity": "mate",
        "date_left": "1883-04-19",
        "left_port": "exmouth",
        "cause_of_leaving": "discharged",
        "sign_with_mark": "n",
        "notes": "blk"
    },
    {
        "id": "vtls004656089_1_11",
        "type": "sailor",
        "parent": "vtls004656089",
        "name": "evan jones",
        "dob": "blk",
        "age": "47",
        "place_of_birth": "aberaeron",
        "home_address": "aberayron",
        "f": "aberayron",
        "name_of_ship": "same ship",
        "ship_port": "blk",
        "date_leaving": "1882",
        "joined_ship_date": "1882-04-25",
        "joined_at_port": "cardiff",
        "capacity": "master",
        "date_left": "blk",
        "left_port": "blk",
        "cause_of_leaving": "remains on board",
        "sign_with_mark": "n",
        "notes": "blk"
    },
    {
        "id": "vtls004656097_0_11",
        "type": "sailor",
        "parent": "vtls004656097",
        "name": "evan jones",
        "dob": "blk",
        "age": "48",
        "place_of_birth": "aberaeron",
        "home_address": "blk",
        "f": "blk",
        "name_of_ship": "ella",
        "ship_port": "aberystwyth",
        "date_leaving": "blk",
        "joined_ship_date": "1883-05-22",
        "joined_at_port": "cardiff",
        "capacity": "master",
        "date_left": "blk",
        "left_port": "blk",
        "cause_of_leaving": "remains on board",
        "sign_with_mark": "n",
        "notes": "certificate no: 20704. ship owner: jno. davies, aberyaron. voyage from cardiff to bahia [state in brazil], new york, rio de janeiro, barbados, savannah and south shields. journey statement notes that st. paulo de loanda was the intended destination (luanda, angola). forms for transmission of seamen's wages including john forrest, george henry ley, james williams and apostle george."
    },
    {
        "id": "vtls004656089_1_20",
        "type": "sailor",
        "parent": "vtls004656089",
        "name": "richard william lewis",
        "dob": "blk",
        "age": "15",
        "place_of_birth": "aberaeron",
        "home_address": "blk",
        "f": "blk",
        "name_of_ship": "[s} constance",
        "ship_port": "liverpool",
        "date_leaving": "1882",
        "joined_ship_date": "1882-04-25",
        "joined_at_port": "cardiff",
        "capacity": "ordinary seaman",
        "date_left": "1883-04-17",
        "left_port": "exmouth",
        "cause_of_leaving": "discharged",
        "sign_with_mark": "n",
        "notes": "blk"
    },
    {
        "id": "vtls004656089_1_18",
        "type": "sailor",
        "parent": "vtls004656089",
        "name": "john rees",
        "dob": "blk",
        "age": "18",
        "place_of_birth": "aberaeron",
        "home_address": "blk",
        "f": "blk",
        "name_of_ship": "madonna",
        "ship_port": "aberystwyth",
        "date_leaving": "1882",
        "joined_ship_date": "1882-04-25",
        "joined_at_port": "cardiff",
        "capacity": "ordinary seaman",
        "date_left": "1883-04-17",
        "left_port": "exmouth",
        "cause_of_leaving": "discharged",
        "sign_with_mark": "n",
        "notes": "blk"
    },
    {
        "id": "vtls004656089_1_19",
        "type": "sailor",
        "parent": "vtls004656089",
        "name": "david enoch",
        "dob": "blk",
        "age": "18",
        "place_of_birth": "aberaeron",
        "home_address": "blk",
        "f": "blk",
        "name_of_ship": "blk",
        "ship_port": "aberystwyth",
        "date_leaving": "1882",
        "joined_ship_date": "1882-04-25",
        "joined_at_port": "cardiff",
        "capacity": "ordinary seaman",
        "date_left": "1883-04-17",
        "left_port": "exmouth",
        "cause_of_leaving": "discharged",
        "sign_with_mark": "n",
        "notes": "blk"
    },
    {
        "id": "vtls004656089_1_16",
        "type": "sailor",
        "parent": "vtls004656089",
        "name": "john wilson",
        "dob": "blk",
        "age": "29",
        "place_of_birth": "stockholm",
        "home_address": "blk",
        "f": "blk",
        "name_of_ship": "[hyperlick]",
        "ship_port": "london",
        "date_leaving": "1882",
        "joined_ship_date": "1882-04-25",
        "joined_at_port": "cardiff",
        "capacity": "able seaman",
        "date_left": "1883-04-17",
        "left_port": "exmouth",
        "cause_of_leaving": "discharged",
        "sign_with_mark": "n",
        "notes": "blk"
    },
    {
        "id": "vtls004656089_1_21",
        "type": "sailor",
        "parent": "vtls004656089",
        "name": "james griffith",
        "dob": "blk",
        "age": "58",
        "place_of_birth": "fishguard",
        "home_address": "blk",
        "f": "blk",
        "name_of_ship": "samuel",
        "ship_port": "blk",
        "date_leaving": "1882",
        "joined_ship_date": "1882-05-01",
        "joined_at_port": "penarth",
        "capacity": "able seaman",
        "date_left": "1883-04-17",
        "left_port": "exmouth",
        "cause_of_leaving": "discharged",
        "sign_with_mark": "n",
        "notes": "blk"
    },
    {
        "id": "vtls004656089_1_17",
        "type": "sailor",
        "parent": "vtls004656089",
        "name": "thomas esau",
        "dob": "blk",
        "age": "39",
        "place_of_birth": "cardigan",
        "home_address": "blk",
        "f": "blk",
        "name_of_ship": "rose",
        "ship_port": "cardiff",
        "date_leaving": "1882",
        "joined_ship_date": "1882-04-25",
        "joined_at_port": "cardiff",
        "capacity": "able seaman",
        "date_left": "1883-04-17",
        "left_port": "exmouth",
        "cause_of_leaving": "discharged",
        "sign_with_mark": "n",
        "notes": "blk"
    },
    {
        "id": "vtls004656097_0_14",
        "type": "sailor",
        "parent": "vtls004656097",
        "name": "walter hayes",
        "dob": "blk",
        "age": "21",
        "place_of_birth": "scarborough",
        "home_address": "blk",
        "f": "blk",
        "name_of_ship": "e goudie",
        "ship_port": "yarmouth",
        "date_leaving": "blk",
        "joined_ship_date": "1883-05-22",
        "joined_at_port": "cardiff",
        "capacity": "cook & steward",
        "date_left": "1883-10-26",
        "left_port": "bahia",
        "cause_of_leaving": "sickness",
        "sign_with_mark": "n",
        "notes": "several ships named goudey were registered in yarmouth, nova scotia in the 1880s including a goudey, annie goudey, ellen goudey, hattie goudey, i h goudey, zebina goudey."
    },
    {
        "id": "vtls004656097_0_18",
        "type": "sailor",
        "parent": "vtls004656097",
        "name": "william ballantine",
        "dob": "blk",
        "age": "19",
        "place_of_birth": "belfast",
        "home_address": "blk",
        "f": "blk",
        "name_of_ship": "hudson",
        "ship_port": "[ips]",
        "date_leaving": "blk",
        "joined_ship_date": "1883-05-22",
        "joined_at_port": "cardiff",
        "capacity": "ordinary seaman",
        "date_left": "1883-10-18",
        "left_port": "bahia",
        "cause_of_leaving": "mutual consent",
        "sign_with_mark": "y",
        "notes": "last ship, hudson, may be registered in ipswich, west hartlepool and southampton as the name of port is not clear."
    },
    {
        "id": "vtls004656097_0_12",
        "type": "sailor",
        "parent": "vtls004656097",
        "name": "john isaac",
        "dob": "blk",
        "age": "50",
        "place_of_birth": "newport, mon.",
        "home_address": "blk",
        "f": "blk",
        "name_of_ship": "jersey",
        "ship_port": "liverpool",
        "date_leaving": "blk",
        "joined_ship_date": "1883-05-22",
        "joined_at_port": "cardiff",
        "capacity": "mate",
        "date_left": "1884-01-29",
        "left_port": "new york",
        "cause_of_leaving": "discharged",
        "sign_with_mark": "n",
        "notes": "certificate no: 93.576. ships called jersey were registered in cardiff and jersey in 1883. place of birth is newport, pembrokeshire."
    },
    {
        "id": "vtls004656097_0_15",
        "type": "sailor",
        "parent": "vtls004656097",
        "name": "william borner",
        "dob": "blk",
        "age": "28",
        "place_of_birth": "liverpool",
        "home_address": "blk",
        "f": "blk",
        "name_of_ship": "k. of patrick",
        "ship_port": "liverpool",
        "date_leaving": "blk",
        "joined_ship_date": "1883-05-22",
        "joined_at_port": "cardiff",
        "capacity": "able seaman",
        "date_left": "1884-01-26",
        "left_port": "new york",
        "cause_of_leaving": "discharged",
        "sign_with_mark": "y",
        "notes": "last ship probably knight of st patrick, registered in liverpool 1881."
    },
    {
        "id": "vtls004656097_0_19",
        "type": "sailor",
        "parent": "vtls004656097",
        "name": "john forrest",
        "dob": "blk",
        "age": "17",
        "place_of_birth": "inv$ rary argyle",
        "home_address": "blk",
        "f": "blk",
        "name_of_ship": "cuba",
        "ship_port": "dundee",
        "date_leaving": "blk",
        "joined_ship_date": "1883-05-22",
        "joined_at_port": "cardiff",
        "capacity": "ordinary seaman",
        "date_left": "1884-10-02",
        "left_port": "south shields",
        "cause_of_leaving": "discharged",
        "sign_with_mark": "n",
        "notes": "place of birth could also read: inbs hony or subs rory\/hony."
    },
    {
        "id": "vtls004656097_0_17",
        "type": "sailor",
        "parent": "vtls004656097",
        "name": "robert laidlaw",
        "dob": "blk",
        "age": "32",
        "place_of_birth": "edinburgh",
        "home_address": "blk",
        "f": "blk",
        "name_of_ship": "[corsarla]",
        "ship_port": "london",
        "date_leaving": "blk",
        "joined_ship_date": "1883-05-22",
        "joined_at_port": "cardiff",
        "capacity": "able seaman",
        "date_left": "1883-10-26",
        "left_port": "bahia",
        "cause_of_leaving": "sickness",
        "sign_with_mark": "n",
        "notes": "no record for corsarla found. ship name could be corsanda, corsande, corsarle."
    },
    {
        "id": "vtls004656097_0_21",
        "type": "sailor",
        "parent": "vtls004656097",
        "name": "cosmo spinelli",
        "dob": "blk",
        "age": "20",
        "place_of_birth": "naples",
        "home_address": "blk",
        "f": "blk",
        "name_of_ship": "carniola",
        "ship_port": "digby ns",
        "date_leaving": "blk",
        "joined_ship_date": "1883-05-23",
        "joined_at_port": "cardiff",
        "capacity": "able seaman",
        "date_left": "1884-01-26",
        "left_port": "new york",
        "cause_of_leaving": "discharged",
        "sign_with_mark": "n",
        "notes": "carniola was registered at digby, nova scotia."
    },
    {
        "id": "vtls004656097_0_13",
        "type": "sailor",
        "parent": "vtls004656097",
        "name": "evan harris",
        "dob": "blk",
        "age": "24",
        "place_of_birth": "aberaeron",
        "home_address": "blk",
        "f": "blk",
        "name_of_ship": "cyfarthfa",
        "ship_port": "blk",
        "date_leaving": "blk",
        "joined_ship_date": "1883-05-22",
        "joined_at_port": "cardiff",
        "capacity": "boatswain",
        "date_left": "1884-01-28",
        "left_port": "new york",
        "cause_of_leaving": "discharged",
        "sign_with_mark": "n",
        "notes": "cyfarthfa was registered in cardiff."
    },
    {
        "id": "vtls004656097_0_20",
        "type": "sailor",
        "parent": "vtls004656097",
        "name": "evan jones",
        "dob": "blk",
        "age": "12",
        "place_of_birth": "aberaeron",
        "home_address": "blk",
        "f": "blk",
        "name_of_ship": "first ship",
        "ship_port": "blk",
        "date_leaving": "blk",
        "joined_ship_date": "1883-05-23",
        "joined_at_port": "cardiff",
        "capacity": "ordinary seaman",
        "date_left": "1884-10-02",
        "left_port": "south shields",
        "cause_of_leaving": "discharged",
        "sign_with_mark": "n",
        "notes": "blk"
    },
    {
        "id": "vtls004656097_0_16",
        "type": "sailor",
        "parent": "vtls004656097",
        "name": "adam carling",
        "dob": "blk",
        "age": "57",
        "place_of_birth": "maryport",
        "home_address": "blk",
        "f": "blk",
        "name_of_ship": "cuba",
        "ship_port": "dundee",
        "date_leaving": "blk",
        "joined_ship_date": "1883-05-22",
        "joined_at_port": "cardiff",
        "capacity": "able seaman",
        "date_left": "1884-01-11",
        "left_port": "new york",
        "cause_of_leaving": "discharged",
        "sign_with_mark": "n",
        "notes": "blk"
    },
    {
        "id": "vtls004656097_0_24",
        "type": "sailor",
        "parent": "vtls004656097",
        "name": "david singleton",
        "dob": "blk",
        "age": "20",
        "place_of_birth": "kidwelly",
        "home_address": "blk",
        "f": "blk",
        "name_of_ship": "elta",
        "ship_port": "swansea",
        "date_leaving": "1883",
        "joined_ship_date": "1883-10-19",
        "joined_at_port": "bahia",
        "capacity": "cook & steward",
        "date_left": "1884-08-07",
        "left_port": "tybee",
        "cause_of_leaving": "drowned",
        "sign_with_mark": "n",
        "notes": "note under certificates: 'david singleton (cook & std) line 14. appears to have been accidentally drowned at tybee while bathing. have no cause to doubt the master's report.' signed by n welsh, m. m. office, north shields. tybee is an island on the coast of georgia, usa. note: '(w & e safe herewith)'."
    },
    {
        "id": "vtls004656097_0_28",
        "type": "sailor",
        "parent": "vtls004656097",
        "name": "antonio fernandes",
        "dob": "blk",
        "age": "25",
        "place_of_birth": "lisbon",
        "home_address": "blk",
        "f": "blk",
        "name_of_ship": "centenniel",
        "ship_port": "amer",
        "date_leaving": "1884",
        "joined_ship_date": "1884-02-02",
        "joined_at_port": "new york",
        "capacity": "able seaman",
        "date_left": "1884-04-29",
        "left_port": "rio",
        "cause_of_leaving": "mutual consent",
        "sign_with_mark": "n",
        "notes": "no centenniel found although centen(nial)s registered at st andrews (new brunswick), port medway (nova scotia), st catherine's (ontario), sydney (cape breton island) and st john (new brunswick) in the 1880s. location of amer\/amen\/arnen\/arner unknown."
    },
    {
        "id": "vtls004656097_0_29",
        "type": "sailor",
        "parent": "vtls004656097",
        "name": "joseph dunn",
        "dob": "blk",
        "age": "25",
        "place_of_birth": "wexford",
        "home_address": "blk",
        "f": "blk",
        "name_of_ship": "john e chase",
        "ship_port": "arner",
        "date_leaving": "1884",
        "joined_ship_date": "1884-02-02",
        "joined_at_port": "new york",
        "capacity": "able seaman",
        "date_left": "1884-05-19",
        "left_port": "rio",
        "cause_of_leaving": "deserted",
        "sign_with_mark": "n",
        "notes": "a ship called j f chase was registered at port of spain, trinidad in 1886, otherwise ship may be foreign. location of arner\/arnen\/amer unknown. note under 'certificates' - joseph dunn's desertion was recorded in the official log book."
    },
    {
        "id": "vtls004656097_0_26",
        "type": "sailor",
        "parent": "vtls004656097",
        "name": "james williams",
        "dob": "blk",
        "age": "27",
        "place_of_birth": "plymouth",
        "home_address": "blk",
        "f": "blk",
        "name_of_ship": "cambusdoon",
        "ship_port": "st. john nb.",
        "date_leaving": "1884",
        "joined_ship_date": "1884-01-31",
        "joined_at_port": "new york",
        "capacity": "bosun",
        "date_left": "1884-10-12",
        "left_port": "south shields",
        "cause_of_leaving": "discharged",
        "sign_with_mark": "n",
        "notes": "cambusdoon was registered in st john, new brunswick. note: (transmission scheme)"
    },
    {
        "id": "vtls004656097_0_27",
        "type": "sailor",
        "parent": "vtls004656097",
        "name": "jas thomson",
        "dob": "blk",
        "age": "40",
        "place_of_birth": "saltcoats",
        "home_address": "blk",
        "f": "blk",
        "name_of_ship": "ida c",
        "ship_port": "bermuda",
        "date_leaving": "1884",
        "joined_ship_date": "1884-02-02",
        "joined_at_port": "new york",
        "capacity": "able seaman",
        "date_left": "blk",
        "left_port": "blk",
        "cause_of_leaving": "not joined",
        "sign_with_mark": "n",
        "notes": "place of birth is saltcoats, scotland. ida c was registered at hampton, bermuda."
    },
    {
        "id": "vtls004656097_0_22",
        "type": "sailor",
        "parent": "vtls004656097",
        "name": "charles smith",
        "dob": "blk",
        "age": "33",
        "place_of_birth": "finland",
        "home_address": "blk",
        "f": "blk",
        "name_of_ship": "ceylon",
        "ship_port": "windsor n\/s",
        "date_leaving": "1883",
        "joined_ship_date": "1883-10-15",
        "joined_at_port": "bahia",
        "capacity": "able seaman",
        "date_left": "1884-01-26",
        "left_port": "new york",
        "cause_of_leaving": "discharged",
        "sign_with_mark": "y",
        "notes": "ceylon was registered in windsor, nova scotia."
    },
    {
        "id": "vtls004656097_0_30",
        "type": "sailor",
        "parent": "vtls004656097",
        "name": "thomas duggan",
        "dob": "blk",
        "age": "37",
        "place_of_birth": "liverpool",
        "home_address": "blk",
        "f": "blk",
        "name_of_ship": "palamaris",
        "ship_port": "n. shields",
        "date_leaving": "1884",
        "joined_ship_date": "1884-02-02",
        "joined_at_port": "new york",
        "capacity": "able seaman",
        "date_left": "1884-07-07",
        "left_port": "barbados",
        "cause_of_leaving": "sickness",
        "sign_with_mark": "n",
        "notes": "no record for palamaris found."
    },
    {
        "id": "vtls004656097_0_23",
        "type": "sailor",
        "parent": "vtls004656097",
        "name": "george henry ley",
        "dob": "blk",
        "age": "17",
        "place_of_birth": "swansea",
        "home_address": "blk",
        "f": "blk",
        "name_of_ship": "elta",
        "ship_port": "swansea",
        "date_leaving": "1883",
        "joined_ship_date": "1883-10-19",
        "joined_at_port": "bahia",
        "capacity": "ordinary seaman",
        "date_left": "1884-10-02",
        "left_port": "south shields",
        "cause_of_leaving": "discharged",
        "sign_with_mark": "n",
        "notes": "blk"
    },
    {
        "id": "vtls004656097_0_25",
        "type": "sailor",
        "parent": "vtls004656097",
        "name": "evan harris",
        "dob": "blk",
        "age": "25",
        "place_of_birth": "wales",
        "home_address": "blk",
        "f": "blk",
        "name_of_ship": "ella",
        "ship_port": "aberystwyth",
        "date_leaving": "1884",
        "joined_ship_date": "1884-01-29",
        "joined_at_port": "new york",
        "capacity": "mate",
        "date_left": "1884-10-12",
        "left_port": "south shields",
        "cause_of_leaving": "discharged",
        "sign_with_mark": "n",
        "notes": "blk"
    },
    {
        "id": "vtls004656097_0_34",
        "type": "sailor",
        "parent": "vtls004656097",
        "name": "isael vangorin",
        "dob": "blk",
        "age": "30",
        "place_of_birth": "antigua",
        "home_address": "blk",
        "f": "blk",
        "name_of_ship": "mondego",
        "ship_port": "blk",
        "date_leaving": "blk",
        "joined_ship_date": "1884-05-23",
        "joined_at_port": "rio",
        "capacity": "able seaman",
        "date_left": "1884-08-21",
        "left_port": "savannah",
        "cause_of_leaving": "discharged",
        "sign_with_mark": "y",
        "notes": "a ship called mondego was registered in glasgow 1881. release signature reads: israel vangorin."
    },
    {
        "id": "vtls004656097_0_33",
        "type": "sailor",
        "parent": "vtls004656097",
        "name": "charles herbline",
        "dob": "blk",
        "age": "34",
        "place_of_birth": "france",
        "home_address": "blk",
        "f": "blk",
        "name_of_ship": "prince regent",
        "ship_port": "blk",
        "date_leaving": "blk",
        "joined_ship_date": "1884-05-21",
        "joined_at_port": "rio",
        "capacity": "able seaman",
        "date_left": "1884-08-21",
        "left_port": "savannah",
        "cause_of_leaving": "discharged",
        "sign_with_mark": "n",
        "notes": "a prince regent was registered at st john, new brunswick 1880."
    },
    {
        "id": "vtls004656097_0_35",
        "type": "sailor",
        "parent": "vtls004656097",
        "name": "charles scott",
        "dob": "blk",
        "age": "30",
        "place_of_birth": "waterford",
        "home_address": "blk",
        "f": "blk",
        "name_of_ship": "s. s. jenetti",
        "ship_port": "blk",
        "date_leaving": "blk",
        "joined_ship_date": "1884-05-23",
        "joined_at_port": "rio",
        "capacity": "able seaman",
        "date_left": "1884-08-21",
        "left_port": "savannah",
        "cause_of_leaving": "discharged",
        "sign_with_mark": "n",
        "notes": "no record for jenetti or similar found in registered ships."
    },
    {
        "id": "vtls004656097_0_36",
        "type": "sailor",
        "parent": "vtls004656097",
        "name": "james west",
        "dob": "blk",
        "age": "35",
        "place_of_birth": "portsmouth",
        "home_address": "blk",
        "f": "blk",
        "name_of_ship": "british peer",
        "ship_port": "blk",
        "date_leaving": "1884",
        "joined_ship_date": "1884-07-07",
        "joined_at_port": "barbados",
        "capacity": "able seaman",
        "date_left": "1884-08-21",
        "left_port": "savannah",
        "cause_of_leaving": "discharged",
        "sign_with_mark": "n",
        "notes": "british peer was registered in liverpool 1880."
    },
    {
        "id": "vtls004656097_0_32",
        "type": "sailor",
        "parent": "vtls004656097",
        "name": "johan jokansan",
        "dob": "blk",
        "age": "22",
        "place_of_birth": "cardiff",
        "home_address": "blk",
        "f": "blk",
        "name_of_ship": "biela",
        "ship_port": "blk",
        "date_leaving": "blk",
        "joined_ship_date": "1884-05-15",
        "joined_at_port": "rio",
        "capacity": "able seaman",
        "date_left": "blk",
        "left_port": "blk",
        "cause_of_leaving": "not joined",
        "sign_with_mark": "n",
        "notes": "biela was registered in liverpool 1880 as was bida (alternative reading)."
    },
    {
        "id": "vtls004656097_0_37",
        "type": "sailor",
        "parent": "vtls004656097",
        "name": "apostle george",
        "dob": "blk",
        "age": "37",
        "place_of_birth": "greece",
        "home_address": "blk",
        "f": "blk",
        "name_of_ship": "italian ship",
        "ship_port": "blk",
        "date_leaving": "1884",
        "joined_ship_date": "1884-08-18",
        "joined_at_port": "savannah",
        "capacity": "able seaman",
        "date_left": "1884-10-02",
        "left_port": "south shields",
        "cause_of_leaving": "discharged",
        "sign_with_mark": "y",
        "notes": "blk"
    },
    {
        "id": "vtls004656097_0_38",
        "type": "sailor",
        "parent": "vtls004656097",
        "name": "jack star",
        "dob": "blk",
        "age": "22",
        "place_of_birth": "united states",
        "home_address": "blk",
        "f": "blk",
        "name_of_ship": "american ship",
        "ship_port": "blk",
        "date_leaving": "1884",
        "joined_ship_date": "1884-08-15",
        "joined_at_port": "savannah",
        "capacity": "cook & steward",
        "date_left": "1884-10-02",
        "left_port": "south shields",
        "cause_of_leaving": "discharged",
        "sign_with_mark": "n",
        "notes": "blk"
    },
    {
        "id": "vtls004656097_0_31",
        "type": "sailor",
        "parent": "vtls004656097",
        "name": "frank armitage",
        "dob": "blk",
        "age": "31",
        "place_of_birth": "colchester",
        "home_address": "blk",
        "f": "blk",
        "name_of_ship": "american vessel",
        "ship_port": "blk",
        "date_leaving": "blk",
        "joined_ship_date": "1884-02-15",
        "joined_at_port": "n y",
        "capacity": "ordinary seaman",
        "date_left": "1884-05-19",
        "left_port": "rio",
        "cause_of_leaving": "sickness",
        "sign_with_mark": "n",
        "notes": "blk"
    },
    {
        "id": "vtls004656138_0_11",
        "type": "sailor",
        "parent": "vtls004656138",
        "name": "john jones",
        "dob": "blk",
        "age": "42",
        "place_of_birth": "aberaeron",
        "home_address": "blk",
        "f": "blk",
        "name_of_ship": "donot",
        "ship_port": "aberystwyth",
        "date_leaving": "1884",
        "joined_ship_date": "1884-10-31",
        "joined_at_port": "south shields",
        "capacity": "master",
        "date_left": "blk",
        "left_port": "blk",
        "cause_of_leaving": "blk",
        "sign_with_mark": "n",
        "notes": "certificate no: 92694. 'same' crossed out under last ship. no ship called donot or similar found. could be dreadnought or general nott. voyage from south shields to buenos aires, galveston and havre. ship owner john davies, aberayron."
    },
    {
        "id": "vtls004656138_0_13",
        "type": "sailor",
        "parent": "vtls004656138",
        "name": "william davies",
        "dob": "blk",
        "age": "49",
        "place_of_birth": "aberaeron",
        "home_address": "blk",
        "f": "blk",
        "name_of_ship": "sarah",
        "ship_port": "aberayron",
        "date_leaving": "1884",
        "joined_ship_date": "1884-10-31",
        "joined_at_port": "south shields",
        "capacity": "boatswain",
        "date_left": "1886-03-25",
        "left_port": "havre, france",
        "cause_of_leaving": "discharged",
        "sign_with_mark": "n",
        "notes": "no record of sarah under ships registered in aberystwyth 1880 - 1890 although sarah davies, sarah bridget and sarah & mary were registered."
    },
    {
        "id": "vtls004656138_0_16",
        "type": "sailor",
        "parent": "vtls004656138",
        "name": "charles quail",
        "dob": "blk",
        "age": "31",
        "place_of_birth": "manchester",
        "home_address": "blk",
        "f": "blk",
        "name_of_ship": "jesamine",
        "ship_port": "s shds",
        "date_leaving": "1884",
        "joined_ship_date": "1884-10-31",
        "joined_at_port": "south shields",
        "capacity": "able seaman",
        "date_left": "1884-11-03",
        "left_port": "south shields",
        "cause_of_leaving": "engagement cancelled",
        "sign_with_mark": "n",
        "notes": "ships called jesamine were registered at london, dartmouth, bideford and lowestoft 1880."
    },
    {
        "id": "vtls004656097_0_39",
        "type": "sailor",
        "parent": "vtls004656097",
        "name": "w reynolds",
        "dob": "blk",
        "age": "21",
        "place_of_birth": "england",
        "home_address": "blk",
        "f": "blk",
        "name_of_ship": "arabella",
        "ship_port": "blk",
        "date_leaving": "1884",
        "joined_ship_date": "1884-08-21",
        "joined_at_port": "savannah",
        "capacity": "able seaman",
        "date_left": "1884-10-02",
        "left_port": "south shields",
        "cause_of_leaving": "discharged",
        "sign_with_mark": "n",
        "notes": "ships named arabella were registered in gloucester, caernarfon, scarborough, liverpool and belfast in the 1880s."
    },
    {
        "id": "vtls004656138_0_12",
        "type": "sailor",
        "parent": "vtls004656138",
        "name": "james burgess",
        "dob": "blk",
        "age": "54",
        "place_of_birth": "shetland",
        "home_address": "blk",
        "f": "blk",
        "name_of_ship": "the craigs",
        "ship_port": "newcastle",
        "date_leaving": "1884",
        "joined_ship_date": "1884-10-31",
        "joined_at_port": "south shields",
        "capacity": "mate",
        "date_left": "1886-03-23",
        "left_port": "havre, france",
        "cause_of_leaving": "discharged",
        "sign_with_mark": "n",
        "notes": "the craigs was registered in greenock 1880. certificate no: 34637."
    },
    {
        "id": "vtls004656138_0_14",
        "type": "sailor",
        "parent": "vtls004656138",
        "name": "thomas morgans",
        "dob": "blk",
        "age": "20",
        "place_of_birth": "aberaeron",
        "home_address": "blk",
        "f": "blk",
        "name_of_ship": "gladys",
        "ship_port": "aberystwyth",
        "date_leaving": "1884",
        "joined_ship_date": "1884-10-31",
        "joined_at_port": "south shields",
        "capacity": "cook & steward",
        "date_left": "1886-03-23",
        "left_port": "havre, france",
        "cause_of_leaving": "discharged",
        "sign_with_mark": "n",
        "notes": "gwladys was registered at aberystwyth 1880."
    },
    {
        "id": "vtls004656138_0_15",
        "type": "sailor",
        "parent": "vtls004656138",
        "name": "thomas lewis",
        "dob": "blk",
        "age": "27",
        "place_of_birth": "briton ferry",
        "home_address": "blk",
        "f": "blk",
        "name_of_ship": "delhi",
        "ship_port": "teignmouth",
        "date_leaving": "1884",
        "joined_ship_date": "1884-10-31",
        "joined_at_port": "south shields",
        "capacity": "able seaman",
        "date_left": "1885-01-23",
        "left_port": "buenos aires",
        "cause_of_leaving": "deserted",
        "sign_with_mark": "n",
        "notes": "blk"
    },
    {
        "id": "vtls004656097_0_40",
        "type": "sailor",
        "parent": "vtls004656097",
        "name": "diego jambetos",
        "dob": "blk",
        "age": "28",
        "place_of_birth": "italy",
        "home_address": "blk",
        "f": "blk",
        "name_of_ship": "spanish ship",
        "ship_port": "blk",
        "date_leaving": "1884",
        "joined_ship_date": "1884-08-21",
        "joined_at_port": "savannah",
        "capacity": "able seaman",
        "date_left": "1884-10-02",
        "left_port": "south shields",
        "cause_of_leaving": "discharged",
        "sign_with_mark": "y",
        "notes": "blk"
    },
    {
        "id": "vtls004656138_0_21",
        "type": "sailor",
        "parent": "vtls004656138",
        "name": "isak h larssen",
        "dob": "blk",
        "age": "24",
        "place_of_birth": "fredickstall",
        "home_address": "blk",
        "f": "blk",
        "name_of_ship": "christina",
        "ship_port": "leith",
        "date_leaving": "1884",
        "joined_ship_date": "1884-11-03",
        "joined_at_port": "south shields",
        "capacity": "able seaman",
        "date_left": "1886-03-23",
        "left_port": "havre, france",
        "cause_of_leaving": "discharged",
        "sign_with_mark": "n",
        "notes": "fredrickshald is a town in norway, now known as halden, probably the place of birth refers to this. no record of a christina at leith though at liverpool, glasgow and wick 1880."
    },
    {
        "id": "vtls004656138_0_17",
        "type": "sailor",
        "parent": "vtls004656138",
        "name": "peter helercea?",
        "dob": "blk",
        "age": "34",
        "place_of_birth": "shetland",
        "home_address": "blk",
        "f": "blk",
        "name_of_ship": "olive branch",
        "ship_port": "sunderland",
        "date_leaving": "1884",
        "joined_ship_date": "1884-10-31",
        "joined_at_port": "south shields",
        "capacity": "able seaman",
        "date_left": "1884-11-03",
        "left_port": "south shields",
        "cause_of_leaving": "discharged",
        "sign_with_mark": "n",
        "notes": "a ship called olive was registered at sunderland 1880, olive branch was built 1887. there were many other ships name olive branch, one at south shields 1880."
    },
    {
        "id": "vtls004656138_0_20",
        "type": "sailor",
        "parent": "vtls004656138",
        "name": "thomas turnbull",
        "dob": "blk",
        "age": "19",
        "place_of_birth": "sund",
        "home_address": "blk",
        "f": "blk",
        "name_of_ship": "betsy",
        "ship_port": "no shds",
        "date_leaving": "1884",
        "joined_ship_date": "1884-10-31",
        "joined_at_port": "south shields",
        "capacity": "ordinary seaman",
        "date_left": "1886-01-23",
        "left_port": "buenos aires",
        "cause_of_leaving": "deserted",
        "sign_with_mark": "n",
        "notes": "place of birth probably stands for sunderland. betsy was registered in north shields 1881."
    },
    {
        "id": "vtls004656138_0_25",
        "type": "sailor",
        "parent": "vtls004656138",
        "name": "fred heerssen",
        "dob": "blk",
        "age": "20",
        "place_of_birth": "bremen",
        "home_address": "blk",
        "f": "blk",
        "name_of_ship": "atlantic",
        "ship_port": "blk",
        "date_leaving": "blk",
        "joined_ship_date": "1885-02-24",
        "joined_at_port": "blk",
        "capacity": "ordinary seaman",
        "date_left": "1886-03-23",
        "left_port": "havre, france",
        "cause_of_leaving": "discharged",
        "sign_with_mark": "n",
        "notes": "ships called atlantic were registered in swansea, st ives, liverpool, glasgow and other foreign ports in 1880."
    },
    {
        "id": "vtls004656138_0_22",
        "type": "sailor",
        "parent": "vtls004656138",
        "name": "karl bjorklund",
        "dob": "blk",
        "age": "20",
        "place_of_birth": "gamla karlaby",
        "home_address": "blk",
        "f": "blk",
        "name_of_ship": "foreign",
        "ship_port": "blk",
        "date_leaving": "1884",
        "joined_ship_date": "1884-11-03",
        "joined_at_port": "south shields",
        "capacity": "able seaman",
        "date_left": "1886-03-23",
        "left_port": "havre, france",
        "cause_of_leaving": "discharged",
        "sign_with_mark": "n",
        "notes": "gamlakarleby was the swedish name for kokkola, finland until 1977."
    },
    {
        "id": "vtls004656138_0_24",
        "type": "sailor",
        "parent": "vtls004656138",
        "name": "james r kelly",
        "dob": "blk",
        "age": "28",
        "place_of_birth": "nassau",
        "home_address": "blk",
        "f": "blk",
        "name_of_ship": "calderbank",
        "ship_port": "blk",
        "date_leaving": "blk",
        "joined_ship_date": "1885-02-20",
        "joined_at_port": "buenos aires",
        "capacity": "able seaman",
        "date_left": "blk",
        "left_port": "blk",
        "cause_of_leaving": "not joined",
        "sign_with_mark": "n",
        "notes": "ships called calderbank were registered in ayr and glasgow 1880."
    },
    {
        "id": "vtls004656138_0_26",
        "type": "sailor",
        "parent": "vtls004656138",
        "name": "otto petson",
        "dob": "blk",
        "age": "18",
        "place_of_birth": "sweden",
        "home_address": "blk",
        "f": "blk",
        "name_of_ship": "nor. ship 'aden'",
        "ship_port": "blk",
        "date_leaving": "blk",
        "joined_ship_date": "1885-05-18",
        "joined_at_port": "pensacola",
        "capacity": "ordinary seaman",
        "date_left": "1886-02-01",
        "left_port": "galveston",
        "cause_of_leaving": "deserted",
        "sign_with_mark": "n",
        "notes": "pensacola is in florida."
    },
    {
        "id": "vtls004656138_0_18",
        "type": "sailor",
        "parent": "vtls004656138",
        "name": "thomas s wales",
        "dob": "blk",
        "age": "18",
        "place_of_birth": "south shields",
        "home_address": "blk",
        "f": "blk",
        "name_of_ship": "attila",
        "ship_port": "newcastle",
        "date_leaving": "1884",
        "joined_ship_date": "1884-10-31",
        "joined_at_port": "south shields",
        "capacity": "ordinary seaman",
        "date_left": "1885-01-23",
        "left_port": "buenos aires",
        "cause_of_leaving": "deserted",
        "sign_with_mark": "n",
        "notes": "blk"
    },
    {
        "id": "vtls004656138_0_19",
        "type": "sailor",
        "parent": "vtls004656138",
        "name": "william green",
        "dob": "blk",
        "age": "20",
        "place_of_birth": "london",
        "home_address": "blk",
        "f": "blk",
        "name_of_ship": "christina",
        "ship_port": "wick",
        "date_leaving": "1884",
        "joined_ship_date": "1884-10-31",
        "joined_at_port": "south shields",
        "capacity": "ordinary seaman",
        "date_left": "1886-03-25",
        "left_port": "havre, france",
        "cause_of_leaving": "discharged",
        "sign_with_mark": "n",
        "notes": "blk"
    },
    {
        "id": "vtls004656138_0_23",
        "type": "sailor",
        "parent": "vtls004656138",
        "name": "johan johnsen",
        "dob": "blk",
        "age": "34",
        "place_of_birth": "norway",
        "home_address": "blk",
        "f": "blk",
        "name_of_ship": "foreign",
        "ship_port": "blk",
        "date_leaving": "1884",
        "joined_ship_date": "1885-02-20",
        "joined_at_port": "buenos aires",
        "capacity": "able seaman",
        "date_left": "1886-03-24",
        "left_port": "havre, france",
        "cause_of_leaving": "discharged",
        "sign_with_mark": "n",
        "notes": "blk"
    },
    {
        "id": "vtls004656138_1_17",
        "type": "sailor",
        "parent": "vtls004656138",
        "name": "g w andersen",
        "dob": "blk",
        "age": "21",
        "place_of_birth": "stockholm",
        "home_address": "blk",
        "f": "blk",
        "name_of_ship": "dora",
        "ship_port": "blk",
        "date_leaving": "1886",
        "joined_ship_date": "1886-03-25",
        "joined_at_port": "havre",
        "capacity": "able seaman",
        "date_left": "1886-04-15",
        "left_port": "cardiff",
        "cause_of_leaving": "discharged",
        "sign_with_mark": "n",
        "notes": "ships called dora were registered in several ports including london, liverpool, cowes, west hartlepool, chester, runcorn and bristol in 1880."
    },
    {
        "id": "vtls004656138_1_11",
        "type": "sailor",
        "parent": "vtls004656138",
        "name": "john jones",
        "dob": "blk",
        "age": "34",
        "place_of_birth": "aberaeron",
        "home_address": "aberayron",
        "f": "aberayron",
        "name_of_ship": "ella",
        "ship_port": "aberystwyth",
        "date_leaving": "1886",
        "joined_ship_date": "1886-03-25",
        "joined_at_port": "havre",
        "capacity": "master",
        "date_left": "blk",
        "left_port": "blk",
        "cause_of_leaving": "remains on board",
        "sign_with_mark": "n",
        "notes": "certificate no: 92694. ship owner: j davies, aberayron. voyage from havre to cardiff."
    },
    {
        "id": "vtls004656138_1_13",
        "type": "sailor",
        "parent": "vtls004656138",
        "name": "thomas morgans",
        "dob": "blk",
        "age": "21",
        "place_of_birth": "aberyle",
        "home_address": "blk",
        "f": "blk",
        "name_of_ship": "ella",
        "ship_port": "aberystwyth",
        "date_leaving": "1886",
        "joined_ship_date": "1886-03-25",
        "joined_at_port": "havre",
        "capacity": "boatswain",
        "date_left": "1886-04-15",
        "left_port": "cardiff",
        "cause_of_leaving": "discharged",
        "sign_with_mark": "n",
        "notes": "aberayron is given as place of birth on previous entry."
    },
    {
        "id": "vtls004656138_1_14",
        "type": "sailor",
        "parent": "vtls004656138",
        "name": "william green",
        "dob": "blk",
        "age": "22",
        "place_of_birth": "london",
        "home_address": "blk",
        "f": "blk",
        "name_of_ship": "ella",
        "ship_port": "aberystwyth",
        "date_leaving": "1886",
        "joined_ship_date": "1886-03-25",
        "joined_at_port": "havre",
        "capacity": "cook & steward",
        "date_left": "1886-04-15",
        "left_port": "cardiff",
        "cause_of_leaving": "discharged",
        "sign_with_mark": "n",
        "notes": "blk"
    },
    {
        "id": "vtls004656138_1_16",
        "type": "sailor",
        "parent": "vtls004656138",
        "name": "carl nilsson",
        "dob": "blk",
        "age": "23",
        "place_of_birth": "stockholm",
        "home_address": "blk",
        "f": "blk",
        "name_of_ship": "foreign",
        "ship_port": "blk",
        "date_leaving": "1886",
        "joined_ship_date": "1886-03-25",
        "joined_at_port": "havre",
        "capacity": "able seaman",
        "date_left": "1886-04-15",
        "left_port": "cardiff",
        "cause_of_leaving": "discharged",
        "sign_with_mark": "n",
        "notes": "blk"
    },
    {
        "id": "vtls004656138_1_12",
        "type": "sailor",
        "parent": "vtls004656138",
        "name": "william davies",
        "dob": "blk",
        "age": "51",
        "place_of_birth": "pembroke",
        "home_address": "blk",
        "f": "blk",
        "name_of_ship": "ella",
        "ship_port": "aberystwyth",
        "date_leaving": "1886",
        "joined_ship_date": "1886-03-25",
        "joined_at_port": "havre",
        "capacity": "mate",
        "date_left": "1886-04-15",
        "left_port": "cardiff",
        "cause_of_leaving": "discharged",
        "sign_with_mark": "n",
        "notes": "blk"
    },
    {
        "id": "vtls004656138_1_15",
        "type": "sailor",
        "parent": "vtls004656138",
        "name": "albert nivet",
        "dob": "blk",
        "age": "24",
        "place_of_birth": "anwerp",
        "home_address": "blk",
        "f": "blk",
        "name_of_ship": "foreign",
        "ship_port": "blk",
        "date_leaving": "1886",
        "joined_ship_date": "1886-03-25",
        "joined_at_port": "havre",
        "capacity": "able seaman",
        "date_left": "1886-04-15",
        "left_port": "cardiff",
        "cause_of_leaving": "discharged",
        "sign_with_mark": "n",
        "notes": "blk"
    },
    {
        "id": "vtls004656138_0_27",
        "type": "sailor",
        "parent": "vtls004656138",
        "name": "le meur",
        "dob": "blk",
        "age": "21",
        "place_of_birth": "havre",
        "home_address": "blk",
        "f": "blk",
        "name_of_ship": "blk",
        "ship_port": "blk",
        "date_leaving": "blk",
        "joined_ship_date": "1885-05-18",
        "joined_at_port": "galveston",
        "capacity": "ordinary seaman",
        "date_left": "1886-03-25",
        "left_port": "havre, france",
        "cause_of_leaving": "discharged",
        "sign_with_mark": "n",
        "notes": "blk"
    },
    {
        "id": "vtls004656138_2_11",
        "type": "sailor",
        "parent": "vtls004656138",
        "name": "david thomas",
        "dob": "blk",
        "age": "41",
        "place_of_birth": "aberaeron",
        "home_address": "blk",
        "f": "blk",
        "name_of_ship": "pembrokeshire",
        "ship_port": "london",
        "date_leaving": "blk",
        "joined_ship_date": "1886-04-21",
        "joined_at_port": "cardiff",
        "capacity": "master",
        "date_left": "blk",
        "left_port": "blk",
        "cause_of_leaving": "remains on board",
        "sign_with_mark": "n",
        "notes": "certificate no: oc 90345. ship owner: jno. davies, aberayron. voyage from cardiff to fray bentos, capitanio del puerto, montevideo and hamburg."
    },
    {
        "id": "vtls004656138_2_19",
        "type": "sailor",
        "parent": "vtls004656138",
        "name": "jm griffiths",
        "dob": "blk",
        "age": "19",
        "place_of_birth": "newport, mon.",
        "home_address": "blk",
        "f": "blk",
        "name_of_ship": "[misten]",
        "ship_port": "cardiff",
        "date_leaving": "blk",
        "joined_ship_date": "1886-04-21",
        "joined_at_port": "cardiff",
        "capacity": "ordinary seaman",
        "date_left": "1886-12-15",
        "left_port": "hamburg, germany",
        "cause_of_leaving": "discharged",
        "sign_with_mark": "n",
        "notes": "note 1 - no registration for the misten at cardiff for this period. there is a misty morn registered at cardiff for this period"
    },
    {
        "id": "vtls004656138_2_15",
        "type": "sailor",
        "parent": "vtls004656138",
        "name": "william jones",
        "dob": "blk",
        "age": "39",
        "place_of_birth": "towin",
        "home_address": "blk",
        "f": "blk",
        "name_of_ship": "casalay",
        "ship_port": "liverpool",
        "date_leaving": "blk",
        "joined_ship_date": "1886-04-21",
        "joined_at_port": "cardiff",
        "capacity": "able seaman",
        "date_left": "1886-08-27",
        "left_port": "monte video",
        "cause_of_leaving": "mutual consent",
        "sign_with_mark": "n",
        "notes": "no ship found registered as casalay. possible alternatives: casabay, carabay, cinabay, canabay etc."
    },
    {
        "id": "vtls004656138_2_18",
        "type": "sailor",
        "parent": "vtls004656138",
        "name": "victor collas",
        "dob": "blk",
        "age": "45",
        "place_of_birth": "france",
        "home_address": "blk",
        "f": "blk",
        "name_of_ship": "campbell",
        "ship_port": "[aberdeen]",
        "date_leaving": "blk",
        "joined_ship_date": "1886-04-21",
        "joined_at_port": "cardiff",
        "capacity": "able seaman",
        "date_left": "1886-08-27",
        "left_port": "monte video",
        "cause_of_leaving": "mutual consent",
        "sign_with_mark": "n",
        "notes": "note 1 - no registration for the campbell at aberdeen for this period."
    },
    {
        "id": "vtls004656138_1_18",
        "type": "sailor",
        "parent": "vtls004656138",
        "name": "anthony kelly",
        "dob": "blk",
        "age": "26",
        "place_of_birth": "leeds",
        "home_address": "blk",
        "f": "blk",
        "name_of_ship": "j. g. bain",
        "ship_port": "blk",
        "date_leaving": "1886",
        "joined_ship_date": "1886-03-25",
        "joined_at_port": "havre",
        "capacity": "able seaman",
        "date_left": "1886-04-15",
        "left_port": "cardiff",
        "cause_of_leaving": "discharged",
        "sign_with_mark": "n",
        "notes": "james g bain was a ship registered at pictou, nova scotia 1890."
    },
    {
        "id": "vtls004656138_2_16",
        "type": "sailor",
        "parent": "vtls004656138",
        "name": "thomas davies",
        "dob": "blk",
        "age": "37",
        "place_of_birth": "aberaeron",
        "home_address": "blk",
        "f": "blk",
        "name_of_ship": "glenafl$",
        "ship_port": "liverpool",
        "date_leaving": "blk",
        "joined_ship_date": "1886-04-21",
        "joined_at_port": "cardiff",
        "capacity": "able seaman",
        "date_left": "1886-12-15",
        "left_port": "hamburg, germany",
        "cause_of_leaving": "discharged",
        "sign_with_mark": "n",
        "notes": "last ship may possibly be glenavon."
    },
    {
        "id": "vtls004656138_2_14",
        "type": "sailor",
        "parent": "vtls004656138",
        "name": "th besfeling",
        "dob": "blk",
        "age": "31",
        "place_of_birth": "amsterdam",
        "home_address": "blk",
        "f": "blk",
        "name_of_ship": "ella",
        "ship_port": "aberystwyth",
        "date_leaving": "blk",
        "joined_ship_date": "1886-04-21",
        "joined_at_port": "cardiff",
        "capacity": "cook, steward & seaman",
        "date_left": "1886-12-15",
        "left_port": "hamburg, germany",
        "cause_of_leaving": "discharged",
        "sign_with_mark": "n",
        "notes": "blk"
    },
    {
        "id": "vtls004656138_2_17",
        "type": "sailor",
        "parent": "vtls004656138",
        "name": "albert nivek",
        "dob": "blk",
        "age": "24",
        "place_of_birth": "bordeaux",
        "home_address": "blk",
        "f": "blk",
        "name_of_ship": "ella",
        "ship_port": "aberystwyth",
        "date_leaving": "blk",
        "joined_ship_date": "1886-04-21",
        "joined_at_port": "cardiff",
        "capacity": "able seaman",
        "date_left": "1886-08-02",
        "left_port": "fray bentos",
        "cause_of_leaving": "mutual consent",
        "sign_with_mark": "n",
        "notes": "blk"
    },
    {
        "id": "vtls004656138_2_13",
        "type": "sailor",
        "parent": "vtls004656138",
        "name": "william davies",
        "dob": "blk",
        "age": "51",
        "place_of_birth": "aberaeron",
        "home_address": "blk",
        "f": "blk",
        "name_of_ship": "ella",
        "ship_port": "aberystwyth",
        "date_leaving": "blk",
        "joined_ship_date": "1886-04-21",
        "joined_at_port": "cardiff",
        "capacity": "boatswain",
        "date_left": "1886-12-15",
        "left_port": "hamburg, germany",
        "cause_of_leaving": "discharged",
        "sign_with_mark": "n",
        "notes": "blk"
    },
    {
        "id": "vtls004656138_2_12",
        "type": "sailor",
        "parent": "vtls004656138",
        "name": "david evans",
        "dob": "blk",
        "age": "26",
        "place_of_birth": "aberaeron",
        "home_address": "blk",
        "f": "blk",
        "name_of_ship": "rambler",
        "ship_port": "glasgow",
        "date_leaving": "blk",
        "joined_ship_date": "1886-04-21",
        "joined_at_port": "cardiff",
        "capacity": "mate",
        "date_left": "1886-12-15",
        "left_port": "hamburg, germany",
        "cause_of_leaving": "discharged",
        "sign_with_mark": "n",
        "notes": "blk"
    },
    {
        "id": "vtls004656138_2_22",
        "type": "sailor",
        "parent": "vtls004656138",
        "name": "david hadesto",
        "dob": "blk",
        "age": "20",
        "place_of_birth": "united states",
        "home_address": "blk",
        "f": "blk",
        "name_of_ship": "american ship",
        "ship_port": "blk",
        "date_leaving": "1886",
        "joined_ship_date": "1886-09-28",
        "joined_at_port": "monte video",
        "capacity": "able seaman",
        "date_left": "1886-12-15",
        "left_port": "hamburg, germany",
        "cause_of_leaving": "discharged",
        "sign_with_mark": "n",
        "notes": "blk"
    },
    {
        "id": "vtls004656138_2_20",
        "type": "sailor",
        "parent": "vtls004656138",
        "name": "edward gabriel",
        "dob": "blk",
        "age": "15",
        "place_of_birth": "aberdovey",
        "home_address": "blk",
        "f": "blk",
        "name_of_ship": "excelsior",
        "ship_port": "pt. madoc",
        "date_leaving": "blk",
        "joined_ship_date": "1886-04-21",
        "joined_at_port": "cardiff",
        "capacity": "ordinary seaman",
        "date_left": "1886-12-15",
        "left_port": "hamburg, germany",
        "cause_of_leaving": "discharged",
        "sign_with_mark": "n",
        "notes": "blk"
    },
    {
        "id": "vtls004656163_0_11",
        "type": "sailor",
        "parent": "vtls004656163",
        "name": "john jones",
        "dob": "blk",
        "age": "36",
        "place_of_birth": "aberaeron",
        "home_address": "blk",
        "f": "blk",
        "name_of_ship": "fitzroy",
        "ship_port": "london",
        "date_leaving": "blk",
        "joined_ship_date": "1887-11-18",
        "joined_at_port": "cardiff",
        "capacity": "master",
        "date_left": "1888-07-27",
        "left_port": "middlesbrough",
        "cause_of_leaving": "remains on board",
        "sign_with_mark": "n",
        "notes": "cert no. = 92694"
    },
    {
        "id": "vtls004656138_2_23",
        "type": "sailor",
        "parent": "vtls004656138",
        "name": "thomas wellington",
        "dob": "blk",
        "age": "25",
        "place_of_birth": "jamaica",
        "home_address": "blk",
        "f": "blk",
        "name_of_ship": "american ship",
        "ship_port": "blk",
        "date_leaving": "1886",
        "joined_ship_date": "1886-09-28",
        "joined_at_port": "monte video",
        "capacity": "able seaman",
        "date_left": "1886-12-15",
        "left_port": "hamburg, germany",
        "cause_of_leaving": "discharged",
        "sign_with_mark": "n",
        "notes": "blk"
    },
    {
        "id": "vtls004656163_0_12",
        "type": "sailor",
        "parent": "vtls004656163",
        "name": "robert evans",
        "dob": "blk",
        "age": "46",
        "place_of_birth": "aberystwyth",
        "home_address": "blk",
        "f": "blk",
        "name_of_ship": "raglan",
        "ship_port": "cardiff",
        "date_leaving": "blk",
        "joined_ship_date": "1887-11-18",
        "joined_at_port": "cardiff",
        "capacity": "mate",
        "date_left": "1888-07-27",
        "left_port": "middlesbrough",
        "cause_of_leaving": "discharged",
        "sign_with_mark": "n",
        "notes": "cert no. = 93402"
    },
    {
        "id": "vtls004656138_2_21",
        "type": "sailor",
        "parent": "vtls004656138",
        "name": "robert olmara",
        "dob": "blk",
        "age": "24",
        "place_of_birth": "sweden",
        "home_address": "blk",
        "f": "blk",
        "name_of_ship": "canning",
        "ship_port": "blk",
        "date_leaving": "1886",
        "joined_ship_date": "1886-09-15",
        "joined_at_port": "monte video",
        "capacity": "able seaman",
        "date_left": "1886-12-15",
        "left_port": "hamburg, germany",
        "cause_of_leaving": "discharged",
        "sign_with_mark": "n",
        "notes": "blk"
    },
    {
        "id": "vtls004656163_0_13",
        "type": "sailor",
        "parent": "vtls004656163",
        "name": "david enoch",
        "dob": "blk",
        "age": "24",
        "place_of_birth": "aberaeron",
        "home_address": "blk",
        "f": "blk",
        "name_of_ship": "ella",
        "ship_port": "aberystwyth",
        "date_leaving": "blk",
        "joined_ship_date": "1887-11-18",
        "joined_at_port": "cardiff",
        "capacity": "bswn",
        "date_left": "1888-07-27",
        "left_port": "middlesbrough",
        "cause_of_leaving": "discharged",
        "sign_with_mark": "n",
        "notes": "blk"
    },
    {
        "id": "vtls004656163_1_11",
        "type": "sailor",
        "parent": "vtls004656163",
        "name": "john jones",
        "dob": "blk",
        "age": "38",
        "place_of_birth": "aberaeron",
        "home_address": "blk",
        "f": "blk",
        "name_of_ship": "ella",
        "ship_port": "aberystwyth",
        "date_leaving": "blk",
        "joined_ship_date": "1888-08-08",
        "joined_at_port": "middlesbrough",
        "capacity": "master",
        "date_left": "1888-12-28",
        "left_port": "rosario",
        "cause_of_leaving": "drowned",
        "sign_with_mark": "n",
        "notes": "cert no. = 92694\nnote 1 - extract from the official log book of particulars of the drowning which was reported to the british consul in argentina is attached to the crew list."
    },
    {
        "id": "vtls004656163_0_22",
        "type": "sailor",
        "parent": "vtls004656163",
        "name": "albert nivet",
        "dob": "blk",
        "age": "26",
        "place_of_birth": "bordeaux",
        "home_address": "blk",
        "f": "blk",
        "name_of_ship": "mona",
        "ship_port": "$",
        "date_leaving": "blk",
        "joined_ship_date": "1888-03-08",
        "joined_at_port": "zarate",
        "capacity": "able seaman",
        "date_left": "1888-07-15",
        "left_port": "harburg, germany",
        "cause_of_leaving": "deserted",
        "sign_with_mark": "n",
        "notes": "note 1 - place of leaving is as written, but no place of that name located. could be hamburg, as local pronunciation was hamborg."
    },
    {
        "id": "vtls004656163_0_15",
        "type": "sailor",
        "parent": "vtls004656163",
        "name": "evan thomas evans",
        "dob": "blk",
        "age": "20",
        "place_of_birth": "aberaeron",
        "home_address": "blk",
        "f": "blk",
        "name_of_ship": "erica",
        "ship_port": "liverpool",
        "date_leaving": "blk",
        "joined_ship_date": "1887-11-18",
        "joined_at_port": "cardiff",
        "capacity": "able seaman",
        "date_left": "1888-07-27",
        "left_port": "middlesbrough",
        "cause_of_leaving": "discharged",
        "sign_with_mark": "n",
        "notes": "note 1 - no record of a registration for the \"erica\" at lpl for this period"
    },
    {
        "id": "vtls004656163_0_16",
        "type": "sailor",
        "parent": "vtls004656163",
        "name": "david d davies",
        "dob": "blk",
        "age": "19",
        "place_of_birth": "aberaeron",
        "home_address": "blk",
        "f": "blk",
        "name_of_ship": "queen of the west",
        "ship_port": "liverpool",
        "date_leaving": "blk",
        "joined_ship_date": "1887-11-18",
        "joined_at_port": "cardiff",
        "capacity": "able seaman",
        "date_left": "1888-07-27",
        "left_port": "middlesbrough",
        "cause_of_leaving": "discharged",
        "sign_with_mark": "n",
        "notes": "blk"
    },
    {
        "id": "vtls004656163_0_18",
        "type": "sailor",
        "parent": "vtls004656163",
        "name": "david ress davies",
        "dob": "blk",
        "age": "19",
        "place_of_birth": "aberaeron",
        "home_address": "blk",
        "f": "blk",
        "name_of_ship": "ella",
        "ship_port": "aberystwyth",
        "date_leaving": "blk",
        "joined_ship_date": "1887-11-18",
        "joined_at_port": "cardiff",
        "capacity": "ordinary seaman",
        "date_left": "1888-07-27",
        "left_port": "middlesbrough",
        "cause_of_leaving": "discharged",
        "sign_with_mark": "n",
        "notes": "blk"
    },
    {
        "id": "vtls004656163_0_19",
        "type": "sailor",
        "parent": "vtls004656163",
        "name": "john davies",
        "dob": "blk",
        "age": "17",
        "place_of_birth": "aberaeron",
        "home_address": "blk",
        "f": "blk",
        "name_of_ship": "ella",
        "ship_port": "aberystwyth",
        "date_leaving": "blk",
        "joined_ship_date": "1887-11-18",
        "joined_at_port": "cardiff",
        "capacity": "ordinary seaman",
        "date_left": "1887-07-27",
        "left_port": "middlesbrough",
        "cause_of_leaving": "discharged",
        "sign_with_mark": "n",
        "notes": "blk"
    },
    {
        "id": "vtls004656163_0_21",
        "type": "sailor",
        "parent": "vtls004656163",
        "name": "r nant",
        "dob": "blk",
        "age": "21",
        "place_of_birth": "finland",
        "home_address": "blk",
        "f": "blk",
        "name_of_ship": "star of england",
        "ship_port": "[norway]",
        "date_leaving": "blk",
        "joined_ship_date": "1887-11-20",
        "joined_at_port": "cardiff",
        "capacity": "ordinary seaman",
        "date_left": "1888-02-26",
        "left_port": "zarate",
        "cause_of_leaving": "deserted",
        "sign_with_mark": "n",
        "notes": "blk"
    },
    {
        "id": "vtls004656163_0_14",
        "type": "sailor",
        "parent": "vtls004656163",
        "name": "jas goddard",
        "dob": "blk",
        "age": "40",
        "place_of_birth": "barbados",
        "home_address": "blk",
        "f": "blk",
        "name_of_ship": "llangorse",
        "ship_port": "cardiff",
        "date_leaving": "blk",
        "joined_ship_date": "1887-11-19",
        "joined_at_port": "cardiff",
        "capacity": "cook & seaman",
        "date_left": "1888-07-27",
        "left_port": "middlesbrough",
        "cause_of_leaving": "discharged",
        "sign_with_mark": "n",
        "notes": "blk"
    },
    {
        "id": "vtls004656163_0_20",
        "type": "sailor",
        "parent": "vtls004656163",
        "name": "david evans",
        "dob": "blk",
        "age": "15",
        "place_of_birth": "aberaeron",
        "home_address": "blk",
        "f": "blk",
        "name_of_ship": "first ship",
        "ship_port": "blk",
        "date_leaving": "blk",
        "joined_ship_date": "1887-11-18",
        "joined_at_port": "cardiff",
        "capacity": "ordinary seaman",
        "date_left": "1887-07-27",
        "left_port": "middlesbrough",
        "cause_of_leaving": "discharged",
        "sign_with_mark": "n",
        "notes": "blk"
    },
    {
        "id": "vtls004656163_0_17",
        "type": "sailor",
        "parent": "vtls004656163",
        "name": "john andersen",
        "dob": "blk",
        "age": "38",
        "place_of_birth": "stockholm",
        "home_address": "blk",
        "f": "blk",
        "name_of_ship": "holly branch",
        "ship_port": "sunderland",
        "date_leaving": "blk",
        "joined_ship_date": "1887-11-18",
        "joined_at_port": "cardiff",
        "capacity": "able seaman",
        "date_left": "blk",
        "left_port": "blk",
        "cause_of_leaving": "did not join",
        "sign_with_mark": "n",
        "notes": "blk"
    },
    {
        "id": "vtls004656163_1_19",
        "type": "sailor",
        "parent": "vtls004656163",
        "name": "wm macpherson",
        "dob": "blk",
        "age": "16",
        "place_of_birth": "aberaeron",
        "home_address": "blk",
        "f": "blk",
        "name_of_ship": "aeron bell",
        "ship_port": "aberystwyth",
        "date_leaving": "blk",
        "joined_ship_date": "1888-08-08",
        "joined_at_port": "middlesbrough",
        "capacity": "ordinary seaman",
        "date_left": "1890-02-25",
        "left_port": "goole",
        "cause_of_leaving": "discharged",
        "sign_with_mark": "n",
        "notes": "note 1 - last ship served - spelling of the aeron belle is as written"
    },
    {
        "id": "vtls004656163_1_20",
        "type": "sailor",
        "parent": "vtls004656163",
        "name": "david jones",
        "dob": "blk",
        "age": "16",
        "place_of_birth": "aberaeron",
        "home_address": "blk",
        "f": "blk",
        "name_of_ship": "martha jane",
        "ship_port": "aberystwyth",
        "date_leaving": "blk",
        "joined_ship_date": "1888-08-08",
        "joined_at_port": "middlesbrough",
        "capacity": "ordinary seaman",
        "date_left": "1890-02-25",
        "left_port": "goole",
        "cause_of_leaving": "discharged",
        "sign_with_mark": "n",
        "notes": "blk"
    },
    {
        "id": "vtls004656163_1_14",
        "type": "sailor",
        "parent": "vtls004656163",
        "name": "david rees davies",
        "dob": "blk",
        "age": "20",
        "place_of_birth": "aberaeron",
        "home_address": "blk",
        "f": "blk",
        "name_of_ship": "ella",
        "ship_port": "aberystwyth",
        "date_leaving": "blk",
        "joined_ship_date": "1888-08-08",
        "joined_at_port": "middlesbrough",
        "capacity": "cook & seaman",
        "date_left": "1889-09-27",
        "left_port": "cape town",
        "cause_of_leaving": "deserted",
        "sign_with_mark": "n",
        "notes": "blk"
    },
    {
        "id": "vtls004656163_1_15",
        "type": "sailor",
        "parent": "vtls004656163",
        "name": "fritz jespersen",
        "dob": "blk",
        "age": "22",
        "place_of_birth": "copenhagen",
        "home_address": "blk",
        "f": "blk",
        "name_of_ship": "swedish ship",
        "ship_port": "blk",
        "date_leaving": "blk",
        "joined_ship_date": "1888-08-08",
        "joined_at_port": "middlesbrough",
        "capacity": "able seaman",
        "date_left": "1889-05-28",
        "left_port": "pensacola, florida, united states",
        "cause_of_leaving": "deserted",
        "sign_with_mark": "n",
        "notes": "blk"
    },
    {
        "id": "vtls004656163_1_12",
        "type": "sailor",
        "parent": "vtls004656163",
        "name": "robert jones",
        "dob": "blk",
        "age": "47",
        "place_of_birth": "aberystwyth",
        "home_address": "blk",
        "f": "blk",
        "name_of_ship": "ella",
        "ship_port": "aberystwyth",
        "date_leaving": "blk",
        "joined_ship_date": "1888-08-08",
        "joined_at_port": "middlesbrough",
        "capacity": "mate",
        "date_left": "1888-08-28",
        "left_port": "plymouth",
        "cause_of_leaving": "discharged",
        "sign_with_mark": "n",
        "notes": "cert no. = 93402"
    },
    {
        "id": "vtls004656163_1_18",
        "type": "sailor",
        "parent": "vtls004656163",
        "name": "david evans",
        "dob": "blk",
        "age": "16",
        "place_of_birth": "aberaeron",
        "home_address": "blk",
        "f": "blk",
        "name_of_ship": "ella",
        "ship_port": "aberystwyth",
        "date_leaving": "blk",
        "joined_ship_date": "1888-08-08",
        "joined_at_port": "middlesbrough",
        "capacity": "ordinary seaman",
        "date_left": "1890-02-25",
        "left_port": "goole",
        "cause_of_leaving": "discharged",
        "sign_with_mark": "n",
        "notes": "blk"
    },
    {
        "id": "vtls004656163_1_16",
        "type": "sailor",
        "parent": "vtls004656163",
        "name": "carl olsen",
        "dob": "blk",
        "age": "22",
        "place_of_birth": "copenhagen",
        "home_address": "blk",
        "f": "blk",
        "name_of_ship": "swedish ship",
        "ship_port": "blk",
        "date_leaving": "blk",
        "joined_ship_date": "1888-08-08",
        "joined_at_port": "middlesbrough",
        "capacity": "able seaman",
        "date_left": "1889-05-28",
        "left_port": "pensacola, florida, united states",
        "cause_of_leaving": "deserted",
        "sign_with_mark": "n",
        "notes": "blk"
    },
    {
        "id": "vtls004656163_1_17",
        "type": "sailor",
        "parent": "vtls004656163",
        "name": "nils nilsson",
        "dob": "blk",
        "age": "22",
        "place_of_birth": "malmo",
        "home_address": "blk",
        "f": "blk",
        "name_of_ship": "swedish ship",
        "ship_port": "blk",
        "date_leaving": "blk",
        "joined_ship_date": "1888-08-08",
        "joined_at_port": "middlesbrough",
        "capacity": "able seaman",
        "date_left": "1889-05-28",
        "left_port": "pensacola, florida, united states",
        "cause_of_leaving": "deserted",
        "sign_with_mark": "n",
        "notes": "blk"
    },
    {
        "id": "vtls004656163_1_13",
        "type": "sailor",
        "parent": "vtls004656163",
        "name": "david enoch",
        "dob": "blk",
        "age": "25",
        "place_of_birth": "aberaeron",
        "home_address": "blk",
        "f": "blk",
        "name_of_ship": "ella",
        "ship_port": "aberystwyth",
        "date_leaving": "blk",
        "joined_ship_date": "1888-08-08",
        "joined_at_port": "middlesbrough",
        "capacity": "bosun",
        "date_left": "1890-02-25",
        "left_port": "goole",
        "cause_of_leaving": "discharged",
        "sign_with_mark": "n",
        "notes": "blk"
    },
    {
        "id": "vtls004656163_1_22",
        "type": "sailor",
        "parent": "vtls004656163",
        "name": "david thomas",
        "dob": "blk",
        "age": "46",
        "place_of_birth": "aberystwyth",
        "home_address": "blk",
        "f": "blk",
        "name_of_ship": "mary emily",
        "ship_port": "liverpool",
        "date_leaving": "blk",
        "joined_ship_date": "1888-09-24",
        "joined_at_port": "plymouth",
        "capacity": "mate",
        "date_left": "1890-02-25",
        "left_port": "goole",
        "cause_of_leaving": "discharged",
        "sign_with_mark": "n",
        "notes": "cert no. = 016495"
    },
    {
        "id": "vtls004656163_1_26",
        "type": "sailor",
        "parent": "vtls004656163",
        "name": "john mckay",
        "dob": "blk",
        "age": "23",
        "place_of_birth": "waterford",
        "home_address": "blk",
        "f": "blk",
        "name_of_ship": "knights of st. michael",
        "ship_port": "blk",
        "date_leaving": "blk",
        "joined_ship_date": "1889-09-25",
        "joined_at_port": "capetown",
        "capacity": "able seaman",
        "date_left": "1890-02-20",
        "left_port": "goole",
        "cause_of_leaving": "discharged",
        "sign_with_mark": "y",
        "notes": "blk"
    },
    {
        "id": "vtls004656163_1_25",
        "type": "sailor",
        "parent": "vtls004656163",
        "name": "sam king}",
        "dob": "blk",
        "age": "28",
        "place_of_birth": "trinidad",
        "home_address": "blk",
        "f": "blk",
        "name_of_ship": "[luigia] br, ss.",
        "ship_port": "blk",
        "date_leaving": "blk",
        "joined_ship_date": "1889-05-27",
        "joined_at_port": "pensacola",
        "capacity": "cook & steward",
        "date_left": "1889-09-23",
        "left_port": "cape town",
        "cause_of_leaving": "deserted",
        "sign_with_mark": "n",
        "notes": "blk"
    },
    {
        "id": "vtls004656163_1_21",
        "type": "sailor",
        "parent": "vtls004656163",
        "name": "carl johansson",
        "dob": "blk",
        "age": "19",
        "place_of_birth": "nuberg",
        "home_address": "blk",
        "f": "blk",
        "name_of_ship": "swedish ship",
        "ship_port": "blk",
        "date_leaving": "blk",
        "joined_ship_date": "1888-08-08",
        "joined_at_port": "middlesbrough",
        "capacity": "able seaman",
        "date_left": "1890-02-20",
        "left_port": "goole",
        "cause_of_leaving": "discharged",
        "sign_with_mark": "n",
        "notes": "blk"
    },
    {
        "id": "vtls004656163_1_24",
        "type": "sailor",
        "parent": "vtls004656163",
        "name": "charles davy",
        "dob": "blk",
        "age": "20",
        "place_of_birth": "barnstaple",
        "home_address": "blk",
        "f": "blk",
        "name_of_ship": "[jt] vessel",
        "ship_port": "blk",
        "date_leaving": "blk",
        "joined_ship_date": "1889-05-27",
        "joined_at_port": "pensacola",
        "capacity": "able seaman",
        "date_left": "1889-09-23",
        "left_port": "cape town",
        "cause_of_leaving": "deserted",
        "sign_with_mark": "n",
        "notes": "blk"
    },
    {
        "id": "vtls004656163_1_27",
        "type": "sailor",
        "parent": "vtls004656163",
        "name": "antonio rosoli",
        "dob": "blk",
        "age": "33",
        "place_of_birth": "gibraltar",
        "home_address": "blk",
        "f": "blk",
        "name_of_ship": "sheila",
        "ship_port": "blk",
        "date_leaving": "blk",
        "joined_ship_date": "1889-09-27",
        "joined_at_port": "capetown",
        "capacity": "able seaman",
        "date_left": "1890-02-20",
        "left_port": "goole",
        "cause_of_leaving": "discharged",
        "sign_with_mark": "y",
        "notes": "blk"
    },
    {
        "id": "vtls004656163_1_23",
        "type": "sailor",
        "parent": "vtls004656163",
        "name": "timothy davies",
        "dob": "blk",
        "age": "44",
        "place_of_birth": "aberaeron",
        "home_address": "blk",
        "f": "blk",
        "name_of_ship": "margaret mitchell",
        "ship_port": "blk",
        "date_leaving": "blk",
        "joined_ship_date": "blk",
        "joined_at_port": "blk",
        "capacity": "master",
        "date_left": "blk",
        "left_port": "blk",
        "cause_of_leaving": "remains on board",
        "sign_with_mark": "n",
        "notes": "cert no. = 96999"
    }
]