[
    {
        "id": "vtls004697246_0_12",
        "type": "sailor",
        "parent": "vtls004697246",
        "name": "john richards",
        "dob": "blk",
        "age": "35",
        "place_of_birth": "aberystwyth",
        "home_address": "blk",
        "f": "blk",
        "name_of_ship": "lady pryse",
        "ship_port": "aberystwyth",
        "date_leaving": "1875",
        "joined_ship_date": "1875-09-14",
        "joined_at_port": "london",
        "capacity": "mate",
        "date_left": "1876-08-25",
        "left_port": "london",
        "cause_of_leaving": "discharged",
        "sign_with_mark": "n",
        "notes": "mate certificate no. 26912"
    },
    {
        "id": "vtls004697246_0_11",
        "type": "sailor",
        "parent": "vtls004697246",
        "name": "thomas richards",
        "dob": "blk",
        "age": "27",
        "place_of_birth": "aberystwyth",
        "home_address": "blk",
        "f": "blk",
        "name_of_ship": "lady pryse",
        "ship_port": "aberystwyth",
        "date_leaving": "blk",
        "joined_ship_date": "blk",
        "joined_at_port": "blk",
        "capacity": "master",
        "date_left": "blk",
        "left_port": "blk",
        "cause_of_leaving": "remains on board",
        "sign_with_mark": "n",
        "notes": "master certificate no. 85189"
    },
    {
        "id": "vtls004697246_0_15",
        "type": "sailor",
        "parent": "vtls004697246",
        "name": "thomas davies",
        "dob": "blk",
        "age": "19",
        "place_of_birth": "borth",
        "home_address": "blk",
        "f": "blk",
        "name_of_ship": "catherine",
        "ship_port": "porthmadog",
        "date_leaving": "1875",
        "joined_ship_date": "1875-09-13",
        "joined_at_port": "london",
        "capacity": "able seaman",
        "date_left": "1876-08-25",
        "left_port": "london",
        "cause_of_leaving": "discharged",
        "sign_with_mark": "n",
        "notes": "blk"
    },
    {
        "id": "vtls004697246_0_14",
        "type": "sailor",
        "parent": "vtls004697246",
        "name": "edmund locke",
        "dob": "blk",
        "age": "43",
        "place_of_birth": "london",
        "home_address": "blk",
        "f": "blk",
        "name_of_ship": "diana",
        "ship_port": "aberdyfi",
        "date_leaving": "1875",
        "joined_ship_date": "1875-09-13",
        "joined_at_port": "london",
        "capacity": "cook & steward",
        "date_left": "1876-08-25",
        "left_port": "london",
        "cause_of_leaving": "discharged",
        "sign_with_mark": "n",
        "notes": "blk"
    },
    {
        "id": "vtls004697246_0_13",
        "type": "sailor",
        "parent": "vtls004697246",
        "name": "john davies",
        "dob": "blk",
        "age": "24",
        "place_of_birth": "borth",
        "home_address": "blk",
        "f": "blk",
        "name_of_ship": "catherine",
        "ship_port": "porthmadog",
        "date_leaving": "1875",
        "joined_ship_date": "1875-09-13",
        "joined_at_port": "london",
        "capacity": "boatswain",
        "date_left": "1876-08-25",
        "left_port": "london",
        "cause_of_leaving": "discharged",
        "sign_with_mark": "n",
        "notes": "blk"
    },
    {
        "id": "vtls004697246_1_14",
        "type": "sailor",
        "parent": "vtls004697246",
        "name": "augustus pigott",
        "dob": "blk",
        "age": "26",
        "place_of_birth": "st vincent, british west indies",
        "home_address": "blk",
        "f": "blk",
        "name_of_ship": "arethusa",
        "ship_port": "shields",
        "date_leaving": "1876",
        "joined_ship_date": "1876-11-18",
        "joined_at_port": "london",
        "capacity": "cook & steward",
        "date_left": "1877-05-22",
        "left_port": "falmouth",
        "cause_of_leaving": "discharged",
        "sign_with_mark": "y",
        "notes": "blk"
    },
    {
        "id": "vtls004697246_1_12",
        "type": "sailor",
        "parent": "vtls004697246",
        "name": "david hughes",
        "dob": "blk",
        "age": "30",
        "place_of_birth": "borth, cardiganshire",
        "home_address": "blk",
        "f": "blk",
        "name_of_ship": "ardour",
        "ship_port": "dundee",
        "date_leaving": "1876",
        "joined_ship_date": "1876-11-18",
        "joined_at_port": "london",
        "capacity": "mate",
        "date_left": "1877-06-16",
        "left_port": "southampton",
        "cause_of_leaving": "discharged",
        "sign_with_mark": "n",
        "notes": "mate certificate no. 93075"
    },
    {
        "id": "vtls004697246_1_15",
        "type": "sailor",
        "parent": "vtls004697246",
        "name": "william edwards",
        "dob": "blk",
        "age": "35",
        "place_of_birth": "aberystwyth",
        "home_address": "blk",
        "f": "blk",
        "name_of_ship": "alcyone",
        "ship_port": "liverpool",
        "date_leaving": "1876",
        "joined_ship_date": "1876-11-18",
        "joined_at_port": "london",
        "capacity": "able seaman",
        "date_left": "1877-06-16",
        "left_port": "southampton",
        "cause_of_leaving": "discharged",
        "sign_with_mark": "n",
        "notes": "blk"
    },
    {
        "id": "vtls004697246_1_11",
        "type": "sailor",
        "parent": "vtls004697246",
        "name": "thomas richards",
        "dob": "blk",
        "age": "28",
        "place_of_birth": "aberystwyth",
        "home_address": "blk",
        "f": "blk",
        "name_of_ship": "lady pryse",
        "ship_port": "aberystwyth",
        "date_leaving": "blk",
        "joined_ship_date": "blk",
        "joined_at_port": "blk",
        "capacity": "master",
        "date_left": "blk",
        "left_port": "blk",
        "cause_of_leaving": "remains on board",
        "sign_with_mark": "n",
        "notes": "master certificate no. 85189"
    },
    {
        "id": "vtls004697246_1_16",
        "type": "sailor",
        "parent": "vtls004697246",
        "name": "william thompson",
        "dob": "blk",
        "age": "28",
        "place_of_birth": "sweden",
        "home_address": "blk",
        "f": "blk",
        "name_of_ship": "freya",
        "ship_port": "norway",
        "date_leaving": "1876",
        "joined_ship_date": "1876-11-18",
        "joined_at_port": "london",
        "capacity": "able seaman",
        "date_left": "1877-06-16",
        "left_port": "southampton",
        "cause_of_leaving": "discharged",
        "sign_with_mark": "n",
        "notes": "blk"
    },
    {
        "id": "vtls004697246_0_18",
        "type": "sailor",
        "parent": "vtls004697246",
        "name": "gustav engebrehen",
        "dob": "blk",
        "age": "23",
        "place_of_birth": "norway",
        "home_address": "blk",
        "f": "blk",
        "name_of_ship": "violetta",
        "ship_port": "[memel]",
        "date_leaving": "1875",
        "joined_ship_date": "1875-09-13",
        "joined_at_port": "london",
        "capacity": "able seaman",
        "date_left": "1876-08-25",
        "left_port": "london",
        "cause_of_leaving": "discharged",
        "sign_with_mark": "n",
        "notes": "blk"
    },
    {
        "id": "vtls004697246_0_19",
        "type": "sailor",
        "parent": "vtls004697246",
        "name": "william clarke",
        "dob": "blk",
        "age": "20",
        "place_of_birth": "portsmouth",
        "home_address": "blk",
        "f": "blk",
        "name_of_ship": "bella",
        "ship_port": "wick",
        "date_leaving": "1875",
        "joined_ship_date": "1875-09-14",
        "joined_at_port": "london",
        "capacity": "ordinary seaman",
        "date_left": "1876-08-25",
        "left_port": "london",
        "cause_of_leaving": "discharged",
        "sign_with_mark": "n",
        "notes": "blk"
    },
    {
        "id": "vtls004697246_0_17",
        "type": "sailor",
        "parent": "vtls004697246",
        "name": "moss peterson",
        "dob": "blk",
        "age": "24",
        "place_of_birth": "norway",
        "home_address": "blk",
        "f": "blk",
        "name_of_ship": "violetta",
        "ship_port": "[memel]",
        "date_leaving": "1875",
        "joined_ship_date": "1875-09-13",
        "joined_at_port": "london",
        "capacity": "able seaman",
        "date_left": "1876-08-25",
        "left_port": "london",
        "cause_of_leaving": "discharged",
        "sign_with_mark": "y",
        "notes": "blk"
    },
    {
        "id": "vtls004697246_0_16",
        "type": "sailor",
        "parent": "vtls004697246",
        "name": "peter johnson",
        "dob": "blk",
        "age": "30",
        "place_of_birth": "riga",
        "home_address": "blk",
        "f": "blk",
        "name_of_ship": "violetta",
        "ship_port": "[memel]",
        "date_leaving": "1875",
        "joined_ship_date": "1875-09-13",
        "joined_at_port": "london",
        "capacity": "able seaman",
        "date_left": "1876-08-25",
        "left_port": "london",
        "cause_of_leaving": "discharged",
        "sign_with_mark": "y",
        "notes": "blk"
    },
    {
        "id": "vtls004697246_1_13",
        "type": "sailor",
        "parent": "vtls004697246",
        "name": "john brown",
        "dob": "blk",
        "age": "30",
        "place_of_birth": "london",
        "home_address": "blk",
        "f": "blk",
        "name_of_ship": "[amlota]",
        "ship_port": "london",
        "date_leaving": "1876",
        "joined_ship_date": "1876-11-18",
        "joined_at_port": "london",
        "capacity": "boatswain",
        "date_left": "1877-06-16",
        "left_port": "southampton",
        "cause_of_leaving": "discharged",
        "sign_with_mark": "n",
        "notes": "blk"
    },
    {
        "id": "vtls004697246_2_12",
        "type": "sailor",
        "parent": "vtls004697246",
        "name": "robert evans",
        "dob": "blk",
        "age": "36",
        "place_of_birth": "aberystwyth",
        "home_address": "blk",
        "f": "blk",
        "name_of_ship": "coniscliffe",
        "ship_port": "swansea",
        "date_leaving": "1877",
        "joined_ship_date": "1877-07-17",
        "joined_at_port": "london",
        "capacity": "mate",
        "date_left": "1877-12-02",
        "left_port": "london",
        "cause_of_leaving": "discharged",
        "sign_with_mark": "n",
        "notes": "mate certificate no. 93402"
    },
    {
        "id": "vtls004697246_1_19",
        "type": "sailor",
        "parent": "vtls004697246",
        "name": "levi phillips",
        "dob": "blk",
        "age": "18",
        "place_of_birth": "st davids",
        "home_address": "blk",
        "f": "blk",
        "name_of_ship": "kilvey",
        "ship_port": "aberystwyth",
        "date_leaving": "1876",
        "joined_ship_date": "1876-11-18",
        "joined_at_port": "london",
        "capacity": "ordinary seaman",
        "date_left": "1877-06-16",
        "left_port": "southampton",
        "cause_of_leaving": "discharged",
        "sign_with_mark": "n",
        "notes": "blk"
    },
    {
        "id": "vtls004697246_2_14",
        "type": "sailor",
        "parent": "vtls004697246",
        "name": "william davies",
        "dob": "blk",
        "age": "34",
        "place_of_birth": "aberystwyth",
        "home_address": "blk",
        "f": "blk",
        "name_of_ship": "coquimbo",
        "ship_port": "scarborough",
        "date_leaving": "1877",
        "joined_ship_date": "1877-07-17",
        "joined_at_port": "london",
        "capacity": "cook & steward",
        "date_left": "1877-12-02",
        "left_port": "london",
        "cause_of_leaving": "discharged",
        "sign_with_mark": "n",
        "notes": "blk"
    },
    {
        "id": "vtls004697246_1_20",
        "type": "sailor",
        "parent": "vtls004697246",
        "name": "benjamin w green",
        "dob": "blk",
        "age": "29",
        "place_of_birth": "north shields",
        "home_address": "blk",
        "f": "blk",
        "name_of_ship": "victory",
        "ship_port": "london",
        "date_leaving": "1877",
        "joined_ship_date": "1877-04-07",
        "joined_at_port": "bahia",
        "capacity": "able seaman",
        "date_left": "1877-06-16",
        "left_port": "southampton",
        "cause_of_leaving": "discharged",
        "sign_with_mark": "n",
        "notes": "blk"
    },
    {
        "id": "vtls004697246_1_17",
        "type": "sailor",
        "parent": "vtls004697246",
        "name": "thomas wilson",
        "dob": "blk",
        "age": "38",
        "place_of_birth": "sweden",
        "home_address": "blk",
        "f": "blk",
        "name_of_ship": "star of scotia",
        "ship_port": "belfast",
        "date_leaving": "1876",
        "joined_ship_date": "1876-11-18",
        "joined_at_port": "london",
        "capacity": "able seaman",
        "date_left": "1877-06-01",
        "left_port": "falmouth",
        "cause_of_leaving": "discharged",
        "sign_with_mark": "n",
        "notes": "blk"
    },
    {
        "id": "vtls004697246_2_11",
        "type": "sailor",
        "parent": "vtls004697246",
        "name": "thomas richards",
        "dob": "blk",
        "age": "29",
        "place_of_birth": "aberystwyth",
        "home_address": "blk",
        "f": "blk",
        "name_of_ship": "lady pryse",
        "ship_port": "aberystwyth",
        "date_leaving": "blk",
        "joined_ship_date": "blk",
        "joined_at_port": "blk",
        "capacity": "master",
        "date_left": "blk",
        "left_port": "blk",
        "cause_of_leaving": "remains on board",
        "sign_with_mark": "n",
        "notes": "master certificate no. 85189"
    },
    {
        "id": "vtls004697246_1_21",
        "type": "sailor",
        "parent": "vtls004697246",
        "name": "james pollard",
        "dob": "blk",
        "age": "29",
        "place_of_birth": "liverpool",
        "home_address": "blk",
        "f": "blk",
        "name_of_ship": "jane law",
        "ship_port": "blk",
        "date_leaving": "1877",
        "joined_ship_date": "1877-06-12",
        "joined_at_port": "falmouth",
        "capacity": "able seaman",
        "date_left": "1877-06-16",
        "left_port": "southampton",
        "cause_of_leaving": "discharged",
        "sign_with_mark": "n",
        "notes": "blk"
    },
    {
        "id": "vtls004697246_2_13",
        "type": "sailor",
        "parent": "vtls004697246",
        "name": "thomas clayton",
        "dob": "blk",
        "age": "28",
        "place_of_birth": "aberystwyth",
        "home_address": "blk",
        "f": "blk",
        "name_of_ship": "clarissa",
        "ship_port": "aberystwyth",
        "date_leaving": "1877",
        "joined_ship_date": "1877-07-17",
        "joined_at_port": "london",
        "capacity": "boatswain",
        "date_left": "1877-12-02",
        "left_port": "london",
        "cause_of_leaving": "discharged",
        "sign_with_mark": "n",
        "notes": "blk"
    },
    {
        "id": "vtls004697246_1_18",
        "type": "sailor",
        "parent": "vtls004697246",
        "name": "ole hendrickson",
        "dob": "blk",
        "age": "20",
        "place_of_birth": "norway",
        "home_address": "blk",
        "f": "blk",
        "name_of_ship": "freya",
        "ship_port": "norway",
        "date_leaving": "1876",
        "joined_ship_date": "1876-11-18",
        "joined_at_port": "london",
        "capacity": "able seaman",
        "date_left": "1877-04-07",
        "left_port": "bahia",
        "cause_of_leaving": "left sick",
        "sign_with_mark": "y",
        "notes": "blk"
    },
    {
        "id": "vtls004905954_0_12",
        "type": "sailor",
        "parent": "vtls004905954",
        "name": "john e evans",
        "dob": "blk",
        "age": "38",
        "place_of_birth": "aberystwyth",
        "home_address": "blk",
        "f": "blk",
        "name_of_ship": "ottowa",
        "ship_port": "swansea",
        "date_leaving": "1878",
        "joined_ship_date": "1878-01-30",
        "joined_at_port": "london",
        "capacity": "mate",
        "date_left": "1878-05-21",
        "left_port": "southampton",
        "cause_of_leaving": "discharged",
        "sign_with_mark": "n",
        "notes": "mate certificate no. 82914"
    },
    {
        "id": "vtls004905954_0_11",
        "type": "sailor",
        "parent": "vtls004905954",
        "name": "thomas richards",
        "dob": "blk",
        "age": "30",
        "place_of_birth": "aberystwyth",
        "home_address": "blk",
        "f": "blk",
        "name_of_ship": "lady pryse",
        "ship_port": "aberystwyth",
        "date_leaving": "blk",
        "joined_ship_date": "blk",
        "joined_at_port": "blk",
        "capacity": "master",
        "date_left": "blk",
        "left_port": "blk",
        "cause_of_leaving": "remains on board",
        "sign_with_mark": "n",
        "notes": "masters certificate no. 85189"
    },
    {
        "id": "vtls004697246_2_19",
        "type": "sailor",
        "parent": "vtls004697246",
        "name": "david richards",
        "dob": "blk",
        "age": "17",
        "place_of_birth": "aberystwyth",
        "home_address": "blk",
        "f": "blk",
        "name_of_ship": "cromwell",
        "ship_port": "london",
        "date_leaving": "1877",
        "joined_ship_date": "1877-07-19",
        "joined_at_port": "london",
        "capacity": "ordinary seaman",
        "date_left": "1877-12-02",
        "left_port": "london",
        "cause_of_leaving": "discharged",
        "sign_with_mark": "n",
        "notes": "blk"
    },
    {
        "id": "vtls004697246_2_18",
        "type": "sailor",
        "parent": "vtls004697246",
        "name": "john hall",
        "dob": "blk",
        "age": "24",
        "place_of_birth": "hobart town",
        "home_address": "blk",
        "f": "blk",
        "name_of_ship": "[gle$ eagle]",
        "ship_port": "london",
        "date_leaving": "1877",
        "joined_ship_date": "1877-07-19",
        "joined_at_port": "london",
        "capacity": "ordinary seaman",
        "date_left": "1877-12-02",
        "left_port": "london",
        "cause_of_leaving": "discharged",
        "sign_with_mark": "n",
        "notes": "blk"
    },
    {
        "id": "vtls004697246_2_15",
        "type": "sailor",
        "parent": "vtls004697246",
        "name": "william burke",
        "dob": "blk",
        "age": "23",
        "place_of_birth": "sweden",
        "home_address": "blk",
        "f": "blk",
        "name_of_ship": "undine",
        "ship_port": "south shields",
        "date_leaving": "1877",
        "joined_ship_date": "1877-07-17",
        "joined_at_port": "london",
        "capacity": "able seaman",
        "date_left": "1877-12-02",
        "left_port": "london",
        "cause_of_leaving": "discharged",
        "sign_with_mark": "n",
        "notes": "blk"
    },
    {
        "id": "vtls004697246_2_16",
        "type": "sailor",
        "parent": "vtls004697246",
        "name": "frank falloer",
        "dob": "blk",
        "age": "35",
        "place_of_birth": "rotterdam",
        "home_address": "blk",
        "f": "blk",
        "name_of_ship": "dundee",
        "ship_port": "london",
        "date_leaving": "1877",
        "joined_ship_date": "1877-07-19",
        "joined_at_port": "london",
        "capacity": "able seaman",
        "date_left": "1877-12-02",
        "left_port": "london",
        "cause_of_leaving": "discharged",
        "sign_with_mark": "y",
        "notes": "blk"
    },
    {
        "id": "vtls004697246_2_17",
        "type": "sailor",
        "parent": "vtls004697246",
        "name": "jem wohl",
        "dob": "blk",
        "age": "29",
        "place_of_birth": "norway",
        "home_address": "blk",
        "f": "blk",
        "name_of_ship": "norwegian ship",
        "ship_port": "blk",
        "date_leaving": "1877",
        "joined_ship_date": "1877-07-19",
        "joined_at_port": "london",
        "capacity": "able seaman",
        "date_left": "1877-12-02",
        "left_port": "london",
        "cause_of_leaving": "discharged",
        "sign_with_mark": "n",
        "notes": "blk"
    },
    {
        "id": "vtls004905954_0_19",
        "type": "sailor",
        "parent": "vtls004905954",
        "name": "david j richards",
        "dob": "blk",
        "age": "17",
        "place_of_birth": "aberystwyth",
        "home_address": "blk",
        "f": "blk",
        "name_of_ship": "lady pryse",
        "ship_port": "aberystwyth",
        "date_leaving": "1878",
        "joined_ship_date": "1878-01-30",
        "joined_at_port": "london",
        "capacity": "ordinary seaman",
        "date_left": "1878-05-21",
        "left_port": "southampton",
        "cause_of_leaving": "discharged",
        "sign_with_mark": "n",
        "notes": "blk"
    },
    {
        "id": "vtls004905954_0_21",
        "type": "sailor",
        "parent": "vtls004905954",
        "name": "james cole",
        "dob": "blk",
        "age": "35",
        "place_of_birth": "shanghai",
        "home_address": "blk",
        "f": "blk",
        "name_of_ship": "george h oulton",
        "ship_port": "st john nb",
        "date_leaving": "1887",
        "joined_ship_date": "1878-02-02",
        "joined_at_port": "london",
        "capacity": "cook & steward",
        "date_left": "1878-05-21",
        "left_port": "southampton",
        "cause_of_leaving": "discharged",
        "sign_with_mark": "y",
        "notes": "blk"
    },
    {
        "id": "vtls004905954_0_17",
        "type": "sailor",
        "parent": "vtls004905954",
        "name": "david hughes jones",
        "dob": "blk",
        "age": "20",
        "place_of_birth": "aberystwyth",
        "home_address": "blk",
        "f": "blk",
        "name_of_ship": "warrior",
        "ship_port": "liverpool",
        "date_leaving": "1878",
        "joined_ship_date": "1878-01-30",
        "joined_at_port": "london",
        "capacity": "able seaman",
        "date_left": "1878-05-21",
        "left_port": "southampton",
        "cause_of_leaving": "discharged",
        "sign_with_mark": "n",
        "notes": "blk"
    },
    {
        "id": "vtls004905954_0_15",
        "type": "sailor",
        "parent": "vtls004905954",
        "name": "john morgan",
        "dob": "blk",
        "age": "28",
        "place_of_birth": "aberystwyth",
        "home_address": "blk",
        "f": "blk",
        "name_of_ship": "john william",
        "ship_port": "aberystwyth",
        "date_leaving": "1878",
        "joined_ship_date": "1878-01-30",
        "joined_at_port": "london",
        "capacity": "able seaman",
        "date_left": "1878-05-21",
        "left_port": "southampton",
        "cause_of_leaving": "discharged",
        "sign_with_mark": "n",
        "notes": "blk"
    },
    {
        "id": "vtls004905954_0_16",
        "type": "sailor",
        "parent": "vtls004905954",
        "name": "thomas thomas",
        "dob": "blk",
        "age": "21",
        "place_of_birth": "aberystwyth",
        "home_address": "blk",
        "f": "blk",
        "name_of_ship": "desdemona",
        "ship_port": "aberystwyth",
        "date_leaving": "1878",
        "joined_ship_date": "1878-01-30",
        "joined_at_port": "london",
        "capacity": "able seaman",
        "date_left": "1878-05-21",
        "left_port": "southampton",
        "cause_of_leaving": "discharged",
        "sign_with_mark": "n",
        "notes": "blk"
    },
    {
        "id": "vtls004905954_0_13",
        "type": "sailor",
        "parent": "vtls004905954",
        "name": "thomas clayton",
        "dob": "blk",
        "age": "29",
        "place_of_birth": "aberystwyth",
        "home_address": "blk",
        "f": "blk",
        "name_of_ship": "lady pryse",
        "ship_port": "aberystwyth",
        "date_leaving": "1878",
        "joined_ship_date": "1878-01-30",
        "joined_at_port": "london",
        "capacity": "boatswain",
        "date_left": "1878-05-21",
        "left_port": "southampton",
        "cause_of_leaving": "discharged",
        "sign_with_mark": "n",
        "notes": "blk"
    },
    {
        "id": "vtls004905954_0_14",
        "type": "sailor",
        "parent": "vtls004905954",
        "name": "william davies",
        "dob": "blk",
        "age": "35",
        "place_of_birth": "aberystwyth",
        "home_address": "blk",
        "f": "blk",
        "name_of_ship": "lady pryse",
        "ship_port": "aberystwyth",
        "date_leaving": "1878",
        "joined_ship_date": "1878-01-30",
        "joined_at_port": "london",
        "capacity": "cook & steward",
        "date_left": "1878-02-02",
        "left_port": "london",
        "cause_of_leaving": "left sick",
        "sign_with_mark": "n",
        "notes": "blk"
    },
    {
        "id": "vtls004905954_0_18",
        "type": "sailor",
        "parent": "vtls004905954",
        "name": "evan davies",
        "dob": "blk",
        "age": "18",
        "place_of_birth": "aberystwyth",
        "home_address": "blk",
        "f": "blk",
        "name_of_ship": "laura",
        "ship_port": "porthmadog",
        "date_leaving": "1878",
        "joined_ship_date": "1878-01-30",
        "joined_at_port": "london",
        "capacity": "ordinary seaman",
        "date_left": "1878-05-21",
        "left_port": "southampton",
        "cause_of_leaving": "discharged",
        "sign_with_mark": "n",
        "notes": "blk"
    },
    {
        "id": "vtls004905954_1_11",
        "type": "sailor",
        "parent": "vtls004905954",
        "name": "thomas richards",
        "dob": "blk",
        "age": "30",
        "place_of_birth": "aberystwyth",
        "home_address": "blk",
        "f": "blk",
        "name_of_ship": "lady pryse",
        "ship_port": "aberystwyth",
        "date_leaving": "blk",
        "joined_ship_date": "blk",
        "joined_at_port": "blk",
        "capacity": "master",
        "date_left": "blk",
        "left_port": "blk",
        "cause_of_leaving": "remains on board",
        "sign_with_mark": "n",
        "notes": "master's certificate no. 85189"
    },
    {
        "id": "vtls004905954_0_20",
        "type": "sailor",
        "parent": "vtls004905954",
        "name": "joseph williams",
        "dob": "blk",
        "age": "30",
        "place_of_birth": "nassau",
        "home_address": "blk",
        "f": "blk",
        "name_of_ship": "emblyn",
        "ship_port": "ipswich",
        "date_leaving": "1878",
        "joined_ship_date": "1878-01-30",
        "joined_at_port": "london",
        "capacity": "able seaman",
        "date_left": "1878-03-28",
        "left_port": "nassau np",
        "cause_of_leaving": "discharged",
        "sign_with_mark": "y",
        "notes": "blk"
    },
    {
        "id": "vtls004905954_1_12",
        "type": "sailor",
        "parent": "vtls004905954",
        "name": "john e evans",
        "dob": "blk",
        "age": "38",
        "place_of_birth": "aberystwyth",
        "home_address": "blk",
        "f": "blk",
        "name_of_ship": "lady pryse",
        "ship_port": "aberystwyth",
        "date_leaving": "blk",
        "joined_ship_date": "1878-06-14",
        "joined_at_port": "london",
        "capacity": "mate",
        "date_left": "1879-02-17",
        "left_port": "falmouth",
        "cause_of_leaving": "discharged",
        "sign_with_mark": "n",
        "notes": "mate's certificate no. 82914"
    },
    {
        "id": "vtls004905954_1_19",
        "type": "sailor",
        "parent": "vtls004905954",
        "name": "evan davies",
        "dob": "blk",
        "age": "17",
        "place_of_birth": "aberystwyth",
        "home_address": "blk",
        "f": "blk",
        "name_of_ship": "lady pryse",
        "ship_port": "aberystwyth",
        "date_leaving": "blk",
        "joined_ship_date": "1878-06-14",
        "joined_at_port": "london",
        "capacity": "ordinary seaman",
        "date_left": "1879-03-03",
        "left_port": "liverpool",
        "cause_of_leaving": "discharged",
        "sign_with_mark": "n",
        "notes": "blk"
    },
    {
        "id": "vtls004905954_1_13",
        "type": "sailor",
        "parent": "vtls004905954",
        "name": "john evans",
        "dob": "blk",
        "age": "34",
        "place_of_birth": "aberystwyth",
        "home_address": "blk",
        "f": "blk",
        "name_of_ship": "mediterranean",
        "ship_port": "aberystwyth",
        "date_leaving": "1878",
        "joined_ship_date": "1878-06-14",
        "joined_at_port": "london",
        "capacity": "boatswain",
        "date_left": "1879-03-03",
        "left_port": "liverpool",
        "cause_of_leaving": "discharged",
        "sign_with_mark": "n",
        "notes": "blk"
    },
    {
        "id": "vtls004905954_1_15",
        "type": "sailor",
        "parent": "vtls004905954",
        "name": "thomas thomas",
        "dob": "blk",
        "age": "21",
        "place_of_birth": "aberystwyth",
        "home_address": "blk",
        "f": "blk",
        "name_of_ship": "lady pryse",
        "ship_port": "aberystwyth",
        "date_leaving": "blk",
        "joined_ship_date": "1878-06-14",
        "joined_at_port": "london",
        "capacity": "able seaman",
        "date_left": "1879-03-03",
        "left_port": "liverpool",
        "cause_of_leaving": "discharged",
        "sign_with_mark": "n",
        "notes": "blk"
    },
    {
        "id": "vtls004905954_1_20",
        "type": "sailor",
        "parent": "vtls004905954",
        "name": "robert king",
        "dob": "blk",
        "age": "39",
        "place_of_birth": "wigtown",
        "home_address": "blk",
        "f": "blk",
        "name_of_ship": "cock o' the north",
        "ship_port": "blk",
        "date_leaving": "1878",
        "joined_ship_date": "1878-10-22",
        "joined_at_port": "port natal",
        "capacity": "able seaman",
        "date_left": "1879-03-03",
        "left_port": "liverpool",
        "cause_of_leaving": "discharged",
        "sign_with_mark": "n",
        "notes": "blk"
    },
    {
        "id": "vtls004905954_1_14",
        "type": "sailor",
        "parent": "vtls004905954",
        "name": "jas cole",
        "dob": "blk",
        "age": "35",
        "place_of_birth": "china",
        "home_address": "blk",
        "f": "blk",
        "name_of_ship": "lady pryse",
        "ship_port": "aberystwyth",
        "date_leaving": "blk",
        "joined_ship_date": "1878-06-14",
        "joined_at_port": "london",
        "capacity": "cook & steward",
        "date_left": "1879-03-03",
        "left_port": "liverpool",
        "cause_of_leaving": "discharged",
        "sign_with_mark": "y",
        "notes": "blk"
    },
    {
        "id": "vtls004905954_1_18",
        "type": "sailor",
        "parent": "vtls004905954",
        "name": "g richards",
        "dob": "blk",
        "age": "22",
        "place_of_birth": "london",
        "home_address": "blk",
        "f": "blk",
        "name_of_ship": "claudia",
        "ship_port": "aberystwyth",
        "date_leaving": "1878",
        "joined_ship_date": "1878-06-14",
        "joined_at_port": "london",
        "capacity": "ordinary seaman",
        "date_left": "1879-03-03",
        "left_port": "liverpool",
        "cause_of_leaving": "discharged",
        "sign_with_mark": "n",
        "notes": "blk"
    },
    {
        "id": "vtls004905954_1_17",
        "type": "sailor",
        "parent": "vtls004905954",
        "name": "robert owens",
        "dob": "blk",
        "age": "27",
        "place_of_birth": "rhyl",
        "home_address": "blk",
        "f": "blk",
        "name_of_ship": "bessie h",
        "ship_port": "st john nb",
        "date_leaving": "1878",
        "joined_ship_date": "1878-06-14",
        "joined_at_port": "london",
        "capacity": "able seaman",
        "date_left": "1878-10-14",
        "left_port": "port natal",
        "cause_of_leaving": "left in gaol",
        "sign_with_mark": "y",
        "notes": "blk"
    },
    {
        "id": "vtls004905954_1_16",
        "type": "sailor",
        "parent": "vtls004905954",
        "name": "david d davies",
        "dob": "blk",
        "age": "19",
        "place_of_birth": "borth",
        "home_address": "blk",
        "f": "blk",
        "name_of_ship": "sabrina",
        "ship_port": "caernarfon",
        "date_leaving": "1878",
        "joined_ship_date": "1878-06-14",
        "joined_at_port": "london",
        "capacity": "able seaman",
        "date_left": "1879-03-03",
        "left_port": "liverpool",
        "cause_of_leaving": "discharged",
        "sign_with_mark": "n",
        "notes": "blk"
    },
    {
        "id": "vtls004905989_0_11",
        "type": "sailor",
        "parent": "vtls004905989",
        "name": "evan lloyd",
        "dob": "blk",
        "age": "30",
        "place_of_birth": "aberaeron",
        "home_address": "blk",
        "f": "blk",
        "name_of_ship": "lady pryse",
        "ship_port": "aberystwyth",
        "date_leaving": "1879",
        "joined_ship_date": "1879-10-23",
        "joined_at_port": "london",
        "capacity": "master",
        "date_left": "1880-06-29",
        "left_port": "london",
        "cause_of_leaving": "remains on board",
        "sign_with_mark": "n",
        "notes": "blk"
    },
    {
        "id": "vtls004905989_0_14",
        "type": "sailor",
        "parent": "vtls004905989",
        "name": "william jenkins",
        "dob": "blk",
        "age": "25",
        "place_of_birth": "aberaeron",
        "home_address": "blk",
        "f": "blk",
        "name_of_ship": "lady pryse",
        "ship_port": "aberystwyth",
        "date_leaving": "1879",
        "joined_ship_date": "1879-10-23",
        "joined_at_port": "london",
        "capacity": "able seaman",
        "date_left": "1880-06-29",
        "left_port": "london",
        "cause_of_leaving": "discharged",
        "sign_with_mark": "n",
        "notes": "blk"
    },
    {
        "id": "vtls004905989_0_18",
        "type": "sailor",
        "parent": "vtls004905989",
        "name": "james robertson",
        "dob": "blk",
        "age": "21",
        "place_of_birth": "aberaeron",
        "home_address": "blk",
        "f": "blk",
        "name_of_ship": "isabella ure",
        "ship_port": "glasgow",
        "date_leaving": "1879",
        "joined_ship_date": "1879-10-28",
        "joined_at_port": "london",
        "capacity": "able seaman",
        "date_left": "1880-06-29",
        "left_port": "london",
        "cause_of_leaving": "discharged",
        "sign_with_mark": "n",
        "notes": "blk"
    },
    {
        "id": "vtls004905989_0_12",
        "type": "sailor",
        "parent": "vtls004905989",
        "name": "william jones",
        "dob": "blk",
        "age": "21",
        "place_of_birth": "aberaeron",
        "home_address": "blk",
        "f": "blk",
        "name_of_ship": "lady pryse",
        "ship_port": "aberystwyth",
        "date_leaving": "1879",
        "joined_ship_date": "1879-10-23",
        "joined_at_port": "london",
        "capacity": "mate",
        "date_left": "1880-06-29",
        "left_port": "london",
        "cause_of_leaving": "discharged",
        "sign_with_mark": "n",
        "notes": "blk"
    },
    {
        "id": "vtls004905989_0_17",
        "type": "sailor",
        "parent": "vtls004905989",
        "name": "david evans",
        "dob": "blk",
        "age": "21",
        "place_of_birth": "aberaeron",
        "home_address": "blk",
        "f": "blk",
        "name_of_ship": "isabella ure",
        "ship_port": "glasgow",
        "date_leaving": "1879",
        "joined_ship_date": "1879-10-28",
        "joined_at_port": "london",
        "capacity": "able seaman",
        "date_left": "1880-06-29",
        "left_port": "london",
        "cause_of_leaving": "discharged",
        "sign_with_mark": "n",
        "notes": "blk"
    },
    {
        "id": "vtls004905989_0_16",
        "type": "sailor",
        "parent": "vtls004905989",
        "name": "david ross",
        "dob": "blk",
        "age": "18",
        "place_of_birth": "aberaeron",
        "home_address": "blk",
        "f": "blk",
        "name_of_ship": "madona",
        "ship_port": "aberystwyth",
        "date_leaving": "1879",
        "joined_ship_date": "1879-10-23",
        "joined_at_port": "london",
        "capacity": "able seaman",
        "date_left": "1880-06-29",
        "left_port": "london",
        "cause_of_leaving": "discharged",
        "sign_with_mark": "n",
        "notes": "blk"
    },
    {
        "id": "vtls004905989_0_13",
        "type": "sailor",
        "parent": "vtls004905989",
        "name": "peter johnson",
        "dob": "blk",
        "age": "45",
        "place_of_birth": "london",
        "home_address": "blk",
        "f": "blk",
        "name_of_ship": "holland",
        "ship_port": "liverpool",
        "date_leaving": "1879",
        "joined_ship_date": "1879-10-23",
        "joined_at_port": "london",
        "capacity": "boatswain",
        "date_left": "1880-06-29",
        "left_port": "london",
        "cause_of_leaving": "discharged",
        "sign_with_mark": "y",
        "notes": "blk"
    },
    {
        "id": "vtls004905989_1_17",
        "type": "sailor",
        "parent": "vtls004905989",
        "name": "christian nielson",
        "dob": "blk",
        "age": "29",
        "place_of_birth": "stein, norway",
        "home_address": "79 permington street",
        "f": "79 permington street",
        "name_of_ship": "seringapatam",
        "ship_port": "liverpool",
        "date_leaving": "1880",
        "joined_ship_date": "1880-08-07",
        "joined_at_port": "london",
        "capacity": "able seaman",
        "date_left": "1880-11-10",
        "left_port": "mossel bay, cape of good hope",
        "cause_of_leaving": "vessel wrecked. crew discharged",
        "sign_with_mark": "y",
        "notes": "blk"
    },
    {
        "id": "vtls004905989_1_14",
        "type": "sailor",
        "parent": "vtls004905989",
        "name": "john lisles",
        "dob": "blk",
        "age": "42",
        "place_of_birth": "columbia, south carolina",
        "home_address": "23 nell street",
        "f": "23 nell street",
        "name_of_ship": "sea foam",
        "ship_port": "london",
        "date_leaving": "1880",
        "joined_ship_date": "1880-08-06",
        "joined_at_port": "london",
        "capacity": "cook & steward",
        "date_left": "1880-11-10",
        "left_port": "mossel bay, cape of good hope",
        "cause_of_leaving": "vessel wrecked. crew discharged",
        "sign_with_mark": "y",
        "notes": "blk"
    },
    {
        "id": "vtls004905989_1_11",
        "type": "sailor",
        "parent": "vtls004905989",
        "name": "evan lloyd",
        "dob": "blk",
        "age": "31",
        "place_of_birth": "aberaeron",
        "home_address": "19 alban street, aberayron",
        "f": "19 alban street, aberayron",
        "name_of_ship": "lady pryse",
        "ship_port": "aberystwyth",
        "date_leaving": "1880",
        "joined_ship_date": "1880-08-06",
        "joined_at_port": "london",
        "capacity": "master",
        "date_left": "1880-11-10",
        "left_port": "mossel bay, cape of good hope",
        "cause_of_leaving": "vessel wrecked. crew discharged",
        "sign_with_mark": "n",
        "notes": "blk"
    },
    {
        "id": "vtls004905989_1_19",
        "type": "sailor",
        "parent": "vtls004905989",
        "name": "magnus olfron",
        "dob": "blk",
        "age": "22",
        "place_of_birth": "sweden",
        "home_address": "79 permington street",
        "f": "79 permington street",
        "name_of_ship": "swedish ship",
        "ship_port": "blk",
        "date_leaving": "1880",
        "joined_ship_date": "1880-08-07",
        "joined_at_port": "london",
        "capacity": "ordinary seaman",
        "date_left": "1880-11-10",
        "left_port": "mossel bay, cape of good hope",
        "cause_of_leaving": "vessel wrecked. crew discharged",
        "sign_with_mark": "n",
        "notes": "blk"
    },
    {
        "id": "vtls004905989_1_13",
        "type": "sailor",
        "parent": "vtls004905989",
        "name": "john evans",
        "dob": "blk",
        "age": "26",
        "place_of_birth": "aberaeron",
        "home_address": "17 albert st., aberayron",
        "f": "17 albert st., aberayron",
        "name_of_ship": "milanese",
        "ship_port": "liverpool",
        "date_leaving": "1880",
        "joined_ship_date": "1880-08-07",
        "joined_at_port": "london",
        "capacity": "boatswain",
        "date_left": "1880-11-10",
        "left_port": "mossel bay, cape of good hope",
        "cause_of_leaving": "vessel wrecked. crew discharged",
        "sign_with_mark": "n",
        "notes": "blk"
    },
    {
        "id": "vtls004905989_1_18",
        "type": "sailor",
        "parent": "vtls004905989",
        "name": "daniel jones",
        "dob": "blk",
        "age": "20",
        "place_of_birth": "llanarth, cardiganshire",
        "home_address": "blk",
        "f": "blk",
        "name_of_ship": "m phillips",
        "ship_port": "newquay",
        "date_leaving": "1880",
        "joined_ship_date": "1880-08-07",
        "joined_at_port": "london",
        "capacity": "ordinary seaman",
        "date_left": "1880-11-10",
        "left_port": "mossel bay, cape of good hope",
        "cause_of_leaving": "vessel wrecked. crew discharged",
        "sign_with_mark": "n",
        "notes": "blk"
    },
    {
        "id": "vtls004905989_1_15",
        "type": "sailor",
        "parent": "vtls004905989",
        "name": "john steward",
        "dob": "blk",
        "age": "24",
        "place_of_birth": "st louis",
        "home_address": "blk",
        "f": "blk",
        "name_of_ship": "general nott",
        "ship_port": "aberystwyth",
        "date_leaving": "1880",
        "joined_ship_date": "1880-08-06",
        "joined_at_port": "london",
        "capacity": "able seaman",
        "date_left": "1880-11-10",
        "left_port": "mossel bay, cape of good hope",
        "cause_of_leaving": "vessel wrecked. crew discharged",
        "sign_with_mark": "n",
        "notes": "blk"
    },
    {
        "id": "vtls004905989_1_12",
        "type": "sailor",
        "parent": "vtls004905989",
        "name": "john richards",
        "dob": "blk",
        "age": "33",
        "place_of_birth": "llanon",
        "home_address": "llanon, cardigan",
        "f": "llanon, cardigan",
        "name_of_ship": "macedon",
        "ship_port": "greenock",
        "date_leaving": "1880",
        "joined_ship_date": "1880-08-06",
        "joined_at_port": "london",
        "capacity": "mate",
        "date_left": "1880-11-10",
        "left_port": "mossel bay, cape of good hope",
        "cause_of_leaving": "vessel wrecked. crew discharged",
        "sign_with_mark": "n",
        "notes": "blk"
    },
    {
        "id": "vtls004905989_1_16",
        "type": "sailor",
        "parent": "vtls004905989",
        "name": "robert garreth",
        "dob": "blk",
        "age": "23",
        "place_of_birth": "porthleven",
        "home_address": "232 st georges street",
        "f": "232 st georges street",
        "name_of_ship": "persian",
        "ship_port": "plymouth",
        "date_leaving": "1880",
        "joined_ship_date": "1880-08-06",
        "joined_at_port": "london",
        "capacity": "able seaman",
        "date_left": "blk",
        "left_port": "blk",
        "cause_of_leaving": "not joined",
        "sign_with_mark": "n",
        "notes": "blk"
    },
    {
        "id": "vtls004905989_0_19",
        "type": "sailor",
        "parent": "vtls004905989",
        "name": "anton christensen",
        "dob": "blk",
        "age": "19",
        "place_of_birth": "copenhagen",
        "home_address": "blk",
        "f": "blk",
        "name_of_ship": "danish vessel",
        "ship_port": "blk",
        "date_leaving": "1879",
        "joined_ship_date": "1879-10-28",
        "joined_at_port": "london",
        "capacity": "able seaman",
        "date_left": "1880-06-29",
        "left_port": "london",
        "cause_of_leaving": "discharged",
        "sign_with_mark": "n",
        "notes": "blk"
    },
    {
        "id": "vtls004905989_1_20",
        "type": "sailor",
        "parent": "vtls004905989",
        "name": "henry wilson",
        "dob": "blk",
        "age": "26",
        "place_of_birth": "aqqui$$akes",
        "home_address": "blk",
        "f": "blk",
        "name_of_ship": "wandering chief",
        "ship_port": "banff",
        "date_leaving": "1880",
        "joined_ship_date": "1880-08-14",
        "joined_at_port": "gravesend",
        "capacity": "able seaman",
        "date_left": "1880-11-10",
        "left_port": "mossel bay, cape of good hope",
        "cause_of_leaving": "vessel wrecked. crew discharged",
        "sign_with_mark": "n",
        "notes": "blk"
    }
]