[
    {
        "id": "vtls004609980_0_13",
        "type": "sailor",
        "parent": "vtls004609980",
        "name": "cw donaldson",
        "dob": "1856",
        "age": "blk",
        "place_of_birth": "bangor",
        "home_address": "blk",
        "f": "blk",
        "name_of_ship": "ann jones",
        "ship_port": "aberystwyth",
        "date_leaving": "1886",
        "joined_ship_date": "1886-01-28",
        "joined_at_port": "sunderland",
        "capacity": "able seaman",
        "date_left": "1886-07-08",
        "left_port": "caernarfon",
        "cause_of_leaving": "remains on board",
        "sign_with_mark": "n",
        "notes": "royal naval reserve number 74657"
    },
    {
        "id": "vtls004609980_1_13",
        "type": "sailor",
        "parent": "vtls004609980",
        "name": "thomas pitt",
        "dob": "1868",
        "age": "blk",
        "place_of_birth": "cowbridge",
        "home_address": "blk",
        "f": "blk",
        "name_of_ship": "ann jones",
        "ship_port": "aberystwyth",
        "date_leaving": "1886",
        "joined_ship_date": "1886-07-20",
        "joined_at_port": "caernarfon",
        "capacity": "ordinary seaman",
        "date_left": "remains",
        "left_port": "remains",
        "cause_of_leaving": "remains on board",
        "sign_with_mark": "n",
        "notes": "blk"
    },
    {
        "id": "vtls004609980_0_14",
        "type": "sailor",
        "parent": "vtls004609980",
        "name": "w james howells",
        "dob": "1870",
        "age": "blk",
        "place_of_birth": "cardigan",
        "home_address": "blk",
        "f": "blk",
        "name_of_ship": "first ship",
        "ship_port": "blk",
        "date_leaving": "blk",
        "joined_ship_date": "1886-01-28",
        "joined_at_port": "sunderland",
        "capacity": "ordinary seaman",
        "date_left": "remains",
        "left_port": "remains",
        "cause_of_leaving": "remains on board",
        "sign_with_mark": "n",
        "notes": "blk"
    },
    {
        "id": "vtls004609980_1_14",
        "type": "sailor",
        "parent": "vtls004609980",
        "name": "james parry",
        "dob": "1867",
        "age": "blk",
        "place_of_birth": "caernarfon",
        "home_address": "blk",
        "f": "blk",
        "name_of_ship": "ann jones",
        "ship_port": "aberystwyth",
        "date_leaving": "1886",
        "joined_ship_date": "1886-07-20",
        "joined_at_port": "caernarfon",
        "capacity": "able seaman",
        "date_left": "remains",
        "left_port": "remains",
        "cause_of_leaving": "remains on board",
        "sign_with_mark": "n",
        "notes": "blk"
    },
    {
        "id": "vtls004609980_0_12",
        "type": "sailor",
        "parent": "vtls004609980",
        "name": "john jones",
        "dob": "1850",
        "age": "blk",
        "place_of_birth": "aberystwyth",
        "home_address": "blk",
        "f": "blk",
        "name_of_ship": "ann jones",
        "ship_port": "aberystwyth",
        "date_leaving": "1886",
        "joined_ship_date": "1886-01-28",
        "joined_at_port": "sunderland",
        "capacity": "mate",
        "date_left": "1886-07-08",
        "left_port": "caernarfon",
        "cause_of_leaving": "remains on board",
        "sign_with_mark": "n",
        "notes": "blk"
    },
    {
        "id": "vtls004609980_1_12",
        "type": "sailor",
        "parent": "vtls004609980",
        "name": "john jones",
        "dob": "1849",
        "age": "blk",
        "place_of_birth": "aberystwyth",
        "home_address": "blk",
        "f": "blk",
        "name_of_ship": "ann jones",
        "ship_port": "aberystwyth",
        "date_leaving": "1886",
        "joined_ship_date": "1886-07-20",
        "joined_at_port": "caernarfon",
        "capacity": "mate",
        "date_left": "remains",
        "left_port": "remains",
        "cause_of_leaving": "remains on board",
        "sign_with_mark": "n",
        "notes": "blk"
    },
    {
        "id": "vtls004609982_1_14",
        "type": "sailor",
        "parent": "vtls004609982",
        "name": "paul suton",
        "dob": "1867",
        "age": "blk",
        "place_of_birth": "new ross",
        "home_address": "blk",
        "f": "blk",
        "name_of_ship": "anne jones",
        "ship_port": "aberystwyth",
        "date_leaving": "1887",
        "joined_ship_date": "1887-04-20",
        "joined_at_port": "newross",
        "capacity": "ordinary seaman",
        "date_left": "1887-11-27",
        "left_port": "belfast lough",
        "cause_of_leaving": "discharged",
        "sign_with_mark": "n",
        "notes": "blk"
    },
    {
        "id": "vtls004609982_0_14",
        "type": "sailor",
        "parent": "vtls004609982",
        "name": "thomas pitt",
        "dob": "1868",
        "age": "blk",
        "place_of_birth": "cowbridge",
        "home_address": "blk",
        "f": "blk",
        "name_of_ship": "ann jones",
        "ship_port": "aberystwyth",
        "date_leaving": "1887",
        "joined_ship_date": "1887-01-24",
        "joined_at_port": "caernarfon",
        "capacity": "ordinary seaman",
        "date_left": "1887-06-28",
        "left_port": "runcorn",
        "cause_of_leaving": "discharged",
        "sign_with_mark": "n",
        "notes": "blk"
    },
    {
        "id": "vtls004609982_1_12",
        "type": "sailor",
        "parent": "vtls004609982",
        "name": "edward david jones",
        "dob": "1867",
        "age": "blk",
        "place_of_birth": "aberystwyth",
        "home_address": "blk",
        "f": "blk",
        "name_of_ship": "ann jones",
        "ship_port": "aberystwyth",
        "date_leaving": "1887",
        "joined_ship_date": "1887-07-04",
        "joined_at_port": "runcorn",
        "capacity": "mate",
        "date_left": "1887-11-27",
        "left_port": "belfast lough",
        "cause_of_leaving": "discharged",
        "sign_with_mark": "n",
        "notes": "blk"
    },
    {
        "id": "vtls004609777_0_13",
        "type": "sailor",
        "parent": "vtls004609777",
        "name": "david jones",
        "dob": "blk",
        "age": "35",
        "place_of_birth": "aberaeron",
        "home_address": "blk",
        "f": "blk",
        "name_of_ship": "henry",
        "ship_port": "llanelly",
        "date_leaving": "1876-02",
        "joined_ship_date": "1876-03-26",
        "joined_at_port": "aberystwyth",
        "capacity": "able seaman",
        "date_left": "1876-05-10",
        "left_port": "liverpool",
        "cause_of_leaving": "discharged",
        "sign_with_mark": "n",
        "notes": "blk"
    },
    {
        "id": "vtls004609982_0_13",
        "type": "sailor",
        "parent": "vtls004609982",
        "name": "john jones",
        "dob": "1858",
        "age": "blk",
        "place_of_birth": "aberystwyth",
        "home_address": "blk",
        "f": "blk",
        "name_of_ship": "ann jones",
        "ship_port": "aberystwyth",
        "date_leaving": "1887",
        "joined_ship_date": "1887-01-24",
        "joined_at_port": "caernarfon",
        "capacity": "able seaman",
        "date_left": "1887-06-28",
        "left_port": "runcorn",
        "cause_of_leaving": "discharged",
        "sign_with_mark": "n",
        "notes": "blk"
    },
    {
        "id": "vtls004609777_0_12",
        "type": "sailor",
        "parent": "vtls004609777",
        "name": "morris d jones",
        "dob": "blk",
        "age": "29",
        "place_of_birth": "aberystwyth",
        "home_address": "blk",
        "f": "blk",
        "name_of_ship": "native",
        "ship_port": "aberystwyth",
        "date_leaving": "1876-03",
        "joined_ship_date": "1876-03-26",
        "joined_at_port": "aberystwyth",
        "capacity": "mate",
        "date_left": "1876-06-30",
        "left_port": "poole",
        "cause_of_leaving": "remains on board",
        "sign_with_mark": "n",
        "notes": "blk"
    },
    {
        "id": "vtls004609982_1_13",
        "type": "sailor",
        "parent": "vtls004609982",
        "name": "harry asmary",
        "dob": "1857",
        "age": "blk",
        "place_of_birth": "hamburg",
        "home_address": "blk",
        "f": "blk",
        "name_of_ship": "sarah ann",
        "ship_port": "blk",
        "date_leaving": "blk",
        "joined_ship_date": "1887-11-01",
        "joined_at_port": "london",
        "capacity": "able seaman",
        "date_left": "1887-11-27",
        "left_port": "belfast lough",
        "cause_of_leaving": "discharged",
        "sign_with_mark": "n",
        "notes": "blk"
    },
    {
        "id": "vtls004609982_0_12",
        "type": "sailor",
        "parent": "vtls004609982",
        "name": "john jones",
        "dob": "1849",
        "age": "blk",
        "place_of_birth": "aberystwyth",
        "home_address": "blk",
        "f": "blk",
        "name_of_ship": "ann jones",
        "ship_port": "aberystwyth",
        "date_leaving": "1887",
        "joined_ship_date": "1887-01-24",
        "joined_at_port": "caernarfon",
        "capacity": "mate",
        "date_left": "1887-06-28",
        "left_port": "runcorn",
        "cause_of_leaving": "discharged",
        "sign_with_mark": "n",
        "notes": "blk"
    },
    {
        "id": "vtls004609982_1_15",
        "type": "sailor",
        "parent": "vtls004609982",
        "name": "david lewis",
        "dob": "1865",
        "age": "blk",
        "place_of_birth": "aberystwyth",
        "home_address": "blk",
        "f": "blk",
        "name_of_ship": "melissa",
        "ship_port": "blk",
        "date_leaving": "1887",
        "joined_ship_date": "1887-07-04",
        "joined_at_port": "runcorn",
        "capacity": "able seaman",
        "date_left": "1887-10-19",
        "left_port": "london",
        "cause_of_leaving": "discharged",
        "sign_with_mark": "n",
        "notes": "blk"
    },
    {
        "id": "vtls004609777_0_14",
        "type": "sailor",
        "parent": "vtls004609777",
        "name": "david hughes",
        "dob": "blk",
        "age": "16",
        "place_of_birth": "llanrhystud",
        "home_address": "blk",
        "f": "blk",
        "name_of_ship": "mary jones",
        "ship_port": "aberystwyth",
        "date_leaving": "1875",
        "joined_ship_date": "1876-03-26",
        "joined_at_port": "aberystwyth",
        "capacity": "ordinary seaman",
        "date_left": "1876-06-30",
        "left_port": "poole",
        "cause_of_leaving": "remains on board",
        "sign_with_mark": "n",
        "notes": "blk"
    },
    {
        "id": "vtls004609777_1_15",
        "type": "sailor",
        "parent": "vtls004609777",
        "name": "william o jones",
        "dob": "blk",
        "age": "16",
        "place_of_birth": "aberystwyth",
        "home_address": "blk",
        "f": "blk",
        "name_of_ship": "ann jones",
        "ship_port": "aberystwyth",
        "date_leaving": "1876-07-06",
        "joined_ship_date": "1876-07-06",
        "joined_at_port": "poole",
        "capacity": "ordinary seaman",
        "date_left": "remains",
        "left_port": "remains",
        "cause_of_leaving": "remains on board",
        "sign_with_mark": "n",
        "notes": "blk"
    },
    {
        "id": "vtls004609777_0_16",
        "type": "sailor",
        "parent": "vtls004609777",
        "name": "george jones",
        "dob": "blk",
        "age": "20",
        "place_of_birth": "aberystwyth",
        "home_address": "blk",
        "f": "blk",
        "name_of_ship": "edward john",
        "ship_port": "aberystwyth",
        "date_leaving": "1876",
        "joined_ship_date": "1876-05-11",
        "joined_at_port": "liverpool",
        "capacity": "able seaman",
        "date_left": "1876-06-30",
        "left_port": "poole",
        "cause_of_leaving": "remains on board",
        "sign_with_mark": "n",
        "notes": "blk"
    },
    {
        "id": "vtls004609777_1_14",
        "type": "sailor",
        "parent": "vtls004609777",
        "name": "david hughes",
        "dob": "blk",
        "age": "16",
        "place_of_birth": "aberystwyth",
        "home_address": "blk",
        "f": "blk",
        "name_of_ship": "ann jones",
        "ship_port": "aberystwyth",
        "date_leaving": "1876-07-06",
        "joined_ship_date": "1876-07-06",
        "joined_at_port": "poole",
        "capacity": "able seaman",
        "date_left": "1876-12-13",
        "left_port": "swansea",
        "cause_of_leaving": "discharged",
        "sign_with_mark": "n",
        "notes": "blk"
    },
    {
        "id": "vtls004609777_1_12",
        "type": "sailor",
        "parent": "vtls004609777",
        "name": "morris d jones",
        "dob": "blk",
        "age": "28",
        "place_of_birth": "aberystwyth",
        "home_address": "blk",
        "f": "blk",
        "name_of_ship": "ann jones",
        "ship_port": "aberystwyth",
        "date_leaving": "1876-07-06",
        "joined_ship_date": "1876-07-06",
        "joined_at_port": "poole",
        "capacity": "mate",
        "date_left": "1876-12-13",
        "left_port": "swansea",
        "cause_of_leaving": "discharged",
        "sign_with_mark": "n",
        "notes": "blk"
    },
    {
        "id": "vtls004609777_1_13",
        "type": "sailor",
        "parent": "vtls004609777",
        "name": "george jones",
        "dob": "blk",
        "age": "20",
        "place_of_birth": "aberystwyth",
        "home_address": "blk",
        "f": "blk",
        "name_of_ship": "ann jones",
        "ship_port": "aberystwyth",
        "date_leaving": "1876-07-06",
        "joined_ship_date": "1876-07-06",
        "joined_at_port": "poole",
        "capacity": "mate",
        "date_left": "remains",
        "left_port": "remains",
        "cause_of_leaving": "remains on board",
        "sign_with_mark": "n",
        "notes": "blk"
    },
    {
        "id": "vtls004609777_0_15",
        "type": "sailor",
        "parent": "vtls004609777",
        "name": "william o jones",
        "dob": "blk",
        "age": "15",
        "place_of_birth": "aberystwyth",
        "home_address": "blk",
        "f": "blk",
        "name_of_ship": "first ship",
        "ship_port": "blk",
        "date_leaving": "blk",
        "joined_ship_date": "1876-03-26",
        "joined_at_port": "aberystwyth",
        "capacity": "boy",
        "date_left": "1876-06-30",
        "left_port": "poole",
        "cause_of_leaving": "remains on board",
        "sign_with_mark": "n",
        "notes": "blk"
    },
    {
        "id": "vtls004609777_1_16",
        "type": "sailor",
        "parent": "vtls004609777",
        "name": "d hopkins",
        "dob": "blk",
        "age": "16",
        "place_of_birth": "llanelly",
        "home_address": "blk",
        "f": "blk",
        "name_of_ship": "first ship",
        "ship_port": "blk",
        "date_leaving": "blk",
        "joined_ship_date": "1876-09-06",
        "joined_at_port": "swansea",
        "capacity": "boy",
        "date_left": "1876-09-22",
        "left_port": "milford",
        "cause_of_leaving": "discharged",
        "sign_with_mark": "n",
        "notes": "blk"
    },
    {
        "id": "vtls004609788_0_14",
        "type": "sailor",
        "parent": "vtls004609788",
        "name": "william o jones",
        "dob": "blk",
        "age": "16",
        "place_of_birth": "aberystwyth",
        "home_address": "blk",
        "f": "blk",
        "name_of_ship": "ann jones",
        "ship_port": "aberystwyth",
        "date_leaving": "1877",
        "joined_ship_date": "1877-01-04",
        "joined_at_port": "newry",
        "capacity": "ordinary seaman",
        "date_left": "1877-03-04",
        "left_port": "port talbot",
        "cause_of_leaving": "discharged",
        "sign_with_mark": "n",
        "notes": "blk"
    },
    {
        "id": "vtls004609788_0_13",
        "type": "sailor",
        "parent": "vtls004609788",
        "name": "richard thomas",
        "dob": "blk",
        "age": "18",
        "place_of_birth": "aberystwyth",
        "home_address": "blk",
        "f": "blk",
        "name_of_ship": "[sisters]",
        "ship_port": "aberystwyth",
        "date_leaving": "1877",
        "joined_ship_date": "1877-01-04",
        "joined_at_port": "newry",
        "capacity": "able seaman",
        "date_left": "1877-06-30",
        "left_port": "runcorn",
        "cause_of_leaving": "remains on board",
        "sign_with_mark": "n",
        "notes": "blk"
    },
    {
        "id": "vtls004609788_0_16",
        "type": "sailor",
        "parent": "vtls004609788",
        "name": "edward davies",
        "dob": "blk",
        "age": "21",
        "place_of_birth": "maesteg",
        "home_address": "blk",
        "f": "blk",
        "name_of_ship": "first ship",
        "ship_port": "blk",
        "date_leaving": "blk",
        "joined_ship_date": "1877-05-09",
        "joined_at_port": "port talbot",
        "capacity": "ordinary seaman",
        "date_left": "1877-06-30",
        "left_port": "runcorn",
        "cause_of_leaving": "remains on board",
        "sign_with_mark": "n",
        "notes": "blk"
    },
    {
        "id": "vtls004609788_1_13",
        "type": "sailor",
        "parent": "vtls004609788",
        "name": "richard thomas",
        "dob": "blk",
        "age": "19",
        "place_of_birth": "aberystwyth",
        "home_address": "blk",
        "f": "blk",
        "name_of_ship": "ann jones",
        "ship_port": "aberystwyth",
        "date_leaving": "1877",
        "joined_ship_date": "1877-07-01",
        "joined_at_port": "runcorn",
        "capacity": "able seaman",
        "date_left": "remains",
        "left_port": "remains",
        "cause_of_leaving": "remains on board",
        "sign_with_mark": "n",
        "notes": "blk"
    },
    {
        "id": "vtls004609788_0_17",
        "type": "sailor",
        "parent": "vtls004609788",
        "name": "edward david jones",
        "dob": "blk",
        "age": "14",
        "place_of_birth": "aberystwyth",
        "home_address": "blk",
        "f": "blk",
        "name_of_ship": "first ship",
        "ship_port": "blk",
        "date_leaving": "blk",
        "joined_ship_date": "1877-05-09",
        "joined_at_port": "port talbot",
        "capacity": "boy",
        "date_left": "1877-06-30",
        "left_port": "runcorn",
        "cause_of_leaving": "remains on board",
        "sign_with_mark": "n",
        "notes": "blk"
    },
    {
        "id": "vtls004609788_0_12",
        "type": "sailor",
        "parent": "vtls004609788",
        "name": "morris jones",
        "dob": "blk",
        "age": "28",
        "place_of_birth": "aberystwyth",
        "home_address": "blk",
        "f": "blk",
        "name_of_ship": "ann jones",
        "ship_port": "aberystwyth",
        "date_leaving": "1877",
        "joined_ship_date": "1877-01-04",
        "joined_at_port": "newry",
        "capacity": "mate",
        "date_left": "1877-06-30",
        "left_port": "runcorn",
        "cause_of_leaving": "remains on board",
        "sign_with_mark": "n",
        "notes": "blk"
    },
    {
        "id": "vtls004609788_1_12",
        "type": "sailor",
        "parent": "vtls004609788",
        "name": "morris jones",
        "dob": "blk",
        "age": "30",
        "place_of_birth": "aberystwyth",
        "home_address": "blk",
        "f": "blk",
        "name_of_ship": "ann jones",
        "ship_port": "aberystwyth",
        "date_leaving": "1877",
        "joined_ship_date": "1877-07-01",
        "joined_at_port": "runcorn",
        "capacity": "mate",
        "date_left": "remains",
        "left_port": "remains",
        "cause_of_leaving": "remains on board",
        "sign_with_mark": "n",
        "notes": "blk"
    },
    {
        "id": "vtls004609777_1_17",
        "type": "sailor",
        "parent": "vtls004609777",
        "name": "david thomas",
        "dob": "blk",
        "age": "34",
        "place_of_birth": "aberystwyth",
        "home_address": "blk",
        "f": "blk",
        "name_of_ship": "s.s. liffey",
        "ship_port": "blk",
        "date_leaving": "1876",
        "joined_ship_date": "1876-12-14",
        "joined_at_port": "swansea",
        "capacity": "mate",
        "date_left": "remains",
        "left_port": "remains",
        "cause_of_leaving": "remains on board",
        "sign_with_mark": "n",
        "notes": "blk"
    },
    {
        "id": "vtls004609788_0_15",
        "type": "sailor",
        "parent": "vtls004609788",
        "name": "arthur young",
        "dob": "blk",
        "age": "14",
        "place_of_birth": "gloucester",
        "home_address": "blk",
        "f": "blk",
        "name_of_ship": "first ship",
        "ship_port": "blk",
        "date_leaving": "blk",
        "joined_ship_date": "1877-01-04",
        "joined_at_port": "newry",
        "capacity": "boy",
        "date_left": "1877-03-04",
        "left_port": "port talbot",
        "cause_of_leaving": "discharged",
        "sign_with_mark": "n",
        "notes": "blk"
    },
    {
        "id": "vtls004609788_1_14",
        "type": "sailor",
        "parent": "vtls004609788",
        "name": "william o jones",
        "dob": "blk",
        "age": "16",
        "place_of_birth": "aberystwyth",
        "home_address": "blk",
        "f": "blk",
        "name_of_ship": "ann jones",
        "ship_port": "aberystwyth",
        "date_leaving": "1877",
        "joined_ship_date": "1877-07-01",
        "joined_at_port": "runcorn",
        "capacity": "ordinary seaman",
        "date_left": "1877-10-27",
        "left_port": "liverpool",
        "cause_of_leaving": "left on own accord",
        "sign_with_mark": "n",
        "notes": "blk"
    },
    {
        "id": "vtls004609793_0_14",
        "type": "sailor",
        "parent": "vtls004609793",
        "name": "m d richards",
        "dob": "blk",
        "age": "17",
        "place_of_birth": "aberystwyth",
        "home_address": "blk",
        "f": "blk",
        "name_of_ship": "ada and alice",
        "ship_port": "cardiff",
        "date_leaving": "1878",
        "joined_ship_date": "1878-01-01",
        "joined_at_port": "gloucester",
        "capacity": "ordinary seaman",
        "date_left": "remains",
        "left_port": "remains",
        "cause_of_leaving": "remains on board",
        "sign_with_mark": "n",
        "notes": "blk"
    },
    {
        "id": "vtls004609793_0_13",
        "type": "sailor",
        "parent": "vtls004609793",
        "name": "william carpenter",
        "dob": "blk",
        "age": "25",
        "place_of_birth": "liverpool",
        "home_address": "blk",
        "f": "blk",
        "name_of_ship": "ann jones",
        "ship_port": "aberystwyth",
        "date_leaving": "1878",
        "joined_ship_date": "1878-01-01",
        "joined_at_port": "gloucester",
        "capacity": "able seaman",
        "date_left": "remains",
        "left_port": "remains",
        "cause_of_leaving": "remains on board",
        "sign_with_mark": "n",
        "notes": "blk"
    },
    {
        "id": "vtls004609788_1_15",
        "type": "sailor",
        "parent": "vtls004609788",
        "name": "william j carpenter",
        "dob": "blk",
        "age": "24",
        "place_of_birth": "liverpool",
        "home_address": "blk",
        "f": "blk",
        "name_of_ship": "umgeni",
        "ship_port": "liverpool",
        "date_leaving": "1877-10-04",
        "joined_ship_date": "1877-10-23",
        "joined_at_port": "liverpool",
        "capacity": "able seaman",
        "date_left": "remains",
        "left_port": "remains",
        "cause_of_leaving": "remains on board",
        "sign_with_mark": "n",
        "notes": "blk"
    },
    {
        "id": "vtls004609788_1_16",
        "type": "sailor",
        "parent": "vtls004609788",
        "name": "charles coleman",
        "dob": "blk",
        "age": "18",
        "place_of_birth": "preston",
        "home_address": "blk",
        "f": "blk",
        "name_of_ship": "menlaus",
        "ship_port": "liverpool",
        "date_leaving": "1877",
        "joined_ship_date": "1877-10-23",
        "joined_at_port": "liverpool",
        "capacity": "ordinary seaman",
        "date_left": "remains",
        "left_port": "remains",
        "cause_of_leaving": "remains on board",
        "sign_with_mark": "n",
        "notes": "blk"
    },
    {
        "id": "vtls004609793_0_12",
        "type": "sailor",
        "parent": "vtls004609793",
        "name": "john jones",
        "dob": "blk",
        "age": "27",
        "place_of_birth": "aberystwyth",
        "home_address": "blk",
        "f": "blk",
        "name_of_ship": "aeron queen",
        "ship_port": "aberystwyth",
        "date_leaving": "1878",
        "joined_ship_date": "1878-01-01",
        "joined_at_port": "gloucester",
        "capacity": "mate",
        "date_left": "remains",
        "left_port": "remains",
        "cause_of_leaving": "remains on board",
        "sign_with_mark": "n",
        "notes": "blk"
    },
    {
        "id": "vtls004609793_0_15",
        "type": "sailor",
        "parent": "vtls004609793",
        "name": "edward james",
        "dob": "blk",
        "age": "13",
        "place_of_birth": "aberystwyth",
        "home_address": "blk",
        "f": "blk",
        "name_of_ship": "progress",
        "ship_port": "caernarfon",
        "date_leaving": "1878",
        "joined_ship_date": "1878-01-01",
        "joined_at_port": "gloucester",
        "capacity": "boy",
        "date_left": "remains",
        "left_port": "remains",
        "cause_of_leaving": "remains on board",
        "sign_with_mark": "n",
        "notes": "blk"
    },
    {
        "id": "vtls004609793_1_14",
        "type": "sailor",
        "parent": "vtls004609793",
        "name": "m d richards",
        "dob": "blk",
        "age": "17",
        "place_of_birth": "aberystwyth",
        "home_address": "blk",
        "f": "blk",
        "name_of_ship": "ann jones",
        "ship_port": "aberystwyth",
        "date_leaving": "1878-07-01",
        "joined_ship_date": "1878-07-01",
        "joined_at_port": "middlesbrough",
        "capacity": "ordinary seaman",
        "date_left": "1878-12-04",
        "left_port": "newry",
        "cause_of_leaving": "discharged",
        "sign_with_mark": "n",
        "notes": "blk"
    },
    {
        "id": "vtls004609793_1_13",
        "type": "sailor",
        "parent": "vtls004609793",
        "name": "richard thomas",
        "dob": "blk",
        "age": "20",
        "place_of_birth": "aberystwyth",
        "home_address": "blk",
        "f": "blk",
        "name_of_ship": "ann jones",
        "ship_port": "aberystwyth",
        "date_leaving": "1878-07-01",
        "joined_ship_date": "1878-07-01",
        "joined_at_port": "middlesbrough",
        "capacity": "able seaman",
        "date_left": "1878-08-16",
        "left_port": "newport",
        "cause_of_leaving": "discharged",
        "sign_with_mark": "n",
        "notes": "blk"
    },
    {
        "id": "vtls004609799_0_13",
        "type": "sailor",
        "parent": "vtls004609799",
        "name": "david d davies",
        "dob": "blk",
        "age": "33",
        "place_of_birth": "aberystwyth",
        "home_address": "blk",
        "f": "blk",
        "name_of_ship": "ann jones",
        "ship_port": "aberystwyth",
        "date_leaving": "continued",
        "joined_ship_date": "1879-01-08",
        "joined_at_port": "cardiff",
        "capacity": "able seaman",
        "date_left": "remains",
        "left_port": "remains",
        "cause_of_leaving": "remains on board",
        "sign_with_mark": "n",
        "notes": "blk"
    },
    {
        "id": "vtls004609793_1_15",
        "type": "sailor",
        "parent": "vtls004609793",
        "name": "edward james",
        "dob": "blk",
        "age": "14",
        "place_of_birth": "aberystwyth",
        "home_address": "blk",
        "f": "blk",
        "name_of_ship": "ann jones",
        "ship_port": "aberystwyth",
        "date_leaving": "1878-07-01",
        "joined_ship_date": "1878-07-01",
        "joined_at_port": "middlesbrough",
        "capacity": "boy",
        "date_left": "remains",
        "left_port": "remains",
        "cause_of_leaving": "remains on board",
        "sign_with_mark": "n",
        "notes": "blk"
    },
    {
        "id": "vtls004609799_0_12",
        "type": "sailor",
        "parent": "vtls004609799",
        "name": "morris d jones",
        "dob": "blk",
        "age": "32",
        "place_of_birth": "aberystwyth",
        "home_address": "blk",
        "f": "blk",
        "name_of_ship": "ann jones",
        "ship_port": "aberystwyth",
        "date_leaving": "continued",
        "joined_ship_date": "1879-01-08",
        "joined_at_port": "cardiff",
        "capacity": "mate",
        "date_left": "remains",
        "left_port": "remains",
        "cause_of_leaving": "remains on board",
        "sign_with_mark": "n",
        "notes": "blk"
    },
    {
        "id": "vtls004609793_1_12",
        "type": "sailor",
        "parent": "vtls004609793",
        "name": "john jones",
        "dob": "blk",
        "age": "30",
        "place_of_birth": "aberystwyth",
        "home_address": "blk",
        "f": "blk",
        "name_of_ship": "ann jones",
        "ship_port": "aberystwyth",
        "date_leaving": "1878-07-01",
        "joined_ship_date": "1878-07-01",
        "joined_at_port": "middlesbrough",
        "capacity": "mate",
        "date_left": "1878-09-17",
        "left_port": "runcorn",
        "cause_of_leaving": "discharged",
        "sign_with_mark": "n",
        "notes": "blk"
    },
    {
        "id": "vtls004609799_0_14",
        "type": "sailor",
        "parent": "vtls004609799",
        "name": "william jones",
        "dob": "blk",
        "age": "23",
        "place_of_birth": "cemaes bay",
        "home_address": "blk",
        "f": "blk",
        "name_of_ship": "fanny",
        "ship_port": "beaumaris",
        "date_leaving": "1878",
        "joined_ship_date": "1879-01-09",
        "joined_at_port": "cardiff",
        "capacity": "able seaman",
        "date_left": "remains",
        "left_port": "remains",
        "cause_of_leaving": "remains on board",
        "sign_with_mark": "n",
        "notes": "blk"
    },
    {
        "id": "vtls004609793_1_17",
        "type": "sailor",
        "parent": "vtls004609793",
        "name": "david d davies",
        "dob": "blk",
        "age": "32",
        "place_of_birth": "aberystwyth",
        "home_address": "blk",
        "f": "blk",
        "name_of_ship": "hilda",
        "ship_port": "porthmadog",
        "date_leaving": "1878",
        "joined_ship_date": "1878-10-30",
        "joined_at_port": "swansea",
        "capacity": "able seaman",
        "date_left": "remains",
        "left_port": "remains",
        "cause_of_leaving": "remains on board",
        "sign_with_mark": "n",
        "notes": "blk"
    },
    {
        "id": "vtls004609793_1_16",
        "type": "sailor",
        "parent": "vtls004609793",
        "name": "morris d jones",
        "dob": "blk",
        "age": "31",
        "place_of_birth": "aberystwyth",
        "home_address": "blk",
        "f": "blk",
        "name_of_ship": "ceres",
        "ship_port": "aberystwyth",
        "date_leaving": "1878",
        "joined_ship_date": "1878-09-17",
        "joined_at_port": "runcorn",
        "capacity": "mate",
        "date_left": "remains",
        "left_port": "remains",
        "cause_of_leaving": "remains on board",
        "sign_with_mark": "n",
        "notes": "blk"
    },
    {
        "id": "vtls004609799_1_13",
        "type": "sailor",
        "parent": "vtls004609799",
        "name": "william hughes",
        "dob": "blk",
        "age": "24",
        "place_of_birth": "amlwch",
        "home_address": "blk",
        "f": "blk",
        "name_of_ship": "ann jones",
        "ship_port": "aberystwyth",
        "date_leaving": "continued",
        "joined_ship_date": "continued",
        "joined_at_port": "continued",
        "capacity": "able seaman",
        "date_left": "1879-12-08",
        "left_port": "swansea",
        "cause_of_leaving": "discharged",
        "sign_with_mark": "n",
        "notes": "blk"
    },
    {
        "id": "vtls004609799_0_15",
        "type": "sailor",
        "parent": "vtls004609799",
        "name": "edward james",
        "dob": "blk",
        "age": "15",
        "place_of_birth": "aberystwyth",
        "home_address": "blk",
        "f": "blk",
        "name_of_ship": "ann jones",
        "ship_port": "aberystwyth",
        "date_leaving": "continued",
        "joined_ship_date": "1879-01-08",
        "joined_at_port": "cardiff",
        "capacity": "boy",
        "date_left": "remains",
        "left_port": "remains",
        "cause_of_leaving": "remains on board",
        "sign_with_mark": "n",
        "notes": "blk"
    },
    {
        "id": "vtls004609799_1_12",
        "type": "sailor",
        "parent": "vtls004609799",
        "name": "david d davies",
        "dob": "blk",
        "age": "33",
        "place_of_birth": "aberystwyth",
        "home_address": "blk",
        "f": "blk",
        "name_of_ship": "ann jones",
        "ship_port": "aberystwyth",
        "date_leaving": "continued",
        "joined_ship_date": "continued",
        "joined_at_port": "continued",
        "capacity": "mate",
        "date_left": "1879-12-08",
        "left_port": "swansea",
        "cause_of_leaving": "discharged",
        "sign_with_mark": "n",
        "notes": "blk"
    },
    {
        "id": "vtls004609799_1_14",
        "type": "sailor",
        "parent": "vtls004609799",
        "name": "edward james",
        "dob": "blk",
        "age": "17",
        "place_of_birth": "aberystwyth",
        "home_address": "blk",
        "f": "blk",
        "name_of_ship": "ann jones",
        "ship_port": "aberystwyth",
        "date_leaving": "continued",
        "joined_ship_date": "continued",
        "joined_at_port": "continued",
        "capacity": "boy",
        "date_left": "1879-12-08",
        "left_port": "swansea",
        "cause_of_leaving": "discharged",
        "sign_with_mark": "n",
        "notes": "blk"
    },
    {
        "id": "vtls004609799_1_17",
        "type": "sailor",
        "parent": "vtls004609799",
        "name": "james kain",
        "dob": "blk",
        "age": "18",
        "place_of_birth": "drogheda",
        "home_address": "blk",
        "f": "blk",
        "name_of_ship": "nathenel",
        "ship_port": "blk",
        "date_leaving": "1879",
        "joined_ship_date": "1879-12-11",
        "joined_at_port": "swansea",
        "capacity": "ordinary seaman",
        "date_left": "1880-01-24",
        "left_port": "liverpool",
        "cause_of_leaving": "discharged",
        "sign_with_mark": "n",
        "notes": "blk"
    },
    {
        "id": "vtls004609799_1_16",
        "type": "sailor",
        "parent": "vtls004609799",
        "name": "john thomas",
        "dob": "blk",
        "age": "26",
        "place_of_birth": "cardigan",
        "home_address": "blk",
        "f": "blk",
        "name_of_ship": "ulster",
        "ship_port": "blk",
        "date_leaving": "1879",
        "joined_ship_date": "1879-12-11",
        "joined_at_port": "swansea",
        "capacity": "able seaman",
        "date_left": "1880-01-25",
        "left_port": "liverpool",
        "cause_of_leaving": "discharged",
        "sign_with_mark": "n",
        "notes": "blk"
    },
    {
        "id": "vtls004609799_1_15",
        "type": "sailor",
        "parent": "vtls004609799",
        "name": "willam mason",
        "dob": "blk",
        "age": "34",
        "place_of_birth": "milford",
        "home_address": "blk",
        "f": "blk",
        "name_of_ship": "lizzie",
        "ship_port": "blk",
        "date_leaving": "1879",
        "joined_ship_date": "1879-12-11",
        "joined_at_port": "swansea",
        "capacity": "mate",
        "date_left": "1880-01-25",
        "left_port": "liverpool",
        "cause_of_leaving": "discharged",
        "sign_with_mark": "n",
        "notes": "blk"
    },
    {
        "id": "vtls004609808_1_14",
        "type": "sailor",
        "parent": "vtls004609808",
        "name": "carl mohle",
        "dob": "blk",
        "age": "19",
        "place_of_birth": "bremerhaven, germany",
        "home_address": "blk",
        "f": "blk",
        "name_of_ship": "paradock",
        "ship_port": "blk",
        "date_leaving": "1880",
        "joined_ship_date": "1880-07-01",
        "joined_at_port": "swansea",
        "capacity": "ordinary seaman",
        "date_left": "remains",
        "left_port": "remains",
        "cause_of_leaving": "remains on board",
        "sign_with_mark": "n",
        "notes": "possibly the paradox  no paradock found"
    },
    {
        "id": "vtls004609808_0_13",
        "type": "sailor",
        "parent": "vtls004609808",
        "name": "george dunn",
        "dob": "blk",
        "age": "20",
        "place_of_birth": "shaftesbury",
        "home_address": "blk",
        "f": "blk",
        "name_of_ship": "harvest queen",
        "ship_port": "runcorn",
        "date_leaving": "1879",
        "joined_ship_date": "1880-01-27",
        "joined_at_port": "liverpool",
        "capacity": "able seaman",
        "date_left": "1880-06-30",
        "left_port": "swansea",
        "cause_of_leaving": "remains on board",
        "sign_with_mark": "n",
        "notes": "blk"
    },
    {
        "id": "vtls004609808_0_12",
        "type": "sailor",
        "parent": "vtls004609808",
        "name": "john davies",
        "dob": "blk",
        "age": "58",
        "place_of_birth": "aberystwyth",
        "home_address": "blk",
        "f": "blk",
        "name_of_ship": "leonard hollis",
        "ship_port": "caernarfon",
        "date_leaving": "1879",
        "joined_ship_date": "1880-01-27",
        "joined_at_port": "liverpool",
        "capacity": "mate",
        "date_left": "1880-06-30",
        "left_port": "swansea",
        "cause_of_leaving": "remains on board",
        "sign_with_mark": "n",
        "notes": "blk"
    },
    {
        "id": "vtls004609808_0_14",
        "type": "sailor",
        "parent": "vtls004609808",
        "name": "james kain",
        "dob": "blk",
        "age": "18",
        "place_of_birth": "drogheda",
        "home_address": "blk",
        "f": "blk",
        "name_of_ship": "ann jones",
        "ship_port": "aberystwyth",
        "date_leaving": "1879",
        "joined_ship_date": "1880-01-27",
        "joined_at_port": "liverpool",
        "capacity": "ordinary seaman",
        "date_left": "1880-06-28",
        "left_port": "swansea",
        "cause_of_leaving": "discharged",
        "sign_with_mark": "n",
        "notes": "blk"
    },
    {
        "id": "vtls004609808_1_13",
        "type": "sailor",
        "parent": "vtls004609808",
        "name": "thomas hughes",
        "dob": "blk",
        "age": "20",
        "place_of_birth": "aberystwyth",
        "home_address": "blk",
        "f": "blk",
        "name_of_ship": "ann jones",
        "ship_port": "aberystwyth",
        "date_leaving": "1880",
        "joined_ship_date": "1880-07-01",
        "joined_at_port": "swansea",
        "capacity": "able seaman",
        "date_left": "remains",
        "left_port": "remains",
        "cause_of_leaving": "remains on board",
        "sign_with_mark": "n",
        "notes": "blk"
    },
    {
        "id": "vtls004609808_1_15",
        "type": "sailor",
        "parent": "vtls004609808",
        "name": "edward d jones",
        "dob": "blk",
        "age": "14",
        "place_of_birth": "aberystwyth",
        "home_address": "blk",
        "f": "blk",
        "name_of_ship": "ann jones",
        "ship_port": "aberystwyth",
        "date_leaving": "1880",
        "joined_ship_date": "1880-07-01",
        "joined_at_port": "swansea",
        "capacity": "boy",
        "date_left": "1880-08-29",
        "left_port": "liverpool",
        "cause_of_leaving": "paid off",
        "sign_with_mark": "n",
        "notes": "blk"
    },
    {
        "id": "vtls004609808_1_12",
        "type": "sailor",
        "parent": "vtls004609808",
        "name": "john davies",
        "dob": "blk",
        "age": "60",
        "place_of_birth": "aberystwyth",
        "home_address": "blk",
        "f": "blk",
        "name_of_ship": "ann jones",
        "ship_port": "aberystwyth",
        "date_leaving": "1880",
        "joined_ship_date": "1880-07-01",
        "joined_at_port": "swansea",
        "capacity": "mate",
        "date_left": "remains",
        "left_port": "remains",
        "cause_of_leaving": "remains on board",
        "sign_with_mark": "n",
        "notes": "blk"
    },
    {
        "id": "vtls004609808_0_15",
        "type": "sailor",
        "parent": "vtls004609808",
        "name": "ed jones",
        "dob": "blk",
        "age": "14",
        "place_of_birth": "aberystwyth",
        "home_address": "blk",
        "f": "blk",
        "name_of_ship": "first ship",
        "ship_port": "blk",
        "date_leaving": "blk",
        "joined_ship_date": "1880-01-27",
        "joined_at_port": "liverpool",
        "capacity": "boy",
        "date_left": "1880-06-30",
        "left_port": "swansea",
        "cause_of_leaving": "remains on board",
        "sign_with_mark": "n",
        "notes": "blk"
    },
    {
        "id": "vtls004609856_0_12",
        "type": "sailor",
        "parent": "vtls004609856",
        "name": "john jones",
        "dob": "blk",
        "age": "60",
        "place_of_birth": "aberystwyth",
        "home_address": "blk",
        "f": "blk",
        "name_of_ship": "ann jones",
        "ship_port": "aberystwyth",
        "date_leaving": "1881",
        "joined_ship_date": "1881-01-08",
        "joined_at_port": "newry",
        "capacity": "mate",
        "date_left": "1881-03-10",
        "left_port": "gloucestershire",
        "cause_of_leaving": "discharged",
        "sign_with_mark": "n",
        "notes": "blk"
    },
    {
        "id": "vtls004609856_0_15",
        "type": "sailor",
        "parent": "vtls004609856",
        "name": "nathaniel birchall",
        "dob": "blk",
        "age": "19",
        "place_of_birth": "gloucester",
        "home_address": "blk",
        "f": "blk",
        "name_of_ship": "jutt of ann jones",
        "ship_port": "port  st mary ",
        "date_leaving": "1881",
        "joined_ship_date": "1881-03-12",
        "joined_at_port": "gloucester",
        "capacity": "able seaman",
        "date_left": "1881-06-30",
        "left_port": "plymouth",
        "cause_of_leaving": "remains on board",
        "sign_with_mark": "n",
        "notes": "no record of ship possible fishing vessel from port st mary isle of man"
    },
    {
        "id": "vtls004609856_0_14",
        "type": "sailor",
        "parent": "vtls004609856",
        "name": "carl mohle",
        "dob": "blk",
        "age": "20",
        "place_of_birth": "germany",
        "home_address": "blk",
        "f": "blk",
        "name_of_ship": "ann jones",
        "ship_port": "aberystwyth",
        "date_leaving": "1881",
        "joined_ship_date": "1881-01-08",
        "joined_at_port": "newry",
        "capacity": "able seaman",
        "date_left": "1881-06-30",
        "left_port": "plymouth",
        "cause_of_leaving": "remains on board",
        "sign_with_mark": "n",
        "notes": "place of birth on previous documents bremerhaven"
    },
    {
        "id": "vtls004609856_0_13",
        "type": "sailor",
        "parent": "vtls004609856",
        "name": "thomas hughes",
        "dob": "blk",
        "age": "21",
        "place_of_birth": "aberystwyth",
        "home_address": "blk",
        "f": "blk",
        "name_of_ship": "ann jones",
        "ship_port": "aberystwyth",
        "date_leaving": "1881",
        "joined_ship_date": "1881-01-08",
        "joined_at_port": "newry",
        "capacity": "able seaman",
        "date_left": "1881-06-30",
        "left_port": "plymouth",
        "cause_of_leaving": "remains on board",
        "sign_with_mark": "n",
        "notes": "became mate on the 1881-03-12"
    },
    {
        "id": "vtls004609856_1_14",
        "type": "sailor",
        "parent": "vtls004609856",
        "name": "edvin earul eritesen",
        "dob": "blk",
        "age": "20",
        "place_of_birth": "sweden",
        "home_address": "blk",
        "f": "blk",
        "name_of_ship": "ann jones",
        "ship_port": "aberystwyth",
        "date_leaving": "1881",
        "joined_ship_date": "1881-07-08",
        "joined_at_port": "plymouth",
        "capacity": "ordinary seaman",
        "date_left": "remains",
        "left_port": "remains",
        "cause_of_leaving": "remains on board",
        "sign_with_mark": "n",
        "notes": "blk"
    },
    {
        "id": "vtls004609856_1_13",
        "type": "sailor",
        "parent": "vtls004609856",
        "name": "john jones",
        "dob": "blk",
        "age": "24",
        "place_of_birth": "aberystwyth",
        "home_address": "blk",
        "f": "blk",
        "name_of_ship": "ann jones",
        "ship_port": "aberystwyth",
        "date_leaving": "1881",
        "joined_ship_date": "1881-07-08",
        "joined_at_port": "plymouth",
        "capacity": "able seaman",
        "date_left": "1881-09-29",
        "left_port": "remains",
        "cause_of_leaving": "remains on board",
        "sign_with_mark": "n",
        "notes": "blk"
    },
    {
        "id": "vtls004609856_0_16",
        "type": "sailor",
        "parent": "vtls004609856",
        "name": "edward david jones",
        "dob": "blk",
        "age": "14",
        "place_of_birth": "aberystwyth",
        "home_address": "blk",
        "f": "blk",
        "name_of_ship": "ann jones",
        "ship_port": "aberystwyth",
        "date_leaving": "1881",
        "joined_ship_date": "1881-01-08",
        "joined_at_port": "newry",
        "capacity": "boy",
        "date_left": "1881-06-30",
        "left_port": "plymouth",
        "cause_of_leaving": "remains on board",
        "sign_with_mark": "n",
        "notes": "blk"
    },
    {
        "id": "vtls004609856_1_15",
        "type": "sailor",
        "parent": "vtls004609856",
        "name": "edward david jones",
        "dob": "blk",
        "age": "14",
        "place_of_birth": "aberystwyth",
        "home_address": "blk",
        "f": "blk",
        "name_of_ship": "ann jones",
        "ship_port": "aberystwyth",
        "date_leaving": "1881",
        "joined_ship_date": "1881-07-08",
        "joined_at_port": "plymouth",
        "capacity": "boy",
        "date_left": "remains",
        "left_port": "remains",
        "cause_of_leaving": "remains on board",
        "sign_with_mark": "n",
        "notes": "blk"
    },
    {
        "id": "vtls004609856_1_12",
        "type": "sailor",
        "parent": "vtls004609856",
        "name": "thomas hughes",
        "dob": "blk",
        "age": "21",
        "place_of_birth": "aberystwyth",
        "home_address": "blk",
        "f": "blk",
        "name_of_ship": "ann jones",
        "ship_port": "aberystwyth",
        "date_leaving": "1881",
        "joined_ship_date": "1881-07-08",
        "joined_at_port": "plymouth",
        "capacity": "mate",
        "date_left": "remains",
        "left_port": "remains",
        "cause_of_leaving": "remains on board",
        "sign_with_mark": "n",
        "notes": "blk"
    },
    {
        "id": "vtls004609959_0_14",
        "type": "sailor",
        "parent": "vtls004609959",
        "name": "edwin e eriksen",
        "dob": "blk",
        "age": "20",
        "place_of_birth": "friderickshall, norway",
        "home_address": "blk",
        "f": "blk",
        "name_of_ship": "ann jones",
        "ship_port": "aberystwyth",
        "date_leaving": "1882",
        "joined_ship_date": "1882-01",
        "joined_at_port": "caernarfon",
        "capacity": "ordinary seaman",
        "date_left": "1882-07-06",
        "left_port": "milford",
        "cause_of_leaving": "remains on board",
        "sign_with_mark": "n",
        "notes": "town in norway possibly frederikshavn"
    },
    {
        "id": "vtls004609856_1_16",
        "type": "sailor",
        "parent": "vtls004609856",
        "name": "a poring",
        "dob": "blk",
        "age": "23",
        "place_of_birth": "stettin, germany",
        "home_address": "blk",
        "f": "blk",
        "name_of_ship": "powell",
        "ship_port": "germany",
        "date_leaving": "1881",
        "joined_ship_date": "1881-08-14",
        "joined_at_port": "gloucester",
        "capacity": "able seaman",
        "date_left": "remains",
        "left_port": "remains",
        "cause_of_leaving": "remains on board",
        "sign_with_mark": "n",
        "notes": "stettin now szczecin, poland"
    },
    {
        "id": "vtls004609959_0_13",
        "type": "sailor",
        "parent": "vtls004609959",
        "name": "a doring",
        "dob": "blk",
        "age": "24",
        "place_of_birth": "stettin, germany",
        "home_address": "blk",
        "f": "blk",
        "name_of_ship": "ann jones",
        "ship_port": "aberystwyth",
        "date_leaving": "1882",
        "joined_ship_date": "1882-01",
        "joined_at_port": "caernarfon",
        "capacity": "able seaman",
        "date_left": "1882-07-06",
        "left_port": "milford",
        "cause_of_leaving": "remains on board",
        "sign_with_mark": "n",
        "notes": "blk"
    },
    {
        "id": "vtls004609959_1_13",
        "type": "sailor",
        "parent": "vtls004609959",
        "name": "h thomas hjelm",
        "dob": "blk",
        "age": "21",
        "place_of_birth": "germany",
        "home_address": "blk",
        "f": "blk",
        "name_of_ship": "ann jones",
        "ship_port": "aberystwyth",
        "date_leaving": "1882",
        "joined_ship_date": "1882-07-06",
        "joined_at_port": "milford haven",
        "capacity": "able seaman",
        "date_left": "remains",
        "left_port": "remains",
        "cause_of_leaving": "remains on board",
        "sign_with_mark": "n",
        "notes": "blk"
    },
    {
        "id": "vtls004609959_1_14",
        "type": "sailor",
        "parent": "vtls004609959",
        "name": "emil eriksen",
        "dob": "blk",
        "age": "20",
        "place_of_birth": "norway",
        "home_address": "blk",
        "f": "blk",
        "name_of_ship": "ann jones",
        "ship_port": "aberystwyth",
        "date_leaving": "1882",
        "joined_ship_date": "1882-07-06",
        "joined_at_port": "milford haven",
        "capacity": "ordinary seaman",
        "date_left": "remains",
        "left_port": "remains",
        "cause_of_leaving": "remains on board",
        "sign_with_mark": "n",
        "notes": "blk"
    },
    {
        "id": "vtls004609959_1_15",
        "type": "sailor",
        "parent": "vtls004609959",
        "name": "edward david jones",
        "dob": "blk",
        "age": "15",
        "place_of_birth": "aberystwyth",
        "home_address": "blk",
        "f": "blk",
        "name_of_ship": "ann jones",
        "ship_port": "aberystwyth",
        "date_leaving": "1882",
        "joined_ship_date": "1882-07-06",
        "joined_at_port": "milford haven",
        "capacity": "boy",
        "date_left": "remains",
        "left_port": "remains",
        "cause_of_leaving": "remains on board",
        "sign_with_mark": "n",
        "notes": "blk"
    },
    {
        "id": "vtls004609959_0_15",
        "type": "sailor",
        "parent": "vtls004609959",
        "name": "edward david jones",
        "dob": "blk",
        "age": "15",
        "place_of_birth": "aberystwyth",
        "home_address": "blk",
        "f": "blk",
        "name_of_ship": "ann jones",
        "ship_port": "aberystwyth",
        "date_leaving": "1882",
        "joined_ship_date": "1882-01",
        "joined_at_port": "caernarfon",
        "capacity": "boy",
        "date_left": "1882-07-06",
        "left_port": "milford",
        "cause_of_leaving": "remains on board",
        "sign_with_mark": "n",
        "notes": "blk"
    },
    {
        "id": "vtls004609959_0_12",
        "type": "sailor",
        "parent": "vtls004609959",
        "name": "thomas e hughes",
        "dob": "blk",
        "age": "22",
        "place_of_birth": "aberystwyth",
        "home_address": "blk",
        "f": "blk",
        "name_of_ship": "ann jones",
        "ship_port": "aberystwyth",
        "date_leaving": "1882",
        "joined_ship_date": "1882-01",
        "joined_at_port": "caernarfon",
        "capacity": "mate",
        "date_left": "1882-07-06",
        "left_port": "milford",
        "cause_of_leaving": "remains on board",
        "sign_with_mark": "n",
        "notes": "blk"
    },
    {
        "id": "vtls004609959_1_12",
        "type": "sailor",
        "parent": "vtls004609959",
        "name": "matthew kelsen",
        "dob": "blk",
        "age": "20",
        "place_of_birth": "newry",
        "home_address": "blk",
        "f": "blk",
        "name_of_ship": "ann jones",
        "ship_port": "aberystwyth",
        "date_leaving": "1882",
        "joined_ship_date": "1882-07-06",
        "joined_at_port": "milford haven",
        "capacity": "mate",
        "date_left": "remains",
        "left_port": "remains",
        "cause_of_leaving": "remains on board",
        "sign_with_mark": "n",
        "notes": "blk"
    },
    {
        "id": "vtls004609964_0_13",
        "type": "sailor",
        "parent": "vtls004609964",
        "name": "emil eriksen",
        "dob": "1862",
        "age": "blk",
        "place_of_birth": "frederichshaven,   norway",
        "home_address": "blk",
        "f": "blk",
        "name_of_ship": "ann jones",
        "ship_port": "aberystwyth",
        "date_leaving": "1883",
        "joined_ship_date": "1883-01-02",
        "joined_at_port": "newry",
        "capacity": "able seaman",
        "date_left": "remains",
        "left_port": "remains",
        "cause_of_leaving": "remains on board",
        "sign_with_mark": "n",
        "notes": "blk"
    },
    {
        "id": "vtls004609964_0_14",
        "type": "sailor",
        "parent": "vtls004609964",
        "name": "h thomas hjelm",
        "dob": "1862",
        "age": "blk",
        "place_of_birth": "karlshamn, sweden",
        "home_address": "blk",
        "f": "blk",
        "name_of_ship": "ann jones",
        "ship_port": "aberystwyth",
        "date_leaving": "1883",
        "joined_ship_date": "1883-01-02",
        "joined_at_port": "newry",
        "capacity": "able seaman",
        "date_left": "remains",
        "left_port": "remains",
        "cause_of_leaving": "remains on board",
        "sign_with_mark": "n",
        "notes": "blk"
    },
    {
        "id": "vtls004609964_0_15",
        "type": "sailor",
        "parent": "vtls004609964",
        "name": "thomas lillis",
        "dob": "1862",
        "age": "blk",
        "place_of_birth": "galway",
        "home_address": " blk",
        "f": " blk",
        "name_of_ship": "cheverie",
        "ship_port": "liverpool",
        "date_leaving": "1883",
        "joined_ship_date": "1883-02-01",
        "joined_at_port": "newport",
        "capacity": "ordinary seaman",
        "date_left": "remains",
        "left_port": "remains",
        "cause_of_leaving": "remains on board",
        "sign_with_mark": "n",
        "notes": "blk"
    },
    {
        "id": "vtls004609964_1_13",
        "type": "sailor",
        "parent": "vtls004609964",
        "name": "jon anderson",
        "dob": "blk",
        "age": "36",
        "place_of_birth": "johannesburg",
        "home_address": "blk",
        "f": "blk",
        "name_of_ship": "s.s. ajax",
        "ship_port": "liverpool",
        "date_leaving": "1883",
        "joined_ship_date": "1883-07-10",
        "joined_at_port": "hull",
        "capacity": "able seaman",
        "date_left": "1883-09-11",
        "left_port": "newport",
        "cause_of_leaving": "discharged",
        "sign_with_mark": "n",
        "notes": "blk"
    },
    {
        "id": "vtls004609964_0_16",
        "type": "sailor",
        "parent": "vtls004609964",
        "name": "owen erios",
        "dob": "1862",
        "age": "blk",
        "place_of_birth": "borth",
        "home_address": "blk",
        "f": "blk",
        "name_of_ship": "ann jones",
        "ship_port": "aberystwyth",
        "date_leaving": "1883",
        "joined_ship_date": "1883-03-18",
        "joined_at_port": "newport",
        "capacity": "master",
        "date_left": "1883-05-24",
        "left_port": "caernarfon",
        "cause_of_leaving": "discharged",
        "sign_with_mark": "n",
        "notes": "blk"
    },
    {
        "id": "vtls004609964_1_12",
        "type": "sailor",
        "parent": "vtls004609964",
        "name": "charles jamon",
        "dob": "blk",
        "age": "23",
        "place_of_birth": "copenhagen",
        "home_address": "blk",
        "f": "blk",
        "name_of_ship": "ann jones",
        "ship_port": "aberystwyth",
        "date_leaving": "1883",
        "joined_ship_date": "1883-07-10",
        "joined_at_port": "hull",
        "capacity": "mate",
        "date_left": "1883-10-25",
        "left_port": "swansea",
        "cause_of_leaving": "discharged",
        "sign_with_mark": "n",
        "notes": "blk"
    },
    {
        "id": "vtls004609964_0_12",
        "type": "sailor",
        "parent": "vtls004609964",
        "name": "owen erios",
        "dob": "1829",
        "age": "blk",
        "place_of_birth": "borth",
        "home_address": "blk",
        "f": "blk",
        "name_of_ship": "ann jones",
        "ship_port": "aberystwyth",
        "date_leaving": "1883",
        "joined_ship_date": "1883-01-02",
        "joined_at_port": "newry",
        "capacity": "mate",
        "date_left": "remains",
        "left_port": "remains",
        "cause_of_leaving": "remains on board",
        "sign_with_mark": "n",
        "notes": "blk"
    },
    {
        "id": "vtls004609973_0_14",
        "type": "sailor",
        "parent": "vtls004609973",
        "name": "edward david jones",
        "dob": "blk",
        "age": "17",
        "place_of_birth": "aberystwyth",
        "home_address": "blk",
        "f": "blk",
        "name_of_ship": "ann jones",
        "ship_port": "aberystwyth",
        "date_leaving": "1884",
        "joined_ship_date": "1884-01-31",
        "joined_at_port": "caernarfon",
        "capacity": "ordinary seaman",
        "date_left": "remains",
        "left_port": "remains",
        "cause_of_leaving": "remains on board",
        "sign_with_mark": "n",
        "notes": "blk"
    },
    {
        "id": "vtls004609964_1_16",
        "type": "sailor",
        "parent": "vtls004609964",
        "name": "william edwards",
        "dob": "1825",
        "age": "blk",
        "place_of_birth": "aberystwyth",
        "home_address": "blk",
        "f": "blk",
        "name_of_ship": "dutchess of lancaster",
        "ship_port": "liverpool",
        "date_leaving": "1883",
        "joined_ship_date": "1883-10-26",
        "joined_at_port": "swansea",
        "capacity": "mate",
        "date_left": "remains",
        "left_port": "remains",
        "cause_of_leaving": "remains on board",
        "sign_with_mark": "n",
        "notes": "blk"
    },
    {
        "id": "vtls004609964_1_14",
        "type": "sailor",
        "parent": "vtls004609964",
        "name": "edward davidson",
        "dob": "blk",
        "age": "16",
        "place_of_birth": "aberystwyth",
        "home_address": "blk",
        "f": "blk",
        "name_of_ship": "ann jones",
        "ship_port": "aberystwyth",
        "date_leaving": "1883",
        "joined_ship_date": "1883-07-10 ",
        "joined_at_port": "hull",
        "capacity": "ordinary seaman",
        "date_left": "remains",
        "left_port": "remains",
        "cause_of_leaving": "remains on board",
        "sign_with_mark": "n",
        "notes": "blk"
    },
    {
        "id": "vtls004609973_0_13",
        "type": "sailor",
        "parent": "vtls004609973",
        "name": "evan james",
        "dob": "blk",
        "age": "22",
        "place_of_birth": "aberystwyth",
        "home_address": "blk",
        "f": "blk",
        "name_of_ship": "ann jones",
        "ship_port": "aberystwyth",
        "date_leaving": "1884",
        "joined_ship_date": "1884-01-31",
        "joined_at_port": "caernarfon",
        "capacity": "able seaman",
        "date_left": "remains",
        "left_port": "remains",
        "cause_of_leaving": "remains on board",
        "sign_with_mark": "n",
        "notes": "blk"
    },
    {
        "id": "vtls004609973_0_12",
        "type": "sailor",
        "parent": "vtls004609973",
        "name": "william edwards",
        "dob": "blk",
        "age": "52",
        "place_of_birth": "aberystwyth",
        "home_address": "blk",
        "f": "blk",
        "name_of_ship": "ann jones",
        "ship_port": "aberystwyth",
        "date_leaving": "1884",
        "joined_ship_date": "1884-01-31",
        "joined_at_port": "caernarfon",
        "capacity": "mate",
        "date_left": "1884-05-08",
        "left_port": "caernarfon",
        "cause_of_leaving": "discharged",
        "sign_with_mark": "n",
        "notes": "blk"
    },
    {
        "id": "vtls004609973_0_16",
        "type": "sailor",
        "parent": "vtls004609973",
        "name": "john jones",
        "dob": "blk",
        "age": "38",
        "place_of_birth": "bangor",
        "home_address": "blk",
        "f": "blk",
        "name_of_ship": "ann",
        "ship_port": "caernarfon",
        "date_leaving": "1884",
        "joined_ship_date": "1884-05-12",
        "joined_at_port": "caernarfon",
        "capacity": "mate",
        "date_left": "remains",
        "left_port": "remains",
        "cause_of_leaving": "remains on board",
        "sign_with_mark": "n",
        "notes": "mate number 72293"
    },
    {
        "id": "vtls004609964_1_15",
        "type": "sailor",
        "parent": "vtls004609964",
        "name": "evan james",
        "dob": "blk",
        "age": "25",
        "place_of_birth": "aberystwyth",
        "home_address": "blk",
        "f": "blk",
        "name_of_ship": "evelyn",
        "ship_port": "ipswich",
        "date_leaving": "1883",
        "joined_ship_date": "1883-09-12",
        "joined_at_port": "newport",
        "capacity": "able seaman",
        "date_left": "remains",
        "left_port": "remains",
        "cause_of_leaving": "remains on board",
        "sign_with_mark": "y",
        "notes": "blk"
    },
    {
        "id": "vtls004609964_1_17",
        "type": "sailor",
        "parent": "vtls004609964",
        "name": "william jenkins",
        "dob": "1868",
        "age": "blk",
        "place_of_birth": "aberystwyth",
        "home_address": "blk",
        "f": "blk",
        "name_of_ship": "first ship",
        "ship_port": "blk",
        "date_leaving": "blk",
        "joined_ship_date": "1883-11-01",
        "joined_at_port": "swansea",
        "capacity": "boy",
        "date_left": "remains",
        "left_port": "remains",
        "cause_of_leaving": "remains on board",
        "sign_with_mark": "n",
        "notes": "blk"
    },
    {
        "id": "vtls004609973_0_15",
        "type": "sailor",
        "parent": "vtls004609973",
        "name": "joseph m ellis",
        "dob": "blk",
        "age": "17",
        "place_of_birth": "caernarfon",
        "home_address": "blk",
        "f": "blk",
        "name_of_ship": "first ship",
        "ship_port": "blk",
        "date_leaving": "blk",
        "joined_ship_date": "1884-01-31",
        "joined_at_port": "caernarfon",
        "capacity": "boy",
        "date_left": "1884-05-08",
        "left_port": "caernarfon",
        "cause_of_leaving": "discharged",
        "sign_with_mark": "n",
        "notes": "blk"
    },
    {
        "id": "vtls004609973_1_14",
        "type": "sailor",
        "parent": "vtls004609973",
        "name": "edward david jones",
        "dob": "1867",
        "age": "blk",
        "place_of_birth": "aberystwyth",
        "home_address": "blk",
        "f": "blk",
        "name_of_ship": "ann jones",
        "ship_port": "aberystwyth",
        "date_leaving": "1884",
        "joined_ship_date": "1884-07-19",
        "joined_at_port": "caernarfon",
        "capacity": "ordinary seaman",
        "date_left": "remains",
        "left_port": "remains",
        "cause_of_leaving": "remains on board",
        "sign_with_mark": "n",
        "notes": "blk"
    },
    {
        "id": "vtls004609973_1_13",
        "type": "sailor",
        "parent": "vtls004609973",
        "name": "robert williams",
        "dob": "1862",
        "age": "blk",
        "place_of_birth": "aberystwyth",
        "home_address": "blk",
        "f": "blk",
        "name_of_ship": "ann jones",
        "ship_port": "aberystwyth",
        "date_leaving": "1884",
        "joined_ship_date": "1884-07-19",
        "joined_at_port": "caernarfon",
        "capacity": "able seaman",
        "date_left": "remains",
        "left_port": "remains",
        "cause_of_leaving": "remains on board",
        "sign_with_mark": "n",
        "notes": "blk"
    },
    {
        "id": "vtls004609973_1_12",
        "type": "sailor",
        "parent": "vtls004609973",
        "name": "john jones",
        "dob": "1846",
        "age": "blk",
        "place_of_birth": "bangor",
        "home_address": "blk",
        "f": "blk",
        "name_of_ship": "ann jones",
        "ship_port": "aberystwyth",
        "date_leaving": "1884",
        "joined_ship_date": "1884-07-18",
        "joined_at_port": "caernarfon",
        "capacity": "mate",
        "date_left": "remains",
        "left_port": "remains",
        "cause_of_leaving": "remains on board",
        "sign_with_mark": "n",
        "notes": "mate number 72293"
    },
    {
        "id": "vtls004609973_1_15",
        "type": "sailor",
        "parent": "vtls004609973",
        "name": "owen williams",
        "dob": "1867",
        "age": "blk",
        "place_of_birth": "anglesey",
        "home_address": "blk",
        "f": "blk",
        "name_of_ship": "jane davies",
        "ship_port": "aberystwyth",
        "date_leaving": "1884",
        "joined_ship_date": "1884-11-01",
        "joined_at_port": "porthmadog",
        "capacity": "boy",
        "date_left": "remains",
        "left_port": "remains",
        "cause_of_leaving": "remains on board",
        "sign_with_mark": "n",
        "notes": "blk"
    }
]