[
    {
        "id": "vtls004663352_0_11",
        "type": "sailor",
        "parent": "vtls004663352",
        "name": "john davies",
        "dob": "1871",
        "age": "blk",
        "place_of_birth": "aberystwyth",
        "home_address": "blk",
        "f": "blk",
        "name_of_ship": "george & lizzie",
        "ship_port": "aberystwyth",
        "date_leaving": "1903",
        "joined_ship_date": "continues",
        "joined_at_port": "blk",
        "capacity": "master",
        "date_left": "blk",
        "left_port": "blk",
        "cause_of_leaving": "remains on board",
        "sign_with_mark": "n",
        "notes": "account for 1903-01-01 to 1903-06-30"
    },
    {
        "id": "vtls004663352_1_12",
        "type": "sailor",
        "parent": "vtls004663352",
        "name": "william roberts",
        "dob": "1857",
        "age": "blk",
        "place_of_birth": "portmadoc",
        "home_address": "blk",
        "f": "blk",
        "name_of_ship": "george & lizzie",
        "ship_port": "aberystwyth",
        "date_leaving": "1903",
        "joined_ship_date": "1903-07-01",
        "joined_at_port": "aberystwyth",
        "capacity": "2nd hand",
        "date_left": "blk",
        "left_port": "blk",
        "cause_of_leaving": "remains on board",
        "sign_with_mark": "n",
        "notes": "blk"
    },
    {
        "id": "vtls004663352_0_13",
        "type": "sailor",
        "parent": "vtls004663352",
        "name": "thomas hugh jones",
        "dob": "1872",
        "age": "blk",
        "place_of_birth": "aberystwyth",
        "home_address": "blk",
        "f": "blk",
        "name_of_ship": "george & lizzie",
        "ship_port": "aberystwyth",
        "date_leaving": "1903",
        "joined_ship_date": "continues",
        "joined_at_port": "blk",
        "capacity": "2nd hand",
        "date_left": "blk",
        "left_port": "blk",
        "cause_of_leaving": "remains on board",
        "sign_with_mark": "n",
        "notes": "blk"
    },
    {
        "id": "vtls004663352_1_11",
        "type": "sailor",
        "parent": "vtls004663352",
        "name": "john davies",
        "dob": "1870",
        "age": "blk",
        "place_of_birth": "aberystwyth",
        "home_address": "blk",
        "f": "blk",
        "name_of_ship": "george & lizzie",
        "ship_port": "aberystwyth",
        "date_leaving": "1903",
        "joined_ship_date": "1903-07-01",
        "joined_at_port": "aberystwyth",
        "capacity": "master",
        "date_left": "blk",
        "left_port": "blk",
        "cause_of_leaving": "remains on board",
        "sign_with_mark": "n",
        "notes": "blk"
    },
    {
        "id": "vtls004663352_0_12",
        "type": "sailor",
        "parent": "vtls004663352",
        "name": "william roberts",
        "dob": "1857",
        "age": "blk",
        "place_of_birth": "portmadoc",
        "home_address": "blk",
        "f": "blk",
        "name_of_ship": "george & lizzie",
        "ship_port": "aberystwyth",
        "date_leaving": "1903",
        "joined_ship_date": "continues",
        "joined_at_port": "blk",
        "capacity": "2nd hand",
        "date_left": "blk",
        "left_port": "blk",
        "cause_of_leaving": "remains on board",
        "sign_with_mark": "n",
        "notes": "blk"
    },
    {
        "id": "vtls004663352_0_14",
        "type": "sailor",
        "parent": "vtls004663352",
        "name": "william davies",
        "dob": "1875",
        "age": "blk",
        "place_of_birth": "aberystwyth",
        "home_address": "blk",
        "f": "blk",
        "name_of_ship": "george & lizzie",
        "ship_port": "aberystwyth",
        "date_leaving": "1903",
        "joined_ship_date": "continues",
        "joined_at_port": "blk",
        "capacity": "2nd hand",
        "date_left": "blk",
        "left_port": "blk",
        "cause_of_leaving": "remains on board",
        "sign_with_mark": "n",
        "notes": "blk"
    },
    {
        "id": "vtls004663357_1_11",
        "type": "sailor",
        "parent": "vtls004663357",
        "name": "william roberts",
        "dob": "1857",
        "age": "blk",
        "place_of_birth": "portmadoc",
        "home_address": "blk",
        "f": "blk",
        "name_of_ship": "george & lizzie",
        "ship_port": "aberystwyth",
        "date_leaving": "1904",
        "joined_ship_date": "continues",
        "joined_at_port": "blk",
        "capacity": "master",
        "date_left": "blk",
        "left_port": "blk",
        "cause_of_leaving": "remains on board",
        "sign_with_mark": "n",
        "notes": "account for 1904-07-01 to 1904-12-31"
    },
    {
        "id": "vtls004663352_1_13",
        "type": "sailor",
        "parent": "vtls004663352",
        "name": "thomas hugh jones",
        "dob": "1872",
        "age": "blk",
        "place_of_birth": "aberystwyth",
        "home_address": "blk",
        "f": "blk",
        "name_of_ship": "george & lizzie",
        "ship_port": "aberystwyth",
        "date_leaving": "1903",
        "joined_ship_date": "1903-07-01",
        "joined_at_port": "aberystwyth",
        "capacity": "3rd hand",
        "date_left": "blk",
        "left_port": "blk",
        "cause_of_leaving": "remains on board",
        "sign_with_mark": "n",
        "notes": "blk"
    },
    {
        "id": "vtls004663357_0_14",
        "type": "sailor",
        "parent": "vtls004663357",
        "name": "william george brown",
        "dob": "1879",
        "age": "blk",
        "place_of_birth": "aberystwyth",
        "home_address": "blk",
        "f": "blk",
        "name_of_ship": "gipsy king",
        "ship_port": "aberystwyth",
        "date_leaving": "1904",
        "joined_ship_date": "1904-06-20",
        "joined_at_port": "aberystwyth",
        "capacity": "4th hand",
        "date_left": "blk",
        "left_port": "blk",
        "cause_of_leaving": "remains on board",
        "sign_with_mark": "n",
        "notes": "blk"
    },
    {
        "id": "vtls004663352_1_14",
        "type": "sailor",
        "parent": "vtls004663352",
        "name": "john humphreys",
        "dob": "1868",
        "age": "blk",
        "place_of_birth": "aberystwyth",
        "home_address": "blk",
        "f": "blk",
        "name_of_ship": "george & lizzie",
        "ship_port": "aberystwyth",
        "date_leaving": "1903",
        "joined_ship_date": "1903-07-01",
        "joined_at_port": "aberystwyth",
        "capacity": "4th hand",
        "date_left": "blk",
        "left_port": "blk",
        "cause_of_leaving": "remains on board",
        "sign_with_mark": "n",
        "notes": "blk"
    },
    {
        "id": "vtls004663357_0_12",
        "type": "sailor",
        "parent": "vtls004663357",
        "name": "thomas hugh jones",
        "dob": "1872",
        "age": "blk",
        "place_of_birth": "aberystwyth",
        "home_address": "blk",
        "f": "blk",
        "name_of_ship": "george & lizzie",
        "ship_port": "aberystwyth",
        "date_leaving": "1904",
        "joined_ship_date": "continues",
        "joined_at_port": "blk",
        "capacity": "2nd hand",
        "date_left": "blk",
        "left_port": "blk",
        "cause_of_leaving": "remains on board",
        "sign_with_mark": "n",
        "notes": "blk"
    },
    {
        "id": "vtls004663357_0_11",
        "type": "sailor",
        "parent": "vtls004663357",
        "name": "william roberts",
        "dob": "1855",
        "age": "blk",
        "place_of_birth": "portmadoc",
        "home_address": "blk",
        "f": "blk",
        "name_of_ship": "george & lizzie",
        "ship_port": "aberystwyth",
        "date_leaving": "1904",
        "joined_ship_date": "continues",
        "joined_at_port": "blk",
        "capacity": "master",
        "date_left": "blk",
        "left_port": "blk",
        "cause_of_leaving": "remains on board",
        "sign_with_mark": "n",
        "notes": "blk"
    },
    {
        "id": "vtls004663357_1_12",
        "type": "sailor",
        "parent": "vtls004663357",
        "name": "thomas hugh jones",
        "dob": "1873",
        "age": "blk",
        "place_of_birth": "aberystwyth",
        "home_address": "blk",
        "f": "blk",
        "name_of_ship": "george & lizzie",
        "ship_port": "aberystwyth",
        "date_leaving": "1904",
        "joined_ship_date": "continues",
        "joined_at_port": "blk",
        "capacity": "blk",
        "date_left": "blk",
        "left_port": "blk",
        "cause_of_leaving": "remains on board",
        "sign_with_mark": "n",
        "notes": "blk"
    },
    {
        "id": "vtls004663357_0_13",
        "type": "sailor",
        "parent": "vtls004663357",
        "name": "albert cooper",
        "dob": "1875",
        "age": "blk",
        "place_of_birth": "hoylake",
        "home_address": "blk",
        "f": "blk",
        "name_of_ship": "plover",
        "ship_port": "aberystwyth",
        "date_leaving": "1904",
        "joined_ship_date": "1904-06-20",
        "joined_at_port": "aberystwyth",
        "capacity": "3rd hand",
        "date_left": "blk",
        "left_port": "blk",
        "cause_of_leaving": "remains on board",
        "sign_with_mark": "n",
        "notes": "blk"
    },
    {
        "id": "vtls004663357_1_13",
        "type": "sailor",
        "parent": "vtls004663357",
        "name": "thomas jones",
        "dob": "1866",
        "age": "blk",
        "place_of_birth": "aberystwyth",
        "home_address": "blk",
        "f": "blk",
        "name_of_ship": "george & lizzie",
        "ship_port": "aberystwyth",
        "date_leaving": "1904",
        "joined_ship_date": "continues",
        "joined_at_port": "blk",
        "capacity": "blk",
        "date_left": "blk",
        "left_port": "blk",
        "cause_of_leaving": "remains on board",
        "sign_with_mark": "n",
        "notes": "blk"
    },
    {
        "id": "vtls004663372_1_11",
        "type": "sailor",
        "parent": "vtls004663372",
        "name": "william davies",
        "dob": "1875",
        "age": "blk",
        "place_of_birth": "aberystwyth",
        "home_address": "blk",
        "f": "blk",
        "name_of_ship": "george & lizzie",
        "ship_port": "aberystwyth",
        "date_leaving": "1907",
        "joined_ship_date": "blk",
        "joined_at_port": "blk",
        "capacity": "master",
        "date_left": "blk",
        "left_port": "blk",
        "cause_of_leaving": "remains on board",
        "sign_with_mark": "n",
        "notes": "account for 1907-07-01 to 1907-12-31"
    },
    {
        "id": "vtls004663372_0_12",
        "type": "sailor",
        "parent": "vtls004663372",
        "name": "james silcock",
        "dob": "1862",
        "age": "blk",
        "place_of_birth": "hoylake",
        "home_address": "blk",
        "f": "blk",
        "name_of_ship": "gipsy king",
        "ship_port": "aberystwyth",
        "date_leaving": "1906",
        "joined_ship_date": "1907-07-20",
        "joined_at_port": "aberystwyth",
        "capacity": "2nd hand",
        "date_left": "blk",
        "left_port": "blk",
        "cause_of_leaving": "remains on board",
        "sign_with_mark": "n",
        "notes": "blk"
    },
    {
        "id": "vtls004663372_0_14",
        "type": "sailor",
        "parent": "vtls004663372",
        "name": "john brodigan",
        "dob": "1847",
        "age": "blk",
        "place_of_birth": "aberystwyth",
        "home_address": "blk",
        "f": "blk",
        "name_of_ship": "george & lizzie",
        "ship_port": "aberystwyth",
        "date_leaving": "1906",
        "joined_ship_date": "continued",
        "joined_at_port": "blk",
        "capacity": "2k hand",
        "date_left": "blk",
        "left_port": "blk",
        "cause_of_leaving": "remains on board",
        "sign_with_mark": "n",
        "notes": "blk"
    },
    {
        "id": "vtls004663372_0_13",
        "type": "sailor",
        "parent": "vtls004663372",
        "name": "thomas hughes",
        "dob": "1861",
        "age": "blk",
        "place_of_birth": "aberystwyth",
        "home_address": "blk",
        "f": "blk",
        "name_of_ship": "galtee",
        "ship_port": "llanelli",
        "date_leaving": "1906",
        "joined_ship_date": "1907-07-20",
        "joined_at_port": "aberystwyth",
        "capacity": "3rd hand",
        "date_left": "blk",
        "left_port": "blk",
        "cause_of_leaving": "remains on board",
        "sign_with_mark": "n",
        "notes": "blk"
    },
    {
        "id": "vtls004663372_1_12",
        "type": "sailor",
        "parent": "vtls004663372",
        "name": "thomas hugh jones",
        "dob": "1872",
        "age": "blk",
        "place_of_birth": "aberystwyth",
        "home_address": "blk",
        "f": "blk",
        "name_of_ship": "george & lizzie",
        "ship_port": "aberystwyth",
        "date_leaving": "1907",
        "joined_ship_date": "blk",
        "joined_at_port": "blk",
        "capacity": "2nd hand",
        "date_left": "blk",
        "left_port": "blk",
        "cause_of_leaving": "remains on board",
        "sign_with_mark": "n",
        "notes": "blk"
    },
    {
        "id": "vtls004663372_0_11",
        "type": "sailor",
        "parent": "vtls004663372",
        "name": "thomas jones",
        "dob": "1872",
        "age": "blk",
        "place_of_birth": "aberystwyth",
        "home_address": "blk",
        "f": "blk",
        "name_of_ship": "george & lizzie",
        "ship_port": "aberystwyth",
        "date_leaving": "1906",
        "joined_ship_date": "continued",
        "joined_at_port": "blk",
        "capacity": "master",
        "date_left": "blk",
        "left_port": "blk",
        "cause_of_leaving": "remains on board",
        "sign_with_mark": "n",
        "notes": "blk"
    },
    {
        "id": "vtls004663357_1_14",
        "type": "sailor",
        "parent": "vtls004663357",
        "name": "thomas daniels",
        "dob": "1844",
        "age": "blk",
        "place_of_birth": "aberystwyth",
        "home_address": "blk",
        "f": "blk",
        "name_of_ship": "george & lizzie",
        "ship_port": "aberystwyth",
        "date_leaving": "1904",
        "joined_ship_date": "continues",
        "joined_at_port": "blk",
        "capacity": "blk",
        "date_left": "blk",
        "left_port": "blk",
        "cause_of_leaving": "remains on board",
        "sign_with_mark": "n",
        "notes": "blk"
    },
    {
        "id": "vtls004663372_1_13",
        "type": "sailor",
        "parent": "vtls004663372",
        "name": "john davies",
        "dob": "1870",
        "age": "blk",
        "place_of_birth": "aberystwyth",
        "home_address": "blk",
        "f": "blk",
        "name_of_ship": "george & lizzie",
        "ship_port": "aberystwyth",
        "date_leaving": "1907",
        "joined_ship_date": "blk",
        "joined_at_port": "blk",
        "capacity": "3rd hand",
        "date_left": "blk",
        "left_port": "blk",
        "cause_of_leaving": "remains on board",
        "sign_with_mark": "n",
        "notes": "blk"
    }
]