[
    {
        "id": "vtls004677922_0_11",
        "type": "sailor",
        "parent": "vtls004677922",
        "name": "neil murchison",
        "dob": "blk",
        "age": "42",
        "place_of_birth": "prince edward island",
        "home_address": "blk",
        "f": "blk",
        "name_of_ship": "isobel",
        "ship_port": "blk",
        "date_leaving": "1886",
        "joined_ship_date": "1886-03-06",
        "joined_at_port": "bordeaux",
        "capacity": "master",
        "date_left": "blk",
        "left_port": "blk",
        "cause_of_leaving": "remains on board",
        "sign_with_mark": "n",
        "notes": "blk"
    },
    {
        "id": "vtls004677922_0_14",
        "type": "sailor",
        "parent": "vtls004677922",
        "name": "hendrick balstrom",
        "dob": "blk",
        "age": "25",
        "place_of_birth": "finland",
        "home_address": "blk",
        "f": "blk",
        "name_of_ship": "loweswater",
        "ship_port": "blk",
        "date_leaving": "1886",
        "joined_ship_date": "1886-03-06",
        "joined_at_port": "bordeaux",
        "capacity": "able seaman",
        "date_left": "1886-06-24",
        "left_port": "plymouth",
        "cause_of_leaving": "discharged",
        "sign_with_mark": "y",
        "notes": "blk"
    },
    {
        "id": "vtls004677922_0_13",
        "type": "sailor",
        "parent": "vtls004677922",
        "name": "f jacobsen",
        "dob": "blk",
        "age": "34",
        "place_of_birth": "denmark",
        "home_address": "blk",
        "f": "blk",
        "name_of_ship": "loweswater",
        "ship_port": "blk",
        "date_leaving": "1886",
        "joined_ship_date": "1886-03-06",
        "joined_at_port": "bordeaux",
        "capacity": "able seaman",
        "date_left": "1886-06-24",
        "left_port": "plymouth",
        "cause_of_leaving": "discharged",
        "sign_with_mark": "n",
        "notes": "blk"
    },
    {
        "id": "vtls004677922_0_12",
        "type": "sailor",
        "parent": "vtls004677922",
        "name": "$ $ danielson",
        "dob": "blk",
        "age": "24",
        "place_of_birth": "sweden",
        "home_address": "blk",
        "f": "blk",
        "name_of_ship": "brooklands",
        "ship_port": "blk",
        "date_leaving": "1886",
        "joined_ship_date": "1886-03-06",
        "joined_at_port": "bordeaux",
        "capacity": "mate",
        "date_left": "1886-06-24",
        "left_port": "plymouth",
        "cause_of_leaving": "discharged",
        "sign_with_mark": "n",
        "notes": "blk"
    },
    {
        "id": "vtls004677922_1_14",
        "type": "sailor",
        "parent": "vtls004677922",
        "name": "william munch",
        "dob": "1863",
        "age": "blk",
        "place_of_birth": "st joseph, germany",
        "home_address": "blk",
        "f": "blk",
        "name_of_ship": "lady havelock",
        "ship_port": "cardiff",
        "date_leaving": "1886",
        "joined_ship_date": "1886-09-03",
        "joined_at_port": "swansea",
        "capacity": "cook & steward",
        "date_left": "1886-12-15",
        "left_port": "punta lara",
        "cause_of_leaving": "deserted",
        "sign_with_mark": "n",
        "notes": "blk"
    },
    {
        "id": "vtls004677922_0_20",
        "type": "sailor",
        "parent": "vtls004677922",
        "name": "john stewart",
        "dob": "blk",
        "age": "18",
        "place_of_birth": "prince edward island",
        "home_address": "blk",
        "f": "blk",
        "name_of_ship": "first ship",
        "ship_port": "blk",
        "date_leaving": "blk",
        "joined_ship_date": "1886-06-01",
        "joined_at_port": "georgetown",
        "capacity": "ordinary seaman",
        "date_left": "1886-06-24",
        "left_port": "plymouth",
        "cause_of_leaving": "discharged",
        "sign_with_mark": "n",
        "notes": "blk"
    },
    {
        "id": "vtls004677922_0_17",
        "type": "sailor",
        "parent": "vtls004677922",
        "name": "john m mcloed",
        "dob": "blk",
        "age": "27",
        "place_of_birth": "prince edward island",
        "home_address": "blk",
        "f": "blk",
        "name_of_ship": "isobel",
        "ship_port": "blk",
        "date_leaving": "1886",
        "joined_ship_date": "1886-05-31",
        "joined_at_port": "georgetown",
        "capacity": "boatswain",
        "date_left": "1886-06-24",
        "left_port": "plymouth",
        "cause_of_leaving": "discharged",
        "sign_with_mark": "n",
        "notes": "blk"
    },
    {
        "id": "vtls004677922_0_18",
        "type": "sailor",
        "parent": "vtls004677922",
        "name": "i h mullins",
        "dob": "blk",
        "age": "20",
        "place_of_birth": "prince edward island",
        "home_address": "blk",
        "f": "blk",
        "name_of_ship": "isobel",
        "ship_port": "blk",
        "date_leaving": "1886",
        "joined_ship_date": "1886-05-31",
        "joined_at_port": "georgetown",
        "capacity": "able seaman",
        "date_left": "1886-06-24",
        "left_port": "plymouth",
        "cause_of_leaving": "discharged",
        "sign_with_mark": "n",
        "notes": "blk"
    },
    {
        "id": "vtls004677922_1_11",
        "type": "sailor",
        "parent": "vtls004677922",
        "name": "daniel davies",
        "dob": "1841",
        "age": "blk",
        "place_of_birth": "aberaeron",
        "home_address": "blk",
        "f": "blk",
        "name_of_ship": "xanthippe",
        "ship_port": "aberystwyth",
        "date_leaving": "1886",
        "joined_ship_date": "1886-09-03",
        "joined_at_port": "swansea",
        "capacity": "master",
        "date_left": "1886-09-08",
        "left_port": "swansea",
        "cause_of_leaving": "discharged",
        "sign_with_mark": "n",
        "notes": "blk"
    },
    {
        "id": "vtls004677922_0_19",
        "type": "sailor",
        "parent": "vtls004677922",
        "name": "daniel fougen",
        "dob": "blk",
        "age": "38",
        "place_of_birth": "arichat",
        "home_address": "blk",
        "f": "blk",
        "name_of_ship": "gulnare",
        "ship_port": "blk",
        "date_leaving": "1885",
        "joined_ship_date": "1886-05-31",
        "joined_at_port": "georgetown",
        "capacity": "cook & steward",
        "date_left": "1886-06-24",
        "left_port": "plymouth",
        "cause_of_leaving": "discharged",
        "sign_with_mark": "n",
        "notes": "blk"
    },
    {
        "id": "vtls004677922_1_13",
        "type": "sailor",
        "parent": "vtls004677922",
        "name": "john jones",
        "dob": "1847",
        "age": "blk",
        "place_of_birth": "aberaeron",
        "home_address": "blk",
        "f": "blk",
        "name_of_ship": "lady havelock",
        "ship_port": "cardiff",
        "date_leaving": "1886",
        "joined_ship_date": "1886-09-03",
        "joined_at_port": "swansea",
        "capacity": "bosun",
        "date_left": "1887-11-08",
        "left_port": "porthmadog",
        "cause_of_leaving": "discharged",
        "sign_with_mark": "n",
        "notes": "blk"
    },
    {
        "id": "vtls004677922_1_12",
        "type": "sailor",
        "parent": "vtls004677922",
        "name": "rees jones",
        "dob": "1851",
        "age": "blk",
        "place_of_birth": "aberaeron",
        "home_address": "blk",
        "f": "blk",
        "name_of_ship": "malek",
        "ship_port": "london",
        "date_leaving": "1886",
        "joined_ship_date": "1886-09-03",
        "joined_at_port": "swansea",
        "capacity": "mate",
        "date_left": "1887-11-08",
        "left_port": "porthmadog",
        "cause_of_leaving": "discharged",
        "sign_with_mark": "n",
        "notes": "blk"
    },
    {
        "id": "vtls004677922_0_16",
        "type": "sailor",
        "parent": "vtls004677922",
        "name": "h losch",
        "dob": "blk",
        "age": "18",
        "place_of_birth": "germany",
        "home_address": "blk",
        "f": "blk",
        "name_of_ship": "foreign",
        "ship_port": "blk",
        "date_leaving": "1886",
        "joined_ship_date": "1886-03-06",
        "joined_at_port": "bordeaux",
        "capacity": "ordinary seaman",
        "date_left": "1886-06-24",
        "left_port": "plymouth",
        "cause_of_leaving": "discharged",
        "sign_with_mark": "n",
        "notes": "blk"
    },
    {
        "id": "vtls004677922_0_15",
        "type": "sailor",
        "parent": "vtls004677922",
        "name": "franz jacobsen",
        "dob": "blk",
        "age": "34",
        "place_of_birth": "finland",
        "home_address": "blk",
        "f": "blk",
        "name_of_ship": "loweswater",
        "ship_port": "blk",
        "date_leaving": "1886",
        "joined_ship_date": "1886-03-06",
        "joined_at_port": "bordeaux",
        "capacity": "blk",
        "date_left": "1886-06-24",
        "left_port": "plymouth",
        "cause_of_leaving": "discharged",
        "sign_with_mark": "y",
        "notes": "blk"
    },
    {
        "id": "vtls004677922_1_22",
        "type": "sailor",
        "parent": "vtls004677922",
        "name": "morgan j jones",
        "dob": "blk",
        "age": "21",
        "place_of_birth": "newquay",
        "home_address": "blk",
        "f": "blk",
        "name_of_ship": "richard hutchinson",
        "ship_port": "chatham",
        "date_leaving": "1886",
        "joined_ship_date": "1886-09-07",
        "joined_at_port": "swansea",
        "capacity": "able seaman",
        "date_left": "1887-07-13",
        "left_port": "bremerhaven, germany",
        "cause_of_leaving": "discharged",
        "sign_with_mark": "n",
        "notes": "blk"
    },
    {
        "id": "vtls004677922_1_19",
        "type": "sailor",
        "parent": "vtls004677922",
        "name": "david coyle",
        "dob": "1867",
        "age": "blk",
        "place_of_birth": "dalbeattie",
        "home_address": "blk",
        "f": "blk",
        "name_of_ship": "bay fisher",
        "ship_port": "barrow",
        "date_leaving": "1886",
        "joined_ship_date": "1886-09-03",
        "joined_at_port": "swansea",
        "capacity": "ordinary seaman",
        "date_left": "1887-07-13",
        "left_port": "bremerhaven, germany",
        "cause_of_leaving": "discharged",
        "sign_with_mark": "n",
        "notes": "blk"
    },
    {
        "id": "vtls004677922_1_17",
        "type": "sailor",
        "parent": "vtls004677922",
        "name": "fred berggsen",
        "dob": "1858",
        "age": "blk",
        "place_of_birth": "gefle",
        "home_address": "blk",
        "f": "blk",
        "name_of_ship": "belle of arvon",
        "ship_port": "liverpool",
        "date_leaving": "1886",
        "joined_ship_date": "1886-09-03",
        "joined_at_port": "swansea",
        "capacity": "able seaman",
        "date_left": "1886-09-09",
        "left_port": "swansea",
        "cause_of_leaving": "could not join",
        "sign_with_mark": "n",
        "notes": "blk"
    },
    {
        "id": "vtls004677922_1_15",
        "type": "sailor",
        "parent": "vtls004677922",
        "name": "james b$$$k",
        "dob": "1862",
        "age": "blk",
        "place_of_birth": "arklow",
        "home_address": "blk",
        "f": "blk",
        "name_of_ship": "elizabeth keely",
        "ship_port": "dublin",
        "date_leaving": "1886",
        "joined_ship_date": "1886-09-03",
        "joined_at_port": "swansea",
        "capacity": "able seaman",
        "date_left": "1886-09-07",
        "left_port": "swansea",
        "cause_of_leaving": "never joined",
        "sign_with_mark": "n",
        "notes": "blk"
    },
    {
        "id": "vtls004677922_1_16",
        "type": "sailor",
        "parent": "vtls004677922",
        "name": "michael o reya$$$",
        "dob": "1848",
        "age": "blk",
        "place_of_birth": "kinsale",
        "home_address": "blk",
        "f": "blk",
        "name_of_ship": "ellen",
        "ship_port": "youghal",
        "date_leaving": "1886",
        "joined_ship_date": "1886-09-03",
        "joined_at_port": "swansea",
        "capacity": "able seaman",
        "date_left": "1886-09-07",
        "left_port": "swansea",
        "cause_of_leaving": "never joined",
        "sign_with_mark": "n",
        "notes": "blk"
    },
    {
        "id": "vtls004677922_1_18",
        "type": "sailor",
        "parent": "vtls004677922",
        "name": "thomas rogers",
        "dob": "1838",
        "age": "blk",
        "place_of_birth": "llanelly",
        "home_address": "blk",
        "f": "blk",
        "name_of_ship": "coydon",
        "ship_port": "swansea",
        "date_leaving": "1886",
        "joined_ship_date": "1886-09-03",
        "joined_at_port": "swansea",
        "capacity": "carpenter",
        "date_left": "1887-07-13",
        "left_port": "bremerhaven, germany",
        "cause_of_leaving": "discharged",
        "sign_with_mark": "n",
        "notes": "blk"
    },
    {
        "id": "vtls004677922_1_21",
        "type": "sailor",
        "parent": "vtls004677922",
        "name": "c nelsson",
        "dob": "blk",
        "age": "26",
        "place_of_birth": "finland",
        "home_address": "blk",
        "f": "blk",
        "name_of_ship": "welsh girl",
        "ship_port": "swansea",
        "date_leaving": "1886",
        "joined_ship_date": "1886-09-07",
        "joined_at_port": "swansea",
        "capacity": "able seaman",
        "date_left": "1887-07-13",
        "left_port": "bremerhaven, germany",
        "cause_of_leaving": "discharged",
        "sign_with_mark": "n",
        "notes": "blk"
    },
    {
        "id": "vtls004677922_1_20",
        "type": "sailor",
        "parent": "vtls004677922",
        "name": "david lloyd",
        "dob": "1873",
        "age": "blk",
        "place_of_birth": "aberaeron",
        "home_address": "blk",
        "f": "blk",
        "name_of_ship": "leader",
        "ship_port": "aberystwyth",
        "date_leaving": "1886",
        "joined_ship_date": "1886-09-03",
        "joined_at_port": "swansea",
        "capacity": "boy",
        "date_left": "1887-10-08",
        "left_port": "appledore",
        "cause_of_leaving": "discharged",
        "sign_with_mark": "n",
        "notes": "blk"
    },
    {
        "id": "vtls004677922_1_28",
        "type": "sailor",
        "parent": "vtls004677922",
        "name": "c horstmeier",
        "dob": "blk",
        "age": "55",
        "place_of_birth": "bremerhaven",
        "home_address": "blk",
        "f": "blk",
        "name_of_ship": "andre$$ rickmers",
        "ship_port": "bremerhaven",
        "date_leaving": "1887",
        "joined_ship_date": "1887-07-23",
        "joined_at_port": "bremerhaven",
        "capacity": "able seaman",
        "date_left": "1887-10-08",
        "left_port": "appledore",
        "cause_of_leaving": "discharged",
        "sign_with_mark": "n",
        "notes": "substitutes shipped for the voyage from bremerhaven via sundswall to the u. kingdom, there to be discharged'"
    },
    {
        "id": "vtls004677922_1_25",
        "type": "sailor",
        "parent": "vtls004677922",
        "name": "w ketzenberg",
        "dob": "blk",
        "age": "41",
        "place_of_birth": "rugen",
        "home_address": "blk",
        "f": "blk",
        "name_of_ship": "[zantje]",
        "ship_port": "bremerhaven",
        "date_leaving": "1887",
        "joined_ship_date": "1887-07-23",
        "joined_at_port": "bremerhaven",
        "capacity": "cook & steward",
        "date_left": "1887-10-11",
        "left_port": "appledore",
        "cause_of_leaving": "discharged",
        "sign_with_mark": "n",
        "notes": "substitutes shipped for the voyage from bremerhaven via sundswall to the u. kingdom, there to be discharged'"
    },
    {
        "id": "vtls004677922_1_27",
        "type": "sailor",
        "parent": "vtls004677922",
        "name": "p hartmann",
        "dob": "blk",
        "age": "31",
        "place_of_birth": "dresden",
        "home_address": "blk",
        "f": "blk",
        "name_of_ship": "bernam$$oot",
        "ship_port": "bremerhaven",
        "date_leaving": "1887",
        "joined_ship_date": "1887-07-23",
        "joined_at_port": "bremerhaven",
        "capacity": "able seaman",
        "date_left": "1887-10-08",
        "left_port": "appledore",
        "cause_of_leaving": "discharged",
        "sign_with_mark": "n",
        "notes": "substitutes shipped for the voyage from bremerhaven via sundswall to the u. kingdom, there to be discharged'"
    },
    {
        "id": "vtls004677922_1_26",
        "type": "sailor",
        "parent": "vtls004677922",
        "name": "f schulke",
        "dob": "blk",
        "age": "40",
        "place_of_birth": "hohenstein",
        "home_address": "blk",
        "f": "blk",
        "name_of_ship": "adler",
        "ship_port": "bremerhaven",
        "date_leaving": "1887",
        "joined_ship_date": "1887-07-23",
        "joined_at_port": "bremerhaven",
        "capacity": "able seaman",
        "date_left": "1887-10-08",
        "left_port": "appledore",
        "cause_of_leaving": "discharged",
        "sign_with_mark": "n",
        "notes": "substitutes shipped for the voyage from bremerhaven via sundswall to the u. kingdom, there to be discharged'"
    },
    {
        "id": "vtls004677922_1_29",
        "type": "sailor",
        "parent": "vtls004677922",
        "name": "f moller",
        "dob": "blk",
        "age": "23",
        "place_of_birth": "bremen",
        "home_address": "blk",
        "f": "blk",
        "name_of_ship": "saale",
        "ship_port": "bremerhaven",
        "date_leaving": "1887",
        "joined_ship_date": "1887-07-23",
        "joined_at_port": "bremerhaven",
        "capacity": "able seaman",
        "date_left": "1887-10-08",
        "left_port": "appledore",
        "cause_of_leaving": "discharged",
        "sign_with_mark": "n",
        "notes": "substitutes shipped for the voyage from bremerhaven via sundswall to the u. kingdom, there to be discharged'"
    },
    {
        "id": "vtls004677922_2_11",
        "type": "sailor",
        "parent": "vtls004677922",
        "name": "david d davies",
        "dob": "blk",
        "age": "47",
        "place_of_birth": "aberaeron",
        "home_address": "aberayron",
        "f": "aberayron",
        "name_of_ship": "isobel",
        "ship_port": "aberystwyth",
        "date_leaving": "1887",
        "joined_ship_date": "1887-12-05",
        "joined_at_port": "swansea",
        "capacity": "master",
        "date_left": "1888-01-18",
        "left_port": "h thomas",
        "cause_of_leaving": "discharged",
        "sign_with_mark": "n",
        "notes": "blk"
    },
    {
        "id": "vtls004677922_2_12",
        "type": "sailor",
        "parent": "vtls004677922",
        "name": "henry w reece",
        "dob": "blk",
        "age": "36",
        "place_of_birth": "llanon",
        "home_address": "blk",
        "f": "blk",
        "name_of_ship": "maud",
        "ship_port": "whitby",
        "date_leaving": "1887",
        "joined_ship_date": "1887-12-06",
        "joined_at_port": "swansea",
        "capacity": "mate",
        "date_left": "1888-01-18",
        "left_port": "h thomas",
        "cause_of_leaving": "discharged",
        "sign_with_mark": "n",
        "notes": "canada 246 ordinary seaman"
    },
    {
        "id": "vtls004677922_1_24",
        "type": "sailor",
        "parent": "vtls004677922",
        "name": "carl muchaw",
        "dob": "1865",
        "age": "blk",
        "place_of_birth": "hamburg",
        "home_address": "blk",
        "f": "blk",
        "name_of_ship": "beta",
        "ship_port": "swansea",
        "date_leaving": "1886",
        "joined_ship_date": "1886-09-09",
        "joined_at_port": "swansea",
        "capacity": "able seaman",
        "date_left": "1887-07-13",
        "left_port": "bremerhaven, germany",
        "cause_of_leaving": "discharged",
        "sign_with_mark": "n",
        "notes": "blk"
    },
    {
        "id": "vtls004677922_2_13",
        "type": "sailor",
        "parent": "vtls004677922",
        "name": "hans of holst",
        "dob": "blk",
        "age": "27",
        "place_of_birth": "lervig",
        "home_address": "blk",
        "f": "blk",
        "name_of_ship": "norweigan ship",
        "ship_port": "blk",
        "date_leaving": "1887",
        "joined_ship_date": "1887-12-06",
        "joined_at_port": "swansea",
        "capacity": "bosun",
        "date_left": "1888-01-18",
        "left_port": "h thomas",
        "cause_of_leaving": "discharged",
        "sign_with_mark": "n",
        "notes": "blk"
    },
    {
        "id": "vtls004677922_1_23",
        "type": "sailor",
        "parent": "vtls004677922",
        "name": "david d davies",
        "dob": "1830",
        "age": "blk",
        "place_of_birth": "aberaeron",
        "home_address": "blk",
        "f": "blk",
        "name_of_ship": "xanthippe",
        "ship_port": "aberystwyth",
        "date_leaving": "1886",
        "joined_ship_date": "1886-09-08",
        "joined_at_port": "swansea",
        "capacity": "master",
        "date_left": "blk",
        "left_port": "blk",
        "cause_of_leaving": "blk",
        "sign_with_mark": "n",
        "notes": "blk"
    },
    {
        "id": "vtls004677922_2_15",
        "type": "sailor",
        "parent": "vtls004677922",
        "name": "james middleton",
        "dob": "blk",
        "age": "33",
        "place_of_birth": "brierly hill, staffordshire",
        "home_address": "blk",
        "f": "blk",
        "name_of_ship": "bankfields",
        "ship_port": "liverpool",
        "date_leaving": "1887",
        "joined_ship_date": "1887-12-06",
        "joined_at_port": "swansea",
        "capacity": "able seaman",
        "date_left": "blk",
        "left_port": "swansea",
        "cause_of_leaving": "deserted",
        "sign_with_mark": "n",
        "notes": "blk"
    },
    {
        "id": "vtls004677922_2_14",
        "type": "sailor",
        "parent": "vtls004677922",
        "name": "wilhelm ketzenberg",
        "dob": "blk",
        "age": "41",
        "place_of_birth": "dantzic",
        "home_address": "blk",
        "f": "blk",
        "name_of_ship": "isobel",
        "ship_port": "aberystwyth",
        "date_leaving": "1887",
        "joined_ship_date": "1887-12-06",
        "joined_at_port": "swansea",
        "capacity": "cook & steward",
        "date_left": "1888-01-18",
        "left_port": "h thomas",
        "cause_of_leaving": "discharged",
        "sign_with_mark": "n",
        "notes": "blk"
    },
    {
        "id": "vtls004677922_2_20",
        "type": "sailor",
        "parent": "vtls004677922",
        "name": "robert pierce hughes",
        "dob": "blk",
        "age": "22",
        "place_of_birth": "amlwch",
        "home_address": "blk",
        "f": "blk",
        "name_of_ship": "baltic",
        "ship_port": "liverpool",
        "date_leaving": "1887",
        "joined_ship_date": "1887-12-17",
        "joined_at_port": "swansea",
        "capacity": "able seaman",
        "date_left": "1888-01-18",
        "left_port": "h thomas",
        "cause_of_leaving": "discharged",
        "sign_with_mark": "n",
        "notes": "blk"
    },
    {
        "id": "vtls004677922_2_19",
        "type": "sailor",
        "parent": "vtls004677922",
        "name": "john morgans",
        "dob": "blk",
        "age": "20",
        "place_of_birth": "aberaeron",
        "home_address": "blk",
        "f": "blk",
        "name_of_ship": "jane",
        "ship_port": "aberystwyth",
        "date_leaving": "1887",
        "joined_ship_date": "1887-12-06",
        "joined_at_port": "swansea",
        "capacity": "ordinary seaman",
        "date_left": "1888-01-18",
        "left_port": "h thomas",
        "cause_of_leaving": "discharged",
        "sign_with_mark": "n",
        "notes": "blk"
    },
    {
        "id": "vtls004677922_2_16",
        "type": "sailor",
        "parent": "vtls004677922",
        "name": "evan philip evans",
        "dob": "blk",
        "age": "20",
        "place_of_birth": "newquay",
        "home_address": "blk",
        "f": "blk",
        "name_of_ship": "erminia",
        "ship_port": "swansea",
        "date_leaving": "1887",
        "joined_ship_date": "1887-12-06",
        "joined_at_port": "swansea",
        "capacity": "able seaman",
        "date_left": "1888-01-18",
        "left_port": "h thomas",
        "cause_of_leaving": "discharged",
        "sign_with_mark": "n",
        "notes": "blk"
    },
    {
        "id": "vtls004677922_2_17",
        "type": "sailor",
        "parent": "vtls004677922",
        "name": "charles rowe",
        "dob": "blk",
        "age": "30",
        "place_of_birth": "redruth",
        "home_address": "blk",
        "f": "blk",
        "name_of_ship": "c. a.",
        "ship_port": "london",
        "date_leaving": "1887",
        "joined_ship_date": "1887-12-06",
        "joined_at_port": "swansea",
        "capacity": "able seaman",
        "date_left": "1887-12-17",
        "left_port": "swansea",
        "cause_of_leaving": "refused to proceed",
        "sign_with_mark": "n",
        "notes": "blk"
    },
    {
        "id": "vtls004677922_2_18",
        "type": "sailor",
        "parent": "vtls004677922",
        "name": "george martens",
        "dob": "blk",
        "age": "26",
        "place_of_birth": "bremerhaven",
        "home_address": "blk",
        "f": "blk",
        "name_of_ship": "brenton",
        "ship_port": "fowey",
        "date_leaving": "1887",
        "joined_ship_date": "1887-12-06",
        "joined_at_port": "swansea",
        "capacity": "able seaman",
        "date_left": "1887-12-20",
        "left_port": "swansea",
        "cause_of_leaving": "discharged",
        "sign_with_mark": "n",
        "notes": "blk"
    },
    {
        "id": "vtls004677922_2_21",
        "type": "sailor",
        "parent": "vtls004677922",
        "name": "john boy$rs",
        "dob": "blk",
        "age": "41",
        "place_of_birth": "dieppe",
        "home_address": "blk",
        "f": "blk",
        "name_of_ship": "foreign ship",
        "ship_port": "blk",
        "date_leaving": "1887",
        "joined_ship_date": "1887-12-20",
        "joined_at_port": "swansea",
        "capacity": "able seaman",
        "date_left": "1888-01-18",
        "left_port": "h thomas",
        "cause_of_leaving": "discharged",
        "sign_with_mark": "y",
        "notes": "blk"
    }
]