[
    {
        "id": "vtls004656602_0_11",
        "type": "sailor",
        "parent": "vtls004656602",
        "name": "daniel parry",
        "dob": "blk",
        "age": "60",
        "place_of_birth": "aberdovey",
        "home_address": "aberdovey",
        "f": "aberdovey",
        "name_of_ship": "ellen",
        "ship_port": "aberystwyth",
        "date_leaving": "blk",
        "joined_ship_date": "blk",
        "joined_at_port": "blk",
        "capacity": "master",
        "date_left": "blk",
        "left_port": "blk",
        "cause_of_leaving": "remains on board",
        "sign_with_mark": "n",
        "notes": "there is an official note attached to the record concerning daniel parry's lateness in submitting paperwork. apparently, he states that 'he is not much accustomed to these matters'. a signature accompanies the note."
    },
    {
        "id": "vtls004656508_1_11",
        "type": "sailor",
        "parent": "vtls004656508",
        "name": "daniel parry",
        "dob": "blk",
        "age": "61",
        "place_of_birth": "towyn",
        "home_address": "aberdovey, merionethshire",
        "f": "aberdovey, merionethshire",
        "name_of_ship": "ellen",
        "ship_port": "aberystwyth",
        "date_leaving": "continued",
        "joined_ship_date": "1875-12-02",
        "joined_at_port": "aberystwyth",
        "capacity": "master",
        "date_left": "blk",
        "left_port": "blk",
        "cause_of_leaving": "remains on board",
        "sign_with_mark": "n",
        "notes": "blk"
    },
    {
        "id": "vtls004656508_0_11",
        "type": "sailor",
        "parent": "vtls004656508",
        "name": "daniel parry",
        "dob": "blk",
        "age": "61",
        "place_of_birth": "towyn, merionethshire",
        "home_address": "aberdovey",
        "f": "aberdovey",
        "name_of_ship": "elizabeth",
        "ship_port": "aberystwyth",
        "date_leaving": "1874",
        "joined_ship_date": "1875-12-20",
        "joined_at_port": "aberdovey",
        "capacity": "master",
        "date_left": "blk",
        "left_port": "blk",
        "cause_of_leaving": "remains on board",
        "sign_with_mark": "n",
        "notes": "blk"
    },
    {
        "id": "vtls004656508_0_12",
        "type": "sailor",
        "parent": "vtls004656508",
        "name": "david parry",
        "dob": "blk",
        "age": "22",
        "place_of_birth": "aberdovey",
        "home_address": "blk",
        "f": "blk",
        "name_of_ship": "planter",
        "ship_port": "london",
        "date_leaving": "1876-01-08",
        "joined_ship_date": "1876-01-25",
        "joined_at_port": "aberdovey",
        "capacity": "mate",
        "date_left": "blk",
        "left_port": "blk",
        "cause_of_leaving": "remains on board",
        "sign_with_mark": "n",
        "notes": "blk"
    },
    {
        "id": "vtls004656602_0_12",
        "type": "sailor",
        "parent": "vtls004656602",
        "name": "thomas evans",
        "dob": "blk",
        "age": "65",
        "place_of_birth": "eglivis vegh",
        "home_address": "blk",
        "f": "blk",
        "name_of_ship": "ellen",
        "ship_port": "aberystwyth",
        "date_leaving": "blk",
        "joined_ship_date": "blk",
        "joined_at_port": "blk",
        "capacity": "able seaman",
        "date_left": "blk",
        "left_port": "blk",
        "cause_of_leaving": "remains on board",
        "sign_with_mark": "n",
        "notes": "birth place: 'eglwys fach'."
    },
    {
        "id": "vtls004656508_1_12",
        "type": "sailor",
        "parent": "vtls004656508",
        "name": "david parry",
        "dob": "blk",
        "age": "22",
        "place_of_birth": "aberdovey",
        "home_address": "blk",
        "f": "blk",
        "name_of_ship": "ellen",
        "ship_port": "aberystwyth",
        "date_leaving": "continued",
        "joined_ship_date": "1876-03-01",
        "joined_at_port": "aberdovey",
        "capacity": "mate",
        "date_left": "1876-09-08",
        "left_port": "aberdovey",
        "cause_of_leaving": "discharged",
        "sign_with_mark": "n",
        "notes": "blk"
    },
    {
        "id": "vtls004656602_1_12",
        "type": "sailor",
        "parent": "vtls004656602",
        "name": "thomas evans",
        "dob": "blk",
        "age": "65",
        "place_of_birth": "llwyndafydd, cardiganshire",
        "home_address": "blk",
        "f": "blk",
        "name_of_ship": "ellen",
        "ship_port": "aberystwyth",
        "date_leaving": "continued",
        "joined_ship_date": "1877-03-29",
        "joined_at_port": "aberdovey",
        "capacity": "mate",
        "date_left": "1877-09-18",
        "left_port": "aberdovey",
        "cause_of_leaving": "discharged",
        "sign_with_mark": "n",
        "notes": "blk"
    },
    {
        "id": "vtls004656602_1_11",
        "type": "sailor",
        "parent": "vtls004656602",
        "name": "daniel parry",
        "dob": "blk",
        "age": "61",
        "place_of_birth": "towyn",
        "home_address": "aberdovey",
        "f": "aberdovey",
        "name_of_ship": "ellen",
        "ship_port": "aberystwyth",
        "date_leaving": "continued",
        "joined_ship_date": "1875-12-02",
        "joined_at_port": "aberystwyth",
        "capacity": "master",
        "date_left": "blk",
        "left_port": "blk",
        "cause_of_leaving": "remains on board",
        "sign_with_mark": "n",
        "notes": "blk"
    }
]