[
    {
        "id": "vtls0004662807_0_15",
        "type": "sailor",
        "parent": "vtls0004662807",
        "name": "john hughes",
        "dob": "blk",
        "age": "37",
        "place_of_birth": "anglesey",
        "home_address": "blk",
        "f": "blk",
        "name_of_ship": "monmouthshire",
        "ship_port": "newport",
        "date_leaving": "blk",
        "joined_ship_date": "1885-09-02",
        "joined_at_port": "cardiff",
        "capacity": "able seaman & steward",
        "date_left": "1886-07-28",
        "left_port": "liverpool",
        "cause_of_leaving": "discharged",
        "sign_with_mark": "n",
        "notes": "blk"
    },
    {
        "id": "vtls0004662807_0_16",
        "type": "sailor",
        "parent": "vtls0004662807",
        "name": "richard caulfield",
        "dob": "blk",
        "age": "23",
        "place_of_birth": "dublin",
        "home_address": "blk",
        "f": "blk",
        "name_of_ship": "[alberieo]",
        "ship_port": "shoreham",
        "date_leaving": "blk",
        "joined_ship_date": "1885-09-03",
        "joined_at_port": "cardiff",
        "capacity": "cook & seaman",
        "date_left": "1886-07-28",
        "left_port": "liverpool",
        "cause_of_leaving": "discharged",
        "sign_with_mark": "n",
        "notes": "blk"
    },
    {
        "id": "vtls0004662807_0_13",
        "type": "sailor",
        "parent": "vtls0004662807",
        "name": "thomas roberts",
        "dob": "blk",
        "age": "30",
        "place_of_birth": "anglesey",
        "home_address": "blk",
        "f": "blk",
        "name_of_ship": "glanivor",
        "ship_port": "caernarvon",
        "date_leaving": "blk",
        "joined_ship_date": "1885-09-02",
        "joined_at_port": "cardiff",
        "capacity": "donkeyman",
        "date_left": "1886-07-28",
        "left_port": "liverpool",
        "cause_of_leaving": "discharged",
        "sign_with_mark": "n",
        "notes": "blk"
    },
    {
        "id": "vtls0004662807_0_14",
        "type": "sailor",
        "parent": "vtls0004662807",
        "name": "samuel leek",
        "dob": "blk",
        "age": "24",
        "place_of_birth": "aberystwyth",
        "home_address": "blk",
        "f": "blk",
        "name_of_ship": "eliza allen",
        "ship_port": "london",
        "date_leaving": "blk",
        "joined_ship_date": "1885-09-02",
        "joined_at_port": "cardiff",
        "capacity": "carpenter",
        "date_left": "1886-07-28",
        "left_port": "liverpool",
        "cause_of_leaving": "discharged",
        "sign_with_mark": "n",
        "notes": "blk"
    },
    {
        "id": "vtls0004662807_0_19",
        "type": "sailor",
        "parent": "vtls0004662807",
        "name": "david d davies",
        "dob": "blk",
        "age": "26",
        "place_of_birth": "borth",
        "home_address": "blk",
        "f": "blk",
        "name_of_ship": "baron ardrossan",
        "ship_port": "ardrossan",
        "date_leaving": "blk",
        "joined_ship_date": "1885-09-04",
        "joined_at_port": "cardiff",
        "capacity": "able seaman",
        "date_left": "1885-12-22",
        "left_port": "monte video",
        "cause_of_leaving": "mutal consent",
        "sign_with_mark": "n",
        "notes": "blk"
    },
    {
        "id": "vtls0004662807_0_24",
        "type": "sailor",
        "parent": "vtls0004662807",
        "name": "richard hughes",
        "dob": "blk",
        "age": "23",
        "place_of_birth": "borth",
        "home_address": "blk",
        "f": "blk",
        "name_of_ship": "cecil brindley",
        "ship_port": "aberystwyth",
        "date_leaving": "blk",
        "joined_ship_date": "1885-09-02",
        "joined_at_port": "cardiff",
        "capacity": "able seaman",
        "date_left": "1886-07-28",
        "left_port": "liverpool",
        "cause_of_leaving": "discharged",
        "sign_with_mark": "n",
        "notes": "blk"
    },
    {
        "id": "vtls0004662807_0_17",
        "type": "sailor",
        "parent": "vtls0004662807",
        "name": "evan davies",
        "dob": "blk",
        "age": "25",
        "place_of_birth": "aberystwyth",
        "home_address": "blk",
        "f": "blk",
        "name_of_ship": "edith ellen",
        "ship_port": "aberystwyth",
        "date_leaving": "blk",
        "joined_ship_date": "1885-09-03",
        "joined_at_port": "cardiff",
        "capacity": "able seaman",
        "date_left": "1886-07-28",
        "left_port": "liverpool",
        "cause_of_leaving": "discharged",
        "sign_with_mark": "n",
        "notes": "blk"
    },
    {
        "id": "vtls0004662807_0_20",
        "type": "sailor",
        "parent": "vtls0004662807",
        "name": "james r davies",
        "dob": "blk",
        "age": "23",
        "place_of_birth": "st dogmaels",
        "home_address": "blk",
        "f": "blk",
        "name_of_ship": "bernina",
        "ship_port": "liverpool",
        "date_leaving": "blk",
        "joined_ship_date": "1885-09-04",
        "joined_at_port": "cardiff",
        "capacity": "able seaman",
        "date_left": "1886-07-28",
        "left_port": "liverpool",
        "cause_of_leaving": "discharged",
        "sign_with_mark": "n",
        "notes": "blk"
    },
    {
        "id": "vtls0004662807_0_18",
        "type": "sailor",
        "parent": "vtls0004662807",
        "name": "thomas rees",
        "dob": "blk",
        "age": "20",
        "place_of_birth": "borth",
        "home_address": "blk",
        "f": "blk",
        "name_of_ship": "hawarden castle",
        "ship_port": "liverpool",
        "date_leaving": "blk",
        "joined_ship_date": "1885-09-04",
        "joined_at_port": "cardiff",
        "capacity": "able seaman",
        "date_left": "1886-07-28",
        "left_port": "liverpool",
        "cause_of_leaving": "discharged",
        "sign_with_mark": "n",
        "notes": "blk"
    },
    {
        "id": "vtls0004662807_0_23",
        "type": "sailor",
        "parent": "vtls0004662807",
        "name": "james lethbridge",
        "dob": "blk",
        "age": "22",
        "place_of_birth": "plymouth",
        "home_address": "blk",
        "f": "blk",
        "name_of_ship": "caroline",
        "ship_port": "london",
        "date_leaving": "blk",
        "joined_ship_date": "1885-09-04",
        "joined_at_port": "cardiff",
        "capacity": "able seaman",
        "date_left": "1886-07-28",
        "left_port": "liverpool",
        "cause_of_leaving": "discharged",
        "sign_with_mark": "n",
        "notes": "blk"
    },
    {
        "id": "vtls0004662807_0_21",
        "type": "sailor",
        "parent": "vtls0004662807",
        "name": "john leport",
        "dob": "blk",
        "age": "53",
        "place_of_birth": "havre",
        "home_address": "blk",
        "f": "blk",
        "name_of_ship": "john nicholson",
        "ship_port": "dumfries",
        "date_leaving": "blk",
        "joined_ship_date": "1885-09-04",
        "joined_at_port": "cardiff",
        "capacity": "able seaman",
        "date_left": "1886-07-28",
        "left_port": "liverpool",
        "cause_of_leaving": "discharged",
        "sign_with_mark": "n",
        "notes": "blk"
    },
    {
        "id": "vtls0004662807_0_22",
        "type": "sailor",
        "parent": "vtls0004662807",
        "name": "david hughes",
        "dob": "blk",
        "age": "25",
        "place_of_birth": "borth",
        "home_address": "blk",
        "f": "blk",
        "name_of_ship": "nan france",
        "ship_port": "blk",
        "date_leaving": "blk",
        "joined_ship_date": "1885-09-04",
        "joined_at_port": "cardiff",
        "capacity": "able seaman",
        "date_left": "1886-07-28",
        "left_port": "liverpool",
        "cause_of_leaving": "discharged",
        "sign_with_mark": "n",
        "notes": "blk"
    },
    {
        "id": "vtls0004662807_1_13",
        "type": "sailor",
        "parent": "vtls0004662807",
        "name": "thomas roberst",
        "dob": "1856",
        "age": "blk",
        "place_of_birth": "anglesey",
        "home_address": "blk",
        "f": "blk",
        "name_of_ship": "general picton",
        "ship_port": "liverpool",
        "date_leaving": "blk",
        "joined_ship_date": "1886-09-11",
        "joined_at_port": "liverpool",
        "capacity": "boatswain",
        "date_left": "1887-06-11",
        "left_port": "ardrossan",
        "cause_of_leaving": "discharged",
        "sign_with_mark": "n",
        "notes": "blk"
    },
    {
        "id": "vtls0004662807_0_29",
        "type": "sailor",
        "parent": "vtls0004662807",
        "name": "chornelius mattinson",
        "dob": "blk",
        "age": "32",
        "place_of_birth": "norway",
        "home_address": "blk",
        "f": "blk",
        "name_of_ship": "[germ shife]",
        "ship_port": "blk",
        "date_leaving": "blk",
        "joined_ship_date": "1886-01-05",
        "joined_at_port": "monte video",
        "capacity": "able seaman",
        "date_left": "1886-07-28",
        "left_port": "liverpool",
        "cause_of_leaving": "discharged",
        "sign_with_mark": "n",
        "notes": "blk"
    },
    {
        "id": "vtls0004662807_1_15",
        "type": "sailor",
        "parent": "vtls0004662807",
        "name": "samuel leek",
        "dob": "1861",
        "age": "blk",
        "place_of_birth": "aberystwyth",
        "home_address": "blk",
        "f": "blk",
        "name_of_ship": "general picton",
        "ship_port": "liverpool",
        "date_leaving": "blk",
        "joined_ship_date": "1886-09-11",
        "joined_at_port": "liverpool",
        "capacity": "lampman",
        "date_left": "1887-06-11",
        "left_port": "ardrossan",
        "cause_of_leaving": "discharged",
        "sign_with_mark": "n",
        "notes": "blk"
    },
    {
        "id": "vtls0004662807_0_26",
        "type": "sailor",
        "parent": "vtls0004662807",
        "name": "john jones",
        "dob": "blk",
        "age": "16",
        "place_of_birth": "aberystwyth",
        "home_address": "blk",
        "f": "blk",
        "name_of_ship": "crusader",
        "ship_port": "aberystwyth",
        "date_leaving": "blk",
        "joined_ship_date": "1885-09-02",
        "joined_at_port": "cardiff",
        "capacity": "ordinary seaman",
        "date_left": "1886-07-28",
        "left_port": "liverpool",
        "cause_of_leaving": "discharged",
        "sign_with_mark": "n",
        "notes": "blk"
    },
    {
        "id": "vtls0004662807_1_14",
        "type": "sailor",
        "parent": "vtls0004662807",
        "name": "richard caulfield",
        "dob": "1867",
        "age": "blk",
        "place_of_birth": "dublin",
        "home_address": "blk",
        "f": "blk",
        "name_of_ship": "general picton",
        "ship_port": "liverpool",
        "date_leaving": "blk",
        "joined_ship_date": "1886-09-11",
        "joined_at_port": "liverpool",
        "capacity": "cook",
        "date_left": "1887-06-09",
        "left_port": "ardrossan",
        "cause_of_leaving": "discharged",
        "sign_with_mark": "n",
        "notes": "blk"
    },
    {
        "id": "vtls0004662807_1_16",
        "type": "sailor",
        "parent": "vtls0004662807",
        "name": "william reach",
        "dob": "1855",
        "age": "blk",
        "place_of_birth": "dolva",
        "home_address": "blk",
        "f": "blk",
        "name_of_ship": "ravenscraig",
        "ship_port": "blk",
        "date_leaving": "blk",
        "joined_ship_date": "1886-09-11",
        "joined_at_port": "liverpool",
        "capacity": "able seaman",
        "date_left": "1887-06-09",
        "left_port": "ardrossan",
        "cause_of_leaving": "discharged",
        "sign_with_mark": "n",
        "notes": "blk"
    },
    {
        "id": "vtls0004662807_0_27",
        "type": "sailor",
        "parent": "vtls0004662807",
        "name": "john humphrey",
        "dob": "blk",
        "age": "18",
        "place_of_birth": "borth",
        "home_address": "blk",
        "f": "blk",
        "name_of_ship": "maria hannah",
        "ship_port": "blk",
        "date_leaving": "blk",
        "joined_ship_date": "1885-09-02",
        "joined_at_port": "cardiff",
        "capacity": "ordinary seaman",
        "date_left": "1886-07-28",
        "left_port": "liverpool",
        "cause_of_leaving": "discharged",
        "sign_with_mark": "n",
        "notes": "blk"
    },
    {
        "id": "vtls0004662807_0_28",
        "type": "sailor",
        "parent": "vtls0004662807",
        "name": "john davies",
        "dob": "blk",
        "age": "29",
        "place_of_birth": "cardigan",
        "home_address": "blk",
        "f": "blk",
        "name_of_ship": "northumbria",
        "ship_port": "blk",
        "date_leaving": "blk",
        "joined_ship_date": "1885-09-02",
        "joined_at_port": "cardiff",
        "capacity": "ordinary seaman",
        "date_left": "1886-07-28",
        "left_port": "liverpool",
        "cause_of_leaving": "discharged",
        "sign_with_mark": "n",
        "notes": "blk"
    },
    {
        "id": "vtls0004662807_1_12",
        "type": "sailor",
        "parent": "vtls0004662807",
        "name": "david james",
        "dob": "1854",
        "age": "blk",
        "place_of_birth": "aberystwyth",
        "home_address": "blk",
        "f": "blk",
        "name_of_ship": "west york",
        "ship_port": "liverpool",
        "date_leaving": "blk",
        "joined_ship_date": "1986-09-11",
        "joined_at_port": "liverpool",
        "capacity": "mate",
        "date_left": "1887-06-11",
        "left_port": "ardrossan",
        "cause_of_leaving": "discharged",
        "sign_with_mark": "n",
        "notes": "blk"
    },
    {
        "id": "vtls0004662807_0_25",
        "type": "sailor",
        "parent": "vtls0004662807",
        "name": "john m lloyd",
        "dob": "blk",
        "age": "20",
        "place_of_birth": "borth",
        "home_address": "blk",
        "f": "blk",
        "name_of_ship": "lucy",
        "ship_port": "glasgow",
        "date_leaving": "blk",
        "joined_ship_date": "1885-09-02",
        "joined_at_port": "cardiff",
        "capacity": "able seaman",
        "date_left": "1886-07-28",
        "left_port": "liverpool",
        "cause_of_leaving": "discharged",
        "sign_with_mark": "n",
        "notes": "blk"
    },
    {
        "id": "vtls0004662807_1_22",
        "type": "sailor",
        "parent": "vtls0004662807",
        "name": "johan lunsden",
        "dob": "1862",
        "age": "blk",
        "place_of_birth": "stockholm",
        "home_address": "blk",
        "f": "blk",
        "name_of_ship": "charles baker",
        "ship_port": "liverpool",
        "date_leaving": "blk",
        "joined_ship_date": "1886-09-11",
        "joined_at_port": "liverpool",
        "capacity": "able seaman",
        "date_left": "1887-03-0",
        "left_port": "caleta buena",
        "cause_of_leaving": "disserted",
        "sign_with_mark": "n",
        "notes": "see page 19 of the log book"
    },
    {
        "id": "vtls0004662807_1_21",
        "type": "sailor",
        "parent": "vtls0004662807",
        "name": "david linden",
        "dob": "1856",
        "age": "blk",
        "place_of_birth": "blk",
        "home_address": "blk",
        "f": "blk",
        "name_of_ship": "[hillisden]",
        "ship_port": "$",
        "date_leaving": "blk",
        "joined_ship_date": "1886-09-11",
        "joined_at_port": "liverpool",
        "capacity": "able seaman",
        "date_left": "1887-03-06",
        "left_port": "caleta buena",
        "cause_of_leaving": "disserted",
        "sign_with_mark": "n",
        "notes": "see page 18 of log book"
    },
    {
        "id": "vtls0004662807_1_23",
        "type": "sailor",
        "parent": "vtls0004662807",
        "name": "andrew espherson",
        "dob": "1862",
        "age": "blk",
        "place_of_birth": "denmark",
        "home_address": "blk",
        "f": "blk",
        "name_of_ship": "charles baker",
        "ship_port": "liverpool",
        "date_leaving": "blk",
        "joined_ship_date": "1886-09-11",
        "joined_at_port": "liverpool",
        "capacity": "able seaman",
        "date_left": "1887-06-09",
        "left_port": "ardrossan",
        "cause_of_leaving": "discharged",
        "sign_with_mark": "n",
        "notes": "blk"
    },
    {
        "id": "vtls0004662807_1_25",
        "type": "sailor",
        "parent": "vtls0004662807",
        "name": "george whyment",
        "dob": "1863",
        "age": "blk",
        "place_of_birth": "liverpool",
        "home_address": "blk",
        "f": "blk",
        "name_of_ship": "alice linden",
        "ship_port": "liverpool",
        "date_leaving": "blk",
        "joined_ship_date": "1886-09-11",
        "joined_at_port": "liverpool",
        "capacity": "able seaman",
        "date_left": "1887-06-09",
        "left_port": "ardrossan",
        "cause_of_leaving": "discharged",
        "sign_with_mark": "n",
        "notes": "blk"
    },
    {
        "id": "vtls0004662807_1_18",
        "type": "sailor",
        "parent": "vtls0004662807",
        "name": "thomas owen",
        "dob": "1863",
        "age": "blk",
        "place_of_birth": "red wharf",
        "home_address": "blk",
        "f": "blk",
        "name_of_ship": "[reel beaumaris]",
        "ship_port": "blk",
        "date_leaving": "blk",
        "joined_ship_date": "1886-09-11",
        "joined_at_port": "liverpool",
        "capacity": "able seaman",
        "date_left": "1887-06-11",
        "left_port": "ardrossan",
        "cause_of_leaving": "discharged",
        "sign_with_mark": "n",
        "notes": "blk"
    },
    {
        "id": "vtls0004662807_1_17",
        "type": "sailor",
        "parent": "vtls0004662807",
        "name": "william hughes",
        "dob": "1853",
        "age": "blk",
        "place_of_birth": "criccieth",
        "home_address": "blk",
        "f": "blk",
        "name_of_ship": "ravenscraig",
        "ship_port": "blk",
        "date_leaving": "blk",
        "joined_ship_date": "1886-09-11",
        "joined_at_port": "liverpool",
        "capacity": "able seaman",
        "date_left": "1887-06-11",
        "left_port": "ardrossan",
        "cause_of_leaving": "discharged",
        "sign_with_mark": "y",
        "notes": "blk"
    },
    {
        "id": "vtls0004662807_1_19",
        "type": "sailor",
        "parent": "vtls0004662807",
        "name": "lewis williams",
        "dob": "1865",
        "age": "blk",
        "place_of_birth": "borth",
        "home_address": "blk",
        "f": "blk",
        "name_of_ship": "mary davies",
        "ship_port": "$",
        "date_leaving": "blk",
        "joined_ship_date": "1886-09-11",
        "joined_at_port": "liverpool",
        "capacity": "able seaman",
        "date_left": "1887-06-11",
        "left_port": "ardrossan",
        "cause_of_leaving": "discharged",
        "sign_with_mark": "n",
        "notes": "blk"
    },
    {
        "id": "vtls0004662807_1_20",
        "type": "sailor",
        "parent": "vtls0004662807",
        "name": "johan",
        "dob": "1859",
        "age": "blk",
        "place_of_birth": "sweden",
        "home_address": "blk",
        "f": "blk",
        "name_of_ship": "[hillisden]",
        "ship_port": "$",
        "date_leaving": "blk",
        "joined_ship_date": "1886-09-11",
        "joined_at_port": "liverpool",
        "capacity": "able seaman",
        "date_left": "1887-09-11",
        "left_port": "ardrossan",
        "cause_of_leaving": "discharged",
        "sign_with_mark": "n",
        "notes": "blk"
    },
    {
        "id": "vtls0004662807_1_24",
        "type": "sailor",
        "parent": "vtls0004662807",
        "name": "john palsy",
        "dob": "1856",
        "age": "blk",
        "place_of_birth": "liverpool",
        "home_address": "blk",
        "f": "blk",
        "name_of_ship": "germanic",
        "ship_port": "liverpool",
        "date_leaving": "blk",
        "joined_ship_date": "1886-09-11",
        "joined_at_port": "liverpool",
        "capacity": "able seaman",
        "date_left": "did not join",
        "left_port": "blk",
        "cause_of_leaving": "blk",
        "sign_with_mark": "n",
        "notes": "blk"
    },
    {
        "id": "vtls0004662807_1_27",
        "type": "sailor",
        "parent": "vtls0004662807",
        "name": "james jones",
        "dob": "1865",
        "age": "blk",
        "place_of_birth": "aberystwyth",
        "home_address": "blk",
        "f": "blk",
        "name_of_ship": "training ship",
        "ship_port": "blk",
        "date_leaving": "blk",
        "joined_ship_date": "1886-09-11",
        "joined_at_port": "liverpool",
        "capacity": "ordinary seaman",
        "date_left": "1887-06-09",
        "left_port": "ardrossan",
        "cause_of_leaving": "discharged",
        "sign_with_mark": "n",
        "notes": "blk"
    },
    {
        "id": "vtls0004662807_1_26",
        "type": "sailor",
        "parent": "vtls0004662807",
        "name": "thomas foster",
        "dob": "1865",
        "age": "blk",
        "place_of_birth": "liverpool",
        "home_address": "blk",
        "f": "blk",
        "name_of_ship": "otterspool",
        "ship_port": "liverpool",
        "date_leaving": "blk",
        "joined_ship_date": "1886-09-11",
        "joined_at_port": "liverpool",
        "capacity": "ordinary seaman",
        "date_left": "1887-06-09",
        "left_port": "ardrossan",
        "cause_of_leaving": "discharged",
        "sign_with_mark": "y",
        "notes": "blk"
    },
    {
        "id": "vtls004662857_0_12",
        "type": "sailor",
        "parent": "vtls004662857",
        "name": "david james",
        "dob": "blk",
        "age": "33",
        "place_of_birth": "aberystwyth",
        "home_address": "blk",
        "f": "blk",
        "name_of_ship": "general picton",
        "ship_port": "aberystwyth",
        "date_leaving": "1887",
        "joined_ship_date": "1887-07-29",
        "joined_at_port": "glasgow",
        "capacity": "mate",
        "date_left": "1888-6-26",
        "left_port": "limerick",
        "cause_of_leaving": "discharged",
        "sign_with_mark": "n",
        "notes": "blk"
    },
    {
        "id": "vtls0004662807_1_28",
        "type": "sailor",
        "parent": "vtls0004662807",
        "name": "john duggle",
        "dob": "1862",
        "age": "blk",
        "place_of_birth": "liverpool",
        "home_address": "blk",
        "f": "blk",
        "name_of_ship": "others",
        "ship_port": "blk",
        "date_leaving": "blk",
        "joined_ship_date": "1886-09-11",
        "joined_at_port": "at sea",
        "capacity": "able seaman",
        "date_left": "1887-6-09",
        "left_port": "ardrossan",
        "cause_of_leaving": "discharged",
        "sign_with_mark": "n",
        "notes": "blk"
    },
    {
        "id": "vtls0004662807_1_29",
        "type": "sailor",
        "parent": "vtls0004662807",
        "name": "william william",
        "dob": "1870",
        "age": "blk",
        "place_of_birth": "blk",
        "home_address": "blk",
        "f": "blk",
        "name_of_ship": "blk",
        "ship_port": "blk",
        "date_leaving": "blk",
        "joined_ship_date": "1884-06-24",
        "joined_at_port": "sunderland",
        "capacity": "apprentice",
        "date_left": "blk",
        "left_port": "blk",
        "cause_of_leaving": "remains on board",
        "sign_with_mark": "n",
        "notes": "blk"
    },
    {
        "id": "vtls0004662807_1_31",
        "type": "sailor",
        "parent": "vtls0004662807",
        "name": "thomas evans",
        "dob": "1871",
        "age": "blk",
        "place_of_birth": "blk",
        "home_address": "blk",
        "f": "blk",
        "name_of_ship": "blk",
        "ship_port": "blk",
        "date_leaving": "blk",
        "joined_ship_date": "1886-09-08",
        "joined_at_port": "liverpool",
        "capacity": "apprentice",
        "date_left": "blk",
        "left_port": "blk",
        "cause_of_leaving": "remains on board",
        "sign_with_mark": "n",
        "notes": "blk"
    },
    {
        "id": "vtls0004662807_1_30",
        "type": "sailor",
        "parent": "vtls0004662807",
        "name": "john cole",
        "dob": "1870",
        "age": "blk",
        "place_of_birth": "blk",
        "home_address": "blk",
        "f": "blk",
        "name_of_ship": "blk",
        "ship_port": "blk",
        "date_leaving": "blk",
        "joined_ship_date": "1885-09-02",
        "joined_at_port": "cardiff",
        "capacity": "apprentice",
        "date_left": "blk",
        "left_port": "blk",
        "cause_of_leaving": "remains on board",
        "sign_with_mark": "n",
        "notes": "blk"
    },
    {
        "id": "vtls004662857_0_15",
        "type": "sailor",
        "parent": "vtls004662857",
        "name": "ag linngscatt",
        "dob": "blk",
        "age": "40",
        "place_of_birth": "sweden",
        "home_address": "blk",
        "f": "blk",
        "name_of_ship": "norweigian ship",
        "ship_port": "blk",
        "date_leaving": "1887",
        "joined_ship_date": "1887-07-29",
        "joined_at_port": "glasgow",
        "capacity": "able seaman, sailmaker",
        "date_left": "1888-6-26",
        "left_port": "limerick",
        "cause_of_leaving": "discharged",
        "sign_with_mark": "n",
        "notes": "blk"
    },
    {
        "id": "vtls004662857_0_14",
        "type": "sailor",
        "parent": "vtls004662857",
        "name": "john stevenson",
        "dob": "blk",
        "age": "28",
        "place_of_birth": "greenock",
        "home_address": "blk",
        "f": "blk",
        "name_of_ship": "cordova",
        "ship_port": "liverpool",
        "date_leaving": "1887",
        "joined_ship_date": "1887-07-29",
        "joined_at_port": "glasgow",
        "capacity": "carpenter & able seaman",
        "date_left": "1888-6-26",
        "left_port": "limerick",
        "cause_of_leaving": "discharged",
        "sign_with_mark": "n",
        "notes": "blk"
    },
    {
        "id": "vtls004662857_0_13",
        "type": "sailor",
        "parent": "vtls004662857",
        "name": "thomas roberts",
        "dob": "blk",
        "age": "32",
        "place_of_birth": "anglesey",
        "home_address": "blk",
        "f": "blk",
        "name_of_ship": "general picton",
        "ship_port": "aberystwyth",
        "date_leaving": "1887",
        "joined_ship_date": "1887-07-29",
        "joined_at_port": "glasgow",
        "capacity": "boatswain",
        "date_left": "1888-6-26",
        "left_port": "limerick",
        "cause_of_leaving": "discharged",
        "sign_with_mark": "n",
        "notes": "blk"
    },
    {
        "id": "vtls004662857_0_22",
        "type": "sailor",
        "parent": "vtls004662857",
        "name": "william watson",
        "dob": "blk",
        "age": "20",
        "place_of_birth": "glasgow",
        "home_address": "blk",
        "f": "blk",
        "name_of_ship": "forfarshire",
        "ship_port": "southampton",
        "date_leaving": "1885",
        "joined_ship_date": "1887-07-29",
        "joined_at_port": "glasgow",
        "capacity": "able seaman",
        "date_left": "1888-6-26",
        "left_port": "limerick",
        "cause_of_leaving": "discharged",
        "sign_with_mark": "n",
        "notes": "blk"
    },
    {
        "id": "vtls004662857_0_17",
        "type": "sailor",
        "parent": "vtls004662857",
        "name": "rod mckenzie",
        "dob": "blk",
        "age": "28",
        "place_of_birth": "caithness",
        "home_address": "blk",
        "f": "blk",
        "name_of_ship": "inchcape rock",
        "ship_port": "glasgow",
        "date_leaving": "1887",
        "joined_ship_date": "1887-07-29",
        "joined_at_port": "glasgow",
        "capacity": "able seaman",
        "date_left": "1888-6-26",
        "left_port": "limerick",
        "cause_of_leaving": "discharged",
        "sign_with_mark": "n",
        "notes": "blk"
    },
    {
        "id": "vtls004662857_0_20",
        "type": "sailor",
        "parent": "vtls004662857",
        "name": "peter fenwick",
        "dob": "blk",
        "age": "18",
        "place_of_birth": "perth",
        "home_address": "blk",
        "f": "blk",
        "name_of_ship": "c of calcutta",
        "ship_port": "glasgow",
        "date_leaving": "1887",
        "joined_ship_date": "1887-07-29",
        "joined_at_port": "glasgow",
        "capacity": "able seaman",
        "date_left": "1888-6-26",
        "left_port": "limerick",
        "cause_of_leaving": "discharged",
        "sign_with_mark": "n",
        "notes": "blk"
    },
    {
        "id": "vtls004662857_0_16",
        "type": "sailor",
        "parent": "vtls004662857",
        "name": "henry thomson",
        "dob": "blk",
        "age": "27",
        "place_of_birth": "montrose, united states",
        "home_address": "blk",
        "f": "blk",
        "name_of_ship": "hibernian",
        "ship_port": "glasgow",
        "date_leaving": "1887",
        "joined_ship_date": "1887-07-29",
        "joined_at_port": "glasgow",
        "capacity": "cook & steward",
        "date_left": "1888-6-26",
        "left_port": "limerick",
        "cause_of_leaving": "discharged",
        "sign_with_mark": "n",
        "notes": "blk"
    },
    {
        "id": "vtls004662857_0_18",
        "type": "sailor",
        "parent": "vtls004662857",
        "name": "john m donald",
        "dob": "blk",
        "age": "42",
        "place_of_birth": "skye",
        "home_address": "blk",
        "f": "blk",
        "name_of_ship": "dominion",
        "ship_port": "caernarfon",
        "date_leaving": "1887",
        "joined_ship_date": "1887-07-29",
        "joined_at_port": "glasgow",
        "capacity": "able seaman",
        "date_left": "1888-6-26",
        "left_port": "limerick",
        "cause_of_leaving": "discharged",
        "sign_with_mark": "n",
        "notes": "blk"
    },
    {
        "id": "vtls004662857_0_19",
        "type": "sailor",
        "parent": "vtls004662857",
        "name": "donald mcleod",
        "dob": "blk",
        "age": "29",
        "place_of_birth": "glasgow",
        "home_address": "blk",
        "f": "blk",
        "name_of_ship": "wimbledon",
        "ship_port": "london",
        "date_leaving": "1887",
        "joined_ship_date": "1887-07-29",
        "joined_at_port": "glasgow",
        "capacity": "able seaman",
        "date_left": "1888-6-26",
        "left_port": "limerick",
        "cause_of_leaving": "discharged",
        "sign_with_mark": "n",
        "notes": "blk"
    },
    {
        "id": "vtls004662857_0_21",
        "type": "sailor",
        "parent": "vtls004662857",
        "name": "fran levy",
        "dob": "blk",
        "age": "21",
        "place_of_birth": "glasgow",
        "home_address": "blk",
        "f": "blk",
        "name_of_ship": "arthurstone",
        "ship_port": "dundee",
        "date_leaving": "1887",
        "joined_ship_date": "1887-07-29",
        "joined_at_port": "glasgow",
        "capacity": "able seaman",
        "date_left": "1888-6-26",
        "left_port": "limerick",
        "cause_of_leaving": "discharged",
        "sign_with_mark": "n",
        "notes": "blk"
    },
    {
        "id": "vtls004662857_0_27",
        "type": "sailor",
        "parent": "vtls004662857",
        "name": "william wilson",
        "dob": "1870",
        "age": "blk",
        "place_of_birth": "blk",
        "home_address": "blk",
        "f": "blk",
        "name_of_ship": "blk",
        "ship_port": "blk",
        "date_leaving": "blk",
        "joined_ship_date": "1884-06-24",
        "joined_at_port": "sunderland",
        "capacity": "apprentice",
        "date_left": "1888-6-26",
        "left_port": "limerick",
        "cause_of_leaving": "time expired",
        "sign_with_mark": "n",
        "notes": "port & registry of indenture"
    },
    {
        "id": "vtls004662857_0_24",
        "type": "sailor",
        "parent": "vtls004662857",
        "name": "thomas charles thomas",
        "dob": "blk",
        "age": "20",
        "place_of_birth": "derby",
        "home_address": "blk",
        "f": "blk",
        "name_of_ship": "general nott",
        "ship_port": "aberystwyth",
        "date_leaving": "1887",
        "joined_ship_date": "1887-07-29",
        "joined_at_port": "glasgow",
        "capacity": "able seaman",
        "date_left": "1888-6-26",
        "left_port": "limerick",
        "cause_of_leaving": "discharged",
        "sign_with_mark": "n",
        "notes": "blk"
    },
    {
        "id": "vtls004662857_0_23",
        "type": "sailor",
        "parent": "vtls004662857",
        "name": "lewis williams",
        "dob": "blk",
        "age": "20",
        "place_of_birth": "borth",
        "home_address": "blk",
        "f": "blk",
        "name_of_ship": "general picton",
        "ship_port": "aberystwyth",
        "date_leaving": "1887",
        "joined_ship_date": "1887-07-29",
        "joined_at_port": "glasgow",
        "capacity": "able seaman",
        "date_left": "1888-6-26",
        "left_port": "limerick",
        "cause_of_leaving": "discharged",
        "sign_with_mark": "n",
        "notes": "blk"
    },
    {
        "id": "vtls004662857_0_25",
        "type": "sailor",
        "parent": "vtls004662857",
        "name": "thomas paterson",
        "dob": "blk",
        "age": "19",
        "place_of_birth": "newhaven",
        "home_address": "blk",
        "f": "blk",
        "name_of_ship": "fleetwood",
        "ship_port": "glasgow",
        "date_leaving": "1887",
        "joined_ship_date": "1887-07-29",
        "joined_at_port": "glasgow",
        "capacity": "ordinary seaman",
        "date_left": "1888-6-26",
        "left_port": "limerick",
        "cause_of_leaving": "discharged",
        "sign_with_mark": "n",
        "notes": "blk"
    },
    {
        "id": "vtls004662857_0_26",
        "type": "sailor",
        "parent": "vtls004662857",
        "name": "john o enos",
        "dob": "blk",
        "age": "18",
        "place_of_birth": "borth",
        "home_address": "blk",
        "f": "blk",
        "name_of_ship": "[martha lloyd]",
        "ship_port": "glasgow",
        "date_leaving": "1887",
        "joined_ship_date": "1887-07-29",
        "joined_at_port": "glasgow",
        "capacity": "ordinary seaman",
        "date_left": "1888-6-26",
        "left_port": "limerick",
        "cause_of_leaving": "discharged",
        "sign_with_mark": "n",
        "notes": "blk"
    },
    {
        "id": "vtls004662857_0_30",
        "type": "sailor",
        "parent": "vtls004662857",
        "name": "evan rees jones",
        "dob": "1871",
        "age": "blk",
        "place_of_birth": "blk",
        "home_address": "blk",
        "f": "blk",
        "name_of_ship": "blk",
        "ship_port": "blk",
        "date_leaving": "blk",
        "joined_ship_date": "1887-07-06",
        "joined_at_port": "ardrossan",
        "capacity": "apprentice",
        "date_left": "blk",
        "left_port": "blk",
        "cause_of_leaving": "remains on board",
        "sign_with_mark": "n",
        "notes": "port & registry of indenture"
    },
    {
        "id": "vtls004662857_1_12",
        "type": "sailor",
        "parent": "vtls004662857",
        "name": "lewis williams",
        "dob": "blk",
        "age": "43",
        "place_of_birth": "borth",
        "home_address": "blk",
        "f": "blk",
        "name_of_ship": "general picton",
        "ship_port": "aberystwyth",
        "date_leaving": "1888",
        "joined_ship_date": "1888-07-19",
        "joined_at_port": "limerick",
        "capacity": "mate",
        "date_left": "1888-07-23",
        "left_port": "liverpool",
        "cause_of_leaving": "discharged",
        "sign_with_mark": "n",
        "notes": "blk"
    },
    {
        "id": "vtls004662857_0_29",
        "type": "sailor",
        "parent": "vtls004662857",
        "name": "thomas evans",
        "dob": "1871",
        "age": "blk",
        "place_of_birth": "blk",
        "home_address": "blk",
        "f": "blk",
        "name_of_ship": "blk",
        "ship_port": "blk",
        "date_leaving": "blk",
        "joined_ship_date": "1886-09-08",
        "joined_at_port": "liverpool",
        "capacity": "apprentice",
        "date_left": "blk",
        "left_port": "blk",
        "cause_of_leaving": "remains on board",
        "sign_with_mark": "n",
        "notes": "port & registry of indenture"
    },
    {
        "id": "vtls004662857_0_28",
        "type": "sailor",
        "parent": "vtls004662857",
        "name": "john cole",
        "dob": "1870",
        "age": "blk",
        "place_of_birth": "blk",
        "home_address": "blk",
        "f": "blk",
        "name_of_ship": "blk",
        "ship_port": "blk",
        "date_leaving": "blk",
        "joined_ship_date": "1885-09-02",
        "joined_at_port": "cardiff",
        "capacity": "apprentice",
        "date_left": "blk",
        "left_port": "blk",
        "cause_of_leaving": "remains on board",
        "sign_with_mark": "n",
        "notes": "port & registry of indenture"
    },
    {
        "id": "vtls004662857_1_14",
        "type": "sailor",
        "parent": "vtls004662857",
        "name": "ag linngscatt",
        "dob": "blk",
        "age": "47",
        "place_of_birth": "sweden",
        "home_address": "blk",
        "f": "blk",
        "name_of_ship": "general picton",
        "ship_port": "aberystwyth",
        "date_leaving": "1888",
        "joined_ship_date": "1888-07-19",
        "joined_at_port": "limerick",
        "capacity": "able seaman",
        "date_left": "1888-07-23",
        "left_port": "liverpool",
        "cause_of_leaving": "discharged",
        "sign_with_mark": "n",
        "notes": "blk"
    },
    {
        "id": "vtls004662857_1_15",
        "type": "sailor",
        "parent": "vtls004662857",
        "name": "thomas long",
        "dob": "blk",
        "age": "37",
        "place_of_birth": "limerick",
        "home_address": "blk",
        "f": "blk",
        "name_of_ship": "[munryh$$r]",
        "ship_port": "blk",
        "date_leaving": "blk",
        "joined_ship_date": "1888-07-19",
        "joined_at_port": "limerick",
        "capacity": "cook & able seaman",
        "date_left": "1888-07-23",
        "left_port": "liverpool",
        "cause_of_leaving": "discharged",
        "sign_with_mark": "y",
        "notes": "blk"
    },
    {
        "id": "vtls004662857_1_13",
        "type": "sailor",
        "parent": "vtls004662857",
        "name": "thomas roberts",
        "dob": "blk",
        "age": "32",
        "place_of_birth": "anglesey",
        "home_address": "blk",
        "f": "blk",
        "name_of_ship": "general picton",
        "ship_port": "aberystwyth",
        "date_leaving": "1888",
        "joined_ship_date": "1888-07-19",
        "joined_at_port": "limerick",
        "capacity": "bosun",
        "date_left": "blk",
        "left_port": "liverpool",
        "cause_of_leaving": "discharged",
        "sign_with_mark": "n",
        "notes": "blk"
    },
    {
        "id": "vtls004662857_1_16",
        "type": "sailor",
        "parent": "vtls004662857",
        "name": "pat dinan",
        "dob": "blk",
        "age": "40",
        "place_of_birth": "limerick",
        "home_address": "blk",
        "f": "blk",
        "name_of_ship": "lady isabella",
        "ship_port": "glasgow",
        "date_leaving": "blk",
        "joined_ship_date": "1888-07-19",
        "joined_at_port": "limerick",
        "capacity": "able seaman",
        "date_left": "1888-07-23",
        "left_port": "liverpool",
        "cause_of_leaving": "discharged",
        "sign_with_mark": "y",
        "notes": "blk"
    },
    {
        "id": "vtls004662857_1_19",
        "type": "sailor",
        "parent": "vtls004662857",
        "name": "martin dinan",
        "dob": "blk",
        "age": "27",
        "place_of_birth": "limerick",
        "home_address": "blk",
        "f": "blk",
        "name_of_ship": "thorne",
        "ship_port": "liverpool",
        "date_leaving": "blk",
        "joined_ship_date": "1888-07-19",
        "joined_at_port": "limerick",
        "capacity": "able seaman",
        "date_left": "1888-07-23",
        "left_port": "liverpool",
        "cause_of_leaving": "discharged",
        "sign_with_mark": "y",
        "notes": "blk"
    },
    {
        "id": "vtls004662857_1_17",
        "type": "sailor",
        "parent": "vtls004662857",
        "name": "benjamin genoux",
        "dob": "blk",
        "age": "37",
        "place_of_birth": "limerick",
        "home_address": "blk",
        "f": "blk",
        "name_of_ship": "orient",
        "ship_port": "blk",
        "date_leaving": "blk",
        "joined_ship_date": "1888-07-19",
        "joined_at_port": "limerick",
        "capacity": "able seaman",
        "date_left": "1888-07-23",
        "left_port": "liverpool",
        "cause_of_leaving": "discharged",
        "sign_with_mark": "n",
        "notes": "blk"
    },
    {
        "id": "vtls004662857_1_18",
        "type": "sailor",
        "parent": "vtls004662857",
        "name": "robert petrie",
        "dob": "blk",
        "age": "37",
        "place_of_birth": "arbroath",
        "home_address": "blk",
        "f": "blk",
        "name_of_ship": "orient",
        "ship_port": "blk",
        "date_leaving": "blk",
        "joined_ship_date": "1888-07-19",
        "joined_at_port": "limerick",
        "capacity": "able seaman",
        "date_left": "1888-07-23",
        "left_port": "liverpool",
        "cause_of_leaving": "discharged",
        "sign_with_mark": "n",
        "notes": "blk"
    },
    {
        "id": "vtls004662857_1_20",
        "type": "sailor",
        "parent": "vtls004662857",
        "name": "thomas evans",
        "dob": "blk",
        "age": "49",
        "place_of_birth": "limerick",
        "home_address": "blk",
        "f": "blk",
        "name_of_ship": "clyde",
        "ship_port": "blk",
        "date_leaving": "blk",
        "joined_ship_date": "1888-07-19",
        "joined_at_port": "limerick",
        "capacity": "able seaman",
        "date_left": "1888-07-23",
        "left_port": "liverpool",
        "cause_of_leaving": "discharged",
        "sign_with_mark": "n",
        "notes": "blk"
    },
    {
        "id": "vtls004662892_0_14",
        "type": "sailor",
        "parent": "vtls004662892",
        "name": "a j lynnigseall",
        "dob": "1840",
        "age": "blk",
        "place_of_birth": "sweden",
        "home_address": "blk",
        "f": "blk",
        "name_of_ship": "utopia",
        "ship_port": "aberystwyth",
        "date_leaving": "1888-08-07",
        "joined_ship_date": "1888-08-09",
        "joined_at_port": "liverpool",
        "capacity": "sails & able seaman",
        "date_left": "1888-08-09",
        "left_port": "blk",
        "cause_of_leaving": "did not join",
        "sign_with_mark": "n",
        "notes": "blk"
    },
    {
        "id": "vtls004662857_1_21",
        "type": "sailor",
        "parent": "vtls004662857",
        "name": "patrick mcinerssay",
        "dob": "blk",
        "age": "29",
        "place_of_birth": "limerick",
        "home_address": "blk",
        "f": "blk",
        "name_of_ship": "john patterson",
        "ship_port": "blk",
        "date_leaving": "blk",
        "joined_ship_date": "1888-07-19",
        "joined_at_port": "limerick",
        "capacity": "able seaman",
        "date_left": "1888-07-23",
        "left_port": "liverpool",
        "cause_of_leaving": "discharged",
        "sign_with_mark": "y",
        "notes": "blk"
    },
    {
        "id": "vtls004662892_0_16",
        "type": "sailor",
        "parent": "vtls004662892",
        "name": "david owens",
        "dob": "1858",
        "age": "blk",
        "place_of_birth": "beaumaris",
        "home_address": "blk",
        "f": "blk",
        "name_of_ship": "bendo$$$",
        "ship_port": "liverpool",
        "date_leaving": "1888-08-07",
        "joined_ship_date": "1888-08-09",
        "joined_at_port": "liverpool",
        "capacity": "able seaman",
        "date_left": "1889-05-13",
        "left_port": "dunkirk",
        "cause_of_leaving": "discharged",
        "sign_with_mark": "y",
        "notes": "blk"
    },
    {
        "id": "vtls004662892_0_17",
        "type": "sailor",
        "parent": "vtls004662892",
        "name": "john hughes",
        "dob": "1863",
        "age": "blk",
        "place_of_birth": "anglesey",
        "home_address": "blk",
        "f": "blk",
        "name_of_ship": "maggie",
        "ship_port": "ardrossan",
        "date_leaving": "1888-08-07",
        "joined_ship_date": "1888-08-09",
        "joined_at_port": "liverpool",
        "capacity": "able seaman",
        "date_left": "1889-05-13",
        "left_port": "dunkirk",
        "cause_of_leaving": "discharged",
        "sign_with_mark": "n",
        "notes": "blk"
    },
    {
        "id": "vtls004662892_0_13",
        "type": "sailor",
        "parent": "vtls004662892",
        "name": "thomas roberts",
        "dob": "1856",
        "age": "blk",
        "place_of_birth": "anglesey",
        "home_address": "blk",
        "f": "blk",
        "name_of_ship": "utopia",
        "ship_port": "aberystwyth",
        "date_leaving": "1888-08-07",
        "joined_ship_date": "1888-08-09",
        "joined_at_port": "liverpool",
        "capacity": "bosun",
        "date_left": "1889-05-13",
        "left_port": "dunkirk",
        "cause_of_leaving": "discharged",
        "sign_with_mark": "n",
        "notes": "blk"
    },
    {
        "id": "vtls004662892_0_19",
        "type": "sailor",
        "parent": "vtls004662892",
        "name": "a liberg",
        "dob": "1862",
        "age": "blk",
        "place_of_birth": "finland",
        "home_address": "blk",
        "f": "blk",
        "name_of_ship": "garibaldi",
        "ship_port": "[norway]",
        "date_leaving": "1888-08-07",
        "joined_ship_date": "1888-08-09",
        "joined_at_port": "liverpool",
        "capacity": "able seaman",
        "date_left": "1889-05-13",
        "left_port": "dunkirk",
        "cause_of_leaving": "discharged",
        "sign_with_mark": "n",
        "notes": "blk"
    },
    {
        "id": "vtls004662892_0_18",
        "type": "sailor",
        "parent": "vtls004662892",
        "name": "c hommnsen",
        "dob": "1866",
        "age": "blk",
        "place_of_birth": "denmark",
        "home_address": "blk",
        "f": "blk",
        "name_of_ship": "tripoli",
        "ship_port": "liverpool",
        "date_leaving": "1888-08-07",
        "joined_ship_date": "1888-08-09",
        "joined_at_port": "liverpool",
        "capacity": "able seaman",
        "date_left": "1889-05-13",
        "left_port": "dunkirk",
        "cause_of_leaving": "discharged",
        "sign_with_mark": "n",
        "notes": "blk"
    },
    {
        "id": "vtls004662892_0_15",
        "type": "sailor",
        "parent": "vtls004662892",
        "name": "m chalmers",
        "dob": "1837",
        "age": "blk",
        "place_of_birth": "liverpool",
        "home_address": "blk",
        "f": "blk",
        "name_of_ship": "colb$$$",
        "ship_port": "liverpool",
        "date_leaving": "1888-08-07",
        "joined_ship_date": "1888-08-09",
        "joined_at_port": "liverpool",
        "capacity": "steward & cor",
        "date_left": "1888-08-09",
        "left_port": "blk",
        "cause_of_leaving": "did not join",
        "sign_with_mark": "n",
        "notes": "blk"
    },
    {
        "id": "vtls004662892_0_12",
        "type": "sailor",
        "parent": "vtls004662892",
        "name": "john roberts",
        "dob": "1844",
        "age": "blk",
        "place_of_birth": "amlwch",
        "home_address": "blk",
        "f": "blk",
        "name_of_ship": "utopia",
        "ship_port": "aberystwyth",
        "date_leaving": "1888-08-07",
        "joined_ship_date": "1888-08-09",
        "joined_at_port": "liverpool",
        "capacity": "mate",
        "date_left": "1889-05-13",
        "left_port": "dunkirk",
        "cause_of_leaving": "discharged",
        "sign_with_mark": "n",
        "notes": "blk"
    },
    {
        "id": "vtls004662892_0_24",
        "type": "sailor",
        "parent": "vtls004662892",
        "name": "nojok hakanson",
        "dob": "1862",
        "age": "blk",
        "place_of_birth": "sweden",
        "home_address": "blk",
        "f": "blk",
        "name_of_ship": "german vessel",
        "ship_port": "blk",
        "date_leaving": "1888-08-07",
        "joined_ship_date": "1888-08-09",
        "joined_at_port": "liverpool",
        "capacity": "carpenter and able seaman",
        "date_left": "1889-05-13",
        "left_port": "dunkirk",
        "cause_of_leaving": "discharged",
        "sign_with_mark": "n",
        "notes": "blk"
    },
    {
        "id": "vtls004662892_0_26",
        "type": "sailor",
        "parent": "vtls004662892",
        "name": "william cunningham",
        "dob": "1868",
        "age": "blk",
        "place_of_birth": "birkenhead",
        "home_address": "blk",
        "f": "blk",
        "name_of_ship": "amethyst",
        "ship_port": "liverpool",
        "date_leaving": "1888-08-07",
        "joined_ship_date": "1888-08-09",
        "joined_at_port": "liverpool",
        "capacity": "ordinary seaman",
        "date_left": "1889-05-13",
        "left_port": "dunkirk",
        "cause_of_leaving": "discharged",
        "sign_with_mark": "n",
        "notes": "blk"
    },
    {
        "id": "vtls004662892_0_25",
        "type": "sailor",
        "parent": "vtls004662892",
        "name": "thomas owens",
        "dob": "1868",
        "age": "blk",
        "place_of_birth": "beaumaris",
        "home_address": "blk",
        "f": "blk",
        "name_of_ship": "glenravil minder",
        "ship_port": "barrow",
        "date_leaving": "1888-08-07",
        "joined_ship_date": "1888-08-09",
        "joined_at_port": "liverpool",
        "capacity": "ordinary seaman",
        "date_left": "1889-05-13",
        "left_port": "dunkirk",
        "cause_of_leaving": "discharged",
        "sign_with_mark": "n",
        "notes": "blk"
    },
    {
        "id": "vtls004662892_0_23",
        "type": "sailor",
        "parent": "vtls004662892",
        "name": "edward lewis lloyd",
        "dob": "1869",
        "age": "blk",
        "place_of_birth": "aberystwyth",
        "home_address": "blk",
        "f": "blk",
        "name_of_ship": "jane owen",
        "ship_port": "aberdovey",
        "date_leaving": "1888-08-07",
        "joined_ship_date": "1888-08-09",
        "joined_at_port": "liverpool",
        "capacity": "able seaman",
        "date_left": "1889-05-13",
        "left_port": "dunkirk",
        "cause_of_leaving": "discharged",
        "sign_with_mark": "n",
        "notes": "blk"
    },
    {
        "id": "vtls004662892_0_22",
        "type": "sailor",
        "parent": "vtls004662892",
        "name": "cornelius ketting",
        "dob": "1849",
        "age": "blk",
        "place_of_birth": "holland",
        "home_address": "blk",
        "f": "blk",
        "name_of_ship": "clan grant",
        "ship_port": "glasgow",
        "date_leaving": "1888-08-07",
        "joined_ship_date": "1888-08-09",
        "joined_at_port": "liverpool",
        "capacity": "able seaman",
        "date_left": "1889-05-13",
        "left_port": "dunkirk",
        "cause_of_leaving": "discharged",
        "sign_with_mark": "n",
        "notes": "blk"
    },
    {
        "id": "vtls004662892_0_21",
        "type": "sailor",
        "parent": "vtls004662892",
        "name": "j caute",
        "dob": "1853",
        "age": "blk",
        "place_of_birth": "portsmouth",
        "home_address": "blk",
        "f": "blk",
        "name_of_ship": "esmeralda",
        "ship_port": "liverpool",
        "date_leaving": "1888-08-07",
        "joined_ship_date": "1888-08-09",
        "joined_at_port": "liverpool",
        "capacity": "able seaman",
        "date_left": "1889-08-09",
        "left_port": "garston",
        "cause_of_leaving": "did not join",
        "sign_with_mark": "n",
        "notes": "blk"
    },
    {
        "id": "vtls004662892_0_20",
        "type": "sailor",
        "parent": "vtls004662892",
        "name": "charles tyrrell",
        "dob": "1868",
        "age": "blk",
        "place_of_birth": "arklow",
        "home_address": "blk",
        "f": "blk",
        "name_of_ship": "wilson",
        "ship_port": "dublin",
        "date_leaving": "1888-08-07",
        "joined_ship_date": "1888-08-09",
        "joined_at_port": "liverpool",
        "capacity": "able seaman",
        "date_left": "1889-05-13",
        "left_port": "dunkirk",
        "cause_of_leaving": "discharged",
        "sign_with_mark": "y",
        "notes": "blk"
    },
    {
        "id": "vtls004662892_0_27",
        "type": "sailor",
        "parent": "vtls004662892",
        "name": "patrick culley",
        "dob": "blk",
        "age": "22",
        "place_of_birth": "belfast",
        "home_address": "blk",
        "f": "blk",
        "name_of_ship": "harold",
        "ship_port": "dublin",
        "date_leaving": "1888-08-09",
        "joined_ship_date": "1888-08-09",
        "joined_at_port": "liverpool",
        "capacity": "able seaman",
        "date_left": "1889-05-13",
        "left_port": "dunkirk",
        "cause_of_leaving": "discharged",
        "sign_with_mark": "n",
        "notes": "blk"
    },
    {
        "id": "vtls004662892_0_28",
        "type": "sailor",
        "parent": "vtls004662892",
        "name": "robert kearon",
        "dob": "blk",
        "age": "21",
        "place_of_birth": "arklow",
        "home_address": "blk",
        "f": "blk",
        "name_of_ship": "satellite",
        "ship_port": "dublin",
        "date_leaving": "1888-08-09",
        "joined_ship_date": "1888-08-09",
        "joined_at_port": "liverpool",
        "capacity": "able seaman",
        "date_left": "1889-05-13",
        "left_port": "dunkirk",
        "cause_of_leaving": "discharged",
        "sign_with_mark": "n",
        "notes": "blk"
    },
    {
        "id": "vtls004662892_1_15",
        "type": "sailor",
        "parent": "vtls004662892",
        "name": "adolph cluter",
        "dob": "blk",
        "age": "36",
        "place_of_birth": "paris",
        "home_address": "blk",
        "f": "blk",
        "name_of_ship": "danish",
        "ship_port": "blk",
        "date_leaving": "1889",
        "joined_ship_date": "1889-05-27",
        "joined_at_port": "dunkirk",
        "capacity": "able seaman",
        "date_left": "1889-06-04",
        "left_port": "birkenhead",
        "cause_of_leaving": "discharged",
        "sign_with_mark": "n",
        "notes": "blk"
    },
    {
        "id": "vtls004662892_0_29",
        "type": "sailor",
        "parent": "vtls004662892",
        "name": "m crotts",
        "dob": "blk",
        "age": "14",
        "place_of_birth": "limerick",
        "home_address": "blk",
        "f": "blk",
        "name_of_ship": "blk",
        "ship_port": "blk",
        "date_leaving": "blk",
        "joined_ship_date": "1888-08-09",
        "joined_at_port": "at sea",
        "capacity": "boy",
        "date_left": "1889-05-13",
        "left_port": "dunkirk",
        "cause_of_leaving": "discharged",
        "sign_with_mark": "n",
        "notes": "found stowed on ship"
    },
    {
        "id": "vtls004662892_1_13",
        "type": "sailor",
        "parent": "vtls004662892",
        "name": "thomas roberts",
        "dob": "blk",
        "age": "32",
        "place_of_birth": "anglesey",
        "home_address": "blk",
        "f": "blk",
        "name_of_ship": "c a",
        "ship_port": "blk",
        "date_leaving": "1889",
        "joined_ship_date": "1889-05-27",
        "joined_at_port": "dunkirk",
        "capacity": "boatswain",
        "date_left": "1889-06-04",
        "left_port": "birkenhead",
        "cause_of_leaving": "discharged",
        "sign_with_mark": "n",
        "notes": "blk"
    },
    {
        "id": "vtls004662892_1_14",
        "type": "sailor",
        "parent": "vtls004662892",
        "name": "john hughes",
        "dob": "blk",
        "age": "26",
        "place_of_birth": "anglesey",
        "home_address": "blk",
        "f": "blk",
        "name_of_ship": "c a",
        "ship_port": "blk",
        "date_leaving": "1889",
        "joined_ship_date": "1889-05-27",
        "joined_at_port": "dunkirk",
        "capacity": "able seaman",
        "date_left": "1889-06-04",
        "left_port": "birkenhead",
        "cause_of_leaving": "discharged",
        "sign_with_mark": "n",
        "notes": "blk"
    },
    {
        "id": "vtls004662892_1_12",
        "type": "sailor",
        "parent": "vtls004662892",
        "name": "john miller",
        "dob": "blk",
        "age": "31",
        "place_of_birth": "manchester",
        "home_address": "blk",
        "f": "blk",
        "name_of_ship": "c a",
        "ship_port": "blk",
        "date_leaving": "1889",
        "joined_ship_date": "1889-05-27",
        "joined_at_port": "dunkirk",
        "capacity": "mate",
        "date_left": "1889-06-04",
        "left_port": "birkenhead",
        "cause_of_leaving": "discharged",
        "sign_with_mark": "n",
        "notes": "blk"
    },
    {
        "id": "vtls004662892_0_32",
        "type": "sailor",
        "parent": "vtls004662892",
        "name": "evan rees jones",
        "dob": "1871",
        "age": "blk",
        "place_of_birth": "blk",
        "home_address": "blk",
        "f": "blk",
        "name_of_ship": "blk",
        "ship_port": "blk",
        "date_leaving": "blk",
        "joined_ship_date": "blk",
        "joined_at_port": "blk",
        "capacity": "apprentice",
        "date_left": "blk",
        "left_port": "blk",
        "cause_of_leaving": "blk",
        "sign_with_mark": "blk",
        "notes": "registry of indenture 1887-07-06"
    },
    {
        "id": "vtls004662892_0_33",
        "type": "sailor",
        "parent": "vtls004662892",
        "name": "richard roberts",
        "dob": "1866",
        "age": "blk",
        "place_of_birth": "blk",
        "home_address": "blk",
        "f": "blk",
        "name_of_ship": "blk",
        "ship_port": "blk",
        "date_leaving": "blk",
        "joined_ship_date": "blk",
        "joined_at_port": "blk",
        "capacity": "apprentice",
        "date_left": "blk",
        "left_port": "blk",
        "cause_of_leaving": "blk",
        "sign_with_mark": "blk",
        "notes": "registry of indenture 1888-08-07"
    },
    {
        "id": "vtls004662892_0_31",
        "type": "sailor",
        "parent": "vtls004662892",
        "name": "thomas evans",
        "dob": "1871",
        "age": "blk",
        "place_of_birth": "blk",
        "home_address": "blk",
        "f": "blk",
        "name_of_ship": "blk",
        "ship_port": "blk",
        "date_leaving": "blk",
        "joined_ship_date": "blk",
        "joined_at_port": "blk",
        "capacity": "apprentice",
        "date_left": "blk",
        "left_port": "blk",
        "cause_of_leaving": "blk",
        "sign_with_mark": "blk",
        "notes": "registry of indenture  1886-09-08"
    },
    {
        "id": "vtls004662892_0_30",
        "type": "sailor",
        "parent": "vtls004662892",
        "name": "john cole",
        "dob": "1870",
        "age": "blk",
        "place_of_birth": "blk",
        "home_address": "blk",
        "f": "blk",
        "name_of_ship": "blk",
        "ship_port": "blk",
        "date_leaving": "blk",
        "joined_ship_date": "blk",
        "joined_at_port": "blk",
        "capacity": "apprentice",
        "date_left": "blk",
        "left_port": "blk",
        "cause_of_leaving": "blk",
        "sign_with_mark": "blk",
        "notes": "registry of indenture 1885-09-02"
    },
    {
        "id": "vtls004662892_2_16",
        "type": "sailor",
        "parent": "vtls004662892",
        "name": "john hughes",
        "dob": "1863",
        "age": "blk",
        "place_of_birth": "anglesey",
        "home_address": "blk",
        "f": "blk",
        "name_of_ship": "general picton",
        "ship_port": "aberystwyth",
        "date_leaving": "1889",
        "joined_ship_date": "1889-06-26",
        "joined_at_port": "garston",
        "capacity": "able seaman",
        "date_left": "1889-09-14",
        "left_port": "oregon",
        "cause_of_leaving": "discharged",
        "sign_with_mark": "n",
        "notes": "blk"
    },
    {
        "id": "vtls004662892_2_15",
        "type": "sailor",
        "parent": "vtls004662892",
        "name": "john saunders",
        "dob": "1864",
        "age": "blk",
        "place_of_birth": "west indies",
        "home_address": "blk",
        "f": "blk",
        "name_of_ship": "first ship",
        "ship_port": "aberystwyth",
        "date_leaving": "1889",
        "joined_ship_date": "1889-06-26",
        "joined_at_port": "garston",
        "capacity": "carpenter",
        "date_left": "1889-09-14",
        "left_port": "oregon",
        "cause_of_leaving": "discharged",
        "sign_with_mark": "n",
        "notes": "blk"
    },
    {
        "id": "vtls004662892_1_19",
        "type": "sailor",
        "parent": "vtls004662892",
        "name": "e hosnd aseocm",
        "dob": "blk",
        "age": "34",
        "place_of_birth": "dunkirk",
        "home_address": "blk",
        "f": "blk",
        "name_of_ship": "king$$$$",
        "ship_port": "blk",
        "date_leaving": "1889",
        "joined_ship_date": "1889-05-27",
        "joined_at_port": "dunkirk",
        "capacity": "able seaman",
        "date_left": "1889-06-04",
        "left_port": "birkenhead",
        "cause_of_leaving": "discharged",
        "sign_with_mark": "n",
        "notes": "blk"
    },
    {
        "id": "vtls004662892_2_13",
        "type": "sailor",
        "parent": "vtls004662892",
        "name": "thomas roberts",
        "dob": "1855",
        "age": "blk",
        "place_of_birth": "holyhead",
        "home_address": "blk",
        "f": "blk",
        "name_of_ship": "glen$$$",
        "ship_port": "blk",
        "date_leaving": "1889",
        "joined_ship_date": "1889-06-26",
        "joined_at_port": "garston",
        "capacity": "boatswain",
        "date_left": "1889-09-14",
        "left_port": "oregon",
        "cause_of_leaving": "discharged",
        "sign_with_mark": "n",
        "notes": "blk"
    },
    {
        "id": "vtls004662892_1_18",
        "type": "sailor",
        "parent": "vtls004662892",
        "name": "g man$$$",
        "dob": "blk",
        "age": "36",
        "place_of_birth": "venice",
        "home_address": "blk",
        "f": "blk",
        "name_of_ship": "king$$$$",
        "ship_port": "blk",
        "date_leaving": "1889",
        "joined_ship_date": "1889-05-27",
        "joined_at_port": "dunkirk",
        "capacity": "able seaman",
        "date_left": "1889-06-04",
        "left_port": "birkenhead",
        "cause_of_leaving": "discharged",
        "sign_with_mark": "y",
        "notes": "blk"
    },
    {
        "id": "vtls004662892_2_14",
        "type": "sailor",
        "parent": "vtls004662892",
        "name": "john johnson",
        "dob": "1855",
        "age": "blk",
        "place_of_birth": "barbados",
        "home_address": "blk",
        "f": "blk",
        "name_of_ship": "$",
        "ship_port": "blk",
        "date_leaving": "1889",
        "joined_ship_date": "1889-06-26",
        "joined_at_port": "garston",
        "capacity": "cook & steward",
        "date_left": "1889-09-14",
        "left_port": "oregon",
        "cause_of_leaving": "discharged",
        "sign_with_mark": "n",
        "notes": "blk"
    },
    {
        "id": "vtls004662892_1_17",
        "type": "sailor",
        "parent": "vtls004662892",
        "name": "hacknier",
        "dob": "blk",
        "age": "22",
        "place_of_birth": "belgium",
        "home_address": "blk",
        "f": "blk",
        "name_of_ship": "danish",
        "ship_port": "blk",
        "date_leaving": "1889",
        "joined_ship_date": "1889-05-27",
        "joined_at_port": "dunkirk",
        "capacity": "able seaman",
        "date_left": "1889-06-04",
        "left_port": "birkenhead",
        "cause_of_leaving": "discharged",
        "sign_with_mark": "n",
        "notes": "blk"
    },
    {
        "id": "vtls004662892_1_16",
        "type": "sailor",
        "parent": "vtls004662892",
        "name": "bloyueq",
        "dob": "blk",
        "age": "30",
        "place_of_birth": "dunkirk",
        "home_address": "blk",
        "f": "blk",
        "name_of_ship": "danish",
        "ship_port": "blk",
        "date_leaving": "1889",
        "joined_ship_date": "1889-05-27",
        "joined_at_port": "dunkirk",
        "capacity": "able seaman",
        "date_left": "1889-06-04",
        "left_port": "birkenhead",
        "cause_of_leaving": "discharged",
        "sign_with_mark": "n",
        "notes": "blk"
    },
    {
        "id": "vtls004662892_2_12",
        "type": "sailor",
        "parent": "vtls004662892",
        "name": "john jones",
        "dob": "1854",
        "age": "blk",
        "place_of_birth": "aberaeron",
        "home_address": "blk",
        "f": "blk",
        "name_of_ship": "pican rose",
        "ship_port": "blk",
        "date_leaving": "1889",
        "joined_ship_date": "1889-06-26",
        "joined_at_port": "garston",
        "capacity": "mate",
        "date_left": "1889-09-14",
        "left_port": "oregon",
        "cause_of_leaving": "discharged",
        "sign_with_mark": "n",
        "notes": "blk"
    },
    {
        "id": "vtls004662892_2_24",
        "type": "sailor",
        "parent": "vtls004662892",
        "name": "griffith humphreys",
        "dob": "1869",
        "age": "blk",
        "place_of_birth": "aberdovey",
        "home_address": "blk",
        "f": "blk",
        "name_of_ship": "mary & ellen",
        "ship_port": "blk",
        "date_leaving": "1889",
        "joined_ship_date": "1889-06-26",
        "joined_at_port": "garston",
        "capacity": "ordinary seaman",
        "date_left": "1889-09-14",
        "left_port": "oregon",
        "cause_of_leaving": "discharged",
        "sign_with_mark": "n",
        "notes": "blk"
    },
    {
        "id": "vtls004662892_2_23",
        "type": "sailor",
        "parent": "vtls004662892",
        "name": "william morris williams",
        "dob": "1869",
        "age": "blk",
        "place_of_birth": "criccieth",
        "home_address": "blk",
        "f": "blk",
        "name_of_ship": "hilda",
        "ship_port": "blk",
        "date_leaving": "1889",
        "joined_ship_date": "1889-06-26",
        "joined_at_port": "garston",
        "capacity": "able seaman",
        "date_left": "1889-09-14",
        "left_port": "oregon",
        "cause_of_leaving": "discharged",
        "sign_with_mark": "n",
        "notes": "blk"
    },
    {
        "id": "vtls004662892_2_21",
        "type": "sailor",
        "parent": "vtls004662892",
        "name": "charles hendrickson",
        "dob": "1862",
        "age": "blk",
        "place_of_birth": "germany",
        "home_address": "blk",
        "f": "blk",
        "name_of_ship": "eda hills",
        "ship_port": "blk",
        "date_leaving": "1889",
        "joined_ship_date": "1889-06-26",
        "joined_at_port": "garston",
        "capacity": "able seaman",
        "date_left": "1889-09-14",
        "left_port": "oregon",
        "cause_of_leaving": "discharged",
        "sign_with_mark": "n",
        "notes": "blk"
    },
    {
        "id": "vtls004662892_2_20",
        "type": "sailor",
        "parent": "vtls004662892",
        "name": "thomas jones",
        "dob": "1854",
        "age": "blk",
        "place_of_birth": "conway",
        "home_address": "blk",
        "f": "blk",
        "name_of_ship": "cedric the de$$",
        "ship_port": "blk",
        "date_leaving": "1889",
        "joined_ship_date": "1889-06-26",
        "joined_at_port": "garston",
        "capacity": "able seaman",
        "date_left": "1889-09-14",
        "left_port": "oregon",
        "cause_of_leaving": "discharged",
        "sign_with_mark": "n",
        "notes": "blk"
    },
    {
        "id": "vtls004662892_2_22",
        "type": "sailor",
        "parent": "vtls004662892",
        "name": "james mclin",
        "dob": "1868",
        "age": "blk",
        "place_of_birth": "belfast",
        "home_address": "blk",
        "f": "blk",
        "name_of_ship": "g b balfour",
        "ship_port": "blk",
        "date_leaving": "1889",
        "joined_ship_date": "1889-06-26",
        "joined_at_port": "garston",
        "capacity": "able seaman",
        "date_left": "1889-09-14",
        "left_port": "oregon",
        "cause_of_leaving": "discharged",
        "sign_with_mark": "n",
        "notes": "blk"
    },
    {
        "id": "vtls004662892_2_19",
        "type": "sailor",
        "parent": "vtls004662892",
        "name": "joseph white",
        "dob": "1865",
        "age": "blk",
        "place_of_birth": "belfast",
        "home_address": "blk",
        "f": "blk",
        "name_of_ship": "$ castle",
        "ship_port": "blk",
        "date_leaving": "1889",
        "joined_ship_date": "1889-06-26",
        "joined_at_port": "garston",
        "capacity": "able seaman",
        "date_left": "1889-09-14",
        "left_port": "oregon",
        "cause_of_leaving": "discharged",
        "sign_with_mark": "n",
        "notes": "blk"
    },
    {
        "id": "vtls004662892_2_17",
        "type": "sailor",
        "parent": "vtls004662892",
        "name": "richard jones",
        "dob": "1862",
        "age": "blk",
        "place_of_birth": "aberystwyth",
        "home_address": "blk",
        "f": "blk",
        "name_of_ship": "$",
        "ship_port": "blk",
        "date_leaving": "1889",
        "joined_ship_date": "1889-06-26",
        "joined_at_port": "garston",
        "capacity": "able seaman",
        "date_left": "1889-09-14",
        "left_port": "oregon",
        "cause_of_leaving": "discharged",
        "sign_with_mark": "n",
        "notes": "blk"
    },
    {
        "id": "vtls004662892_2_18",
        "type": "sailor",
        "parent": "vtls004662892",
        "name": "owen jones",
        "dob": "1867",
        "age": "blk",
        "place_of_birth": "anglesey",
        "home_address": "blk",
        "f": "blk",
        "name_of_ship": "secret",
        "ship_port": "blk",
        "date_leaving": "1889",
        "joined_ship_date": "1889-06-26",
        "joined_at_port": "garston",
        "capacity": "able seaman",
        "date_left": "1889-09-14",
        "left_port": "oregon",
        "cause_of_leaving": "discharged",
        "sign_with_mark": "n",
        "notes": "blk"
    },
    {
        "id": "vtls004662892_2_25",
        "type": "sailor",
        "parent": "vtls004662892",
        "name": "robert pugh",
        "dob": "1870",
        "age": "blk",
        "place_of_birth": "aberdovey",
        "home_address": "blk",
        "f": "blk",
        "name_of_ship": "eleanor jane",
        "ship_port": "blk",
        "date_leaving": "1889",
        "joined_ship_date": "1889-06-26",
        "joined_at_port": "garston",
        "capacity": "ordinary seaman",
        "date_left": "1889-09-14",
        "left_port": "oregon",
        "cause_of_leaving": "discharged",
        "sign_with_mark": "n",
        "notes": "blk"
    },
    {
        "id": "vtls004662892_2_26",
        "type": "sailor",
        "parent": "vtls004662892",
        "name": "john cole",
        "dob": "1870",
        "age": "blk",
        "place_of_birth": "aberystwyth",
        "home_address": "blk",
        "f": "blk",
        "name_of_ship": "apprentice",
        "ship_port": "blk",
        "date_leaving": "1889",
        "joined_ship_date": "1889-08-30",
        "joined_at_port": "at sea",
        "capacity": "able seaman",
        "date_left": "1889-09-14",
        "left_port": "oregon",
        "cause_of_leaving": "discharged",
        "sign_with_mark": "n",
        "notes": "blk"
    },
    {
        "id": "vtls004662892_2_27",
        "type": "sailor",
        "parent": "vtls004662892",
        "name": "owen owens",
        "dob": "1869",
        "age": "blk",
        "place_of_birth": "anglesey",
        "home_address": "blk",
        "f": "blk",
        "name_of_ship": "$",
        "ship_port": "blk",
        "date_leaving": "1889",
        "joined_ship_date": "1889-06-26",
        "joined_at_port": "garston",
        "capacity": "able seaman",
        "date_left": "1889-09-14",
        "left_port": "oregon",
        "cause_of_leaving": "discharged",
        "sign_with_mark": "n",
        "notes": "blk"
    }
]