[
    {
        "id": "vtls004693647_0_13",
        "type": "sailor",
        "parent": "vtls004693647",
        "name": "eleazer jones",
        "dob": "1842",
        "age": "46",
        "place_of_birth": "aberaeron",
        "home_address": "blk",
        "f": "blk",
        "name_of_ship": "john pierce",
        "ship_port": "aberystwyth ",
        "date_leaving": "1878",
        "joined_ship_date": "1878-02-24",
        "joined_at_port": "aberaeron",
        "capacity": "able seaman",
        "date_left": "1879-04-08",
        "left_port": "porthmadog",
        "cause_of_leaving": "discharged",
        "sign_with_mark": "n",
        "notes": "blk"
    },
    {
        "id": "vtls004693647_0_11",
        "type": "sailor",
        "parent": "vtls004693647",
        "name": "john hughes",
        "dob": "1859",
        "age": "20",
        "place_of_birth": "borth",
        "home_address": "blk",
        "f": "blk",
        "name_of_ship": "lizzie jane",
        "ship_port": "aberystwyth ",
        "date_leaving": "1878",
        "joined_ship_date": "1878-02-24",
        "joined_at_port": "aberaeron",
        "capacity": "master",
        "date_left": "1879-07-03",
        "left_port": "porthmadog",
        "cause_of_leaving": "remains on board",
        "sign_with_mark": "n",
        "notes": "blk"
    },
    {
        "id": "vtls004693647_0_12",
        "type": "sailor",
        "parent": "vtls004693647",
        "name": "john hughes",
        "dob": "1821",
        "age": "57",
        "place_of_birth": "borth",
        "home_address": "blk",
        "f": "blk",
        "name_of_ship": "lizzie jane",
        "ship_port": "aberystwyth ",
        "date_leaving": "1878",
        "joined_ship_date": "1878-02-24",
        "joined_at_port": "aberaeron",
        "capacity": "mate",
        "date_left": "1879-07-03",
        "left_port": "porthmadog",
        "cause_of_leaving": "remains on board",
        "sign_with_mark": "n",
        "notes": "blk"
    },
    {
        "id": "vtls004693647_0_16",
        "type": "sailor",
        "parent": "vtls004693647",
        "name": "enoch davies",
        "dob": "blk",
        "age": "28",
        "place_of_birth": "tregaron",
        "home_address": "blk",
        "f": "blk",
        "name_of_ship": "tay & tees packet",
        "ship_port": "beaumaris",
        "date_leaving": "1879",
        "joined_ship_date": "1879-04-14",
        "joined_at_port": "portmadoc",
        "capacity": "able seaman",
        "date_left": "1879-07-03",
        "left_port": "porthmadog",
        "cause_of_leaving": "discharged",
        "sign_with_mark": "n",
        "notes": "blk"
    },
    {
        "id": "vtls004693647_0_14",
        "type": "sailor",
        "parent": "vtls004693647",
        "name": "john jones",
        "dob": "blk",
        "age": "18",
        "place_of_birth": "aberaeron",
        "home_address": "blk",
        "f": "blk",
        "name_of_ship": "[linnet]",
        "ship_port": "cardigan",
        "date_leaving": "1878",
        "joined_ship_date": "1878-02-24",
        "joined_at_port": "aberaeron",
        "capacity": "ordinary seaman",
        "date_left": "1879-04-10",
        "left_port": "porthmadog",
        "cause_of_leaving": "discharged",
        "sign_with_mark": "n",
        "notes": "blk"
    },
    {
        "id": "vtls004693647_1_11",
        "type": "sailor",
        "parent": "vtls004693647",
        "name": "john hughes",
        "dob": "blk",
        "age": "20",
        "place_of_birth": "borth",
        "home_address": "blk",
        "f": "blk",
        "name_of_ship": "lizzie jane",
        "ship_port": "aberystwyth",
        "date_leaving": "1878",
        "joined_ship_date": "1879-07-23",
        "joined_at_port": "portmadoc",
        "capacity": "master",
        "date_left": "1879-12-31",
        "left_port": "porthmadog",
        "cause_of_leaving": "remains on board",
        "sign_with_mark": "n",
        "notes": "blk"
    },
    {
        "id": "vtls004693647_0_17",
        "type": "sailor",
        "parent": "vtls004693647",
        "name": "john j hughes",
        "dob": "blk",
        "age": "16",
        "place_of_birth": "borth",
        "home_address": "blk",
        "f": "blk",
        "name_of_ship": "cecil brindley",
        "ship_port": "aberystwyth ",
        "date_leaving": "1878",
        "joined_ship_date": "1879-12-06",
        "joined_at_port": "portmadoc",
        "capacity": "cook",
        "date_left": "1879-07-03",
        "left_port": "porthmadog",
        "cause_of_leaving": "discharged",
        "sign_with_mark": "n",
        "notes": "blk"
    },
    {
        "id": "vtls004693647_1_12",
        "type": "sailor",
        "parent": "vtls004693647",
        "name": "john hughes",
        "dob": "blk",
        "age": "57",
        "place_of_birth": "borth",
        "home_address": "blk",
        "f": "blk",
        "name_of_ship": "lizzie jane",
        "ship_port": "aberystwyth",
        "date_leaving": "1878",
        "joined_ship_date": "1879-07-23",
        "joined_at_port": "portmadoc",
        "capacity": "mate",
        "date_left": "1879-12-31",
        "left_port": "porthmadog",
        "cause_of_leaving": "remains on board",
        "sign_with_mark": "n",
        "notes": "blk"
    },
    {
        "id": "vtls004693647_0_18",
        "type": "sailor",
        "parent": "vtls004693647",
        "name": "angus m lean",
        "dob": "blk",
        "age": "26",
        "place_of_birth": "scotland",
        "home_address": "blk",
        "f": "blk",
        "name_of_ship": "harriet",
        "ship_port": "liverpool",
        "date_leaving": "1879",
        "joined_ship_date": "1879-05-28",
        "joined_at_port": "runcorn",
        "capacity": "able seaman",
        "date_left": "1879-07-03",
        "left_port": "porthmadog",
        "cause_of_leaving": "discharged",
        "sign_with_mark": "n",
        "notes": "blk"
    },
    {
        "id": "vtls004693647_1_13",
        "type": "sailor",
        "parent": "vtls004693647",
        "name": "evan jones",
        "dob": "blk",
        "age": "23",
        "place_of_birth": "borth",
        "home_address": "blk",
        "f": "blk",
        "name_of_ship": "lizzie jane",
        "ship_port": "aberystwyth",
        "date_leaving": "1879",
        "joined_ship_date": "1879-07-23",
        "joined_at_port": "portmadoc",
        "capacity": "able seaman",
        "date_left": "1879-09-15",
        "left_port": "porthmadog",
        "cause_of_leaving": "discharged",
        "sign_with_mark": "n",
        "notes": "blk"
    },
    {
        "id": "vtls004693647_0_15",
        "type": "sailor",
        "parent": "vtls004693647",
        "name": "thomas williams",
        "dob": "blk",
        "age": "14",
        "place_of_birth": "aberaeron",
        "home_address": "blk",
        "f": "blk",
        "name_of_ship": "first voyage",
        "ship_port": "blk",
        "date_leaving": "blk",
        "joined_ship_date": "1878-02-24",
        "joined_at_port": "aberaeron",
        "capacity": "cook",
        "date_left": "1879-03-31",
        "left_port": "porthmadog",
        "cause_of_leaving": "discharged",
        "sign_with_mark": "n",
        "notes": "blk"
    },
    {
        "id": "vtls004693647_1_14",
        "type": "sailor",
        "parent": "vtls004693647",
        "name": "thomas rowlands",
        "dob": "blk",
        "age": "19",
        "place_of_birth": "aberystwyth",
        "home_address": "blk",
        "f": "blk",
        "name_of_ship": "maglona",
        "ship_port": "aberystwyth",
        "date_leaving": "1878",
        "joined_ship_date": "1879-07-23",
        "joined_at_port": "portmadoc",
        "capacity": "ordinary seaman",
        "date_left": "1879-09-15",
        "left_port": "porthmadog",
        "cause_of_leaving": "discharged",
        "sign_with_mark": "n",
        "notes": "blk"
    },
    {
        "id": "vtls004693647_1_17",
        "type": "sailor",
        "parent": "vtls004693647",
        "name": "john j hughes",
        "dob": "blk",
        "age": "20",
        "place_of_birth": "bangor",
        "home_address": "blk",
        "f": "blk",
        "name_of_ship": "velocity",
        "ship_port": "aberystwyth",
        "date_leaving": "1879",
        "joined_ship_date": "1879-10-15",
        "joined_at_port": "portmadoc",
        "capacity": "ordinary seaman",
        "date_left": "1879-10-31",
        "left_port": "porthmadog",
        "cause_of_leaving": "discharged",
        "sign_with_mark": "n",
        "notes": "blk"
    },
    {
        "id": "vtls004693647_1_15",
        "type": "sailor",
        "parent": "vtls004693647",
        "name": "john j hughes",
        "dob": "blk",
        "age": "16",
        "place_of_birth": "borth",
        "home_address": "blk",
        "f": "blk",
        "name_of_ship": "cecil brindley",
        "ship_port": "aberystwyth",
        "date_leaving": "1878",
        "joined_ship_date": "1879-07-23",
        "joined_at_port": "portmadoc",
        "capacity": "cook",
        "date_left": "1879-09-15",
        "left_port": "porthmadog",
        "cause_of_leaving": "discharged",
        "sign_with_mark": "n",
        "notes": "blk"
    },
    {
        "id": "vtls004693647_1_16",
        "type": "sailor",
        "parent": "vtls004693647",
        "name": "henry tonley",
        "dob": "blk",
        "age": "24",
        "place_of_birth": "philadelphia",
        "home_address": "blk",
        "f": "blk",
        "name_of_ship": "elizabeth",
        "ship_port": "hull",
        "date_leaving": "1879",
        "joined_ship_date": "1879-10-15",
        "joined_at_port": "portmadoc",
        "capacity": "able seaman",
        "date_left": "1879-10-31",
        "left_port": "porthmadog",
        "cause_of_leaving": "discharged",
        "sign_with_mark": "n",
        "notes": "blk"
    }
]