[
    {
        "id": "vtls004940834_0_13",
        "type": "sailor",
        "parent": "vtls004940834",
        "name": "david evans",
        "dob": "blk",
        "age": "18",
        "place_of_birth": "aberystwyth",
        "home_address": "blk",
        "f": "blk",
        "name_of_ship": "primrose",
        "ship_port": "aberystwyth",
        "date_leaving": "not discharged",
        "joined_ship_date": "blk",
        "joined_at_port": "blk",
        "capacity": "ordinary seaman",
        "date_left": "1864-06-30",
        "left_port": "briton ferry",
        "cause_of_leaving": "remains on board",
        "sign_with_mark": "n",
        "notes": "blk"
    },
    {
        "id": "vtls004940829_0_13",
        "type": "sailor",
        "parent": "vtls004940829",
        "name": "edward rowlands",
        "dob": "blk",
        "age": "19",
        "place_of_birth": "aberystwyth",
        "home_address": "blk",
        "f": "blk",
        "name_of_ship": "primrose",
        "ship_port": "aberystwyth",
        "date_leaving": "not discharged",
        "joined_ship_date": "blk",
        "joined_at_port": "blk",
        "capacity": "ordinary seaman",
        "date_left": "1863-12-31",
        "left_port": "neath",
        "cause_of_leaving": "remains on board",
        "sign_with_mark": "n",
        "notes": "blk"
    },
    {
        "id": "vtls004940834_0_11",
        "type": "sailor",
        "parent": "vtls004940834",
        "name": "james jones",
        "dob": "blk",
        "age": "34",
        "place_of_birth": "aberystwyth",
        "home_address": "blk",
        "f": "blk",
        "name_of_ship": "primrose",
        "ship_port": "aberystwyth",
        "date_leaving": "not discharged",
        "joined_ship_date": "blk",
        "joined_at_port": "blk",
        "capacity": "master",
        "date_left": "1864-06-30",
        "left_port": "briton ferry",
        "cause_of_leaving": "remains on board",
        "sign_with_mark": "n",
        "notes": "blk"
    },
    {
        "id": "vtls004940834_0_12",
        "type": "sailor",
        "parent": "vtls004940834",
        "name": "patrick flynn",
        "dob": "blk",
        "age": "22",
        "place_of_birth": "aberystwyth",
        "home_address": "blk",
        "f": "blk",
        "name_of_ship": "primrose",
        "ship_port": "aberystwyth",
        "date_leaving": "not discharged",
        "joined_ship_date": "blk",
        "joined_at_port": "blk",
        "capacity": "mate",
        "date_left": "1864-06-30",
        "left_port": "briton ferry",
        "cause_of_leaving": "remains on board",
        "sign_with_mark": "n",
        "notes": "blk"
    },
    {
        "id": "vtls004940829_0_12",
        "type": "sailor",
        "parent": "vtls004940829",
        "name": "william jenkins",
        "dob": "blk",
        "age": "23",
        "place_of_birth": "aberystwyth",
        "home_address": "blk",
        "f": "blk",
        "name_of_ship": "primrose",
        "ship_port": "aberystwyth",
        "date_leaving": "not discharged",
        "joined_ship_date": "blk",
        "joined_at_port": "blk",
        "capacity": "mate",
        "date_left": "1863-12-31",
        "left_port": "neath",
        "cause_of_leaving": "remains on board",
        "sign_with_mark": "n",
        "notes": "blk"
    },
    {
        "id": "vtls004940829_0_11",
        "type": "sailor",
        "parent": "vtls004940829",
        "name": "james jones",
        "dob": "blk",
        "age": "33",
        "place_of_birth": "aberystwyth",
        "home_address": "blk",
        "f": "blk",
        "name_of_ship": "primrose",
        "ship_port": "aberystwyth",
        "date_leaving": "not discharged",
        "joined_ship_date": "blk",
        "joined_at_port": "blk",
        "capacity": "master",
        "date_left": "1863-12-31",
        "left_port": "neath",
        "cause_of_leaving": "remains on board",
        "sign_with_mark": "n",
        "notes": "blk"
    },
    {
        "id": "vtls004940837_1_11",
        "type": "sailor",
        "parent": "vtls004940837",
        "name": "james jones",
        "dob": "blk",
        "age": "35",
        "place_of_birth": "aberystwyth",
        "home_address": "blk",
        "f": "blk",
        "name_of_ship": "primrose",
        "ship_port": "aberystwyth",
        "date_leaving": "continues on board",
        "joined_ship_date": "1866-07-01",
        "joined_at_port": "blk",
        "capacity": "master",
        "date_left": "1866-12-31",
        "left_port": "warrenspoint",
        "cause_of_leaving": "remains on board",
        "sign_with_mark": "n",
        "notes": "blk"
    },
    {
        "id": "vtls004940837_0_13",
        "type": "sailor",
        "parent": "vtls004940837",
        "name": "john griffiths",
        "dob": "blk",
        "age": "25",
        "place_of_birth": "aberystwyth",
        "home_address": "blk",
        "f": "blk",
        "name_of_ship": "primrose",
        "ship_port": "aberystwyth",
        "date_leaving": "1865-12-20",
        "joined_ship_date": "1866-02-19",
        "joined_at_port": "aberystwyth",
        "capacity": "seaman",
        "date_left": "1866-07-08",
        "left_port": "aberystwyth",
        "cause_of_leaving": "remains on board",
        "sign_with_mark": "n",
        "notes": "blk"
    },
    {
        "id": "vtls004940837_0_12",
        "type": "sailor",
        "parent": "vtls004940837",
        "name": "john jenkins",
        "dob": "blk",
        "age": "30",
        "place_of_birth": "aberystwyth",
        "home_address": "blk",
        "f": "blk",
        "name_of_ship": "primrose",
        "ship_port": "aberystwyth",
        "date_leaving": "1865-12-20",
        "joined_ship_date": "1866-02-19",
        "joined_at_port": "aberystwyth",
        "capacity": "mate",
        "date_left": "1866-07-08",
        "left_port": "aberystwyth",
        "cause_of_leaving": "remains on board",
        "sign_with_mark": "n",
        "notes": "blk"
    },
    {
        "id": "vtls004940834_1_11",
        "type": "sailor",
        "parent": "vtls004940834",
        "name": "james jones",
        "dob": "blk",
        "age": "32",
        "place_of_birth": "aberystwyth",
        "home_address": "blk",
        "f": "blk",
        "name_of_ship": "primrose",
        "ship_port": "aberystwyth",
        "date_leaving": "still on board",
        "joined_ship_date": "blk",
        "joined_at_port": "blk",
        "capacity": "master",
        "date_left": "1864-12-31",
        "left_port": "aberystwyth",
        "cause_of_leaving": "remains on board",
        "sign_with_mark": "n",
        "notes": "blk"
    },
    {
        "id": "vtls004940834_1_12",
        "type": "sailor",
        "parent": "vtls004940834",
        "name": "william jenkins",
        "dob": "blk",
        "age": "24",
        "place_of_birth": "aberystwyth",
        "home_address": "blk",
        "f": "blk",
        "name_of_ship": "primrose",
        "ship_port": "aberystwyth",
        "date_leaving": "still on board",
        "joined_ship_date": "blk",
        "joined_at_port": "blk",
        "capacity": "mate",
        "date_left": "1864-12-31",
        "left_port": "aberystwyth",
        "cause_of_leaving": "discharged",
        "sign_with_mark": "n",
        "notes": "blk"
    },
    {
        "id": "vtls004940837_0_11",
        "type": "sailor",
        "parent": "vtls004940837",
        "name": "james jones",
        "dob": "blk",
        "age": "35",
        "place_of_birth": "aberystwyth",
        "home_address": "blk",
        "f": "blk",
        "name_of_ship": "primrose",
        "ship_port": "aberystwyth",
        "date_leaving": "continues",
        "joined_ship_date": "blk",
        "joined_at_port": "blk",
        "capacity": "master",
        "date_left": "1866-07-08",
        "left_port": "aberystwyth",
        "cause_of_leaving": "remains on board",
        "sign_with_mark": "n",
        "notes": "blk"
    },
    {
        "id": "vtls004940834_1_13",
        "type": "sailor",
        "parent": "vtls004940834",
        "name": "david evans",
        "dob": "blk",
        "age": "19",
        "place_of_birth": "aberystwyth",
        "home_address": "blk",
        "f": "blk",
        "name_of_ship": "primrose",
        "ship_port": "aberystwyth",
        "date_leaving": "still on board",
        "joined_ship_date": "blk",
        "joined_at_port": "blk",
        "capacity": "seaman",
        "date_left": "1864-12-31",
        "left_port": "aberystwyth",
        "cause_of_leaving": "discharged",
        "sign_with_mark": "n",
        "notes": "blk"
    },
    {
        "id": "vtls004940837_1_13",
        "type": "sailor",
        "parent": "vtls004940837",
        "name": "john griffiths",
        "dob": "blk",
        "age": "19",
        "place_of_birth": "aberystwyth",
        "home_address": "blk",
        "f": "blk",
        "name_of_ship": "primrose",
        "ship_port": "aberystwyth",
        "date_leaving": "continues on board",
        "joined_ship_date": "1866-07-01",
        "joined_at_port": "blk",
        "capacity": "ordinary seaman",
        "date_left": "1866-12-31",
        "left_port": "warrenspoint",
        "cause_of_leaving": "remains on board",
        "sign_with_mark": "n",
        "notes": "blk"
    },
    {
        "id": "vtls004940847_0_13",
        "type": "sailor",
        "parent": "vtls004940847",
        "name": "charles james",
        "dob": "blk",
        "age": "17",
        "place_of_birth": "aberystwyth",
        "home_address": "blk",
        "f": "blk",
        "name_of_ship": "primrose",
        "ship_port": "aberystwyth",
        "date_leaving": "continues on board",
        "joined_ship_date": "1866-12-31",
        "joined_at_port": "blk",
        "capacity": "ordinary seaman",
        "date_left": "1867-06-30",
        "left_port": "kingstown",
        "cause_of_leaving": "remains on board",
        "sign_with_mark": "n",
        "notes": "blk"
    },
    {
        "id": "vtls004940837_1_12",
        "type": "sailor",
        "parent": "vtls004940837",
        "name": "john jenkins",
        "dob": "blk",
        "age": "31",
        "place_of_birth": "aberystwyth",
        "home_address": "blk",
        "f": "blk",
        "name_of_ship": "primrose",
        "ship_port": "aberystwyth",
        "date_leaving": "continues on board",
        "joined_ship_date": "1866-07-01",
        "joined_at_port": "blk",
        "capacity": "mate",
        "date_left": "1866-12-31",
        "left_port": "warrenspoint",
        "cause_of_leaving": "remains on board",
        "sign_with_mark": "n",
        "notes": "blk"
    },
    {
        "id": "vtls004940847_1_13",
        "type": "sailor",
        "parent": "vtls004940847",
        "name": "charles james",
        "dob": "blk",
        "age": "17",
        "place_of_birth": "aberystwyth",
        "home_address": "blk",
        "f": "blk",
        "name_of_ship": "primrose",
        "ship_port": "aberystwyth",
        "date_leaving": "1867-06-30",
        "joined_ship_date": "1867-07-01",
        "joined_at_port": "blk",
        "capacity": "ordinary seaman",
        "date_left": "1867-12-31",
        "left_port": "dublin",
        "cause_of_leaving": "remains on board",
        "sign_with_mark": "n",
        "notes": "blk"
    },
    {
        "id": "vtls004940847_0_11",
        "type": "sailor",
        "parent": "vtls004940847",
        "name": "james jones",
        "dob": "blk",
        "age": "36",
        "place_of_birth": "aberystwyth",
        "home_address": "blk",
        "f": "blk",
        "name_of_ship": "primrose",
        "ship_port": "aberystwyth",
        "date_leaving": "continues on board",
        "joined_ship_date": "1866-12-31",
        "joined_at_port": "blk",
        "capacity": "master",
        "date_left": "1867-06-30",
        "left_port": "kingstown",
        "cause_of_leaving": "remains on board",
        "sign_with_mark": "n",
        "notes": "blk"
    },
    {
        "id": "vtls004940847_0_12",
        "type": "sailor",
        "parent": "vtls004940847",
        "name": "john jenkins",
        "dob": "blk",
        "age": "30",
        "place_of_birth": "aberystwyth",
        "home_address": "blk",
        "f": "blk",
        "name_of_ship": "primrose",
        "ship_port": "aberystwyth",
        "date_leaving": "continues on board",
        "joined_ship_date": "1866-12-31",
        "joined_at_port": "blk",
        "capacity": "mate",
        "date_left": "1867-06-30",
        "left_port": "kingstown",
        "cause_of_leaving": "remains on board",
        "sign_with_mark": "n",
        "notes": "blk"
    },
    {
        "id": "vtls004940847_1_11",
        "type": "sailor",
        "parent": "vtls004940847",
        "name": "james jones",
        "dob": "blk",
        "age": "36",
        "place_of_birth": "aberystwyth",
        "home_address": "blk",
        "f": "blk",
        "name_of_ship": "primrose",
        "ship_port": "aberystwyth",
        "date_leaving": "1867-06-30",
        "joined_ship_date": "1867-07-01",
        "joined_at_port": "blk",
        "capacity": "master",
        "date_left": "1867-12-31",
        "left_port": "dublin",
        "cause_of_leaving": "remains on board",
        "sign_with_mark": "n",
        "notes": "blk"
    },
    {
        "id": "vtls004940847_1_12",
        "type": "sailor",
        "parent": "vtls004940847",
        "name": "john jenkins",
        "dob": "blk",
        "age": "31",
        "place_of_birth": "aberystwyth",
        "home_address": "blk",
        "f": "blk",
        "name_of_ship": "primrose",
        "ship_port": "aberystwyth",
        "date_leaving": "1867-06-30",
        "joined_ship_date": "1867-07-01",
        "joined_at_port": "blk",
        "capacity": "mate",
        "date_left": "1867-12-31",
        "left_port": "dublin",
        "cause_of_leaving": "remains on board",
        "sign_with_mark": "n",
        "notes": "blk"
    },
    {
        "id": "vtls004940852_1_13",
        "type": "sailor",
        "parent": "vtls004940852",
        "name": "charles james",
        "dob": "blk",
        "age": "17",
        "place_of_birth": "aberystwyth",
        "home_address": "blk",
        "f": "blk",
        "name_of_ship": "primrose",
        "ship_port": "aberystwyth",
        "date_leaving": "1868-06-30",
        "joined_ship_date": "1868-07-01",
        "joined_at_port": "aberystwyth",
        "capacity": "ordinary seaman",
        "date_left": "1868-07-12",
        "left_port": "blk",
        "cause_of_leaving": "drowned",
        "sign_with_mark": "n",
        "notes": "drowned at sea off caldy on 12 july 1868"
    },
    {
        "id": "vtls004940852_0_13",
        "type": "sailor",
        "parent": "vtls004940852",
        "name": "charles james",
        "dob": "blk",
        "age": "19",
        "place_of_birth": "aberystwyth",
        "home_address": "blk",
        "f": "blk",
        "name_of_ship": "primrose",
        "ship_port": "aberystwyth",
        "date_leaving": "1867-12-31",
        "joined_ship_date": "1868-01-01",
        "joined_at_port": "preston",
        "capacity": "ordinary seaman",
        "date_left": "1868-07-30",
        "left_port": "aberystwyth",
        "cause_of_leaving": "remains on board",
        "sign_with_mark": "n",
        "notes": "blk"
    },
    {
        "id": "vtls004940852_1_14",
        "type": "sailor",
        "parent": "vtls004940852",
        "name": "john jones",
        "dob": "blk",
        "age": "16",
        "place_of_birth": "aberystwyth",
        "home_address": "blk",
        "f": "blk",
        "name_of_ship": "honora",
        "ship_port": "[aberystwyth]",
        "date_leaving": "1868-07-25",
        "joined_ship_date": "1868-07-27",
        "joined_at_port": "aberystwyth",
        "capacity": "ordinary seaman",
        "date_left": "1869-01-12",
        "left_port": "aberystwyth",
        "cause_of_leaving": "remains on board",
        "sign_with_mark": "n",
        "notes": "blk"
    },
    {
        "id": "vtls004940852_0_14",
        "type": "sailor",
        "parent": "vtls004940852",
        "name": "richard thackam",
        "dob": "blk",
        "age": "28",
        "place_of_birth": "london",
        "home_address": "blk",
        "f": "blk",
        "name_of_ship": "mary lloyd",
        "ship_port": "aberystwyth",
        "date_leaving": "1868-04-27",
        "joined_ship_date": "1868-05-10",
        "joined_at_port": "aberystwyth",
        "capacity": "mate",
        "date_left": "1868-07-30",
        "left_port": "aberystwyth",
        "cause_of_leaving": "remains on board",
        "sign_with_mark": "n",
        "notes": "blk"
    },
    {
        "id": "vtls004940852_1_11",
        "type": "sailor",
        "parent": "vtls004940852",
        "name": "james jones",
        "dob": "blk",
        "age": "38",
        "place_of_birth": "aberystwyth",
        "home_address": "blk",
        "f": "blk",
        "name_of_ship": "primrose",
        "ship_port": "aberystwyth",
        "date_leaving": "1868-06-30",
        "joined_ship_date": "1868-07-01",
        "joined_at_port": "aberystwyth",
        "capacity": "master",
        "date_left": "1869-01-13",
        "left_port": "aberystwyth",
        "cause_of_leaving": "remains on board",
        "sign_with_mark": "n",
        "notes": "blk"
    },
    {
        "id": "vtls004940852_1_12",
        "type": "sailor",
        "parent": "vtls004940852",
        "name": "richard thackam",
        "dob": "blk",
        "age": "28",
        "place_of_birth": "london",
        "home_address": "blk",
        "f": "blk",
        "name_of_ship": "primrose",
        "ship_port": "aberystwyth",
        "date_leaving": "1868-06-30",
        "joined_ship_date": "1868-07-01",
        "joined_at_port": "aberystwyth",
        "capacity": "mate",
        "date_left": "1869-01-13",
        "left_port": "aberystwyth",
        "cause_of_leaving": "remains on board",
        "sign_with_mark": "n",
        "notes": "blk"
    },
    {
        "id": "vtls004940852_0_11",
        "type": "sailor",
        "parent": "vtls004940852",
        "name": "james jones",
        "dob": "blk",
        "age": "38",
        "place_of_birth": "aberystwyth",
        "home_address": "blk",
        "f": "blk",
        "name_of_ship": "primrose",
        "ship_port": "aberystwyth",
        "date_leaving": "1867-12-31",
        "joined_ship_date": "1868-01-01",
        "joined_at_port": "preston",
        "capacity": "master",
        "date_left": "1868-07-30",
        "left_port": "aberystwyth",
        "cause_of_leaving": "remains on board",
        "sign_with_mark": "n",
        "notes": "blk"
    },
    {
        "id": "vtls004940852_0_12",
        "type": "sailor",
        "parent": "vtls004940852",
        "name": "john jenkins",
        "dob": "blk",
        "age": "32",
        "place_of_birth": "aberystwyth",
        "home_address": "blk",
        "f": "blk",
        "name_of_ship": "primrose",
        "ship_port": "aberystwyth",
        "date_leaving": "1867-12-31",
        "joined_ship_date": "1868-01-01",
        "joined_at_port": "preston",
        "capacity": "mate",
        "date_left": "1868-05-01",
        "left_port": "aberystwyth",
        "cause_of_leaving": "discharged",
        "sign_with_mark": "n",
        "notes": "blk"
    },
    {
        "id": "vtls004940861_1_11",
        "type": "sailor",
        "parent": "vtls004940861",
        "name": "james jones",
        "dob": "blk",
        "age": "39",
        "place_of_birth": "aberystwyth",
        "home_address": "blk",
        "f": "blk",
        "name_of_ship": "primrose",
        "ship_port": "aberystwyth",
        "date_leaving": "remained",
        "joined_ship_date": "1870-06-30",
        "joined_at_port": "aberystwyth",
        "capacity": "master",
        "date_left": "1870-11-28",
        "left_port": "newquay",
        "cause_of_leaving": "discharged",
        "sign_with_mark": "n",
        "notes": "whilst on voyage from bridgewater to belfast on 28th november 1870, the vessel was lost 7 miles off aberystwyth head. the crew were saved."
    },
    {
        "id": "vtls004940861_0_13",
        "type": "sailor",
        "parent": "vtls004940861",
        "name": "david doughton",
        "dob": "blk",
        "age": "17",
        "place_of_birth": "aberystwyth",
        "home_address": "blk",
        "f": "blk",
        "name_of_ship": "primrose",
        "ship_port": "aberystwyth",
        "date_leaving": "1869-12-31",
        "joined_ship_date": "1870-01-01",
        "joined_at_port": "aberdovey",
        "capacity": "ordinary seaman",
        "date_left": "1870-07-02",
        "left_port": "aberystwyth",
        "cause_of_leaving": "discharged",
        "sign_with_mark": "n",
        "notes": "blk"
    },
    {
        "id": "vtls004940861_0_11",
        "type": "sailor",
        "parent": "vtls004940861",
        "name": "james jones",
        "dob": "blk",
        "age": "37",
        "place_of_birth": "aberystwyth",
        "home_address": "blk",
        "f": "blk",
        "name_of_ship": "primrose",
        "ship_port": "aberystwyth",
        "date_leaving": "1869-12-31",
        "joined_ship_date": "1870-01-01",
        "joined_at_port": "aberdovey",
        "capacity": "master",
        "date_left": "1870-07-01",
        "left_port": "aberystwyth",
        "cause_of_leaving": "remains on board",
        "sign_with_mark": "n",
        "notes": "blk"
    },
    {
        "id": "vtls004940861_1_13",
        "type": "sailor",
        "parent": "vtls004940861",
        "name": "david evans",
        "dob": "blk",
        "age": "18",
        "place_of_birth": "borth",
        "home_address": "blk",
        "f": "blk",
        "name_of_ship": "mary jane",
        "ship_port": "aberystwyth",
        "date_leaving": "unknown",
        "joined_ship_date": "1870-07-01",
        "joined_at_port": "aberystwyth",
        "capacity": "ordinary seaman",
        "date_left": "1870-11-28",
        "left_port": "newquay",
        "cause_of_leaving": "discharged",
        "sign_with_mark": "n",
        "notes": "blk"
    },
    {
        "id": "vtls004940861_0_12",
        "type": "sailor",
        "parent": "vtls004940861",
        "name": "william williams",
        "dob": "blk",
        "age": "42",
        "place_of_birth": "aberystwyth",
        "home_address": "blk",
        "f": "blk",
        "name_of_ship": "primrose",
        "ship_port": "aberystwyth",
        "date_leaving": "1869-12-31",
        "joined_ship_date": "1870-01-01",
        "joined_at_port": "aberdovey",
        "capacity": "mate",
        "date_left": "1870-07-08",
        "left_port": "aberystwyth",
        "cause_of_leaving": "discharged",
        "sign_with_mark": "n",
        "notes": "blk"
    },
    {
        "id": "vtls004940861_1_12",
        "type": "sailor",
        "parent": "vtls004940861",
        "name": "james daniel",
        "dob": "blk",
        "age": "25",
        "place_of_birth": "aberystwyth",
        "home_address": "blk",
        "f": "blk",
        "name_of_ship": "friendship",
        "ship_port": "aberystwyth",
        "date_leaving": "unknown",
        "joined_ship_date": "1870-07-01",
        "joined_at_port": "aberystwyth",
        "capacity": "mate",
        "date_left": "1870-11-28",
        "left_port": "newquay",
        "cause_of_leaving": "discharged",
        "sign_with_mark": "n",
        "notes": "blk"
    }
]