[
    {
        "id": "vtls004629719_0_11",
        "type": "sailor",
        "parent": "vtls004629719",
        "name": "thomas $ black",
        "dob": "blk",
        "age": "27",
        "place_of_birth": "kipford",
        "home_address": "blk",
        "f": "blk",
        "name_of_ship": "volador",
        "ship_port": "ayr",
        "date_leaving": "blk",
        "joined_ship_date": "1887-05-16",
        "joined_at_port": "north shiels",
        "capacity": "master",
        "date_left": "blk",
        "left_port": "blk",
        "cause_of_leaving": "remains on board",
        "sign_with_mark": "n",
        "notes": "blk"
    },
    {
        "id": "vtls004629719_0_17",
        "type": "sailor",
        "parent": "vtls004629719",
        "name": "john russell",
        "dob": "blk",
        "age": "21",
        "place_of_birth": "bay newfoundland",
        "home_address": "blk",
        "f": "blk",
        "name_of_ship": "blk",
        "ship_port": "bay newfoundland",
        "date_leaving": "blk",
        "joined_ship_date": "1887-11-28",
        "joined_at_port": "bay newfoundland",
        "capacity": "ordinary seaman",
        "date_left": "1888-05-11",
        "left_port": "blk",
        "cause_of_leaving": "discharged",
        "sign_with_mark": "n",
        "notes": "blk"
    },
    {
        "id": "vtls004629719_1_12",
        "type": "sailor",
        "parent": "vtls004629719",
        "name": "john russell",
        "dob": "1866",
        "age": "blk",
        "place_of_birth": "bey roberts",
        "home_address": "blk",
        "f": "blk",
        "name_of_ship": "blue & white",
        "ship_port": "aberystwyth",
        "date_leaving": "blk",
        "joined_ship_date": "1888-05-11",
        "joined_at_port": "kibush",
        "capacity": "ordinary seaman",
        "date_left": "blk",
        "left_port": "blk",
        "cause_of_leaving": "remains on board",
        "sign_with_mark": "n",
        "notes": "blk"
    },
    {
        "id": "vtls004629719_1_13",
        "type": "sailor",
        "parent": "vtls004629719",
        "name": "george black",
        "dob": "1871",
        "age": "blk",
        "place_of_birth": "dumfries",
        "home_address": "blk",
        "f": "blk",
        "name_of_ship": "blue & white",
        "ship_port": "aberystwyth",
        "date_leaving": "blk",
        "joined_ship_date": "1888-05-11",
        "joined_at_port": "kibush",
        "capacity": "ordinary seaman",
        "date_left": "1888-06-10",
        "left_port": "ayr",
        "cause_of_leaving": "discharged",
        "sign_with_mark": "n",
        "notes": "blk"
    },
    {
        "id": "vtls004629719_1_14",
        "type": "sailor",
        "parent": "vtls004629719",
        "name": "patrick murphy",
        "dob": "1867",
        "age": "blk",
        "place_of_birth": "carlingford",
        "home_address": "blk",
        "f": "blk",
        "name_of_ship": "maid of honour",
        "ship_port": "blk",
        "date_leaving": "blk",
        "joined_ship_date": "1888-05-14",
        "joined_at_port": "kibush",
        "capacity": "ordinary seaman",
        "date_left": "1888-06-10",
        "left_port": "ayr",
        "cause_of_leaving": "discharged",
        "sign_with_mark": "n",
        "notes": "blk"
    },
    {
        "id": "vtls004629719_1_11",
        "type": "sailor",
        "parent": "vtls004629719",
        "name": "thomas c black",
        "dob": "1860",
        "age": "blk",
        "place_of_birth": "kirkendbright",
        "home_address": "blk",
        "f": "blk",
        "name_of_ship": "blue & white",
        "ship_port": "aberystwyth",
        "date_leaving": "blk",
        "joined_ship_date": "1888-05-11",
        "joined_at_port": "kibush",
        "capacity": "master",
        "date_left": "1888-06-12",
        "left_port": "ayr",
        "cause_of_leaving": "discharged",
        "sign_with_mark": "n",
        "notes": "blk"
    },
    {
        "id": "vtls004629719_0_16",
        "type": "sailor",
        "parent": "vtls004629719",
        "name": "george black",
        "dob": "blk",
        "age": "16",
        "place_of_birth": "dumfries",
        "home_address": "blk",
        "f": "blk",
        "name_of_ship": "importer",
        "ship_port": "dumfries",
        "date_leaving": "blk",
        "joined_ship_date": "1887-05-16",
        "joined_at_port": "north shiels",
        "capacity": "ordinary seaman",
        "date_left": "1888-05-11",
        "left_port": "blk",
        "cause_of_leaving": "discharged",
        "sign_with_mark": "n",
        "notes": "blk"
    },
    {
        "id": "vtls004629719_0_13",
        "type": "sailor",
        "parent": "vtls004629719",
        "name": "peter svensen",
        "dob": "blk",
        "age": "24",
        "place_of_birth": "copenhagen",
        "home_address": "blk",
        "f": "blk",
        "name_of_ship": "ocean",
        "ship_port": "dumfries",
        "date_leaving": "blk",
        "joined_ship_date": "1887-05-16",
        "joined_at_port": "north shiels",
        "capacity": "cook & seaman",
        "date_left": "1888-05-11",
        "left_port": "blk",
        "cause_of_leaving": "discharged",
        "sign_with_mark": "n",
        "notes": "blk"
    },
    {
        "id": "vtls004629719_0_14",
        "type": "sailor",
        "parent": "vtls004629719",
        "name": "john mcmartez",
        "dob": "blk",
        "age": "20",
        "place_of_birth": "dumfries",
        "home_address": "blk",
        "f": "blk",
        "name_of_ship": "john james",
        "ship_port": "blk",
        "date_leaving": "blk",
        "joined_ship_date": "1887-05-16",
        "joined_at_port": "north shiels",
        "capacity": "able seaman",
        "date_left": "1888-05-11",
        "left_port": "blk",
        "cause_of_leaving": "discharged",
        "sign_with_mark": "n",
        "notes": "blk"
    },
    {
        "id": "vtls004629719_0_15",
        "type": "sailor",
        "parent": "vtls004629719",
        "name": "ole petersen",
        "dob": "blk",
        "age": "33",
        "place_of_birth": "norway",
        "home_address": "blk",
        "f": "blk",
        "name_of_ship": "foreign",
        "ship_port": "blk",
        "date_leaving": "blk",
        "joined_ship_date": "1887-05-16",
        "joined_at_port": "north shiels",
        "capacity": "able seaman",
        "date_left": "1887-11-03",
        "left_port": "blk",
        "cause_of_leaving": "mutual consent",
        "sign_with_mark": "n",
        "notes": "blk"
    },
    {
        "id": "vtls004629719_0_12",
        "type": "sailor",
        "parent": "vtls004629719",
        "name": "john j crowthus",
        "dob": "blk",
        "age": "42",
        "place_of_birth": "$$onhead",
        "home_address": "blk",
        "f": "blk",
        "name_of_ship": "emily",
        "ship_port": "banff",
        "date_leaving": "blk",
        "joined_ship_date": "1887-05-16",
        "joined_at_port": "north shiels",
        "capacity": "mate",
        "date_left": "1888-05-11",
        "left_port": "blk",
        "cause_of_leaving": "discharged",
        "sign_with_mark": "n",
        "notes": "blk"
    },
    {
        "id": "vtls004629719_2_13",
        "type": "sailor",
        "parent": "vtls004629719",
        "name": "john russell",
        "dob": "blk",
        "age": "22",
        "place_of_birth": "newfoundland",
        "home_address": "blk",
        "f": "blk",
        "name_of_ship": "blue & white",
        "ship_port": "aberystwyth",
        "date_leaving": "1888",
        "joined_ship_date": "1888-07-19",
        "joined_at_port": "ayr",
        "capacity": "ordinary seaman",
        "date_left": "1888-12",
        "left_port": "blk",
        "cause_of_leaving": "blk",
        "sign_with_mark": "blk",
        "notes": "blk"
    },
    {
        "id": "vtls004629719_2_14",
        "type": "sailor",
        "parent": "vtls004629719",
        "name": "david lewis",
        "dob": "blk",
        "age": "18",
        "place_of_birth": "borth",
        "home_address": "blk",
        "f": "blk",
        "name_of_ship": "dovey bell",
        "ship_port": "aberystwyth",
        "date_leaving": "1888",
        "joined_ship_date": "1888-07-19",
        "joined_at_port": "ayr",
        "capacity": "ordinary seaman",
        "date_left": "1888-12",
        "left_port": "blk",
        "cause_of_leaving": "blk",
        "sign_with_mark": "blk",
        "notes": "blk"
    },
    {
        "id": "vtls004629719_2_11",
        "type": "sailor",
        "parent": "vtls004629719",
        "name": "richard davies",
        "dob": "blk",
        "age": "44",
        "place_of_birth": "borth",
        "home_address": "blk",
        "f": "blk",
        "name_of_ship": "start point ss",
        "ship_port": "liverpool",
        "date_leaving": "1888",
        "joined_ship_date": "1888-07-19",
        "joined_at_port": "ayr",
        "capacity": "master",
        "date_left": "1888-12",
        "left_port": "at sea",
        "cause_of_leaving": "blk",
        "sign_with_mark": "blk",
        "notes": "blk"
    },
    {
        "id": "vtls004629719_2_16",
        "type": "sailor",
        "parent": "vtls004629719",
        "name": "william jenkins",
        "dob": "blk",
        "age": "29",
        "place_of_birth": "borth",
        "home_address": "blk",
        "f": "blk",
        "name_of_ship": "ss minna",
        "ship_port": "liverpool",
        "date_leaving": "1888",
        "joined_ship_date": "1888-07-19",
        "joined_at_port": "ayr",
        "capacity": "able seaman",
        "date_left": "1888-12",
        "left_port": "blk",
        "cause_of_leaving": "blk",
        "sign_with_mark": "blk",
        "notes": "blk"
    },
    {
        "id": "vtls004629719_1_15",
        "type": "sailor",
        "parent": "vtls004629719",
        "name": "john duinlivan",
        "dob": "1856",
        "age": "blk",
        "place_of_birth": "kibush",
        "home_address": "blk",
        "f": "blk",
        "name_of_ship": "argylshire",
        "ship_port": "blk",
        "date_leaving": "blk",
        "joined_ship_date": "1888-05-18",
        "joined_at_port": "kibush",
        "capacity": "mate",
        "date_left": "1888-05-24",
        "left_port": "ayr",
        "cause_of_leaving": "discharged",
        "sign_with_mark": "n",
        "notes": "blk"
    },
    {
        "id": "vtls004629719_2_15",
        "type": "sailor",
        "parent": "vtls004629719",
        "name": "william john hughes",
        "dob": "blk",
        "age": "17",
        "place_of_birth": "borth",
        "home_address": "blk",
        "f": "blk",
        "name_of_ship": "crusader",
        "ship_port": "aberystwyth",
        "date_leaving": "1888",
        "joined_ship_date": "1888-07-19",
        "joined_at_port": "ayr",
        "capacity": "cook",
        "date_left": "1888-12",
        "left_port": "blk",
        "cause_of_leaving": "blk",
        "sign_with_mark": "blk",
        "notes": "blk"
    },
    {
        "id": "vtls004629719_2_12",
        "type": "sailor",
        "parent": "vtls004629719",
        "name": "john hughes",
        "dob": "blk",
        "age": "66",
        "place_of_birth": "borth",
        "home_address": "blk",
        "f": "blk",
        "name_of_ship": "picton",
        "ship_port": "carnarvon",
        "date_leaving": "1888",
        "joined_ship_date": "1888-07-19",
        "joined_at_port": "ayr",
        "capacity": "mate",
        "date_left": "1888-12",
        "left_port": "blk",
        "cause_of_leaving": "blk",
        "sign_with_mark": "blk",
        "notes": "blk"
    }
]