[
    {
        "id": "vtls004573099_0_13",
        "type": "sailor",
        "parent": "vtls004573099",
        "name": "rowland lewis",
        "dob": "blk",
        "age": "24",
        "place_of_birth": "amlwch",
        "home_address": "blk",
        "f": "blk",
        "name_of_ship": "omnibus",
        "ship_port": "aberystwyth",
        "date_leaving": "1863-11-23",
        "joined_ship_date": "1863-11-23",
        "joined_at_port": "whitehaven",
        "capacity": "able seaman",
        "date_left": "1864-02-25",
        "left_port": "antwerp",
        "cause_of_leaving": "discharged",
        "sign_with_mark": "n",
        "notes": "blk"
    },
    {
        "id": "vtls004573099_0_12",
        "type": "sailor",
        "parent": "vtls004573099",
        "name": "john jones",
        "dob": "blk",
        "age": "27",
        "place_of_birth": "holyhead",
        "home_address": "blk",
        "f": "blk",
        "name_of_ship": "royal [william]",
        "ship_port": "blk",
        "date_leaving": "1863-11-20",
        "joined_ship_date": "1863-11-23",
        "joined_at_port": "whitehaven",
        "capacity": "mate",
        "date_left": "1864-02-25",
        "left_port": "antwerp",
        "cause_of_leaving": "discharged",
        "sign_with_mark": "n",
        "notes": "blk"
    },
    {
        "id": "vtls004573099_0_11",
        "type": "sailor",
        "parent": "vtls004573099",
        "name": "john evans",
        "dob": "blk",
        "age": "29",
        "place_of_birth": "aberystwyth",
        "home_address": "blk",
        "f": "blk",
        "name_of_ship": "omnibus",
        "ship_port": "aberystwyth",
        "date_leaving": "1863-11-23",
        "joined_ship_date": "1863-11-23",
        "joined_at_port": "whitehaven",
        "capacity": "master",
        "date_left": "blk",
        "left_port": "blk",
        "cause_of_leaving": "remains",
        "sign_with_mark": "n",
        "notes": "blk"
    },
    {
        "id": "vtls004573099_0_14",
        "type": "sailor",
        "parent": "vtls004573099",
        "name": "james cockecton",
        "dob": "blk",
        "age": "21",
        "place_of_birth": "wisbeach",
        "home_address": "blk",
        "f": "blk",
        "name_of_ship": "omnibus",
        "ship_port": "aberystwyth",
        "date_leaving": "1863-11-23",
        "joined_ship_date": "1863-11-23",
        "joined_at_port": "whitehaven",
        "capacity": "ordinary seaman",
        "date_left": "1864-02-25",
        "left_port": "antwerp",
        "cause_of_leaving": "discharged",
        "sign_with_mark": "n",
        "notes": "blk"
    },
    {
        "id": "vtls004573099_0_16",
        "type": "sailor",
        "parent": "vtls004573099",
        "name": "william fizjeurene",
        "dob": "blk",
        "age": "44",
        "place_of_birth": "westhoefebe",
        "home_address": "blk",
        "f": "blk",
        "name_of_ship": "[galeiopp]",
        "ship_port": "blk",
        "date_leaving": "1864-03-01",
        "joined_ship_date": "1864-03-14",
        "joined_at_port": "antwerp",
        "capacity": "mate",
        "date_left": "1864-06-02",
        "left_port": "antwerp",
        "cause_of_leaving": "discharged",
        "sign_with_mark": "n",
        "notes": "blk"
    },
    {
        "id": "vtls004573099_0_20",
        "type": "sailor",
        "parent": "vtls004573099",
        "name": "john frazer",
        "dob": "blk",
        "age": "27",
        "place_of_birth": "cape breton, canada",
        "home_address": "blk",
        "f": "blk",
        "name_of_ship": "wearmouth",
        "ship_port": "aberystwyth",
        "date_leaving": "1864-06-18",
        "joined_ship_date": "1864-06-20",
        "joined_at_port": "antwerp",
        "capacity": "mate",
        "date_left": "1864-07-28",
        "left_port": "cardiff",
        "cause_of_leaving": "discharged",
        "sign_with_mark": "n",
        "notes": "blk"
    },
    {
        "id": "vtls004573099_0_19",
        "type": "sailor",
        "parent": "vtls004573099",
        "name": "richard jones",
        "dob": "blk",
        "age": "19",
        "place_of_birth": "holyhead",
        "home_address": "blk",
        "f": "blk",
        "name_of_ship": "omnibus",
        "ship_port": "aberystwyth",
        "date_leaving": "continued",
        "joined_ship_date": "blk",
        "joined_at_port": "blk",
        "capacity": "ordinary seaman",
        "date_left": "1864-06-02",
        "left_port": "antwerp",
        "cause_of_leaving": "discharged",
        "sign_with_mark": "n",
        "notes": "blk"
    },
    {
        "id": "vtls004573099_0_23",
        "type": "sailor",
        "parent": "vtls004573099",
        "name": "a blan loorwen",
        "dob": "blk",
        "age": "17",
        "place_of_birth": "belgium",
        "home_address": "blk",
        "f": "blk",
        "name_of_ship": "cuslin",
        "ship_port": "blk",
        "date_leaving": "1864-06-18",
        "joined_ship_date": "1864-06-20",
        "joined_at_port": "antwerp",
        "capacity": "ordinary seaman",
        "date_left": "did not join",
        "left_port": "blk",
        "cause_of_leaving": "deserted",
        "sign_with_mark": "n",
        "notes": "blk"
    },
    {
        "id": "vtls004573099_0_15",
        "type": "sailor",
        "parent": "vtls004573099",
        "name": "richard jones",
        "dob": "blk",
        "age": "19",
        "place_of_birth": "holyhead",
        "home_address": "blk",
        "f": "blk",
        "name_of_ship": "first voyage",
        "ship_port": "blk",
        "date_leaving": "1863-11-23",
        "joined_ship_date": "1863-11-23",
        "joined_at_port": "whitehaven",
        "capacity": "boy",
        "date_left": "1864-03-27",
        "left_port": "antwerp",
        "cause_of_leaving": "discharged",
        "sign_with_mark": "n",
        "notes": "blk"
    },
    {
        "id": "vtls004573099_0_17",
        "type": "sailor",
        "parent": "vtls004573099",
        "name": "henry tusem",
        "dob": "blk",
        "age": "27",
        "place_of_birth": "antwerp",
        "home_address": "blk",
        "f": "blk",
        "name_of_ship": "[dempsey]",
        "ship_port": "blk",
        "date_leaving": "1863-12",
        "joined_ship_date": "1864-03-28",
        "joined_at_port": "antwerp",
        "capacity": "able seaman",
        "date_left": "1864-06-02",
        "left_port": "antwerp",
        "cause_of_leaving": "discharged",
        "sign_with_mark": "n",
        "notes": "blk"
    },
    {
        "id": "vtls004573099_0_18",
        "type": "sailor",
        "parent": "vtls004573099",
        "name": "joseph adams",
        "dob": "blk",
        "age": "31",
        "place_of_birth": "antwerp",
        "home_address": "blk",
        "f": "blk",
        "name_of_ship": "[dempsey]",
        "ship_port": "blk",
        "date_leaving": "1863-12",
        "joined_ship_date": "1864-03-28",
        "joined_at_port": "antwerp",
        "capacity": "able seaman",
        "date_left": "1864-06-02",
        "left_port": "antwerp",
        "cause_of_leaving": "discharged",
        "sign_with_mark": "n",
        "notes": "blk"
    },
    {
        "id": "vtls004573099_0_22",
        "type": "sailor",
        "parent": "vtls004573099",
        "name": "john lloyd",
        "dob": "blk",
        "age": "24",
        "place_of_birth": "wales",
        "home_address": "blk",
        "f": "blk",
        "name_of_ship": "wearmouth",
        "ship_port": "blk",
        "date_leaving": "1864-06-18",
        "joined_ship_date": "1864-06-20",
        "joined_at_port": "antwerp",
        "capacity": "able seaman",
        "date_left": "1864-07-28",
        "left_port": "cardiff",
        "cause_of_leaving": "discharged",
        "sign_with_mark": "n",
        "notes": "blk"
    },
    {
        "id": "vtls004573099_0_21",
        "type": "sailor",
        "parent": "vtls004573099",
        "name": "martin coller",
        "dob": "blk",
        "age": "21",
        "place_of_birth": "slesnig",
        "home_address": "blk",
        "f": "blk",
        "name_of_ship": "anna marie",
        "ship_port": "blk",
        "date_leaving": "1864-06-18",
        "joined_ship_date": "1864-06-20",
        "joined_at_port": "antwerp",
        "capacity": "able seaman",
        "date_left": "blk",
        "left_port": "blk",
        "cause_of_leaving": "remains",
        "sign_with_mark": "n",
        "notes": "blk"
    },
    {
        "id": "vtls004573099_1_14",
        "type": "sailor",
        "parent": "vtls004573099",
        "name": "martin collor",
        "dob": "blk",
        "age": "20",
        "place_of_birth": "schleswig",
        "home_address": "blk",
        "f": "blk",
        "name_of_ship": "omnibus",
        "ship_port": "aberystwyth",
        "date_leaving": "1864-06-30",
        "joined_ship_date": "1864-07-01",
        "joined_at_port": "cardiff",
        "capacity": "able seaman",
        "date_left": "1864-09-27",
        "left_port": "dublin",
        "cause_of_leaving": "discharged",
        "sign_with_mark": "n",
        "notes": "blk"
    },
    {
        "id": "vtls004573099_1_12",
        "type": "sailor",
        "parent": "vtls004573099",
        "name": "richard edwards",
        "dob": "blk",
        "age": "21",
        "place_of_birth": "aberystwyth",
        "home_address": "blk",
        "f": "blk",
        "name_of_ship": "sarah phillips",
        "ship_port": "aberporth",
        "date_leaving": "1864-07-18",
        "joined_ship_date": "1864-07-25",
        "joined_at_port": "cardiff",
        "capacity": "mate",
        "date_left": "1864-12-31",
        "left_port": "plymouth",
        "cause_of_leaving": "remains",
        "sign_with_mark": "n",
        "notes": "blk"
    },
    {
        "id": "vtls004573099_1_13",
        "type": "sailor",
        "parent": "vtls004573099",
        "name": "evan rice",
        "dob": "blk",
        "age": "22",
        "place_of_birth": "aberystwyth",
        "home_address": "blk",
        "f": "blk",
        "name_of_ship": "laura & [isabele]",
        "ship_port": "barry",
        "date_leaving": "1864-07-16",
        "joined_ship_date": "1864-07-25",
        "joined_at_port": "cardiff",
        "capacity": "able seaman",
        "date_left": "1864-12-31",
        "left_port": "plymouth",
        "cause_of_leaving": "remains",
        "sign_with_mark": "n",
        "notes": "blk"
    },
    {
        "id": "vtls004573099_1_11",
        "type": "sailor",
        "parent": "vtls004573099",
        "name": "john evans",
        "dob": "blk",
        "age": "30",
        "place_of_birth": "aberystwyth",
        "home_address": "blk",
        "f": "blk",
        "name_of_ship": "omnibus",
        "ship_port": "aberystwyth",
        "date_leaving": "1864-06-30",
        "joined_ship_date": "1864-07-01",
        "joined_at_port": "cardiff",
        "capacity": "master",
        "date_left": "1864-12-31",
        "left_port": "plymouth",
        "cause_of_leaving": "remains",
        "sign_with_mark": "n",
        "notes": "blk"
    },
    {
        "id": "vtls004573101_0_12",
        "type": "sailor",
        "parent": "vtls004573101",
        "name": "thomas ferris",
        "dob": "blk",
        "age": "50",
        "place_of_birth": "exeter",
        "home_address": "blk",
        "f": "blk",
        "name_of_ship": "nestor",
        "ship_port": "bideford",
        "date_leaving": "1865-09-13",
        "joined_ship_date": "1865-09-25",
        "joined_at_port": "swansea",
        "capacity": "mate",
        "date_left": "1866-01-20",
        "left_port": "gloucestershire",
        "cause_of_leaving": "paid off",
        "sign_with_mark": "n",
        "notes": "blk"
    },
    {
        "id": "vtls004573099_1_15",
        "type": "sailor",
        "parent": "vtls004573099",
        "name": "owen thomas",
        "dob": "blk",
        "age": "18",
        "place_of_birth": "varmick",
        "home_address": "blk",
        "f": "blk",
        "name_of_ship": "first ship",
        "ship_port": "blk",
        "date_leaving": "blk",
        "joined_ship_date": "1864-07-01",
        "joined_at_port": "cardiff",
        "capacity": "boy & cook",
        "date_left": "1864-12-31",
        "left_port": "plymouth",
        "cause_of_leaving": "remains",
        "sign_with_mark": "n",
        "notes": "blk"
    },
    {
        "id": "vtls004573101_0_11",
        "type": "sailor",
        "parent": "vtls004573101",
        "name": "john evans",
        "dob": "blk",
        "age": "54",
        "place_of_birth": "aberystwyth",
        "home_address": "blk",
        "f": "blk",
        "name_of_ship": "omnibus",
        "ship_port": "aberystwyth",
        "date_leaving": "continued",
        "joined_ship_date": "1865-09-23",
        "joined_at_port": "swansea",
        "capacity": "master",
        "date_left": "blk",
        "left_port": "blk",
        "cause_of_leaving": "continued",
        "sign_with_mark": "n",
        "notes": "blk"
    },
    {
        "id": "vtls004573101_0_14",
        "type": "sailor",
        "parent": "vtls004573101",
        "name": "andrew harding",
        "dob": "blk",
        "age": "18",
        "place_of_birth": "whitehaven",
        "home_address": "blk",
        "f": "blk",
        "name_of_ship": "east salem",
        "ship_port": "[north shields]",
        "date_leaving": "1865-08-12",
        "joined_ship_date": "1865-09-25",
        "joined_at_port": "swansea",
        "capacity": "ordinary seaman",
        "date_left": "1866-01-20",
        "left_port": "gloucestershire",
        "cause_of_leaving": "paid off",
        "sign_with_mark": "y",
        "notes": "blk"
    },
    {
        "id": "vtls004573101_0_15",
        "type": "sailor",
        "parent": "vtls004573101",
        "name": "richard hockney",
        "dob": "blk",
        "age": "29",
        "place_of_birth": "plymouth",
        "home_address": "blk",
        "f": "blk",
        "name_of_ship": "larua rose",
        "ship_port": "liverpool",
        "date_leaving": "1865-09-15",
        "joined_ship_date": "1865-09-25",
        "joined_at_port": "swansea",
        "capacity": "able seaman",
        "date_left": "1866-01-20",
        "left_port": "gloucestershire",
        "cause_of_leaving": "paid off",
        "sign_with_mark": "y",
        "notes": "blk"
    },
    {
        "id": "vtls004573101_0_13",
        "type": "sailor",
        "parent": "vtls004573101",
        "name": "frederick gray",
        "dob": "blk",
        "age": "17",
        "place_of_birth": "birmingham",
        "home_address": "blk",
        "f": "blk",
        "name_of_ship": "omnibus",
        "ship_port": "aberystwyth",
        "date_leaving": "continued",
        "joined_ship_date": "1865-09-25",
        "joined_at_port": "swansea",
        "capacity": "boy",
        "date_left": "1866-01-20",
        "left_port": "gloucestershire",
        "cause_of_leaving": "paid off",
        "sign_with_mark": "y",
        "notes": "blk"
    },
    {
        "id": "vtls004573101_1_15",
        "type": "sailor",
        "parent": "vtls004573101",
        "name": "charles santher",
        "dob": "blk",
        "age": "44",
        "place_of_birth": "london",
        "home_address": "blk",
        "f": "blk",
        "name_of_ship": "iona",
        "ship_port": "pictou",
        "date_leaving": "1866-04-20",
        "joined_ship_date": "1866-05-01",
        "joined_at_port": "cardiff",
        "capacity": "able seaman",
        "date_left": "1866-08-09",
        "left_port": "ipswich",
        "cause_of_leaving": "paid off",
        "sign_with_mark": "n",
        "notes": "blk"
    },
    {
        "id": "vtls004573101_1_14",
        "type": "sailor",
        "parent": "vtls004573101",
        "name": "george hill",
        "dob": "blk",
        "age": "25",
        "place_of_birth": "bristol",
        "home_address": "blk",
        "f": "blk",
        "name_of_ship": "eliza",
        "ship_port": "bristol",
        "date_leaving": "1866-04-25",
        "joined_ship_date": "1866-04-27",
        "joined_at_port": "cardiff",
        "capacity": "able seaman",
        "date_left": "1866-08-09",
        "left_port": "ipswich",
        "cause_of_leaving": "paid off",
        "sign_with_mark": "n",
        "notes": "blk"
    },
    {
        "id": "vtls004573101_1_13",
        "type": "sailor",
        "parent": "vtls004573101",
        "name": "william gastawy",
        "dob": "blk",
        "age": "20",
        "place_of_birth": "greenock",
        "home_address": "blk",
        "f": "blk",
        "name_of_ship": "paragon",
        "ship_port": "greenock",
        "date_leaving": "1865",
        "joined_ship_date": "1866-04-27",
        "joined_at_port": "cardiff",
        "capacity": "able seaman",
        "date_left": "blk",
        "left_port": "blk",
        "cause_of_leaving": "never joined",
        "sign_with_mark": "n",
        "notes": "blk"
    },
    {
        "id": "vtls004935380_0_11",
        "type": "sailor",
        "parent": "vtls004935380",
        "name": "john evans",
        "dob": "blk",
        "age": "56",
        "place_of_birth": "aberystwyth",
        "home_address": "blk",
        "f": "blk",
        "name_of_ship": "omnibus",
        "ship_port": "aberystwyth",
        "date_leaving": "continued",
        "joined_ship_date": "blk",
        "joined_at_port": "blk",
        "capacity": "master",
        "date_left": "blk",
        "left_port": "blk",
        "cause_of_leaving": "remains",
        "sign_with_mark": "n",
        "notes": "account for jan - june 1867"
    },
    {
        "id": "vtls004573101_1_12",
        "type": "sailor",
        "parent": "vtls004573101",
        "name": "john jones",
        "dob": "blk",
        "age": "22",
        "place_of_birth": "aberaeron",
        "home_address": "blk",
        "f": "blk",
        "name_of_ship": "[bandind]",
        "ship_port": "blk",
        "date_leaving": "1865",
        "joined_ship_date": "1866-04-27",
        "joined_at_port": "cardiff",
        "capacity": "boatswain",
        "date_left": "1866-08-06",
        "left_port": "ipswich",
        "cause_of_leaving": "paid off",
        "sign_with_mark": "n",
        "notes": "blk"
    },
    {
        "id": "vtls004573101_1_11",
        "type": "sailor",
        "parent": "vtls004573101",
        "name": "thomas ferris",
        "dob": "blk",
        "age": "63",
        "place_of_birth": "exeter",
        "home_address": "blk",
        "f": "blk",
        "name_of_ship": "omnibus",
        "ship_port": "aberystwyth",
        "date_leaving": "continued",
        "joined_ship_date": "1866-04-27",
        "joined_at_port": "cardiff",
        "capacity": "master",
        "date_left": "blk",
        "left_port": "blk",
        "cause_of_leaving": "remains",
        "sign_with_mark": "n",
        "notes": "blk"
    },
    {
        "id": "vtls004935380_1_12",
        "type": "sailor",
        "parent": "vtls004935380",
        "name": "jeremiah jackson",
        "dob": "blk",
        "age": "28",
        "place_of_birth": "fleetwood",
        "home_address": "blk",
        "f": "blk",
        "name_of_ship": "omnibus",
        "ship_port": "aberystwyth",
        "date_leaving": "1867-06-30",
        "joined_ship_date": "1867-07-01",
        "joined_at_port": "caernarvon",
        "capacity": "mate",
        "date_left": "1867-09-18",
        "left_port": "fraserburgh",
        "cause_of_leaving": "discharged",
        "sign_with_mark": "n",
        "notes": "blk"
    },
    {
        "id": "vtls004935380_1_13",
        "type": "sailor",
        "parent": "vtls004935380",
        "name": "robert roberts",
        "dob": "blk",
        "age": "21",
        "place_of_birth": "caernarfon",
        "home_address": "blk",
        "f": "blk",
        "name_of_ship": "omnibus",
        "ship_port": "aberystwyth",
        "date_leaving": "1867-06-30",
        "joined_ship_date": "1867-07-01",
        "joined_at_port": "caernarvon",
        "capacity": "seaman",
        "date_left": "1867-09-18",
        "left_port": "fraserburgh",
        "cause_of_leaving": "discharged",
        "sign_with_mark": "n",
        "notes": "blk"
    },
    {
        "id": "vtls004935380_1_14",
        "type": "sailor",
        "parent": "vtls004935380",
        "name": "robert roberts",
        "dob": "blk",
        "age": "21",
        "place_of_birth": "caernarfon",
        "home_address": "blk",
        "f": "blk",
        "name_of_ship": "omnibus",
        "ship_port": "aberystwyth",
        "date_leaving": "1867-09-18",
        "joined_ship_date": "1867-09-19",
        "joined_at_port": "fraserburgh",
        "capacity": "mate",
        "date_left": "1867-11-05",
        "left_port": "cuxhaven, germany",
        "cause_of_leaving": "discharged",
        "sign_with_mark": "n",
        "notes": "blk"
    },
    {
        "id": "vtls004935380_1_15",
        "type": "sailor",
        "parent": "vtls004935380",
        "name": "john downie",
        "dob": "blk",
        "age": "23",
        "place_of_birth": "fraserbergh",
        "home_address": "blk",
        "f": "blk",
        "name_of_ship": "william bartlett",
        "ship_port": "blk",
        "date_leaving": "1867-08-12",
        "joined_ship_date": "1867-09-19",
        "joined_at_port": "fraserburgh",
        "capacity": "seaman",
        "date_left": "blk",
        "left_port": "blk",
        "cause_of_leaving": "remaining",
        "sign_with_mark": "n",
        "notes": "blk"
    },
    {
        "id": "vtls004935380_1_11",
        "type": "sailor",
        "parent": "vtls004935380",
        "name": "john evans",
        "dob": "blk",
        "age": "56",
        "place_of_birth": "aberystwyth",
        "home_address": "blk",
        "f": "blk",
        "name_of_ship": "omnibus",
        "ship_port": "aberystwyth",
        "date_leaving": "1867-06-30",
        "joined_ship_date": "1867-07-01",
        "joined_at_port": "caernarvon",
        "capacity": "master",
        "date_left": "blk",
        "left_port": "blk",
        "cause_of_leaving": "remaining",
        "sign_with_mark": "n",
        "notes": "blk"
    },
    {
        "id": "vtls004935380_0_13",
        "type": "sailor",
        "parent": "vtls004935380",
        "name": "robert roberts",
        "dob": "blk",
        "age": "25",
        "place_of_birth": "caernarfon",
        "home_address": "blk",
        "f": "blk",
        "name_of_ship": "omnibus",
        "ship_port": "aberystwyth",
        "date_leaving": "continued",
        "joined_ship_date": "blk",
        "joined_at_port": "blk",
        "capacity": "able seaman",
        "date_left": "blk",
        "left_port": "blk",
        "cause_of_leaving": "remains",
        "sign_with_mark": "n",
        "notes": "blk"
    },
    {
        "id": "vtls004935380_0_12",
        "type": "sailor",
        "parent": "vtls004935380",
        "name": "jeremiah jackson",
        "dob": "blk",
        "age": "22",
        "place_of_birth": "fleetwood",
        "home_address": "blk",
        "f": "blk",
        "name_of_ship": "omnibus",
        "ship_port": "aberystwyth",
        "date_leaving": "continued",
        "joined_ship_date": "blk",
        "joined_at_port": "blk",
        "capacity": "mater",
        "date_left": "blk",
        "left_port": "blk",
        "cause_of_leaving": "remains",
        "sign_with_mark": "n",
        "notes": "blk"
    },
    {
        "id": "vtls004935380_0_14",
        "type": "sailor",
        "parent": "vtls004935380",
        "name": "thomas evans",
        "dob": "blk",
        "age": "16",
        "place_of_birth": "aberdare",
        "home_address": "blk",
        "f": "blk",
        "name_of_ship": "omnibus",
        "ship_port": "aberystwyth",
        "date_leaving": "continued",
        "joined_ship_date": "blk",
        "joined_at_port": "blk",
        "capacity": "cook",
        "date_left": "blk",
        "left_port": "blk",
        "cause_of_leaving": "remains",
        "sign_with_mark": "n",
        "notes": "blk"
    },
    {
        "id": "vtls004935387_0_14",
        "type": "sailor",
        "parent": "vtls004935387",
        "name": "james thomas",
        "dob": "blk",
        "age": "19",
        "place_of_birth": "hastings",
        "home_address": "blk",
        "f": "blk",
        "name_of_ship": "omnibus",
        "ship_port": "aberystwyth",
        "date_leaving": "continued",
        "joined_ship_date": "blk",
        "joined_at_port": "blk",
        "capacity": "ordinary seaman",
        "date_left": "1868-06-13",
        "left_port": "newport",
        "cause_of_leaving": "paid off",
        "sign_with_mark": "n",
        "notes": "blk"
    },
    {
        "id": "vtls004935380_1_19",
        "type": "sailor",
        "parent": "vtls004935380",
        "name": "george michaels",
        "dob": "blk",
        "age": "27",
        "place_of_birth": "liverpool",
        "home_address": "blk",
        "f": "blk",
        "name_of_ship": "fishing boat - no names",
        "ship_port": "blk",
        "date_leaving": "blk",
        "joined_ship_date": "1867-11-12",
        "joined_at_port": "cuxhaven",
        "capacity": "seaman",
        "date_left": "blk",
        "left_port": "blk",
        "cause_of_leaving": "remaining",
        "sign_with_mark": "n",
        "notes": "blk"
    },
    {
        "id": "vtls004935380_1_17",
        "type": "sailor",
        "parent": "vtls004935380",
        "name": "george wright",
        "dob": "blk",
        "age": "18",
        "place_of_birth": "hartlepool",
        "home_address": "blk",
        "f": "blk",
        "name_of_ship": "omnibus",
        "ship_port": "aberystwyth",
        "date_leaving": "1867-09-18",
        "joined_ship_date": "1867-09-19",
        "joined_at_port": "fraserburgh",
        "capacity": "seaman",
        "date_left": "blk",
        "left_port": "blk",
        "cause_of_leaving": "remaining",
        "sign_with_mark": "n",
        "notes": "blk"
    },
    {
        "id": "vtls004935380_1_18",
        "type": "sailor",
        "parent": "vtls004935380",
        "name": "james rensley",
        "dob": "blk",
        "age": "14",
        "place_of_birth": "hartlepool",
        "home_address": "blk",
        "f": "blk",
        "name_of_ship": "omnibus",
        "ship_port": "aberystwyth",
        "date_leaving": "1867-09-18",
        "joined_ship_date": "1867-09-19",
        "joined_at_port": "fraserburgh",
        "capacity": "boy",
        "date_left": "blk",
        "left_port": "blk",
        "cause_of_leaving": "remaining",
        "sign_with_mark": "y",
        "notes": "blk"
    },
    {
        "id": "vtls004935380_1_16",
        "type": "sailor",
        "parent": "vtls004935380",
        "name": "john downie",
        "dob": "blk",
        "age": "23",
        "place_of_birth": "fraserbergh",
        "home_address": "blk",
        "f": "blk",
        "name_of_ship": "omnibus",
        "ship_port": "aberystwyth",
        "date_leaving": "1867-09-18",
        "joined_ship_date": "1867-11-06",
        "joined_at_port": "fraserburgh",
        "capacity": "mate",
        "date_left": "blk",
        "left_port": "blk",
        "cause_of_leaving": "remaining",
        "sign_with_mark": "n",
        "notes": "blk"
    },
    {
        "id": "vtls004935380_1_20",
        "type": "sailor",
        "parent": "vtls004935380",
        "name": "thomas evans",
        "dob": "blk",
        "age": "17",
        "place_of_birth": "aberdare",
        "home_address": "blk",
        "f": "blk",
        "name_of_ship": "omnibus",
        "ship_port": "aberystwyth",
        "date_leaving": "1867-06-30",
        "joined_ship_date": "1867-07-01",
        "joined_at_port": "hartlepool",
        "capacity": "boy",
        "date_left": "blk",
        "left_port": "blk",
        "cause_of_leaving": "run away",
        "sign_with_mark": "n",
        "notes": "blk"
    },
    {
        "id": "vtls004935387_0_13",
        "type": "sailor",
        "parent": "vtls004935387",
        "name": "thomas curd",
        "dob": "blk",
        "age": "25",
        "place_of_birth": "rye",
        "home_address": "blk",
        "f": "blk",
        "name_of_ship": "omnibus",
        "ship_port": "aberystwyth",
        "date_leaving": "continued",
        "joined_ship_date": "blk",
        "joined_at_port": "blk",
        "capacity": "able seaman",
        "date_left": "1868-06-13",
        "left_port": "newport",
        "cause_of_leaving": "paid off",
        "sign_with_mark": "n",
        "notes": "blk"
    },
    {
        "id": "vtls004935387_0_11",
        "type": "sailor",
        "parent": "vtls004935387",
        "name": "james davies",
        "dob": "blk",
        "age": "42",
        "place_of_birth": "aberystwyth",
        "home_address": "blk",
        "f": "blk",
        "name_of_ship": "omnibus",
        "ship_port": "aberystwyth",
        "date_leaving": "continued",
        "joined_ship_date": "blk",
        "joined_at_port": "blk",
        "capacity": "master",
        "date_left": "blk",
        "left_port": "blk",
        "cause_of_leaving": "remains",
        "sign_with_mark": "n",
        "notes": "blk"
    },
    {
        "id": "vtls004935387_0_12",
        "type": "sailor",
        "parent": "vtls004935387",
        "name": "edward curd",
        "dob": "blk",
        "age": "22",
        "place_of_birth": "rye",
        "home_address": "blk",
        "f": "blk",
        "name_of_ship": "omnibus",
        "ship_port": "aberystwyth",
        "date_leaving": "continued",
        "joined_ship_date": "blk",
        "joined_at_port": "blk",
        "capacity": "mate",
        "date_left": "blk",
        "left_port": "blk",
        "cause_of_leaving": "remains",
        "sign_with_mark": "n",
        "notes": "blk"
    },
    {
        "id": "vtls004935387_1_11",
        "type": "sailor",
        "parent": "vtls004935387",
        "name": "thomas rees",
        "dob": "blk",
        "age": "25",
        "place_of_birth": "cardiganshire",
        "home_address": "blk",
        "f": "blk",
        "name_of_ship": "omnibus",
        "ship_port": "aberystwyth",
        "date_leaving": "1868-06-30",
        "joined_ship_date": "1868-07-01",
        "joined_at_port": "charlestown",
        "capacity": "master",
        "date_left": "blk",
        "left_port": "blk",
        "cause_of_leaving": "remains",
        "sign_with_mark": "n",
        "notes": "account for july - dec 1868"
    },
    {
        "id": "vtls004935387_1_14",
        "type": "sailor",
        "parent": "vtls004935387",
        "name": "james davis",
        "dob": "blk",
        "age": "19",
        "place_of_birth": "caernarfonshire",
        "home_address": "blk",
        "f": "blk",
        "name_of_ship": "omnibus",
        "ship_port": "aberystwyth",
        "date_leaving": "1868-06-30",
        "joined_ship_date": "1868-07-01",
        "joined_at_port": "charlestown",
        "capacity": "ordinary seaman",
        "date_left": "blk",
        "left_port": "blk",
        "cause_of_leaving": "remains",
        "sign_with_mark": "n",
        "notes": "blk"
    },
    {
        "id": "vtls004935387_1_13",
        "type": "sailor",
        "parent": "vtls004935387",
        "name": "william davis",
        "dob": "blk",
        "age": "23",
        "place_of_birth": "caernarfonshire",
        "home_address": "blk",
        "f": "blk",
        "name_of_ship": "omnibus",
        "ship_port": "aberystwyth",
        "date_leaving": "1868-06-30",
        "joined_ship_date": "1868-07-01",
        "joined_at_port": "charlestown",
        "capacity": "able seaman",
        "date_left": "blk",
        "left_port": "blk",
        "cause_of_leaving": "remains",
        "sign_with_mark": "n",
        "notes": "blk"
    },
    {
        "id": "vtls004935387_1_15",
        "type": "sailor",
        "parent": "vtls004935387",
        "name": "hugh davis",
        "dob": "blk",
        "age": "21",
        "place_of_birth": "caernarfonshire",
        "home_address": "blk",
        "f": "blk",
        "name_of_ship": "omnibus",
        "ship_port": "aberystwyth",
        "date_leaving": "1868-06-30",
        "joined_ship_date": "1868-07-01",
        "joined_at_port": "charlestown",
        "capacity": "able seaman",
        "date_left": "blk",
        "left_port": "blk",
        "cause_of_leaving": "remains",
        "sign_with_mark": "n",
        "notes": "blk"
    },
    {
        "id": "vtls004935387_1_12",
        "type": "sailor",
        "parent": "vtls004935387",
        "name": "isaac colins",
        "dob": "blk",
        "age": "42",
        "place_of_birth": "cardiganshire",
        "home_address": "blk",
        "f": "blk",
        "name_of_ship": "omnibus",
        "ship_port": "aberystwyth",
        "date_leaving": "1868-06-30",
        "joined_ship_date": "1868-07-01",
        "joined_at_port": "charlestown",
        "capacity": "mate",
        "date_left": "blk",
        "left_port": "blk",
        "cause_of_leaving": "remains",
        "sign_with_mark": "n",
        "notes": "blk"
    },
    {
        "id": "vtls004935387_0_15",
        "type": "sailor",
        "parent": "vtls004935387",
        "name": "william evans",
        "dob": "blk",
        "age": "34",
        "place_of_birth": "fishguard",
        "home_address": "blk",
        "f": "blk",
        "name_of_ship": "gleaner",
        "ship_port": "newport",
        "date_leaving": "1868-06-13",
        "joined_ship_date": "1868-06-20",
        "joined_at_port": "newport",
        "capacity": "able seaman",
        "date_left": "blk",
        "left_port": "blk",
        "cause_of_leaving": "remains",
        "sign_with_mark": "n",
        "notes": "blk"
    },
    {
        "id": "vtls004935387_0_16",
        "type": "sailor",
        "parent": "vtls004935387",
        "name": "joseph williams",
        "dob": "blk",
        "age": "18",
        "place_of_birth": "bristol",
        "home_address": "blk",
        "f": "blk",
        "name_of_ship": "first ship",
        "ship_port": "blk",
        "date_leaving": "blk",
        "joined_ship_date": "1868-06-20",
        "joined_at_port": "newport",
        "capacity": "boy",
        "date_left": "blk",
        "left_port": "blk",
        "cause_of_leaving": "remains",
        "sign_with_mark": "n",
        "notes": "blk"
    },
    {
        "id": "vtls004935396_0_16",
        "type": "sailor",
        "parent": "vtls004935396",
        "name": "philip davies",
        "dob": "blk",
        "age": "20",
        "place_of_birth": "aberystwyth",
        "home_address": "blk",
        "f": "blk",
        "name_of_ship": "two sisters",
        "ship_port": "blk",
        "date_leaving": "1868-12-31",
        "joined_ship_date": "1869-01-25",
        "joined_at_port": "portmadoc",
        "capacity": "able seaman",
        "date_left": "1869-02-03",
        "left_port": "st. tudwalls road",
        "cause_of_leaving": "vessel lost and went a total wreck",
        "sign_with_mark": "n",
        "notes": "blk"
    },
    {
        "id": "vtls004935396_0_11",
        "type": "sailor",
        "parent": "vtls004935396",
        "name": "thomas rees",
        "dob": "blk",
        "age": "36",
        "place_of_birth": "aberystwyth",
        "home_address": "blk",
        "f": "blk",
        "name_of_ship": "omnibus",
        "ship_port": "aberystwyth",
        "date_leaving": "remains on board",
        "joined_ship_date": "blk",
        "joined_at_port": "blk",
        "capacity": "master",
        "date_left": "1869-02-03",
        "left_port": "st. tudwalls road",
        "cause_of_leaving": "vessel lost and went a total wreck",
        "sign_with_mark": "n",
        "notes": "blk"
    },
    {
        "id": "vtls004935396_0_15",
        "type": "sailor",
        "parent": "vtls004935396",
        "name": "william andrew",
        "dob": "blk",
        "age": "20",
        "place_of_birth": "london",
        "home_address": "blk",
        "f": "blk",
        "name_of_ship": "unknown",
        "ship_port": "blk",
        "date_leaving": "unknown",
        "joined_ship_date": "1869-01-25",
        "joined_at_port": "portmadoc",
        "capacity": "able seaman",
        "date_left": "1869-02-03",
        "left_port": "st. tudwalls road",
        "cause_of_leaving": "vessel lost and went a total wreck",
        "sign_with_mark": "n",
        "notes": "blk"
    },
    {
        "id": "vtls004935396_0_14",
        "type": "sailor",
        "parent": "vtls004935396",
        "name": "james ross",
        "dob": "blk",
        "age": "28",
        "place_of_birth": "aberystwyth",
        "home_address": "blk",
        "f": "blk",
        "name_of_ship": "honora",
        "ship_port": "blk",
        "date_leaving": "1869-01-05",
        "joined_ship_date": "1869-01-21",
        "joined_at_port": "portmadoc",
        "capacity": "mate",
        "date_left": "1869-02-03",
        "left_port": "st. tudwalls road",
        "cause_of_leaving": "vessel lost and went a total wreck",
        "sign_with_mark": "n",
        "notes": "blk"
    },
    {
        "id": "vtls004935396_0_13",
        "type": "sailor",
        "parent": "vtls004935396",
        "name": "peter anderson",
        "dob": "blk",
        "age": "25",
        "place_of_birth": "sweden",
        "home_address": "blk",
        "f": "blk",
        "name_of_ship": "omnibus",
        "ship_port": "aberystwyth",
        "date_leaving": "remains on board",
        "joined_ship_date": "blk",
        "joined_at_port": "blk",
        "capacity": "able seaman",
        "date_left": "1869-01-19",
        "left_port": "porthmadog",
        "cause_of_leaving": "discharged",
        "sign_with_mark": "n",
        "notes": "blk"
    },
    {
        "id": "vtls004935396_0_12",
        "type": "sailor",
        "parent": "vtls004935396",
        "name": "isaac collins",
        "dob": "blk",
        "age": "42",
        "place_of_birth": "aberystwyth",
        "home_address": "blk",
        "f": "blk",
        "name_of_ship": "omnibus",
        "ship_port": "aberystwyth",
        "date_leaving": "remains on board",
        "joined_ship_date": "blk",
        "joined_at_port": "blk",
        "capacity": "mate",
        "date_left": "1869-01-19",
        "left_port": "porthmadog",
        "cause_of_leaving": "discharged",
        "sign_with_mark": "n",
        "notes": "blk"
    }
]