[
    {
        "id": "vtls004630432_0_11",
        "type": "sailor",
        "parent": "vtls004630432",
        "name": "richard thomas",
        "dob": "blk",
        "age": "57",
        "place_of_birth": "aberystwyth",
        "home_address": "lower town fishguard",
        "f": "lower town fishguard",
        "name_of_ship": "bristol trader",
        "ship_port": "aberystwyth",
        "date_leaving": "1862-10-29",
        "joined_ship_date": "1863-03-13",
        "joined_at_port": "fishguard",
        "capacity": "master",
        "date_left": "1863-06-30",
        "left_port": "fishguard",
        "cause_of_leaving": "remains on board",
        "sign_with_mark": "n",
        "notes": "blk"
    },
    {
        "id": "vtls004630432_0_12",
        "type": "sailor",
        "parent": "vtls004630432",
        "name": "william thomas",
        "dob": "blk",
        "age": "18",
        "place_of_birth": "fishguard",
        "home_address": "blk",
        "f": "blk",
        "name_of_ship": "bristol trader",
        "ship_port": "aberystwyth",
        "date_leaving": "1862-10-29",
        "joined_ship_date": "1863-03-13",
        "joined_at_port": "fishguard",
        "capacity": "seaman",
        "date_left": "1863-06-30",
        "left_port": "fishguard",
        "cause_of_leaving": "remains on board",
        "sign_with_mark": "n",
        "notes": "blk"
    },
    {
        "id": "vtls004630432_0_13",
        "type": "sailor",
        "parent": "vtls004630432",
        "name": "richard thomas",
        "dob": "blk",
        "age": "13",
        "place_of_birth": "fishguard",
        "home_address": "blk",
        "f": "blk",
        "name_of_ship": "bristol trader",
        "ship_port": "aberystwyth",
        "date_leaving": "1862-10-29",
        "joined_ship_date": "1863-03-13",
        "joined_at_port": "fishguard",
        "capacity": "boy",
        "date_left": "1863-06-30",
        "left_port": "fishguard",
        "cause_of_leaving": "remains on board",
        "sign_with_mark": "n",
        "notes": "blk"
    }
]