[
    {
        "id": "vtls004977036_1_13",
        "type": "sailor",
        "parent": "vtls004977036",
        "name": "thomas davies",
        "dob": "1867",
        "age": "blk",
        "place_of_birth": "aberaeron",
        "home_address": "blk",
        "f": "blk",
        "name_of_ship": "waterloo",
        "ship_port": "aberystwyth",
        "date_leaving": "1888",
        "joined_ship_date": "1888-01-07",
        "joined_at_port": "tralee",
        "capacity": "ordinary seaman",
        "date_left": "1888-12-31",
        "left_port": "liverpool",
        "cause_of_leaving": "discharged",
        "sign_with_mark": "n",
        "notes": "blk"
    },
    {
        "id": "vtls004977039_0_11",
        "type": "sailor",
        "parent": "vtls004977039",
        "name": "james james",
        "dob": "1836",
        "age": "blk",
        "place_of_birth": "aberystwyth",
        "home_address": "blk",
        "f": "blk",
        "name_of_ship": "waterloo",
        "ship_port": "aberystwyth",
        "date_leaving": "1888",
        "joined_ship_date": "1889-01-12",
        "joined_at_port": "liverpool",
        "capacity": "master",
        "date_left": "1889-07-16",
        "left_port": "fleetwood",
        "cause_of_leaving": "remains on board",
        "sign_with_mark": "n",
        "notes": "blk"
    },
    {
        "id": "vtls004977036_1_12",
        "type": "sailor",
        "parent": "vtls004977036",
        "name": "evan morgan",
        "dob": "1834",
        "age": "blk",
        "place_of_birth": "aberaeron",
        "home_address": "blk",
        "f": "blk",
        "name_of_ship": "waterloo",
        "ship_port": "aberystwyth",
        "date_leaving": "1888",
        "joined_ship_date": "1888-01-07",
        "joined_at_port": "tralee",
        "capacity": "mate",
        "date_left": "1888-12-31",
        "left_port": "liverpool",
        "cause_of_leaving": "discharged",
        "sign_with_mark": "n",
        "notes": "blk"
    },
    {
        "id": "vtls004977036_0_13",
        "type": "sailor",
        "parent": "vtls004977036",
        "name": "hugh roberts",
        "dob": "1868",
        "age": "blk",
        "place_of_birth": "beaumaris",
        "home_address": "blk",
        "f": "blk",
        "name_of_ship": "waterloo",
        "ship_port": "aberystwyth",
        "date_leaving": "blk",
        "joined_ship_date": "blk",
        "joined_at_port": "blk",
        "capacity": "ordinary seaman",
        "date_left": "1888-03-21",
        "left_port": "bristol",
        "cause_of_leaving": "paid off",
        "sign_with_mark": "n",
        "notes": "blk"
    },
    {
        "id": "vtls004977036_1_11",
        "type": "sailor",
        "parent": "vtls004977036",
        "name": "james james",
        "dob": "1837",
        "age": "blk",
        "place_of_birth": "aberystwyth",
        "home_address": "blk",
        "f": "blk",
        "name_of_ship": "waterloo",
        "ship_port": "aberystwyth",
        "date_leaving": "1888",
        "joined_ship_date": "1888-07-01",
        "joined_at_port": "tralee",
        "capacity": "master",
        "date_left": "blk",
        "left_port": "blk",
        "cause_of_leaving": "remains on board",
        "sign_with_mark": "n",
        "notes": "blk"
    },
    {
        "id": "vtls004977036_0_14",
        "type": "sailor",
        "parent": "vtls004977036",
        "name": "evan morgan",
        "dob": "1830",
        "age": "blk",
        "place_of_birth": "aberaeron",
        "home_address": "blk",
        "f": "blk",
        "name_of_ship": "sally",
        "ship_port": "sunderland",
        "date_leaving": "1888",
        "joined_ship_date": "1888-03-26",
        "joined_at_port": "bristol",
        "capacity": "mate",
        "date_left": "blk",
        "left_port": "blk",
        "cause_of_leaving": "remains on board",
        "sign_with_mark": "n",
        "notes": "blk"
    },
    {
        "id": "vtls004977036_0_15",
        "type": "sailor",
        "parent": "vtls004977036",
        "name": "james jones",
        "dob": "1874",
        "age": "blk",
        "place_of_birth": "aberaeron",
        "home_address": "blk",
        "f": "blk",
        "name_of_ship": "first voyage",
        "ship_port": "blk",
        "date_leaving": "blk",
        "joined_ship_date": "1888-03-26",
        "joined_at_port": "bristol",
        "capacity": "cook",
        "date_left": "blk",
        "left_port": "blk",
        "cause_of_leaving": "remains on board",
        "sign_with_mark": "n",
        "notes": "blk"
    },
    {
        "id": "vtls004977036_0_12",
        "type": "sailor",
        "parent": "vtls004977036",
        "name": "thomas sullivan",
        "dob": "1856",
        "age": "blk",
        "place_of_birth": "tralee",
        "home_address": "blk",
        "f": "blk",
        "name_of_ship": "on shore",
        "ship_port": "blk",
        "date_leaving": "blk",
        "joined_ship_date": "1888-02-10",
        "joined_at_port": "tralee",
        "capacity": "mate",
        "date_left": "1888-03-21",
        "left_port": "bristol",
        "cause_of_leaving": "paid off",
        "sign_with_mark": "n",
        "notes": "blk"
    },
    {
        "id": "vtls004977036_0_11",
        "type": "sailor",
        "parent": "vtls004977036",
        "name": "james james",
        "dob": "1836",
        "age": "blk",
        "place_of_birth": "aberystwyth",
        "home_address": "blk",
        "f": "blk",
        "name_of_ship": "waterloo",
        "ship_port": "aberystwyth",
        "date_leaving": "blk",
        "joined_ship_date": "blk",
        "joined_at_port": "blk",
        "capacity": "master",
        "date_left": "blk",
        "left_port": "blk",
        "cause_of_leaving": "remains on board",
        "sign_with_mark": "n",
        "notes": "blk"
    },
    {
        "id": "vtls004977039_0_12",
        "type": "sailor",
        "parent": "vtls004977039",
        "name": "thomas daniel",
        "dob": "1839",
        "age": "blk",
        "place_of_birth": "aberdovey",
        "home_address": "blk",
        "f": "blk",
        "name_of_ship": "waterlily",
        "ship_port": "chester",
        "date_leaving": "1889",
        "joined_ship_date": "1889-01-15",
        "joined_at_port": "liverpool",
        "capacity": "mate",
        "date_left": "1889-02-20",
        "left_port": "skull, county cork",
        "cause_of_leaving": "discharged",
        "sign_with_mark": "n",
        "notes": "blk"
    },
    {
        "id": "vtls004977039_0_13",
        "type": "sailor",
        "parent": "vtls004977039",
        "name": "william malpas",
        "dob": "1869",
        "age": "blk",
        "place_of_birth": "liverpool",
        "home_address": "blk",
        "f": "blk",
        "name_of_ship": "first ship",
        "ship_port": "blk",
        "date_leaving": "blk",
        "joined_ship_date": "1889-01-28",
        "joined_at_port": "liverpool",
        "capacity": "boy",
        "date_left": "1889-02-20",
        "left_port": "skull, county cork",
        "cause_of_leaving": "discharged",
        "sign_with_mark": "n",
        "notes": "blk"
    },
    {
        "id": "vtls004977039_1_13",
        "type": "sailor",
        "parent": "vtls004977039",
        "name": "patrick finn",
        "dob": "1871",
        "age": "blk",
        "place_of_birth": "cork",
        "home_address": "blk",
        "f": "blk",
        "name_of_ship": "first ship",
        "ship_port": "blk",
        "date_leaving": "1889",
        "joined_ship_date": "1889-07-18",
        "joined_at_port": "fleetwood",
        "capacity": "ordinary seaman",
        "date_left": "1889-10-20",
        "left_port": "sligo",
        "cause_of_leaving": "discharged",
        "sign_with_mark": "n",
        "notes": "blk"
    },
    {
        "id": "vtls004977039_1_12",
        "type": "sailor",
        "parent": "vtls004977039",
        "name": "william clarke",
        "dob": "1878",
        "age": "blk",
        "place_of_birth": "barrow",
        "home_address": "blk",
        "f": "blk",
        "name_of_ship": "mary sinclair",
        "ship_port": "barrow",
        "date_leaving": "1889",
        "joined_ship_date": "1889-07-18",
        "joined_at_port": "fleetwood",
        "capacity": "mate",
        "date_left": "1889-10-20",
        "left_port": "sligo",
        "cause_of_leaving": "discharged",
        "sign_with_mark": "n",
        "notes": "blk"
    },
    {
        "id": "vtls004977039_0_15",
        "type": "sailor",
        "parent": "vtls004977039",
        "name": "patrick finn",
        "dob": "1871",
        "age": "blk",
        "place_of_birth": "cork",
        "home_address": "blk",
        "f": "blk",
        "name_of_ship": "first ship",
        "ship_port": "blk",
        "date_leaving": "blk",
        "joined_ship_date": "1889-06-22",
        "joined_at_port": "kinsale",
        "capacity": "boy",
        "date_left": "1889-07-16",
        "left_port": "fleetwood",
        "cause_of_leaving": "remains on board",
        "sign_with_mark": "n",
        "notes": "blk"
    },
    {
        "id": "vtls004977039_1_14",
        "type": "sailor",
        "parent": "vtls004977039",
        "name": "owen gillan",
        "dob": "1862",
        "age": "blk",
        "place_of_birth": "sligo",
        "home_address": "blk",
        "f": "blk",
        "name_of_ship": "trongate",
        "ship_port": "glasgow",
        "date_leaving": "1889",
        "joined_ship_date": "1889-11-18",
        "joined_at_port": "sligo",
        "capacity": "mate",
        "date_left": "1889-11-23",
        "left_port": "donegal",
        "cause_of_leaving": "discharged",
        "sign_with_mark": "n",
        "notes": "blk"
    },
    {
        "id": "vtls004977039_1_11",
        "type": "sailor",
        "parent": "vtls004977039",
        "name": "james james",
        "dob": "1839",
        "age": "blk",
        "place_of_birth": "aberystwyth",
        "home_address": "blk",
        "f": "blk",
        "name_of_ship": "waterloo",
        "ship_port": "aberystwyth",
        "date_leaving": "blk",
        "joined_ship_date": "blk",
        "joined_at_port": "blk",
        "capacity": "master",
        "date_left": "blk",
        "left_port": "blk",
        "cause_of_leaving": "remains on board",
        "sign_with_mark": "n",
        "notes": "blk"
    },
    {
        "id": "vtls004977039_0_14",
        "type": "sailor",
        "parent": "vtls004977039",
        "name": "john dunn",
        "dob": "1851",
        "age": "blk",
        "place_of_birth": "kinsale",
        "home_address": "blk",
        "f": "blk",
        "name_of_ship": "unknown",
        "ship_port": "blk",
        "date_leaving": "blk",
        "joined_ship_date": "1889-05-27",
        "joined_at_port": "kinsale",
        "capacity": "mate",
        "date_left": "1889-06-25",
        "left_port": "kinsale",
        "cause_of_leaving": "deserted",
        "sign_with_mark": "n",
        "notes": "blk"
    },
    {
        "id": "vtls004976874_1_13",
        "type": "sailor",
        "parent": "vtls004976874",
        "name": "edward wright",
        "dob": "blk",
        "age": "19",
        "place_of_birth": "penzance",
        "home_address": "blk",
        "f": "blk",
        "name_of_ship": "waterloo",
        "ship_port": "aberystwyth",
        "date_leaving": "continued",
        "joined_ship_date": "186-06-30",
        "joined_at_port": "blk",
        "capacity": "ordinary seaman",
        "date_left": "1869-12-23",
        "left_port": "aberystwyth",
        "cause_of_leaving": "discharged",
        "sign_with_mark": "n",
        "notes": "blk"
    },
    {
        "id": "vtls004976874_1_11",
        "type": "sailor",
        "parent": "vtls004976874",
        "name": "john lewis",
        "dob": "blk",
        "age": "34",
        "place_of_birth": "aberystwyth",
        "home_address": "blk",
        "f": "blk",
        "name_of_ship": "waterloo",
        "ship_port": "aberystwyth",
        "date_leaving": "continued",
        "joined_ship_date": "1869-06-30",
        "joined_at_port": "blk",
        "capacity": "master",
        "date_left": "1869-12-30",
        "left_port": "aberystwyth",
        "cause_of_leaving": "discharged",
        "sign_with_mark": "n",
        "notes": "blk"
    },
    {
        "id": "vtls004976874_1_12",
        "type": "sailor",
        "parent": "vtls004976874",
        "name": "george lewis",
        "dob": "blk",
        "age": "36",
        "place_of_birth": "aberystwyth",
        "home_address": "blk",
        "f": "blk",
        "name_of_ship": "waterloo",
        "ship_port": "aberystwyth",
        "date_leaving": "continued",
        "joined_ship_date": "1869-06-30",
        "joined_at_port": "blk",
        "capacity": "mate",
        "date_left": "1869-12-30",
        "left_port": "aberystwyth",
        "cause_of_leaving": "discharged",
        "sign_with_mark": "n",
        "notes": "blk"
    },
    {
        "id": "vtls004976874_0_12",
        "type": "sailor",
        "parent": "vtls004976874",
        "name": "george lewis",
        "dob": "blk",
        "age": "36",
        "place_of_birth": "aberystwyth",
        "home_address": "blk",
        "f": "blk",
        "name_of_ship": "castle",
        "ship_port": "aberystwyth",
        "date_leaving": "1868-12-25",
        "joined_ship_date": "1869-05-24",
        "joined_at_port": "swansea",
        "capacity": "master",
        "date_left": "blk",
        "left_port": "blk",
        "cause_of_leaving": "remains on board",
        "sign_with_mark": "n",
        "notes": "blk"
    },
    {
        "id": "vtls004976874_0_14",
        "type": "sailor",
        "parent": "vtls004976874",
        "name": "edward wright",
        "dob": "blk",
        "age": "23",
        "place_of_birth": "hull",
        "home_address": "blk",
        "f": "blk",
        "name_of_ship": "waterloo",
        "ship_port": "aberystwyth",
        "date_leaving": "continued",
        "joined_ship_date": "blk",
        "joined_at_port": "blk",
        "capacity": "able seaman",
        "date_left": "blk",
        "left_port": "blk",
        "cause_of_leaving": "remains on board",
        "sign_with_mark": "n",
        "notes": "blk"
    },
    {
        "id": "vtls004976874_0_11",
        "type": "sailor",
        "parent": "vtls004976874",
        "name": "john lewis",
        "dob": "blk",
        "age": "32",
        "place_of_birth": "aberystwyth",
        "home_address": "blk",
        "f": "blk",
        "name_of_ship": "waterloo",
        "ship_port": "aberystwyth",
        "date_leaving": "continued",
        "joined_ship_date": "blk",
        "joined_at_port": "blk",
        "capacity": "master",
        "date_left": "1869-05-23",
        "left_port": "swansea",
        "cause_of_leaving": "left",
        "sign_with_mark": "n",
        "notes": "blk"
    },
    {
        "id": "vtls004976874_0_13",
        "type": "sailor",
        "parent": "vtls004976874",
        "name": "james lewis",
        "dob": "blk",
        "age": "24",
        "place_of_birth": "aberystwyth",
        "home_address": "blk",
        "f": "blk",
        "name_of_ship": "waterloo",
        "ship_port": "aberystwyth",
        "date_leaving": "continued",
        "joined_ship_date": "blk",
        "joined_at_port": "blk",
        "capacity": "mate",
        "date_left": "blk",
        "left_port": "blk",
        "cause_of_leaving": "remains on board",
        "sign_with_mark": "n",
        "notes": "blk"
    },
    {
        "id": "vtls004976903_1_13",
        "type": "sailor",
        "parent": "vtls004976903",
        "name": "john roberts",
        "dob": "blk",
        "age": "22",
        "place_of_birth": "aberystwyth",
        "home_address": "blk",
        "f": "blk",
        "name_of_ship": "waterloo",
        "ship_port": "aberystwyth",
        "date_leaving": "continued",
        "joined_ship_date": "1870-06-30",
        "joined_at_port": "blk",
        "capacity": "able seaman",
        "date_left": "1871-01-28",
        "left_port": "aberystwyth",
        "cause_of_leaving": "paid off",
        "sign_with_mark": "n",
        "notes": "blk"
    },
    {
        "id": "vtls004976952_0_13",
        "type": "sailor",
        "parent": "vtls004976952",
        "name": "david jones",
        "dob": "blk",
        "age": "27",
        "place_of_birth": "cardigan",
        "home_address": "blk",
        "f": "blk",
        "name_of_ship": "wellington",
        "ship_port": "aberystwyth",
        "date_leaving": "1877",
        "joined_ship_date": "1878-01-22",
        "joined_at_port": "portmadoc",
        "capacity": "mate",
        "date_left": "1878-06-28",
        "left_port": "saundersfoot",
        "cause_of_leaving": "discharged",
        "sign_with_mark": "n",
        "notes": "blk"
    },
    {
        "id": "vtls004976903_0_13",
        "type": "sailor",
        "parent": "vtls004976903",
        "name": "john roberts",
        "dob": "blk",
        "age": "18",
        "place_of_birth": "aberystwyth",
        "home_address": "blk",
        "f": "blk",
        "name_of_ship": "waterloo",
        "ship_port": "aberystwyth",
        "date_leaving": "blk",
        "joined_ship_date": "1869-12-22",
        "joined_at_port": "aberystwyth",
        "capacity": "ordinary seaman",
        "date_left": "blk",
        "left_port": "blk",
        "cause_of_leaving": "remains on board",
        "sign_with_mark": "n",
        "notes": "blk"
    },
    {
        "id": "vtls004976903_1_12",
        "type": "sailor",
        "parent": "vtls004976903",
        "name": "daniel humphreys",
        "dob": "blk",
        "age": "44",
        "place_of_birth": "aberystwyth",
        "home_address": "blk",
        "f": "blk",
        "name_of_ship": "waterloo",
        "ship_port": "aberystwyth",
        "date_leaving": "continued",
        "joined_ship_date": "1870-06-30",
        "joined_at_port": "blk",
        "capacity": "mate",
        "date_left": "1871-01-28",
        "left_port": "aberystwyth",
        "cause_of_leaving": "paid off",
        "sign_with_mark": "n",
        "notes": "blk"
    },
    {
        "id": "vtls004976952_0_12",
        "type": "sailor",
        "parent": "vtls004976952",
        "name": "william povey",
        "dob": "blk",
        "age": "25",
        "place_of_birth": "caernarfonshire",
        "home_address": "blk",
        "f": "blk",
        "name_of_ship": "arcturus",
        "ship_port": "caernarvon",
        "date_leaving": "1878",
        "joined_ship_date": "1878-01-14",
        "joined_at_port": "portmadoc",
        "capacity": "mate",
        "date_left": "1878-01-24",
        "left_port": "porthmadog",
        "cause_of_leaving": "paid off",
        "sign_with_mark": "n",
        "notes": "blk"
    },
    {
        "id": "vtls004976903_0_11",
        "type": "sailor",
        "parent": "vtls004976903",
        "name": "james humphreys",
        "dob": "blk",
        "age": "35",
        "place_of_birth": "aberystwyth",
        "home_address": "blk",
        "f": "blk",
        "name_of_ship": "waterloo",
        "ship_port": "aberystwyth",
        "date_leaving": "blk",
        "joined_ship_date": "1869-12-22",
        "joined_at_port": "aberystwyth",
        "capacity": "master",
        "date_left": "blk",
        "left_port": "blk",
        "cause_of_leaving": "remains on board",
        "sign_with_mark": "n",
        "notes": "blk"
    },
    {
        "id": "vtls004976903_1_11",
        "type": "sailor",
        "parent": "vtls004976903",
        "name": "james humphreys",
        "dob": "blk",
        "age": "36",
        "place_of_birth": "aberystwyth",
        "home_address": "blk",
        "f": "blk",
        "name_of_ship": "waterloo",
        "ship_port": "aberystwyth",
        "date_leaving": "continued",
        "joined_ship_date": "1870-06-30",
        "joined_at_port": "blk",
        "capacity": "master",
        "date_left": "blk",
        "left_port": "blk",
        "cause_of_leaving": "remains on board",
        "sign_with_mark": "n",
        "notes": "blk"
    },
    {
        "id": "vtls004976903_0_12",
        "type": "sailor",
        "parent": "vtls004976903",
        "name": "david humphreys",
        "dob": "blk",
        "age": "43",
        "place_of_birth": "aberystwyth",
        "home_address": "blk",
        "f": "blk",
        "name_of_ship": "waterloo",
        "ship_port": "aberystwyth",
        "date_leaving": "blk",
        "joined_ship_date": "1869-12-22",
        "joined_at_port": "aberystwyth",
        "capacity": "mate",
        "date_left": "blk",
        "left_port": "blk",
        "cause_of_leaving": "remains on board",
        "sign_with_mark": "n",
        "notes": "blk"
    },
    {
        "id": "vtls004976952_0_11",
        "type": "sailor",
        "parent": "vtls004976952",
        "name": "james james",
        "dob": "blk",
        "age": "blk",
        "place_of_birth": "cardigan",
        "home_address": "blk",
        "f": "blk",
        "name_of_ship": "waterloo",
        "ship_port": "aberystwyth",
        "date_leaving": "1878",
        "joined_ship_date": "1878-01-21",
        "joined_at_port": "portmadoc",
        "capacity": "master",
        "date_left": "blk",
        "left_port": "blk",
        "cause_of_leaving": "remains on board",
        "sign_with_mark": "n",
        "notes": "blk"
    },
    {
        "id": "vtls004976952_0_14",
        "type": "sailor",
        "parent": "vtls004976952",
        "name": "frederick furness",
        "dob": "blk",
        "age": "19",
        "place_of_birth": "london",
        "home_address": "blk",
        "f": "blk",
        "name_of_ship": "ann",
        "ship_port": "caernarvon",
        "date_leaving": "1877",
        "joined_ship_date": "1878-01-30",
        "joined_at_port": "portmadoc",
        "capacity": "ordinary seaman",
        "date_left": "1878-06-16",
        "left_port": "ardrossan",
        "cause_of_leaving": "discharged",
        "sign_with_mark": "n",
        "notes": "blk"
    },
    {
        "id": "vtls004976952_0_16",
        "type": "sailor",
        "parent": "vtls004976952",
        "name": "t michael",
        "dob": "blk",
        "age": "36",
        "place_of_birth": "mumbles",
        "home_address": "blk",
        "f": "blk",
        "name_of_ship": "margaret jones",
        "ship_port": "aberystwyth",
        "date_leaving": "1878",
        "joined_ship_date": "1878-06-27",
        "joined_at_port": "mumbles",
        "capacity": "able seaman",
        "date_left": "1878-07-08",
        "left_port": "yarmouth",
        "cause_of_leaving": "discharged",
        "sign_with_mark": "y",
        "notes": "blk"
    },
    {
        "id": "vtls004976952_0_15",
        "type": "sailor",
        "parent": "vtls004976952",
        "name": "john bullen",
        "dob": "blk",
        "age": "18",
        "place_of_birth": "lowestoft",
        "home_address": "blk",
        "f": "blk",
        "name_of_ship": "mary emma",
        "ship_port": "[surferrcha]",
        "date_leaving": "1877",
        "joined_ship_date": "1878-01-30",
        "joined_at_port": "portmadoc",
        "capacity": "cook",
        "date_left": "1878-06-16",
        "left_port": "ardrossan",
        "cause_of_leaving": "discharged",
        "sign_with_mark": "n",
        "notes": "blk"
    },
    {
        "id": "vtls004976952_1_14",
        "type": "sailor",
        "parent": "vtls004976952",
        "name": "john jones",
        "dob": "blk",
        "age": "38",
        "place_of_birth": "llanon",
        "home_address": "blk",
        "f": "blk",
        "name_of_ship": "ocean queen",
        "ship_port": "liverpool",
        "date_leaving": "1878-08-15",
        "joined_ship_date": "1878-08-20",
        "joined_at_port": "briton ferry",
        "capacity": "mate",
        "date_left": "blk",
        "left_port": "blk",
        "cause_of_leaving": "remains on board",
        "sign_with_mark": "n",
        "notes": "blk"
    },
    {
        "id": "vtls004976952_1_12",
        "type": "sailor",
        "parent": "vtls004976952",
        "name": "g rand",
        "dob": "blk",
        "age": "30",
        "place_of_birth": "south hants",
        "home_address": "blk",
        "f": "blk",
        "name_of_ship": "ocean chief",
        "ship_port": "liverpool",
        "date_leaving": "1878-06-20",
        "joined_ship_date": "1878-06-30",
        "joined_at_port": "cowes",
        "capacity": "mate",
        "date_left": "1878-08-21",
        "left_port": "runcorn",
        "cause_of_leaving": "discharged",
        "sign_with_mark": "n",
        "notes": "blk"
    },
    {
        "id": "vtls004976952_1_13",
        "type": "sailor",
        "parent": "vtls004976952",
        "name": "edward cooper",
        "dob": "blk",
        "age": "17",
        "place_of_birth": "south hants",
        "home_address": "blk",
        "f": "blk",
        "name_of_ship": "first ship",
        "ship_port": "blk",
        "date_leaving": "blk",
        "joined_ship_date": "1878-06-30",
        "joined_at_port": "cowes",
        "capacity": "cook",
        "date_left": "1878-08-21",
        "left_port": "runcorn",
        "cause_of_leaving": "discharged",
        "sign_with_mark": "n",
        "notes": "blk"
    },
    {
        "id": "vtls004976952_0_17",
        "type": "sailor",
        "parent": "vtls004976952",
        "name": "maurice murphy",
        "dob": "blk",
        "age": "17",
        "place_of_birth": "mumbles",
        "home_address": "blk",
        "f": "blk",
        "name_of_ship": "first ship",
        "ship_port": "blk",
        "date_leaving": "1878",
        "joined_ship_date": "1878-06-27",
        "joined_at_port": "mumbles",
        "capacity": "boy",
        "date_left": "1878-07-08",
        "left_port": "yarmouth",
        "cause_of_leaving": "discharged",
        "sign_with_mark": "n",
        "notes": "blk"
    },
    {
        "id": "vtls004976952_1_11",
        "type": "sailor",
        "parent": "vtls004976952",
        "name": "james james",
        "dob": "blk",
        "age": "49",
        "place_of_birth": "aberystwyth",
        "home_address": "blk",
        "f": "blk",
        "name_of_ship": "waterloo",
        "ship_port": "aberystwyth",
        "date_leaving": "blk",
        "joined_ship_date": "blk",
        "joined_at_port": "blk",
        "capacity": "master",
        "date_left": "blk",
        "left_port": "blk",
        "cause_of_leaving": "remains on board",
        "sign_with_mark": "n",
        "notes": "blk"
    },
    {
        "id": "vtls004976952_1_15",
        "type": "sailor",
        "parent": "vtls004976952",
        "name": "henry thompson",
        "dob": "blk",
        "age": "23",
        "place_of_birth": "newcastle-upon-tyne",
        "home_address": "blk",
        "f": "blk",
        "name_of_ship": "constance",
        "ship_port": "blk",
        "date_leaving": "1878-08-12",
        "joined_ship_date": "1878-08-20",
        "joined_at_port": "briton ferry",
        "capacity": "able seaman",
        "date_left": "1878-11-29",
        "left_port": "cardiff",
        "cause_of_leaving": "discharged",
        "sign_with_mark": "n",
        "notes": "blk"
    },
    {
        "id": "vtls004976952_2_13",
        "type": "sailor",
        "parent": "vtls004976952",
        "name": "henry thompson",
        "dob": "blk",
        "age": "23",
        "place_of_birth": "newcastle-upon-tyne",
        "home_address": "blk",
        "f": "blk",
        "name_of_ship": "constance",
        "ship_port": "blk",
        "date_leaving": "1878",
        "joined_ship_date": "1878-10-15",
        "joined_at_port": "briton ferry",
        "capacity": "able seaman",
        "date_left": "1878-11-29",
        "left_port": "cardiff",
        "cause_of_leaving": "discharged",
        "sign_with_mark": "n",
        "notes": "blk"
    },
    {
        "id": "vtls004976952_1_16",
        "type": "sailor",
        "parent": "vtls004976952",
        "name": "william cole",
        "dob": "blk",
        "age": "19",
        "place_of_birth": "maryport",
        "home_address": "blk",
        "f": "blk",
        "name_of_ship": "bessie whineray",
        "ship_port": "lancaster",
        "date_leaving": "1878-12-01",
        "joined_ship_date": "1878-12-03",
        "joined_at_port": "cardiff",
        "capacity": "ordinary seaman",
        "date_left": "blk",
        "left_port": "blk",
        "cause_of_leaving": "remains on board",
        "sign_with_mark": "n",
        "notes": "blk"
    },
    {
        "id": "vtls004976952_2_14",
        "type": "sailor",
        "parent": "vtls004976952",
        "name": "william cole",
        "dob": "blk",
        "age": "19",
        "place_of_birth": "maryport",
        "home_address": "blk",
        "f": "blk",
        "name_of_ship": "bessie whineray",
        "ship_port": "lancaster",
        "date_leaving": "1878",
        "joined_ship_date": "1878-12-03",
        "joined_at_port": "cardiff",
        "capacity": "ordinary seaman",
        "date_left": "blk",
        "left_port": "blk",
        "cause_of_leaving": "remains on board",
        "sign_with_mark": "n",
        "notes": "blk"
    },
    {
        "id": "vtls004977012_0_11",
        "type": "sailor",
        "parent": "vtls004977012",
        "name": "james james",
        "dob": "blk",
        "age": "50",
        "place_of_birth": "aberystwyth",
        "home_address": "blk",
        "f": "blk",
        "name_of_ship": "waterloo",
        "ship_port": "aberystwyth",
        "date_leaving": "1878-12-31",
        "joined_ship_date": "1879-01-01",
        "joined_at_port": "tralee",
        "capacity": "master",
        "date_left": "1879-05-21",
        "left_port": "gloucestershire",
        "cause_of_leaving": "discharged",
        "sign_with_mark": "n",
        "notes": "blk"
    },
    {
        "id": "vtls004977012_0_13",
        "type": "sailor",
        "parent": "vtls004977012",
        "name": "thomas murphy",
        "dob": "blk",
        "age": "35",
        "place_of_birth": "waterford",
        "home_address": "blk",
        "f": "blk",
        "name_of_ship": "waterloo",
        "ship_port": "aberystwyth",
        "date_leaving": "blk",
        "joined_ship_date": "1879-03-29",
        "joined_at_port": "waterford",
        "capacity": "bosun",
        "date_left": "1879-05-21",
        "left_port": "gloucestershire",
        "cause_of_leaving": "discharged",
        "sign_with_mark": "n",
        "notes": "blk"
    },
    {
        "id": "vtls004977012_0_12",
        "type": "sailor",
        "parent": "vtls004977012",
        "name": "thomas davies",
        "dob": "blk",
        "age": "55",
        "place_of_birth": "newquay",
        "home_address": "blk",
        "f": "blk",
        "name_of_ship": "waterloo",
        "ship_port": "aberystwyth",
        "date_leaving": "1878-12-31",
        "joined_ship_date": "1879-01-01",
        "joined_at_port": "tralee",
        "capacity": "bosun",
        "date_left": "1879-03-27",
        "left_port": "at sea",
        "cause_of_leaving": "drowned",
        "sign_with_mark": "n",
        "notes": "blk"
    },
    {
        "id": "vtls004976952_2_12",
        "type": "sailor",
        "parent": "vtls004976952",
        "name": "john jones",
        "dob": "blk",
        "age": "38",
        "place_of_birth": "llanon",
        "home_address": "blk",
        "f": "blk",
        "name_of_ship": "ocean queen",
        "ship_port": "liverpool",
        "date_leaving": "1878",
        "joined_ship_date": "1878-10-15",
        "joined_at_port": "briton ferry",
        "capacity": "mate",
        "date_left": "blk",
        "left_port": "blk",
        "cause_of_leaving": "remains on board",
        "sign_with_mark": "n",
        "notes": "blk"
    },
    {
        "id": "vtls004976952_2_11",
        "type": "sailor",
        "parent": "vtls004976952",
        "name": "james james",
        "dob": "blk",
        "age": "49",
        "place_of_birth": "aberystwyth",
        "home_address": "blk",
        "f": "blk",
        "name_of_ship": "waterloo",
        "ship_port": "aberystwyth",
        "date_leaving": "1878",
        "joined_ship_date": "continued",
        "joined_at_port": "blk",
        "capacity": "master",
        "date_left": "blk",
        "left_port": "blk",
        "cause_of_leaving": "remains on board",
        "sign_with_mark": "n",
        "notes": "blk"
    },
    {
        "id": "vtls004977012_0_14",
        "type": "sailor",
        "parent": "vtls004977012",
        "name": "llewelyn evans",
        "dob": "blk",
        "age": "18",
        "place_of_birth": "chester",
        "home_address": "blk",
        "f": "blk",
        "name_of_ship": "waterloo",
        "ship_port": "aberystwyth",
        "date_leaving": "1878-12-31",
        "joined_ship_date": "1879-01-01",
        "joined_at_port": "tralee",
        "capacity": "ordinary seaman",
        "date_left": "1879-05-21",
        "left_port": "gloucestershire",
        "cause_of_leaving": "discharged",
        "sign_with_mark": "n",
        "notes": "blk"
    },
    {
        "id": "vtls004977012_0_15",
        "type": "sailor",
        "parent": "vtls004977012",
        "name": "h jenks",
        "dob": "blk",
        "age": "16",
        "place_of_birth": "birmingham",
        "home_address": "blk",
        "f": "blk",
        "name_of_ship": "waterloo",
        "ship_port": "aberystwyth",
        "date_leaving": "1879-12-31",
        "joined_ship_date": "1879-01-01",
        "joined_at_port": "tralee",
        "capacity": "ordinary seaman",
        "date_left": "1879-05-21",
        "left_port": "gloucestershire",
        "cause_of_leaving": "discharged",
        "sign_with_mark": "n",
        "notes": "blk"
    },
    {
        "id": "vtls004977012_1_13",
        "type": "sailor",
        "parent": "vtls004977012",
        "name": "llewelyn evans",
        "dob": "blk",
        "age": "18",
        "place_of_birth": "chester",
        "home_address": "blk",
        "f": "blk",
        "name_of_ship": "waterloo",
        "ship_port": "aberystwyth",
        "date_leaving": "1879",
        "joined_ship_date": "1879-05-27",
        "joined_at_port": "gloucester",
        "capacity": "ordinary seaman",
        "date_left": "1879-07-24",
        "left_port": "glasgow",
        "cause_of_leaving": "discharged",
        "sign_with_mark": "n",
        "notes": "blk"
    },
    {
        "id": "vtls004977012_2_12",
        "type": "sailor",
        "parent": "vtls004977012",
        "name": "john stewart",
        "dob": "blk",
        "age": "29",
        "place_of_birth": "inverness",
        "home_address": "blk",
        "f": "blk",
        "name_of_ship": "elizabeth charlotte",
        "ship_port": "[portmadoc]",
        "date_leaving": "1879",
        "joined_ship_date": "1879-07-15",
        "joined_at_port": "glasgow",
        "capacity": "bosun",
        "date_left": "1879-09-06",
        "left_port": "antwerp",
        "cause_of_leaving": "discharged",
        "sign_with_mark": "n",
        "notes": "blk"
    },
    {
        "id": "vtls004977012_2_13",
        "type": "sailor",
        "parent": "vtls004977012",
        "name": "william meadows",
        "dob": "blk",
        "age": "25",
        "place_of_birth": "suffolk",
        "home_address": "blk",
        "f": "blk",
        "name_of_ship": "trebiskin",
        "ship_port": "padstow",
        "date_leaving": "1879",
        "joined_ship_date": "1879-07-15",
        "joined_at_port": "glasgow",
        "capacity": "ordinary seaman",
        "date_left": "1879-09-06",
        "left_port": "antwerp",
        "cause_of_leaving": "discharged",
        "sign_with_mark": "n",
        "notes": "blk"
    },
    {
        "id": "vtls004977012_1_14",
        "type": "sailor",
        "parent": "vtls004977012",
        "name": "h jenks",
        "dob": "blk",
        "age": "16",
        "place_of_birth": "birmingham",
        "home_address": "blk",
        "f": "blk",
        "name_of_ship": "first ship",
        "ship_port": "blk",
        "date_leaving": "1879",
        "joined_ship_date": "1879-05-24",
        "joined_at_port": "gloucester",
        "capacity": "ordinary seaman",
        "date_left": "1879-07-24",
        "left_port": "glasgow",
        "cause_of_leaving": "discharged",
        "sign_with_mark": "y",
        "notes": "blk"
    },
    {
        "id": "vtls004977012_1_11",
        "type": "sailor",
        "parent": "vtls004977012",
        "name": "james james",
        "dob": "blk",
        "age": "50",
        "place_of_birth": "aberystwyth",
        "home_address": "blk",
        "f": "blk",
        "name_of_ship": "waterloo",
        "ship_port": "aberystwyth",
        "date_leaving": "1879",
        "joined_ship_date": "1879-05-21",
        "joined_at_port": "gloucester",
        "capacity": "master",
        "date_left": "1879-07-24",
        "left_port": "glasgow",
        "cause_of_leaving": "discharged",
        "sign_with_mark": "n",
        "notes": "blk"
    },
    {
        "id": "vtls004977012_1_12",
        "type": "sailor",
        "parent": "vtls004977012",
        "name": "david morgans",
        "dob": "blk",
        "age": "30",
        "place_of_birth": "aberporth",
        "home_address": "blk",
        "f": "blk",
        "name_of_ship": "ann & ellen",
        "ship_port": "blk",
        "date_leaving": "1879",
        "joined_ship_date": "1879-05-21",
        "joined_at_port": "gloucester",
        "capacity": "bosun",
        "date_left": "1879-07-24",
        "left_port": "glasgow",
        "cause_of_leaving": "discharged",
        "sign_with_mark": "n",
        "notes": "blk"
    },
    {
        "id": "vtls004977012_2_11",
        "type": "sailor",
        "parent": "vtls004977012",
        "name": "james james",
        "dob": "blk",
        "age": "51",
        "place_of_birth": "aberystwyth",
        "home_address": "blk",
        "f": "blk",
        "name_of_ship": "waterloo",
        "ship_port": "aberystwyth",
        "date_leaving": "1879",
        "joined_ship_date": "1879-07-15",
        "joined_at_port": "glasgow",
        "capacity": "master",
        "date_left": "blk",
        "left_port": "blk",
        "cause_of_leaving": "remains on board",
        "sign_with_mark": "n",
        "notes": "blk"
    },
    {
        "id": "vtls004977012_2_18",
        "type": "sailor",
        "parent": "vtls004977012",
        "name": "william tegan",
        "dob": "blk",
        "age": "45",
        "place_of_birth": "trevine",
        "home_address": "blk",
        "f": "blk",
        "name_of_ship": "john roberts",
        "ship_port": "caernarvon",
        "date_leaving": "1879",
        "joined_ship_date": "1879-11-17",
        "joined_at_port": "penarth",
        "capacity": "ordinary seaman",
        "date_left": "blk",
        "left_port": "blk",
        "cause_of_leaving": "remains on board",
        "sign_with_mark": "y",
        "notes": "blk"
    },
    {
        "id": "vtls004977012_2_14",
        "type": "sailor",
        "parent": "vtls004977012",
        "name": "henry jenks",
        "dob": "blk",
        "age": "16",
        "place_of_birth": "birmingham",
        "home_address": "blk",
        "f": "blk",
        "name_of_ship": "waterloo",
        "ship_port": "aberystwyth",
        "date_leaving": "1879",
        "joined_ship_date": "1879-07-15",
        "joined_at_port": "glasgow",
        "capacity": "boy",
        "date_left": "1879-09-06",
        "left_port": "antwerp",
        "cause_of_leaving": "discharged",
        "sign_with_mark": "n",
        "notes": "blk"
    },
    {
        "id": "vtls004977012_2_15",
        "type": "sailor",
        "parent": "vtls004977012",
        "name": "john davies",
        "dob": "blk",
        "age": "40",
        "place_of_birth": "fishguard",
        "home_address": "blk",
        "f": "blk",
        "name_of_ship": "bolivia",
        "ship_port": "[glasgow]",
        "date_leaving": "1879",
        "joined_ship_date": "1879-09-11",
        "joined_at_port": "antwerp",
        "capacity": "able seaman",
        "date_left": "1879-11-13",
        "left_port": "penarth",
        "cause_of_leaving": "left",
        "sign_with_mark": "n",
        "notes": "blk"
    },
    {
        "id": "vtls004977012_2_19",
        "type": "sailor",
        "parent": "vtls004977012",
        "name": "william bowen",
        "dob": "blk",
        "age": "35",
        "place_of_birth": "cardigan",
        "home_address": "blk",
        "f": "blk",
        "name_of_ship": "morecambe belle",
        "ship_port": "barrow",
        "date_leaving": "1879",
        "joined_ship_date": "1879-11-18",
        "joined_at_port": "cardiff",
        "capacity": "mate",
        "date_left": "blk",
        "left_port": "blk",
        "cause_of_leaving": "remains on board",
        "sign_with_mark": "y",
        "notes": "blk"
    },
    {
        "id": "vtls004977012_2_16",
        "type": "sailor",
        "parent": "vtls004977012",
        "name": "john stafford",
        "dob": "blk",
        "age": "34",
        "place_of_birth": "jersey",
        "home_address": "blk",
        "f": "blk",
        "name_of_ship": "county",
        "ship_port": "[caernarvon]",
        "date_leaving": "1879",
        "joined_ship_date": "1879-09-11",
        "joined_at_port": "antwerp",
        "capacity": "mate",
        "date_left": "1879-11-11",
        "left_port": "penarth",
        "cause_of_leaving": "left",
        "sign_with_mark": "n",
        "notes": "blk"
    },
    {
        "id": "vtls004977012_2_17",
        "type": "sailor",
        "parent": "vtls004977012",
        "name": "samuel jenkins",
        "dob": "blk",
        "age": "16",
        "place_of_birth": "porthgain",
        "home_address": "blk",
        "f": "blk",
        "name_of_ship": "labourer",
        "ship_port": "blk",
        "date_leaving": "blk",
        "joined_ship_date": "1879-09-13",
        "joined_at_port": "penarth",
        "capacity": "cook",
        "date_left": "blk",
        "left_port": "blk",
        "cause_of_leaving": "remains on board",
        "sign_with_mark": "n",
        "notes": "blk"
    },
    {
        "id": "vtls004977014_0_11",
        "type": "sailor",
        "parent": "vtls004977014",
        "name": "james james",
        "dob": "blk",
        "age": "49",
        "place_of_birth": "aberystwyth",
        "home_address": "blk",
        "f": "blk",
        "name_of_ship": "waterloo",
        "ship_port": "aberystwyth",
        "date_leaving": "blk",
        "joined_ship_date": "blk",
        "joined_at_port": "blk",
        "capacity": "master",
        "date_left": "blk",
        "left_port": "blk",
        "cause_of_leaving": "remains on board",
        "sign_with_mark": "n",
        "notes": "blk"
    },
    {
        "id": "vtls004977014_1_13",
        "type": "sailor",
        "parent": "vtls004977014",
        "name": "go segergren",
        "dob": "blk",
        "age": "30",
        "place_of_birth": "sweden",
        "home_address": "blk",
        "f": "blk",
        "name_of_ship": "lau[rette]",
        "ship_port": "prince edward island",
        "date_leaving": "1881",
        "joined_ship_date": "1881-07-12",
        "joined_at_port": "gloucester",
        "capacity": "mate",
        "date_left": "blk",
        "left_port": "blk",
        "cause_of_leaving": "remains on board",
        "sign_with_mark": "n",
        "notes": "blk"
    },
    {
        "id": "vtls004977014_1_12",
        "type": "sailor",
        "parent": "vtls004977014",
        "name": "theodore mack",
        "dob": "blk",
        "age": "17",
        "place_of_birth": "dieppe",
        "home_address": "blk",
        "f": "blk",
        "name_of_ship": "waterloo",
        "ship_port": "aberystwyth",
        "date_leaving": "1881",
        "joined_ship_date": "1881-07-01",
        "joined_at_port": "gloucester",
        "capacity": "ordinary seaman",
        "date_left": "blk",
        "left_port": "blk",
        "cause_of_leaving": "remains on board",
        "sign_with_mark": "y",
        "notes": "blk"
    },
    {
        "id": "vtls004977014_0_12",
        "type": "sailor",
        "parent": "vtls004977014",
        "name": "john thomas",
        "dob": "blk",
        "age": "30",
        "place_of_birth": "aberystwyth",
        "home_address": "blk",
        "f": "blk",
        "name_of_ship": "sign[a]l",
        "ship_port": "aberdovey",
        "date_leaving": "blk",
        "joined_ship_date": "1881-01-02",
        "joined_at_port": "cardiff",
        "capacity": "able seaman",
        "date_left": "blk",
        "left_port": "blk",
        "cause_of_leaving": "remains on board",
        "sign_with_mark": "n",
        "notes": "blk"
    },
    {
        "id": "vtls004977014_1_14",
        "type": "sailor",
        "parent": "vtls004977014",
        "name": "edward rundlemy",
        "dob": "blk",
        "age": "53",
        "place_of_birth": "plymouth",
        "home_address": "blk",
        "f": "blk",
        "name_of_ship": "confidence",
        "ship_port": "blk",
        "date_leaving": "1881",
        "joined_ship_date": "1881-10-12",
        "joined_at_port": "garston",
        "capacity": "able seaman",
        "date_left": "blk",
        "left_port": "blk",
        "cause_of_leaving": "remains on board",
        "sign_with_mark": "y",
        "notes": "blk"
    },
    {
        "id": "vtls004977014_1_11",
        "type": "sailor",
        "parent": "vtls004977014",
        "name": "james james",
        "dob": "blk",
        "age": "49",
        "place_of_birth": "aberystwyth",
        "home_address": "blk",
        "f": "blk",
        "name_of_ship": "waterloo",
        "ship_port": "aberystwyth",
        "date_leaving": "1881",
        "joined_ship_date": "1881-07-01",
        "joined_at_port": "gloucester",
        "capacity": "master",
        "date_left": "blk",
        "left_port": "blk",
        "cause_of_leaving": "remains on board",
        "sign_with_mark": "n",
        "notes": "blk"
    },
    {
        "id": "vtls004977018_0_13",
        "type": "sailor",
        "parent": "vtls004977018",
        "name": "thomas evans",
        "dob": "blk",
        "age": "18",
        "place_of_birth": "llanelly",
        "home_address": "blk",
        "f": "blk",
        "name_of_ship": "waterloo",
        "ship_port": "aberystwyth",
        "date_leaving": "blk",
        "joined_ship_date": "blk",
        "joined_at_port": "blk",
        "capacity": "ordinary seaman",
        "date_left": "1884-06-04",
        "left_port": "swansea",
        "cause_of_leaving": "paid off",
        "sign_with_mark": "n",
        "notes": "blk"
    },
    {
        "id": "vtls004977014_0_13",
        "type": "sailor",
        "parent": "vtls004977014",
        "name": "theodore mack",
        "dob": "blk",
        "age": "17",
        "place_of_birth": "dieppe",
        "home_address": "blk",
        "f": "blk",
        "name_of_ship": "sign[a]l",
        "ship_port": "aberdovey",
        "date_leaving": "blk",
        "joined_ship_date": "1881-01-08",
        "joined_at_port": "cardiff",
        "capacity": "boy",
        "date_left": "blk",
        "left_port": "blk",
        "cause_of_leaving": "remains on board",
        "sign_with_mark": "n",
        "notes": "blk"
    },
    {
        "id": "vtls004977018_0_12",
        "type": "sailor",
        "parent": "vtls004977018",
        "name": "george corey",
        "dob": "blk",
        "age": "30",
        "place_of_birth": "cardigan",
        "home_address": "blk",
        "f": "blk",
        "name_of_ship": "waterloo",
        "ship_port": "aberystwyth",
        "date_leaving": "blk",
        "joined_ship_date": "blk",
        "joined_at_port": "blk",
        "capacity": "mate",
        "date_left": "1884-06-04",
        "left_port": "swansea",
        "cause_of_leaving": "paid off",
        "sign_with_mark": "n",
        "notes": "blk"
    },
    {
        "id": "vtls004977018_0_11",
        "type": "sailor",
        "parent": "vtls004977018",
        "name": "j james",
        "dob": "blk",
        "age": "51",
        "place_of_birth": "aberystwyth",
        "home_address": "blk",
        "f": "blk",
        "name_of_ship": "waterloo",
        "ship_port": "aberystwyth",
        "date_leaving": "blk",
        "joined_ship_date": "blk",
        "joined_at_port": "blk",
        "capacity": "master",
        "date_left": "blk",
        "left_port": "blk",
        "cause_of_leaving": "remains on board",
        "sign_with_mark": "n",
        "notes": "blk"
    },
    {
        "id": "vtls004977018_0_15",
        "type": "sailor",
        "parent": "vtls004977018",
        "name": "thomas morgan",
        "dob": "blk",
        "age": "16",
        "place_of_birth": "fishguard",
        "home_address": "blk",
        "f": "blk",
        "name_of_ship": "loyalty",
        "ship_port": "aberystwyth",
        "date_leaving": "1884",
        "joined_ship_date": "1884-06-05",
        "joined_at_port": "swansea",
        "capacity": "ordinary seaman",
        "date_left": "blk",
        "left_port": "blk",
        "cause_of_leaving": "remains on board",
        "sign_with_mark": "n",
        "notes": "blk"
    },
    {
        "id": "vtls004977018_1_13",
        "type": "sailor",
        "parent": "vtls004977018",
        "name": "thomas williams",
        "dob": "1859",
        "age": "blk",
        "place_of_birth": "aberystwyth",
        "home_address": "blk",
        "f": "blk",
        "name_of_ship": "waterloo",
        "ship_port": "aberystwyth",
        "date_leaving": "blk",
        "joined_ship_date": "blk",
        "joined_at_port": "blk",
        "capacity": "able seaman",
        "date_left": "1884-12-31",
        "left_port": "briton ferry",
        "cause_of_leaving": "paid off",
        "sign_with_mark": "n",
        "notes": "blk"
    },
    {
        "id": "vtls004977020_0_11",
        "type": "sailor",
        "parent": "vtls004977020",
        "name": "jas james",
        "dob": "1834",
        "age": "blk",
        "place_of_birth": "aberystwyth",
        "home_address": "blk",
        "f": "blk",
        "name_of_ship": "waterloo",
        "ship_port": "aberystwyth",
        "date_leaving": "blk",
        "joined_ship_date": "blk",
        "joined_at_port": "blk",
        "capacity": "master",
        "date_left": "blk",
        "left_port": "blk",
        "cause_of_leaving": "remains on board",
        "sign_with_mark": "n",
        "notes": "account for jan - june 1886"
    },
    {
        "id": "vtls004977018_1_12",
        "type": "sailor",
        "parent": "vtls004977018",
        "name": "samuel davies",
        "dob": "1852",
        "age": "blk",
        "place_of_birth": "pembrokeshire",
        "home_address": "blk",
        "f": "blk",
        "name_of_ship": "waterloo",
        "ship_port": "aberystwyth",
        "date_leaving": "blk",
        "joined_ship_date": "blk",
        "joined_at_port": "blk",
        "capacity": "mate",
        "date_left": "1884-12-31",
        "left_port": "briton ferry",
        "cause_of_leaving": "paid off",
        "sign_with_mark": "n",
        "notes": "blk"
    },
    {
        "id": "vtls004977018_0_14",
        "type": "sailor",
        "parent": "vtls004977018",
        "name": "william williams",
        "dob": "blk",
        "age": "46",
        "place_of_birth": "cardigan",
        "home_address": "blk",
        "f": "blk",
        "name_of_ship": "gra[c]e",
        "ship_port": "milford",
        "date_leaving": "1884",
        "joined_ship_date": "1884-06-05",
        "joined_at_port": "swansea",
        "capacity": "mate",
        "date_left": "blk",
        "left_port": "blk",
        "cause_of_leaving": "remains on board",
        "sign_with_mark": "n",
        "notes": "blk"
    },
    {
        "id": "vtls004977018_1_11",
        "type": "sailor",
        "parent": "vtls004977018",
        "name": "james james",
        "dob": "1831",
        "age": "blk",
        "place_of_birth": "aberystwyth",
        "home_address": "blk",
        "f": "blk",
        "name_of_ship": "waterloo",
        "ship_port": "aberystwyth",
        "date_leaving": "blk",
        "joined_ship_date": "blk",
        "joined_at_port": "blk",
        "capacity": "master",
        "date_left": "blk",
        "left_port": "blk",
        "cause_of_leaving": "remains on board",
        "sign_with_mark": "n",
        "notes": "blk"
    },
    {
        "id": "vtls004977020_0_12",
        "type": "sailor",
        "parent": "vtls004977020",
        "name": "thomas bone",
        "dob": "1836",
        "age": "blk",
        "place_of_birth": "aberystwyth",
        "home_address": "blk",
        "f": "blk",
        "name_of_ship": "waterloo",
        "ship_port": "aberystwyth",
        "date_leaving": "blk",
        "joined_ship_date": "blk",
        "joined_at_port": "blk",
        "capacity": "mate",
        "date_left": "blk",
        "left_port": "blk",
        "cause_of_leaving": "remains on board",
        "sign_with_mark": "n",
        "notes": "blk"
    },
    {
        "id": "vtls004977020_0_13",
        "type": "sailor",
        "parent": "vtls004977020",
        "name": "edward edgerton",
        "dob": "1866",
        "age": "blk",
        "place_of_birth": "connahs quay",
        "home_address": "blk",
        "f": "blk",
        "name_of_ship": "waterloo",
        "ship_port": "aberystwyth",
        "date_leaving": "blk",
        "joined_ship_date": "blk",
        "joined_at_port": "blk",
        "capacity": "ordinary seaman",
        "date_left": "blk",
        "left_port": "blk",
        "cause_of_leaving": "remains on board",
        "sign_with_mark": "n",
        "notes": "blk"
    },
    {
        "id": "vtls004977020_1_13",
        "type": "sailor",
        "parent": "vtls004977020",
        "name": "hugh parry",
        "dob": "1864",
        "age": "blk",
        "place_of_birth": "amlwch",
        "home_address": "blk",
        "f": "blk",
        "name_of_ship": "waterloo",
        "ship_port": "aberystwyth",
        "date_leaving": "1886",
        "joined_ship_date": "1886-07-01",
        "joined_at_port": "preston",
        "capacity": "ordinary seaman",
        "date_left": "blk",
        "left_port": "blk",
        "cause_of_leaving": "still on board",
        "sign_with_mark": "n",
        "notes": "blk"
    },
    {
        "id": "vtls004977025_0_13",
        "type": "sailor",
        "parent": "vtls004977025",
        "name": "edward humphries",
        "dob": "1867",
        "age": "blk",
        "place_of_birth": "flint",
        "home_address": "blk",
        "f": "blk",
        "name_of_ship": "waterloo",
        "ship_port": "aberystwyth",
        "date_leaving": "1886",
        "joined_ship_date": "blk",
        "joined_at_port": "blk",
        "capacity": "ordinary seaman",
        "date_left": "blk",
        "left_port": "blk",
        "cause_of_leaving": "remains on board",
        "sign_with_mark": "n",
        "notes": "blk"
    },
    {
        "id": "vtls004977020_1_11",
        "type": "sailor",
        "parent": "vtls004977020",
        "name": "james james",
        "dob": "1834",
        "age": "blk",
        "place_of_birth": "aberystwyth",
        "home_address": "blk",
        "f": "blk",
        "name_of_ship": "waterloo",
        "ship_port": "aberystwyth",
        "date_leaving": "1886",
        "joined_ship_date": "1886-07-01",
        "joined_at_port": "preston",
        "capacity": "master",
        "date_left": "blk",
        "left_port": "blk",
        "cause_of_leaving": "still on board",
        "sign_with_mark": "n",
        "notes": "blk"
    },
    {
        "id": "vtls004977025_0_12",
        "type": "sailor",
        "parent": "vtls004977025",
        "name": "edward thomas",
        "dob": "1851",
        "age": "blk",
        "place_of_birth": "caernarfon",
        "home_address": "blk",
        "f": "blk",
        "name_of_ship": "waterloo",
        "ship_port": "aberystwyth",
        "date_leaving": "1886",
        "joined_ship_date": "blk",
        "joined_at_port": "blk",
        "capacity": "mate",
        "date_left": "1887-05-20",
        "left_port": "castletown",
        "cause_of_leaving": "paid off",
        "sign_with_mark": "n",
        "notes": "blk"
    },
    {
        "id": "vtls004977020_1_12",
        "type": "sailor",
        "parent": "vtls004977020",
        "name": "david d davies",
        "dob": "1855",
        "age": "blk",
        "place_of_birth": "cardigan",
        "home_address": "blk",
        "f": "blk",
        "name_of_ship": "waterloo",
        "ship_port": "aberystwyth",
        "date_leaving": "1886",
        "joined_ship_date": "1886-07-01",
        "joined_at_port": "preston",
        "capacity": "mate",
        "date_left": "blk",
        "left_port": "blk",
        "cause_of_leaving": "still on board",
        "sign_with_mark": "n",
        "notes": "blk"
    },
    {
        "id": "vtls004977025_0_14",
        "type": "sailor",
        "parent": "vtls004977025",
        "name": "edward olliver",
        "dob": "1860",
        "age": "blk",
        "place_of_birth": "flint",
        "home_address": "blk",
        "f": "blk",
        "name_of_ship": "pollux",
        "ship_port": "foreign",
        "date_leaving": "1886",
        "joined_ship_date": "1887-05-21",
        "joined_at_port": "castletown",
        "capacity": "mate",
        "date_left": "1887-06-24",
        "left_port": "tralee",
        "cause_of_leaving": "paid off",
        "sign_with_mark": "n",
        "notes": "blk"
    },
    {
        "id": "vtls004977025_1_11",
        "type": "sailor",
        "parent": "vtls004977025",
        "name": "james james",
        "dob": "1836",
        "age": "blk",
        "place_of_birth": "aberystwyth",
        "home_address": "blk",
        "f": "blk",
        "name_of_ship": "waterloo",
        "ship_port": "aberystwyth",
        "date_leaving": "blk",
        "joined_ship_date": "blk",
        "joined_at_port": "blk",
        "capacity": "master",
        "date_left": "blk",
        "left_port": "blk",
        "cause_of_leaving": "remains on board",
        "sign_with_mark": "n",
        "notes": "blk"
    },
    {
        "id": "vtls004977025_0_11",
        "type": "sailor",
        "parent": "vtls004977025",
        "name": "james james",
        "dob": "blk",
        "age": "blk",
        "place_of_birth": "aberystwyth",
        "home_address": "blk",
        "f": "blk",
        "name_of_ship": "waterloo",
        "ship_port": "aberystwyth",
        "date_leaving": "1886",
        "joined_ship_date": "blk",
        "joined_at_port": "blk",
        "capacity": "master",
        "date_left": "blk",
        "left_port": "blk",
        "cause_of_leaving": "remains on board",
        "sign_with_mark": "n",
        "notes": "blk"
    },
    {
        "id": "vtls004977025_1_15",
        "type": "sailor",
        "parent": "vtls004977025",
        "name": "j williams",
        "dob": "1863",
        "age": "blk",
        "place_of_birth": "beaumaris",
        "home_address": "blk",
        "f": "blk",
        "name_of_ship": "waterloo",
        "ship_port": "aberystwyth",
        "date_leaving": "1887",
        "joined_ship_date": "1887-12-12",
        "joined_at_port": "caernarvon",
        "capacity": "ordinary seaman",
        "date_left": "blk",
        "left_port": "blk",
        "cause_of_leaving": "remains on board",
        "sign_with_mark": "n",
        "notes": "blk"
    },
    {
        "id": "vtls004977025_1_12",
        "type": "sailor",
        "parent": "vtls004977025",
        "name": "edward wynne",
        "dob": "1860",
        "age": "blk",
        "place_of_birth": "chester",
        "home_address": "blk",
        "f": "blk",
        "name_of_ship": "waterloo",
        "ship_port": "aberystwyth",
        "date_leaving": "blk",
        "joined_ship_date": "blk",
        "joined_at_port": "blk",
        "capacity": "ordinary seaman",
        "date_left": "1887-11-29",
        "left_port": "caernarfon",
        "cause_of_leaving": "paid off",
        "sign_with_mark": "n",
        "notes": "blk"
    },
    {
        "id": "vtls004977025_1_14",
        "type": "sailor",
        "parent": "vtls004977025",
        "name": "g griffiths",
        "dob": "1838",
        "age": "blk",
        "place_of_birth": "caernarfon",
        "home_address": "blk",
        "f": "blk",
        "name_of_ship": "zion hill",
        "ship_port": "caernarfon",
        "date_leaving": "1887",
        "joined_ship_date": "1887-12-12",
        "joined_at_port": "caernarvon",
        "capacity": "mate",
        "date_left": "blk",
        "left_port": "blk",
        "cause_of_leaving": "remains on board",
        "sign_with_mark": "n",
        "notes": "blk"
    },
    {
        "id": "vtls004977025_1_13",
        "type": "sailor",
        "parent": "vtls004977025",
        "name": "donald macinnes",
        "dob": "1866",
        "age": "blk",
        "place_of_birth": "inverness",
        "home_address": "blk",
        "f": "blk",
        "name_of_ship": "waterloo",
        "ship_port": "aberystwyth",
        "date_leaving": "blk",
        "joined_ship_date": "blk",
        "joined_at_port": "blk",
        "capacity": "mate",
        "date_left": "1887-10-06",
        "left_port": "tralee",
        "cause_of_leaving": "paid off",
        "sign_with_mark": "n",
        "notes": "blk"
    }
]