[
    {
        "id": "vtls004648064_0_11",
        "type": "sailor",
        "parent": "vtls004648064",
        "name": "john thomas",
        "dob": "blk",
        "age": "64",
        "place_of_birth": "fishguard, pembrokeshire",
        "home_address": "blk",
        "f": "blk",
        "name_of_ship": "gloucester packet",
        "ship_port": "cardigan",
        "date_leaving": "1883-10-20",
        "joined_ship_date": "1884-03-02",
        "joined_at_port": "aberystwyth",
        "capacity": "master",
        "date_left": "1884-06-30",
        "left_port": "newport",
        "cause_of_leaving": "remaining",
        "sign_with_mark": "n",
        "notes": "blk"
    },
    {
        "id": "vtls004648067_0_11",
        "type": "sailor",
        "parent": "vtls004648067",
        "name": "david rees",
        "dob": "1848",
        "age": "blk",
        "place_of_birth": "goodwick",
        "home_address": "blk",
        "f": "blk",
        "name_of_ship": "woodfield",
        "ship_port": "liverpool",
        "date_leaving": "1885-00-00",
        "joined_ship_date": "1886-02-09",
        "joined_at_port": "aberystwyth",
        "capacity": "master",
        "date_left": "1886-05-17",
        "left_port": "blk",
        "cause_of_leaving": "drowned",
        "sign_with_mark": "n",
        "notes": "foundered on passage 1886-05-17  4miles off strumble head"
    },
    {
        "id": "vtls004648067_0_13",
        "type": "sailor",
        "parent": "vtls004648067",
        "name": "benjamin davies",
        "dob": "1826",
        "age": "blk",
        "place_of_birth": "fishguard",
        "home_address": "blk",
        "f": "blk",
        "name_of_ship": "not known",
        "ship_port": "not known",
        "date_leaving": "1885-00-00",
        "joined_ship_date": "1886-03-18",
        "joined_at_port": "milford",
        "capacity": "able seaman",
        "date_left": "1886-05-17",
        "left_port": "blk",
        "cause_of_leaving": "drowned",
        "sign_with_mark": "n",
        "notes": "4 miles off strumble head"
    },
    {
        "id": "vtls004648067_0_12",
        "type": "sailor",
        "parent": "vtls004648067",
        "name": "david lewis",
        "dob": "1832",
        "age": "blk",
        "place_of_birth": "fishguard",
        "home_address": "blk",
        "f": "blk",
        "name_of_ship": "not known",
        "ship_port": "not known",
        "date_leaving": "1885-00-00",
        "joined_ship_date": "1886-02-09",
        "joined_at_port": "aberystwyth",
        "capacity": "able seaman",
        "date_left": "1886-03-18",
        "left_port": "milford",
        "cause_of_leaving": "discharged",
        "sign_with_mark": "n",
        "notes": "blk"
    },
    {
        "id": "vtls004648064_1_12",
        "type": "sailor",
        "parent": "vtls004648064",
        "name": "thomas evans",
        "dob": "1850",
        "age": "blk",
        "place_of_birth": "aberystwyth",
        "home_address": "blk",
        "f": "blk",
        "name_of_ship": "southern ocean",
        "ship_port": "blk",
        "date_leaving": "1883",
        "joined_ship_date": "1884-03-20",
        "joined_at_port": "aberystwyth",
        "capacity": "mate",
        "date_left": "1884-03-24",
        "left_port": "swansea",
        "cause_of_leaving": "discharged",
        "sign_with_mark": "n",
        "notes": "blk"
    },
    {
        "id": "vtls004648064_1_11",
        "type": "sailor",
        "parent": "vtls004648064",
        "name": "john thomas",
        "dob": "1830",
        "age": "blk",
        "place_of_birth": "fishguard",
        "home_address": "blk",
        "f": "blk",
        "name_of_ship": "punch",
        "ship_port": "fishguard",
        "date_leaving": "1883",
        "joined_ship_date": "1884-03-03",
        "joined_at_port": "aberystwyth",
        "capacity": "master",
        "date_left": "1884-11-12",
        "left_port": "aberaeron",
        "cause_of_leaving": "discharged",
        "sign_with_mark": "n",
        "notes": "blk"
    },
    {
        "id": "vtls004648064_0_12",
        "type": "sailor",
        "parent": "vtls004648064",
        "name": "david gwynne",
        "dob": "blk",
        "age": "18",
        "place_of_birth": "dinas, pembrokeshire",
        "home_address": "blk",
        "f": "blk",
        "name_of_ship": "heroine",
        "ship_port": "milford",
        "date_leaving": "1884-05-05",
        "joined_ship_date": "1884-0510",
        "joined_at_port": "milford",
        "capacity": "mate",
        "date_left": "1884-06-30",
        "left_port": "newport",
        "cause_of_leaving": "remaining",
        "sign_with_mark": "n",
        "notes": "blk"
    },
    {
        "id": "vtls004648064_1_13",
        "type": "sailor",
        "parent": "vtls004648064",
        "name": "david gwyn",
        "dob": "1864",
        "age": "blk",
        "place_of_birth": "fishguard",
        "home_address": "blk",
        "f": "blk",
        "name_of_ship": "punch",
        "ship_port": "fishguard",
        "date_leaving": "1883",
        "joined_ship_date": "1884-03-25",
        "joined_at_port": "swansea",
        "capacity": "mate",
        "date_left": "1884-11-12",
        "left_port": "aberaeron",
        "cause_of_leaving": "discharged",
        "sign_with_mark": "n",
        "notes": "blk"
    }
]