[
    {
        "id": "vtls004660999_0_11",
        "type": "sailor",
        "parent": "vtls004660999",
        "name": "joseph rees",
        "dob": "blk",
        "age": "25",
        "place_of_birth": "aberaeron",
        "home_address": "blk",
        "f": "blk",
        "name_of_ship": "fair hope",
        "ship_port": "aberystwyth",
        "date_leaving": "1862-12-31",
        "joined_ship_date": "1963-01-01",
        "joined_at_port": "aberayron",
        "capacity": "master",
        "date_left": "1863-06-30",
        "left_port": "aberaeron",
        "cause_of_leaving": "remains on board",
        "sign_with_mark": "n",
        "notes": "blk"
    },
    {
        "id": "vtls004660999_0_12",
        "type": "sailor",
        "parent": "vtls004660999",
        "name": "evan evans",
        "dob": "blk",
        "age": "64",
        "place_of_birth": "llanddewi, cardiganshire",
        "home_address": "blk",
        "f": "blk",
        "name_of_ship": "fair hope",
        "ship_port": "aberystwyth",
        "date_leaving": "1862-12-31",
        "joined_ship_date": "1963-01-01",
        "joined_at_port": "aberayron",
        "capacity": "mate",
        "date_left": "1863-06-30",
        "left_port": "aberaeron",
        "cause_of_leaving": "remains on board",
        "sign_with_mark": "n",
        "notes": "blk"
    },
    {
        "id": "vtls004661003_0_14",
        "type": "sailor",
        "parent": "vtls004661003",
        "name": "evan evans",
        "dob": "blk",
        "age": "65",
        "place_of_birth": "llanddewi, cardiganshire",
        "home_address": "blk",
        "f": "blk",
        "name_of_ship": "fair hope",
        "ship_port": "aberystwyth",
        "date_leaving": "1863-12-31",
        "joined_ship_date": "1864-01-01",
        "joined_at_port": "bristol",
        "capacity": "master",
        "date_left": "1864-06-05",
        "left_port": "aberaeron",
        "cause_of_leaving": "remains on board",
        "sign_with_mark": "n",
        "notes": "blk"
    },
    {
        "id": "vtls004660999_1_11",
        "type": "sailor",
        "parent": "vtls004660999",
        "name": "joseph rees",
        "dob": "blk",
        "age": "26",
        "place_of_birth": "aberaeron",
        "home_address": "blk",
        "f": "blk",
        "name_of_ship": "fair hope",
        "ship_port": "aberystwyth",
        "date_leaving": "1863-06-30",
        "joined_ship_date": "1863-07-01",
        "joined_at_port": "aberayron",
        "capacity": "master",
        "date_left": "1863-12-31",
        "left_port": "aberaeron",
        "cause_of_leaving": "remains on board",
        "sign_with_mark": "n",
        "notes": "blk"
    },
    {
        "id": "vtls004660999_0_13",
        "type": "sailor",
        "parent": "vtls004660999",
        "name": "william davies",
        "dob": "blk",
        "age": "18",
        "place_of_birth": "aberaeron",
        "home_address": "blk",
        "f": "blk",
        "name_of_ship": "gomer",
        "ship_port": "aberystwyth",
        "date_leaving": "1862-$",
        "joined_ship_date": "1963-01-01",
        "joined_at_port": "aberayron",
        "capacity": "boy",
        "date_left": "1863-06-30",
        "left_port": "aberaeron",
        "cause_of_leaving": "remains on board",
        "sign_with_mark": "n",
        "notes": "blk"
    },
    {
        "id": "vtls004660999_1_12",
        "type": "sailor",
        "parent": "vtls004660999",
        "name": "evan evans",
        "dob": "blk",
        "age": "65",
        "place_of_birth": "llanddewi, cardiganshire",
        "home_address": "blk",
        "f": "blk",
        "name_of_ship": "fair hope",
        "ship_port": "aberystwyth",
        "date_leaving": "1863-06-31",
        "joined_ship_date": "1863-07-01",
        "joined_at_port": "aberayron",
        "capacity": "mate",
        "date_left": "1863-12-31",
        "left_port": "aberaeron",
        "cause_of_leaving": "remains on board",
        "sign_with_mark": "n",
        "notes": "blk"
    },
    {
        "id": "vtls004661003_0_11",
        "type": "sailor",
        "parent": "vtls004661003",
        "name": "joseph rees",
        "dob": "blk",
        "age": "25",
        "place_of_birth": "aberaeron",
        "home_address": "blk",
        "f": "blk",
        "name_of_ship": "fair hope",
        "ship_port": "aberystwyth",
        "date_leaving": "1863-12-31",
        "joined_ship_date": "1864-01-01",
        "joined_at_port": "bristol",
        "capacity": "master",
        "date_left": "1864-06-21",
        "left_port": "aberaeron",
        "cause_of_leaving": "discharged",
        "sign_with_mark": "n",
        "notes": "blk"
    },
    {
        "id": "vtls004661003_0_13",
        "type": "sailor",
        "parent": "vtls004661003",
        "name": "thomas morgans",
        "dob": "blk",
        "age": "17",
        "place_of_birth": "aberaeron",
        "home_address": "blk",
        "f": "blk",
        "name_of_ship": "fair hope",
        "ship_port": "aberystwyth",
        "date_leaving": "1863-12-31",
        "joined_ship_date": "1864-01-01",
        "joined_at_port": "bristol",
        "capacity": "boy",
        "date_left": "1864-06-06",
        "left_port": "aberaeron",
        "cause_of_leaving": "discharged",
        "sign_with_mark": "n",
        "notes": "blk"
    },
    {
        "id": "vtls004660999_1_13",
        "type": "sailor",
        "parent": "vtls004660999",
        "name": "william davies",
        "dob": "blk",
        "age": "19",
        "place_of_birth": "aberaeron",
        "home_address": "blk",
        "f": "blk",
        "name_of_ship": "fair hope",
        "ship_port": "aberystwyth",
        "date_leaving": "1863-06-32",
        "joined_ship_date": "1863-07-01",
        "joined_at_port": "aberayron",
        "capacity": "boy",
        "date_left": "1863-12-31",
        "left_port": "aberaeron",
        "cause_of_leaving": "discharged",
        "sign_with_mark": "n",
        "notes": "blk"
    },
    {
        "id": "vtls004661003_0_12",
        "type": "sailor",
        "parent": "vtls004661003",
        "name": "evan evans",
        "dob": "blk",
        "age": "65",
        "place_of_birth": "llanddewi, cardiganshire",
        "home_address": "blk",
        "f": "blk",
        "name_of_ship": "fair hope",
        "ship_port": "aberystwyth",
        "date_leaving": "1863-12-31",
        "joined_ship_date": "1864-01-01",
        "joined_at_port": "bristol",
        "capacity": "mate",
        "date_left": "1864-06-21",
        "left_port": "aberaeron",
        "cause_of_leaving": "discharged",
        "sign_with_mark": "n",
        "notes": "blk"
    },
    {
        "id": "vtls004661006_0_11",
        "type": "sailor",
        "parent": "vtls004661006",
        "name": "thomas morgans",
        "dob": "blk",
        "age": "53",
        "place_of_birth": "aberaeron",
        "home_address": "blk",
        "f": "blk",
        "name_of_ship": "fair hope",
        "ship_port": "aberystwyth",
        "date_leaving": "1865-12-31",
        "joined_ship_date": "1866-01-01",
        "joined_at_port": "newport",
        "capacity": "master",
        "date_left": "1866-02-20",
        "left_port": "newquay",
        "cause_of_leaving": "discharged",
        "sign_with_mark": "n",
        "notes": "blk"
    },
    {
        "id": "vtls004661006_0_12",
        "type": "sailor",
        "parent": "vtls004661006",
        "name": "thomas morgans",
        "dob": "blk",
        "age": "19",
        "place_of_birth": "aberaeron",
        "home_address": "blk",
        "f": "blk",
        "name_of_ship": "fair hope",
        "ship_port": "aberystwyth",
        "date_leaving": "1865-12-31",
        "joined_ship_date": "1866-01-01",
        "joined_at_port": "newport",
        "capacity": "mate",
        "date_left": "1866-02-20",
        "left_port": "newquay",
        "cause_of_leaving": "discharged",
        "sign_with_mark": "n",
        "notes": "blk"
    },
    {
        "id": "vtls004661006_0_13",
        "type": "sailor",
        "parent": "vtls004661006",
        "name": "david morgans",
        "dob": "blk",
        "age": "14",
        "place_of_birth": "aberaeron",
        "home_address": "blk",
        "f": "blk",
        "name_of_ship": "fair hope",
        "ship_port": "aberystwyth",
        "date_leaving": "1865-12-31",
        "joined_ship_date": "1866-01-01",
        "joined_at_port": "newport",
        "capacity": "boy",
        "date_left": "1866-02-20",
        "left_port": "newquay",
        "cause_of_leaving": "discharged",
        "sign_with_mark": "n",
        "notes": "blk"
    }
]