[
    {
        "id": "vtls004961153_0_13",
        "type": "sailor",
        "parent": "vtls004961153",
        "name": "james griffiths",
        "dob": "blk",
        "age": "20",
        "place_of_birth": "aberystwyth",
        "home_address": "blk",
        "f": "blk",
        "name_of_ship": "speculation",
        "ship_port": "aberystwyth",
        "date_leaving": "remained on board",
        "joined_ship_date": "1863-01",
        "joined_at_port": "aberystwyth",
        "capacity": "seaman",
        "date_left": "1863-05",
        "left_port": "aberystwyth",
        "cause_of_leaving": "discharged",
        "sign_with_mark": "n",
        "notes": "blk"
    },
    {
        "id": "vtls004961153_0_11",
        "type": "sailor",
        "parent": "vtls004961153",
        "name": "david james",
        "dob": "blk",
        "age": "28",
        "place_of_birth": "aberystwyth",
        "home_address": "blk",
        "f": "blk",
        "name_of_ship": "maid of meririon",
        "ship_port": "aberystwyth",
        "date_leaving": "1862-12-31",
        "joined_ship_date": "1863-01",
        "joined_at_port": "aberystwyth",
        "capacity": "master",
        "date_left": "1863-06-30",
        "left_port": "aberystwyth",
        "cause_of_leaving": "discharged",
        "sign_with_mark": "n",
        "notes": "blk"
    },
    {
        "id": "vtls004961153_0_12",
        "type": "sailor",
        "parent": "vtls004961153",
        "name": "richard williams",
        "dob": "blk",
        "age": "29",
        "place_of_birth": "borth",
        "home_address": "blk",
        "f": "blk",
        "name_of_ship": "speculation",
        "ship_port": "aberystwyth",
        "date_leaving": "remained on board",
        "joined_ship_date": "1863-01",
        "joined_at_port": "aberystwyth",
        "capacity": "mate",
        "date_left": "1863-05",
        "left_port": "aberystwyth",
        "cause_of_leaving": "discharged",
        "sign_with_mark": "n",
        "notes": "blk"
    },
    {
        "id": "vtls004961153_1_11",
        "type": "sailor",
        "parent": "vtls004961153",
        "name": "thomas james",
        "dob": "blk",
        "age": "26",
        "place_of_birth": "cardigan",
        "home_address": "princess street, aberystwith",
        "f": "princess street, aberystwith",
        "name_of_ship": "speculation",
        "ship_port": "aberystwyth",
        "date_leaving": "1863-06-30",
        "joined_ship_date": "1863-07-01",
        "joined_at_port": "llanelly",
        "capacity": "master",
        "date_left": "1863-12-31",
        "left_port": "runcorn",
        "cause_of_leaving": "remains on board",
        "sign_with_mark": "n",
        "notes": "blk"
    },
    {
        "id": "vtls004961160_0_11",
        "type": "sailor",
        "parent": "vtls004961160",
        "name": "david d davies",
        "dob": "blk",
        "age": "22",
        "place_of_birth": "aberystwyth",
        "home_address": "spring gardens, aberystwith",
        "f": "spring gardens, aberystwith",
        "name_of_ship": "clara",
        "ship_port": "aberystwyth",
        "date_leaving": "1863-12-03",
        "joined_ship_date": "1864-03-10",
        "joined_at_port": "portmadoc",
        "capacity": "master",
        "date_left": "blk",
        "left_port": "blk",
        "cause_of_leaving": "remains on board",
        "sign_with_mark": "n",
        "notes": "blk"
    },
    {
        "id": "vtls004961153_1_12",
        "type": "sailor",
        "parent": "vtls004961153",
        "name": "william williams",
        "dob": "blk",
        "age": "59",
        "place_of_birth": "borth, cardigan",
        "home_address": "blk",
        "f": "blk",
        "name_of_ship": "speculation",
        "ship_port": "aberystwyth",
        "date_leaving": "1863-06-30",
        "joined_ship_date": "1863-07-01",
        "joined_at_port": "llanelly",
        "capacity": "mate",
        "date_left": "1863-12-31",
        "left_port": "runcorn",
        "cause_of_leaving": "remains on board",
        "sign_with_mark": "n",
        "notes": "blk"
    },
    {
        "id": "vtls004961153_1_13",
        "type": "sailor",
        "parent": "vtls004961153",
        "name": "john reay",
        "dob": "blk",
        "age": "19",
        "place_of_birth": "dover",
        "home_address": "blk",
        "f": "blk",
        "name_of_ship": "speculation",
        "ship_port": "aberystwyth",
        "date_leaving": "1863-06-30",
        "joined_ship_date": "1863-07-01",
        "joined_at_port": "llanelly",
        "capacity": "ordinary seaman",
        "date_left": "1863-12-31",
        "left_port": "runcorn",
        "cause_of_leaving": "remains on board",
        "sign_with_mark": "n",
        "notes": "blk"
    },
    {
        "id": "vtls004961160_0_14",
        "type": "sailor",
        "parent": "vtls004961160",
        "name": "thomas williams",
        "dob": "blk",
        "age": "12",
        "place_of_birth": "aberystwyth",
        "home_address": "blk",
        "f": "blk",
        "name_of_ship": "first time at sea",
        "ship_port": "blk",
        "date_leaving": "1863-12-13",
        "joined_ship_date": "1864-03-10",
        "joined_at_port": "portmadoc",
        "capacity": "boy",
        "date_left": "blk",
        "left_port": "blk",
        "cause_of_leaving": "remains on board",
        "sign_with_mark": "n",
        "notes": "blk"
    },
    {
        "id": "vtls004961160_0_13",
        "type": "sailor",
        "parent": "vtls004961160",
        "name": "richard parry",
        "dob": "blk",
        "age": "17",
        "place_of_birth": "dyffryn, meirioneth",
        "home_address": "blk",
        "f": "blk",
        "name_of_ship": "elenor",
        "ship_port": "barrow",
        "date_leaving": "1863-12-13",
        "joined_ship_date": "1864-03-10",
        "joined_at_port": "portmadoc",
        "capacity": "able seaman",
        "date_left": "blk",
        "left_port": "blk",
        "cause_of_leaving": "remains on board",
        "sign_with_mark": "n",
        "notes": "blk"
    },
    {
        "id": "vtls004961160_1_12",
        "type": "sailor",
        "parent": "vtls004961160",
        "name": "thomas edwards",
        "dob": "blk",
        "age": "21",
        "place_of_birth": "aberystwyth",
        "home_address": "blk",
        "f": "blk",
        "name_of_ship": "speculation",
        "ship_port": "aberystwyth",
        "date_leaving": "remained on board",
        "joined_ship_date": "blk",
        "joined_at_port": "blk",
        "capacity": "mate",
        "date_left": "1864-06-30",
        "left_port": "aberystwyth",
        "cause_of_leaving": "discharged",
        "sign_with_mark": "n",
        "notes": "blk"
    },
    {
        "id": "vtls004961160_0_12",
        "type": "sailor",
        "parent": "vtls004961160",
        "name": "henry jones",
        "dob": "blk",
        "age": "23",
        "place_of_birth": "aberystwyth",
        "home_address": "blk",
        "f": "blk",
        "name_of_ship": "elenor",
        "ship_port": "barrow",
        "date_leaving": "1863-12-13",
        "joined_ship_date": "1864-03-10",
        "joined_at_port": "portmadoc",
        "capacity": "mate",
        "date_left": "blk",
        "left_port": "blk",
        "cause_of_leaving": "remains on board",
        "sign_with_mark": "n",
        "notes": "blk"
    },
    {
        "id": "vtls004961160_1_11",
        "type": "sailor",
        "parent": "vtls004961160",
        "name": "william edwards",
        "dob": "blk",
        "age": "46",
        "place_of_birth": "borth",
        "home_address": "borth",
        "f": "borth",
        "name_of_ship": "speculation",
        "ship_port": "aberystwyth",
        "date_leaving": "remained on board",
        "joined_ship_date": "blk",
        "joined_at_port": "blk",
        "capacity": "master",
        "date_left": "blk",
        "left_port": "blk",
        "cause_of_leaving": "remains on board",
        "sign_with_mark": "n",
        "notes": "blk"
    },
    {
        "id": "vtls004961167_0_11",
        "type": "sailor",
        "parent": "vtls004961167",
        "name": "david d davies",
        "dob": "blk",
        "age": "27",
        "place_of_birth": "cardiganshire",
        "home_address": "borth",
        "f": "borth",
        "name_of_ship": "speculation",
        "ship_port": "aberystwyth",
        "date_leaving": "1865-12-31",
        "joined_ship_date": "1866-01-01",
        "joined_at_port": "aberystwyth",
        "capacity": "master",
        "date_left": "blk",
        "left_port": "blk",
        "cause_of_leaving": "remains on board",
        "sign_with_mark": "n",
        "notes": "account for jan - june 1866"
    },
    {
        "id": "vtls004961167_0_13",
        "type": "sailor",
        "parent": "vtls004961167",
        "name": "edward roberts",
        "dob": "blk",
        "age": "16",
        "place_of_birth": "cardiganshire",
        "home_address": "blk",
        "f": "blk",
        "name_of_ship": "speculation",
        "ship_port": "aberystwyth",
        "date_leaving": "1865-12-31",
        "joined_ship_date": "1866-01-19",
        "joined_at_port": "aberystwyth",
        "capacity": "ordinary seaman",
        "date_left": "blk",
        "left_port": "blk",
        "cause_of_leaving": "remains on board",
        "sign_with_mark": "n",
        "notes": "blk"
    },
    {
        "id": "vtls004961160_2_11",
        "type": "sailor",
        "parent": "vtls004961160",
        "name": "david d davies",
        "dob": "blk",
        "age": "24",
        "place_of_birth": "aberystwyth",
        "home_address": "aberystwyth",
        "f": "aberystwyth",
        "name_of_ship": "speculation",
        "ship_port": "aberystwyth",
        "date_leaving": "remained on board",
        "joined_ship_date": "blk",
        "joined_at_port": "blk",
        "capacity": "master",
        "date_left": "1864-10-24",
        "left_port": "aberystwyth",
        "cause_of_leaving": "discharged",
        "sign_with_mark": "n",
        "notes": "blk"
    },
    {
        "id": "vtls004961167_0_12",
        "type": "sailor",
        "parent": "vtls004961167",
        "name": "thomas davies",
        "dob": "blk",
        "age": "18",
        "place_of_birth": "cardiganshire",
        "home_address": "blk",
        "f": "blk",
        "name_of_ship": "speculation",
        "ship_port": "aberystwyth",
        "date_leaving": "1865-12-31",
        "joined_ship_date": "1866-01-19",
        "joined_at_port": "aberystwyth",
        "capacity": "mate",
        "date_left": "blk",
        "left_port": "blk",
        "cause_of_leaving": "remains on board",
        "sign_with_mark": "n",
        "notes": "blk"
    },
    {
        "id": "vtls004961160_2_13",
        "type": "sailor",
        "parent": "vtls004961160",
        "name": "thomas williams",
        "dob": "blk",
        "age": "21",
        "place_of_birth": "cardigan",
        "home_address": "blk",
        "f": "blk",
        "name_of_ship": "speculation",
        "ship_port": "aberystwyth",
        "date_leaving": "remained on board",
        "joined_ship_date": "blk",
        "joined_at_port": "blk",
        "capacity": "seaman",
        "date_left": "1864-12-31",
        "left_port": "drogheda",
        "cause_of_leaving": "discharged",
        "sign_with_mark": "n",
        "notes": "blk"
    },
    {
        "id": "vtls004961160_2_12",
        "type": "sailor",
        "parent": "vtls004961160",
        "name": "richard parry",
        "dob": "blk",
        "age": "25",
        "place_of_birth": "cardigan",
        "home_address": "blk",
        "f": "blk",
        "name_of_ship": "speculation",
        "ship_port": "aberystwyth",
        "date_leaving": "remained on board",
        "joined_ship_date": "blk",
        "joined_at_port": "blk",
        "capacity": "mate",
        "date_left": "1864-12-31",
        "left_port": "drogheda",
        "cause_of_leaving": "discharged",
        "sign_with_mark": "n",
        "notes": "blk"
    },
    {
        "id": "vtls004961160_1_13",
        "type": "sailor",
        "parent": "vtls004961160",
        "name": "richard lewis",
        "dob": "blk",
        "age": "18",
        "place_of_birth": "borth",
        "home_address": "blk",
        "f": "blk",
        "name_of_ship": "speculation",
        "ship_port": "aberystwyth",
        "date_leaving": "remained on board",
        "joined_ship_date": "blk",
        "joined_at_port": "blk",
        "capacity": "seaman",
        "date_left": "1864-06-30",
        "left_port": "aberystwyth",
        "cause_of_leaving": "discharged",
        "sign_with_mark": "n",
        "notes": "blk"
    },
    {
        "id": "vtls004961174_0_13",
        "type": "sailor",
        "parent": "vtls004961174",
        "name": "john davies",
        "dob": "blk",
        "age": "15",
        "place_of_birth": "borth",
        "home_address": "blk",
        "f": "blk",
        "name_of_ship": "speculation",
        "ship_port": "aberystwyth",
        "date_leaving": "1866-12-31",
        "joined_ship_date": "1867-01-01",
        "joined_at_port": "aberdovey",
        "capacity": "ordinary seaman",
        "date_left": "1867-06-30",
        "left_port": "garston",
        "cause_of_leaving": "remains on board",
        "sign_with_mark": "n",
        "notes": "blk"
    },
    {
        "id": "vtls004961174_0_11",
        "type": "sailor",
        "parent": "vtls004961174",
        "name": "abraham davies",
        "dob": "blk",
        "age": "25",
        "place_of_birth": "borth",
        "home_address": "borth",
        "f": "borth",
        "name_of_ship": "speculation",
        "ship_port": "aberystwyth",
        "date_leaving": "1866-12-31",
        "joined_ship_date": "1867-01-01",
        "joined_at_port": "aberdovey",
        "capacity": "master",
        "date_left": "1867-06-30",
        "left_port": "garston",
        "cause_of_leaving": "remains on board",
        "sign_with_mark": "n",
        "notes": "blk"
    },
    {
        "id": "vtls004961174_0_12",
        "type": "sailor",
        "parent": "vtls004961174",
        "name": "thomas evans",
        "dob": "blk",
        "age": "22",
        "place_of_birth": "borth",
        "home_address": "blk",
        "f": "blk",
        "name_of_ship": "speculation",
        "ship_port": "aberystwyth",
        "date_leaving": "1866-12-31",
        "joined_ship_date": "1867-01-01",
        "joined_at_port": "aberdovey",
        "capacity": "mate",
        "date_left": "1867-06-30",
        "left_port": "garston",
        "cause_of_leaving": "remains on board",
        "sign_with_mark": "n",
        "notes": "blk"
    },
    {
        "id": "vtls004961174_0_14",
        "type": "sailor",
        "parent": "vtls004961174",
        "name": "samuel jones",
        "dob": "blk",
        "age": "14",
        "place_of_birth": "newton",
        "home_address": "blk",
        "f": "blk",
        "name_of_ship": "speculation",
        "ship_port": "aberystwyth",
        "date_leaving": "1866-12-31",
        "joined_ship_date": "1867-01-01",
        "joined_at_port": "aberdovey",
        "capacity": "boy",
        "date_left": "1867-06-30",
        "left_port": "garston",
        "cause_of_leaving": "remains on board",
        "sign_with_mark": "n",
        "notes": "blk"
    },
    {
        "id": "vtls004961167_0_14",
        "type": "sailor",
        "parent": "vtls004961167",
        "name": "john thomas",
        "dob": "blk",
        "age": "12",
        "place_of_birth": "cardiganshire",
        "home_address": "blk",
        "f": "blk",
        "name_of_ship": "speculation",
        "ship_port": "aberystwyth",
        "date_leaving": "1865-12-31",
        "joined_ship_date": "1866-01-19",
        "joined_at_port": "aberystwyth",
        "capacity": "boy",
        "date_left": "blk",
        "left_port": "blk",
        "cause_of_leaving": "remains on board",
        "sign_with_mark": "n",
        "notes": "blk"
    },
    {
        "id": "vtls004961167_1_13",
        "type": "sailor",
        "parent": "vtls004961167",
        "name": "ellis james",
        "dob": "blk",
        "age": "19",
        "place_of_birth": "borth",
        "home_address": "blk",
        "f": "blk",
        "name_of_ship": "speculation",
        "ship_port": "aberystwyth",
        "date_leaving": "1866-07-01",
        "joined_ship_date": "blk",
        "joined_at_port": "blk",
        "capacity": "able seaman",
        "date_left": "1866-12-24",
        "left_port": "aberystwyth",
        "cause_of_leaving": "discharged",
        "sign_with_mark": "n",
        "notes": "blk"
    },
    {
        "id": "vtls004961167_1_11",
        "type": "sailor",
        "parent": "vtls004961167",
        "name": "david d davies",
        "dob": "blk",
        "age": "28",
        "place_of_birth": "borth",
        "home_address": "borth",
        "f": "borth",
        "name_of_ship": "speculation",
        "ship_port": "aberystwyth",
        "date_leaving": "1866-07-01",
        "joined_ship_date": "blk",
        "joined_at_port": "blk",
        "capacity": "master",
        "date_left": "1866-12-24",
        "left_port": "aberystwyth",
        "cause_of_leaving": "discharged",
        "sign_with_mark": "n",
        "notes": "blk"
    },
    {
        "id": "vtls004961167_1_12",
        "type": "sailor",
        "parent": "vtls004961167",
        "name": "david jones",
        "dob": "blk",
        "age": "30",
        "place_of_birth": "borth",
        "home_address": "blk",
        "f": "blk",
        "name_of_ship": "speculation",
        "ship_port": "aberystwyth",
        "date_leaving": "1866-07-01",
        "joined_ship_date": "blk",
        "joined_at_port": "blk",
        "capacity": "mate",
        "date_left": "1866-12-24",
        "left_port": "aberystwyth",
        "cause_of_leaving": "discharged",
        "sign_with_mark": "n",
        "notes": "blk"
    },
    {
        "id": "vtls004961167_1_14",
        "type": "sailor",
        "parent": "vtls004961167",
        "name": "john thomas",
        "dob": "blk",
        "age": "13",
        "place_of_birth": "borth",
        "home_address": "blk",
        "f": "blk",
        "name_of_ship": "speculation",
        "ship_port": "aberystwyth",
        "date_leaving": "1866-07-01",
        "joined_ship_date": "blk",
        "joined_at_port": "blk",
        "capacity": "boy",
        "date_left": "1866-12-24",
        "left_port": "aberystwyth",
        "cause_of_leaving": "discharged",
        "sign_with_mark": "n",
        "notes": "blk"
    },
    {
        "id": "vtls004961174_1_11",
        "type": "sailor",
        "parent": "vtls004961174",
        "name": "abraham davies",
        "dob": "blk",
        "age": "30",
        "place_of_birth": "borth",
        "home_address": "borth",
        "f": "borth",
        "name_of_ship": "speculation",
        "ship_port": "aberystwyth",
        "date_leaving": "1867-06-30",
        "joined_ship_date": "1867-07-01",
        "joined_at_port": "liverpool",
        "capacity": "master",
        "date_left": "1867-12-31",
        "left_port": "dublin",
        "cause_of_leaving": "remains on board",
        "sign_with_mark": "n",
        "notes": "blk"
    },
    {
        "id": "vtls004961174_1_13",
        "type": "sailor",
        "parent": "vtls004961174",
        "name": "evan hughes",
        "dob": "blk",
        "age": "53",
        "place_of_birth": "borth",
        "home_address": "blk",
        "f": "blk",
        "name_of_ship": "speculation",
        "ship_port": "aberystwyth",
        "date_leaving": "1867-06-30",
        "joined_ship_date": "1867-07-01",
        "joined_at_port": "liverpool",
        "capacity": "seaman",
        "date_left": "1867-12-31",
        "left_port": "dublin",
        "cause_of_leaving": "remains on board",
        "sign_with_mark": "n",
        "notes": "blk"
    },
    {
        "id": "vtls004961174_1_12",
        "type": "sailor",
        "parent": "vtls004961174",
        "name": "john pearce",
        "dob": "blk",
        "age": "30",
        "place_of_birth": "borth",
        "home_address": "blk",
        "f": "blk",
        "name_of_ship": "speculation",
        "ship_port": "aberystwyth",
        "date_leaving": "1867-06-30",
        "joined_ship_date": "1867-07-01",
        "joined_at_port": "liverpool",
        "capacity": "mate",
        "date_left": "1867-12-31",
        "left_port": "dublin",
        "cause_of_leaving": "remains on board",
        "sign_with_mark": "n",
        "notes": "blk"
    },
    {
        "id": "vtls004961183_0_14",
        "type": "sailor",
        "parent": "vtls004961183",
        "name": "william hughes",
        "dob": "blk",
        "age": "20",
        "place_of_birth": "caernarfon",
        "home_address": "blk",
        "f": "blk",
        "name_of_ship": "mary",
        "ship_port": "padstow",
        "date_leaving": "1867-12-19",
        "joined_ship_date": "1868-01-18",
        "joined_at_port": "aberystwyth",
        "capacity": "ordinary seaman",
        "date_left": "blk",
        "left_port": "blk",
        "cause_of_leaving": "remains on board",
        "sign_with_mark": "n",
        "notes": "blk"
    },
    {
        "id": "vtls004961183_0_13",
        "type": "sailor",
        "parent": "vtls004961183",
        "name": "david d davies",
        "dob": "blk",
        "age": "21",
        "place_of_birth": "aberaeron",
        "home_address": "blk",
        "f": "blk",
        "name_of_ship": "speculation",
        "ship_port": "aberystwyth",
        "date_leaving": "continues",
        "joined_ship_date": "blk",
        "joined_at_port": "blk",
        "capacity": "able seaman",
        "date_left": "blk",
        "left_port": "blk",
        "cause_of_leaving": "remains on board",
        "sign_with_mark": "n",
        "notes": "blk"
    },
    {
        "id": "vtls004961183_0_11",
        "type": "sailor",
        "parent": "vtls004961183",
        "name": "david hughes",
        "dob": "blk",
        "age": "42",
        "place_of_birth": "aberystwyth",
        "home_address": "blk",
        "f": "blk",
        "name_of_ship": "james",
        "ship_port": "cardigan",
        "date_leaving": "1868-01-01",
        "joined_ship_date": "1868-01-18",
        "joined_at_port": "aberystwyth",
        "capacity": "master",
        "date_left": "1868-03-11",
        "left_port": "aberystwyth",
        "cause_of_leaving": "blk",
        "sign_with_mark": "n",
        "notes": "blk"
    },
    {
        "id": "vtls004961183_0_12",
        "type": "sailor",
        "parent": "vtls004961183",
        "name": "william owens",
        "dob": "blk",
        "age": "56",
        "place_of_birth": "aberystwyth",
        "home_address": "blk",
        "f": "blk",
        "name_of_ship": "speculation",
        "ship_port": "aberystwyth",
        "date_leaving": "continues",
        "joined_ship_date": "blk",
        "joined_at_port": "blk",
        "capacity": "mate",
        "date_left": "blk",
        "left_port": "blk",
        "cause_of_leaving": "remains on board",
        "sign_with_mark": "n",
        "notes": "blk"
    },
    {
        "id": "vtls004961193_1_11",
        "type": "sailor",
        "parent": "vtls004961193",
        "name": "owen enos",
        "dob": "blk",
        "age": "46",
        "place_of_birth": "borth",
        "home_address": "blk",
        "f": "blk",
        "name_of_ship": "speculation",
        "ship_port": "aberystwyth",
        "date_leaving": "continues",
        "joined_ship_date": "blk",
        "joined_at_port": "blk",
        "capacity": "master",
        "date_left": "1869-12-04",
        "left_port": "pwllheli",
        "cause_of_leaving": "discharged",
        "sign_with_mark": "n",
        "notes": "vessel lost - all the crew saved"
    },
    {
        "id": "vtls004961193_0_11",
        "type": "sailor",
        "parent": "vtls004961193",
        "name": "evan lewis",
        "dob": "blk",
        "age": "30",
        "place_of_birth": "aberystwyth",
        "home_address": "blk",
        "f": "blk",
        "name_of_ship": "speculation",
        "ship_port": "aberystwyth",
        "date_leaving": "continues",
        "joined_ship_date": "blk",
        "joined_at_port": "blk",
        "capacity": "master",
        "date_left": "blk",
        "left_port": "blk",
        "cause_of_leaving": "remains on board",
        "sign_with_mark": "n",
        "notes": "account for jan - june 1869"
    },
    {
        "id": "vtls004961183_1_12",
        "type": "sailor",
        "parent": "vtls004961183",
        "name": "william edwards",
        "dob": "blk",
        "age": "51",
        "place_of_birth": "borth",
        "home_address": "blk",
        "f": "blk",
        "name_of_ship": "eleanor francis",
        "ship_port": "aberystwyth",
        "date_leaving": "1868-09-07",
        "joined_ship_date": "1868-09-14",
        "joined_at_port": "aberystwyth",
        "capacity": "master",
        "date_left": "blk",
        "left_port": "blk",
        "cause_of_leaving": "remains on board",
        "sign_with_mark": "n",
        "notes": "blk"
    },
    {
        "id": "vtls004961183_1_14",
        "type": "sailor",
        "parent": "vtls004961183",
        "name": "morgan morgans",
        "dob": "blk",
        "age": "18",
        "place_of_birth": "borth",
        "home_address": "blk",
        "f": "blk",
        "name_of_ship": "speculation",
        "ship_port": "aberystwyth",
        "date_leaving": "continues",
        "joined_ship_date": "blk",
        "joined_at_port": "blk",
        "capacity": "ordinary seaman",
        "date_left": "blk",
        "left_port": "blk",
        "cause_of_leaving": "remains on board",
        "sign_with_mark": "n",
        "notes": "blk"
    },
    {
        "id": "vtls004961193_0_13",
        "type": "sailor",
        "parent": "vtls004961193",
        "name": "edward fanner",
        "dob": "blk",
        "age": "21",
        "place_of_birth": "liverpool",
        "home_address": "blk",
        "f": "blk",
        "name_of_ship": "speculation",
        "ship_port": "aberystwyth",
        "date_leaving": "continues",
        "joined_ship_date": "blk",
        "joined_at_port": "blk",
        "capacity": "able seaman",
        "date_left": "blk",
        "left_port": "blk",
        "cause_of_leaving": "remains on board",
        "sign_with_mark": "n",
        "notes": "blk"
    },
    {
        "id": "vtls004961193_1_12",
        "type": "sailor",
        "parent": "vtls004961193",
        "name": "john pierce",
        "dob": "blk",
        "age": "30",
        "place_of_birth": "borth",
        "home_address": "blk",
        "f": "blk",
        "name_of_ship": "speculation",
        "ship_port": "aberystwyth",
        "date_leaving": "continues",
        "joined_ship_date": "blk",
        "joined_at_port": "blk",
        "capacity": "mate",
        "date_left": "1869-08-21",
        "left_port": "aberystwyth",
        "cause_of_leaving": "discharged",
        "sign_with_mark": "n",
        "notes": "blk"
    },
    {
        "id": "vtls004961183_1_13",
        "type": "sailor",
        "parent": "vtls004961183",
        "name": "john pierce",
        "dob": "blk",
        "age": "30",
        "place_of_birth": "borth",
        "home_address": "blk",
        "f": "blk",
        "name_of_ship": "speculation",
        "ship_port": "aberystwyth",
        "date_leaving": "continues",
        "joined_ship_date": "blk",
        "joined_at_port": "blk",
        "capacity": "mate",
        "date_left": "blk",
        "left_port": "blk",
        "cause_of_leaving": "remains on board",
        "sign_with_mark": "n",
        "notes": "blk"
    },
    {
        "id": "vtls004961193_0_12",
        "type": "sailor",
        "parent": "vtls004961193",
        "name": "john pierce",
        "dob": "blk",
        "age": "32",
        "place_of_birth": "borth",
        "home_address": "blk",
        "f": "blk",
        "name_of_ship": "speculation",
        "ship_port": "aberystwyth",
        "date_leaving": "continues",
        "joined_ship_date": "blk",
        "joined_at_port": "blk",
        "capacity": "mate",
        "date_left": "blk",
        "left_port": "blk",
        "cause_of_leaving": "remains on board",
        "sign_with_mark": "n",
        "notes": "blk"
    },
    {
        "id": "vtls004961183_0_15",
        "type": "sailor",
        "parent": "vtls004961183",
        "name": "evan evans",
        "dob": "blk",
        "age": "17",
        "place_of_birth": "portmadoc",
        "home_address": "blk",
        "f": "blk",
        "name_of_ship": "blk",
        "ship_port": "blk",
        "date_leaving": "blk",
        "joined_ship_date": "1868-01-18",
        "joined_at_port": "aberystwyth",
        "capacity": "boy",
        "date_left": "1868-07-11",
        "left_port": "cork",
        "cause_of_leaving": "laid off",
        "sign_with_mark": "n",
        "notes": "blk"
    },
    {
        "id": "vtls004961246_0_11",
        "type": "sailor",
        "parent": "vtls004961246",
        "name": "james edwards",
        "dob": "blk",
        "age": "32",
        "place_of_birth": "aberystwyth",
        "home_address": "prospect street, aberystwith",
        "f": "prospect street, aberystwith",
        "name_of_ship": "speculation",
        "ship_port": "aberystwyth",
        "date_leaving": "still on board",
        "joined_ship_date": "blk",
        "joined_at_port": "blk",
        "capacity": "master",
        "date_left": "1856-11-18",
        "left_port": "crow rock off milford",
        "cause_of_leaving": "see note",
        "sign_with_mark": "n",
        "notes": "vessel lost crew saved"
    },
    {
        "id": "vtls004961246_0_13",
        "type": "sailor",
        "parent": "vtls004961246",
        "name": "david edwards",
        "dob": "blk",
        "age": "21",
        "place_of_birth": "aberystwyth",
        "home_address": "blk",
        "f": "blk",
        "name_of_ship": "speculation",
        "ship_port": "aberystwyth",
        "date_leaving": "still on board",
        "joined_ship_date": "blk",
        "joined_at_port": "blk",
        "capacity": "seaman",
        "date_left": "1856-11-18",
        "left_port": "crow rock off milford",
        "cause_of_leaving": "see note",
        "sign_with_mark": "n",
        "notes": "vessel lost crew saved"
    },
    {
        "id": "vtls004961246_0_14",
        "type": "sailor",
        "parent": "vtls004961246",
        "name": "william edwards",
        "dob": "blk",
        "age": "17",
        "place_of_birth": "aberystwyth",
        "home_address": "blk",
        "f": "blk",
        "name_of_ship": "speculation",
        "ship_port": "aberystwyth",
        "date_leaving": "still on board",
        "joined_ship_date": "blk",
        "joined_at_port": "blk",
        "capacity": "boy",
        "date_left": "1856-11-18",
        "left_port": "crow rock off milford",
        "cause_of_leaving": "see note",
        "sign_with_mark": "n",
        "notes": "vessel lost crew saved"
    },
    {
        "id": "vtls004961246_0_12",
        "type": "sailor",
        "parent": "vtls004961246",
        "name": "thomas colwell",
        "dob": "blk",
        "age": "25",
        "place_of_birth": "plymouth",
        "home_address": "blk",
        "f": "blk",
        "name_of_ship": "speculation",
        "ship_port": "aberystwyth",
        "date_leaving": "still on board",
        "joined_ship_date": "blk",
        "joined_at_port": "blk",
        "capacity": "mate",
        "date_left": "1856-11-18",
        "left_port": "crow rock off milford",
        "cause_of_leaving": "see note",
        "sign_with_mark": "n",
        "notes": "vessel lost crew saved"
    },
    {
        "id": "vtls004961193_1_13",
        "type": "sailor",
        "parent": "vtls004961193",
        "name": "lewis williams",
        "dob": "blk",
        "age": "20",
        "place_of_birth": "aberystwyth",
        "home_address": "blk",
        "f": "blk",
        "name_of_ship": "speculation",
        "ship_port": "aberystwyth",
        "date_leaving": "continues",
        "joined_ship_date": "blk",
        "joined_at_port": "blk",
        "capacity": "ordinary seaman",
        "date_left": "1869-08-28",
        "left_port": "aberystwyth",
        "cause_of_leaving": "discharged",
        "sign_with_mark": "n",
        "notes": "blk"
    },
    {
        "id": "vtls004961193_1_15",
        "type": "sailor",
        "parent": "vtls004961193",
        "name": "thomas davies",
        "dob": "blk",
        "age": "20",
        "place_of_birth": "borth",
        "home_address": "blk",
        "f": "blk",
        "name_of_ship": "blk",
        "ship_port": "blk",
        "date_leaving": "blk",
        "joined_ship_date": "1869-10-11",
        "joined_at_port": "aberdovey",
        "capacity": "ordinary seaman",
        "date_left": "1869-12-04",
        "left_port": "pwllheli",
        "cause_of_leaving": "discharged",
        "sign_with_mark": "n",
        "notes": "blk"
    },
    {
        "id": "vtls004961193_1_14",
        "type": "sailor",
        "parent": "vtls004961193",
        "name": "william morris",
        "dob": "blk",
        "age": "35",
        "place_of_birth": "borth",
        "home_address": "blk",
        "f": "blk",
        "name_of_ship": "blk",
        "ship_port": "blk",
        "date_leaving": "blk",
        "joined_ship_date": "1869-10-11",
        "joined_at_port": "aberdovey",
        "capacity": "mate",
        "date_left": "1869-12-04",
        "left_port": "pwllheli",
        "cause_of_leaving": "discharged",
        "sign_with_mark": "n",
        "notes": "blk"
    }
]