[
    {
        "id": "vtls004637980_0_14",
        "type": "sailor",
        "parent": "vtls004637980",
        "name": "thomas williams",
        "dob": "blk",
        "age": "16",
        "place_of_birth": "cardigan",
        "home_address": "blk",
        "f": "blk",
        "name_of_ship": "ceres",
        "ship_port": "blk",
        "date_leaving": "blk",
        "joined_ship_date": "1869-$$-$$",
        "joined_at_port": "remains on board previous",
        "capacity": "boy",
        "date_left": "1870-01-30",
        "left_port": "liverpool",
        "cause_of_leaving": "discharged",
        "sign_with_mark": "n",
        "notes": "blk"
    },
    {
        "id": "vtls004637980_0_15",
        "type": "sailor",
        "parent": "vtls004637980",
        "name": "william edwards",
        "dob": "blk",
        "age": "32",
        "place_of_birth": "portmadoc",
        "home_address": "blk",
        "f": "blk",
        "name_of_ship": "jaffail",
        "ship_port": "blk",
        "date_leaving": "1870-01-20",
        "joined_ship_date": "1870-01-$$",
        "joined_at_port": "aberystwyth",
        "capacity": "seaman",
        "date_left": "1870-02-12",
        "left_port": "aberystwyth",
        "cause_of_leaving": "discharged",
        "sign_with_mark": "n",
        "notes": "blk"
    },
    {
        "id": "vtls004637980_0_16",
        "type": "sailor",
        "parent": "vtls004637980",
        "name": "david morgans",
        "dob": "blk",
        "age": "60",
        "place_of_birth": "aberystwyth",
        "home_address": "blk",
        "f": "blk",
        "name_of_ship": "constance",
        "ship_port": "blk",
        "date_leaving": "1870-03-28",
        "joined_ship_date": "blk",
        "joined_at_port": "still on board",
        "capacity": "seaman",
        "date_left": "blk",
        "left_port": "blk",
        "cause_of_leaving": "remains on board",
        "sign_with_mark": "n",
        "notes": "blk"
    },
    {
        "id": "vtls004637980_0_12",
        "type": "sailor",
        "parent": "vtls004637980",
        "name": "isaac davies",
        "dob": "blk",
        "age": "30",
        "place_of_birth": "aberystwyth",
        "home_address": "blk",
        "f": "blk",
        "name_of_ship": "ceres",
        "ship_port": "blk",
        "date_leaving": "blk",
        "joined_ship_date": "1867-01-[18]",
        "joined_at_port": "aberystwyth",
        "capacity": "mate",
        "date_left": "blk",
        "left_port": "blk",
        "cause_of_leaving": "remains on board",
        "sign_with_mark": "n",
        "notes": "blk"
    },
    {
        "id": "vtls004637980_0_11",
        "type": "sailor",
        "parent": "vtls004637980",
        "name": "david d davies",
        "dob": "blk",
        "age": "27",
        "place_of_birth": "aberystwyth",
        "home_address": "blk",
        "f": "blk",
        "name_of_ship": "ceres",
        "ship_port": "blk",
        "date_leaving": "blk",
        "joined_ship_date": "1865-01-29",
        "joined_at_port": "aberystwyth",
        "capacity": "master",
        "date_left": "blk",
        "left_port": "blk",
        "cause_of_leaving": "remains on board",
        "sign_with_mark": "n",
        "notes": "blk"
    },
    {
        "id": "vtls004637980_0_13",
        "type": "sailor",
        "parent": "vtls004637980",
        "name": "morris jones",
        "dob": "blk",
        "age": "45",
        "place_of_birth": "caernarfon",
        "home_address": "blk",
        "f": "blk",
        "name_of_ship": "ceres",
        "ship_port": "blk",
        "date_leaving": "blk",
        "joined_ship_date": "1869-12-31",
        "joined_at_port": "blk",
        "capacity": "seaman",
        "date_left": "1870-01-30",
        "left_port": "liverpool",
        "cause_of_leaving": "discharged",
        "sign_with_mark": "n",
        "notes": "blk"
    },
    {
        "id": "vtls004637980_1_13",
        "type": "sailor",
        "parent": "vtls004637980",
        "name": "david morgans",
        "dob": "blk",
        "age": "60",
        "place_of_birth": "aberystwyth",
        "home_address": "blk",
        "f": "blk",
        "name_of_ship": "remains on board previous",
        "ship_port": "blk",
        "date_leaving": "blk",
        "joined_ship_date": "1870-06-30",
        "joined_at_port": "blk",
        "capacity": "seaman",
        "date_left": "1870-11-28",
        "left_port": "aberystwyth",
        "cause_of_leaving": "discharged",
        "sign_with_mark": "n",
        "notes": "blk"
    },
    {
        "id": "vtls004637980_1_11",
        "type": "sailor",
        "parent": "vtls004637980",
        "name": "david d davies",
        "dob": "blk",
        "age": "27",
        "place_of_birth": "aberystwyth",
        "home_address": "blk",
        "f": "blk",
        "name_of_ship": "remains on board previous",
        "ship_port": "blk",
        "date_leaving": "blk",
        "joined_ship_date": "1870-06-30",
        "joined_at_port": "blk",
        "capacity": "master",
        "date_left": "blk",
        "left_port": "blk",
        "cause_of_leaving": "remains on board",
        "sign_with_mark": "n",
        "notes": "blk"
    },
    {
        "id": "vtls004637980_1_12",
        "type": "sailor",
        "parent": "vtls004637980",
        "name": "isaac davies",
        "dob": "blk",
        "age": "31",
        "place_of_birth": "aberystwyth",
        "home_address": "blk",
        "f": "blk",
        "name_of_ship": "remains on board previous",
        "ship_port": "blk",
        "date_leaving": "blk",
        "joined_ship_date": "1870-06-30",
        "joined_at_port": "blk",
        "capacity": "mate",
        "date_left": "blk",
        "left_port": "blk",
        "cause_of_leaving": "remains on board",
        "sign_with_mark": "n",
        "notes": "blk"
    }
]