[
    {
        "id": "vtls004975551_0_15",
        "type": "sailor",
        "parent": "vtls004975551",
        "name": "george kerswell",
        "dob": "blk",
        "age": "29",
        "place_of_birth": "newton abbott",
        "home_address": "48 oban street, poplar, london",
        "f": "48 oban street, poplar, london",
        "name_of_ship": "venus",
        "ship_port": "aberystwyth",
        "date_leaving": "blk",
        "joined_ship_date": "1898-06-03",
        "joined_at_port": "antwerp",
        "capacity": "steward",
        "date_left": "1899-08-07",
        "left_port": "neath",
        "cause_of_leaving": "promoted to third mate",
        "sign_with_mark": "n",
        "notes": "blk"
    },
    {
        "id": "vtls004975551_0_13",
        "type": "sailor",
        "parent": "vtls004975551",
        "name": "w r hills",
        "dob": "blk",
        "age": "40",
        "place_of_birth": "shoreham",
        "home_address": "81 pemberton street, manchester",
        "f": "81 pemberton street, manchester",
        "name_of_ship": "venus",
        "ship_port": "aberystwyth",
        "date_leaving": "blk",
        "joined_ship_date": "1898-06-03",
        "joined_at_port": "antwerp",
        "capacity": "mate",
        "date_left": "1899-04-02",
        "left_port": "west hartlepool",
        "cause_of_leaving": "discharged",
        "sign_with_mark": "n",
        "notes": "blk"
    },
    {
        "id": "vtls004975551_0_19",
        "type": "sailor",
        "parent": "vtls004975551",
        "name": "f wicklon",
        "dob": "blk",
        "age": "24",
        "place_of_birth": "swedish",
        "home_address": "matala, sweden",
        "f": "matala, sweden",
        "name_of_ship": "baron cawdor",
        "ship_port": "ardrossan",
        "date_leaving": "blk",
        "joined_ship_date": "1898-06-03",
        "joined_at_port": "antwerp",
        "capacity": "able seaman",
        "date_left": "1898-11-26",
        "left_port": "sourabaya",
        "cause_of_leaving": "discharged",
        "sign_with_mark": "n",
        "notes": "due to sickness"
    },
    {
        "id": "vtls004975551_0_11",
        "type": "sailor",
        "parent": "vtls004975551",
        "name": "h denyer",
        "dob": "blk",
        "age": "31",
        "place_of_birth": "leeds",
        "home_address": "35 albourne steet, west hartlepool",
        "f": "35 albourne steet, west hartlepool",
        "name_of_ship": "venus",
        "ship_port": "aberystwyth",
        "date_leaving": "1898",
        "joined_ship_date": "blk",
        "joined_at_port": "blk",
        "capacity": "master",
        "date_left": "1899-04-02",
        "left_port": "west hartlepool",
        "cause_of_leaving": "remains on board",
        "sign_with_mark": "n",
        "notes": "blk"
    },
    {
        "id": "vtls004975551_0_18",
        "type": "sailor",
        "parent": "vtls004975551",
        "name": "john smith",
        "dob": "blk",
        "age": "41",
        "place_of_birth": "dutch",
        "home_address": "terneuzen, netherlands ",
        "f": "terneuzen, netherlands ",
        "name_of_ship": "egret",
        "ship_port": "cork",
        "date_leaving": "blk",
        "joined_ship_date": "1898-06-03",
        "joined_at_port": "antwerp",
        "capacity": "able seaman",
        "date_left": "1899-04-02",
        "left_port": "west hartlepool",
        "cause_of_leaving": "discharged",
        "sign_with_mark": "n",
        "notes": "blk"
    },
    {
        "id": "vtls004975551_0_20",
        "type": "sailor",
        "parent": "vtls004975551",
        "name": "carl hansen",
        "dob": "blk",
        "age": "36",
        "place_of_birth": "danish",
        "home_address": "[hougns]",
        "f": "[hougns]",
        "name_of_ship": "baron cawdor",
        "ship_port": "ardrossan",
        "date_leaving": "blk",
        "joined_ship_date": "1898-06-03",
        "joined_at_port": "antwerp",
        "capacity": "able seaman",
        "date_left": "1899-04-02",
        "left_port": "west hartlepool",
        "cause_of_leaving": "discharged",
        "sign_with_mark": "n",
        "notes": "blk"
    },
    {
        "id": "vtls004975551_0_16",
        "type": "sailor",
        "parent": "vtls004975551",
        "name": "alexander marr",
        "dob": "blk",
        "age": "38",
        "place_of_birth": "edinburgh",
        "home_address": "on board",
        "f": "on board",
        "name_of_ship": "venus",
        "ship_port": "aberystwyth",
        "date_leaving": "blk",
        "joined_ship_date": "1898-06-03",
        "joined_at_port": "antwerp",
        "capacity": "boatswain",
        "date_left": "1899-04-02",
        "left_port": "west hartlepool",
        "cause_of_leaving": "discharged",
        "sign_with_mark": "n",
        "notes": "blk"
    },
    {
        "id": "vtls004975551_0_12",
        "type": "sailor",
        "parent": "vtls004975551",
        "name": "william mudd",
        "dob": "blk",
        "age": "27",
        "place_of_birth": "west hartlepool",
        "home_address": "hollingworth",
        "f": "hollingworth",
        "name_of_ship": "venus",
        "ship_port": "aberystwyth",
        "date_leaving": "blk",
        "joined_ship_date": "1898-06-03",
        "joined_at_port": "antwerp",
        "capacity": "mate",
        "date_left": "1899-04-02",
        "left_port": "west hartlepool",
        "cause_of_leaving": "discharged",
        "sign_with_mark": "n",
        "notes": "blk"
    },
    {
        "id": "vtls004975551_0_14",
        "type": "sailor",
        "parent": "vtls004975551",
        "name": "w ball",
        "dob": "blk",
        "age": "38",
        "place_of_birth": "salcombe",
        "home_address": "on board",
        "f": "on board",
        "name_of_ship": "venus",
        "ship_port": "aberystwyth",
        "date_leaving": "blk",
        "joined_ship_date": "1898-06-03",
        "joined_at_port": "antwerp",
        "capacity": "carpenter",
        "date_left": "1899-04-02",
        "left_port": "west hartlepool",
        "cause_of_leaving": "discharged",
        "sign_with_mark": "n",
        "notes": "blk"
    },
    {
        "id": "vtls004975551_0_17",
        "type": "sailor",
        "parent": "vtls004975551",
        "name": "a lwipo",
        "dob": "blk",
        "age": "21",
        "place_of_birth": "greek",
        "home_address": "piraeus",
        "f": "piraeus",
        "name_of_ship": "venus",
        "ship_port": "aberystwyth",
        "date_leaving": "blk",
        "joined_ship_date": "1898-06-03",
        "joined_at_port": "antwerp",
        "capacity": "able seaman",
        "date_left": "1899-04-02",
        "left_port": "west hartlepool",
        "cause_of_leaving": "discharged",
        "sign_with_mark": "n",
        "notes": "blk"
    },
    {
        "id": "vtls004975551_0_24",
        "type": "sailor",
        "parent": "vtls004975551",
        "name": "charles c watt",
        "dob": "blk",
        "age": "45",
        "place_of_birth": "abboyne",
        "home_address": "41 [beilevue], arbroath",
        "f": "41 [beilevue], arbroath",
        "name_of_ship": "venus",
        "ship_port": "aberystwyth",
        "date_leaving": "blk",
        "joined_ship_date": "1898-06-03",
        "joined_at_port": "antwerp",
        "capacity": "chief engineer",
        "date_left": "1899-04-02",
        "left_port": "west hartlepool",
        "cause_of_leaving": "discharged",
        "sign_with_mark": "n",
        "notes": "blk"
    },
    {
        "id": "vtls004975551_0_27",
        "type": "sailor",
        "parent": "vtls004975551",
        "name": "s sweetman",
        "dob": "blk",
        "age": "44",
        "place_of_birth": "somerset",
        "home_address": "bayford [wincanton], somerset",
        "f": "bayford [wincanton], somerset",
        "name_of_ship": "venus",
        "ship_port": "aberystwyth",
        "date_leaving": "blk",
        "joined_ship_date": "1898-06-03",
        "joined_at_port": "antwerp",
        "capacity": "donkeyman",
        "date_left": "1899-04-02",
        "left_port": "west hartlepool",
        "cause_of_leaving": "discharged",
        "sign_with_mark": "n",
        "notes": "blk"
    },
    {
        "id": "vtls004975551_0_23",
        "type": "sailor",
        "parent": "vtls004975551",
        "name": "h joschan",
        "dob": "blk",
        "age": "32",
        "place_of_birth": "finnish",
        "home_address": "2 groole, [kraainyk], ola",
        "f": "2 groole, [kraainyk], ola",
        "name_of_ship": "[tesado]",
        "ship_port": "london",
        "date_leaving": "blk",
        "joined_ship_date": "1898-06-03",
        "joined_at_port": "antwerp",
        "capacity": "able seaman",
        "date_left": "1899-04-02",
        "left_port": "west hartlepool",
        "cause_of_leaving": "discharged",
        "sign_with_mark": "n",
        "notes": "blk"
    },
    {
        "id": "vtls004975551_0_25",
        "type": "sailor",
        "parent": "vtls004975551",
        "name": "john alderson",
        "dob": "blk",
        "age": "24",
        "place_of_birth": "ormesby",
        "home_address": "103 court road, cardiff",
        "f": "103 court road, cardiff",
        "name_of_ship": "venus",
        "ship_port": "aberystwyth",
        "date_leaving": "blk",
        "joined_ship_date": "1898-06-03",
        "joined_at_port": "antwerp",
        "capacity": "engineer",
        "date_left": "1899-04-02",
        "left_port": "west hartlepool",
        "cause_of_leaving": "discharged",
        "sign_with_mark": "n",
        "notes": "blk"
    },
    {
        "id": "vtls004975551_0_28",
        "type": "sailor",
        "parent": "vtls004975551",
        "name": "v marien",
        "dob": "blk",
        "age": "33",
        "place_of_birth": "belgium",
        "home_address": "57 [maatnegon], luunhout",
        "f": "57 [maatnegon], luunhout",
        "name_of_ship": "fresco",
        "ship_port": "blk",
        "date_leaving": "blk",
        "joined_ship_date": "1898-06-03",
        "joined_at_port": "antwerp",
        "capacity": "fireman & trimmer",
        "date_left": "1899-04-02",
        "left_port": "west hartlepool",
        "cause_of_leaving": "discharged",
        "sign_with_mark": "n",
        "notes": "blk"
    },
    {
        "id": "vtls004975551_0_22",
        "type": "sailor",
        "parent": "vtls004975551",
        "name": "v bengren",
        "dob": "blk",
        "age": "41",
        "place_of_birth": "swedish",
        "home_address": "stockholm, sweden",
        "f": "stockholm, sweden",
        "name_of_ship": "venus",
        "ship_port": "aberystwyth",
        "date_leaving": "blk",
        "joined_ship_date": "1898-06-03",
        "joined_at_port": "antwerp",
        "capacity": "able seaman",
        "date_left": "1899-04-02",
        "left_port": "west hartlepool",
        "cause_of_leaving": "discharged",
        "sign_with_mark": "n",
        "notes": "blk"
    },
    {
        "id": "vtls004975551_0_26",
        "type": "sailor",
        "parent": "vtls004975551",
        "name": "john j watt",
        "dob": "blk",
        "age": "22",
        "place_of_birth": "west hartlepool",
        "home_address": "west hartlepool",
        "f": "west hartlepool",
        "name_of_ship": "venus",
        "ship_port": "aberystwyth",
        "date_leaving": "blk",
        "joined_ship_date": "1898-06-03",
        "joined_at_port": "antwerp",
        "capacity": "engineer",
        "date_left": "1899-04-02",
        "left_port": "west hartlepool",
        "cause_of_leaving": "discharged",
        "sign_with_mark": "n",
        "notes": "blk"
    },
    {
        "id": "vtls004975551_0_21",
        "type": "sailor",
        "parent": "vtls004975551",
        "name": "j smith",
        "dob": "blk",
        "age": "35",
        "place_of_birth": "russia",
        "home_address": "libau, latvia",
        "f": "libau, latvia",
        "name_of_ship": "rex",
        "ship_port": "liverpool",
        "date_leaving": "blk",
        "joined_ship_date": "1898-06-03",
        "joined_at_port": "antwerp",
        "capacity": "able seaman",
        "date_left": "1899-04-02",
        "left_port": "west hartlepool",
        "cause_of_leaving": "discharged",
        "sign_with_mark": "n",
        "notes": "blk"
    },
    {
        "id": "vtls004975551_0_35",
        "type": "sailor",
        "parent": "vtls004975551",
        "name": "arthur moore",
        "dob": "blk",
        "age": "31",
        "place_of_birth": "liverpool",
        "home_address": "33 tamworth street, liverpool",
        "f": "33 tamworth street, liverpool",
        "name_of_ship": "venus",
        "ship_port": "aberystwyth",
        "date_leaving": "1898",
        "joined_ship_date": "1898-06-03",
        "joined_at_port": "antwerp",
        "capacity": "mess room steward",
        "date_left": "1899-04-02",
        "left_port": "west hartlepool",
        "cause_of_leaving": "discharged",
        "sign_with_mark": "n",
        "notes": "1898-08-12, in suez canal, he was promoted to cook"
    },
    {
        "id": "vtls004975551_0_38",
        "type": "sailor",
        "parent": "vtls004975551",
        "name": "william creiners",
        "dob": "blk",
        "age": "27",
        "place_of_birth": "germany",
        "home_address": "1728 james st., balti, dusseldorf",
        "f": "1728 james st., balti, dusseldorf",
        "name_of_ship": "storm king",
        "ship_port": "blk",
        "date_leaving": "1898",
        "joined_ship_date": "1898-07-14",
        "joined_at_port": "at sea",
        "capacity": "fireman",
        "date_left": "1899-04-02",
        "left_port": "west hartlepool",
        "cause_of_leaving": "discharged",
        "sign_with_mark": "n",
        "notes": "blk"
    },
    {
        "id": "vtls004975551_0_37",
        "type": "sailor",
        "parent": "vtls004975551",
        "name": "odde rosenbach",
        "dob": "blk",
        "age": "35",
        "place_of_birth": "germany",
        "home_address": "910 s. broadway, hamburg",
        "f": "910 s. broadway, hamburg",
        "name_of_ship": "earnwood",
        "ship_port": "blk",
        "date_leaving": "1898",
        "joined_ship_date": "1898-07-11",
        "joined_at_port": "baltimore",
        "capacity": "4th engineer",
        "date_left": "1899-02-26",
        "left_port": "newport news, va",
        "cause_of_leaving": "discharged",
        "sign_with_mark": "n",
        "notes": "blk"
    },
    {
        "id": "vtls004975551_0_36",
        "type": "sailor",
        "parent": "vtls004975551",
        "name": "roland hughes",
        "dob": "blk",
        "age": "29",
        "place_of_birth": "glasgow",
        "home_address": "16 east hallow, south shields",
        "f": "16 east hallow, south shields",
        "name_of_ship": "beacon high",
        "ship_port": "blk",
        "date_leaving": "1898",
        "joined_ship_date": "1898-06-11",
        "joined_at_port": "at sea",
        "capacity": "fireman",
        "date_left": "1899-04-02",
        "left_port": "west hartlepool",
        "cause_of_leaving": "discharged",
        "sign_with_mark": "n",
        "notes": "blk"
    },
    {
        "id": "vtls004975551_0_29",
        "type": "sailor",
        "parent": "vtls004975551",
        "name": "de watriport",
        "dob": "blk",
        "age": "20",
        "place_of_birth": "belgium",
        "home_address": "34 rue de [hugoenberg], belgium",
        "f": "34 rue de [hugoenberg], belgium",
        "name_of_ship": "khio",
        "ship_port": "sunderland",
        "date_leaving": "blk",
        "joined_ship_date": "1898-06-03",
        "joined_at_port": "antwerp",
        "capacity": "fireman & trimmer",
        "date_left": "1898-06-11",
        "left_port": "tyne",
        "cause_of_leaving": "deserted",
        "sign_with_mark": "n",
        "notes": "blk"
    },
    {
        "id": "vtls004975551_0_30",
        "type": "sailor",
        "parent": "vtls004975551",
        "name": "a delvice",
        "dob": "blk",
        "age": "28",
        "place_of_birth": "belgium",
        "home_address": "42 rue de [hugoenberg], belgium",
        "f": "42 rue de [hugoenberg], belgium",
        "name_of_ship": "foreign",
        "ship_port": "blk",
        "date_leaving": "blk",
        "joined_ship_date": "1898-06-03",
        "joined_at_port": "antwerp",
        "capacity": "fireman & trimmer",
        "date_left": "1898-07-03",
        "left_port": "baltimore",
        "cause_of_leaving": "deserted",
        "sign_with_mark": "n",
        "notes": "blk"
    },
    {
        "id": "vtls004975551_0_32",
        "type": "sailor",
        "parent": "vtls004975551",
        "name": "carl braeckle",
        "dob": "blk",
        "age": "28",
        "place_of_birth": "germany",
        "home_address": "[litz]",
        "f": "[litz]",
        "name_of_ship": "foreign",
        "ship_port": "blk",
        "date_leaving": "1898",
        "joined_ship_date": "1898-06-03",
        "joined_at_port": "antwerp",
        "capacity": "fireman & trimmer",
        "date_left": "1899-04-02",
        "left_port": "west hartlepool",
        "cause_of_leaving": "discharged",
        "sign_with_mark": "n",
        "notes": "blk"
    },
    {
        "id": "vtls004975551_0_33",
        "type": "sailor",
        "parent": "vtls004975551",
        "name": "j pencharol",
        "dob": "blk",
        "age": "35",
        "place_of_birth": "belgium",
        "home_address": "antwerp",
        "f": "antwerp",
        "name_of_ship": "plympton",
        "ship_port": "london",
        "date_leaving": "1898",
        "joined_ship_date": "1898-06-03",
        "joined_at_port": "antwerp",
        "capacity": "fireman & trimmer",
        "date_left": "1898-07-14",
        "left_port": "baltimore",
        "cause_of_leaving": "deserted",
        "sign_with_mark": "n",
        "notes": "blk"
    },
    {
        "id": "vtls004975551_0_31",
        "type": "sailor",
        "parent": "vtls004975551",
        "name": "r schroeder",
        "dob": "blk",
        "age": "32",
        "place_of_birth": "germany",
        "home_address": "[nityl]",
        "f": "[nityl]",
        "name_of_ship": "foreign",
        "ship_port": "blk",
        "date_leaving": "1898",
        "joined_ship_date": "1898-06-03",
        "joined_at_port": "antwerp",
        "capacity": "fireman & trimmer",
        "date_left": "1898-07-14",
        "left_port": "baltimore",
        "cause_of_leaving": "deserted",
        "sign_with_mark": "n",
        "notes": "blk"
    },
    {
        "id": "vtls004975551_0_34",
        "type": "sailor",
        "parent": "vtls004975551",
        "name": "j dali",
        "dob": "blk",
        "age": "50",
        "place_of_birth": "france",
        "home_address": "4 avenue du sud, ajaceio",
        "f": "4 avenue du sud, ajaceio",
        "name_of_ship": "foreign",
        "ship_port": "blk",
        "date_leaving": "1898",
        "joined_ship_date": "1898-06-03",
        "joined_at_port": "antwerp",
        "capacity": "cook",
        "date_left": "1898-07-11",
        "left_port": "port said",
        "cause_of_leaving": "sick",
        "sign_with_mark": "n",
        "notes": "blk"
    },
    {
        "id": "vtls004975551_1_11",
        "type": "sailor",
        "parent": "vtls004975551",
        "name": "david jones",
        "dob": "blk",
        "age": "34",
        "place_of_birth": "aberystwyth",
        "home_address": "40 high street, aberystwyth",
        "f": "40 high street, aberystwyth",
        "name_of_ship": "glanystwyth",
        "ship_port": "aberystwyth",
        "date_leaving": "1899",
        "joined_ship_date": "1899-04-10",
        "joined_at_port": "west hartlepool",
        "capacity": "master",
        "date_left": "1899-04-14",
        "left_port": "barry",
        "cause_of_leaving": "remains on board",
        "sign_with_mark": "n",
        "notes": "blk"
    },
    {
        "id": "vtls004975551_0_41",
        "type": "sailor",
        "parent": "vtls004975551",
        "name": "jessie denyer",
        "dob": "blk",
        "age": "31",
        "place_of_birth": "bristol",
        "home_address": "35 albourne steet, west hartlepool",
        "f": "35 albourne steet, west hartlepool",
        "name_of_ship": "venus",
        "ship_port": "aberystwyth",
        "date_leaving": "1898",
        "joined_ship_date": "1898-08-02",
        "joined_at_port": "at sea",
        "capacity": "steward",
        "date_left": "1899-01-09",
        "left_port": "alfred",
        "cause_of_leaving": "discharged",
        "sign_with_mark": "n",
        "notes": "blk"
    },
    {
        "id": "vtls004975551_0_46",
        "type": "sailor",
        "parent": "vtls004975551",
        "name": "emmanuel gosmez",
        "dob": "blk",
        "age": "36",
        "place_of_birth": "brazil",
        "home_address": "$ commercial road, newport",
        "f": "$ commercial road, newport",
        "name_of_ship": "casa maria",
        "ship_port": "blk",
        "date_leaving": "1898",
        "joined_ship_date": "1898-10-21",
        "joined_at_port": "mofo",
        "capacity": "fireman",
        "date_left": "1898-03-30",
        "left_port": "leith",
        "cause_of_leaving": "discharged",
        "sign_with_mark": "y",
        "notes": "blk"
    },
    {
        "id": "vtls004975551_0_45",
        "type": "sailor",
        "parent": "vtls004975551",
        "name": "hang pong",
        "dob": "blk",
        "age": "36",
        "place_of_birth": "hainan",
        "home_address": "japan",
        "f": "japan",
        "name_of_ship": "jane hyde",
        "ship_port": "blk",
        "date_leaving": "1898",
        "joined_ship_date": "1898-09-08",
        "joined_at_port": "singapore",
        "capacity": "assistant steward",
        "date_left": "1899-04-02",
        "left_port": "west hartlepool",
        "cause_of_leaving": "discharged",
        "sign_with_mark": "y",
        "notes": "blk"
    },
    {
        "id": "vtls004975551_0_40",
        "type": "sailor",
        "parent": "vtls004975551",
        "name": "paolo minute",
        "dob": "blk",
        "age": "36",
        "place_of_birth": "malta",
        "home_address": "malta, rosianna 2044",
        "f": "malta, rosianna 2044",
        "name_of_ship": "foreign",
        "ship_port": "blk",
        "date_leaving": "1898",
        "joined_ship_date": "1898-08-01",
        "joined_at_port": "fib",
        "capacity": "fireman",
        "date_left": "1899-04-02",
        "left_port": "west hartlepool",
        "cause_of_leaving": "discharged",
        "sign_with_mark": "n",
        "notes": "blk"
    },
    {
        "id": "vtls004975551_0_43",
        "type": "sailor",
        "parent": "vtls004975551",
        "name": "emmanuel vella",
        "dob": "blk",
        "age": "19",
        "place_of_birth": "malta",
        "home_address": "port said",
        "f": "port said",
        "name_of_ship": "albion",
        "ship_port": "blk",
        "date_leaving": "1898",
        "joined_ship_date": "1898-08-11",
        "joined_at_port": "port said",
        "capacity": "mess room steward",
        "date_left": "1898-12-30",
        "left_port": "port said",
        "cause_of_leaving": "mutual consent",
        "sign_with_mark": "y",
        "notes": "blk"
    },
    {
        "id": "vtls004975551_0_39",
        "type": "sailor",
        "parent": "vtls004975551",
        "name": "rudolf smidt",
        "dob": "blk",
        "age": "26",
        "place_of_birth": "russia",
        "home_address": "kief alexander street, fil",
        "f": "kief alexander street, fil",
        "name_of_ship": "foreign",
        "ship_port": "blk",
        "date_leaving": "1898",
        "joined_ship_date": "1898-08-01",
        "joined_at_port": "fib",
        "capacity": "fireman",
        "date_left": "1898-09-08",
        "left_port": "singapore",
        "cause_of_leaving": "deserted",
        "sign_with_mark": "n",
        "notes": "blk"
    },
    {
        "id": "vtls004975551_0_44",
        "type": "sailor",
        "parent": "vtls004975551",
        "name": "hassan salim",
        "dob": "blk",
        "age": "18",
        "place_of_birth": "egypt",
        "home_address": "port said",
        "f": "port said",
        "name_of_ship": "first ship",
        "ship_port": "blk",
        "date_leaving": "blk",
        "joined_ship_date": "1898-08-11",
        "joined_at_port": "port said",
        "capacity": "cabin boy",
        "date_left": "1898-09-29",
        "left_port": "madenstock",
        "cause_of_leaving": "deserted",
        "sign_with_mark": "y",
        "notes": "blk"
    },
    {
        "id": "vtls004975551_0_42",
        "type": "sailor",
        "parent": "vtls004975551",
        "name": "dorothy denyer",
        "dob": "blk",
        "age": "blk",
        "place_of_birth": "bristol",
        "home_address": "blk",
        "f": "blk",
        "name_of_ship": "venus",
        "ship_port": "aberystwyth",
        "date_leaving": "1898",
        "joined_ship_date": "1898-08-02",
        "joined_at_port": "at sea",
        "capacity": "steward",
        "date_left": "1899-01-09",
        "left_port": "alfred",
        "cause_of_leaving": "discharged",
        "sign_with_mark": "y",
        "notes": "blk"
    },
    {
        "id": "vtls004975551_1_18",
        "type": "sailor",
        "parent": "vtls004975551",
        "name": "willie a rees",
        "dob": "blk",
        "age": "22",
        "place_of_birth": "newquay",
        "home_address": "blk",
        "f": "blk",
        "name_of_ship": "glanhafren",
        "ship_port": "aberystwyth",
        "date_leaving": "1899",
        "joined_ship_date": "1899-04-10",
        "joined_at_port": "west hartlepool",
        "capacity": "3rd engineer",
        "date_left": "1899-04-14",
        "left_port": "barry",
        "cause_of_leaving": "discharged",
        "sign_with_mark": "n",
        "notes": "blk"
    },
    {
        "id": "vtls004975551_1_16",
        "type": "sailor",
        "parent": "vtls004975551",
        "name": "g knowler",
        "dob": "blk",
        "age": "32",
        "place_of_birth": "agra, india",
        "home_address": "blk",
        "f": "blk",
        "name_of_ship": "glenvech",
        "ship_port": "aberystwyth",
        "date_leaving": "1899",
        "joined_ship_date": "1899-04-10",
        "joined_at_port": "west hartlepool",
        "capacity": "1st engineer",
        "date_left": "1899-04-14",
        "left_port": "barry",
        "cause_of_leaving": "discharged",
        "sign_with_mark": "n",
        "notes": "blk"
    },
    {
        "id": "vtls004975551_1_14",
        "type": "sailor",
        "parent": "vtls004975551",
        "name": "thomas doughton",
        "dob": "blk",
        "age": "42",
        "place_of_birth": "aberystwyth",
        "home_address": "blk",
        "f": "blk",
        "name_of_ship": "glanystwyth",
        "ship_port": "aberystwyth",
        "date_leaving": "1899",
        "joined_ship_date": "1899-04-10",
        "joined_at_port": "west hartlepool",
        "capacity": "steward",
        "date_left": "1899-04-14",
        "left_port": "barry",
        "cause_of_leaving": "discharged",
        "sign_with_mark": "n",
        "notes": "blk"
    },
    {
        "id": "vtls004975551_1_17",
        "type": "sailor",
        "parent": "vtls004975551",
        "name": "david jenkins",
        "dob": "blk",
        "age": "29",
        "place_of_birth": "borth",
        "home_address": "blk",
        "f": "blk",
        "name_of_ship": "glanystwyth",
        "ship_port": "aberystwyth",
        "date_leaving": "1899",
        "joined_ship_date": "1899-04-10",
        "joined_at_port": "west hartlepool",
        "capacity": "2nd engineer",
        "date_left": "1899-04-14",
        "left_port": "barry",
        "cause_of_leaving": "discharged",
        "sign_with_mark": "n",
        "notes": "blk"
    },
    {
        "id": "vtls004975551_1_13",
        "type": "sailor",
        "parent": "vtls004975551",
        "name": "r j evans",
        "dob": "blk",
        "age": "25",
        "place_of_birth": "aberdovey",
        "home_address": "blk",
        "f": "blk",
        "name_of_ship": "glanystwyth",
        "ship_port": "aberystwyth",
        "date_leaving": "1899",
        "joined_ship_date": "1899-04-10",
        "joined_at_port": "west hartlepool",
        "capacity": "2nd mate",
        "date_left": "1899-04-14",
        "left_port": "barry",
        "cause_of_leaving": "discharged",
        "sign_with_mark": "n",
        "notes": "blk"
    },
    {
        "id": "vtls004975551_1_19",
        "type": "sailor",
        "parent": "vtls004975551",
        "name": "william banks",
        "dob": "blk",
        "age": "28",
        "place_of_birth": "wisbech",
        "home_address": "blk",
        "f": "blk",
        "name_of_ship": "eastlands",
        "ship_port": "blk",
        "date_leaving": "1899",
        "joined_ship_date": "1899-04-10",
        "joined_at_port": "west hartlepool",
        "capacity": "able seaman",
        "date_left": "1899-04-14",
        "left_port": "barry",
        "cause_of_leaving": "discharged",
        "sign_with_mark": "n",
        "notes": "blk"
    },
    {
        "id": "vtls004975551_1_12",
        "type": "sailor",
        "parent": "vtls004975551",
        "name": "j o enos",
        "dob": "blk",
        "age": "29",
        "place_of_birth": "borth",
        "home_address": "blk",
        "f": "blk",
        "name_of_ship": "glantivy",
        "ship_port": "aberystwyth",
        "date_leaving": "1899",
        "joined_ship_date": "1899-04-10",
        "joined_at_port": "west hartlepool",
        "capacity": "1st mate",
        "date_left": "1899-04-14",
        "left_port": "barry",
        "cause_of_leaving": "discharged",
        "sign_with_mark": "n",
        "notes": "blk"
    },
    {
        "id": "vtls004975551_1_15",
        "type": "sailor",
        "parent": "vtls004975551",
        "name": "joseph mckoy",
        "dob": "blk",
        "age": "24",
        "place_of_birth": "glandulay",
        "home_address": "blk",
        "f": "blk",
        "name_of_ship": "ross",
        "ship_port": "[bronder]",
        "date_leaving": "1899",
        "joined_ship_date": "1899-04-10",
        "joined_at_port": "west hartlepool",
        "capacity": "cook",
        "date_left": "1899-04-14",
        "left_port": "barry",
        "cause_of_leaving": "discharged",
        "sign_with_mark": "n",
        "notes": "blk"
    },
    {
        "id": "vtls004975551_1_22",
        "type": "sailor",
        "parent": "vtls004975551",
        "name": "alfred price",
        "dob": "blk",
        "age": "24",
        "place_of_birth": "portsmouth",
        "home_address": "blk",
        "f": "blk",
        "name_of_ship": "northern light",
        "ship_port": "blk",
        "date_leaving": "1899",
        "joined_ship_date": "1899-04-10",
        "joined_at_port": "west hartlepool",
        "capacity": "able seaman",
        "date_left": "1899-04-14",
        "left_port": "barry",
        "cause_of_leaving": "discharged",
        "sign_with_mark": "n",
        "notes": "blk"
    },
    {
        "id": "vtls004975551_1_21",
        "type": "sailor",
        "parent": "vtls004975551",
        "name": "william seymour",
        "dob": "blk",
        "age": "54",
        "place_of_birth": "whitby",
        "home_address": "blk",
        "f": "blk",
        "name_of_ship": "eastlands",
        "ship_port": "blk",
        "date_leaving": "1899",
        "joined_ship_date": "1899-04-10",
        "joined_at_port": "west hartlepool",
        "capacity": "able seaman",
        "date_left": "1899-04-14",
        "left_port": "barry",
        "cause_of_leaving": "discharged",
        "sign_with_mark": "n",
        "notes": "blk"
    },
    {
        "id": "vtls004975551_1_27",
        "type": "sailor",
        "parent": "vtls004975551",
        "name": "w gyner",
        "dob": "blk",
        "age": "24",
        "place_of_birth": "west hartlepool",
        "home_address": "blk",
        "f": "blk",
        "name_of_ship": "goldsborough",
        "ship_port": "blk",
        "date_leaving": "1899",
        "joined_ship_date": "1899-04-10",
        "joined_at_port": "west hartlepool",
        "capacity": "fireman",
        "date_left": "1899-04-14",
        "left_port": "barry",
        "cause_of_leaving": "discharged",
        "sign_with_mark": "n",
        "notes": "blk"
    },
    {
        "id": "vtls004975551_1_23",
        "type": "sailor",
        "parent": "vtls004975551",
        "name": "j ford",
        "dob": "blk",
        "age": "47",
        "place_of_birth": "south shields",
        "home_address": "blk",
        "f": "blk",
        "name_of_ship": "kaiser",
        "ship_port": "blk",
        "date_leaving": "1899",
        "joined_ship_date": "1899-04-10",
        "joined_at_port": "west hartlepool",
        "capacity": "able seaman",
        "date_left": "1899-04-14",
        "left_port": "barry",
        "cause_of_leaving": "discharged",
        "sign_with_mark": "n",
        "notes": "blk"
    },
    {
        "id": "vtls004975551_1_24",
        "type": "sailor",
        "parent": "vtls004975551",
        "name": "c nash",
        "dob": "blk",
        "age": "44",
        "place_of_birth": "west hartlepool",
        "home_address": "blk",
        "f": "blk",
        "name_of_ship": "panther",
        "ship_port": "blk",
        "date_leaving": "1899",
        "joined_ship_date": "1899-04-10",
        "joined_at_port": "west hartlepool",
        "capacity": "able seaman",
        "date_left": "1899-04-14",
        "left_port": "barry",
        "cause_of_leaving": "discharged",
        "sign_with_mark": "n",
        "notes": "blk"
    },
    {
        "id": "vtls004975551_1_29",
        "type": "sailor",
        "parent": "vtls004975551",
        "name": "john mcternon",
        "dob": "blk",
        "age": "38",
        "place_of_birth": "barrow",
        "home_address": "blk",
        "f": "blk",
        "name_of_ship": "candleshoe",
        "ship_port": "blk",
        "date_leaving": "1899",
        "joined_ship_date": "1899-04-10",
        "joined_at_port": "west hartlepool",
        "capacity": "fireman",
        "date_left": "1899-04-14",
        "left_port": "barry",
        "cause_of_leaving": "discharged",
        "sign_with_mark": "n",
        "notes": "blk"
    },
    {
        "id": "vtls004975551_1_26",
        "type": "sailor",
        "parent": "vtls004975551",
        "name": "w woods",
        "dob": "blk",
        "age": "38",
        "place_of_birth": "sheldon",
        "home_address": "blk",
        "f": "blk",
        "name_of_ship": "german emperor",
        "ship_port": "blk",
        "date_leaving": "1899",
        "joined_ship_date": "1899-04-10",
        "joined_at_port": "west hartlepool",
        "capacity": "fireman",
        "date_left": "1899-04-14",
        "left_port": "barry",
        "cause_of_leaving": "discharged",
        "sign_with_mark": "n",
        "notes": "blk"
    },
    {
        "id": "vtls004975551_1_20",
        "type": "sailor",
        "parent": "vtls004975551",
        "name": "h leaver",
        "dob": "blk",
        "age": "39",
        "place_of_birth": "london",
        "home_address": "blk",
        "f": "blk",
        "name_of_ship": "eastlands",
        "ship_port": "blk",
        "date_leaving": "1899",
        "joined_ship_date": "1899-04-10",
        "joined_at_port": "west hartlepool",
        "capacity": "able seaman",
        "date_left": "1899-04-14",
        "left_port": "barry",
        "cause_of_leaving": "discharged",
        "sign_with_mark": "n",
        "notes": "blk"
    },
    {
        "id": "vtls004975551_1_25",
        "type": "sailor",
        "parent": "vtls004975551",
        "name": "p green",
        "dob": "blk",
        "age": "30",
        "place_of_birth": "west hartlepool",
        "home_address": "blk",
        "f": "blk",
        "name_of_ship": "oporto",
        "ship_port": "blk",
        "date_leaving": "1899",
        "joined_ship_date": "1899-04-10",
        "joined_at_port": "west hartlepool",
        "capacity": "fireman",
        "date_left": "1899-04-14",
        "left_port": "barry",
        "cause_of_leaving": "discharged",
        "sign_with_mark": "y",
        "notes": "blk"
    },
    {
        "id": "vtls004975551_1_28",
        "type": "sailor",
        "parent": "vtls004975551",
        "name": "w mitchell",
        "dob": "blk",
        "age": "blk",
        "place_of_birth": "blk",
        "home_address": "blk",
        "f": "blk",
        "name_of_ship": "blk",
        "ship_port": "blk",
        "date_leaving": "blk",
        "joined_ship_date": "blk",
        "joined_at_port": "blk",
        "capacity": "fireman",
        "date_left": "blk",
        "left_port": "blk",
        "cause_of_leaving": "never joined",
        "sign_with_mark": "n",
        "notes": "blk"
    },
    {
        "id": "vtls004975589_0_11",
        "type": "sailor",
        "parent": "vtls004975589",
        "name": "david jones",
        "dob": "blk",
        "age": "34",
        "place_of_birth": "aberystwyth",
        "home_address": "40 high street, aberystwyth",
        "f": "40 high street, aberystwyth",
        "name_of_ship": "glanystwyth",
        "ship_port": "aberystwyth",
        "date_leaving": "1899",
        "joined_ship_date": "1899-04-18",
        "joined_at_port": "barry",
        "capacity": "master",
        "date_left": "1899-06-22",
        "left_port": "dover",
        "cause_of_leaving": "discharged",
        "sign_with_mark": "n",
        "notes": "blk"
    },
    {
        "id": "vtls004975589_0_14",
        "type": "sailor",
        "parent": "vtls004975589",
        "name": "f d browne",
        "dob": "blk",
        "age": "20",
        "place_of_birth": "bolton",
        "home_address": "prestwich street, w manchester",
        "f": "prestwich street, w manchester",
        "name_of_ship": "[quornic]",
        "ship_port": "london",
        "date_leaving": "1899",
        "joined_ship_date": "1899-04-18",
        "joined_at_port": "barry",
        "capacity": "3rd mate",
        "date_left": "1899-06-19",
        "left_port": "dover",
        "cause_of_leaving": "discharged",
        "sign_with_mark": "n",
        "notes": "blk"
    },
    {
        "id": "vtls004975589_0_17",
        "type": "sailor",
        "parent": "vtls004975589",
        "name": "thomas doughton",
        "dob": "blk",
        "age": "41",
        "place_of_birth": "aberystwyth",
        "home_address": "aberystwyth",
        "f": "aberystwyth",
        "name_of_ship": "glanystwyth",
        "ship_port": "aberystwyth",
        "date_leaving": "1899",
        "joined_ship_date": "1899-04-18",
        "joined_at_port": "barry",
        "capacity": "steward",
        "date_left": "1899-06-19",
        "left_port": "dover",
        "cause_of_leaving": "discharged",
        "sign_with_mark": "n",
        "notes": "blk"
    },
    {
        "id": "vtls004975589_0_16",
        "type": "sailor",
        "parent": "vtls004975589",
        "name": "t c thomas",
        "dob": "blk",
        "age": "28",
        "place_of_birth": "derby",
        "home_address": "richmond, surrey",
        "f": "richmond, surrey",
        "name_of_ship": "princess",
        "ship_port": "sunderland",
        "date_leaving": "1899",
        "joined_ship_date": "1899-04-18",
        "joined_at_port": "barry",
        "capacity": "boatswain",
        "date_left": "1899-06-19",
        "left_port": "dover",
        "cause_of_leaving": "discharged",
        "sign_with_mark": "n",
        "notes": "blk"
    },
    {
        "id": "vtls004975589_0_13",
        "type": "sailor",
        "parent": "vtls004975589",
        "name": "r j evans",
        "dob": "blk",
        "age": "26",
        "place_of_birth": "montgomen",
        "home_address": "aberdovy",
        "f": "aberdovy",
        "name_of_ship": "glanystwyth",
        "ship_port": "aberystwyth",
        "date_leaving": "1899",
        "joined_ship_date": "1899-04-18",
        "joined_at_port": "barry",
        "capacity": "2nd mate",
        "date_left": "1899-06-19",
        "left_port": "dover",
        "cause_of_leaving": "discharged",
        "sign_with_mark": "n",
        "notes": "blk"
    },
    {
        "id": "vtls004975589_0_12",
        "type": "sailor",
        "parent": "vtls004975589",
        "name": "john o enos",
        "dob": "blk",
        "age": "28",
        "place_of_birth": "borth",
        "home_address": "borth",
        "f": "borth",
        "name_of_ship": "glantivy",
        "ship_port": "aberystwyth",
        "date_leaving": "1899",
        "joined_ship_date": "1899-04-18",
        "joined_at_port": "barry",
        "capacity": "1st mate",
        "date_left": "1899-06-22",
        "left_port": "dover",
        "cause_of_leaving": "discharged",
        "sign_with_mark": "n",
        "notes": "blk"
    },
    {
        "id": "vtls004975589_0_18",
        "type": "sailor",
        "parent": "vtls004975589",
        "name": "j melross",
        "dob": "blk",
        "age": "26",
        "place_of_birth": "guadeloupe",
        "home_address": "guadeloupe",
        "f": "guadeloupe",
        "name_of_ship": "venus",
        "ship_port": "aberystwyth",
        "date_leaving": "1899",
        "joined_ship_date": "1899-04-18",
        "joined_at_port": "barry",
        "capacity": "cook",
        "date_left": "1899-06-19",
        "left_port": "dover",
        "cause_of_leaving": "discharged",
        "sign_with_mark": "n",
        "notes": "blk"
    },
    {
        "id": "vtls004975589_0_15",
        "type": "sailor",
        "parent": "vtls004975589",
        "name": "a landins",
        "dob": "blk",
        "age": "31",
        "place_of_birth": "meanga",
        "home_address": "meanga",
        "f": "meanga",
        "name_of_ship": "amy",
        "ship_port": "london",
        "date_leaving": "1899",
        "joined_ship_date": "1899-04-18",
        "joined_at_port": "barry",
        "capacity": "carpenter",
        "date_left": "1899-06-19",
        "left_port": "dover",
        "cause_of_leaving": "discharged",
        "sign_with_mark": "n",
        "notes": "blk"
    },
    {
        "id": "vtls004975589_0_22",
        "type": "sailor",
        "parent": "vtls004975589",
        "name": "joseph mcneill",
        "dob": "blk",
        "age": "31",
        "place_of_birth": "canada",
        "home_address": "37 sydenham street, prince edwards",
        "f": "37 sydenham street, prince edwards",
        "name_of_ship": "montenegro",
        "ship_port": "london",
        "date_leaving": "1899",
        "joined_ship_date": "1899-04-18",
        "joined_at_port": "barry",
        "capacity": "able seaman",
        "date_left": "1899-06-19",
        "left_port": "dover",
        "cause_of_leaving": "discharged",
        "sign_with_mark": "n",
        "notes": "blk"
    },
    {
        "id": "vtls004975589_0_25",
        "type": "sailor",
        "parent": "vtls004975589",
        "name": "g w f knowler",
        "dob": "blk",
        "age": "32",
        "place_of_birth": "agra",
        "home_address": "29 malfast road,newport new",
        "f": "29 malfast road,newport new",
        "name_of_ship": "glenvech",
        "ship_port": "aberystwyth",
        "date_leaving": "1899",
        "joined_ship_date": "1899-04-18",
        "joined_at_port": "barry",
        "capacity": "1st engineer",
        "date_left": "1899-06-19",
        "left_port": "dover",
        "cause_of_leaving": "discharged",
        "sign_with_mark": "n",
        "notes": "blk"
    },
    {
        "id": "vtls004975589_0_19",
        "type": "sailor",
        "parent": "vtls004975589",
        "name": "a price",
        "dob": "blk",
        "age": "24",
        "place_of_birth": "portsmouth",
        "home_address": "15 regent street, portsmouth",
        "f": "15 regent street, portsmouth",
        "name_of_ship": "venus",
        "ship_port": "aberystwyth",
        "date_leaving": "1899",
        "joined_ship_date": "1899-04-18",
        "joined_at_port": "barry",
        "capacity": "able seaman",
        "date_left": "1899-06-19",
        "left_port": "dover",
        "cause_of_leaving": "discharged",
        "sign_with_mark": "n",
        "notes": "blk"
    },
    {
        "id": "vtls004975589_0_21",
        "type": "sailor",
        "parent": "vtls004975589",
        "name": "j o lehtonen",
        "dob": "blk",
        "age": "24",
        "place_of_birth": "abboyne",
        "home_address": "70 thomson street, aboyne",
        "f": "70 thomson street, aboyne",
        "name_of_ship": "amy",
        "ship_port": "london",
        "date_leaving": "1899",
        "joined_ship_date": "1899-04-18",
        "joined_at_port": "barry",
        "capacity": "able seaman",
        "date_left": "1899-06-19",
        "left_port": "dover",
        "cause_of_leaving": "discharged",
        "sign_with_mark": "n",
        "notes": "blk"
    },
    {
        "id": "vtls004975589_0_23",
        "type": "sailor",
        "parent": "vtls004975589",
        "name": "james english",
        "dob": "blk",
        "age": "23",
        "place_of_birth": "canada",
        "home_address": "st johns, nb",
        "f": "st johns, nb",
        "name_of_ship": "westow",
        "ship_port": "hartlepool",
        "date_leaving": "1899",
        "joined_ship_date": "1899-04-18",
        "joined_at_port": "barry",
        "capacity": "able seaman",
        "date_left": "1899-06-19",
        "left_port": "dover",
        "cause_of_leaving": "discharged",
        "sign_with_mark": "n",
        "notes": "blk"
    },
    {
        "id": "vtls004975589_0_20",
        "type": "sailor",
        "parent": "vtls004975589",
        "name": "david jones",
        "dob": "blk",
        "age": "43",
        "place_of_birth": "pwllheli",
        "home_address": "carnarvon",
        "f": "carnarvon",
        "name_of_ship": "euterpe",
        "ship_port": "cardiff",
        "date_leaving": "1899",
        "joined_ship_date": "1899-04-18",
        "joined_at_port": "barry",
        "capacity": "able seaman",
        "date_left": "1899-06-19",
        "left_port": "dover",
        "cause_of_leaving": "discharged",
        "sign_with_mark": "n",
        "notes": "blk"
    },
    {
        "id": "vtls004975589_0_24",
        "type": "sailor",
        "parent": "vtls004975589",
        "name": "david p james",
        "dob": "blk",
        "age": "18",
        "place_of_birth": "cardigan",
        "home_address": "cardigan",
        "f": "cardigan",
        "name_of_ship": "itata",
        "ship_port": "liverpool",
        "date_leaving": "1899",
        "joined_ship_date": "1899-04-18",
        "joined_at_port": "barry",
        "capacity": "able seaman",
        "date_left": "1899-06-19",
        "left_port": "dover",
        "cause_of_leaving": "discharged",
        "sign_with_mark": "n",
        "notes": "blk"
    },
    {
        "id": "vtls004975589_0_26",
        "type": "sailor",
        "parent": "vtls004975589",
        "name": "d jenkins",
        "dob": "blk",
        "age": "29",
        "place_of_birth": "borth",
        "home_address": "borth",
        "f": "borth",
        "name_of_ship": "glanystwyth",
        "ship_port": "aberystwyth",
        "date_leaving": "1899",
        "joined_ship_date": "1899-04-18",
        "joined_at_port": "barry",
        "capacity": "2nd engineer",
        "date_left": "1899-06-19",
        "left_port": "dover",
        "cause_of_leaving": "discharged",
        "sign_with_mark": "n",
        "notes": "blk"
    },
    {
        "id": "vtls004975589_0_28",
        "type": "sailor",
        "parent": "vtls004975589",
        "name": "dunwin bloir",
        "dob": "blk",
        "age": "42",
        "place_of_birth": "stirling",
        "home_address": "82 casteland street",
        "f": "82 casteland street",
        "name_of_ship": "munificent",
        "ship_port": "sunderland",
        "date_leaving": "1899",
        "joined_ship_date": "1899-04-18",
        "joined_at_port": "barry",
        "capacity": "donkeyman",
        "date_left": "1899-06-19",
        "left_port": "dover",
        "cause_of_leaving": "discharged",
        "sign_with_mark": "n",
        "notes": "blk"
    },
    {
        "id": "vtls004975589_0_29",
        "type": "sailor",
        "parent": "vtls004975589",
        "name": "w wilson",
        "dob": "blk",
        "age": "28",
        "place_of_birth": "south shields",
        "home_address": "27 derby street, south shields",
        "f": "27 derby street, south shields",
        "name_of_ship": "vectis",
        "ship_port": "whitby",
        "date_leaving": "1899",
        "joined_ship_date": "1899-04-18",
        "joined_at_port": "barry",
        "capacity": "fireman",
        "date_left": "1899-06-19",
        "left_port": "dover",
        "cause_of_leaving": "discharged",
        "sign_with_mark": "n",
        "notes": "blk"
    },
    {
        "id": "vtls004975589_0_31",
        "type": "sailor",
        "parent": "vtls004975589",
        "name": "olaf larsson",
        "dob": "blk",
        "age": "22",
        "place_of_birth": "sweden",
        "home_address": "49 thonpson street, sweden",
        "f": "49 thonpson street, sweden",
        "name_of_ship": "merrimac",
        "ship_port": "st johns",
        "date_leaving": "1899",
        "joined_ship_date": "1899-04-18",
        "joined_at_port": "barry",
        "capacity": "fireman",
        "date_left": "1899-06-19",
        "left_port": "dover",
        "cause_of_leaving": "discharged",
        "sign_with_mark": "n",
        "notes": "blk"
    },
    {
        "id": "vtls004975589_0_36",
        "type": "sailor",
        "parent": "vtls004975589",
        "name": "john mc ivor",
        "dob": "blk",
        "age": "32",
        "place_of_birth": "wallsend on tyne",
        "home_address": "53 thompson street",
        "f": "53 thompson street",
        "name_of_ship": "suram",
        "ship_port": "newcastle",
        "date_leaving": "1899",
        "joined_ship_date": "1899-04-18",
        "joined_at_port": "barry",
        "capacity": "fireman",
        "date_left": "1899-05-29",
        "left_port": "odessa",
        "cause_of_leaving": "sickness",
        "sign_with_mark": "n",
        "notes": "blk"
    },
    {
        "id": "vtls004975589_0_35",
        "type": "sailor",
        "parent": "vtls004975589",
        "name": "w king",
        "dob": "blk",
        "age": "20",
        "place_of_birth": "cardiff",
        "home_address": "7 castle road, cardiff",
        "f": "7 castle road, cardiff",
        "name_of_ship": "ruperra",
        "ship_port": "cardiff",
        "date_leaving": "1899",
        "joined_ship_date": "1899-04-18",
        "joined_at_port": "barry",
        "capacity": "mess room steward",
        "date_left": "1899-06-19",
        "left_port": "dover",
        "cause_of_leaving": "discharged",
        "sign_with_mark": "n",
        "notes": "blk"
    },
    {
        "id": "vtls004975589_0_33",
        "type": "sailor",
        "parent": "vtls004975589",
        "name": "e nolgen",
        "dob": "blk",
        "age": "22",
        "place_of_birth": "antwerp",
        "home_address": "70 thompson street, antwerp",
        "f": "70 thompson street, antwerp",
        "name_of_ship": "cairo",
        "ship_port": "cardiff",
        "date_leaving": "1899",
        "joined_ship_date": "1899-04-18",
        "joined_at_port": "barry",
        "capacity": "fireman",
        "date_left": "1899-06-19",
        "left_port": "dover",
        "cause_of_leaving": "discharged",
        "sign_with_mark": "n",
        "notes": "blk"
    },
    {
        "id": "vtls004975589_0_32",
        "type": "sailor",
        "parent": "vtls004975589",
        "name": "m hayes",
        "dob": "blk",
        "age": "30",
        "place_of_birth": "athlone",
        "home_address": "72 fontenoy street",
        "f": "72 fontenoy street",
        "name_of_ship": "springwell",
        "ship_port": "sunderland",
        "date_leaving": "1899",
        "joined_ship_date": "1899-04-18",
        "joined_at_port": "barry",
        "capacity": "fireman",
        "date_left": "1899-06-19",
        "left_port": "dover",
        "cause_of_leaving": "discharged",
        "sign_with_mark": "y",
        "notes": "blk"
    },
    {
        "id": "vtls004975589_0_27",
        "type": "sailor",
        "parent": "vtls004975589",
        "name": "w a rees",
        "dob": "blk",
        "age": "21",
        "place_of_birth": "llanarth",
        "home_address": "llanarth",
        "f": "llanarth",
        "name_of_ship": "glanhavren",
        "ship_port": "aberystwyth",
        "date_leaving": "1899",
        "joined_ship_date": "1899-04-18",
        "joined_at_port": "barry",
        "capacity": "3rd engineer",
        "date_left": "1899-06-19",
        "left_port": "dover",
        "cause_of_leaving": "discharged",
        "sign_with_mark": "n",
        "notes": "blk"
    },
    {
        "id": "vtls004975589_0_34",
        "type": "sailor",
        "parent": "vtls004975589",
        "name": "p pedersen",
        "dob": "blk",
        "age": "21",
        "place_of_birth": "falstadt",
        "home_address": "denmark",
        "f": "denmark",
        "name_of_ship": "juanita north",
        "ship_port": "london",
        "date_leaving": "1899",
        "joined_ship_date": "1899-04-18",
        "joined_at_port": "barry",
        "capacity": "fireman",
        "date_left": "1899-06-19",
        "left_port": "dover",
        "cause_of_leaving": "discharged",
        "sign_with_mark": "n",
        "notes": "blk"
    },
    {
        "id": "vtls004975589_0_30",
        "type": "sailor",
        "parent": "vtls004975589",
        "name": "f gorch",
        "dob": "blk",
        "age": "33",
        "place_of_birth": "colchester",
        "home_address": "colchester",
        "f": "colchester",
        "name_of_ship": "[imoha]",
        "ship_port": "shields",
        "date_leaving": "1899",
        "joined_ship_date": "blk",
        "joined_at_port": "barry",
        "capacity": "fireman",
        "date_left": "blk",
        "left_port": "blk",
        "cause_of_leaving": "failed to join",
        "sign_with_mark": "n",
        "notes": "blk"
    },
    {
        "id": "vtls004975589_0_37",
        "type": "sailor",
        "parent": "vtls004975589",
        "name": "johanes looman",
        "dob": "blk",
        "age": "23",
        "place_of_birth": "wesenberg, russia",
        "home_address": "kattentarc, wesenberg, russia",
        "f": "kattentarc, wesenberg, russia",
        "name_of_ship": "elborns",
        "ship_port": "russian",
        "date_leaving": "1899",
        "joined_ship_date": "1899-05-29",
        "joined_at_port": "odessa",
        "capacity": "trimmer",
        "date_left": "1899-06-19",
        "left_port": "dover",
        "cause_of_leaving": "discharged",
        "sign_with_mark": "n",
        "notes": "blk"
    }
]