[
    {
        "id": "vtls004917637_0_11",
        "type": "sailor",
        "parent": "vtls004917637",
        "name": "evan phillips",
        "dob": "blk",
        "age": "45",
        "place_of_birth": "newquay",
        "home_address": "blk",
        "f": "blk",
        "name_of_ship": "major nanney",
        "ship_port": "aberystwyth",
        "date_leaving": "blk",
        "joined_ship_date": "1859-07",
        "joined_at_port": "swansea",
        "capacity": "master",
        "date_left": "blk",
        "left_port": "blk",
        "cause_of_leaving": "remains on board",
        "sign_with_mark": "n",
        "notes": "blk"
    },
    {
        "id": "vtls004917646_0_11",
        "type": "sailor",
        "parent": "vtls004917646",
        "name": "evan phillips",
        "dob": "blk",
        "age": "48",
        "place_of_birth": "newquay",
        "home_address": "blk",
        "f": "blk",
        "name_of_ship": "major nanny",
        "ship_port": "aberystwyth",
        "date_leaving": "1875-12-31",
        "joined_ship_date": "1876-01-01",
        "joined_at_port": "at sea",
        "capacity": "master",
        "date_left": "1876-04-07",
        "left_port": "st gowans near milford",
        "cause_of_leaving": "discharged; the vessel became a total wreck",
        "sign_with_mark": "n",
        "notes": "blk"
    },
    {
        "id": "vtls004917637_0_13",
        "type": "sailor",
        "parent": "vtls004917637",
        "name": "edward owens",
        "dob": "blk",
        "age": "15",
        "place_of_birth": "aberdovey",
        "home_address": "blk",
        "f": "blk",
        "name_of_ship": "first ship",
        "ship_port": "blk",
        "date_leaving": "blk",
        "joined_ship_date": "18744-03-01",
        "joined_at_port": "aberdovey",
        "capacity": "boy",
        "date_left": "blk",
        "left_port": "blk",
        "cause_of_leaving": "remains on board",
        "sign_with_mark": "n",
        "notes": "crossed-out name 'robert owen', replaced with 'edward owens'"
    },
    {
        "id": "vtls004917637_0_12",
        "type": "sailor",
        "parent": "vtls004917637",
        "name": "david john phillips",
        "dob": "blk",
        "age": "19",
        "place_of_birth": "newquay",
        "home_address": "blk",
        "f": "blk",
        "name_of_ship": "elizabeth",
        "ship_port": "porthcall",
        "date_leaving": "1873-12-22",
        "joined_ship_date": "1874-03-01",
        "joined_at_port": "newquay",
        "capacity": "mate",
        "date_left": "blk",
        "left_port": "blk",
        "cause_of_leaving": "remains on board",
        "sign_with_mark": "n",
        "notes": "blk"
    },
    {
        "id": "vtls004917637_1_11",
        "type": "sailor",
        "parent": "vtls004917637",
        "name": "evan phillips",
        "dob": "blk",
        "age": "46",
        "place_of_birth": "newquay",
        "home_address": "blk",
        "f": "blk",
        "name_of_ship": "major nanney",
        "ship_port": "aberystwyth",
        "date_leaving": "remaining",
        "joined_ship_date": "blk",
        "joined_at_port": "blk",
        "capacity": "master",
        "date_left": "1874-12-31",
        "left_port": "fishguard",
        "cause_of_leaving": "remains on board",
        "sign_with_mark": "n",
        "notes": "blk"
    },
    {
        "id": "vtls004917637_1_12",
        "type": "sailor",
        "parent": "vtls004917637",
        "name": "david j phillips",
        "dob": "blk",
        "age": "20",
        "place_of_birth": "newquay",
        "home_address": "blk",
        "f": "blk",
        "name_of_ship": "elizabeth",
        "ship_port": "swansea",
        "date_leaving": "1874-02-02",
        "joined_ship_date": "1874-03-03",
        "joined_at_port": "newquay",
        "capacity": "mate",
        "date_left": "1874-10-01",
        "left_port": "cardigan",
        "cause_of_leaving": "paid off",
        "sign_with_mark": "n",
        "notes": "blk"
    },
    {
        "id": "vtls004917637_1_13",
        "type": "sailor",
        "parent": "vtls004917637",
        "name": "evan jeremiah",
        "dob": "blk",
        "age": "49",
        "place_of_birth": "cardigan",
        "home_address": "blk",
        "f": "blk",
        "name_of_ship": "blk",
        "ship_port": "blk",
        "date_leaving": "blk",
        "joined_ship_date": "1874-10-07",
        "joined_at_port": "cardigan",
        "capacity": "mate",
        "date_left": "1874-12-23",
        "left_port": "fishguard",
        "cause_of_leaving": "paid off",
        "sign_with_mark": "n",
        "notes": "blk"
    },
    {
        "id": "vtls004917637_1_14",
        "type": "sailor",
        "parent": "vtls004917637",
        "name": "hugh williams",
        "dob": "blk",
        "age": "18",
        "place_of_birth": "portmadoc",
        "home_address": "blk",
        "f": "blk",
        "name_of_ship": "blk",
        "ship_port": "blk",
        "date_leaving": "blk",
        "joined_ship_date": "1874-03-10",
        "joined_at_port": "portmadoc",
        "capacity": "boy",
        "date_left": "blk",
        "left_port": "blk",
        "cause_of_leaving": "paid off",
        "sign_with_mark": "n",
        "notes": "entry crossed out"
    },
    {
        "id": "vtls004917646_0_12",
        "type": "sailor",
        "parent": "vtls004917646",
        "name": "evan davies",
        "dob": "blk",
        "age": "40",
        "place_of_birth": "newquay",
        "home_address": "blk",
        "f": "blk",
        "name_of_ship": "major nanny",
        "ship_port": "aberystwyth",
        "date_leaving": "1875-12-31",
        "joined_ship_date": "1876-01-01",
        "joined_at_port": "at sea",
        "capacity": "mate",
        "date_left": "1876-04-07",
        "left_port": "st gowans near milford",
        "cause_of_leaving": "discharged; the vessel became a total wreck",
        "sign_with_mark": "n",
        "notes": "blk"
    },
    {
        "id": "vtls004917646_0_14",
        "type": "sailor",
        "parent": "vtls004917646",
        "name": "edward evans",
        "dob": "blk",
        "age": "22",
        "place_of_birth": "mostyn",
        "home_address": "blk",
        "f": "blk",
        "name_of_ship": "this being his first voyage",
        "ship_port": "blk",
        "date_leaving": "blk",
        "joined_ship_date": "1876-03-25",
        "joined_at_port": "liverpool",
        "capacity": "cook",
        "date_left": "1876-04-07",
        "left_port": "st gowans near milford",
        "cause_of_leaving": "discharged; the vessel became a total wreck",
        "sign_with_mark": "n",
        "notes": "blk"
    },
    {
        "id": "vtls004917646_0_13",
        "type": "sailor",
        "parent": "vtls004917646",
        "name": "william owen",
        "dob": "blk",
        "age": "17",
        "place_of_birth": "caernarfon",
        "home_address": "blk",
        "f": "blk",
        "name_of_ship": "major nanny",
        "ship_port": "aberystwyth",
        "date_leaving": "1875-12-31",
        "joined_ship_date": "1876-01-01",
        "joined_at_port": "at sea",
        "capacity": "cook",
        "date_left": "1876-01-14",
        "left_port": "pwyllhobi",
        "cause_of_leaving": "discharged",
        "sign_with_mark": "n",
        "notes": "blk"
    },
    {
        "id": "vtls004917496_1_11",
        "type": "sailor",
        "parent": "vtls004917496",
        "name": "david jones",
        "dob": "blk",
        "age": "35",
        "place_of_birth": "cardigan",
        "home_address": "blk",
        "f": "blk",
        "name_of_ship": "major nanney",
        "ship_port": "aberystwyth",
        "date_leaving": "1863",
        "joined_ship_date": "1863-07-01",
        "joined_at_port": "newport",
        "capacity": "master",
        "date_left": "1863-12-31",
        "left_port": "liverpool",
        "cause_of_leaving": "paid off",
        "sign_with_mark": "n",
        "notes": "blk"
    },
    {
        "id": "vtls004917496_1_13",
        "type": "sailor",
        "parent": "vtls004917496",
        "name": "james evans",
        "dob": "blk",
        "age": "19",
        "place_of_birth": "cardigan",
        "home_address": "blk",
        "f": "blk",
        "name_of_ship": "major nanney",
        "ship_port": "aberystwyth",
        "date_leaving": "1863",
        "joined_ship_date": "1863-07-01",
        "joined_at_port": "newport",
        "capacity": "seaman",
        "date_left": "1863-12-31",
        "left_port": "liverpool",
        "cause_of_leaving": "paid off",
        "sign_with_mark": "n",
        "notes": "blk"
    },
    {
        "id": "vtls004917496_1_12",
        "type": "sailor",
        "parent": "vtls004917496",
        "name": "david evans",
        "dob": "blk",
        "age": "33",
        "place_of_birth": "cardigan",
        "home_address": "blk",
        "f": "blk",
        "name_of_ship": "major nanney",
        "ship_port": "aberystwyth",
        "date_leaving": "1863",
        "joined_ship_date": "1863-07-01",
        "joined_at_port": "newport",
        "capacity": "mate",
        "date_left": "1863-12-31",
        "left_port": "liverpool",
        "cause_of_leaving": "paid off",
        "sign_with_mark": "n",
        "notes": "blk"
    },
    {
        "id": "vtls004917496_0_13",
        "type": "sailor",
        "parent": "vtls004917496",
        "name": "benjamin jones",
        "dob": "blk",
        "age": "19",
        "place_of_birth": "aberystwyth",
        "home_address": "blk",
        "f": "blk",
        "name_of_ship": "major nanney",
        "ship_port": "aberystwyth",
        "date_leaving": "1863",
        "joined_ship_date": "1863-01-12",
        "joined_at_port": "dublin",
        "capacity": "seaman",
        "date_left": "blk",
        "left_port": "blk",
        "cause_of_leaving": "remains on board",
        "sign_with_mark": "n",
        "notes": "blk"
    },
    {
        "id": "vtls004917496_0_11",
        "type": "sailor",
        "parent": "vtls004917496",
        "name": "david jones",
        "dob": "blk",
        "age": "33",
        "place_of_birth": "aberystwyth",
        "home_address": "blk",
        "f": "blk",
        "name_of_ship": "major nanney",
        "ship_port": "aberystwyth",
        "date_leaving": "1863",
        "joined_ship_date": "1863-01-30",
        "joined_at_port": "aberystwyth",
        "capacity": "master",
        "date_left": "blk",
        "left_port": "blk",
        "cause_of_leaving": "remains on board",
        "sign_with_mark": "n",
        "notes": "blk"
    },
    {
        "id": "vtls004917496_0_12",
        "type": "sailor",
        "parent": "vtls004917496",
        "name": "david evans",
        "dob": "blk",
        "age": "35",
        "place_of_birth": "aberystwyth",
        "home_address": "blk",
        "f": "blk",
        "name_of_ship": "major nanney",
        "ship_port": "aberystwyth",
        "date_leaving": "1863",
        "joined_ship_date": "1863-01-12",
        "joined_at_port": "dublin",
        "capacity": "mate",
        "date_left": "blk",
        "left_port": "blk",
        "cause_of_leaving": "remains on board",
        "sign_with_mark": "n",
        "notes": "blk"
    },
    {
        "id": "vtls004917513_0_13",
        "type": "sailor",
        "parent": "vtls004917513",
        "name": "james phillips",
        "dob": "blk",
        "age": "19",
        "place_of_birth": "cardigan",
        "home_address": "blk",
        "f": "blk",
        "name_of_ship": "major nanney",
        "ship_port": "aberystwyth",
        "date_leaving": "1864",
        "joined_ship_date": "1864-07-01",
        "joined_at_port": "cardigan",
        "capacity": "ordinary seaman",
        "date_left": "blk",
        "left_port": "blk",
        "cause_of_leaving": "remains on board",
        "sign_with_mark": "n",
        "notes": "blk"
    },
    {
        "id": "vtls004917513_0_11",
        "type": "sailor",
        "parent": "vtls004917513",
        "name": "david jones",
        "dob": "blk",
        "age": "35",
        "place_of_birth": "cardigan",
        "home_address": "blk",
        "f": "blk",
        "name_of_ship": "major nanney",
        "ship_port": "aberystwyth",
        "date_leaving": "1864",
        "joined_ship_date": "1864-07-01",
        "joined_at_port": "cardigan",
        "capacity": "master",
        "date_left": "blk",
        "left_port": "blk",
        "cause_of_leaving": "remains on board",
        "sign_with_mark": "n",
        "notes": "blk"
    },
    {
        "id": "vtls004917523_0_11",
        "type": "sailor",
        "parent": "vtls004917523",
        "name": "david jones",
        "dob": "blk",
        "age": "35",
        "place_of_birth": "cardigan",
        "home_address": "blk",
        "f": "blk",
        "name_of_ship": "major nanney",
        "ship_port": "aberystwyth",
        "date_leaving": "1866",
        "joined_ship_date": "continued",
        "joined_at_port": "continued",
        "capacity": "master",
        "date_left": "blk",
        "left_port": "blk",
        "cause_of_leaving": "remains on board",
        "sign_with_mark": "n",
        "notes": "blk"
    },
    {
        "id": "vtls004917513_0_12",
        "type": "sailor",
        "parent": "vtls004917513",
        "name": "james evans",
        "dob": "blk",
        "age": "52",
        "place_of_birth": "cardigan",
        "home_address": "blk",
        "f": "blk",
        "name_of_ship": "major nanney",
        "ship_port": "aberystwyth",
        "date_leaving": "1864",
        "joined_ship_date": "1864-07-01",
        "joined_at_port": "cardigan",
        "capacity": "mate",
        "date_left": "blk",
        "left_port": "blk",
        "cause_of_leaving": "remains on board",
        "sign_with_mark": "n",
        "notes": "blk"
    },
    {
        "id": "vtls004917523_0_12",
        "type": "sailor",
        "parent": "vtls004917523",
        "name": "john richards",
        "dob": "blk",
        "age": "19",
        "place_of_birth": "cardigan",
        "home_address": "blk",
        "f": "blk",
        "name_of_ship": "major nanney",
        "ship_port": "aberystwyth",
        "date_leaving": "1866",
        "joined_ship_date": "1865-12",
        "joined_at_port": "cardigan",
        "capacity": "mate",
        "date_left": "blk",
        "left_port": "blk",
        "cause_of_leaving": "remains on board",
        "sign_with_mark": "n",
        "notes": "blk"
    },
    {
        "id": "vtls004917523_0_13",
        "type": "sailor",
        "parent": "vtls004917523",
        "name": "richard davies",
        "dob": "blk",
        "age": "19",
        "place_of_birth": "cardigan",
        "home_address": "blk",
        "f": "blk",
        "name_of_ship": "major nanney",
        "ship_port": "aberystwyth",
        "date_leaving": "1866",
        "joined_ship_date": "1865-12",
        "joined_at_port": "cardigan",
        "capacity": "boy",
        "date_left": "blk",
        "left_port": "blk",
        "cause_of_leaving": "remains on board",
        "sign_with_mark": "n",
        "notes": "blk"
    },
    {
        "id": "vtls004917523_1_13",
        "type": "sailor",
        "parent": "vtls004917523",
        "name": "john jones",
        "dob": "blk",
        "age": "22",
        "place_of_birth": "anglesey",
        "home_address": "blk",
        "f": "blk",
        "name_of_ship": "major nanney",
        "ship_port": "aberystwyth",
        "date_leaving": "1866",
        "joined_ship_date": "continued",
        "joined_at_port": "continued",
        "capacity": "ordinary seaman",
        "date_left": "1867-01-06",
        "left_port": "port dinorwic",
        "cause_of_leaving": "discharged",
        "sign_with_mark": "n",
        "notes": "blk"
    },
    {
        "id": "vtls004917544_0_12",
        "type": "sailor",
        "parent": "vtls004917544",
        "name": "john jones",
        "dob": "blk",
        "age": "30",
        "place_of_birth": "anglesey",
        "home_address": "blk",
        "f": "blk",
        "name_of_ship": "margaret porter",
        "ship_port": "[barrow]",
        "date_leaving": "1867",
        "joined_ship_date": "1867-01-20",
        "joined_at_port": "port dinorwic",
        "capacity": "able seaman",
        "date_left": "1867-05-19",
        "left_port": "caernafon",
        "cause_of_leaving": "discharged",
        "sign_with_mark": "n",
        "notes": "blk"
    },
    {
        "id": "vtls004917523_1_12",
        "type": "sailor",
        "parent": "vtls004917523",
        "name": "william humphrey",
        "dob": "blk",
        "age": "39",
        "place_of_birth": "caernarfon",
        "home_address": "blk",
        "f": "blk",
        "name_of_ship": "major nanney",
        "ship_port": "aberystwyth",
        "date_leaving": "1866",
        "joined_ship_date": "continued",
        "joined_at_port": "continued",
        "capacity": "mate",
        "date_left": "1867-01-06",
        "left_port": "port dinorwic",
        "cause_of_leaving": "discharged",
        "sign_with_mark": "n",
        "notes": "blk"
    },
    {
        "id": "vtls004917544_0_13",
        "type": "sailor",
        "parent": "vtls004917544",
        "name": "hugh hughes",
        "dob": "blk",
        "age": "19",
        "place_of_birth": "anglesey",
        "home_address": "blk",
        "f": "blk",
        "name_of_ship": "first voyage",
        "ship_port": "aberystwyth",
        "date_leaving": "1867",
        "joined_ship_date": "1867-01-20",
        "joined_at_port": "port dinorwic",
        "capacity": "boy",
        "date_left": "1867-05-19",
        "left_port": "caernafon",
        "cause_of_leaving": "discharged",
        "sign_with_mark": "n",
        "notes": "blk"
    },
    {
        "id": "vtls004917544_1_13",
        "type": "sailor",
        "parent": "vtls004917544",
        "name": "hugh jones",
        "dob": "blk",
        "age": "21",
        "place_of_birth": "caernarfon",
        "home_address": "blk",
        "f": "blk",
        "name_of_ship": "major nanney",
        "ship_port": "aberystwyth",
        "date_leaving": "1867",
        "joined_ship_date": "continued",
        "joined_at_port": "continued",
        "capacity": "ordinary seaman",
        "date_left": "blk",
        "left_port": "blk",
        "cause_of_leaving": "remains on board",
        "sign_with_mark": "n",
        "notes": "blk"
    },
    {
        "id": "vtls004917544_1_12",
        "type": "sailor",
        "parent": "vtls004917544",
        "name": "griffith jones",
        "dob": "blk",
        "age": "46",
        "place_of_birth": "caernarfon",
        "home_address": "blk",
        "f": "blk",
        "name_of_ship": "major nanney",
        "ship_port": "aberystwyth",
        "date_leaving": "1867",
        "joined_ship_date": "continued",
        "joined_at_port": "continued",
        "capacity": "mate",
        "date_left": "blk",
        "left_port": "blk",
        "cause_of_leaving": "remains on board",
        "sign_with_mark": "n",
        "notes": "blk"
    },
    {
        "id": "vtls004917523_1_11",
        "type": "sailor",
        "parent": "vtls004917523",
        "name": "david jones",
        "dob": "blk",
        "age": "36",
        "place_of_birth": "cardigan",
        "home_address": "blk",
        "f": "blk",
        "name_of_ship": "major nanney",
        "ship_port": "aberystwyth",
        "date_leaving": "1866",
        "joined_ship_date": "continued",
        "joined_at_port": "continued",
        "capacity": "master",
        "date_left": "blk",
        "left_port": "blk",
        "cause_of_leaving": "remains on board",
        "sign_with_mark": "n",
        "notes": "blk"
    },
    {
        "id": "vtls004917544_0_11",
        "type": "sailor",
        "parent": "vtls004917544",
        "name": "david jones",
        "dob": "blk",
        "age": "36",
        "place_of_birth": "cardigan",
        "home_address": "blk",
        "f": "blk",
        "name_of_ship": "major nanney",
        "ship_port": "aberystwyth",
        "date_leaving": "1867",
        "joined_ship_date": "continued",
        "joined_at_port": "continued",
        "capacity": "master",
        "date_left": "blk",
        "left_port": "blk",
        "cause_of_leaving": "remains on board",
        "sign_with_mark": "n",
        "notes": "blk"
    },
    {
        "id": "vtls004917544_1_11",
        "type": "sailor",
        "parent": "vtls004917544",
        "name": "david jones",
        "dob": "blk",
        "age": "36",
        "place_of_birth": "cardigan",
        "home_address": "blk",
        "f": "blk",
        "name_of_ship": "major nanney",
        "ship_port": "aberystwyth",
        "date_leaving": "1867",
        "joined_ship_date": "continued",
        "joined_at_port": "continued",
        "capacity": "master",
        "date_left": "blk",
        "left_port": "blk",
        "cause_of_leaving": "remains on board",
        "sign_with_mark": "n",
        "notes": "blk"
    },
    {
        "id": "vtls004917552_0_13",
        "type": "sailor",
        "parent": "vtls004917552",
        "name": "john thomas",
        "dob": "blk",
        "age": "20",
        "place_of_birth": "cardigan",
        "home_address": "blk",
        "f": "blk",
        "name_of_ship": "major nanney",
        "ship_port": "aberystwyth",
        "date_leaving": "1868",
        "joined_ship_date": "continued",
        "joined_at_port": "continued",
        "capacity": "ordinary seaman",
        "date_left": "1868-07-17",
        "left_port": "port dinorwic",
        "cause_of_leaving": "discharged",
        "sign_with_mark": "n",
        "notes": "blk"
    },
    {
        "id": "vtls004917552_0_12",
        "type": "sailor",
        "parent": "vtls004917552",
        "name": "david d davies",
        "dob": "blk",
        "age": "40",
        "place_of_birth": "cardigan",
        "home_address": "blk",
        "f": "blk",
        "name_of_ship": "major nanney",
        "ship_port": "aberystwyth",
        "date_leaving": "1868",
        "joined_ship_date": "continued",
        "joined_at_port": "continued",
        "capacity": "ordinary seaman",
        "date_left": "blk",
        "left_port": "blk",
        "cause_of_leaving": "remains on board",
        "sign_with_mark": "n",
        "notes": "blk"
    },
    {
        "id": "vtls004917552_1_13",
        "type": "sailor",
        "parent": "vtls004917552",
        "name": "william pelley",
        "dob": "blk",
        "age": "19",
        "place_of_birth": "aberystwyth",
        "home_address": "blk",
        "f": "blk",
        "name_of_ship": "john pegg",
        "ship_port": "nefyn",
        "date_leaving": "1868",
        "joined_ship_date": "1868-07",
        "joined_at_port": "port dinorwic",
        "capacity": "able seaman",
        "date_left": "blk",
        "left_port": "blk",
        "cause_of_leaving": "remains on board",
        "sign_with_mark": "n",
        "notes": "blk"
    },
    {
        "id": "vtls004917552_0_11",
        "type": "sailor",
        "parent": "vtls004917552",
        "name": "david jones",
        "dob": "blk",
        "age": "39",
        "place_of_birth": "cardigan",
        "home_address": "blk",
        "f": "blk",
        "name_of_ship": "major nanney",
        "ship_port": "aberystwyth",
        "date_leaving": "1868",
        "joined_ship_date": "continued",
        "joined_at_port": "continued",
        "capacity": "master",
        "date_left": "blk",
        "left_port": "blk",
        "cause_of_leaving": "remains on board",
        "sign_with_mark": "n",
        "notes": "blk"
    },
    {
        "id": "vtls004917552_1_11",
        "type": "sailor",
        "parent": "vtls004917552",
        "name": "david jones",
        "dob": "blk",
        "age": "40",
        "place_of_birth": "cardigan",
        "home_address": "blk",
        "f": "blk",
        "name_of_ship": "major nanney",
        "ship_port": "aberystwyth",
        "date_leaving": "1868",
        "joined_ship_date": "1868-07",
        "joined_at_port": "cardigan",
        "capacity": "master",
        "date_left": "blk",
        "left_port": "blk",
        "cause_of_leaving": "remains on board",
        "sign_with_mark": "n",
        "notes": "blk"
    },
    {
        "id": "vtls004917552_1_12",
        "type": "sailor",
        "parent": "vtls004917552",
        "name": "john evans",
        "dob": "blk",
        "age": "35",
        "place_of_birth": "fishguard",
        "home_address": "blk",
        "f": "blk",
        "name_of_ship": "niagara",
        "ship_port": "liverpool",
        "date_leaving": "1868",
        "joined_ship_date": "1868-07",
        "joined_at_port": "port dinorwic",
        "capacity": "mate",
        "date_left": "blk",
        "left_port": "blk",
        "cause_of_leaving": "remains on board",
        "sign_with_mark": "n",
        "notes": "blk"
    },
    {
        "id": "vtls004917604_0_14",
        "type": "sailor",
        "parent": "vtls004917604",
        "name": "evan phillips",
        "dob": "blk",
        "age": "41",
        "place_of_birth": "newquay",
        "home_address": "blk",
        "f": "blk",
        "name_of_ship": "$rion",
        "ship_port": "newquay",
        "date_leaving": "1868-09-14",
        "joined_ship_date": "1869-06-10",
        "joined_at_port": "newquay",
        "capacity": "master",
        "date_left": "1869-07-14",
        "left_port": "swansea",
        "cause_of_leaving": "remains on board",
        "sign_with_mark": "n",
        "notes": "shipwrecked on previous voyage"
    },
    {
        "id": "vtls004917604_1_11",
        "type": "sailor",
        "parent": "vtls004917604",
        "name": "evan phillips",
        "dob": "blk",
        "age": "42",
        "place_of_birth": "newquay",
        "home_address": "blk",
        "f": "blk",
        "name_of_ship": "major nanney",
        "ship_port": "aberystwyth",
        "date_leaving": "remained",
        "joined_ship_date": "1869-07-01",
        "joined_at_port": "swansea",
        "capacity": "master",
        "date_left": "blk",
        "left_port": "blk",
        "cause_of_leaving": "remains on board",
        "sign_with_mark": "n",
        "notes": "blk"
    },
    {
        "id": "vtls004917604_1_12",
        "type": "sailor",
        "parent": "vtls004917604",
        "name": "evan davies",
        "dob": "blk",
        "age": "35",
        "place_of_birth": "newquay",
        "home_address": "blk",
        "f": "blk",
        "name_of_ship": "major nanney",
        "ship_port": "aberystwyth",
        "date_leaving": "remained",
        "joined_ship_date": "1869-07-02",
        "joined_at_port": "swansea",
        "capacity": "mate",
        "date_left": "blk",
        "left_port": "blk",
        "cause_of_leaving": "remains on board",
        "sign_with_mark": "n",
        "notes": "blk"
    },
    {
        "id": "vtls004917604_1_13",
        "type": "sailor",
        "parent": "vtls004917604",
        "name": "evan davies",
        "dob": "blk",
        "age": "15",
        "place_of_birth": "newquay",
        "home_address": "blk",
        "f": "blk",
        "name_of_ship": "major nanney",
        "ship_port": "aberystwyth",
        "date_leaving": "remained",
        "joined_ship_date": "1869-07-03",
        "joined_at_port": "swansea",
        "capacity": "boy",
        "date_left": "blk",
        "left_port": "blk",
        "cause_of_leaving": "remains on board",
        "sign_with_mark": "n",
        "notes": "blk"
    },
    {
        "id": "vtls004917604_0_13",
        "type": "sailor",
        "parent": "vtls004917604",
        "name": "william hughes",
        "dob": "blk",
        "age": "17",
        "place_of_birth": "caernarfon",
        "home_address": "blk",
        "f": "blk",
        "name_of_ship": "not known",
        "ship_port": "blk",
        "date_leaving": "not known",
        "joined_ship_date": "1869-02-17",
        "joined_at_port": "port dinorwic",
        "capacity": "boy",
        "date_left": "1869-04-10",
        "left_port": "newquay",
        "cause_of_leaving": "discharged",
        "sign_with_mark": "n",
        "notes": "blk"
    },
    {
        "id": "vtls004917604_0_12",
        "type": "sailor",
        "parent": "vtls004917604",
        "name": "robert jones",
        "dob": "blk",
        "age": "34",
        "place_of_birth": "caernarfon",
        "home_address": "blk",
        "f": "blk",
        "name_of_ship": "not known",
        "ship_port": "blk",
        "date_leaving": "not known",
        "joined_ship_date": "1869-02-17",
        "joined_at_port": "port dinorwic",
        "capacity": "mate",
        "date_left": "1869-04-10",
        "left_port": "newquay",
        "cause_of_leaving": "discharged",
        "sign_with_mark": "n",
        "notes": "blk"
    },
    {
        "id": "vtls004917604_0_15",
        "type": "sailor",
        "parent": "vtls004917604",
        "name": "evan davies",
        "dob": "blk",
        "age": "30",
        "place_of_birth": "newquay",
        "home_address": "blk",
        "f": "blk",
        "name_of_ship": "margaret",
        "ship_port": "blk",
        "date_leaving": "1869-05-12",
        "joined_ship_date": "1869-06-12",
        "joined_at_port": "newquay",
        "capacity": "mate",
        "date_left": "1869-07-14",
        "left_port": "swansea",
        "cause_of_leaving": "remains on board",
        "sign_with_mark": "n",
        "notes": "blk"
    },
    {
        "id": "vtls004917604_0_11",
        "type": "sailor",
        "parent": "vtls004917604",
        "name": "evan jones",
        "dob": "blk",
        "age": "34",
        "place_of_birth": "newquay",
        "home_address": "blk",
        "f": "blk",
        "name_of_ship": "napthali",
        "ship_port": "blk",
        "date_leaving": "blk",
        "joined_ship_date": "1869-02-17",
        "joined_at_port": "port dinorwic",
        "capacity": "master",
        "date_left": "1869-04-10",
        "left_port": "newquay",
        "cause_of_leaving": "discharged",
        "sign_with_mark": "n",
        "notes": "blk"
    },
    {
        "id": "vtls004917604_0_16",
        "type": "sailor",
        "parent": "vtls004917604",
        "name": "evan davies",
        "dob": "blk",
        "age": "15",
        "place_of_birth": "newquay",
        "home_address": "blk",
        "f": "blk",
        "name_of_ship": "eleanor",
        "ship_port": "blk",
        "date_leaving": "1869-06",
        "joined_ship_date": "1869-06-12",
        "joined_at_port": "newquay",
        "capacity": "boy",
        "date_left": "1869-07-14",
        "left_port": "swansea",
        "cause_of_leaving": "remains on board",
        "sign_with_mark": "n",
        "notes": "blk"
    },
    {
        "id": "vtls004917607_0_13",
        "type": "sailor",
        "parent": "vtls004917607",
        "name": "evan davies",
        "dob": "blk",
        "age": "15",
        "place_of_birth": "newquay",
        "home_address": "blk",
        "f": "blk",
        "name_of_ship": "major nanney",
        "ship_port": "aberystwyth",
        "date_leaving": "1869-12-31",
        "joined_ship_date": "1870-01-01",
        "joined_at_port": "at sea",
        "capacity": "ordinary seaman",
        "date_left": "1870-06-30",
        "left_port": "at sea",
        "cause_of_leaving": "remains on board",
        "sign_with_mark": "n",
        "notes": "blk"
    },
    {
        "id": "vtls004917624_0_11",
        "type": "sailor",
        "parent": "vtls004917624",
        "name": "evan phillips",
        "dob": "blk",
        "age": "43",
        "place_of_birth": "newquay",
        "home_address": "blk",
        "f": "blk",
        "name_of_ship": "major nanney",
        "ship_port": "aberystwyth",
        "date_leaving": "1870-12-31",
        "joined_ship_date": "1871-01-01",
        "joined_at_port": "milford",
        "capacity": "master",
        "date_left": "1871-06-30",
        "left_port": "newquay",
        "cause_of_leaving": "remains on board",
        "sign_with_mark": "n",
        "notes": "blk"
    },
    {
        "id": "vtls004917607_1_11",
        "type": "sailor",
        "parent": "vtls004917607",
        "name": "evan phillips",
        "dob": "blk",
        "age": "42",
        "place_of_birth": "newquay",
        "home_address": "blk",
        "f": "blk",
        "name_of_ship": "major nanney",
        "ship_port": "aberystwyth",
        "date_leaving": "1870-06-30",
        "joined_ship_date": "1870-07-01",
        "joined_at_port": "newquay",
        "capacity": "master",
        "date_left": "1870-12-31",
        "left_port": "milford",
        "cause_of_leaving": "remains on board",
        "sign_with_mark": "n",
        "notes": "blk"
    },
    {
        "id": "vtls004917607_0_11",
        "type": "sailor",
        "parent": "vtls004917607",
        "name": "evan phillips",
        "dob": "blk",
        "age": "42",
        "place_of_birth": "newquay",
        "home_address": "blk",
        "f": "blk",
        "name_of_ship": "major nanney",
        "ship_port": "aberystwyth",
        "date_leaving": "1869-12-31",
        "joined_ship_date": "1870-01-01",
        "joined_at_port": "at sea",
        "capacity": "master",
        "date_left": "1870-06-30",
        "left_port": "at sea",
        "cause_of_leaving": "remains on board",
        "sign_with_mark": "n",
        "notes": "blk"
    },
    {
        "id": "vtls004917607_0_12",
        "type": "sailor",
        "parent": "vtls004917607",
        "name": "david phillips",
        "dob": "blk",
        "age": "37",
        "place_of_birth": "newquay",
        "home_address": "blk",
        "f": "blk",
        "name_of_ship": "major nanney",
        "ship_port": "aberystwyth",
        "date_leaving": "1869-12-31",
        "joined_ship_date": "1870-01-01",
        "joined_at_port": "at sea",
        "capacity": "mate",
        "date_left": "1870-06-30",
        "left_port": "at sea",
        "cause_of_leaving": "remains on board",
        "sign_with_mark": "n",
        "notes": "blk"
    },
    {
        "id": "vtls004917607_1_12",
        "type": "sailor",
        "parent": "vtls004917607",
        "name": "david phillips",
        "dob": "blk",
        "age": "37",
        "place_of_birth": "newquay",
        "home_address": "blk",
        "f": "blk",
        "name_of_ship": "major nanney",
        "ship_port": "aberystwyth",
        "date_leaving": "1870-06-30",
        "joined_ship_date": "1870-07-01",
        "joined_at_port": "newquay",
        "capacity": "mate",
        "date_left": "1870-12-06",
        "left_port": "milford",
        "cause_of_leaving": "discharged",
        "sign_with_mark": "n",
        "notes": "blk"
    },
    {
        "id": "vtls004917607_1_13",
        "type": "sailor",
        "parent": "vtls004917607",
        "name": "john aselbe",
        "dob": "blk",
        "age": "16",
        "place_of_birth": "newquay",
        "home_address": "blk",
        "f": "blk",
        "name_of_ship": "major nanney",
        "ship_port": "aberystwyth",
        "date_leaving": "1870-06-30",
        "joined_ship_date": "1870-07-01",
        "joined_at_port": "newquay",
        "capacity": "boy",
        "date_left": "1870-12-04",
        "left_port": "milford",
        "cause_of_leaving": "discharged",
        "sign_with_mark": "n",
        "notes": "blk"
    },
    {
        "id": "vtls004917624_0_14",
        "type": "sailor",
        "parent": "vtls004917624",
        "name": "evan davies",
        "dob": "blk",
        "age": "14",
        "place_of_birth": "newquay",
        "home_address": "blk",
        "f": "blk",
        "name_of_ship": "this being his first ship",
        "ship_port": "blk",
        "date_leaving": "blk",
        "joined_ship_date": "1871-06-15",
        "joined_at_port": "cardigan",
        "capacity": "boy",
        "date_left": "1871-06-30",
        "left_port": "newquay",
        "cause_of_leaving": "discharged",
        "sign_with_mark": "n",
        "notes": "blk"
    },
    {
        "id": "vtls004917624_0_13",
        "type": "sailor",
        "parent": "vtls004917624",
        "name": "richard bellas",
        "dob": "blk",
        "age": "18",
        "place_of_birth": "holyhead",
        "home_address": "blk",
        "f": "blk",
        "name_of_ship": "this being his first ship",
        "ship_port": "blk",
        "date_leaving": "blk",
        "joined_ship_date": "1871-04-03",
        "joined_at_port": "holyhead",
        "capacity": "ordinary seaman",
        "date_left": "1871-05-19",
        "left_port": "holyhead",
        "cause_of_leaving": "discharged",
        "sign_with_mark": "n",
        "notes": "blk"
    },
    {
        "id": "vtls004917624_0_12",
        "type": "sailor",
        "parent": "vtls004917624",
        "name": "william rees",
        "dob": "blk",
        "age": "56",
        "place_of_birth": "cardigan",
        "home_address": "blk",
        "f": "blk",
        "name_of_ship": "relative",
        "ship_port": "cardigan",
        "date_leaving": "1871-01-01",
        "joined_ship_date": "1871-02-14",
        "joined_at_port": "milford",
        "capacity": "mate",
        "date_left": "1871-06-30",
        "left_port": "newquay",
        "cause_of_leaving": "remains on board",
        "sign_with_mark": "n",
        "notes": "blk"
    },
    {
        "id": "vtls004917624_1_11",
        "type": "sailor",
        "parent": "vtls004917624",
        "name": "evan phillips",
        "dob": "blk",
        "age": "43",
        "place_of_birth": "newquay",
        "home_address": "blk",
        "f": "blk",
        "name_of_ship": "major nanney",
        "ship_port": "aberystwyth",
        "date_leaving": "1871",
        "joined_ship_date": "continued",
        "joined_at_port": "blk",
        "capacity": "master",
        "date_left": "blk",
        "left_port": "blk",
        "cause_of_leaving": "remains on board",
        "sign_with_mark": "n",
        "notes": "blk"
    },
    {
        "id": "vtls004917624_1_12",
        "type": "sailor",
        "parent": "vtls004917624",
        "name": "david evans",
        "dob": "blk",
        "age": "23",
        "place_of_birth": "newquay",
        "home_address": "blk",
        "f": "blk",
        "name_of_ship": "not known",
        "ship_port": "blk",
        "date_leaving": "blk",
        "joined_ship_date": "1871-07-17",
        "joined_at_port": "aberayron",
        "capacity": "mate",
        "date_left": "1871-09-28",
        "left_port": "swansea",
        "cause_of_leaving": "paid off",
        "sign_with_mark": "n",
        "notes": "blk"
    },
    {
        "id": "vtls004917624_1_13",
        "type": "sailor",
        "parent": "vtls004917624",
        "name": "morgan evans",
        "dob": "blk",
        "age": "25",
        "place_of_birth": "newquay",
        "home_address": "blk",
        "f": "blk",
        "name_of_ship": "not known",
        "ship_port": "blk",
        "date_leaving": "blk",
        "joined_ship_date": "1871-09-29",
        "joined_at_port": "swansea",
        "capacity": "mate",
        "date_left": "1871-12-17",
        "left_port": "cardigan",
        "cause_of_leaving": "paid off",
        "sign_with_mark": "n",
        "notes": "blk"
    },
    {
        "id": "vtls004917632_0_11",
        "type": "sailor",
        "parent": "vtls004917632",
        "name": "evan phillips",
        "dob": "blk",
        "age": "44",
        "place_of_birth": "newquay",
        "home_address": "blk",
        "f": "blk",
        "name_of_ship": "major nanney",
        "ship_port": "aberystwyth",
        "date_leaving": "blk",
        "joined_ship_date": "1869",
        "joined_at_port": "newquay",
        "capacity": "master",
        "date_left": "blk",
        "left_port": "blk",
        "cause_of_leaving": "remains on board",
        "sign_with_mark": "n",
        "notes": "blk"
    },
    {
        "id": "vtls004917632_0_12",
        "type": "sailor",
        "parent": "vtls004917632",
        "name": "david lewis",
        "dob": "blk",
        "age": "30",
        "place_of_birth": "cardigan",
        "home_address": "blk",
        "f": "blk",
        "name_of_ship": "sarah",
        "ship_port": "cardigan",
        "date_leaving": "1871-12-18",
        "joined_ship_date": "1872-03-01",
        "joined_at_port": "cardigan",
        "capacity": "mate",
        "date_left": "blk",
        "left_port": "blk",
        "cause_of_leaving": "remains on board",
        "sign_with_mark": "n",
        "notes": "blk"
    },
    {
        "id": "vtls004917632_1_11",
        "type": "sailor",
        "parent": "vtls004917632",
        "name": "evan phillips",
        "dob": "blk",
        "age": "44",
        "place_of_birth": "newquay",
        "home_address": "blk",
        "f": "blk",
        "name_of_ship": "major nanney",
        "ship_port": "aberystwyth",
        "date_leaving": "continued",
        "joined_ship_date": "1872-07-01",
        "joined_at_port": "holyhead",
        "capacity": "master",
        "date_left": "1872-12-31",
        "left_port": "liverpool",
        "cause_of_leaving": "remains on board",
        "sign_with_mark": "n",
        "notes": "blk"
    },
    {
        "id": "vtls004917632_1_13",
        "type": "sailor",
        "parent": "vtls004917632",
        "name": "john davies",
        "dob": "blk",
        "age": "17",
        "place_of_birth": "cardigan",
        "home_address": "blk",
        "f": "blk",
        "name_of_ship": "major nanney",
        "ship_port": "aberystwyth",
        "date_leaving": "continued",
        "joined_ship_date": "1872-07-01",
        "joined_at_port": "holyhead",
        "capacity": "boy",
        "date_left": "1872-12-31",
        "left_port": "liverpool",
        "cause_of_leaving": "remains on board",
        "sign_with_mark": "n",
        "notes": "blk"
    },
    {
        "id": "vtls004917632_0_13",
        "type": "sailor",
        "parent": "vtls004917632",
        "name": "william davies",
        "dob": "blk",
        "age": "16",
        "place_of_birth": "newquay",
        "home_address": "blk",
        "f": "blk",
        "name_of_ship": "linnet",
        "ship_port": "new quay",
        "date_leaving": "1872-07-09",
        "joined_ship_date": "1872-07-11",
        "joined_at_port": "cardigan",
        "capacity": "boy",
        "date_left": "blk",
        "left_port": "blk",
        "cause_of_leaving": "remains on board",
        "sign_with_mark": "n",
        "notes": "entry crossed out"
    }
]