[
    {
        "id": "vtls004649396_0_11",
        "type": "sailor",
        "parent": "vtls004649396",
        "name": "richard morris",
        "dob": "blk",
        "age": "33",
        "place_of_birth": "aberdovey",
        "home_address": "aberdovey, merionethshire",
        "f": "aberdovey, merionethshire",
        "name_of_ship": "dudgeon",
        "ship_port": "london",
        "date_leaving": "remained",
        "joined_ship_date": "1863-01-01",
        "joined_at_port": "aberdovey",
        "capacity": "master",
        "date_left": "blk",
        "left_port": "blk",
        "cause_of_leaving": "remaining",
        "sign_with_mark": "y",
        "notes": "blk"
    },
    {
        "id": "vtls004649396_1_13",
        "type": "sailor",
        "parent": "vtls004649396",
        "name": "william carbert",
        "dob": "blk",
        "age": "22",
        "place_of_birth": "borth",
        "home_address": "blk",
        "f": "blk",
        "name_of_ship": "dudgeon",
        "ship_port": "blk",
        "date_leaving": "1863-06-30",
        "joined_ship_date": "1863-71-01",
        "joined_at_port": "aberdovey",
        "capacity": "seaman",
        "date_left": "1863-12-31",
        "left_port": "liverpool",
        "cause_of_leaving": "remains",
        "sign_with_mark": "n",
        "notes": "blk"
    },
    {
        "id": "vtls004649396_0_12",
        "type": "sailor",
        "parent": "vtls004649396",
        "name": "griffith ro$$$",
        "dob": "blk",
        "age": "40",
        "place_of_birth": "llanegryn, merioneth",
        "home_address": "blk",
        "f": "blk",
        "name_of_ship": "averystwith (s.s.)",
        "ship_port": "blk",
        "date_leaving": "1862-12-31",
        "joined_ship_date": "1863-03",
        "joined_at_port": "aberdovey",
        "capacity": "mate",
        "date_left": "blk",
        "left_port": "blk",
        "cause_of_leaving": "remaining",
        "sign_with_mark": "n",
        "notes": "blk"
    },
    {
        "id": "vtls004649396_0_13",
        "type": "sailor",
        "parent": "vtls004649396",
        "name": "william carbert",
        "dob": "blk",
        "age": "18",
        "place_of_birth": "borth, cardiganshire",
        "home_address": "blk",
        "f": "blk",
        "name_of_ship": "kate",
        "ship_port": "liverpool",
        "date_leaving": "1863-03",
        "joined_ship_date": "1863-03",
        "joined_at_port": "aberdovey",
        "capacity": "able seaman",
        "date_left": "blk",
        "left_port": "blk",
        "cause_of_leaving": "remaining",
        "sign_with_mark": "n",
        "notes": "blk"
    },
    {
        "id": "vtls004649396_1_11",
        "type": "sailor",
        "parent": "vtls004649396",
        "name": "richard morris",
        "dob": "blk",
        "age": "32",
        "place_of_birth": "aberdovey",
        "home_address": "aberdovey",
        "f": "aberdovey",
        "name_of_ship": "dudgeon",
        "ship_port": "blk",
        "date_leaving": "1863-06-30",
        "joined_ship_date": "1863-71-01",
        "joined_at_port": "aberdovey",
        "capacity": "master",
        "date_left": "1863-12-31",
        "left_port": "liverpool",
        "cause_of_leaving": "remains",
        "sign_with_mark": "y",
        "notes": "blk"
    },
    {
        "id": "vtls004649396_1_12",
        "type": "sailor",
        "parent": "vtls004649396",
        "name": "robert newall",
        "dob": "blk",
        "age": "40",
        "place_of_birth": "nassau",
        "home_address": "blk",
        "f": "blk",
        "name_of_ship": "dudgeon",
        "ship_port": "blk",
        "date_leaving": "1863-06-30",
        "joined_ship_date": "1863-71-01",
        "joined_at_port": "aberdovey",
        "capacity": "mate",
        "date_left": "1863-12-31",
        "left_port": "liverpool",
        "cause_of_leaving": "remains",
        "sign_with_mark": "n",
        "notes": "blk"
    }
]