[
    {
        "id": "vtls004917968_0_12",
        "type": "sailor",
        "parent": "vtls004917968",
        "name": "thomas jones",
        "dob": "blk",
        "age": "22",
        "place_of_birth": "pwllheli",
        "home_address": "blk",
        "f": "blk",
        "name_of_ship": "ceylon",
        "ship_port": "aberystwyth",
        "date_leaving": "1863-12-20",
        "joined_ship_date": "1863-01-05",
        "joined_at_port": "portmadoc",
        "capacity": "mate",
        "date_left": "blk",
        "left_port": "blk",
        "cause_of_leaving": "remains on board",
        "sign_with_mark": "n",
        "notes": "blk"
    },
    {
        "id": "vtls004917968_0_11",
        "type": "sailor",
        "parent": "vtls004917968",
        "name": "john thomas",
        "dob": "blk",
        "age": "26",
        "place_of_birth": "aberystwyth",
        "home_address": "blk",
        "f": "blk",
        "name_of_ship": "margaret ann",
        "ship_port": "aberystwyth",
        "date_leaving": "continues",
        "joined_ship_date": "blk",
        "joined_at_port": "blk",
        "capacity": "master",
        "date_left": "blk",
        "left_port": "blk",
        "cause_of_leaving": "remains on board",
        "sign_with_mark": "n",
        "notes": "blk"
    },
    {
        "id": "vtls004917968_0_13",
        "type": "sailor",
        "parent": "vtls004917968",
        "name": "edward rowlands",
        "dob": "blk",
        "age": "18",
        "place_of_birth": "aberystwyth",
        "home_address": "blk",
        "f": "blk",
        "name_of_ship": "hope",
        "ship_port": "aberystwyth",
        "date_leaving": "1863-11-04",
        "joined_ship_date": "1863-01-05",
        "joined_at_port": "portmadoc",
        "capacity": "ordinary seaman",
        "date_left": "blk",
        "left_port": "blk",
        "cause_of_leaving": "remains on board",
        "sign_with_mark": "n",
        "notes": "blk"
    },
    {
        "id": "vtls004917968_1_14",
        "type": "sailor",
        "parent": "vtls004917968",
        "name": "david evans",
        "dob": "blk",
        "age": "17",
        "place_of_birth": "aberystwyth",
        "home_address": "blk",
        "f": "blk",
        "name_of_ship": "margaret ann",
        "ship_port": "aberystwyth",
        "date_leaving": "continued",
        "joined_ship_date": "blk",
        "joined_at_port": "blk",
        "capacity": "ordinary seaman",
        "date_left": "1863-12-31",
        "left_port": "aberystwyth",
        "cause_of_leaving": "discharged",
        "sign_with_mark": "n",
        "notes": "blk"
    },
    {
        "id": "vtls004917968_1_15",
        "type": "sailor",
        "parent": "vtls004917968",
        "name": "john leck",
        "dob": "blk",
        "age": "13",
        "place_of_birth": "aberystwyth",
        "home_address": "blk",
        "f": "blk",
        "name_of_ship": "margaret ann",
        "ship_port": "aberystwyth",
        "date_leaving": "continued",
        "joined_ship_date": "blk",
        "joined_at_port": "blk",
        "capacity": "ordinary seaman",
        "date_left": "1863-12-31",
        "left_port": "aberystwyth",
        "cause_of_leaving": "discharged",
        "sign_with_mark": "n",
        "notes": "blk"
    },
    {
        "id": "vtls004917968_0_14",
        "type": "sailor",
        "parent": "vtls004917968",
        "name": "samuel evans",
        "dob": "blk",
        "age": "19",
        "place_of_birth": "newquay",
        "home_address": "blk",
        "f": "blk",
        "name_of_ship": "john",
        "ship_port": "liverpool",
        "date_leaving": "1863-12-15",
        "joined_ship_date": "1863-01-05",
        "joined_at_port": "portmadoc",
        "capacity": "ordinary seaman",
        "date_left": "blk",
        "left_port": "blk",
        "cause_of_leaving": "remains on board",
        "sign_with_mark": "n",
        "notes": "blk"
    },
    {
        "id": "vtls004917968_0_15",
        "type": "sailor",
        "parent": "vtls004917968",
        "name": "john luke",
        "dob": "blk",
        "age": "12",
        "place_of_birth": "aberystwyth",
        "home_address": "blk",
        "f": "blk",
        "name_of_ship": "margaret ann",
        "ship_port": "aberystwyth",
        "date_leaving": "1863-12-15",
        "joined_ship_date": "1863-01-05",
        "joined_at_port": "portmadoc",
        "capacity": "boy",
        "date_left": "blk",
        "left_port": "blk",
        "cause_of_leaving": "remains on board",
        "sign_with_mark": "n",
        "notes": "blk"
    },
    {
        "id": "vtls004917968_1_13",
        "type": "sailor",
        "parent": "vtls004917968",
        "name": "william davies",
        "dob": "blk",
        "age": "35",
        "place_of_birth": "milford",
        "home_address": "blk",
        "f": "blk",
        "name_of_ship": "margaret ann",
        "ship_port": "aberystwyth",
        "date_leaving": "continued",
        "joined_ship_date": "blk",
        "joined_at_port": "blk",
        "capacity": "seaman",
        "date_left": "1863-12-31",
        "left_port": "aberystwyth",
        "cause_of_leaving": "discharged",
        "sign_with_mark": "n",
        "notes": "blk"
    },
    {
        "id": "vtls004917968_1_12",
        "type": "sailor",
        "parent": "vtls004917968",
        "name": "john thomas",
        "dob": "blk",
        "age": "27",
        "place_of_birth": "caernarfon",
        "home_address": "blk",
        "f": "blk",
        "name_of_ship": "margaret ann",
        "ship_port": "aberystwyth",
        "date_leaving": "continued",
        "joined_ship_date": "blk",
        "joined_at_port": "blk",
        "capacity": "mate",
        "date_left": "1863-12-31",
        "left_port": "aberystwyth",
        "cause_of_leaving": "discharged",
        "sign_with_mark": "n",
        "notes": "blk"
    },
    {
        "id": "vtls004917968_1_11",
        "type": "sailor",
        "parent": "vtls004917968",
        "name": "john thomas",
        "dob": "blk",
        "age": "27",
        "place_of_birth": "aberystwyth",
        "home_address": "blk",
        "f": "blk",
        "name_of_ship": "margaret ann",
        "ship_port": "aberystwyth",
        "date_leaving": "continued",
        "joined_ship_date": "blk",
        "joined_at_port": "blk",
        "capacity": "master",
        "date_left": "blk",
        "left_port": "blk",
        "cause_of_leaving": "remains on board",
        "sign_with_mark": "n",
        "notes": "blk"
    },
    {
        "id": "vtls004917988_1_13",
        "type": "sailor",
        "parent": "vtls004917988",
        "name": "john thomas",
        "dob": "blk",
        "age": "28",
        "place_of_birth": "aberystwyth",
        "home_address": "blk",
        "f": "blk",
        "name_of_ship": "margaret ann",
        "ship_port": "aberystwyth",
        "date_leaving": "1864-11-23",
        "joined_ship_date": "1864-11-24",
        "joined_at_port": "faversham",
        "capacity": "master",
        "date_left": "1864-12-31",
        "left_port": "runcorn",
        "cause_of_leaving": "remains on board",
        "sign_with_mark": "n",
        "notes": "blk"
    },
    {
        "id": "vtls004917988_0_14",
        "type": "sailor",
        "parent": "vtls004917988",
        "name": "john griffith",
        "dob": "blk",
        "age": "16",
        "place_of_birth": "aberystwyth",
        "home_address": "blk",
        "f": "blk",
        "name_of_ship": "margaret ann",
        "ship_port": "aberystwyth",
        "date_leaving": "remains",
        "joined_ship_date": "1864-05-02",
        "joined_at_port": "aberystwyth",
        "capacity": "ordinary seaman",
        "date_left": "blk",
        "left_port": "blk",
        "cause_of_leaving": "remains on board",
        "sign_with_mark": "n",
        "notes": "blk"
    },
    {
        "id": "vtls004917988_0_13",
        "type": "sailor",
        "parent": "vtls004917988",
        "name": "john davies",
        "dob": "blk",
        "age": "20",
        "place_of_birth": "aberystwyth",
        "home_address": "blk",
        "f": "blk",
        "name_of_ship": "margaret ann",
        "ship_port": "aberystwyth",
        "date_leaving": "remains",
        "joined_ship_date": "1864-05-02",
        "joined_at_port": "aberystwyth",
        "capacity": "able seaman",
        "date_left": "blk",
        "left_port": "blk",
        "cause_of_leaving": "remains on board",
        "sign_with_mark": "n",
        "notes": "blk"
    },
    {
        "id": "vtls004917988_0_11",
        "type": "sailor",
        "parent": "vtls004917988",
        "name": "evan davies",
        "dob": "blk",
        "age": "52",
        "place_of_birth": "aberystwyth",
        "home_address": "blk",
        "f": "blk",
        "name_of_ship": "margaret ann",
        "ship_port": "aberystwyth",
        "date_leaving": "1861-10-30",
        "joined_ship_date": "1864-05-02",
        "joined_at_port": "aberystwyth",
        "capacity": "master",
        "date_left": "blk",
        "left_port": "blk",
        "cause_of_leaving": "remains on board",
        "sign_with_mark": "n",
        "notes": "blk"
    },
    {
        "id": "vtls004917988_1_14",
        "type": "sailor",
        "parent": "vtls004917988",
        "name": "richard edwards",
        "dob": "blk",
        "age": "29",
        "place_of_birth": "aberystwyth",
        "home_address": "blk",
        "f": "blk",
        "name_of_ship": "margaret ann",
        "ship_port": "aberystwyth",
        "date_leaving": "continued",
        "joined_ship_date": "blk",
        "joined_at_port": "blk",
        "capacity": "mate",
        "date_left": "1864-12-31",
        "left_port": "runcorn",
        "cause_of_leaving": "remains on board",
        "sign_with_mark": "n",
        "notes": "blk"
    },
    {
        "id": "vtls004917988_0_15",
        "type": "sailor",
        "parent": "vtls004917988",
        "name": "joseph morgan",
        "dob": "blk",
        "age": "16",
        "place_of_birth": "liverpool",
        "home_address": "blk",
        "f": "blk",
        "name_of_ship": "margaret ann",
        "ship_port": "aberystwyth",
        "date_leaving": "remains",
        "joined_ship_date": "1864-05-02",
        "joined_at_port": "aberystwyth",
        "capacity": "boy",
        "date_left": "blk",
        "left_port": "blk",
        "cause_of_leaving": "remains on board",
        "sign_with_mark": "n",
        "notes": "blk"
    },
    {
        "id": "vtls004917988_0_12",
        "type": "sailor",
        "parent": "vtls004917988",
        "name": "john thomas",
        "dob": "blk",
        "age": "27",
        "place_of_birth": "aberystwyth",
        "home_address": "blk",
        "f": "blk",
        "name_of_ship": "margaret ann",
        "ship_port": "aberystwyth",
        "date_leaving": "remains",
        "joined_ship_date": "1864-05-02",
        "joined_at_port": "aberystwyth",
        "capacity": "mate",
        "date_left": "blk",
        "left_port": "blk",
        "cause_of_leaving": "remains on board",
        "sign_with_mark": "n",
        "notes": "blk"
    },
    {
        "id": "vtls004917988_1_11",
        "type": "sailor",
        "parent": "vtls004917988",
        "name": "evan davies",
        "dob": "blk",
        "age": "44",
        "place_of_birth": "aberystwyth",
        "home_address": "blk",
        "f": "blk",
        "name_of_ship": "margaret ann",
        "ship_port": "aberystwyth",
        "date_leaving": "continued",
        "joined_ship_date": "blk",
        "joined_at_port": "blk",
        "capacity": "master",
        "date_left": "1864-11-23",
        "left_port": "faversham",
        "cause_of_leaving": "paid off",
        "sign_with_mark": "n",
        "notes": "blk"
    },
    {
        "id": "vtls004917988_1_12",
        "type": "sailor",
        "parent": "vtls004917988",
        "name": "john thomas",
        "dob": "blk",
        "age": "28",
        "place_of_birth": "aberystwyth",
        "home_address": "blk",
        "f": "blk",
        "name_of_ship": "margaret ann",
        "ship_port": "aberystwyth",
        "date_leaving": "continued",
        "joined_ship_date": "blk",
        "joined_at_port": "blk",
        "capacity": "mate",
        "date_left": "1864-11-23",
        "left_port": "faversham",
        "cause_of_leaving": "paid off",
        "sign_with_mark": "n",
        "notes": "blk"
    },
    {
        "id": "vtls004917988_1_15",
        "type": "sailor",
        "parent": "vtls004917988",
        "name": "john davies",
        "dob": "blk",
        "age": "21",
        "place_of_birth": "aberystwyth",
        "home_address": "blk",
        "f": "blk",
        "name_of_ship": "margaret ann",
        "ship_port": "aberystwyth",
        "date_leaving": "continued",
        "joined_ship_date": "blk",
        "joined_at_port": "blk",
        "capacity": "ordinary seaman",
        "date_left": "1864-12-31",
        "left_port": "runcorn",
        "cause_of_leaving": "remains on board",
        "sign_with_mark": "n",
        "notes": "blk"
    },
    {
        "id": "vtls004917988_1_16",
        "type": "sailor",
        "parent": "vtls004917988",
        "name": "william king",
        "dob": "blk",
        "age": "25",
        "place_of_birth": "newport",
        "home_address": "blk",
        "f": "blk",
        "name_of_ship": "margaret ann",
        "ship_port": "aberystwyth",
        "date_leaving": "continued",
        "joined_ship_date": "blk",
        "joined_at_port": "blk",
        "capacity": "ordinary seaman",
        "date_left": "1864-12-31",
        "left_port": "runcorn",
        "cause_of_leaving": "remains on board",
        "sign_with_mark": "n",
        "notes": "blk"
    },
    {
        "id": "vtls004917995_0_14",
        "type": "sailor",
        "parent": "vtls004917995",
        "name": "john jones",
        "dob": "blk",
        "age": "16",
        "place_of_birth": "aberystwyth",
        "home_address": "blk",
        "f": "blk",
        "name_of_ship": "brothers",
        "ship_port": "aberystwyth",
        "date_leaving": "1866-12-16",
        "joined_ship_date": "1866-02-17",
        "joined_at_port": "aberystwyth",
        "capacity": "ordinary seaman",
        "date_left": "blk",
        "left_port": "blk",
        "cause_of_leaving": "remains on board",
        "sign_with_mark": "n",
        "notes": "blk"
    },
    {
        "id": "vtls004917995_0_13",
        "type": "sailor",
        "parent": "vtls004917995",
        "name": "richard edwards",
        "dob": "blk",
        "age": "29",
        "place_of_birth": "aberystwyth",
        "home_address": "blk",
        "f": "blk",
        "name_of_ship": "margaret ann",
        "ship_port": "aberystwyth",
        "date_leaving": "blk",
        "joined_ship_date": "1866-01-01",
        "joined_at_port": "aberystwyth",
        "capacity": "able seaman",
        "date_left": "blk",
        "left_port": "blk",
        "cause_of_leaving": "remains on board",
        "sign_with_mark": "n",
        "notes": "blk"
    },
    {
        "id": "vtls004917995_0_15",
        "type": "sailor",
        "parent": "vtls004917995",
        "name": "john ellis hughes",
        "dob": "blk",
        "age": "14",
        "place_of_birth": "aberystwyth",
        "home_address": "blk",
        "f": "blk",
        "name_of_ship": "castle",
        "ship_port": "aberystwyth",
        "date_leaving": "1866-10-20",
        "joined_ship_date": "1866-02-17",
        "joined_at_port": "aberystwyth",
        "capacity": "boy",
        "date_left": "blk",
        "left_port": "blk",
        "cause_of_leaving": "remains on board",
        "sign_with_mark": "n",
        "notes": "blk"
    },
    {
        "id": "vtls004917995_0_11",
        "type": "sailor",
        "parent": "vtls004917995",
        "name": "evan davies",
        "dob": "blk",
        "age": "54",
        "place_of_birth": "aberystwyth",
        "home_address": "blk",
        "f": "blk",
        "name_of_ship": "margaret ann",
        "ship_port": "aberystwyth",
        "date_leaving": "blk",
        "joined_ship_date": "1866-01-01",
        "joined_at_port": "aberystwyth",
        "capacity": "master",
        "date_left": "blk",
        "left_port": "blk",
        "cause_of_leaving": "remains on board",
        "sign_with_mark": "n",
        "notes": "blk"
    },
    {
        "id": "vtls004917995_0_12",
        "type": "sailor",
        "parent": "vtls004917995",
        "name": "john thomas",
        "dob": "blk",
        "age": "28",
        "place_of_birth": "aberystwyth",
        "home_address": "blk",
        "f": "blk",
        "name_of_ship": "margaret ann",
        "ship_port": "aberystwyth",
        "date_leaving": "blk",
        "joined_ship_date": "1866-01-01",
        "joined_at_port": "aberystwyth",
        "capacity": "mate",
        "date_left": "blk",
        "left_port": "blk",
        "cause_of_leaving": "remains on board",
        "sign_with_mark": "n",
        "notes": "blk"
    },
    {
        "id": "vtls004918000_0_14",
        "type": "sailor",
        "parent": "vtls004918000",
        "name": "daniel davies",
        "dob": "blk",
        "age": "18",
        "place_of_birth": "aberaeron",
        "home_address": "blk",
        "f": "blk",
        "name_of_ship": "margaret ann",
        "ship_port": "aberystwyth",
        "date_leaving": "blk",
        "joined_ship_date": "1867-01-01",
        "joined_at_port": "portmadoc",
        "capacity": "ordinary seaman",
        "date_left": "blk",
        "left_port": "blk",
        "cause_of_leaving": "remains on board",
        "sign_with_mark": "n",
        "notes": "blk"
    },
    {
        "id": "vtls004917995_1_13",
        "type": "sailor",
        "parent": "vtls004917995",
        "name": "richard edwards",
        "dob": "blk",
        "age": "30",
        "place_of_birth": "aberystwyth",
        "home_address": "blk",
        "f": "blk",
        "name_of_ship": "margaret ann",
        "ship_port": "aberystwyth",
        "date_leaving": "blk",
        "joined_ship_date": "1866-07-01",
        "joined_at_port": "par",
        "capacity": "able seaman",
        "date_left": "1866-12-25",
        "left_port": "porthmadog",
        "cause_of_leaving": "paid off",
        "sign_with_mark": "n",
        "notes": "blk"
    },
    {
        "id": "vtls004918000_0_13",
        "type": "sailor",
        "parent": "vtls004918000",
        "name": "enoch williams",
        "dob": "blk",
        "age": "23",
        "place_of_birth": "aberystwyth",
        "home_address": "blk",
        "f": "blk",
        "name_of_ship": "margaret ann",
        "ship_port": "aberystwyth",
        "date_leaving": "blk",
        "joined_ship_date": "1867-01-01",
        "joined_at_port": "portmadoc",
        "capacity": "able seaman",
        "date_left": "blk",
        "left_port": "blk",
        "cause_of_leaving": "remains on board",
        "sign_with_mark": "n",
        "notes": "blk"
    },
    {
        "id": "vtls004917995_1_14",
        "type": "sailor",
        "parent": "vtls004917995",
        "name": "john jones",
        "dob": "blk",
        "age": "17",
        "place_of_birth": "aberystwyth",
        "home_address": "blk",
        "f": "blk",
        "name_of_ship": "margaret ann",
        "ship_port": "aberystwyth",
        "date_leaving": "blk",
        "joined_ship_date": "1866-07-01",
        "joined_at_port": "par",
        "capacity": "ordinary seaman",
        "date_left": "1866-12-25",
        "left_port": "porthmadog",
        "cause_of_leaving": "paid off",
        "sign_with_mark": "n",
        "notes": "blk"
    },
    {
        "id": "vtls004918000_0_12",
        "type": "sailor",
        "parent": "vtls004918000",
        "name": "richards edwards",
        "dob": "blk",
        "age": "31",
        "place_of_birth": "aberystwyth",
        "home_address": "blk",
        "f": "blk",
        "name_of_ship": "margaret ann",
        "ship_port": "aberystwyth",
        "date_leaving": "blk",
        "joined_ship_date": "1867-01-01",
        "joined_at_port": "portmadoc",
        "capacity": "mate",
        "date_left": "blk",
        "left_port": "blk",
        "cause_of_leaving": "remains on board",
        "sign_with_mark": "n",
        "notes": "blk"
    },
    {
        "id": "vtls004917995_1_15",
        "type": "sailor",
        "parent": "vtls004917995",
        "name": "john ellis hughes",
        "dob": "blk",
        "age": "15",
        "place_of_birth": "aberystwyth",
        "home_address": "blk",
        "f": "blk",
        "name_of_ship": "margaret ann",
        "ship_port": "aberystwyth",
        "date_leaving": "blk",
        "joined_ship_date": "1866-07-01",
        "joined_at_port": "par",
        "capacity": "boy",
        "date_left": "1866-12-25",
        "left_port": "porthmadog",
        "cause_of_leaving": "paid off",
        "sign_with_mark": "n",
        "notes": "blk"
    },
    {
        "id": "vtls004918000_0_11",
        "type": "sailor",
        "parent": "vtls004918000",
        "name": "evan davies",
        "dob": "blk",
        "age": "56",
        "place_of_birth": "aberystwyth",
        "home_address": "blk",
        "f": "blk",
        "name_of_ship": "margaret ann",
        "ship_port": "aberystwyth",
        "date_leaving": "blk",
        "joined_ship_date": "1867-01-01",
        "joined_at_port": "portmadoc",
        "capacity": "master",
        "date_left": "blk",
        "left_port": "blk",
        "cause_of_leaving": "remains on board",
        "sign_with_mark": "n",
        "notes": "blk"
    },
    {
        "id": "vtls004917995_1_12",
        "type": "sailor",
        "parent": "vtls004917995",
        "name": "john thomas",
        "dob": "blk",
        "age": "29",
        "place_of_birth": "aberystwyth",
        "home_address": "blk",
        "f": "blk",
        "name_of_ship": "margaret ann",
        "ship_port": "aberystwyth",
        "date_leaving": "blk",
        "joined_ship_date": "1866-07-01",
        "joined_at_port": "par",
        "capacity": "mate",
        "date_left": "1866-12-25",
        "left_port": "porthmadog",
        "cause_of_leaving": "paid off",
        "sign_with_mark": "n",
        "notes": "blk"
    },
    {
        "id": "vtls004917995_1_11",
        "type": "sailor",
        "parent": "vtls004917995",
        "name": "evan davies",
        "dob": "blk",
        "age": "55",
        "place_of_birth": "aberystwyth",
        "home_address": "blk",
        "f": "blk",
        "name_of_ship": "margaret ann",
        "ship_port": "aberystwyth",
        "date_leaving": "blk",
        "joined_ship_date": "1866-07-01",
        "joined_at_port": "par",
        "capacity": "master",
        "date_left": "blk",
        "left_port": "blk",
        "cause_of_leaving": "remains on board",
        "sign_with_mark": "n",
        "notes": "blk"
    },
    {
        "id": "vtls004918015_0_12",
        "type": "sailor",
        "parent": "vtls004918015",
        "name": "richard edwards",
        "dob": "blk",
        "age": "32",
        "place_of_birth": "aberystwyth",
        "home_address": "blk",
        "f": "blk",
        "name_of_ship": "margaret ann",
        "ship_port": "aberystwyth",
        "date_leaving": "not discharged",
        "joined_ship_date": "1868-01-03",
        "joined_at_port": "liverpool",
        "capacity": "mate",
        "date_left": "1868-04-13",
        "left_port": "holyhead",
        "cause_of_leaving": "paid off",
        "sign_with_mark": "n",
        "notes": "blk"
    },
    {
        "id": "vtls004918015_0_11",
        "type": "sailor",
        "parent": "vtls004918015",
        "name": "evan davies",
        "dob": "blk",
        "age": "50",
        "place_of_birth": "aberystwyth",
        "home_address": "blk",
        "f": "blk",
        "name_of_ship": "margaret ann",
        "ship_port": "aberystwyth",
        "date_leaving": "not discharged",
        "joined_ship_date": "1865-07-10",
        "joined_at_port": "liverpool",
        "capacity": "master",
        "date_left": "blk",
        "left_port": "blk",
        "cause_of_leaving": "remains on board",
        "sign_with_mark": "n",
        "notes": "blk"
    },
    {
        "id": "vtls004918000_1_13",
        "type": "sailor",
        "parent": "vtls004918000",
        "name": "enoch williams",
        "dob": "blk",
        "age": "23",
        "place_of_birth": "aberystwyth",
        "home_address": "blk",
        "f": "blk",
        "name_of_ship": "margaret ann",
        "ship_port": "aberystwyth",
        "date_leaving": "continued",
        "joined_ship_date": "1867-07-01",
        "joined_at_port": "par",
        "capacity": "able seaman",
        "date_left": "blk",
        "left_port": "blk",
        "cause_of_leaving": "remains on board",
        "sign_with_mark": "n",
        "notes": "blk"
    },
    {
        "id": "vtls004918000_1_12",
        "type": "sailor",
        "parent": "vtls004918000",
        "name": "richard edwards",
        "dob": "blk",
        "age": "41",
        "place_of_birth": "aberystwyth",
        "home_address": "blk",
        "f": "blk",
        "name_of_ship": "margaret ann",
        "ship_port": "aberystwyth",
        "date_leaving": "continued",
        "joined_ship_date": "1867-07-01",
        "joined_at_port": "par",
        "capacity": "mate",
        "date_left": "blk",
        "left_port": "blk",
        "cause_of_leaving": "remains on board",
        "sign_with_mark": "n",
        "notes": "blk"
    },
    {
        "id": "vtls004918000_1_11",
        "type": "sailor",
        "parent": "vtls004918000",
        "name": "evan davies",
        "dob": "blk",
        "age": "56",
        "place_of_birth": "aberystwyth",
        "home_address": "blk",
        "f": "blk",
        "name_of_ship": "margaret ann",
        "ship_port": "aberystwyth",
        "date_leaving": "continued",
        "joined_ship_date": "1867-07-01",
        "joined_at_port": "par",
        "capacity": "master",
        "date_left": "blk",
        "left_port": "blk",
        "cause_of_leaving": "remains on board",
        "sign_with_mark": "n",
        "notes": "blk"
    },
    {
        "id": "vtls004918000_1_14",
        "type": "sailor",
        "parent": "vtls004918000",
        "name": "thomas evans",
        "dob": "blk",
        "age": "17",
        "place_of_birth": "newquay",
        "home_address": "blk",
        "f": "blk",
        "name_of_ship": "charlotte",
        "ship_port": "bangor",
        "date_leaving": "continued",
        "joined_ship_date": "1867-07-01",
        "joined_at_port": "par",
        "capacity": "ordinary seaman",
        "date_left": "blk",
        "left_port": "blk",
        "cause_of_leaving": "remains on board",
        "sign_with_mark": "n",
        "notes": "blk"
    },
    {
        "id": "vtls004918000_1_15",
        "type": "sailor",
        "parent": "vtls004918000",
        "name": "thomas edwards",
        "dob": "blk",
        "age": "13",
        "place_of_birth": "aberystwyth",
        "home_address": "blk",
        "f": "blk",
        "name_of_ship": "severn",
        "ship_port": "aberystwyth",
        "date_leaving": "continued",
        "joined_ship_date": "1867-07-01",
        "joined_at_port": "par",
        "capacity": "boy",
        "date_left": "blk",
        "left_port": "blk",
        "cause_of_leaving": "remains on board",
        "sign_with_mark": "n",
        "notes": "blk"
    },
    {
        "id": "vtls004918015_1_13",
        "type": "sailor",
        "parent": "vtls004918015",
        "name": "john thomas",
        "dob": "blk",
        "age": "60",
        "place_of_birth": "cardigan",
        "home_address": "blk",
        "f": "blk",
        "name_of_ship": "margaret ann",
        "ship_port": "aberystwyth",
        "date_leaving": "continued",
        "joined_ship_date": "1868-08",
        "joined_at_port": "newport",
        "capacity": "able seaman",
        "date_left": "1868-12-09",
        "left_port": "sailing from cardiff to newry",
        "cause_of_leaving": "ship lost",
        "sign_with_mark": "n",
        "notes": "blk"
    },
    {
        "id": "vtls004918015_1_14",
        "type": "sailor",
        "parent": "vtls004918015",
        "name": "otto lee",
        "dob": "blk",
        "age": "20",
        "place_of_birth": "holland",
        "home_address": "blk",
        "f": "blk",
        "name_of_ship": "margaret ann",
        "ship_port": "aberystwyth",
        "date_leaving": "continued",
        "joined_ship_date": "1868-11-20",
        "joined_at_port": "cardiff",
        "capacity": "able seaman",
        "date_left": "1868-12-09",
        "left_port": "sailing from cardiff to newry",
        "cause_of_leaving": "drowned",
        "sign_with_mark": "n",
        "notes": "blk"
    },
    {
        "id": "vtls004918015_1_15",
        "type": "sailor",
        "parent": "vtls004918015",
        "name": "thomas morgan",
        "dob": "blk",
        "age": "16",
        "place_of_birth": "cardiff",
        "home_address": "blk",
        "f": "blk",
        "name_of_ship": "margaret ann",
        "ship_port": "aberystwyth",
        "date_leaving": "continued",
        "joined_ship_date": "1868-11-20",
        "joined_at_port": "cardiff",
        "capacity": "boy",
        "date_left": "1868-12-09",
        "left_port": "sailing from cardiff to newry",
        "cause_of_leaving": "ship lost",
        "sign_with_mark": "n",
        "notes": "blk"
    },
    {
        "id": "vtls004918015_1_11",
        "type": "sailor",
        "parent": "vtls004918015",
        "name": "evan davies",
        "dob": "blk",
        "age": "57",
        "place_of_birth": "aberystwyth",
        "home_address": "blk",
        "f": "blk",
        "name_of_ship": "margaret ann",
        "ship_port": "aberystwyth",
        "date_leaving": "continued",
        "joined_ship_date": "blk",
        "joined_at_port": "blk",
        "capacity": "master",
        "date_left": "1868-12-09",
        "left_port": "sailing from cardiff to newry",
        "cause_of_leaving": "ship lost",
        "sign_with_mark": "n",
        "notes": "blk"
    },
    {
        "id": "vtls004918015_1_12",
        "type": "sailor",
        "parent": "vtls004918015",
        "name": "henry jones",
        "dob": "blk",
        "age": "29",
        "place_of_birth": "aberystwyth",
        "home_address": "blk",
        "f": "blk",
        "name_of_ship": "margaret ann",
        "ship_port": "aberystwyth",
        "date_leaving": "continued",
        "joined_ship_date": "blk",
        "joined_at_port": "blk",
        "capacity": "mate",
        "date_left": "1868-12-09",
        "left_port": "sailing from cardiff to newry",
        "cause_of_leaving": "ship lost",
        "sign_with_mark": "n",
        "notes": "blk"
    },
    {
        "id": "vtls004918015_0_15",
        "type": "sailor",
        "parent": "vtls004918015",
        "name": "enock williams",
        "dob": "blk",
        "age": "25",
        "place_of_birth": "aberystwyth",
        "home_address": "blk",
        "f": "blk",
        "name_of_ship": "margaret ann",
        "ship_port": "aberystwyth",
        "date_leaving": "not discharged",
        "joined_ship_date": "1868-01-03",
        "joined_at_port": "london",
        "capacity": "seaman",
        "date_left": "1868-04-24",
        "left_port": "arundel",
        "cause_of_leaving": "paid off",
        "sign_with_mark": "n",
        "notes": "blk"
    },
    {
        "id": "vtls004918015_0_17",
        "type": "sailor",
        "parent": "vtls004918015",
        "name": "thomas edwards",
        "dob": "blk",
        "age": "14",
        "place_of_birth": "aberystwyth",
        "home_address": "blk",
        "f": "blk",
        "name_of_ship": "margaret ann",
        "ship_port": "aberystwyth",
        "date_leaving": "not discharged",
        "joined_ship_date": "1868-01-03",
        "joined_at_port": "london",
        "capacity": "boy",
        "date_left": "1868-05-30",
        "left_port": "par",
        "cause_of_leaving": "paid off",
        "sign_with_mark": "n",
        "notes": "blk"
    },
    {
        "id": "vtls004918015_0_16",
        "type": "sailor",
        "parent": "vtls004918015",
        "name": "thomas davies",
        "dob": "blk",
        "age": "25",
        "place_of_birth": "aberystwyth",
        "home_address": "blk",
        "f": "blk",
        "name_of_ship": "[rungosse]",
        "ship_port": "blk",
        "date_leaving": "1868-01-20",
        "joined_ship_date": "1868-04-14",
        "joined_at_port": "holyhead",
        "capacity": "seaman",
        "date_left": "blk",
        "left_port": "blk",
        "cause_of_leaving": "remains on board",
        "sign_with_mark": "n",
        "notes": "blk"
    },
    {
        "id": "vtls004918015_0_13",
        "type": "sailor",
        "parent": "vtls004918015",
        "name": "henry jones",
        "dob": "blk",
        "age": "29",
        "place_of_birth": "aberystwyth",
        "home_address": "blk",
        "f": "blk",
        "name_of_ship": "[moll$$$$]",
        "ship_port": "portmadoc",
        "date_leaving": "1868-04-02",
        "joined_ship_date": "1868-04-07",
        "joined_at_port": "liverpool",
        "capacity": "mate",
        "date_left": "blk",
        "left_port": "blk",
        "cause_of_leaving": "blk",
        "sign_with_mark": "n",
        "notes": "blk"
    },
    {
        "id": "vtls004918015_0_14",
        "type": "sailor",
        "parent": "vtls004918015",
        "name": "david lloyd",
        "dob": "blk",
        "age": "21",
        "place_of_birth": "aberarth",
        "home_address": "blk",
        "f": "blk",
        "name_of_ship": "albion",
        "ship_port": "aberystwyth",
        "date_leaving": "1868-06-06",
        "joined_ship_date": "1868-06-12",
        "joined_at_port": "liverpool",
        "capacity": "seaman",
        "date_left": "blk",
        "left_port": "blk",
        "cause_of_leaving": "blk",
        "sign_with_mark": "n",
        "notes": "blk"
    }
]