[
    {
        "id": "vtls004661950_0_13",
        "type": "sailor",
        "parent": "vtls004661950",
        "name": "thomas hughes",
        "dob": "1864",
        "age": "blk",
        "place_of_birth": "aberystwyth",
        "home_address": "blk",
        "f": "blk",
        "name_of_ship": "gipsy maid",
        "ship_port": "aberystwyth",
        "date_leaving": "blk",
        "joined_ship_date": "1910-02-16",
        "joined_at_port": "aberystwyth",
        "capacity": "deck hand",
        "date_left": "blk",
        "left_port": "blk",
        "cause_of_leaving": "remains on board",
        "sign_with_mark": "n",
        "notes": "blk"
    },
    {
        "id": "vtls004661950_0_14",
        "type": "sailor",
        "parent": "vtls004661950",
        "name": "thomas jones",
        "dob": "1863",
        "age": "blk",
        "place_of_birth": "aberystwyth",
        "home_address": "blk",
        "f": "blk",
        "name_of_ship": "gipsy king",
        "ship_port": "aberystwyth",
        "date_leaving": "blk",
        "joined_ship_date": "1910-02-16",
        "joined_at_port": "aberystwyth",
        "capacity": "deck hand",
        "date_left": "blk",
        "left_port": "blk",
        "cause_of_leaving": "remains on board",
        "sign_with_mark": "n",
        "notes": "blk"
    },
    {
        "id": "vtls004661950_0_11",
        "type": "sailor",
        "parent": "vtls004661950",
        "name": "thomas brodigan",
        "dob": "1882",
        "age": "blk",
        "place_of_birth": "aberystwyth",
        "home_address": "blk",
        "f": "blk",
        "name_of_ship": "thora",
        "ship_port": "aberystwyth",
        "date_leaving": "blk",
        "joined_ship_date": "1910-02-16",
        "joined_at_port": "aberystwyth",
        "capacity": "master",
        "date_left": "blk",
        "left_port": "blk",
        "cause_of_leaving": "remains on board",
        "sign_with_mark": "n",
        "notes": "blk"
    },
    {
        "id": "vtls004661950_0_12",
        "type": "sailor",
        "parent": "vtls004661950",
        "name": "james silcock",
        "dob": "1862",
        "age": "blk",
        "place_of_birth": "hoylake",
        "home_address": "blk",
        "f": "blk",
        "name_of_ship": "gipsy king",
        "ship_port": "aberystwyth",
        "date_leaving": "blk",
        "joined_ship_date": "1910-02-16",
        "joined_at_port": "aberystwyth",
        "capacity": "mate",
        "date_left": "blk",
        "left_port": "blk",
        "cause_of_leaving": "remains on board",
        "sign_with_mark": "n",
        "notes": "blk"
    },
    {
        "id": "vtls004661950_1_12",
        "type": "sailor",
        "parent": "vtls004661950",
        "name": "james silcock",
        "dob": "1862",
        "age": "blk",
        "place_of_birth": "hoylake",
        "home_address": "blk",
        "f": "blk",
        "name_of_ship": "florrie",
        "ship_port": "aberystwyth",
        "date_leaving": "1910",
        "joined_ship_date": "blk",
        "joined_at_port": "continues",
        "capacity": "2nd hand",
        "date_left": "blk",
        "left_port": "blk",
        "cause_of_leaving": "remains on board",
        "sign_with_mark": "n",
        "notes": "blk"
    },
    {
        "id": "vtls004661950_1_11",
        "type": "sailor",
        "parent": "vtls004661950",
        "name": "thomas brodigan",
        "dob": "1882",
        "age": "blk",
        "place_of_birth": "aberystwyth",
        "home_address": "blk",
        "f": "blk",
        "name_of_ship": "florrie",
        "ship_port": "aberystwyth",
        "date_leaving": "1910",
        "joined_ship_date": "blk",
        "joined_at_port": "continues",
        "capacity": "master",
        "date_left": "blk",
        "left_port": "blk",
        "cause_of_leaving": "remains on board",
        "sign_with_mark": "n",
        "notes": "blk"
    },
    {
        "id": "vtls004661953_0_11",
        "type": "sailor",
        "parent": "vtls004661953",
        "name": "john henry thomas",
        "dob": "1869",
        "age": "blk",
        "place_of_birth": "aberystwyth",
        "home_address": "rheidol terrace, aberystwyth",
        "f": "rheidol terrace, aberystwyth",
        "name_of_ship": "florrie",
        "ship_port": "aberystwyth",
        "date_leaving": "1911",
        "joined_ship_date": "1911-02-01",
        "joined_at_port": "aberystwyth",
        "capacity": "master",
        "date_left": "1911-05-25",
        "left_port": "aberystwyth",
        "cause_of_leaving": "discharged",
        "sign_with_mark": "n",
        "notes": "blk"
    },
    {
        "id": "vtls004661950_1_13",
        "type": "sailor",
        "parent": "vtls004661950",
        "name": "arthur cooper",
        "dob": "1872",
        "age": "blk",
        "place_of_birth": "hoylake",
        "home_address": "blk",
        "f": "blk",
        "name_of_ship": "princess",
        "ship_port": "hoylake",
        "date_leaving": "1910",
        "joined_ship_date": "1910-08-02",
        "joined_at_port": "aberystwyth",
        "capacity": "deck hand",
        "date_left": "blk",
        "left_port": "blk",
        "cause_of_leaving": "remains on board",
        "sign_with_mark": "n",
        "notes": "port of liverpool"
    },
    {
        "id": "vtls004661953_0_12",
        "type": "sailor",
        "parent": "vtls004661953",
        "name": "william g brown",
        "dob": "1877",
        "age": "blk",
        "place_of_birth": "aberystwyth",
        "home_address": "blk",
        "f": "blk",
        "name_of_ship": "florrie",
        "ship_port": "aberystwyth",
        "date_leaving": "1911",
        "joined_ship_date": "1911-02-01",
        "joined_at_port": "aberystwyth",
        "capacity": "2nd hand",
        "date_left": "1911-05-25",
        "left_port": "aberystwyth",
        "cause_of_leaving": "discharged",
        "sign_with_mark": "n",
        "notes": "blk"
    },
    {
        "id": "vtls004661950_1_14",
        "type": "sailor",
        "parent": "vtls004661950",
        "name": "joseph cooper",
        "dob": "1891",
        "age": "blk",
        "place_of_birth": "hoylake",
        "home_address": "blk",
        "f": "blk",
        "name_of_ship": "curlew",
        "ship_port": "hoylake",
        "date_leaving": "1910",
        "joined_ship_date": "1910-10-20",
        "joined_at_port": "aberystwyth",
        "capacity": "deck hand",
        "date_left": "blk",
        "left_port": "blk",
        "cause_of_leaving": "remains on board",
        "sign_with_mark": "n",
        "notes": "port of liverpool"
    },
    {
        "id": "vtls004661953_0_13",
        "type": "sailor",
        "parent": "vtls004661953",
        "name": "james jenkins",
        "dob": "1876",
        "age": "blk",
        "place_of_birth": "aberystwyth",
        "home_address": "blk",
        "f": "blk",
        "name_of_ship": "florrie",
        "ship_port": "aberystwyth",
        "date_leaving": "1911",
        "joined_ship_date": "1911-02-01",
        "joined_at_port": "aberystwyth",
        "capacity": "3rd hand",
        "date_left": "1911-05-25",
        "left_port": "aberystwyth",
        "cause_of_leaving": "discharged",
        "sign_with_mark": "n",
        "notes": "blk"
    },
    {
        "id": "vtls004661953_1_12",
        "type": "sailor",
        "parent": "vtls004661953",
        "name": "john pugh",
        "dob": "1870",
        "age": "blk",
        "place_of_birth": "aberystwyth",
        "home_address": "blk",
        "f": "blk",
        "name_of_ship": "maggie hough",
        "ship_port": "liverpool",
        "date_leaving": "1911",
        "joined_ship_date": "1911-09-01",
        "joined_at_port": "aberystwyth",
        "capacity": "blk",
        "date_left": "blk",
        "left_port": "blk",
        "cause_of_leaving": "remains on board",
        "sign_with_mark": "n",
        "notes": "blk"
    },
    {
        "id": "vtls004661953_1_11",
        "type": "sailor",
        "parent": "vtls004661953",
        "name": "thomas jones",
        "dob": "1866",
        "age": "blk",
        "place_of_birth": "aberystwyth",
        "home_address": "blk",
        "f": "blk",
        "name_of_ship": "galtee",
        "ship_port": "llanelly",
        "date_leaving": "1911",
        "joined_ship_date": "1911-09-01",
        "joined_at_port": "aberystwyth",
        "capacity": "master",
        "date_left": "blk",
        "left_port": "blk",
        "cause_of_leaving": "remains on board",
        "sign_with_mark": "n",
        "notes": "blk"
    },
    {
        "id": "vtls004661953_1_14",
        "type": "sailor",
        "parent": "vtls004661953",
        "name": "thomas o jones",
        "dob": "1894",
        "age": "blk",
        "place_of_birth": "caernarfon",
        "home_address": "blk",
        "f": "blk",
        "name_of_ship": "florrie",
        "ship_port": "aberystwyth",
        "date_leaving": "1911",
        "joined_ship_date": "1911-09-01",
        "joined_at_port": "aberystwyth",
        "capacity": "blk",
        "date_left": "blk",
        "left_port": "blk",
        "cause_of_leaving": "remains on board",
        "sign_with_mark": "n",
        "notes": "blk"
    },
    {
        "id": "vtls004661953_1_13",
        "type": "sailor",
        "parent": "vtls004661953",
        "name": "john evans",
        "dob": "1870",
        "age": "blk",
        "place_of_birth": "aberystwyth",
        "home_address": "blk",
        "f": "blk",
        "name_of_ship": "florrie",
        "ship_port": "aberystwyth",
        "date_leaving": "1911",
        "joined_ship_date": "1911-09-01",
        "joined_at_port": "aberystwyth",
        "capacity": "blk",
        "date_left": "blk",
        "left_port": "blk",
        "cause_of_leaving": "remains on board",
        "sign_with_mark": "n",
        "notes": "blk"
    }
]