[
    {
        "id": "vtls004970112_0_11",
        "type": "sailor",
        "parent": "vtls004970112",
        "name": "david williams",
        "dob": "1823",
        "age": "blk",
        "place_of_birth": "newquay",
        "home_address": "blk",
        "f": "blk",
        "name_of_ship": "thomas & sons",
        "ship_port": "aberystwyth",
        "date_leaving": "1896",
        "joined_ship_date": "1896-07-18",
        "joined_at_port": "newport",
        "capacity": "master",
        "date_left": "blk",
        "left_port": "blk",
        "cause_of_leaving": "remains on board",
        "sign_with_mark": "n",
        "notes": "account for july - dec 1896"
    },
    {
        "id": "vtls004970112_0_13",
        "type": "sailor",
        "parent": "vtls004970112",
        "name": "david thomas",
        "dob": "1875",
        "age": "blk",
        "place_of_birth": "llanelly",
        "home_address": "blk",
        "f": "blk",
        "name_of_ship": "thomas & sons",
        "ship_port": "aberystwyth",
        "date_leaving": "1896",
        "joined_ship_date": "1896-07-18",
        "joined_at_port": "newport",
        "capacity": "able seaman",
        "date_left": "blk",
        "left_port": "blk",
        "cause_of_leaving": "remains on board",
        "sign_with_mark": "n",
        "notes": "blk"
    },
    {
        "id": "vtls004970112_0_12",
        "type": "sailor",
        "parent": "vtls004970112",
        "name": "thomas jones",
        "dob": "1836",
        "age": "blk",
        "place_of_birth": "aberaeron",
        "home_address": "blk",
        "f": "blk",
        "name_of_ship": "thomas & sons",
        "ship_port": "aberystwyth",
        "date_leaving": "1896",
        "joined_ship_date": "1896-07-18",
        "joined_at_port": "newport",
        "capacity": "mate",
        "date_left": "blk",
        "left_port": "blk",
        "cause_of_leaving": "remains on board",
        "sign_with_mark": "n",
        "notes": "blk"
    }
]