[
    {
        "id": "vtls004932045_0_15",
        "type": "sailor",
        "parent": "vtls004932045",
        "name": "david thomas",
        "dob": "blk",
        "age": "20",
        "place_of_birth": "cardigan",
        "home_address": "blk",
        "f": "blk",
        "name_of_ship": "mountain lass",
        "ship_port": "aberystwyth",
        "date_leaving": "1869",
        "joined_ship_date": "1869-01-08",
        "joined_at_port": "waterford",
        "capacity": "ordinary seaman",
        "date_left": "1869-07-03",
        "left_port": "bristol",
        "cause_of_leaving": "remains on board",
        "sign_with_mark": "n",
        "notes": "blk"
    },
    {
        "id": "vtls004932045_0_14",
        "type": "sailor",
        "parent": "vtls004932045",
        "name": "john selly",
        "dob": "blk",
        "age": "33",
        "place_of_birth": "pembrokeshire",
        "home_address": "blk",
        "f": "blk",
        "name_of_ship": "mountain lass",
        "ship_port": "aberystwyth",
        "date_leaving": "1869",
        "joined_ship_date": "1869-01-08",
        "joined_at_port": "waterford",
        "capacity": "able seaman",
        "date_left": "1869-07-03",
        "left_port": "bristol",
        "cause_of_leaving": "remains on board",
        "sign_with_mark": "n",
        "notes": "blk"
    },
    {
        "id": "vtls004932045_0_13",
        "type": "sailor",
        "parent": "vtls004932045",
        "name": "mathais thomas",
        "dob": "blk",
        "age": "61",
        "place_of_birth": "cardigan",
        "home_address": "blk",
        "f": "blk",
        "name_of_ship": "mountain lass",
        "ship_port": "aberystwyth",
        "date_leaving": "1869",
        "joined_ship_date": "1869-01-08",
        "joined_at_port": "waterford",
        "capacity": "able seaman",
        "date_left": "1869-07-03",
        "left_port": "bristol",
        "cause_of_leaving": "remains on board",
        "sign_with_mark": "n",
        "notes": "blk"
    },
    {
        "id": "vtls004932045_0_11",
        "type": "sailor",
        "parent": "vtls004932045",
        "name": "john thomas",
        "dob": "blk",
        "age": "59",
        "place_of_birth": "cardigan",
        "home_address": "cardigan",
        "f": "cardigan",
        "name_of_ship": "mountain lass",
        "ship_port": "aberystwyth",
        "date_leaving": "1869",
        "joined_ship_date": "1869-01-08",
        "joined_at_port": "waterford",
        "capacity": "master",
        "date_left": "1869-07-03",
        "left_port": "bristol",
        "cause_of_leaving": "remains on board",
        "sign_with_mark": "n",
        "notes": "blk"
    },
    {
        "id": "vtls004932045_0_16",
        "type": "sailor",
        "parent": "vtls004932045",
        "name": "john thomas",
        "dob": "blk",
        "age": "16",
        "place_of_birth": "cardigan",
        "home_address": "blk",
        "f": "blk",
        "name_of_ship": "mountain lass",
        "ship_port": "aberystwyth",
        "date_leaving": "1869",
        "joined_ship_date": "1869-01-08",
        "joined_at_port": "waterford",
        "capacity": "boy",
        "date_left": "1869-07-03",
        "left_port": "bristol",
        "cause_of_leaving": "remains on board",
        "sign_with_mark": "n",
        "notes": "blk"
    },
    {
        "id": "vtls004932045_1_15",
        "type": "sailor",
        "parent": "vtls004932045",
        "name": "david thomas",
        "dob": "blk",
        "age": "20",
        "place_of_birth": "cardigan",
        "home_address": "blk",
        "f": "blk",
        "name_of_ship": "mountain lass",
        "ship_port": "aberystwyth",
        "date_leaving": "1869",
        "joined_ship_date": "1869-07-02",
        "joined_at_port": "bristol",
        "capacity": "ordinary seaman",
        "date_left": "1869-12-31",
        "left_port": "glasgow",
        "cause_of_leaving": "remains on board",
        "sign_with_mark": "n",
        "notes": "blk"
    },
    {
        "id": "vtls004932045_1_13",
        "type": "sailor",
        "parent": "vtls004932045",
        "name": "mathias thomas",
        "dob": "blk",
        "age": "61",
        "place_of_birth": "cardigan",
        "home_address": "blk",
        "f": "blk",
        "name_of_ship": "mountain lass",
        "ship_port": "aberystwyth",
        "date_leaving": "1869",
        "joined_ship_date": "1869-07-02",
        "joined_at_port": "bristol",
        "capacity": "able seaman",
        "date_left": "1869-12-31",
        "left_port": "glasgow",
        "cause_of_leaving": "remains on board",
        "sign_with_mark": "n",
        "notes": "blk"
    },
    {
        "id": "vtls004932045_1_11",
        "type": "sailor",
        "parent": "vtls004932045",
        "name": "john thomas",
        "dob": "blk",
        "age": "blk",
        "place_of_birth": "cardigan",
        "home_address": "cardigan",
        "f": "cardigan",
        "name_of_ship": "mountain lass",
        "ship_port": "aberystwyth",
        "date_leaving": "1869",
        "joined_ship_date": "1869-07-02",
        "joined_at_port": "bristol",
        "capacity": "master",
        "date_left": "1869-12-31",
        "left_port": "glasgow",
        "cause_of_leaving": "remains on board",
        "sign_with_mark": "n",
        "notes": "blk"
    },
    {
        "id": "vtls004932045_1_14",
        "type": "sailor",
        "parent": "vtls004932045",
        "name": "john selly",
        "dob": "blk",
        "age": "32",
        "place_of_birth": "pembroke",
        "home_address": "blk",
        "f": "blk",
        "name_of_ship": "mountain lass",
        "ship_port": "aberystwyth",
        "date_leaving": "1869",
        "joined_ship_date": "1869-07-02",
        "joined_at_port": "bristol",
        "capacity": "able seaman",
        "date_left": "1869-12-31",
        "left_port": "glasgow",
        "cause_of_leaving": "remains on board",
        "sign_with_mark": "n",
        "notes": "blk"
    },
    {
        "id": "vtls004932045_1_18",
        "type": "sailor",
        "parent": "vtls004932045",
        "name": "thomas batten",
        "dob": "blk",
        "age": "22",
        "place_of_birth": "milford",
        "home_address": "blk",
        "f": "blk",
        "name_of_ship": "williama",
        "ship_port": "cardigan",
        "date_leaving": "1869",
        "joined_ship_date": "1869-11-15",
        "joined_at_port": "whitehaven",
        "capacity": "able seaman",
        "date_left": "1869-12-31",
        "left_port": "glasgow",
        "cause_of_leaving": "remains on board",
        "sign_with_mark": "n",
        "notes": "blk"
    },
    {
        "id": "vtls004932045_1_16",
        "type": "sailor",
        "parent": "vtls004932045",
        "name": "john thomas",
        "dob": "blk",
        "age": "16",
        "place_of_birth": "cardigan",
        "home_address": "blk",
        "f": "blk",
        "name_of_ship": "mountain lass",
        "ship_port": "aberystwyth",
        "date_leaving": "1869",
        "joined_ship_date": "1869-07-02",
        "joined_at_port": "bristol",
        "capacity": "boy",
        "date_left": "1869-12-31",
        "left_port": "glasgow",
        "cause_of_leaving": "remains on board",
        "sign_with_mark": "n",
        "notes": "blk"
    },
    {
        "id": "vtls004932045_1_17",
        "type": "sailor",
        "parent": "vtls004932045",
        "name": "david williams",
        "dob": "blk",
        "age": "36",
        "place_of_birth": "cardigan",
        "home_address": "blk",
        "f": "blk",
        "name_of_ship": "triton",
        "ship_port": "cardigan",
        "date_leaving": "1869",
        "joined_ship_date": "1869-09-22",
        "joined_at_port": "swansea",
        "capacity": "able seaman",
        "date_left": "1869-12-31",
        "left_port": "glasgow",
        "cause_of_leaving": "remains on board",
        "sign_with_mark": "n",
        "notes": "blk"
    }
]