[
    {
        "id": "vtls004975845_0_12",
        "type": "sailor",
        "parent": "vtls004975845",
        "name": "daniel davies",
        "dob": "blk",
        "age": "55",
        "place_of_birth": "newquay",
        "home_address": "blk",
        "f": "blk",
        "name_of_ship": "eleanor and jane",
        "ship_port": "aberystwyth",
        "date_leaving": "1876",
        "joined_ship_date": "1876-01-01",
        "joined_at_port": "liverpool",
        "capacity": "mate",
        "date_left": "blk",
        "left_port": "blk",
        "cause_of_leaving": "remains on board",
        "sign_with_mark": "n",
        "notes": "blk"
    },
    {
        "id": "vtls004975845_0_11",
        "type": "sailor",
        "parent": "vtls004975845",
        "name": "evan evans",
        "dob": "blk",
        "age": "41",
        "place_of_birth": "newquay",
        "home_address": "new quay",
        "f": "new quay",
        "name_of_ship": "viscata",
        "ship_port": "aberystwyth",
        "date_leaving": "blk",
        "joined_ship_date": "blk",
        "joined_at_port": "blk",
        "capacity": "master",
        "date_left": "blk",
        "left_port": "blk",
        "cause_of_leaving": "remains on board",
        "sign_with_mark": "n",
        "notes": "blk"
    },
    {
        "id": "vtls004975852_0_11",
        "type": "sailor",
        "parent": "vtls004975852",
        "name": "evan evans",
        "dob": "blk",
        "age": "41",
        "place_of_birth": "newquay",
        "home_address": "towyn, newquay",
        "f": "towyn, newquay",
        "name_of_ship": "viscata",
        "ship_port": "aberystwyth",
        "date_leaving": "continued",
        "joined_ship_date": "blk",
        "joined_at_port": "blk",
        "capacity": "master",
        "date_left": "blk",
        "left_port": "blk",
        "cause_of_leaving": "remains on board",
        "sign_with_mark": "n",
        "notes": "document states: date of commencement of half year: 1877-01-01."
    },
    {
        "id": "vtls004975845_1_11",
        "type": "sailor",
        "parent": "vtls004975845",
        "name": "john morris",
        "dob": "blk",
        "age": "40",
        "place_of_birth": "pendre, cardigan",
        "home_address": "pendre, cardigan",
        "f": "pendre, cardigan",
        "name_of_ship": "quicksilver",
        "ship_port": "[swansea]",
        "date_leaving": "1876-08",
        "joined_ship_date": "1876-12-01",
        "joined_at_port": "swansea",
        "capacity": "master",
        "date_left": "blk",
        "left_port": "blk",
        "cause_of_leaving": "remains on board",
        "sign_with_mark": "n",
        "notes": "blk"
    },
    {
        "id": "vtls004975845_0_13",
        "type": "sailor",
        "parent": "vtls004975845",
        "name": "henry davies",
        "dob": "blk",
        "age": "17",
        "place_of_birth": "newquay",
        "home_address": "blk",
        "f": "blk",
        "name_of_ship": "viscata",
        "ship_port": "aberystwyth",
        "date_leaving": "blk",
        "joined_ship_date": "1876-01-01",
        "joined_at_port": "liverpool",
        "capacity": "ordinary seaman",
        "date_left": "1876-06-03",
        "left_port": "swansea",
        "cause_of_leaving": "discharged",
        "sign_with_mark": "n",
        "notes": "blk"
    },
    {
        "id": "vtls004975845_0_15",
        "type": "sailor",
        "parent": "vtls004975845",
        "name": "james harvard",
        "dob": "blk",
        "age": "20",
        "place_of_birth": "haverfordwest",
        "home_address": "blk",
        "f": "blk",
        "name_of_ship": "first ship",
        "ship_port": "first ship",
        "date_leaving": "1876",
        "joined_ship_date": "1876-06-13",
        "joined_at_port": "swansea",
        "capacity": "ordinary seaman",
        "date_left": "blk",
        "left_port": "blk",
        "cause_of_leaving": "remains on board",
        "sign_with_mark": "n",
        "notes": "blk"
    },
    {
        "id": "vtls004975845_1_14",
        "type": "sailor",
        "parent": "vtls004975845",
        "name": "david hughes",
        "dob": "blk",
        "age": "16",
        "place_of_birth": "aberaeron",
        "home_address": "blk",
        "f": "blk",
        "name_of_ship": "ann jones",
        "ship_port": "cardigan",
        "date_leaving": "1876-12",
        "joined_ship_date": "1876-12-12",
        "joined_at_port": "swansea",
        "capacity": "ordinary seaman",
        "date_left": "blk",
        "left_port": "blk",
        "cause_of_leaving": "remains on board",
        "sign_with_mark": "n",
        "notes": "blk"
    },
    {
        "id": "vtls004975845_1_13",
        "type": "sailor",
        "parent": "vtls004975845",
        "name": "thomas williams",
        "dob": "blk",
        "age": "28",
        "place_of_birth": "fishguard",
        "home_address": "blk",
        "f": "blk",
        "name_of_ship": "[scilice]",
        "ship_port": "cardigan",
        "date_leaving": "1876-11",
        "joined_ship_date": "1876-12-18",
        "joined_at_port": "swansea",
        "capacity": "able seaman",
        "date_left": "blk",
        "left_port": "blk",
        "cause_of_leaving": "remains on board",
        "sign_with_mark": "n",
        "notes": "blk"
    },
    {
        "id": "vtls004975845_1_12",
        "type": "sailor",
        "parent": "vtls004975845",
        "name": "abraham evans",
        "dob": "blk",
        "age": "35",
        "place_of_birth": "st dogmaels",
        "home_address": "blk",
        "f": "blk",
        "name_of_ship": "richard trevithick",
        "ship_port": "blk",
        "date_leaving": "1876-08",
        "joined_ship_date": "1876-12-15",
        "joined_at_port": "swansea",
        "capacity": "mate",
        "date_left": "blk",
        "left_port": "blk",
        "cause_of_leaving": "remains on board",
        "sign_with_mark": "n",
        "notes": "blk"
    },
    {
        "id": "vtls004975845_0_14",
        "type": "sailor",
        "parent": "vtls004975845",
        "name": "daniel davies",
        "dob": "blk",
        "age": "38",
        "place_of_birth": "cardigan",
        "home_address": "blk",
        "f": "blk",
        "name_of_ship": "tit bit",
        "ship_port": "cardigan",
        "date_leaving": "1876",
        "joined_ship_date": "1876-06-13",
        "joined_at_port": "swansea",
        "capacity": "able seaman",
        "date_left": "blk",
        "left_port": "blk",
        "cause_of_leaving": "remains on board",
        "sign_with_mark": "n",
        "notes": "blk"
    },
    {
        "id": "vtls004975852_0_12",
        "type": "sailor",
        "parent": "vtls004975852",
        "name": "john morris",
        "dob": "blk",
        "age": "40",
        "place_of_birth": "cardigan",
        "home_address": "blk",
        "f": "blk",
        "name_of_ship": "viscata",
        "ship_port": "aberystwyth",
        "date_leaving": "continued",
        "joined_ship_date": "blk",
        "joined_at_port": "blk",
        "capacity": "mate",
        "date_left": "blk",
        "left_port": "blk",
        "cause_of_leaving": "remains on board",
        "sign_with_mark": "n",
        "notes": "blk"
    },
    {
        "id": "vtls004975852_1_13",
        "type": "sailor",
        "parent": "vtls004975852",
        "name": "david d davies",
        "dob": "blk",
        "age": "25",
        "place_of_birth": "newquay",
        "home_address": "blk",
        "f": "blk",
        "name_of_ship": "viscata",
        "ship_port": "aberystwyth",
        "date_leaving": "1876-07-13",
        "joined_ship_date": "1877-04",
        "joined_at_port": "gloster",
        "capacity": "able seaman",
        "date_left": "1877-07-13",
        "left_port": "swansea",
        "cause_of_leaving": "discharged",
        "sign_with_mark": "n",
        "notes": "blk"
    },
    {
        "id": "vtls004975852_1_16",
        "type": "sailor",
        "parent": "vtls004975852",
        "name": "hugh thomas",
        "dob": "blk",
        "age": "43",
        "place_of_birth": "aberystwyth",
        "home_address": "blk",
        "f": "blk",
        "name_of_ship": "[bournett]",
        "ship_port": "llanelli",
        "date_leaving": "1877-07-10",
        "joined_ship_date": "1877-07-15",
        "joined_at_port": "swansea",
        "capacity": "able seaman",
        "date_left": "blk",
        "left_port": "blk",
        "cause_of_leaving": "remains on board",
        "sign_with_mark": "n",
        "notes": "blk"
    },
    {
        "id": "vtls004975852_1_11",
        "type": "sailor",
        "parent": "vtls004975852",
        "name": "evan evans",
        "dob": "blk",
        "age": "42",
        "place_of_birth": "newquay",
        "home_address": "towyn \/ new quay",
        "f": "towyn \/ new quay",
        "name_of_ship": "viscata",
        "ship_port": "aberystwyth",
        "date_leaving": "blk",
        "joined_ship_date": "blk",
        "joined_at_port": "blk",
        "capacity": "master",
        "date_left": "blk",
        "left_port": "blk",
        "cause_of_leaving": "remains on board",
        "sign_with_mark": "n",
        "notes": "blk"
    },
    {
        "id": "vtls004975852_1_14",
        "type": "sailor",
        "parent": "vtls004975852",
        "name": "james sweeney",
        "dob": "blk",
        "age": "15",
        "place_of_birth": "clonakilty, cork",
        "home_address": "blk",
        "f": "blk",
        "name_of_ship": "viscata",
        "ship_port": "aberystwyth",
        "date_leaving": "blk",
        "joined_ship_date": "1877-05",
        "joined_at_port": "clonakilty",
        "capacity": "boy",
        "date_left": "blk",
        "left_port": "blk",
        "cause_of_leaving": "remains on board",
        "sign_with_mark": "n",
        "notes": "blk"
    },
    {
        "id": "vtls004975852_1_12",
        "type": "sailor",
        "parent": "vtls004975852",
        "name": "john morris",
        "dob": "blk",
        "age": "40",
        "place_of_birth": "cardigan",
        "home_address": "blk",
        "f": "blk",
        "name_of_ship": "viscata",
        "ship_port": "aberystwyth",
        "date_leaving": "1876-07-13",
        "joined_ship_date": "1876-11",
        "joined_at_port": "swansea",
        "capacity": "mate",
        "date_left": "1877-07-13",
        "left_port": "swansea",
        "cause_of_leaving": "discharged",
        "sign_with_mark": "n",
        "notes": "blk"
    },
    {
        "id": "vtls004975852_1_15",
        "type": "sailor",
        "parent": "vtls004975852",
        "name": "benjamin evans",
        "dob": "blk",
        "age": "27",
        "place_of_birth": "cardigan",
        "home_address": "blk",
        "f": "blk",
        "name_of_ship": "unknown",
        "ship_port": "unknown",
        "date_leaving": "unknown",
        "joined_ship_date": "1877-07-15",
        "joined_at_port": "swansea",
        "capacity": "mate",
        "date_left": "1878-01-11",
        "left_port": "gloucestershire",
        "cause_of_leaving": "discharged",
        "sign_with_mark": "n",
        "notes": "blk"
    },
    {
        "id": "vtls004975852_0_13",
        "type": "sailor",
        "parent": "vtls004975852",
        "name": "david d davies",
        "dob": "blk",
        "age": "27",
        "place_of_birth": "newquay",
        "home_address": "blk",
        "f": "blk",
        "name_of_ship": "viscata",
        "ship_port": "aberystwyth",
        "date_leaving": "continued",
        "joined_ship_date": "blk",
        "joined_at_port": "blk",
        "capacity": "able seaman",
        "date_left": "blk",
        "left_port": "blk",
        "cause_of_leaving": "remains on board",
        "sign_with_mark": "n",
        "notes": "blk"
    },
    {
        "id": "vtls004975852_0_14",
        "type": "sailor",
        "parent": "vtls004975852",
        "name": "james sweeney",
        "dob": "blk",
        "age": "15",
        "place_of_birth": "clonakilty",
        "home_address": "blk",
        "f": "blk",
        "name_of_ship": "viscata",
        "ship_port": "aberystwyth",
        "date_leaving": "continued",
        "joined_ship_date": "blk",
        "joined_at_port": "blk",
        "capacity": "boy",
        "date_left": "blk",
        "left_port": "blk",
        "cause_of_leaving": "remains on board",
        "sign_with_mark": "n",
        "notes": "blk"
    },
    {
        "id": "vtls004975855_1_14",
        "type": "sailor",
        "parent": "vtls004975855",
        "name": "mich sullivan",
        "dob": "blk",
        "age": "21",
        "place_of_birth": "caernarfon",
        "home_address": "blk",
        "f": "blk",
        "name_of_ship": "viscata",
        "ship_port": "aberystwyth",
        "date_leaving": "1878",
        "joined_ship_date": "1878-07-24",
        "joined_at_port": "portmadoc",
        "capacity": "ordinary seaman",
        "date_left": "blk",
        "left_port": "blk",
        "cause_of_leaving": "remains on board",
        "sign_with_mark": "n",
        "notes": "blk"
    },
    {
        "id": "vtls004975855_0_11",
        "type": "sailor",
        "parent": "vtls004975855",
        "name": "evan evans",
        "dob": "blk",
        "age": "43",
        "place_of_birth": "newquay",
        "home_address": "new quay, cardiganshire",
        "f": "new quay, cardiganshire",
        "name_of_ship": "viscata",
        "ship_port": "aberystwyth",
        "date_leaving": "continues",
        "joined_ship_date": "blk",
        "joined_at_port": "blk",
        "capacity": "master",
        "date_left": "blk",
        "left_port": "blk",
        "cause_of_leaving": "remains on board",
        "sign_with_mark": "n",
        "notes": "blk"
    },
    {
        "id": "vtls004975855_1_13",
        "type": "sailor",
        "parent": "vtls004975855",
        "name": "henry davies",
        "dob": "blk",
        "age": "19",
        "place_of_birth": "caernarfon",
        "home_address": "blk",
        "f": "blk",
        "name_of_ship": "viscata",
        "ship_port": "aberystwyth",
        "date_leaving": "1878",
        "joined_ship_date": "1878-07-24",
        "joined_at_port": "portmadoc",
        "capacity": "able seaman",
        "date_left": "blk",
        "left_port": "blk",
        "cause_of_leaving": "remains on board",
        "sign_with_mark": "n",
        "notes": "blk"
    },
    {
        "id": "vtls004975855_0_14",
        "type": "sailor",
        "parent": "vtls004975855",
        "name": "john cox",
        "dob": "blk",
        "age": "25",
        "place_of_birth": "youghal",
        "home_address": "blk",
        "f": "blk",
        "name_of_ship": "[stranger]",
        "ship_port": "youghal",
        "date_leaving": "1877",
        "joined_ship_date": "1878-02-20",
        "joined_at_port": "youghal",
        "capacity": "able seaman",
        "date_left": "1878-06-17",
        "left_port": "porthmadog",
        "cause_of_leaving": "discharged",
        "sign_with_mark": "n",
        "notes": "blk"
    },
    {
        "id": "vtls004975855_0_13",
        "type": "sailor",
        "parent": "vtls004975855",
        "name": "james sweeney",
        "dob": "blk",
        "age": "15",
        "place_of_birth": "clonakilty",
        "home_address": "blk",
        "f": "blk",
        "name_of_ship": "viscata",
        "ship_port": "aberystwyth",
        "date_leaving": "continues",
        "joined_ship_date": "blk",
        "joined_at_port": "blk",
        "capacity": "ordinary seaman",
        "date_left": "blk",
        "left_port": "blk",
        "cause_of_leaving": "remains on board",
        "sign_with_mark": "n",
        "notes": "blk"
    },
    {
        "id": "vtls004975855_1_11",
        "type": "sailor",
        "parent": "vtls004975855",
        "name": "evan evans",
        "dob": "blk",
        "age": "23",
        "place_of_birth": "newquay",
        "home_address": "new quay",
        "f": "new quay",
        "name_of_ship": "viscata",
        "ship_port": "aberystwyth",
        "date_leaving": "1878",
        "joined_ship_date": "1878-07-15",
        "joined_at_port": "portmadoc",
        "capacity": "master",
        "date_left": "blk",
        "left_port": "blk",
        "cause_of_leaving": "remains on board",
        "sign_with_mark": "n",
        "notes": "blk"
    },
    {
        "id": "vtls004975855_1_12",
        "type": "sailor",
        "parent": "vtls004975855",
        "name": "charles anderson",
        "dob": "blk",
        "age": "26",
        "place_of_birth": "sweden",
        "home_address": "blk",
        "f": "blk",
        "name_of_ship": "viscata",
        "ship_port": "aberystwyth",
        "date_leaving": "1878",
        "joined_ship_date": "1878-07-24",
        "joined_at_port": "portmadoc",
        "capacity": "mate",
        "date_left": "blk",
        "left_port": "blk",
        "cause_of_leaving": "remains on board",
        "sign_with_mark": "n",
        "notes": "blk"
    },
    {
        "id": "vtls004975855_0_12",
        "type": "sailor",
        "parent": "vtls004975855",
        "name": "hugh thomas",
        "dob": "blk",
        "age": "46",
        "place_of_birth": "aberystwyth",
        "home_address": "blk",
        "f": "blk",
        "name_of_ship": "viscata",
        "ship_port": "aberystwyth",
        "date_leaving": "continues",
        "joined_ship_date": "blk",
        "joined_at_port": "blk",
        "capacity": "mate",
        "date_left": "1878-05-17",
        "left_port": "cardiff",
        "cause_of_leaving": "died",
        "sign_with_mark": "n",
        "notes": "blk"
    },
    {
        "id": "vtls004975857_0_14",
        "type": "sailor",
        "parent": "vtls004975857",
        "name": "michael sullivan",
        "dob": "blk",
        "age": "22",
        "place_of_birth": "bearhaven",
        "home_address": "blk",
        "f": "blk",
        "name_of_ship": "viscata",
        "ship_port": "aberystwyth",
        "date_leaving": "1878-12-31",
        "joined_ship_date": "1879-01-01",
        "joined_at_port": "limerick",
        "capacity": "ordinary seaman",
        "date_left": "1879-06-18",
        "left_port": "belfast",
        "cause_of_leaving": "discharged",
        "sign_with_mark": "n",
        "notes": "blk"
    },
    {
        "id": "vtls004975857_0_13",
        "type": "sailor",
        "parent": "vtls004975857",
        "name": "thomas thomas",
        "dob": "blk",
        "age": "55",
        "place_of_birth": "cardigan",
        "home_address": "blk",
        "f": "blk",
        "name_of_ship": "viscata",
        "ship_port": "aberystwyth",
        "date_leaving": "1878-12-31",
        "joined_ship_date": "1879-01-01",
        "joined_at_port": "limerick",
        "capacity": "able seaman",
        "date_left": "1879-07-06",
        "left_port": "garston",
        "cause_of_leaving": "discharged",
        "sign_with_mark": "n",
        "notes": "blk"
    },
    {
        "id": "vtls004975857_0_11",
        "type": "sailor",
        "parent": "vtls004975857",
        "name": "evan evans",
        "dob": "blk",
        "age": "45",
        "place_of_birth": "newquay",
        "home_address": "blk",
        "f": "blk",
        "name_of_ship": "viscata",
        "ship_port": "aberystwyth",
        "date_leaving": "1878-12-31",
        "joined_ship_date": "1879-01-01",
        "joined_at_port": "limerick",
        "capacity": "master",
        "date_left": "1879-07-06",
        "left_port": "garston",
        "cause_of_leaving": "remains on board",
        "sign_with_mark": "n",
        "notes": "blk"
    },
    {
        "id": "vtls004975857_0_12",
        "type": "sailor",
        "parent": "vtls004975857",
        "name": "charles anderson",
        "dob": "blk",
        "age": "26",
        "place_of_birth": "sweden",
        "home_address": "blk",
        "f": "blk",
        "name_of_ship": "viscata",
        "ship_port": "aberystwyth",
        "date_leaving": "1878-12-31",
        "joined_ship_date": "1879-01-01",
        "joined_at_port": "limerick",
        "capacity": "mate",
        "date_left": "1879-07-06",
        "left_port": "garston",
        "cause_of_leaving": "discharged",
        "sign_with_mark": "n",
        "notes": "blk"
    },
    {
        "id": "vtls004975857_1_14",
        "type": "sailor",
        "parent": "vtls004975857",
        "name": "robert humphreys",
        "dob": "blk",
        "age": "21",
        "place_of_birth": "caernarfon",
        "home_address": "blk",
        "f": "blk",
        "name_of_ship": "first ship",
        "ship_port": "blk",
        "date_leaving": "blk",
        "joined_ship_date": "1879-07-15",
        "joined_at_port": "liverpool",
        "capacity": "ordinary seaman",
        "date_left": "blk",
        "left_port": "blk",
        "cause_of_leaving": "remains on board",
        "sign_with_mark": "n",
        "notes": "blk"
    },
    {
        "id": "vtls004975857_1_13",
        "type": "sailor",
        "parent": "vtls004975857",
        "name": "thomas thomas",
        "dob": "blk",
        "age": "60",
        "place_of_birth": "cardigan",
        "home_address": "blk",
        "f": "blk",
        "name_of_ship": "viscata",
        "ship_port": "aberystwyth",
        "date_leaving": "continues",
        "joined_ship_date": "blk",
        "joined_at_port": "blk",
        "capacity": "able seaman",
        "date_left": "1879-07-14",
        "left_port": "liverpool",
        "cause_of_leaving": "paid off",
        "sign_with_mark": "n",
        "notes": "blk"
    },
    {
        "id": "vtls004975857_1_11",
        "type": "sailor",
        "parent": "vtls004975857",
        "name": "evan evans",
        "dob": "blk",
        "age": "45",
        "place_of_birth": "newquay",
        "home_address": "towyn, newquay",
        "f": "towyn, newquay",
        "name_of_ship": "viscata",
        "ship_port": "aberystwyth",
        "date_leaving": "continues",
        "joined_ship_date": "blk",
        "joined_at_port": "blk",
        "capacity": "master",
        "date_left": "blk",
        "left_port": "blk",
        "cause_of_leaving": "remains on board",
        "sign_with_mark": "n",
        "notes": "blk"
    },
    {
        "id": "vtls004975857_1_12",
        "type": "sailor",
        "parent": "vtls004975857",
        "name": "charles anderson",
        "dob": "blk",
        "age": "26",
        "place_of_birth": "stockholm",
        "home_address": "blk",
        "f": "blk",
        "name_of_ship": "viscata",
        "ship_port": "aberystwyth",
        "date_leaving": "continues",
        "joined_ship_date": "blk",
        "joined_at_port": "blk",
        "capacity": "mate",
        "date_left": "blk",
        "left_port": "blk",
        "cause_of_leaving": "remains on board",
        "sign_with_mark": "n",
        "notes": "blk"
    },
    {
        "id": "vtls004975858_0_13",
        "type": "sailor",
        "parent": "vtls004975858",
        "name": "robert humphreys",
        "dob": "blk",
        "age": "21",
        "place_of_birth": "caernarfon",
        "home_address": "blk",
        "f": "blk",
        "name_of_ship": "viscata",
        "ship_port": "aberystwyth",
        "date_leaving": "blk",
        "joined_ship_date": "blk",
        "joined_at_port": "blk",
        "capacity": "ordinary seaman",
        "date_left": "1880-01-29",
        "left_port": "porthdinllaen",
        "cause_of_leaving": "discharged",
        "sign_with_mark": "n",
        "notes": "blk"
    },
    {
        "id": "vtls004975858_0_11",
        "type": "sailor",
        "parent": "vtls004975858",
        "name": "evan evans",
        "dob": "blk",
        "age": "44",
        "place_of_birth": "newquay",
        "home_address": "towyn, new quay",
        "f": "towyn, new quay",
        "name_of_ship": "viscata",
        "ship_port": "aberystwyth",
        "date_leaving": "blk",
        "joined_ship_date": "blk",
        "joined_at_port": "blk",
        "capacity": "master",
        "date_left": "1880-01-29",
        "left_port": "porthdinllaen",
        "cause_of_leaving": "discharged",
        "sign_with_mark": "n",
        "notes": "blk"
    },
    {
        "id": "vtls004975858_0_14",
        "type": "sailor",
        "parent": "vtls004975858",
        "name": "john rees",
        "dob": "blk",
        "age": "19",
        "place_of_birth": "newquay",
        "home_address": "blk",
        "f": "blk",
        "name_of_ship": "viscata",
        "ship_port": "aberystwyth",
        "date_leaving": "blk",
        "joined_ship_date": "blk",
        "joined_at_port": "blk",
        "capacity": "ordinary seaman",
        "date_left": "1880-01-29",
        "left_port": "porthdinllaen",
        "cause_of_leaving": "discharged",
        "sign_with_mark": "n",
        "notes": "blk"
    },
    {
        "id": "vtls004975857_1_15",
        "type": "sailor",
        "parent": "vtls004975857",
        "name": "john rees",
        "dob": "blk",
        "age": "20",
        "place_of_birth": "newquay",
        "home_address": "blk",
        "f": "blk",
        "name_of_ship": "preston",
        "ship_port": "blk",
        "date_leaving": "1879-11-25",
        "joined_ship_date": "1879-12-10",
        "joined_at_port": "liverpool",
        "capacity": "ordinary seaman",
        "date_left": "blk",
        "left_port": "blk",
        "cause_of_leaving": "remains on board",
        "sign_with_mark": "n",
        "notes": "blk"
    },
    {
        "id": "vtls004975701_0_11",
        "type": "sailor",
        "parent": "vtls004975701",
        "name": "thomas jones",
        "dob": "blk",
        "age": "48",
        "place_of_birth": "aberaeron",
        "home_address": "blk",
        "f": "blk",
        "name_of_ship": "viscata",
        "ship_port": "aberystwyth",
        "date_leaving": "remains",
        "joined_ship_date": "blk",
        "joined_at_port": "blk",
        "capacity": "cape",
        "date_left": "blk",
        "left_port": "blk",
        "cause_of_leaving": "remains on board",
        "sign_with_mark": "n",
        "notes": "1863-01 to 1863-07"
    },
    {
        "id": "vtls004975858_0_12",
        "type": "sailor",
        "parent": "vtls004975858",
        "name": "charles anderson",
        "dob": "blk",
        "age": "26",
        "place_of_birth": "sweden",
        "home_address": "blk",
        "f": "blk",
        "name_of_ship": "viscata",
        "ship_port": "aberystwyth",
        "date_leaving": "blk",
        "joined_ship_date": "blk",
        "joined_at_port": "blk",
        "capacity": "mate",
        "date_left": "1880-01-29",
        "left_port": "porthdinllaen",
        "cause_of_leaving": "discharged",
        "sign_with_mark": "n",
        "notes": "blk"
    },
    {
        "id": "vtls004975701_0_12",
        "type": "sailor",
        "parent": "vtls004975701",
        "name": "evan phillips",
        "dob": "blk",
        "age": "24",
        "place_of_birth": "newquay",
        "home_address": "blk",
        "f": "blk",
        "name_of_ship": "viscata",
        "ship_port": "aberystwyth",
        "date_leaving": "remains",
        "joined_ship_date": "blk",
        "joined_at_port": "blk",
        "capacity": "mate",
        "date_left": "blk",
        "left_port": "blk",
        "cause_of_leaving": "remains on board",
        "sign_with_mark": "n",
        "notes": "blk"
    },
    {
        "id": "vtls004975701_0_19",
        "type": "sailor",
        "parent": "vtls004975701",
        "name": "john jones",
        "dob": "blk",
        "age": "17",
        "place_of_birth": "holyhead",
        "home_address": "blk",
        "f": "blk",
        "name_of_ship": "royal william",
        "ship_port": "caernarvon",
        "date_leaving": "1862-12-10",
        "joined_ship_date": "1863-04-01",
        "joined_at_port": "liverpool",
        "capacity": "seaman",
        "date_left": "blk",
        "left_port": "blk",
        "cause_of_leaving": "remains on board",
        "sign_with_mark": "n",
        "notes": "blk"
    },
    {
        "id": "vtls004975701_0_20",
        "type": "sailor",
        "parent": "vtls004975701",
        "name": "william flatcher",
        "dob": "blk",
        "age": "16",
        "place_of_birth": "liverpool",
        "home_address": "blk",
        "f": "blk",
        "name_of_ship": "viscata",
        "ship_port": "aberystwyth",
        "date_leaving": "1863-06-10",
        "joined_ship_date": "blk",
        "joined_at_port": "newport",
        "capacity": "seaman",
        "date_left": "1863-06-10",
        "left_port": "newport",
        "cause_of_leaving": "discharged",
        "sign_with_mark": "n",
        "notes": "blk"
    },
    {
        "id": "vtls004975701_0_22",
        "type": "sailor",
        "parent": "vtls004975701",
        "name": "david jones",
        "dob": "blk",
        "age": "15",
        "place_of_birth": "aberaeron",
        "home_address": "blk",
        "f": "blk",
        "name_of_ship": "[dewi lass]",
        "ship_port": "aberystwyth",
        "date_leaving": "1862-10-10",
        "joined_ship_date": "1863-05-12",
        "joined_at_port": "newport",
        "capacity": "boy",
        "date_left": "blk",
        "left_port": "blk",
        "cause_of_leaving": "remains on board",
        "sign_with_mark": "n",
        "notes": "blk"
    },
    {
        "id": "vtls004975701_0_16",
        "type": "sailor",
        "parent": "vtls004975701",
        "name": "charles thompson",
        "dob": "blk",
        "age": "18",
        "place_of_birth": "londonderry",
        "home_address": "blk",
        "f": "blk",
        "name_of_ship": "viscata",
        "ship_port": "aberystwyth",
        "date_leaving": "1863-03-09",
        "joined_ship_date": "blk",
        "joined_at_port": "blk",
        "capacity": "seaman",
        "date_left": "1863-03-09",
        "left_port": "cardiff",
        "cause_of_leaving": "discharged",
        "sign_with_mark": "n",
        "notes": "blk"
    },
    {
        "id": "vtls004975701_0_21",
        "type": "sailor",
        "parent": "vtls004975701",
        "name": "thomas jones",
        "dob": "blk",
        "age": "17",
        "place_of_birth": "aberaeron",
        "home_address": "blk",
        "f": "blk",
        "name_of_ship": "[ellen]",
        "ship_port": "aberystwyth",
        "date_leaving": "1863-01-09",
        "joined_ship_date": "1863-05-12",
        "joined_at_port": "newport",
        "capacity": "seaman",
        "date_left": "blk",
        "left_port": "blk",
        "cause_of_leaving": "remains on board",
        "sign_with_mark": "n",
        "notes": "blk"
    },
    {
        "id": "vtls004975701_0_14",
        "type": "sailor",
        "parent": "vtls004975701",
        "name": "john husband",
        "dob": "blk",
        "age": "16",
        "place_of_birth": "rumney",
        "home_address": "blk",
        "f": "blk",
        "name_of_ship": "viscata",
        "ship_port": "aberystwyth",
        "date_leaving": "1863-04-01",
        "joined_ship_date": "blk",
        "joined_at_port": "blk",
        "capacity": "seaman",
        "date_left": "1863-04-01",
        "left_port": "liverpool",
        "cause_of_leaving": "discharged",
        "sign_with_mark": "n",
        "notes": "blk"
    },
    {
        "id": "vtls004975701_0_13",
        "type": "sailor",
        "parent": "vtls004975701",
        "name": "charles jones",
        "dob": "blk",
        "age": "17",
        "place_of_birth": "fishguard",
        "home_address": "blk",
        "f": "blk",
        "name_of_ship": "viscata",
        "ship_port": "aberystwyth",
        "date_leaving": "1863-04-01",
        "joined_ship_date": "blk",
        "joined_at_port": "blk",
        "capacity": "seaman",
        "date_left": "1863-04-01",
        "left_port": "liverpool",
        "cause_of_leaving": "discharged",
        "sign_with_mark": "n",
        "notes": "blk"
    },
    {
        "id": "vtls004975701_0_15",
        "type": "sailor",
        "parent": "vtls004975701",
        "name": "francis evans",
        "dob": "blk",
        "age": "22",
        "place_of_birth": "newquay",
        "home_address": "blk",
        "f": "blk",
        "name_of_ship": "viscata",
        "ship_port": "aberystwyth",
        "date_leaving": "1863-04-01",
        "joined_ship_date": "blk",
        "joined_at_port": "blk",
        "capacity": "seaman",
        "date_left": "1863-04-01",
        "left_port": "liverpool",
        "cause_of_leaving": "discharged",
        "sign_with_mark": "n",
        "notes": "blk"
    },
    {
        "id": "vtls004975701_0_18",
        "type": "sailor",
        "parent": "vtls004975701",
        "name": "david jenkins",
        "dob": "blk",
        "age": "24",
        "place_of_birth": "newquay",
        "home_address": "blk",
        "f": "blk",
        "name_of_ship": "viscata",
        "ship_port": "aberystwyth",
        "date_leaving": "1863-04-30",
        "joined_ship_date": "blk",
        "joined_at_port": "blk",
        "capacity": "seaman",
        "date_left": "1863-04-30",
        "left_port": "newport",
        "cause_of_leaving": "discharged",
        "sign_with_mark": "n",
        "notes": "blk"
    },
    {
        "id": "vtls004975701_0_17",
        "type": "sailor",
        "parent": "vtls004975701",
        "name": "evan thomas",
        "dob": "blk",
        "age": "16",
        "place_of_birth": "cardiff",
        "home_address": "blk",
        "f": "blk",
        "name_of_ship": "viscata",
        "ship_port": "aberystwyth",
        "date_leaving": "1863-03-09",
        "joined_ship_date": "blk",
        "joined_at_port": "blk",
        "capacity": "seaman",
        "date_left": "1863-03-09",
        "left_port": "cardiff",
        "cause_of_leaving": "discharged",
        "sign_with_mark": "n",
        "notes": "blk"
    },
    {
        "id": "vtls004975703_0_11",
        "type": "sailor",
        "parent": "vtls004975703",
        "name": "evan evans",
        "dob": "blk",
        "age": "30",
        "place_of_birth": "newquay",
        "home_address": "blk",
        "f": "blk",
        "name_of_ship": "union packet",
        "ship_port": "cardigan",
        "date_leaving": "1863-06-01",
        "joined_ship_date": "1863-06-30",
        "joined_at_port": "aberayron",
        "capacity": "master",
        "date_left": "1863-06-30",
        "left_port": "aberaeron",
        "cause_of_leaving": "remains on board",
        "sign_with_mark": "n",
        "notes": "\"this vessel has been laid up under repair jan - june 1864 and sold and this master states that he knows nothing of the last crew.\""
    },
    {
        "id": "vtls004975701_1_16",
        "type": "sailor",
        "parent": "vtls004975701",
        "name": "daniel thomas jones",
        "dob": "blk",
        "age": "17",
        "place_of_birth": "aberaeron",
        "home_address": "blk",
        "f": "blk",
        "name_of_ship": "viscata",
        "ship_port": "aberystwyth",
        "date_leaving": "1863-06-30",
        "joined_ship_date": "1863-07-01",
        "joined_at_port": "rouen",
        "capacity": "ordinary seaman",
        "date_left": "1863-12-31",
        "left_port": "dunkirk",
        "cause_of_leaving": "remains on board",
        "sign_with_mark": "n",
        "notes": "blk"
    },
    {
        "id": "vtls004975701_1_13",
        "type": "sailor",
        "parent": "vtls004975701",
        "name": "robert jones",
        "dob": "blk",
        "age": "32",
        "place_of_birth": "holyhead",
        "home_address": "blk",
        "f": "blk",
        "name_of_ship": "meridian",
        "ship_port": "aberystwyth",
        "date_leaving": "1863-09-19",
        "joined_ship_date": "1863-10-21",
        "joined_at_port": "liverpool",
        "capacity": "boatswain",
        "date_left": "1863-12-31",
        "left_port": "dunkirk",
        "cause_of_leaving": "remains on board",
        "sign_with_mark": "n",
        "notes": "blk"
    },
    {
        "id": "vtls004975701_1_15",
        "type": "sailor",
        "parent": "vtls004975701",
        "name": "john jenkins",
        "dob": "blk",
        "age": "57",
        "place_of_birth": "newquay",
        "home_address": "blk",
        "f": "blk",
        "name_of_ship": "wasp",
        "ship_port": "newquay",
        "date_leaving": "1863-09-21",
        "joined_ship_date": "1863-10-21",
        "joined_at_port": "liverpool",
        "capacity": "able seaman",
        "date_left": "1863-12--31",
        "left_port": "dunkirk",
        "cause_of_leaving": "remains on board",
        "sign_with_mark": "n",
        "notes": "blk"
    },
    {
        "id": "vtls004975701_1_14",
        "type": "sailor",
        "parent": "vtls004975701",
        "name": "john jones",
        "dob": "blk",
        "age": "17",
        "place_of_birth": "holyhead",
        "home_address": "blk",
        "f": "blk",
        "name_of_ship": "viscata",
        "ship_port": "aberystwyth",
        "date_leaving": "1863-06-30",
        "joined_ship_date": "1863-07-01",
        "joined_at_port": "rouen",
        "capacity": "ordinary seaman",
        "date_left": "1863-10-21",
        "left_port": "liverpool",
        "cause_of_leaving": "paid off",
        "sign_with_mark": "n",
        "notes": "blk"
    },
    {
        "id": "vtls004975701_1_11",
        "type": "sailor",
        "parent": "vtls004975701",
        "name": "thomas jones",
        "dob": "blk",
        "age": "49",
        "place_of_birth": "aberaeron",
        "home_address": "blk",
        "f": "blk",
        "name_of_ship": "viscata",
        "ship_port": "aberystwyth",
        "date_leaving": "1863-06-30",
        "joined_ship_date": "1863-07-01",
        "joined_at_port": "rouen",
        "capacity": "master",
        "date_left": "1863-12-31",
        "left_port": "dunkirk",
        "cause_of_leaving": "remains on board",
        "sign_with_mark": "n",
        "notes": "blk"
    },
    {
        "id": "vtls004975701_1_17",
        "type": "sailor",
        "parent": "vtls004975701",
        "name": "daniel jones",
        "dob": "blk",
        "age": "15",
        "place_of_birth": "aberaeron",
        "home_address": "blk",
        "f": "blk",
        "name_of_ship": "viscata",
        "ship_port": "aberystwyth",
        "date_leaving": "1863-06-30",
        "joined_ship_date": "1863-07-01",
        "joined_at_port": "rouen",
        "capacity": "boy",
        "date_left": "1863-12-31",
        "left_port": "dunkirk",
        "cause_of_leaving": "remains on board",
        "sign_with_mark": "n",
        "notes": "blk"
    },
    {
        "id": "vtls004975701_1_12",
        "type": "sailor",
        "parent": "vtls004975701",
        "name": "evan phillips",
        "dob": "blk",
        "age": "25",
        "place_of_birth": "newquay",
        "home_address": "blk",
        "f": "blk",
        "name_of_ship": "viscata",
        "ship_port": "aberystwyth",
        "date_leaving": "1863-06-30",
        "joined_ship_date": "1863-07-01",
        "joined_at_port": "rouen",
        "capacity": "boatswain",
        "date_left": "1863-09-04",
        "left_port": "bristol",
        "cause_of_leaving": "paid off",
        "sign_with_mark": "n",
        "notes": "blk"
    },
    {
        "id": "vtls004975709_0_11",
        "type": "sailor",
        "parent": "vtls004975709",
        "name": "evan evans",
        "dob": "blk",
        "age": "31",
        "place_of_birth": "newquay",
        "home_address": "blk",
        "f": "blk",
        "name_of_ship": "viscata",
        "ship_port": "aberystwyth",
        "date_leaving": "1865-12-31",
        "joined_ship_date": "1866-01-01",
        "joined_at_port": "dublin",
        "capacity": "master",
        "date_left": "1866-06-30",
        "left_port": "newquay",
        "cause_of_leaving": "remains on board",
        "sign_with_mark": "n",
        "notes": "1866-01-01 to 1866-06-30"
    },
    {
        "id": "vtls004975709_0_17",
        "type": "sailor",
        "parent": "vtls004975709",
        "name": "charles cunningham",
        "dob": "blk",
        "age": "17",
        "place_of_birth": "waterford",
        "home_address": "blk",
        "f": "blk",
        "name_of_ship": "viscata",
        "ship_port": "aberystwyth",
        "date_leaving": "1865-12-31",
        "joined_ship_date": "1866-01-01",
        "joined_at_port": "cardiff",
        "capacity": "ordinary seaman",
        "date_left": "1866-03-10",
        "left_port": "cardiff",
        "cause_of_leaving": "discharged",
        "sign_with_mark": "n",
        "notes": "blk"
    },
    {
        "id": "vtls004975709_0_13",
        "type": "sailor",
        "parent": "vtls004975709",
        "name": "evan evans",
        "dob": "blk",
        "age": "20",
        "place_of_birth": "newquay",
        "home_address": "blk",
        "f": "blk",
        "name_of_ship": "anne warren",
        "ship_port": "aberystwyth",
        "date_leaving": "1866-03-08",
        "joined_ship_date": "1866-03-20",
        "joined_at_port": "cardiff",
        "capacity": "able seaman",
        "date_left": "1866-06-20",
        "left_port": "newquay",
        "cause_of_leaving": "discharged",
        "sign_with_mark": "n",
        "notes": "blk"
    },
    {
        "id": "vtls004975709_0_16",
        "type": "sailor",
        "parent": "vtls004975709",
        "name": "john meck",
        "dob": "blk",
        "age": "30",
        "place_of_birth": "newport",
        "home_address": "blk",
        "f": "blk",
        "name_of_ship": "viscata",
        "ship_port": "aberystwyth",
        "date_leaving": "1865-12-31",
        "joined_ship_date": "1866-01-01",
        "joined_at_port": "dublin",
        "capacity": "able seaman",
        "date_left": "1866-03-10",
        "left_port": "cardiff",
        "cause_of_leaving": "discharged",
        "sign_with_mark": "n",
        "notes": "blk"
    },
    {
        "id": "vtls004975709_0_12",
        "type": "sailor",
        "parent": "vtls004975709",
        "name": "lewis davies",
        "dob": "blk",
        "age": "32",
        "place_of_birth": "newquay",
        "home_address": "blk",
        "f": "blk",
        "name_of_ship": "viscata",
        "ship_port": "aberystwyth",
        "date_leaving": "1865-12-31",
        "joined_ship_date": "1866-01-01",
        "joined_at_port": "dublin",
        "capacity": "mate",
        "date_left": "1866-06-20",
        "left_port": "newquay",
        "cause_of_leaving": "discharged",
        "sign_with_mark": "n",
        "notes": "blk"
    },
    {
        "id": "vtls004975709_0_15",
        "type": "sailor",
        "parent": "vtls004975709",
        "name": "stephen kelly",
        "dob": "blk",
        "age": "30",
        "place_of_birth": "waterford",
        "home_address": "blk",
        "f": "blk",
        "name_of_ship": "viscata",
        "ship_port": "aberystwyth",
        "date_leaving": "blk",
        "joined_ship_date": "1866-03-20",
        "joined_at_port": "cardiff",
        "capacity": "ordinary seaman",
        "date_left": "1866-05-22",
        "left_port": "swansea",
        "cause_of_leaving": "discharged",
        "sign_with_mark": "n",
        "notes": "blk"
    },
    {
        "id": "vtls004975709_0_14",
        "type": "sailor",
        "parent": "vtls004975709",
        "name": "john grace",
        "dob": "blk",
        "age": "19",
        "place_of_birth": "waterford",
        "home_address": "blk",
        "f": "blk",
        "name_of_ship": "john",
        "ship_port": "newport",
        "date_leaving": "1866-03-19",
        "joined_ship_date": "1866-03-20",
        "joined_at_port": "cardiff",
        "capacity": "ordinary seaman",
        "date_left": "1866-04-28",
        "left_port": "dublin",
        "cause_of_leaving": "discharged",
        "sign_with_mark": "n",
        "notes": "blk"
    },
    {
        "id": "vtls004975709_1_14",
        "type": "sailor",
        "parent": "vtls004975709",
        "name": "denis jones",
        "dob": "blk",
        "age": "19",
        "place_of_birth": "penbryn",
        "home_address": "blk",
        "f": "blk",
        "name_of_ship": "viscata",
        "ship_port": "aberystwyth",
        "date_leaving": "1866-06-05",
        "joined_ship_date": "1866-09-24",
        "joined_at_port": "newquay",
        "capacity": "ordinary seaman",
        "date_left": "1866-12-31",
        "left_port": "liverpool",
        "cause_of_leaving": "remains on board",
        "sign_with_mark": "n",
        "notes": "blk"
    },
    {
        "id": "vtls004975709_1_13",
        "type": "sailor",
        "parent": "vtls004975709",
        "name": "evan jones",
        "dob": "blk",
        "age": "38",
        "place_of_birth": "newquay",
        "home_address": "blk",
        "f": "blk",
        "name_of_ship": "viscata",
        "ship_port": "aberystwyth",
        "date_leaving": "1866-06-05",
        "joined_ship_date": "1866-09-24",
        "joined_at_port": "newquay",
        "capacity": "able seaman",
        "date_left": "1866-12-31",
        "left_port": "liverpool",
        "cause_of_leaving": "remains on board",
        "sign_with_mark": "n",
        "notes": "blk"
    },
    {
        "id": "vtls004975709_1_11",
        "type": "sailor",
        "parent": "vtls004975709",
        "name": "evan evans",
        "dob": "blk",
        "age": "52",
        "place_of_birth": "newquay",
        "home_address": "blk",
        "f": "blk",
        "name_of_ship": "viscata",
        "ship_port": "aberystwyth",
        "date_leaving": "1866-06-05",
        "joined_ship_date": "1866-09-24",
        "joined_at_port": "newquay",
        "capacity": "master",
        "date_left": "1866-12-31",
        "left_port": "liverpool",
        "cause_of_leaving": "remains on board",
        "sign_with_mark": "n",
        "notes": "blk"
    },
    {
        "id": "vtls004975709_1_12",
        "type": "sailor",
        "parent": "vtls004975709",
        "name": "david evans",
        "dob": "blk",
        "age": "30",
        "place_of_birth": "newquay",
        "home_address": "blk",
        "f": "blk",
        "name_of_ship": "viscata",
        "ship_port": "aberystwyth",
        "date_leaving": "1866-06-05",
        "joined_ship_date": "1866-09-24",
        "joined_at_port": "newquay",
        "capacity": "mate",
        "date_left": "1866-12-31",
        "left_port": "liverpool",
        "cause_of_leaving": "remains on board",
        "sign_with_mark": "n",
        "notes": "blk"
    },
    {
        "id": "vtls004975709_1_15",
        "type": "sailor",
        "parent": "vtls004975709",
        "name": "john morgan",
        "dob": "blk",
        "age": "13",
        "place_of_birth": "newquay",
        "home_address": "blk",
        "f": "blk",
        "name_of_ship": "viscata",
        "ship_port": "aberystwyth",
        "date_leaving": "1866-06-05",
        "joined_ship_date": "1866-09-24",
        "joined_at_port": "newquay",
        "capacity": "boy",
        "date_left": "1866-12-31",
        "left_port": "liverpool",
        "cause_of_leaving": "remains on board",
        "sign_with_mark": "n",
        "notes": "blk"
    },
    {
        "id": "vtls004975713_0_14",
        "type": "sailor",
        "parent": "vtls004975713",
        "name": "dennis jones",
        "dob": "blk",
        "age": "19",
        "place_of_birth": "aberporth",
        "home_address": "blk",
        "f": "blk",
        "name_of_ship": "viscata",
        "ship_port": "aberystwyth",
        "date_leaving": "remain",
        "joined_ship_date": "blk",
        "joined_at_port": "blk",
        "capacity": "ordinary seaman",
        "date_left": "1867-04-10",
        "left_port": "cardigan",
        "cause_of_leaving": "discharged",
        "sign_with_mark": "n",
        "notes": "blk"
    },
    {
        "id": "vtls004975713_0_13",
        "type": "sailor",
        "parent": "vtls004975713",
        "name": "evan jones",
        "dob": "blk",
        "age": "24",
        "place_of_birth": "aberporth",
        "home_address": "blk",
        "f": "blk",
        "name_of_ship": "viscata",
        "ship_port": "aberystwyth",
        "date_leaving": "remain",
        "joined_ship_date": "blk",
        "joined_at_port": "blk",
        "capacity": "able seaman",
        "date_left": "1867-04-10",
        "left_port": "cardigan",
        "cause_of_leaving": "discharged",
        "sign_with_mark": "n",
        "notes": "blk"
    },
    {
        "id": "vtls004975713_0_11",
        "type": "sailor",
        "parent": "vtls004975713",
        "name": "evan evans",
        "dob": "blk",
        "age": "31",
        "place_of_birth": "newquay",
        "home_address": "blk",
        "f": "blk",
        "name_of_ship": "viscata",
        "ship_port": "aberystwyth",
        "date_leaving": "remain",
        "joined_ship_date": "blk",
        "joined_at_port": "blk",
        "capacity": "master",
        "date_left": "blk",
        "left_port": "blk",
        "cause_of_leaving": "remains on board",
        "sign_with_mark": "n",
        "notes": "1867-01 to 1867-06-30"
    },
    {
        "id": "vtls004975713_0_12",
        "type": "sailor",
        "parent": "vtls004975713",
        "name": "david evans",
        "dob": "blk",
        "age": "39",
        "place_of_birth": "newquay",
        "home_address": "blk",
        "f": "blk",
        "name_of_ship": "viscata",
        "ship_port": "aberystwyth",
        "date_leaving": "remain",
        "joined_ship_date": "blk",
        "joined_at_port": "blk",
        "capacity": "mate",
        "date_left": "blk",
        "left_port": "blk",
        "cause_of_leaving": "remains on board",
        "sign_with_mark": "n",
        "notes": "blk"
    },
    {
        "id": "vtls004975713_1_14",
        "type": "sailor",
        "parent": "vtls004975713",
        "name": "thomas thomas",
        "dob": "blk",
        "age": "37",
        "place_of_birth": "newcastle emlyn",
        "home_address": "blk",
        "f": "blk",
        "name_of_ship": "george evans",
        "ship_port": "aberystwyth",
        "date_leaving": "1867-10-01",
        "joined_ship_date": "1867-11-07",
        "joined_at_port": "newport",
        "capacity": "able seaman",
        "date_left": "1867-12-31",
        "left_port": "runcorn",
        "cause_of_leaving": "remains on board",
        "sign_with_mark": "n",
        "notes": "blk"
    },
    {
        "id": "vtls004975713_0_16",
        "type": "sailor",
        "parent": "vtls004975713",
        "name": "john griffiths",
        "dob": "blk",
        "age": "22",
        "place_of_birth": "newquay",
        "home_address": "blk",
        "f": "blk",
        "name_of_ship": "martha",
        "ship_port": "aberayron",
        "date_leaving": "1867-01-11",
        "joined_ship_date": "1867-04-18",
        "joined_at_port": "cardigan",
        "capacity": "able seaman",
        "date_left": "1867-06-08",
        "left_port": "liverpool",
        "cause_of_leaving": "discharged",
        "sign_with_mark": "n",
        "notes": "blk"
    },
    {
        "id": "vtls004975713_1_12",
        "type": "sailor",
        "parent": "vtls004975713",
        "name": "benjamin williams",
        "dob": "blk",
        "age": "29",
        "place_of_birth": "cardigan",
        "home_address": "blk",
        "f": "blk",
        "name_of_ship": "mela",
        "ship_port": "aberystwyth",
        "date_leaving": "1867-07-03",
        "joined_ship_date": "1867-07-24",
        "joined_at_port": "cardiff",
        "capacity": "mate",
        "date_left": "1867-12-31",
        "left_port": "runcorn",
        "cause_of_leaving": "remains on board",
        "sign_with_mark": "n",
        "notes": "blk"
    },
    {
        "id": "vtls004975713_1_11",
        "type": "sailor",
        "parent": "vtls004975713",
        "name": "evan evans",
        "dob": "blk",
        "age": "34",
        "place_of_birth": "newquay",
        "home_address": "blk",
        "f": "blk",
        "name_of_ship": "viscata",
        "ship_port": "aberystwyth",
        "date_leaving": "1867-06-30",
        "joined_ship_date": "1867-07-01",
        "joined_at_port": "bristol",
        "capacity": "master",
        "date_left": "1867-12-31",
        "left_port": "runcorn",
        "cause_of_leaving": "remains on board",
        "sign_with_mark": "n",
        "notes": "blk"
    },
    {
        "id": "vtls004975713_1_15",
        "type": "sailor",
        "parent": "vtls004975713",
        "name": "john morgan",
        "dob": "blk",
        "age": "14",
        "place_of_birth": "newquay",
        "home_address": "blk",
        "f": "blk",
        "name_of_ship": "viscata",
        "ship_port": "aberystwyth",
        "date_leaving": "1867-06-30",
        "joined_ship_date": "1867-07-01",
        "joined_at_port": "bristol",
        "capacity": "boy",
        "date_left": "1867-12-31",
        "left_port": "runcorn",
        "cause_of_leaving": "remains on board",
        "sign_with_mark": "n",
        "notes": "blk"
    },
    {
        "id": "vtls004975713_0_17",
        "type": "sailor",
        "parent": "vtls004975713",
        "name": "evan jones",
        "dob": "blk",
        "age": "23",
        "place_of_birth": "aberporth",
        "home_address": "blk",
        "f": "blk",
        "name_of_ship": "sarah",
        "ship_port": "cardigan",
        "date_leaving": "1867-04-20",
        "joined_ship_date": "1867-06-06",
        "joined_at_port": "liverpool",
        "capacity": "able seaman",
        "date_left": "blk",
        "left_port": "blk",
        "cause_of_leaving": "remains on board",
        "sign_with_mark": "n",
        "notes": "blk"
    },
    {
        "id": "vtls004975713_1_13",
        "type": "sailor",
        "parent": "vtls004975713",
        "name": "david evans",
        "dob": "blk",
        "age": "38",
        "place_of_birth": "newquay",
        "home_address": "blk",
        "f": "blk",
        "name_of_ship": "viscata",
        "ship_port": "aberystwyth",
        "date_leaving": "1867-07-03",
        "joined_ship_date": "1867-07-20",
        "joined_at_port": "bristol",
        "capacity": "mate",
        "date_left": "1867-07-23",
        "left_port": "cardiff",
        "cause_of_leaving": "paid off",
        "sign_with_mark": "n",
        "notes": "blk"
    },
    {
        "id": "vtls004975713_0_15",
        "type": "sailor",
        "parent": "vtls004975713",
        "name": "john evans",
        "dob": "blk",
        "age": "14",
        "place_of_birth": "newquay",
        "home_address": "blk",
        "f": "blk",
        "name_of_ship": "viscata",
        "ship_port": "aberystwyth",
        "date_leaving": "remain",
        "joined_ship_date": "blk",
        "joined_at_port": "blk",
        "capacity": "boy",
        "date_left": "blk",
        "left_port": "blk",
        "cause_of_leaving": "remains on board",
        "sign_with_mark": "n",
        "notes": "blk"
    },
    {
        "id": "vtls004975730_1_11",
        "type": "sailor",
        "parent": "vtls004975730",
        "name": "evan evans",
        "dob": "blk",
        "age": "34",
        "place_of_birth": "newquay",
        "home_address": "blk",
        "f": "blk",
        "name_of_ship": "viscata",
        "ship_port": "aberystwyth",
        "date_leaving": "continued",
        "joined_ship_date": "blk",
        "joined_at_port": "blk",
        "capacity": "master",
        "date_left": "blk",
        "left_port": "blk",
        "cause_of_leaving": "remains on board",
        "sign_with_mark": "n",
        "notes": "1868-07-01 to 1868-12-31"
    },
    {
        "id": "vtls004975730_1_12",
        "type": "sailor",
        "parent": "vtls004975730",
        "name": "david morgans",
        "dob": "blk",
        "age": "28",
        "place_of_birth": "llangranog",
        "home_address": "blk",
        "f": "blk",
        "name_of_ship": "viscata",
        "ship_port": "aberystwyth",
        "date_leaving": "continued",
        "joined_ship_date": "blk",
        "joined_at_port": "blk",
        "capacity": "mate",
        "date_left": "1868-08-28",
        "left_port": "briton ferry",
        "cause_of_leaving": "paid off",
        "sign_with_mark": "n",
        "notes": "blk"
    },
    {
        "id": "vtls004975730_1_13",
        "type": "sailor",
        "parent": "vtls004975730",
        "name": "david d davies",
        "dob": "blk",
        "age": "34",
        "place_of_birth": "llanon",
        "home_address": "blk",
        "f": "blk",
        "name_of_ship": "viscata",
        "ship_port": "aberystwyth",
        "date_leaving": "continued",
        "joined_ship_date": "blk",
        "joined_at_port": "blk",
        "capacity": "able seaman",
        "date_left": "1868-12-02",
        "left_port": "runcorn",
        "cause_of_leaving": "paid off",
        "sign_with_mark": "n",
        "notes": "blk"
    },
    {
        "id": "vtls004975730_0_11",
        "type": "sailor",
        "parent": "vtls004975730",
        "name": "evan evans",
        "dob": "blk",
        "age": "34",
        "place_of_birth": "newquay",
        "home_address": "blk",
        "f": "blk",
        "name_of_ship": "viscata",
        "ship_port": "aberystwyth",
        "date_leaving": "blk",
        "joined_ship_date": "blk",
        "joined_at_port": "blk",
        "capacity": "master",
        "date_left": "blk",
        "left_port": "blk",
        "cause_of_leaving": "remains on board",
        "sign_with_mark": "n",
        "notes": "1868-01-01 to 1868-06-30"
    },
    {
        "id": "vtls004975730_0_14",
        "type": "sailor",
        "parent": "vtls004975730",
        "name": "william rees",
        "dob": "blk",
        "age": "18",
        "place_of_birth": "milford",
        "home_address": "blk",
        "f": "blk",
        "name_of_ship": "viscata",
        "ship_port": "aberystwyth",
        "date_leaving": "blk",
        "joined_ship_date": "blk",
        "joined_at_port": "blk",
        "capacity": "ordinary seaman",
        "date_left": "blk",
        "left_port": "blk",
        "cause_of_leaving": "remains on board",
        "sign_with_mark": "n",
        "notes": "blk"
    },
    {
        "id": "vtls004975730_0_13",
        "type": "sailor",
        "parent": "vtls004975730",
        "name": "robert jones",
        "dob": "blk",
        "age": "30",
        "place_of_birth": "portmadoc",
        "home_address": "blk",
        "f": "blk",
        "name_of_ship": "viscata",
        "ship_port": "aberystwyth",
        "date_leaving": "blk",
        "joined_ship_date": "blk",
        "joined_at_port": "blk",
        "capacity": "able seaman",
        "date_left": "blk",
        "left_port": "blk",
        "cause_of_leaving": "remains on board",
        "sign_with_mark": "n",
        "notes": "blk"
    },
    {
        "id": "vtls004975730_0_12",
        "type": "sailor",
        "parent": "vtls004975730",
        "name": "benjamin williams",
        "dob": "blk",
        "age": "28",
        "place_of_birth": "cardigan",
        "home_address": "blk",
        "f": "blk",
        "name_of_ship": "viscata",
        "ship_port": "aberystwyth",
        "date_leaving": "blk",
        "joined_ship_date": "blk",
        "joined_at_port": "blk",
        "capacity": "mate",
        "date_left": "blk",
        "left_port": "blk",
        "cause_of_leaving": "remains on board",
        "sign_with_mark": "n",
        "notes": "blk"
    },
    {
        "id": "vtls004975730_0_15",
        "type": "sailor",
        "parent": "vtls004975730",
        "name": "jenkin griffiths",
        "dob": "blk",
        "age": "16",
        "place_of_birth": "newquay",
        "home_address": "blk",
        "f": "blk",
        "name_of_ship": "viscata",
        "ship_port": "aberystwyth",
        "date_leaving": "blk",
        "joined_ship_date": "blk",
        "joined_at_port": "blk",
        "capacity": "boy",
        "date_left": "blk",
        "left_port": "blk",
        "cause_of_leaving": "remains on board",
        "sign_with_mark": "n",
        "notes": "blk"
    },
    {
        "id": "vtls004975730_1_14",
        "type": "sailor",
        "parent": "vtls004975730",
        "name": "jenkin griffiths",
        "dob": "blk",
        "age": "17",
        "place_of_birth": "newquay",
        "home_address": "blk",
        "f": "blk",
        "name_of_ship": "viscata",
        "ship_port": "aberystwyth",
        "date_leaving": "continued",
        "joined_ship_date": "blk",
        "joined_at_port": "blk",
        "capacity": "boy",
        "date_left": "blk",
        "left_port": "blk",
        "cause_of_leaving": "blk",
        "sign_with_mark": "n",
        "notes": "blk"
    },
    {
        "id": "vtls004975737_0_11",
        "type": "sailor",
        "parent": "vtls004975737",
        "name": "evan evans",
        "dob": "blk",
        "age": "36",
        "place_of_birth": "newquay",
        "home_address": "blk",
        "f": "blk",
        "name_of_ship": "viscata",
        "ship_port": "aberystwyth",
        "date_leaving": "remain",
        "joined_ship_date": "1870-01-10",
        "joined_at_port": "cardiff",
        "capacity": "master",
        "date_left": "1870-07-19",
        "left_port": "swansea",
        "cause_of_leaving": "remains on board",
        "sign_with_mark": "n",
        "notes": "1870-01-21 to 1870-07-09"
    },
    {
        "id": "vtls004975737_0_14",
        "type": "sailor",
        "parent": "vtls004975737",
        "name": "elias richards",
        "dob": "blk",
        "age": "18",
        "place_of_birth": "newquay",
        "home_address": "blk",
        "f": "blk",
        "name_of_ship": "viscata",
        "ship_port": "aberystwyth",
        "date_leaving": "remain",
        "joined_ship_date": "1870-01-10",
        "joined_at_port": "cardiff",
        "capacity": "ordinary seaman",
        "date_left": "1870-07-19",
        "left_port": "swansea",
        "cause_of_leaving": "remains on board",
        "sign_with_mark": "n",
        "notes": "blk"
    },
    {
        "id": "vtls004975737_0_12",
        "type": "sailor",
        "parent": "vtls004975737",
        "name": "daniel davies",
        "dob": "blk",
        "age": "50",
        "place_of_birth": "newquay",
        "home_address": "blk",
        "f": "blk",
        "name_of_ship": "viscata",
        "ship_port": "aberystwyth",
        "date_leaving": "remain",
        "joined_ship_date": "1870-01-10",
        "joined_at_port": "cardiff",
        "capacity": "mate",
        "date_left": "1870-07-19",
        "left_port": "swansea",
        "cause_of_leaving": "remains on board",
        "sign_with_mark": "n",
        "notes": "blk"
    },
    {
        "id": "vtls004975737_0_13",
        "type": "sailor",
        "parent": "vtls004975737",
        "name": "evan davies",
        "dob": "blk",
        "age": "23",
        "place_of_birth": "cardigan",
        "home_address": "blk",
        "f": "blk",
        "name_of_ship": "not known",
        "ship_port": "blk",
        "date_leaving": "blk",
        "joined_ship_date": "1870-01-10",
        "joined_at_port": "cardiff",
        "capacity": "able seaman",
        "date_left": "1870-02-30",
        "left_port": "swansea",
        "cause_of_leaving": "discharged",
        "sign_with_mark": "n",
        "notes": "blk"
    },
    {
        "id": "vtls004975730_1_16",
        "type": "sailor",
        "parent": "vtls004975730",
        "name": "robert jones",
        "dob": "blk",
        "age": "19",
        "place_of_birth": "portmadoc",
        "home_address": "blk",
        "f": "blk",
        "name_of_ship": "osprey",
        "ship_port": "llanelly",
        "date_leaving": "1868-12-23",
        "joined_ship_date": "1868-12-28",
        "joined_at_port": "runcorn",
        "capacity": "ordinary seaman",
        "date_left": "blk",
        "left_port": "blk",
        "cause_of_leaving": "blk",
        "sign_with_mark": "n",
        "notes": "blk"
    },
    {
        "id": "vtls004975730_1_15",
        "type": "sailor",
        "parent": "vtls004975730",
        "name": "david jones",
        "dob": "blk",
        "age": "29",
        "place_of_birth": "aberaeron",
        "home_address": "blk",
        "f": "blk",
        "name_of_ship": "laura",
        "ship_port": "swansea",
        "date_leaving": "1868-07-02",
        "joined_ship_date": "1868-09",
        "joined_at_port": "briton ferry",
        "capacity": "mate",
        "date_left": "blk",
        "left_port": "blk",
        "cause_of_leaving": "blk",
        "sign_with_mark": "n",
        "notes": "blk"
    },
    {
        "id": "vtls004975730_1_17",
        "type": "sailor",
        "parent": "vtls004975730",
        "name": "elias richards",
        "dob": "blk",
        "age": "16",
        "place_of_birth": "newquay",
        "home_address": "blk",
        "f": "blk",
        "name_of_ship": "first ship",
        "ship_port": "blk",
        "date_leaving": "blk",
        "joined_ship_date": "1868-12-28",
        "joined_at_port": "runcorn",
        "capacity": "boy",
        "date_left": "blk",
        "left_port": "blk",
        "cause_of_leaving": "blk",
        "sign_with_mark": "n",
        "notes": "blk"
    },
    {
        "id": "vtls004975737_1_11",
        "type": "sailor",
        "parent": "vtls004975737",
        "name": "evan evans",
        "dob": "blk",
        "age": "35",
        "place_of_birth": "newquay",
        "home_address": "blk",
        "f": "blk",
        "name_of_ship": "viscata",
        "ship_port": "aberystwyth",
        "date_leaving": "1870-06-30",
        "joined_ship_date": "1870-07-01",
        "joined_at_port": "waterford",
        "capacity": "master",
        "date_left": "1870-12-31",
        "left_port": "aberaeron",
        "cause_of_leaving": "remains on board",
        "sign_with_mark": "n",
        "notes": "blk"
    },
    {
        "id": "vtls004975737_1_12",
        "type": "sailor",
        "parent": "vtls004975737",
        "name": "daniel davies",
        "dob": "blk",
        "age": "45",
        "place_of_birth": "newquay",
        "home_address": "blk",
        "f": "blk",
        "name_of_ship": "viscata",
        "ship_port": "aberystwyth",
        "date_leaving": "1870-06-30",
        "joined_ship_date": "1870-07-01",
        "joined_at_port": "waterford",
        "capacity": "mate",
        "date_left": "1870-11-28",
        "left_port": "aberaeron",
        "cause_of_leaving": "discharged",
        "sign_with_mark": "n",
        "notes": "blk"
    },
    {
        "id": "vtls004975737_1_13",
        "type": "sailor",
        "parent": "vtls004975737",
        "name": "timothy morgans",
        "dob": "blk",
        "age": "28",
        "place_of_birth": "fishguard",
        "home_address": "blk",
        "f": "blk",
        "name_of_ship": "viscata",
        "ship_port": "aberystwyth",
        "date_leaving": "1870-06-30",
        "joined_ship_date": "1870-07-01",
        "joined_at_port": "waterford",
        "capacity": "able seaman",
        "date_left": "1870-11-28",
        "left_port": "aberaeron",
        "cause_of_leaving": "discharged",
        "sign_with_mark": "n",
        "notes": "blk"
    },
    {
        "id": "vtls004975737_1_14",
        "type": "sailor",
        "parent": "vtls004975737",
        "name": "elias richards",
        "dob": "blk",
        "age": "18",
        "place_of_birth": "newquay",
        "home_address": "blk",
        "f": "blk",
        "name_of_ship": "viscata",
        "ship_port": "aberystwyth",
        "date_leaving": "1870-06-30",
        "joined_ship_date": "1870-07-01",
        "joined_at_port": "waterford",
        "capacity": "boy",
        "date_left": "1870-11-28",
        "left_port": "aberaeron",
        "cause_of_leaving": "discharged",
        "sign_with_mark": "n",
        "notes": "blk"
    },
    {
        "id": "vtls004975737_0_16",
        "type": "sailor",
        "parent": "vtls004975737",
        "name": "timothy morgan",
        "dob": "blk",
        "age": "22",
        "place_of_birth": "fishguard",
        "home_address": "blk",
        "f": "blk",
        "name_of_ship": "village bell",
        "ship_port": "blk",
        "date_leaving": "1870-03-21",
        "joined_ship_date": "1870-04-11",
        "joined_at_port": "swansea",
        "capacity": "able seaman",
        "date_left": "1870-06-19",
        "left_port": "swansea",
        "cause_of_leaving": "remains on board",
        "sign_with_mark": "n",
        "notes": "blk"
    },
    {
        "id": "vtls004975761_0_12",
        "type": "sailor",
        "parent": "vtls004975761",
        "name": "david james",
        "dob": "blk",
        "age": "27",
        "place_of_birth": "newquay",
        "home_address": "blk",
        "f": "blk",
        "name_of_ship": "catherine & mary",
        "ship_port": "aberystwyth",
        "date_leaving": "1871-03-23",
        "joined_ship_date": "1871-05-11",
        "joined_at_port": "swansea",
        "capacity": "mate",
        "date_left": "blk",
        "left_port": "swansea",
        "cause_of_leaving": "remains on board",
        "sign_with_mark": "n",
        "notes": "blk"
    },
    {
        "id": "vtls004975761_0_13",
        "type": "sailor",
        "parent": "vtls004975761",
        "name": "william davies",
        "dob": "blk",
        "age": "21",
        "place_of_birth": "newquay",
        "home_address": "blk",
        "f": "blk",
        "name_of_ship": "vanguard",
        "ship_port": "liverpool",
        "date_leaving": "1871-04-06",
        "joined_ship_date": "1871-05-11",
        "joined_at_port": "swansea",
        "capacity": "able seaman",
        "date_left": "blk",
        "left_port": "swansea",
        "cause_of_leaving": "remains on board",
        "sign_with_mark": "n",
        "notes": "blk"
    },
    {
        "id": "vtls004975761_0_11",
        "type": "sailor",
        "parent": "vtls004975761",
        "name": "evan evans",
        "dob": "blk",
        "age": "37",
        "place_of_birth": "newquay",
        "home_address": "blk",
        "f": "blk",
        "name_of_ship": "viscata",
        "ship_port": "aberystwyth",
        "date_leaving": "blk",
        "joined_ship_date": "blk",
        "joined_at_port": "blk",
        "capacity": "master",
        "date_left": "1871-05-16",
        "left_port": "swansea",
        "cause_of_leaving": "discharged",
        "sign_with_mark": "n",
        "notes": "1871-01-01 to 1871-06-30"
    },
    {
        "id": "vtls004975737_0_15",
        "type": "sailor",
        "parent": "vtls004975737",
        "name": "david james",
        "dob": "blk",
        "age": "36",
        "place_of_birth": "aberporth",
        "home_address": "blk",
        "f": "blk",
        "name_of_ship": "not known",
        "ship_port": "blk",
        "date_leaving": "blk",
        "joined_ship_date": "1870-03-01",
        "joined_at_port": "swansea",
        "capacity": "able seaman",
        "date_left": "1870-04-11",
        "left_port": "swansea",
        "cause_of_leaving": "discharged",
        "sign_with_mark": "n",
        "notes": "blk"
    },
    {
        "id": "vtls004975761_0_14",
        "type": "sailor",
        "parent": "vtls004975761",
        "name": "daniel jones",
        "dob": "blk",
        "age": "15",
        "place_of_birth": "newquay",
        "home_address": "blk",
        "f": "blk",
        "name_of_ship": "elizabeth",
        "ship_port": "london",
        "date_leaving": "1871-05-10",
        "joined_ship_date": "1871-05-11",
        "joined_at_port": "swansea",
        "capacity": "ordinary seaman",
        "date_left": "blk",
        "left_port": "swansea",
        "cause_of_leaving": "remains on board",
        "sign_with_mark": "n",
        "notes": "blk"
    },
    {
        "id": "vtls004975761_1_11",
        "type": "sailor",
        "parent": "vtls004975761",
        "name": "evan evans",
        "dob": "blk",
        "age": "35",
        "place_of_birth": "newquay",
        "home_address": "blk",
        "f": "blk",
        "name_of_ship": "viscata",
        "ship_port": "aberystwyth",
        "date_leaving": "continued",
        "joined_ship_date": "blk",
        "joined_at_port": "blk",
        "capacity": "master",
        "date_left": "blk",
        "left_port": "blk",
        "cause_of_leaving": "remains on board",
        "sign_with_mark": "n",
        "notes": "1871-07-01 to 1871-21-31"
    },
    {
        "id": "vtls004975761_1_13",
        "type": "sailor",
        "parent": "vtls004975761",
        "name": "william davies",
        "dob": "blk",
        "age": "21",
        "place_of_birth": "newquay",
        "home_address": "blk",
        "f": "blk",
        "name_of_ship": "viscata",
        "ship_port": "aberystwyth",
        "date_leaving": "continued",
        "joined_ship_date": "blk",
        "joined_at_port": "blk",
        "capacity": "able seaman",
        "date_left": "1871-07-25",
        "left_port": "newquay",
        "cause_of_leaving": "paid off",
        "sign_with_mark": "n",
        "notes": "blk"
    },
    {
        "id": "vtls004975761_0_16",
        "type": "sailor",
        "parent": "vtls004975761",
        "name": "david d davies",
        "dob": "blk",
        "age": "39",
        "place_of_birth": "newquay",
        "home_address": "blk",
        "f": "blk",
        "name_of_ship": "antelope",
        "ship_port": "aberystwyth",
        "date_leaving": "blk",
        "joined_ship_date": "1871-05-16",
        "joined_at_port": "swansea",
        "capacity": "master",
        "date_left": "blk",
        "left_port": "swansea",
        "cause_of_leaving": "remains on board",
        "sign_with_mark": "n",
        "notes": "blk"
    },
    {
        "id": "vtls004975761_1_16",
        "type": "sailor",
        "parent": "vtls004975761",
        "name": "david parry",
        "dob": "blk",
        "age": "27",
        "place_of_birth": "newquay",
        "home_address": "blk",
        "f": "blk",
        "name_of_ship": "active",
        "ship_port": "newquay",
        "date_leaving": "1871-07-28",
        "joined_ship_date": "1871-07-28",
        "joined_at_port": "newquay",
        "capacity": "able seaman",
        "date_left": "blk",
        "left_port": "blk",
        "cause_of_leaving": "remains on board",
        "sign_with_mark": "n",
        "notes": "blk"
    },
    {
        "id": "vtls004975761_1_15",
        "type": "sailor",
        "parent": "vtls004975761",
        "name": "edward james",
        "dob": "blk",
        "age": "14",
        "place_of_birth": "newquay",
        "home_address": "blk",
        "f": "blk",
        "name_of_ship": "viscata",
        "ship_port": "aberystwyth",
        "date_leaving": "continued",
        "joined_ship_date": "blk",
        "joined_at_port": "blk",
        "capacity": "able seaman",
        "date_left": "blk",
        "left_port": "blk",
        "cause_of_leaving": "remains on board",
        "sign_with_mark": "n",
        "notes": "blk"
    },
    {
        "id": "vtls004975761_1_14",
        "type": "sailor",
        "parent": "vtls004975761",
        "name": "daniel jones",
        "dob": "blk",
        "age": "15",
        "place_of_birth": "newquay",
        "home_address": "blk",
        "f": "blk",
        "name_of_ship": "viscata",
        "ship_port": "aberystwyth",
        "date_leaving": "continued",
        "joined_ship_date": "blk",
        "joined_at_port": "blk",
        "capacity": "boy",
        "date_left": "1871-07-25",
        "left_port": "newquay",
        "cause_of_leaving": "paid off",
        "sign_with_mark": "n",
        "notes": "blk"
    },
    {
        "id": "vtls004975761_1_12",
        "type": "sailor",
        "parent": "vtls004975761",
        "name": "david james",
        "dob": "blk",
        "age": "28",
        "place_of_birth": "newquay",
        "home_address": "blk",
        "f": "blk",
        "name_of_ship": "viscata",
        "ship_port": "aberystwyth",
        "date_leaving": "continued",
        "joined_ship_date": "blk",
        "joined_at_port": "blk",
        "capacity": "mate",
        "date_left": "blk",
        "left_port": "blk",
        "cause_of_leaving": "remains on board",
        "sign_with_mark": "n",
        "notes": "blk"
    },
    {
        "id": "vtls004975761_0_15",
        "type": "sailor",
        "parent": "vtls004975761",
        "name": "edward james",
        "dob": "blk",
        "age": "13",
        "place_of_birth": "newquay",
        "home_address": "blk",
        "f": "blk",
        "name_of_ship": "first ship",
        "ship_port": "blk",
        "date_leaving": "blk",
        "joined_ship_date": "blk",
        "joined_at_port": "blk",
        "capacity": "boy",
        "date_left": "blk",
        "left_port": "swansea",
        "cause_of_leaving": "remains on board",
        "sign_with_mark": "n",
        "notes": "blk"
    },
    {
        "id": "vtls004975790_0_16",
        "type": "sailor",
        "parent": "vtls004975790",
        "name": "jonah davies",
        "dob": "blk",
        "age": "22",
        "place_of_birth": "cardigan",
        "home_address": "blk",
        "f": "blk",
        "name_of_ship": "polly mitchell",
        "ship_port": "neath",
        "date_leaving": "1872-05-23",
        "joined_ship_date": "1872-05-23",
        "joined_at_port": "amlwch",
        "capacity": "able seaman",
        "date_left": "blk",
        "left_port": "blk",
        "cause_of_leaving": "remains on board",
        "sign_with_mark": "n",
        "notes": "blk"
    },
    {
        "id": "vtls004975790_0_13",
        "type": "sailor",
        "parent": "vtls004975790",
        "name": "henry miller",
        "dob": "blk",
        "age": "30",
        "place_of_birth": "bridgewater",
        "home_address": "blk",
        "f": "blk",
        "name_of_ship": "blk",
        "ship_port": "blk",
        "date_leaving": "blk",
        "joined_ship_date": "1872-02-16",
        "joined_at_port": "runcorn",
        "capacity": "able seaman",
        "date_left": "1872-04-20",
        "left_port": "bristol",
        "cause_of_leaving": "paid off",
        "sign_with_mark": "n",
        "notes": "blk"
    },
    {
        "id": "vtls004975790_0_14",
        "type": "sailor",
        "parent": "vtls004975790",
        "name": "abraham downing",
        "dob": "blk",
        "age": "25",
        "place_of_birth": "falmouth",
        "home_address": "blk",
        "f": "blk",
        "name_of_ship": "blk",
        "ship_port": "blk",
        "date_leaving": "blk",
        "joined_ship_date": "1872-02-16",
        "joined_at_port": "runcorn",
        "capacity": "able seaman",
        "date_left": "1872-04-20",
        "left_port": "bristol",
        "cause_of_leaving": "paid off",
        "sign_with_mark": "n",
        "notes": "blk"
    },
    {
        "id": "vtls004975761_1_17",
        "type": "sailor",
        "parent": "vtls004975761",
        "name": "david jones",
        "dob": "blk",
        "age": "15",
        "place_of_birth": "newquay",
        "home_address": "blk",
        "f": "blk",
        "name_of_ship": "elizabeth",
        "ship_port": "london",
        "date_leaving": "1871-07-31",
        "joined_ship_date": "1871-08-02",
        "joined_at_port": "newquay",
        "capacity": "boy",
        "date_left": "blk",
        "left_port": "blk",
        "cause_of_leaving": "remains on board",
        "sign_with_mark": "n",
        "notes": "blk"
    },
    {
        "id": "vtls004975790_0_15",
        "type": "sailor",
        "parent": "vtls004975790",
        "name": "evan evans",
        "dob": "blk",
        "age": "15",
        "place_of_birth": "cardigan",
        "home_address": "blk",
        "f": "blk",
        "name_of_ship": "all right",
        "ship_port": "blk",
        "date_leaving": "1872-04-19",
        "joined_ship_date": "1872-04-21",
        "joined_at_port": "bristol",
        "capacity": "boy",
        "date_left": "blk",
        "left_port": "blk",
        "cause_of_leaving": "remains on board",
        "sign_with_mark": "n",
        "notes": "blk"
    },
    {
        "id": "vtls004975790_0_11",
        "type": "sailor",
        "parent": "vtls004975790",
        "name": "evan evans",
        "dob": "blk",
        "age": "35",
        "place_of_birth": "newquay",
        "home_address": "newquay",
        "f": "newquay",
        "name_of_ship": "viscata",
        "ship_port": "aberystwyth",
        "date_leaving": "blk",
        "joined_ship_date": "blk",
        "joined_at_port": "blk",
        "capacity": "master",
        "date_left": "blk",
        "left_port": "blk",
        "cause_of_leaving": "remains on board",
        "sign_with_mark": "n",
        "notes": "blk"
    },
    {
        "id": "vtls004975790_0_12",
        "type": "sailor",
        "parent": "vtls004975790",
        "name": "david jenkins",
        "dob": "blk",
        "age": "24",
        "place_of_birth": "cardigan",
        "home_address": "blk",
        "f": "blk",
        "name_of_ship": "viscata",
        "ship_port": "aberystwyth",
        "date_leaving": "blk",
        "joined_ship_date": "blk",
        "joined_at_port": "blk",
        "capacity": "mate",
        "date_left": "blk",
        "left_port": "blk",
        "cause_of_leaving": "remains on board",
        "sign_with_mark": "n",
        "notes": "blk"
    },
    {
        "id": "vtls004975790_1_14",
        "type": "sailor",
        "parent": "vtls004975790",
        "name": "evan evans",
        "dob": "blk",
        "age": "16",
        "place_of_birth": "aberaeron",
        "home_address": "blk",
        "f": "blk",
        "name_of_ship": "viscata",
        "ship_port": "aberystwyth",
        "date_leaving": "blk",
        "joined_ship_date": "blk",
        "joined_at_port": "blk",
        "capacity": "ordinary seaman",
        "date_left": "1872-12-06",
        "left_port": "bridgewater",
        "cause_of_leaving": "discharged",
        "sign_with_mark": "n",
        "notes": "re. capacity: log book records evan evans as the ship's boy"
    },
    {
        "id": "vtls004975790_1_11",
        "type": "sailor",
        "parent": "vtls004975790",
        "name": "evan evans",
        "dob": "blk",
        "age": "37",
        "place_of_birth": "newquay",
        "home_address": "new quay",
        "f": "new quay",
        "name_of_ship": "viscata",
        "ship_port": "aberystwyth",
        "date_leaving": "blk",
        "joined_ship_date": "blk",
        "joined_at_port": "blk",
        "capacity": "master",
        "date_left": "blk",
        "left_port": "blk",
        "cause_of_leaving": "remains on board",
        "sign_with_mark": "n",
        "notes": "document states the 1\/2 year's voyages commenced 1872-07-01."
    },
    {
        "id": "vtls004975812_0_13",
        "type": "sailor",
        "parent": "vtls004975812",
        "name": "john thomas",
        "dob": "blk",
        "age": "18",
        "place_of_birth": "cardigan",
        "home_address": "blk",
        "f": "blk",
        "name_of_ship": "viscata",
        "ship_port": "aberystwyth",
        "date_leaving": "1873-12-31",
        "joined_ship_date": "1874-01-01",
        "joined_at_port": "cork",
        "capacity": "ordinary seaman",
        "date_left": "1874-01-15",
        "left_port": "porthcawl",
        "cause_of_leaving": "discharged",
        "sign_with_mark": "blk",
        "notes": "blk"
    },
    {
        "id": "vtls004975812_0_14",
        "type": "sailor",
        "parent": "vtls004975812",
        "name": "william ellis",
        "dob": "blk",
        "age": "17",
        "place_of_birth": "liverpool",
        "home_address": "blk",
        "f": "blk",
        "name_of_ship": "viscata",
        "ship_port": "aberystwyth",
        "date_leaving": "1873-12-31",
        "joined_ship_date": "1874-01-01",
        "joined_at_port": "cork",
        "capacity": "boy",
        "date_left": "1874-01-15",
        "left_port": "porthcawl",
        "cause_of_leaving": "discharged",
        "sign_with_mark": "blk",
        "notes": "blk"
    },
    {
        "id": "vtls004975812_0_12",
        "type": "sailor",
        "parent": "vtls004975812",
        "name": "david jenkins",
        "dob": "blk",
        "age": "35",
        "place_of_birth": "aberporth",
        "home_address": "blk",
        "f": "blk",
        "name_of_ship": "viscata",
        "ship_port": "aberystwyth",
        "date_leaving": "1873-12-31",
        "joined_ship_date": "1874-01-01",
        "joined_at_port": "cork",
        "capacity": "mate",
        "date_left": "1874-04-06",
        "left_port": "swansea",
        "cause_of_leaving": "discharged",
        "sign_with_mark": "blk",
        "notes": "blk"
    },
    {
        "id": "vtls004975812_0_11",
        "type": "sailor",
        "parent": "vtls004975812",
        "name": "evan evans",
        "dob": "blk",
        "age": "40",
        "place_of_birth": "newquay",
        "home_address": "new quay, cardigan",
        "f": "new quay, cardigan",
        "name_of_ship": "viscata",
        "ship_port": "aberystwyth",
        "date_leaving": "blk",
        "joined_ship_date": "blk",
        "joined_at_port": "blk",
        "capacity": "master",
        "date_left": "blk",
        "left_port": "blk",
        "cause_of_leaving": "remains on board",
        "sign_with_mark": "blk",
        "notes": "blk"
    },
    {
        "id": "vtls004975812_0_15",
        "type": "sailor",
        "parent": "vtls004975812",
        "name": "simon jenkins",
        "dob": "blk",
        "age": "20",
        "place_of_birth": "aberporth",
        "home_address": "blk",
        "f": "blk",
        "name_of_ship": "unknown",
        "ship_port": "blk",
        "date_leaving": "blk",
        "joined_ship_date": "1874-01-25",
        "joined_at_port": "porthcawl",
        "capacity": "able seaman",
        "date_left": "1874-04-08",
        "left_port": "swansea",
        "cause_of_leaving": "discharged",
        "sign_with_mark": "blk",
        "notes": "blk"
    },
    {
        "id": "vtls004975790_1_13",
        "type": "sailor",
        "parent": "vtls004975790",
        "name": "jonah davies",
        "dob": "blk",
        "age": "25",
        "place_of_birth": "cardigan",
        "home_address": "blk",
        "f": "blk",
        "name_of_ship": "viscata",
        "ship_port": "aberystwyth",
        "date_leaving": "blk",
        "joined_ship_date": "blk",
        "joined_at_port": "blk",
        "capacity": "seaman",
        "date_left": "1872-12-06",
        "left_port": "bridgewater",
        "cause_of_leaving": "discharged",
        "sign_with_mark": "n",
        "notes": "blk"
    },
    {
        "id": "vtls004975790_1_12",
        "type": "sailor",
        "parent": "vtls004975790",
        "name": "david jenkins",
        "dob": "blk",
        "age": "30",
        "place_of_birth": "aberporth",
        "home_address": "blk",
        "f": "blk",
        "name_of_ship": "viscata",
        "ship_port": "aberystwyth",
        "date_leaving": "blk",
        "joined_ship_date": "blk",
        "joined_at_port": "blk",
        "capacity": "mate",
        "date_left": "1872-12-06",
        "left_port": "bridgewater",
        "cause_of_leaving": "discharged",
        "sign_with_mark": "n",
        "notes": "blk"
    },
    {
        "id": "vtls004975812_1_11",
        "type": "sailor",
        "parent": "vtls004975812",
        "name": "evan evans",
        "dob": "blk",
        "age": "40",
        "place_of_birth": "newquay",
        "home_address": "newquay, cardiganshire",
        "f": "newquay, cardiganshire",
        "name_of_ship": "viscata",
        "ship_port": "aberystwyth",
        "date_leaving": "blk",
        "joined_ship_date": "blk",
        "joined_at_port": "blk",
        "capacity": "master",
        "date_left": "blk",
        "left_port": "blk",
        "cause_of_leaving": "remains on board",
        "sign_with_mark": "n",
        "notes": "document states: \" laid up under repairs at newquay (cardigan) until october - sailed from newquay oct 12th \" ..."
    },
    {
        "id": "vtls004975812_1_12",
        "type": "sailor",
        "parent": "vtls004975812",
        "name": "thomas evans",
        "dob": "blk",
        "age": "28",
        "place_of_birth": "newquay",
        "home_address": "blk",
        "f": "blk",
        "name_of_ship": "employed fishing",
        "ship_port": "blk",
        "date_leaving": "187[4]-10",
        "joined_ship_date": "1874-10-05",
        "joined_at_port": "newquay",
        "capacity": "mate",
        "date_left": "1874-12-22",
        "left_port": "porthcawl",
        "cause_of_leaving": "discharged",
        "sign_with_mark": "n",
        "notes": "blk"
    },
    {
        "id": "vtls004975812_0_18",
        "type": "sailor",
        "parent": "vtls004975812",
        "name": "thomas kinvog",
        "dob": "blk",
        "age": "28",
        "place_of_birth": "isle of man",
        "home_address": "blk",
        "f": "blk",
        "name_of_ship": "volta",
        "ship_port": "swansea",
        "date_leaving": "1874-04-02",
        "joined_ship_date": "1874-04-09",
        "joined_at_port": "swansea",
        "capacity": "able seaman",
        "date_left": "1874-05-01",
        "left_port": "newquay",
        "cause_of_leaving": "discharged",
        "sign_with_mark": "blk",
        "notes": "blk"
    },
    {
        "id": "vtls004975812_0_17",
        "type": "sailor",
        "parent": "vtls004975812",
        "name": "john davies",
        "dob": "blk",
        "age": "50",
        "place_of_birth": "newquay",
        "home_address": "blk",
        "f": "blk",
        "name_of_ship": "ellen ann",
        "ship_port": "aberystwyth",
        "date_leaving": "1874-02-15",
        "joined_ship_date": "1874-04-09",
        "joined_at_port": "swansea",
        "capacity": "mate",
        "date_left": "1874-05-01",
        "left_port": "newquay",
        "cause_of_leaving": "discharged",
        "sign_with_mark": "blk",
        "notes": "blk"
    },
    {
        "id": "vtls004975812_1_13",
        "type": "sailor",
        "parent": "vtls004975812",
        "name": "thomas edwards",
        "dob": "blk",
        "age": "25",
        "place_of_birth": "cardigan",
        "home_address": "blk",
        "f": "blk",
        "name_of_ship": "not known",
        "ship_port": "blk",
        "date_leaving": "blk",
        "joined_ship_date": "1874-10-02",
        "joined_at_port": "briton ferry",
        "capacity": "able seaman",
        "date_left": "1874-12-22",
        "left_port": "porthcawl",
        "cause_of_leaving": "discharged",
        "sign_with_mark": "n",
        "notes": "blk"
    },
    {
        "id": "vtls004975812_0_16",
        "type": "sailor",
        "parent": "vtls004975812",
        "name": "samuel evans",
        "dob": "blk",
        "age": "17",
        "place_of_birth": "newquay",
        "home_address": "blk",
        "f": "blk",
        "name_of_ship": "first ship",
        "ship_port": "first ship",
        "date_leaving": "first ship",
        "joined_ship_date": "1874-01-25",
        "joined_at_port": "porthcawl",
        "capacity": "boy",
        "date_left": "blk",
        "left_port": "blk",
        "cause_of_leaving": "remains on board",
        "sign_with_mark": "blk",
        "notes": "blk"
    },
    {
        "id": "vtls004975812_1_14",
        "type": "sailor",
        "parent": "vtls004975812",
        "name": "samuel evans",
        "dob": "blk",
        "age": "18",
        "place_of_birth": "newquay",
        "home_address": "blk",
        "f": "blk",
        "name_of_ship": "viscata",
        "ship_port": "aberystwyth",
        "date_leaving": "blk",
        "joined_ship_date": "blk",
        "joined_at_port": "blk",
        "capacity": "boy",
        "date_left": "blk",
        "left_port": "blk",
        "cause_of_leaving": "remains on board",
        "sign_with_mark": "n",
        "notes": "blk"
    }
]