[
    {
        "id": "vtls004965772_0_13",
        "type": "sailor",
        "parent": "vtls004965772",
        "name": "george lampsher",
        "dob": "blk",
        "age": "17",
        "place_of_birth": "llanon",
        "home_address": "blk",
        "f": "blk",
        "name_of_ship": "first vessel",
        "ship_port": "blk",
        "date_leaving": "blk",
        "joined_ship_date": "1880-04-01",
        "joined_at_port": "cardigan",
        "capacity": "ordinary seaman",
        "date_left": "blk",
        "left_port": "blk",
        "cause_of_leaving": "remains on board",
        "sign_with_mark": "n",
        "notes": "blk"
    },
    {
        "id": "vtls004965772_0_11",
        "type": "sailor",
        "parent": "vtls004965772",
        "name": "david jenkins",
        "dob": "blk",
        "age": "30",
        "place_of_birth": "penybryn, cardigan",
        "home_address": "blk",
        "f": "blk",
        "name_of_ship": "susanna gwenllian",
        "ship_port": "aberystwyth",
        "date_leaving": "continued",
        "joined_ship_date": "blk",
        "joined_at_port": "blk",
        "capacity": "master",
        "date_left": "blk",
        "left_port": "blk",
        "cause_of_leaving": "remains on board",
        "sign_with_mark": "n",
        "notes": "blk"
    },
    {
        "id": "vtls004965772_0_12",
        "type": "sailor",
        "parent": "vtls004965772",
        "name": "michael lampsher",
        "dob": "blk",
        "age": "58",
        "place_of_birth": "falmouth, cornwall",
        "home_address": "blk",
        "f": "blk",
        "name_of_ship": "working on shore",
        "ship_port": "blk",
        "date_leaving": "blk",
        "joined_ship_date": "1880-04-01",
        "joined_at_port": "cardigan",
        "capacity": "mate",
        "date_left": "blk",
        "left_port": "blk",
        "cause_of_leaving": "remains on board",
        "sign_with_mark": "n",
        "notes": "blk"
    },
    {
        "id": "vtls004965786_1_13",
        "type": "sailor",
        "parent": "vtls004965786",
        "name": "joseph jenkins",
        "dob": "1856",
        "age": "blk",
        "place_of_birth": "llangranog",
        "home_address": "blk",
        "f": "blk",
        "name_of_ship": "susanna gwenllian",
        "ship_port": "aberystwyth",
        "date_leaving": "remains",
        "joined_ship_date": "blk",
        "joined_at_port": "blk",
        "capacity": "able seaman",
        "date_left": "1881-10",
        "left_port": "llangrannog",
        "cause_of_leaving": "vessel lying up at cardigan over winter",
        "sign_with_mark": "n",
        "notes": "blk"
    },
    {
        "id": "vtls004965786_1_11",
        "type": "sailor",
        "parent": "vtls004965786",
        "name": "david jenkins",
        "dob": "1851",
        "age": "blk",
        "place_of_birth": "llangranog",
        "home_address": "blk",
        "f": "blk",
        "name_of_ship": "susanna gwenllian",
        "ship_port": "aberystwyth",
        "date_leaving": "remains",
        "joined_ship_date": "blk",
        "joined_at_port": "blk",
        "capacity": "master",
        "date_left": "1881-10",
        "left_port": "llangrannog",
        "cause_of_leaving": "vessel lying up at cardigan over winter",
        "sign_with_mark": "n",
        "notes": "blk"
    },
    {
        "id": "vtls004965786_1_12",
        "type": "sailor",
        "parent": "vtls004965786",
        "name": "daniel jones",
        "dob": "1820",
        "age": "blk",
        "place_of_birth": "llangranog",
        "home_address": "blk",
        "f": "blk",
        "name_of_ship": "susanna gwenllian",
        "ship_port": "aberystwyth",
        "date_leaving": "remains",
        "joined_ship_date": "blk",
        "joined_at_port": "blk",
        "capacity": "mate",
        "date_left": "1881-10",
        "left_port": "llangrannog",
        "cause_of_leaving": "vessel lying up at cardigan over winter",
        "sign_with_mark": "n",
        "notes": "blk"
    },
    {
        "id": "vtls004965786_0_13",
        "type": "sailor",
        "parent": "vtls004965786",
        "name": "joseph jenkins",
        "dob": "1855",
        "age": "blk",
        "place_of_birth": "llangranog",
        "home_address": "blk",
        "f": "blk",
        "name_of_ship": "susanna gwenllian",
        "ship_port": "aberystwyth",
        "date_leaving": "1881",
        "joined_ship_date": "1881-01-18",
        "joined_at_port": "cardigan",
        "capacity": "able seaman",
        "date_left": "1881-07-12",
        "left_port": "swansea",
        "cause_of_leaving": "remains on board",
        "sign_with_mark": "n",
        "notes": "blk"
    },
    {
        "id": "vtls004965786_0_11",
        "type": "sailor",
        "parent": "vtls004965786",
        "name": "daniel jenkins",
        "dob": "1856",
        "age": "blk",
        "place_of_birth": "llangranog",
        "home_address": "blk",
        "f": "blk",
        "name_of_ship": "susanna gwenllian",
        "ship_port": "aberystwyth",
        "date_leaving": "1881",
        "joined_ship_date": "1881-01-18",
        "joined_at_port": "cardigan",
        "capacity": "master",
        "date_left": "1881-07-12",
        "left_port": "swansea",
        "cause_of_leaving": "remains on board",
        "sign_with_mark": "n",
        "notes": "blk"
    },
    {
        "id": "vtls004965772_1_11",
        "type": "sailor",
        "parent": "vtls004965772",
        "name": "david jenkins",
        "dob": "blk",
        "age": "30",
        "place_of_birth": "llanon, cardigan",
        "home_address": "blk",
        "f": "blk",
        "name_of_ship": "susanna gwenllian",
        "ship_port": "aberystwyth",
        "date_leaving": "remains",
        "joined_ship_date": "blk",
        "joined_at_port": "blk",
        "capacity": "master",
        "date_left": "1890-10-01",
        "left_port": "cardigan",
        "cause_of_leaving": "vessel laying up",
        "sign_with_mark": "n",
        "notes": "blk"
    },
    {
        "id": "vtls004965786_0_12",
        "type": "sailor",
        "parent": "vtls004965786",
        "name": "daniel jones",
        "dob": "1819",
        "age": "blk",
        "place_of_birth": "llangranog",
        "home_address": "blk",
        "f": "blk",
        "name_of_ship": "susanna gwenllian",
        "ship_port": "aberystwyth",
        "date_leaving": "1881",
        "joined_ship_date": "1881-01-18",
        "joined_at_port": "cardigan",
        "capacity": "mate",
        "date_left": "1881-07-12",
        "left_port": "swansea",
        "cause_of_leaving": "remains on board",
        "sign_with_mark": "n",
        "notes": "blk"
    },
    {
        "id": "vtls004965772_1_13",
        "type": "sailor",
        "parent": "vtls004965772",
        "name": "george lampsher",
        "dob": "blk",
        "age": "18",
        "place_of_birth": "southampton",
        "home_address": "blk",
        "f": "blk",
        "name_of_ship": "working on shore",
        "ship_port": "blk",
        "date_leaving": "blk",
        "joined_ship_date": "blk",
        "joined_at_port": "blk",
        "capacity": "ordinary seaman",
        "date_left": "1890-10-01",
        "left_port": "cardigan",
        "cause_of_leaving": "vessel laying up",
        "sign_with_mark": "n",
        "notes": "blk"
    },
    {
        "id": "vtls004965772_1_12",
        "type": "sailor",
        "parent": "vtls004965772",
        "name": "michael lampsher",
        "dob": "blk",
        "age": "59",
        "place_of_birth": "southampton",
        "home_address": "blk",
        "f": "blk",
        "name_of_ship": "working on shore",
        "ship_port": "blk",
        "date_leaving": "blk",
        "joined_ship_date": "blk",
        "joined_at_port": "blk",
        "capacity": "mate",
        "date_left": "1890-10-01",
        "left_port": "cardigan",
        "cause_of_leaving": "vessel laying up",
        "sign_with_mark": "n",
        "notes": "blk"
    },
    {
        "id": "vtls004965825_1_13",
        "type": "sailor",
        "parent": "vtls004965825",
        "name": "benjamin davies",
        "dob": "blk",
        "age": "21",
        "place_of_birth": "llanon, cardigan",
        "home_address": "blk",
        "f": "blk",
        "name_of_ship": "susanna gwenllian",
        "ship_port": "aberystwyth",
        "date_leaving": "1883-10-13",
        "joined_ship_date": "continued",
        "joined_at_port": "blk",
        "capacity": "cook & able seaman",
        "date_left": "1883-10-13",
        "left_port": "cardigan",
        "cause_of_leaving": "ship lying up",
        "sign_with_mark": "n",
        "notes": "blk"
    },
    {
        "id": "vtls004965825_1_11",
        "type": "sailor",
        "parent": "vtls004965825",
        "name": "david williams",
        "dob": "blk",
        "age": "52",
        "place_of_birth": "llanon, cardigan",
        "home_address": "blk",
        "f": "blk",
        "name_of_ship": "susanna gwenllian",
        "ship_port": "aberystwyth",
        "date_leaving": "1883-10-13",
        "joined_ship_date": "continued",
        "joined_at_port": "blk",
        "capacity": "master",
        "date_left": "1883-10-13",
        "left_port": "cardigan",
        "cause_of_leaving": "ship lying up",
        "sign_with_mark": "n",
        "notes": "blk"
    },
    {
        "id": "vtls004965825_1_12",
        "type": "sailor",
        "parent": "vtls004965825",
        "name": "daniel jones",
        "dob": "blk",
        "age": "65",
        "place_of_birth": "llanon, cardigan",
        "home_address": "blk",
        "f": "blk",
        "name_of_ship": "susanna gwenllian",
        "ship_port": "aberystwyth",
        "date_leaving": "1883-10-13",
        "joined_ship_date": "continued",
        "joined_at_port": "blk",
        "capacity": "mate",
        "date_left": "1883-10-13",
        "left_port": "cardigan",
        "cause_of_leaving": "ship lying up",
        "sign_with_mark": "n",
        "notes": "blk"
    },
    {
        "id": "vtls004965825_0_13",
        "type": "sailor",
        "parent": "vtls004965825",
        "name": "benjamin davis",
        "dob": "1862",
        "age": "blk",
        "place_of_birth": "llanon, cardigan",
        "home_address": "blk",
        "f": "blk",
        "name_of_ship": "susanna gwenllian",
        "ship_port": "aberystwyth",
        "date_leaving": "remains",
        "joined_ship_date": "blk",
        "joined_at_port": "blk",
        "capacity": "able seaman",
        "date_left": "blk",
        "left_port": "blk",
        "cause_of_leaving": "remains on board",
        "sign_with_mark": "n",
        "notes": "blk"
    },
    {
        "id": "vtls004965825_0_11",
        "type": "sailor",
        "parent": "vtls004965825",
        "name": "david williams",
        "dob": "1830",
        "age": "blk",
        "place_of_birth": "newquay",
        "home_address": "blk",
        "f": "blk",
        "name_of_ship": "susanna gwenllian",
        "ship_port": "aberystwyth",
        "date_leaving": "remains",
        "joined_ship_date": "blk",
        "joined_at_port": "blk",
        "capacity": "master",
        "date_left": "blk",
        "left_port": "blk",
        "cause_of_leaving": "remains on board",
        "sign_with_mark": "n",
        "notes": "blk"
    },
    {
        "id": "vtls004965825_0_12",
        "type": "sailor",
        "parent": "vtls004965825",
        "name": "daniel jones",
        "dob": "1822",
        "age": "blk",
        "place_of_birth": "penybryn, cardigan",
        "home_address": "blk",
        "f": "blk",
        "name_of_ship": "susanna gwenllian",
        "ship_port": "aberystwyth",
        "date_leaving": "remains",
        "joined_ship_date": "blk",
        "joined_at_port": "blk",
        "capacity": "mate",
        "date_left": "blk",
        "left_port": "blk",
        "cause_of_leaving": "remains on board",
        "sign_with_mark": "n",
        "notes": "blk"
    },
    {
        "id": "vtls004965835_1_13",
        "type": "sailor",
        "parent": "vtls004965835",
        "name": "john thomas",
        "dob": "1862",
        "age": "blk",
        "place_of_birth": "llangranog",
        "home_address": "blk",
        "f": "blk",
        "name_of_ship": "susanna gwenllian",
        "ship_port": "aberystwyth",
        "date_leaving": "1884",
        "joined_ship_date": "continued",
        "joined_at_port": "blk",
        "capacity": "ordinary seaman",
        "date_left": "1884-10-17",
        "left_port": "cardigan",
        "cause_of_leaving": "discharged",
        "sign_with_mark": "n",
        "notes": "ship laid up at cardigan 1884-10-17"
    },
    {
        "id": "vtls004965835_1_11",
        "type": "sailor",
        "parent": "vtls004965835",
        "name": "daniel rees",
        "dob": "1820",
        "age": "blk",
        "place_of_birth": "llangranog",
        "home_address": "blk",
        "f": "blk",
        "name_of_ship": "susanna gwenllian",
        "ship_port": "aberystwyth",
        "date_leaving": "1884",
        "joined_ship_date": "continued",
        "joined_at_port": "blk",
        "capacity": "master",
        "date_left": "1884-10-17",
        "left_port": "cardigan",
        "cause_of_leaving": "discharged",
        "sign_with_mark": "n",
        "notes": "ship laid up at cardigan 1884-10-17"
    },
    {
        "id": "vtls004965835_1_12",
        "type": "sailor",
        "parent": "vtls004965835",
        "name": "evan jones",
        "dob": "1822",
        "age": "blk",
        "place_of_birth": "llangranog",
        "home_address": "blk",
        "f": "blk",
        "name_of_ship": "susanna gwenllian",
        "ship_port": "aberystwyth",
        "date_leaving": "1884",
        "joined_ship_date": "continued",
        "joined_at_port": "blk",
        "capacity": "mate",
        "date_left": "1884-10-17",
        "left_port": "cardigan",
        "cause_of_leaving": "discharged",
        "sign_with_mark": "n",
        "notes": "ship laid up at cardigan 1884-10-17"
    },
    {
        "id": "vtls004965835_0_13",
        "type": "sailor",
        "parent": "vtls004965835",
        "name": "john thomas",
        "dob": "blk",
        "age": "21",
        "place_of_birth": "cardigan",
        "home_address": "blk",
        "f": "blk",
        "name_of_ship": "susanna gwenllian",
        "ship_port": "aberystwyth",
        "date_leaving": "blk",
        "joined_ship_date": "1884-04-01",
        "joined_at_port": "cardigan",
        "capacity": "able seaman",
        "date_left": "blk",
        "left_port": "blk",
        "cause_of_leaving": "remains on board",
        "sign_with_mark": "n",
        "notes": "blk"
    },
    {
        "id": "vtls004965838_0_12",
        "type": "sailor",
        "parent": "vtls004965838",
        "name": "simon davies",
        "dob": "1861",
        "age": "blk",
        "place_of_birth": "llangranog",
        "home_address": "blk",
        "f": "blk",
        "name_of_ship": "mary ellen",
        "ship_port": "cardigan",
        "date_leaving": "1886",
        "joined_ship_date": "1886-04-06",
        "joined_at_port": "cardigan",
        "capacity": "mate",
        "date_left": "1886-06--20",
        "left_port": "llangrannog",
        "cause_of_leaving": "discharged",
        "sign_with_mark": "n",
        "notes": "blk"
    },
    {
        "id": "vtls004965838_0_11",
        "type": "sailor",
        "parent": "vtls004965838",
        "name": "thomas owen",
        "dob": "1831",
        "age": "blk",
        "place_of_birth": "llangranog",
        "home_address": "blk",
        "f": "blk",
        "name_of_ship": "mary ellen",
        "ship_port": "cardigan",
        "date_leaving": "1886",
        "joined_ship_date": "1886-04-06",
        "joined_at_port": "cardigan",
        "capacity": "master",
        "date_left": "1886-06-20",
        "left_port": "llangrannog",
        "cause_of_leaving": "discharged",
        "sign_with_mark": "n",
        "notes": "blk"
    },
    {
        "id": "vtls004965835_0_11",
        "type": "sailor",
        "parent": "vtls004965835",
        "name": "daniel rees",
        "dob": "blk",
        "age": "63",
        "place_of_birth": "cardigan",
        "home_address": "blk",
        "f": "blk",
        "name_of_ship": "susanna gwenllian",
        "ship_port": "aberystwyth",
        "date_leaving": "blk",
        "joined_ship_date": "1884-04-01",
        "joined_at_port": "cardigan",
        "capacity": "master",
        "date_left": "blk",
        "left_port": "blk",
        "cause_of_leaving": "remains on board",
        "sign_with_mark": "n",
        "notes": "blk"
    },
    {
        "id": "vtls004965835_0_12",
        "type": "sailor",
        "parent": "vtls004965835",
        "name": "evan jones",
        "dob": "blk",
        "age": "61",
        "place_of_birth": "cardigan",
        "home_address": "blk",
        "f": "blk",
        "name_of_ship": "susanna gwenllian",
        "ship_port": "aberystwyth",
        "date_leaving": "blk",
        "joined_ship_date": "1884-04-01",
        "joined_at_port": "cardigan",
        "capacity": "mate",
        "date_left": "blk",
        "left_port": "blk",
        "cause_of_leaving": "remains on board",
        "sign_with_mark": "n",
        "notes": "blk"
    },
    {
        "id": "vtls004965838_1_13",
        "type": "sailor",
        "parent": "vtls004965838",
        "name": "george lampshire",
        "dob": "1864",
        "age": "blk",
        "place_of_birth": "cardigan",
        "home_address": "blk",
        "f": "blk",
        "name_of_ship": "susanna gwenllian",
        "ship_port": "aberystwyth",
        "date_leaving": "1886",
        "joined_ship_date": "1886-05-14",
        "joined_at_port": "llangranog",
        "capacity": "able seaman",
        "date_left": "1886-12-14",
        "left_port": "llangrannog",
        "cause_of_leaving": "discharged",
        "sign_with_mark": "n",
        "notes": "blk"
    },
    {
        "id": "vtls004965838_0_14",
        "type": "sailor",
        "parent": "vtls004965838",
        "name": "daniel rees",
        "dob": "1821",
        "age": "blk",
        "place_of_birth": "cardigan",
        "home_address": "blk",
        "f": "blk",
        "name_of_ship": "susanna gwenllian",
        "ship_port": "aberystwyth",
        "date_leaving": "1885",
        "joined_ship_date": "1886-06-21",
        "joined_at_port": "llangranog",
        "capacity": "master",
        "date_left": "1886-07-15",
        "left_port": "swansea",
        "cause_of_leaving": "remains on board",
        "sign_with_mark": "n",
        "notes": "blk"
    },
    {
        "id": "vtls004964797_0_11",
        "type": "sailor",
        "parent": "vtls004964797",
        "name": "evan lloyd",
        "dob": "blk",
        "age": "38",
        "place_of_birth": "llanon, cardigan",
        "home_address": "llangranog",
        "f": "llangranog",
        "name_of_ship": "susanna gwenllian",
        "ship_port": "aberystwyth",
        "date_leaving": "continued",
        "joined_ship_date": "blk",
        "joined_at_port": "blk",
        "capacity": "master",
        "date_left": "1863-10-02",
        "left_port": "cardigan",
        "cause_of_leaving": "discharged",
        "sign_with_mark": "n",
        "notes": "blk"
    },
    {
        "id": "vtls004965838_0_15",
        "type": "sailor",
        "parent": "vtls004965838",
        "name": "daniel jones",
        "dob": "1818",
        "age": "blk",
        "place_of_birth": "cardigan",
        "home_address": "blk",
        "f": "blk",
        "name_of_ship": "susanna gwenllian",
        "ship_port": "aberystwyth",
        "date_leaving": "1885",
        "joined_ship_date": "1886-06-21",
        "joined_at_port": "llangranog",
        "capacity": "mate",
        "date_left": "1886-07-15",
        "left_port": "swansea",
        "cause_of_leaving": "remains on board",
        "sign_with_mark": "n",
        "notes": "blk"
    },
    {
        "id": "vtls004965838_0_16",
        "type": "sailor",
        "parent": "vtls004965838",
        "name": "george lampshire",
        "dob": "1863",
        "age": "blk",
        "place_of_birth": "cardigan",
        "home_address": "blk",
        "f": "blk",
        "name_of_ship": "mary",
        "ship_port": "aberystwyth",
        "date_leaving": "1882",
        "joined_ship_date": "1886-06-21",
        "joined_at_port": "llangranog",
        "capacity": "able seaman",
        "date_left": "1886-07-15",
        "left_port": "swansea",
        "cause_of_leaving": "remains on board",
        "sign_with_mark": "n",
        "notes": "blk"
    },
    {
        "id": "vtls004965838_1_11",
        "type": "sailor",
        "parent": "vtls004965838",
        "name": "daniel rees",
        "dob": "1821",
        "age": "blk",
        "place_of_birth": "cardigan",
        "home_address": "blk",
        "f": "blk",
        "name_of_ship": "susanna gwenllian",
        "ship_port": "aberystwyth",
        "date_leaving": "1885",
        "joined_ship_date": "1886-05-14",
        "joined_at_port": "llangranog",
        "capacity": "master",
        "date_left": "1886-12-14",
        "left_port": "llangrannog",
        "cause_of_leaving": "discharged",
        "sign_with_mark": "n",
        "notes": "blk"
    },
    {
        "id": "vtls004964797_0_12",
        "type": "sailor",
        "parent": "vtls004964797",
        "name": "john davies",
        "dob": "blk",
        "age": "59",
        "place_of_birth": "llanon, cardigan",
        "home_address": "blk",
        "f": "blk",
        "name_of_ship": "susanna gwenllian",
        "ship_port": "aberystwyth",
        "date_leaving": "continued",
        "joined_ship_date": "blk",
        "joined_at_port": "blk",
        "capacity": "mate",
        "date_left": "1863-10-02",
        "left_port": "cardigan",
        "cause_of_leaving": "discharged",
        "sign_with_mark": "n",
        "notes": "blk"
    },
    {
        "id": "vtls004965838_1_12",
        "type": "sailor",
        "parent": "vtls004965838",
        "name": "david jones",
        "dob": "1818",
        "age": "blk",
        "place_of_birth": "cardigan",
        "home_address": "blk",
        "f": "blk",
        "name_of_ship": "susanna gwenllian",
        "ship_port": "aberystwyth",
        "date_leaving": "1885",
        "joined_ship_date": "1886-05-14",
        "joined_at_port": "llangranog",
        "capacity": "mate",
        "date_left": "1886-12-14",
        "left_port": "llangrannog",
        "cause_of_leaving": "discharged",
        "sign_with_mark": "n",
        "notes": "blk"
    },
    {
        "id": "vtls004965838_0_13",
        "type": "sailor",
        "parent": "vtls004965838",
        "name": "david james",
        "dob": "1841",
        "age": "blk",
        "place_of_birth": "cardigan",
        "home_address": "blk",
        "f": "blk",
        "name_of_ship": "not known",
        "ship_port": "blk",
        "date_leaving": "1886",
        "joined_ship_date": "1886-04-06",
        "joined_at_port": "cardigan",
        "capacity": "able seaman",
        "date_left": "1886-06-20",
        "left_port": "llangrannog",
        "cause_of_leaving": "discharged",
        "sign_with_mark": "n",
        "notes": "blk"
    },
    {
        "id": "vtls004964800_0_13",
        "type": "sailor",
        "parent": "vtls004964800",
        "name": "thomas evans",
        "dob": "blk",
        "age": "15",
        "place_of_birth": "llanon",
        "home_address": "blk",
        "f": "blk",
        "name_of_ship": "susanna gwenllian",
        "ship_port": "aberystwyth",
        "date_leaving": "continued",
        "joined_ship_date": "blk",
        "joined_at_port": "blk",
        "capacity": "ordinary seaman",
        "date_left": "1864-10-10",
        "left_port": "cardigan",
        "cause_of_leaving": "discharged",
        "sign_with_mark": "n",
        "notes": "blk"
    },
    {
        "id": "vtls004964806_0_11",
        "type": "sailor",
        "parent": "vtls004964806",
        "name": "evan lloyd",
        "dob": "blk",
        "age": "41",
        "place_of_birth": "llanon, cardigan",
        "home_address": "llangranog, cardigan",
        "f": "llangranog, cardigan",
        "name_of_ship": "susanna gwenllian",
        "ship_port": "aberystwyth",
        "date_leaving": "continued",
        "joined_ship_date": "blk",
        "joined_at_port": "blk",
        "capacity": "master",
        "date_left": "1866-11-23",
        "left_port": "cardigan",
        "cause_of_leaving": "discharged",
        "sign_with_mark": "n",
        "notes": "blk"
    },
    {
        "id": "vtls004964800_0_11",
        "type": "sailor",
        "parent": "vtls004964800",
        "name": "evan lloyd",
        "dob": "blk",
        "age": "40",
        "place_of_birth": "llanon",
        "home_address": "llangrannog",
        "f": "llangrannog",
        "name_of_ship": "susanna gwenllian",
        "ship_port": "aberystwyth",
        "date_leaving": "continued",
        "joined_ship_date": "blk",
        "joined_at_port": "blk",
        "capacity": "master",
        "date_left": "1864-10-10",
        "left_port": "cardigan",
        "cause_of_leaving": "discharged",
        "sign_with_mark": "n",
        "notes": "blk"
    },
    {
        "id": "vtls004964797_0_13",
        "type": "sailor",
        "parent": "vtls004964797",
        "name": "william edwards",
        "dob": "blk",
        "age": "17",
        "place_of_birth": "st dogmaels",
        "home_address": "blk",
        "f": "blk",
        "name_of_ship": "susanna gwenllian",
        "ship_port": "aberystwyth",
        "date_leaving": "continued",
        "joined_ship_date": "blk",
        "joined_at_port": "blk",
        "capacity": "ordinary seaman",
        "date_left": "1863-10-02",
        "left_port": "cardigan",
        "cause_of_leaving": "discharged",
        "sign_with_mark": "n",
        "notes": "blk"
    },
    {
        "id": "vtls004964800_0_12",
        "type": "sailor",
        "parent": "vtls004964800",
        "name": "john davies",
        "dob": "blk",
        "age": "60",
        "place_of_birth": "llanon",
        "home_address": "blk",
        "f": "blk",
        "name_of_ship": "susanna gwenllian",
        "ship_port": "aberystwyth",
        "date_leaving": "continued",
        "joined_ship_date": "blk",
        "joined_at_port": "blk",
        "capacity": "mate",
        "date_left": "1864-10-10",
        "left_port": "cardigan",
        "cause_of_leaving": "discharged",
        "sign_with_mark": "n",
        "notes": "blk"
    },
    {
        "id": "vtls004964800_0_14",
        "type": "sailor",
        "parent": "vtls004964800",
        "name": "john lewis",
        "dob": "blk",
        "age": "14",
        "place_of_birth": "llanon",
        "home_address": "blk",
        "f": "blk",
        "name_of_ship": "susanna gwenllian",
        "ship_port": "aberystwyth",
        "date_leaving": "continued",
        "joined_ship_date": "blk",
        "joined_at_port": "blk",
        "capacity": "boy",
        "date_left": "1864-10-10",
        "left_port": "cardigan",
        "cause_of_leaving": "discharged",
        "sign_with_mark": "n",
        "notes": "blk"
    },
    {
        "id": "vtls004964806_0_13",
        "type": "sailor",
        "parent": "vtls004964806",
        "name": "david evans",
        "dob": "blk",
        "age": "18",
        "place_of_birth": "llanon, cardigan",
        "home_address": "blk",
        "f": "blk",
        "name_of_ship": "susanna gwenllian",
        "ship_port": "aberystwyth",
        "date_leaving": "1865-11",
        "joined_ship_date": "1866-07-01",
        "joined_at_port": "cardigan",
        "capacity": "ordinary seaman",
        "date_left": "1866-11-23",
        "left_port": "cardigan",
        "cause_of_leaving": "discharged",
        "sign_with_mark": "n",
        "notes": "blk"
    },
    {
        "id": "vtls004964821_1_13",
        "type": "sailor",
        "parent": "vtls004964821",
        "name": "alfred davies",
        "dob": "blk",
        "age": "19",
        "place_of_birth": "llanon, cardigan",
        "home_address": "blk",
        "f": "blk",
        "name_of_ship": "susanna gwenllian",
        "ship_port": "aberystwyth",
        "date_leaving": "continued",
        "joined_ship_date": "blk",
        "joined_at_port": "blk",
        "capacity": "ordinary seaman",
        "date_left": "1867-10-14",
        "left_port": "cardigan",
        "cause_of_leaving": "discharged",
        "sign_with_mark": "n",
        "notes": "blk"
    },
    {
        "id": "vtls004964806_0_12",
        "type": "sailor",
        "parent": "vtls004964806",
        "name": "john davies",
        "dob": "blk",
        "age": "62",
        "place_of_birth": "llanon, cardigan",
        "home_address": "blk",
        "f": "blk",
        "name_of_ship": "susanna gwenllian",
        "ship_port": "aberystwyth",
        "date_leaving": "1865-11",
        "joined_ship_date": "1866-07-01",
        "joined_at_port": "cardigan",
        "capacity": "mate",
        "date_left": "1866-11-23",
        "left_port": "cardigan",
        "cause_of_leaving": "discharged",
        "sign_with_mark": "n",
        "notes": "blk"
    },
    {
        "id": "vtls004964821_1_11",
        "type": "sailor",
        "parent": "vtls004964821",
        "name": "evan lloyd",
        "dob": "blk",
        "age": "42",
        "place_of_birth": "llanon, cardigan",
        "home_address": "llangranog",
        "f": "llangranog",
        "name_of_ship": "susanna gwenllian",
        "ship_port": "aberystwyth",
        "date_leaving": "continued",
        "joined_ship_date": "blk",
        "joined_at_port": "blk",
        "capacity": "master",
        "date_left": "blk",
        "left_port": "blk",
        "cause_of_leaving": "remains on board",
        "sign_with_mark": "n",
        "notes": "blk"
    },
    {
        "id": "vtls004964821_1_12",
        "type": "sailor",
        "parent": "vtls004964821",
        "name": "evan jones",
        "dob": "blk",
        "age": "43",
        "place_of_birth": "llanon, cardigan",
        "home_address": "blk",
        "f": "blk",
        "name_of_ship": "susanna gwenllian",
        "ship_port": "aberystwyth",
        "date_leaving": "continued",
        "joined_ship_date": "blk",
        "joined_at_port": "blk",
        "capacity": "mate",
        "date_left": "1867-10-14",
        "left_port": "cardigan",
        "cause_of_leaving": "discharged",
        "sign_with_mark": "n",
        "notes": "blk"
    },
    {
        "id": "vtls004964821_0_11",
        "type": "sailor",
        "parent": "vtls004964821",
        "name": "evan lloyd",
        "dob": "blk",
        "age": "43",
        "place_of_birth": "llangranog",
        "home_address": "llangranog, cardigan",
        "f": "llangranog, cardigan",
        "name_of_ship": "susanna gwenllian",
        "ship_port": "aberystwyth",
        "date_leaving": "continues",
        "joined_ship_date": "blk",
        "joined_at_port": "blk",
        "capacity": "master",
        "date_left": "blk",
        "left_port": "blk",
        "cause_of_leaving": "remains on board",
        "sign_with_mark": "n",
        "notes": "blk"
    },
    {
        "id": "vtls004964821_0_13",
        "type": "sailor",
        "parent": "vtls004964821",
        "name": "alfred davies",
        "dob": "blk",
        "age": "19",
        "place_of_birth": "cardigan",
        "home_address": "blk",
        "f": "blk",
        "name_of_ship": "sarah",
        "ship_port": "cardigan",
        "date_leaving": "1866-12-20",
        "joined_ship_date": "1867-03-16",
        "joined_at_port": "llangranog",
        "capacity": "able seaman",
        "date_left": "blk",
        "left_port": "blk",
        "cause_of_leaving": "remains on board",
        "sign_with_mark": "n",
        "notes": "blk"
    },
    {
        "id": "vtls004964821_0_14",
        "type": "sailor",
        "parent": "vtls004964821",
        "name": "james jones",
        "dob": "blk",
        "age": "14",
        "place_of_birth": "llangranog",
        "home_address": "blk",
        "f": "blk",
        "name_of_ship": "first ship",
        "ship_port": "blk",
        "date_leaving": "blk",
        "joined_ship_date": "1867-03-16",
        "joined_at_port": "llangranog",
        "capacity": "ordinary seaman",
        "date_left": "blk",
        "left_port": "blk",
        "cause_of_leaving": "remains on board",
        "sign_with_mark": "n",
        "notes": "blk"
    },
    {
        "id": "vtls004964821_0_12",
        "type": "sailor",
        "parent": "vtls004964821",
        "name": "evan jones",
        "dob": "blk",
        "age": "43",
        "place_of_birth": "llangranog",
        "home_address": "blk",
        "f": "blk",
        "name_of_ship": "susanna gwenllian",
        "ship_port": "aberystwyth",
        "date_leaving": "continues",
        "joined_ship_date": "blk",
        "joined_at_port": "blk",
        "capacity": "mate",
        "date_left": "blk",
        "left_port": "blk",
        "cause_of_leaving": "remains on board",
        "sign_with_mark": "n",
        "notes": "blk"
    },
    {
        "id": "vtls004964830_1_13",
        "type": "sailor",
        "parent": "vtls004964830",
        "name": "jenkin jones",
        "dob": "blk",
        "age": "61",
        "place_of_birth": "llanon",
        "home_address": "blk",
        "f": "blk",
        "name_of_ship": "susanna gwenllian",
        "ship_port": "aberystwyth",
        "date_leaving": "continued",
        "joined_ship_date": "blk",
        "joined_at_port": "blk",
        "capacity": "able seaman",
        "date_left": "1874-10-27",
        "left_port": "cardigan",
        "cause_of_leaving": "paid off",
        "sign_with_mark": "n",
        "notes": "blk"
    },
    {
        "id": "vtls004964830_1_11",
        "type": "sailor",
        "parent": "vtls004964830",
        "name": "evan lloyd",
        "dob": "blk",
        "age": "50",
        "place_of_birth": "llanon",
        "home_address": "llangranog",
        "f": "llangranog",
        "name_of_ship": "susanna gwenllian",
        "ship_port": "aberystwyth",
        "date_leaving": "continued",
        "joined_ship_date": "blk",
        "joined_at_port": "blk",
        "capacity": "master",
        "date_left": "blk",
        "left_port": "blk",
        "cause_of_leaving": "remains on board",
        "sign_with_mark": "n",
        "notes": "blk"
    },
    {
        "id": "vtls004964830_0_11",
        "type": "sailor",
        "parent": "vtls004964830",
        "name": "evan lloyd",
        "dob": "blk",
        "age": "49",
        "place_of_birth": "llangranog",
        "home_address": "llangranog",
        "f": "llangranog",
        "name_of_ship": "susanna gwenllian",
        "ship_port": "aberystwyth",
        "date_leaving": "1873-10-20",
        "joined_ship_date": "1874-04-03",
        "joined_at_port": "cardigan",
        "capacity": "master",
        "date_left": "blk",
        "left_port": "blk",
        "cause_of_leaving": "remains on board",
        "sign_with_mark": "n",
        "notes": "blk"
    },
    {
        "id": "vtls004964821_1_14",
        "type": "sailor",
        "parent": "vtls004964821",
        "name": "james jones",
        "dob": "blk",
        "age": "13",
        "place_of_birth": "llanon, cardigan",
        "home_address": "blk",
        "f": "blk",
        "name_of_ship": "susanna gwenllian",
        "ship_port": "aberystwyth",
        "date_leaving": "continued",
        "joined_ship_date": "blk",
        "joined_at_port": "blk",
        "capacity": "cook",
        "date_left": "1867-10-14",
        "left_port": "cardigan",
        "cause_of_leaving": "discharged",
        "sign_with_mark": "n",
        "notes": "blk"
    },
    {
        "id": "vtls004964830_0_13",
        "type": "sailor",
        "parent": "vtls004964830",
        "name": "jenkin jones",
        "dob": "blk",
        "age": "60",
        "place_of_birth": "llangranog",
        "home_address": "blk",
        "f": "blk",
        "name_of_ship": "susanna gwenllian",
        "ship_port": "aberystwyth",
        "date_leaving": "1873-10-20",
        "joined_ship_date": "1874-04-03",
        "joined_at_port": "cardigan",
        "capacity": "seaman",
        "date_left": "blk",
        "left_port": "blk",
        "cause_of_leaving": "remains on board",
        "sign_with_mark": "n",
        "notes": "blk"
    },
    {
        "id": "vtls004964830_1_12",
        "type": "sailor",
        "parent": "vtls004964830",
        "name": "evan jones",
        "dob": "blk",
        "age": "50",
        "place_of_birth": "llanon",
        "home_address": "blk",
        "f": "blk",
        "name_of_ship": "susanna gwenllian",
        "ship_port": "aberystwyth",
        "date_leaving": "continued",
        "joined_ship_date": "blk",
        "joined_at_port": "blk",
        "capacity": "mate",
        "date_left": "1874-10-27",
        "left_port": "cardigan",
        "cause_of_leaving": "paid off",
        "sign_with_mark": "n",
        "notes": "blk"
    },
    {
        "id": "vtls004964830_0_12",
        "type": "sailor",
        "parent": "vtls004964830",
        "name": "evan jones",
        "dob": "blk",
        "age": "49",
        "place_of_birth": "llangranog",
        "home_address": "blk",
        "f": "blk",
        "name_of_ship": "susanna gwenllian",
        "ship_port": "aberystwyth",
        "date_leaving": "1873-10-20",
        "joined_ship_date": "1874-04-03",
        "joined_at_port": "cardigan",
        "capacity": "mate",
        "date_left": "blk",
        "left_port": "blk",
        "cause_of_leaving": "remains on board",
        "sign_with_mark": "n",
        "notes": "blk"
    },
    {
        "id": "vtls004965745_0_11",
        "type": "sailor",
        "parent": "vtls004965745",
        "name": "evan lloyd",
        "dob": "blk",
        "age": "52",
        "place_of_birth": "llanon",
        "home_address": "maescregin, nr. llangranog, cardiganshire",
        "f": "maescregin, nr. llangranog, cardiganshire",
        "name_of_ship": "susanna gwenllian",
        "ship_port": "aberystwyth",
        "date_leaving": "remains",
        "joined_ship_date": "1877-04-05",
        "joined_at_port": "cardigan",
        "capacity": "master",
        "date_left": "blk",
        "left_port": "blk",
        "cause_of_leaving": "remains on board",
        "sign_with_mark": "n",
        "notes": "blk"
    },
    {
        "id": "vtls004965741_1_13",
        "type": "sailor",
        "parent": "vtls004965741",
        "name": "thomas owens",
        "dob": "blk",
        "age": "48",
        "place_of_birth": "llangranog",
        "home_address": "blk",
        "f": "blk",
        "name_of_ship": "susanna gwenllian",
        "ship_port": "aberystwyth",
        "date_leaving": "remaining on guard",
        "joined_ship_date": "blk",
        "joined_at_port": "blk",
        "capacity": "able seaman",
        "date_left": "1876-10-06",
        "left_port": "llangrannog",
        "cause_of_leaving": "vessel laid up",
        "sign_with_mark": "n",
        "notes": "blk"
    },
    {
        "id": "vtls004965741_1_11",
        "type": "sailor",
        "parent": "vtls004965741",
        "name": "evan lloyd",
        "dob": "blk",
        "age": "53",
        "place_of_birth": "llangranog",
        "home_address": "llangranog",
        "f": "llangranog",
        "name_of_ship": "susanna gwenllian",
        "ship_port": "aberystwyth",
        "date_leaving": "remaining on guard",
        "joined_ship_date": "blk",
        "joined_at_port": "blk",
        "capacity": "master",
        "date_left": "1876-10-06",
        "left_port": "llangrannog",
        "cause_of_leaving": "vessel laid up",
        "sign_with_mark": "n",
        "notes": "blk"
    },
    {
        "id": "vtls004965741_0_13",
        "type": "sailor",
        "parent": "vtls004965741",
        "name": "thomas owens",
        "dob": "blk",
        "age": "47",
        "place_of_birth": "llanon",
        "home_address": "blk",
        "f": "blk",
        "name_of_ship": "ellen",
        "ship_port": "aberystwyth",
        "date_leaving": "1875-10",
        "joined_ship_date": "1876-02-21",
        "joined_at_port": "newquay",
        "capacity": "able seaman",
        "date_left": "blk",
        "left_port": "blk",
        "cause_of_leaving": "remains on board",
        "sign_with_mark": "n",
        "notes": "blk"
    },
    {
        "id": "vtls004965741_0_11",
        "type": "sailor",
        "parent": "vtls004965741",
        "name": "evan lloyd",
        "dob": "blk",
        "age": "51",
        "place_of_birth": "llanon",
        "home_address": "llangranog",
        "f": "llangranog",
        "name_of_ship": "susanna gwenllian",
        "ship_port": "aberystwyth",
        "date_leaving": "continued",
        "joined_ship_date": "blk",
        "joined_at_port": "blk",
        "capacity": "master",
        "date_left": "blk",
        "left_port": "blk",
        "cause_of_leaving": "remains on board",
        "sign_with_mark": "n",
        "notes": "blk"
    },
    {
        "id": "vtls004965741_1_12",
        "type": "sailor",
        "parent": "vtls004965741",
        "name": "evan jones",
        "dob": "blk",
        "age": "54",
        "place_of_birth": "llangranog",
        "home_address": "blk",
        "f": "blk",
        "name_of_ship": "susanna gwenllian",
        "ship_port": "aberystwyth",
        "date_leaving": "remaining on guard",
        "joined_ship_date": "blk",
        "joined_at_port": "blk",
        "capacity": "mate",
        "date_left": "1876-10-06",
        "left_port": "llangrannog",
        "cause_of_leaving": "vessel laid up",
        "sign_with_mark": "n",
        "notes": "blk"
    },
    {
        "id": "vtls004965741_0_12",
        "type": "sailor",
        "parent": "vtls004965741",
        "name": "evan jones",
        "dob": "blk",
        "age": "52",
        "place_of_birth": "llanon",
        "home_address": "blk",
        "f": "blk",
        "name_of_ship": "susanna gwenllian",
        "ship_port": "aberystwyth",
        "date_leaving": "continued",
        "joined_ship_date": "blk",
        "joined_at_port": "blk",
        "capacity": "mate",
        "date_left": "blk",
        "left_port": "blk",
        "cause_of_leaving": "remains on board",
        "sign_with_mark": "n",
        "notes": "blk"
    },
    {
        "id": "vtls004965745_1_13",
        "type": "sailor",
        "parent": "vtls004965745",
        "name": "john griffiths",
        "dob": "blk",
        "age": "34",
        "place_of_birth": "llanon",
        "home_address": "blk",
        "f": "blk",
        "name_of_ship": "susanna gwenllian",
        "ship_port": "aberystwyth",
        "date_leaving": "continues",
        "joined_ship_date": "blk",
        "joined_at_port": "blk",
        "capacity": "able seaman",
        "date_left": "1877-10-12",
        "left_port": "cardigan",
        "cause_of_leaving": "vessel laid up",
        "sign_with_mark": "n",
        "notes": "blk"
    },
    {
        "id": "vtls004965745_1_11",
        "type": "sailor",
        "parent": "vtls004965745",
        "name": "evan lloyd",
        "dob": "blk",
        "age": "53",
        "place_of_birth": "llanon",
        "home_address": "llangranog",
        "f": "llangranog",
        "name_of_ship": "susanna gwenllian",
        "ship_port": "aberystwyth",
        "date_leaving": "continues",
        "joined_ship_date": "blk",
        "joined_at_port": "blk",
        "capacity": "master",
        "date_left": "1877-10-12",
        "left_port": "cardigan",
        "cause_of_leaving": "vessel laid up",
        "sign_with_mark": "n",
        "notes": "blk"
    },
    {
        "id": "vtls004965745_0_13",
        "type": "sailor",
        "parent": "vtls004965745",
        "name": "john griffiths",
        "dob": "blk",
        "age": "34",
        "place_of_birth": "llanon",
        "home_address": "blk",
        "f": "blk",
        "name_of_ship": "wilson",
        "ship_port": "whitehaven",
        "date_leaving": "1877-03-19",
        "joined_ship_date": "1877-03-12",
        "joined_at_port": "llangranog",
        "capacity": "able seaman",
        "date_left": "blk",
        "left_port": "blk",
        "cause_of_leaving": "remains on board",
        "sign_with_mark": "n",
        "notes": "blk"
    },
    {
        "id": "vtls004965755_0_13",
        "type": "sailor",
        "parent": "vtls004965755",
        "name": "jenkin jones",
        "dob": "blk",
        "age": "64",
        "place_of_birth": "llanon",
        "home_address": "blk",
        "f": "blk",
        "name_of_ship": "retina",
        "ship_port": "aberystwyth",
        "date_leaving": "1877-11-15",
        "joined_ship_date": "1877-03-20",
        "joined_at_port": "cardigan",
        "capacity": "able seaman",
        "date_left": "blk",
        "left_port": "blk",
        "cause_of_leaving": "remains on board",
        "sign_with_mark": "n",
        "notes": "blk"
    },
    {
        "id": "vtls004965745_1_12",
        "type": "sailor",
        "parent": "vtls004965745",
        "name": "evan jones",
        "dob": "blk",
        "age": "54",
        "place_of_birth": "llanon",
        "home_address": "blk",
        "f": "blk",
        "name_of_ship": "susanna gwenllian",
        "ship_port": "aberystwyth",
        "date_leaving": "continues",
        "joined_ship_date": "blk",
        "joined_at_port": "blk",
        "capacity": "mate",
        "date_left": "1877-10-12",
        "left_port": "cardigan",
        "cause_of_leaving": "vessel laid up",
        "sign_with_mark": "n",
        "notes": "blk"
    },
    {
        "id": "vtls004965745_0_12",
        "type": "sailor",
        "parent": "vtls004965745",
        "name": "evan jones",
        "dob": "blk",
        "age": "53",
        "place_of_birth": "llanon",
        "home_address": "blk",
        "f": "blk",
        "name_of_ship": "susanna gwenllian",
        "ship_port": "aberystwyth",
        "date_leaving": "remains",
        "joined_ship_date": "1877-04-05",
        "joined_at_port": "cardigan",
        "capacity": "mate",
        "date_left": "blk",
        "left_port": "blk",
        "cause_of_leaving": "remains on board",
        "sign_with_mark": "n",
        "notes": "blk"
    },
    {
        "id": "vtls004965755_0_11",
        "type": "sailor",
        "parent": "vtls004965755",
        "name": "evan lloyd",
        "dob": "blk",
        "age": "54",
        "place_of_birth": "llanon",
        "home_address": "blk",
        "f": "blk",
        "name_of_ship": "susanna gwenllian",
        "ship_port": "aberystwyth",
        "date_leaving": "remains",
        "joined_ship_date": "blk",
        "joined_at_port": "blk",
        "capacity": "master",
        "date_left": "blk",
        "left_port": "blk",
        "cause_of_leaving": "remains on board",
        "sign_with_mark": "n",
        "notes": "blk"
    },
    {
        "id": "vtls004965755_0_12",
        "type": "sailor",
        "parent": "vtls004965755",
        "name": "daniel jones",
        "dob": "blk",
        "age": "58",
        "place_of_birth": "llanon",
        "home_address": "blk",
        "f": "blk",
        "name_of_ship": "susanna gwenllian",
        "ship_port": "aberystwyth",
        "date_leaving": "remains",
        "joined_ship_date": "blk",
        "joined_at_port": "blk",
        "capacity": "mate",
        "date_left": "blk",
        "left_port": "blk",
        "cause_of_leaving": "remains on board",
        "sign_with_mark": "n",
        "notes": "blk"
    },
    {
        "id": "vtls004965761_0_13",
        "type": "sailor",
        "parent": "vtls004965761",
        "name": "jenkin jones",
        "dob": "blk",
        "age": "65",
        "place_of_birth": "llanon, cardigan",
        "home_address": "blk",
        "f": "blk",
        "name_of_ship": "susanna gwenllian",
        "ship_port": "aberystwyth",
        "date_leaving": "1878-11-30",
        "joined_ship_date": "1879-03-01",
        "joined_at_port": "cardigan",
        "capacity": "able seaman",
        "date_left": "blk",
        "left_port": "blk",
        "cause_of_leaving": "remains on board",
        "sign_with_mark": "n",
        "notes": "blk"
    },
    {
        "id": "vtls004965761_1_13",
        "type": "sailor",
        "parent": "vtls004965761",
        "name": "jenkin jones",
        "dob": "blk",
        "age": "67",
        "place_of_birth": "llanon, cardigan",
        "home_address": "blk",
        "f": "blk",
        "name_of_ship": "susanna gwenllian",
        "ship_port": "aberystwyth",
        "date_leaving": "continued",
        "joined_ship_date": "blk",
        "joined_at_port": "blk",
        "capacity": "able seaman",
        "date_left": "1879-11-30",
        "left_port": "cardigan",
        "cause_of_leaving": "vessel laid up",
        "sign_with_mark": "n",
        "notes": "blk"
    },
    {
        "id": "vtls004965761_1_11",
        "type": "sailor",
        "parent": "vtls004965761",
        "name": "david jenkins",
        "dob": "blk",
        "age": "29",
        "place_of_birth": "llanon, cardigan",
        "home_address": "blk",
        "f": "blk",
        "name_of_ship": "susanna gwenllian",
        "ship_port": "aberystwyth",
        "date_leaving": "continued",
        "joined_ship_date": "blk",
        "joined_at_port": "blk",
        "capacity": "master",
        "date_left": "1879-11-30",
        "left_port": "cardigan",
        "cause_of_leaving": "vessel laid up",
        "sign_with_mark": "n",
        "notes": "blk"
    },
    {
        "id": "vtls004965761_1_12",
        "type": "sailor",
        "parent": "vtls004965761",
        "name": "david d davies",
        "dob": "blk",
        "age": "22",
        "place_of_birth": "llanon, cardigan",
        "home_address": "blk",
        "f": "blk",
        "name_of_ship": "susanna gwenllian",
        "ship_port": "aberystwyth",
        "date_leaving": "continued",
        "joined_ship_date": "blk",
        "joined_at_port": "blk",
        "capacity": "mate",
        "date_left": "1879-11-30",
        "left_port": "cardigan",
        "cause_of_leaving": "vessel laid up",
        "sign_with_mark": "n",
        "notes": "blk"
    },
    {
        "id": "vtls004965761_0_11",
        "type": "sailor",
        "parent": "vtls004965761",
        "name": "david jenkins",
        "dob": "blk",
        "age": "29",
        "place_of_birth": "llanon, cardigan",
        "home_address": "blk",
        "f": "blk",
        "name_of_ship": "james & mary",
        "ship_port": "cardigan",
        "date_leaving": "1878--10-16",
        "joined_ship_date": "1879-03-01",
        "joined_at_port": "cardigan",
        "capacity": "master",
        "date_left": "blk",
        "left_port": "blk",
        "cause_of_leaving": "remains on board",
        "sign_with_mark": "n",
        "notes": "blk"
    },
    {
        "id": "vtls004965755_1_13",
        "type": "sailor",
        "parent": "vtls004965755",
        "name": "jenkin jones",
        "dob": "blk",
        "age": "65",
        "place_of_birth": "llangranog",
        "home_address": "blk",
        "f": "blk",
        "name_of_ship": "susanna gwenllian",
        "ship_port": "aberystwyth",
        "date_leaving": "remains",
        "joined_ship_date": "blk",
        "joined_at_port": "blk",
        "capacity": "able seaman",
        "date_left": "1878-09-30",
        "left_port": "cardigan",
        "cause_of_leaving": "vessel laying up",
        "sign_with_mark": "n",
        "notes": "blk"
    },
    {
        "id": "vtls004965761_0_12",
        "type": "sailor",
        "parent": "vtls004965761",
        "name": "david d davies",
        "dob": "blk",
        "age": "21",
        "place_of_birth": "llanon, cardigan",
        "home_address": "blk",
        "f": "blk",
        "name_of_ship": "saint george",
        "ship_port": "maryport",
        "date_leaving": "1878-12-12",
        "joined_ship_date": "1879-03-01",
        "joined_at_port": "cardigan",
        "capacity": "mate",
        "date_left": "blk",
        "left_port": "blk",
        "cause_of_leaving": "remains on board",
        "sign_with_mark": "n",
        "notes": "blk"
    },
    {
        "id": "vtls004965755_1_11",
        "type": "sailor",
        "parent": "vtls004965755",
        "name": "evan lloyd",
        "dob": "blk",
        "age": "53",
        "place_of_birth": "llangranog",
        "home_address": "blk",
        "f": "blk",
        "name_of_ship": "susanna gwenllian",
        "ship_port": "aberystwyth",
        "date_leaving": "remains",
        "joined_ship_date": "blk",
        "joined_at_port": "blk",
        "capacity": "master",
        "date_left": "1878-09-30",
        "left_port": "cardigan",
        "cause_of_leaving": "vessel laying up",
        "sign_with_mark": "n",
        "notes": "blk"
    },
    {
        "id": "vtls004965755_1_12",
        "type": "sailor",
        "parent": "vtls004965755",
        "name": "daniel jones",
        "dob": "blk",
        "age": "58",
        "place_of_birth": "penbryn",
        "home_address": "blk",
        "f": "blk",
        "name_of_ship": "susanna gwenllian",
        "ship_port": "aberystwyth",
        "date_leaving": "remains",
        "joined_ship_date": "blk",
        "joined_at_port": "blk",
        "capacity": "mate",
        "date_left": "1878-09-30",
        "left_port": "cardigan",
        "cause_of_leaving": "vessel laying up",
        "sign_with_mark": "n",
        "notes": "blk"
    }
]