[
    {
        "id": "vtls004661732_0_12",
        "type": "sailor",
        "parent": "vtls004661732",
        "name": "thomas jenkins",
        "dob": "blk",
        "age": "20",
        "place_of_birth": "aberdovey",
        "home_address": "blk",
        "f": "blk",
        "name_of_ship": "favourite",
        "ship_port": "aberystwyth",
        "date_leaving": "blk",
        "joined_ship_date": "1867-01-01",
        "joined_at_port": "aberdovey",
        "capacity": "mate",
        "date_left": "1867-06-26",
        "left_port": "aberdovey",
        "cause_of_leaving": "discharged",
        "sign_with_mark": "n",
        "notes": "blk"
    },
    {
        "id": "vtls004661732_0_11",
        "type": "sailor",
        "parent": "vtls004661732",
        "name": "richard jenkins",
        "dob": "blk",
        "age": "46",
        "place_of_birth": "borth, cardigan",
        "home_address": "blk",
        "f": "blk",
        "name_of_ship": "favourite",
        "ship_port": "aberystwyth",
        "date_leaving": "blk",
        "joined_ship_date": "1860-03-20",
        "joined_at_port": "aberdovey",
        "capacity": "master",
        "date_left": "blk",
        "left_port": "blk",
        "cause_of_leaving": "remains on board",
        "sign_with_mark": "n",
        "notes": "blk"
    },
    {
        "id": "vtls004661732_1_11",
        "type": "sailor",
        "parent": "vtls004661732",
        "name": "richard jenkins",
        "dob": "blk",
        "age": "46",
        "place_of_birth": "borth, cardigan",
        "home_address": "blk",
        "f": "blk",
        "name_of_ship": "favourite",
        "ship_port": "aberystwyth",
        "date_leaving": "blk",
        "joined_ship_date": "1860",
        "joined_at_port": "aberystwyth",
        "capacity": "master",
        "date_left": "1867-10-21",
        "left_port": "belfast",
        "cause_of_leaving": "discharged",
        "sign_with_mark": "n",
        "notes": "crew discharged - vessel lost near belfast whilst on a voyage to glasgow"
    },
    {
        "id": "vtls004661732_1_12",
        "type": "sailor",
        "parent": "vtls004661732",
        "name": "ellis jones",
        "dob": "blk",
        "age": "46",
        "place_of_birth": "borth, cardigan",
        "home_address": "blk",
        "f": "blk",
        "name_of_ship": "sarah davies",
        "ship_port": "aberystwyth",
        "date_leaving": "blk",
        "joined_ship_date": "1867-07-02",
        "joined_at_port": "aberdovey",
        "capacity": "mate",
        "date_left": "1867-10-21",
        "left_port": "belfast",
        "cause_of_leaving": "discharged",
        "sign_with_mark": "n",
        "notes": "crew discharged - vessel lost"
    },
    {
        "id": "vtls004661732_0_13",
        "type": "sailor",
        "parent": "vtls004661732",
        "name": "morgan morgans",
        "dob": "blk",
        "age": "15",
        "place_of_birth": "borth, cardigan",
        "home_address": "blk",
        "f": "blk",
        "name_of_ship": "jane sophia",
        "ship_port": "aberystwyth",
        "date_leaving": "1866-11-26",
        "joined_ship_date": "1867-01-15",
        "joined_at_port": "aberdovey",
        "capacity": "boy",
        "date_left": "1867-06-20",
        "left_port": "aberdovey",
        "cause_of_leaving": "discharged",
        "sign_with_mark": "n",
        "notes": "blk"
    },
    {
        "id": "vtls004661732_1_13",
        "type": "sailor",
        "parent": "vtls004661732",
        "name": "thomas obrey",
        "dob": "blk",
        "age": "26",
        "place_of_birth": "cardiff",
        "home_address": "blk",
        "f": "blk",
        "name_of_ship": "first vessel",
        "ship_port": "blk",
        "date_leaving": "blk",
        "joined_ship_date": "1867-10-02",
        "joined_at_port": "aberdovey",
        "capacity": "boy",
        "date_left": "1867-10-21",
        "left_port": "belfast",
        "cause_of_leaving": "discharged",
        "sign_with_mark": "n",
        "notes": "crew discharged - vessel lost"
    }
]