[
    {
        "id": "vtls004918028_0_14",
        "type": "sailor",
        "parent": "vtls004918028",
        "name": "thomas edwards",
        "dob": "blk",
        "age": "27",
        "place_of_birth": "caernarfon",
        "home_address": "blk",
        "f": "blk",
        "name_of_ship": "margaret evans",
        "ship_port": "aberystwyth",
        "date_leaving": "1862-12-30",
        "joined_ship_date": "1863-01-01",
        "joined_at_port": "newport",
        "capacity": "ordinary seaman",
        "date_left": "1863-04-25",
        "left_port": "runcorn",
        "cause_of_leaving": "discharged",
        "sign_with_mark": "n",
        "notes": "blk"
    },
    {
        "id": "vtls004918028_0_11",
        "type": "sailor",
        "parent": "vtls004918028",
        "name": "william james",
        "dob": "blk",
        "age": "21",
        "place_of_birth": "aberystwyth",
        "home_address": "blk",
        "f": "blk",
        "name_of_ship": "margaret evans",
        "ship_port": "aberystwyth",
        "date_leaving": "continued",
        "joined_ship_date": "1905-02-02",
        "joined_at_port": "aberystwyth",
        "capacity": "master",
        "date_left": "1863-07-04",
        "left_port": "swansea",
        "cause_of_leaving": "remains on board",
        "sign_with_mark": "n",
        "notes": "blk"
    },
    {
        "id": "vtls004918028_0_12",
        "type": "sailor",
        "parent": "vtls004918028",
        "name": "evan jenkin",
        "dob": "blk",
        "age": "30",
        "place_of_birth": "aberystwyth",
        "home_address": "blk",
        "f": "blk",
        "name_of_ship": "mary botwood",
        "ship_port": "aberystwyth",
        "date_leaving": "1863-01-02",
        "joined_ship_date": "1863-01-04",
        "joined_at_port": "newport",
        "capacity": "mate",
        "date_left": "1863-07-04",
        "left_port": "swansea",
        "cause_of_leaving": "remains on board",
        "sign_with_mark": "n",
        "notes": "blk"
    },
    {
        "id": "vtls004918028_0_17",
        "type": "sailor",
        "parent": "vtls004918028",
        "name": "henry smith",
        "dob": "blk",
        "age": "22",
        "place_of_birth": "yorkshire",
        "home_address": "blk",
        "f": "blk",
        "name_of_ship": "[clio]",
        "ship_port": "padstow",
        "date_leaving": "1863-04-25",
        "joined_ship_date": "1863-04-26",
        "joined_at_port": "runcorn",
        "capacity": "able seaman",
        "date_left": "1863-07-04",
        "left_port": "swansea",
        "cause_of_leaving": "remains on board",
        "sign_with_mark": "n",
        "notes": "blk"
    },
    {
        "id": "vtls004918028_0_13",
        "type": "sailor",
        "parent": "vtls004918028",
        "name": "william dagerty",
        "dob": "blk",
        "age": "19",
        "place_of_birth": "dublin",
        "home_address": "blk",
        "f": "blk",
        "name_of_ship": "[diadem]",
        "ship_port": "whitehaven",
        "date_leaving": "1862-12",
        "joined_ship_date": "1863-01-02",
        "joined_at_port": "newport",
        "capacity": "able seaman",
        "date_left": "1863-02-23",
        "left_port": "dublin",
        "cause_of_leaving": "discharged",
        "sign_with_mark": "n",
        "notes": "blk"
    },
    {
        "id": "vtls004918028_0_16",
        "type": "sailor",
        "parent": "vtls004918028",
        "name": "george smith",
        "dob": "blk",
        "age": "19",
        "place_of_birth": "yorkshire",
        "home_address": "blk",
        "f": "blk",
        "name_of_ship": "eliza",
        "ship_port": "goole",
        "date_leaving": "1863-02-02",
        "joined_ship_date": "1863-02-24",
        "joined_at_port": "dublin",
        "capacity": "able seaman",
        "date_left": "1863-07-04",
        "left_port": "swansea",
        "cause_of_leaving": "remains on board",
        "sign_with_mark": "n",
        "notes": "blk"
    },
    {
        "id": "vtls004918028_0_15",
        "type": "sailor",
        "parent": "vtls004918028",
        "name": "james jes$$$",
        "dob": "blk",
        "age": "14",
        "place_of_birth": "newport",
        "home_address": "blk",
        "f": "blk",
        "name_of_ship": "first ship",
        "ship_port": "blk",
        "date_leaving": "blk",
        "joined_ship_date": "1863-01-01",
        "joined_at_port": "newport",
        "capacity": "boy",
        "date_left": "1863-07-04",
        "left_port": "swansea",
        "cause_of_leaving": "remains on board",
        "sign_with_mark": "n",
        "notes": "blk"
    },
    {
        "id": "vtls004918035_0_14",
        "type": "sailor",
        "parent": "vtls004918035",
        "name": "george blackwall",
        "dob": "blk",
        "age": "27",
        "place_of_birth": "aberystwyth",
        "home_address": "blk",
        "f": "blk",
        "name_of_ship": "margaret evans",
        "ship_port": "aberystwyth",
        "date_leaving": "1864-01-08",
        "joined_ship_date": "1864-05-15",
        "joined_at_port": "aberystwyth",
        "capacity": "ordinary seaman",
        "date_left": "blk",
        "left_port": "blk",
        "cause_of_leaving": "remains on board",
        "sign_with_mark": "n",
        "notes": "blk"
    },
    {
        "id": "vtls004918035_0_13",
        "type": "sailor",
        "parent": "vtls004918035",
        "name": "john reese",
        "dob": "blk",
        "age": "23",
        "place_of_birth": "aberystwyth",
        "home_address": "blk",
        "f": "blk",
        "name_of_ship": "pacific",
        "ship_port": "newquay",
        "date_leaving": "1862-01-06",
        "joined_ship_date": "1864-05-15",
        "joined_at_port": "aberystwyth",
        "capacity": "ordinary seaman",
        "date_left": "blk",
        "left_port": "blk",
        "cause_of_leaving": "remains on board",
        "sign_with_mark": "n",
        "notes": "blk"
    },
    {
        "id": "vtls004918035_0_12",
        "type": "sailor",
        "parent": "vtls004918035",
        "name": "evan jenkins",
        "dob": "blk",
        "age": "32",
        "place_of_birth": "aberystwyth",
        "home_address": "blk",
        "f": "blk",
        "name_of_ship": "margaret jane",
        "ship_port": "aberystwyth",
        "date_leaving": "1864-04-10",
        "joined_ship_date": "1864-05-18",
        "joined_at_port": "aberystwyth",
        "capacity": "mate",
        "date_left": "blk",
        "left_port": "blk",
        "cause_of_leaving": "remains on board",
        "sign_with_mark": "n",
        "notes": "blk"
    },
    {
        "id": "vtls004918035_0_11",
        "type": "sailor",
        "parent": "vtls004918035",
        "name": "william james",
        "dob": "blk",
        "age": "22",
        "place_of_birth": "aberystwyth",
        "home_address": "blk",
        "f": "blk",
        "name_of_ship": "margaret evans",
        "ship_port": "aberystwyth",
        "date_leaving": "blk",
        "joined_ship_date": "remains",
        "joined_at_port": "blk",
        "capacity": "master",
        "date_left": "blk",
        "left_port": "blk",
        "cause_of_leaving": "remains on board",
        "sign_with_mark": "n",
        "notes": "blk"
    },
    {
        "id": "vtls004918028_1_13",
        "type": "sailor",
        "parent": "vtls004918028",
        "name": "william brown",
        "dob": "blk",
        "age": "19",
        "place_of_birth": "swansea",
        "home_address": "blk",
        "f": "blk",
        "name_of_ship": "margaret evans",
        "ship_port": "aberystwyth",
        "date_leaving": "remains",
        "joined_ship_date": "blk",
        "joined_at_port": "blk",
        "capacity": "seaman",
        "date_left": "1863-12-31",
        "left_port": "aberystwyth",
        "cause_of_leaving": "discharged",
        "sign_with_mark": "n",
        "notes": "blk"
    },
    {
        "id": "vtls004918028_1_14",
        "type": "sailor",
        "parent": "vtls004918028",
        "name": "william butel",
        "dob": "blk",
        "age": "18",
        "place_of_birth": "swansea",
        "home_address": "blk",
        "f": "blk",
        "name_of_ship": "margaret evans",
        "ship_port": "aberystwyth",
        "date_leaving": "remains",
        "joined_ship_date": "blk",
        "joined_at_port": "blk",
        "capacity": "seaman",
        "date_left": "1863-12-31",
        "left_port": "aberystwyth",
        "cause_of_leaving": "discharged",
        "sign_with_mark": "n",
        "notes": "blk"
    },
    {
        "id": "vtls004918028_1_12",
        "type": "sailor",
        "parent": "vtls004918028",
        "name": "evan jenkin",
        "dob": "blk",
        "age": "30",
        "place_of_birth": "aberystwyth",
        "home_address": "blk",
        "f": "blk",
        "name_of_ship": "margaret evans",
        "ship_port": "aberystwyth",
        "date_leaving": "remains",
        "joined_ship_date": "blk",
        "joined_at_port": "blk",
        "capacity": "mate",
        "date_left": "1863-12-31",
        "left_port": "aberystwyth",
        "cause_of_leaving": "discharged",
        "sign_with_mark": "n",
        "notes": "blk"
    },
    {
        "id": "vtls004918028_1_15",
        "type": "sailor",
        "parent": "vtls004918028",
        "name": "james gorman",
        "dob": "blk",
        "age": "14",
        "place_of_birth": "newport",
        "home_address": "blk",
        "f": "blk",
        "name_of_ship": "margaret evans",
        "ship_port": "aberystwyth",
        "date_leaving": "remains",
        "joined_ship_date": "blk",
        "joined_at_port": "blk",
        "capacity": "boy",
        "date_left": "1863-12-31",
        "left_port": "aberystwyth",
        "cause_of_leaving": "discharged",
        "sign_with_mark": "n",
        "notes": "blk"
    },
    {
        "id": "vtls004918028_1_11",
        "type": "sailor",
        "parent": "vtls004918028",
        "name": "william james",
        "dob": "blk",
        "age": "22",
        "place_of_birth": "aberystwyth",
        "home_address": "blk",
        "f": "blk",
        "name_of_ship": "margaret evans",
        "ship_port": "aberystwyth",
        "date_leaving": "remains",
        "joined_ship_date": "blk",
        "joined_at_port": "blk",
        "capacity": "master",
        "date_left": "blk",
        "left_port": "blk",
        "cause_of_leaving": "remains on board",
        "sign_with_mark": "n",
        "notes": "blk"
    },
    {
        "id": "vtls004918035_1_11",
        "type": "sailor",
        "parent": "vtls004918035",
        "name": "william james",
        "dob": "blk",
        "age": "22",
        "place_of_birth": "aberystwyth",
        "home_address": "blk",
        "f": "blk",
        "name_of_ship": "margaret evans",
        "ship_port": "aberystwyth",
        "date_leaving": "continued",
        "joined_ship_date": "continued",
        "joined_at_port": "blk",
        "capacity": "master",
        "date_left": "blk",
        "left_port": "blk",
        "cause_of_leaving": "remains on board",
        "sign_with_mark": "n",
        "notes": "account for july - dec 1864"
    },
    {
        "id": "vtls004918035_0_15",
        "type": "sailor",
        "parent": "vtls004918035",
        "name": "thomas jenkins",
        "dob": "blk",
        "age": "15",
        "place_of_birth": "aberystwyth",
        "home_address": "blk",
        "f": "blk",
        "name_of_ship": "margaret evans",
        "ship_port": "aberystwyth",
        "date_leaving": "1864-01-08",
        "joined_ship_date": "1864-05-15",
        "joined_at_port": "aberystwyth",
        "capacity": "boy",
        "date_left": "blk",
        "left_port": "blk",
        "cause_of_leaving": "remains on board",
        "sign_with_mark": "n",
        "notes": "blk"
    },
    {
        "id": "vtls004918035_1_14",
        "type": "sailor",
        "parent": "vtls004918035",
        "name": "john davies",
        "dob": "blk",
        "age": "18",
        "place_of_birth": "cardigan",
        "home_address": "blk",
        "f": "blk",
        "name_of_ship": "margaret evans",
        "ship_port": "aberystwyth",
        "date_leaving": "continued",
        "joined_ship_date": "continued",
        "joined_at_port": "blk",
        "capacity": "ordinary seaman",
        "date_left": "blk",
        "left_port": "blk",
        "cause_of_leaving": "remains on board",
        "sign_with_mark": "n",
        "notes": "blk"
    },
    {
        "id": "vtls004918035_1_13",
        "type": "sailor",
        "parent": "vtls004918035",
        "name": "john reso",
        "dob": "blk",
        "age": "21",
        "place_of_birth": "cardigan",
        "home_address": "blk",
        "f": "blk",
        "name_of_ship": "margaret evans",
        "ship_port": "aberystwyth",
        "date_leaving": "continued",
        "joined_ship_date": "continued",
        "joined_at_port": "blk",
        "capacity": "able seaman",
        "date_left": "blk",
        "left_port": "blk",
        "cause_of_leaving": "remains on board",
        "sign_with_mark": "n",
        "notes": "blk"
    },
    {
        "id": "vtls004918035_1_15",
        "type": "sailor",
        "parent": "vtls004918035",
        "name": "thomas jenkins",
        "dob": "blk",
        "age": "15",
        "place_of_birth": "aberystwyth",
        "home_address": "blk",
        "f": "blk",
        "name_of_ship": "margaret evans",
        "ship_port": "aberystwyth",
        "date_leaving": "continued",
        "joined_ship_date": "continued",
        "joined_at_port": "blk",
        "capacity": "boy",
        "date_left": "blk",
        "left_port": "blk",
        "cause_of_leaving": "remains on board",
        "sign_with_mark": "n",
        "notes": "blk"
    },
    {
        "id": "vtls004918035_1_12",
        "type": "sailor",
        "parent": "vtls004918035",
        "name": "evan jenkins",
        "dob": "blk",
        "age": "32",
        "place_of_birth": "aberystwyth",
        "home_address": "blk",
        "f": "blk",
        "name_of_ship": "margaret evans",
        "ship_port": "aberystwyth",
        "date_leaving": "continued",
        "joined_ship_date": "continued",
        "joined_at_port": "blk",
        "capacity": "mate",
        "date_left": "blk",
        "left_port": "blk",
        "cause_of_leaving": "remains on board",
        "sign_with_mark": "n",
        "notes": "blk"
    }
]