[
    {
        "id": "vtls004599624_0_13",
        "type": "sailor",
        "parent": "vtls004599624",
        "name": "evan evans",
        "dob": "blk",
        "age": "20",
        "place_of_birth": "st dogmaels",
        "home_address": "blk",
        "f": "blk",
        "name_of_ship": "alice",
        "ship_port": "aberystwyth",
        "date_leaving": "remained on board",
        "joined_ship_date": "1876-01-01",
        "joined_at_port": "lydney",
        "capacity": "able seaman",
        "date_left": "remained",
        "left_port": "blk",
        "cause_of_leaving": "remain on board",
        "sign_with_mark": "n",
        "notes": "blk"
    },
    {
        "id": "vtls004599624_0_12",
        "type": "sailor",
        "parent": "vtls004599624",
        "name": "thomas e lewis",
        "dob": "blk",
        "age": "21",
        "place_of_birth": "aberystwyth",
        "home_address": "blk",
        "f": "blk",
        "name_of_ship": "alice",
        "ship_port": "aberystwyth",
        "date_leaving": "remained on board",
        "joined_ship_date": "1876-01-01",
        "joined_at_port": "lydney",
        "capacity": "mate",
        "date_left": "remained",
        "left_port": "blk",
        "cause_of_leaving": "remain on board",
        "sign_with_mark": "n",
        "notes": "blk"
    },
    {
        "id": "vtls004599624_0_11",
        "type": "sailor",
        "parent": "vtls004599624",
        "name": "john lewis",
        "dob": "blk",
        "age": "59",
        "place_of_birth": "aberystwyth",
        "home_address": "blk",
        "f": "blk",
        "name_of_ship": "alice",
        "ship_port": "aberystwyth",
        "date_leaving": "remained on board",
        "joined_ship_date": "1876-01-01",
        "joined_at_port": "lydney",
        "capacity": "master",
        "date_left": "remained",
        "left_port": "blk",
        "cause_of_leaving": "remain on board",
        "sign_with_mark": "n",
        "notes": "blk"
    },
    {
        "id": "vtls004599624_2_13",
        "type": "sailor",
        "parent": "vtls004599624",
        "name": "john lewis",
        "dob": "blk",
        "age": "21",
        "place_of_birth": "aberystwyth",
        "home_address": "blk",
        "f": "blk",
        "name_of_ship": "alice",
        "ship_port": "aberystwyth",
        "date_leaving": "remained on board",
        "joined_ship_date": "1876-07-01",
        "joined_at_port": "runcorn",
        "capacity": "able seaman",
        "date_left": "remains on board",
        "left_port": "blk",
        "cause_of_leaving": "remains on board",
        "sign_with_mark": "n",
        "notes": "blk"
    },
    {
        "id": "vtls004599624_2_12",
        "type": "sailor",
        "parent": "vtls004599624",
        "name": "thomas e lewis",
        "dob": "blk",
        "age": "23",
        "place_of_birth": "aberystwyth",
        "home_address": "blk",
        "f": "blk",
        "name_of_ship": "alice",
        "ship_port": "aberystwyth",
        "date_leaving": "remained on board",
        "joined_ship_date": "1876-07-01",
        "joined_at_port": "runcorn",
        "capacity": "mate",
        "date_left": "remains on board",
        "left_port": "blk",
        "cause_of_leaving": "remains on board",
        "sign_with_mark": "n",
        "notes": "blk"
    },
    {
        "id": "vtls004599624_2_11",
        "type": "sailor",
        "parent": "vtls004599624",
        "name": "john lewis",
        "dob": "blk",
        "age": "60",
        "place_of_birth": "aberystwyth",
        "home_address": "blk",
        "f": "blk",
        "name_of_ship": "alice",
        "ship_port": "aberystwyth",
        "date_leaving": "remained on board",
        "joined_ship_date": "1876-07-01",
        "joined_at_port": "runcorn",
        "capacity": "master",
        "date_left": "remains on board",
        "left_port": "blk",
        "cause_of_leaving": "remains on board",
        "sign_with_mark": "n",
        "notes": "blk"
    },
    {
        "id": "vtls004599624_1_13",
        "type": "sailor",
        "parent": "vtls004599624",
        "name": "evan evans",
        "dob": "blk",
        "age": "20",
        "place_of_birth": "st dogmaels",
        "home_address": "blk",
        "f": "blk",
        "name_of_ship": "morcambe belle",
        "ship_port": "barrow",
        "date_leaving": "1876",
        "joined_ship_date": "1876-04-24",
        "joined_at_port": "swansea",
        "capacity": "ordinary seaman",
        "date_left": "remains",
        "left_port": "blk",
        "cause_of_leaving": "remains on board",
        "sign_with_mark": "n",
        "notes": "blk"
    },
    {
        "id": "vtls004599624_1_12",
        "type": "sailor",
        "parent": "vtls004599624",
        "name": "thomas e lewis",
        "dob": "blk",
        "age": "22",
        "place_of_birth": "aberystwyth",
        "home_address": "blk",
        "f": "blk",
        "name_of_ship": "same ship",
        "ship_port": "aberystwyth",
        "date_leaving": "blk",
        "joined_ship_date": "1876-04-24",
        "joined_at_port": "swansea",
        "capacity": "mate",
        "date_left": "remains",
        "left_port": "blk",
        "cause_of_leaving": "remains on board",
        "sign_with_mark": "n",
        "notes": "blk"
    },
    {
        "id": "vtls004599624_0_14",
        "type": "sailor",
        "parent": "vtls004599624",
        "name": "wiliam edwards",
        "dob": "blk",
        "age": "15",
        "place_of_birth": "cardigan",
        "home_address": "blk",
        "f": "blk",
        "name_of_ship": "coquet",
        "ship_port": "london",
        "date_leaving": "remain on board",
        "joined_ship_date": "1876-01-01",
        "joined_at_port": "lydney",
        "capacity": "boy",
        "date_left": "remained",
        "left_port": "blk",
        "cause_of_leaving": "remain on board",
        "sign_with_mark": "n",
        "notes": "blk"
    },
    {
        "id": "vtls004599624_1_11",
        "type": "sailor",
        "parent": "vtls004599624",
        "name": "john lewis",
        "dob": "blk",
        "age": "59",
        "place_of_birth": "aberystwyth",
        "home_address": "blk",
        "f": "blk",
        "name_of_ship": "same ship",
        "ship_port": "aberystwyth",
        "date_leaving": "blk",
        "joined_ship_date": "1876-04-24",
        "joined_at_port": "swansea",
        "capacity": "master",
        "date_left": "remains",
        "left_port": "blk",
        "cause_of_leaving": "remains on board",
        "sign_with_mark": "n",
        "notes": "blk"
    },
    {
        "id": "vtls004599624_1_14",
        "type": "sailor",
        "parent": "vtls004599624",
        "name": "wiliam edwards",
        "dob": "blk",
        "age": "15",
        "place_of_birth": "st dogmaels",
        "home_address": "blk",
        "f": "blk",
        "name_of_ship": "coquet",
        "ship_port": "london",
        "date_leaving": "1876",
        "joined_ship_date": "1876-04-24",
        "joined_at_port": "swansea",
        "capacity": "boy",
        "date_left": "remains",
        "left_port": "blk",
        "cause_of_leaving": "remains on board",
        "sign_with_mark": "n",
        "notes": "blk"
    },
    {
        "id": "vtls004599659_0_13",
        "type": "sailor",
        "parent": "vtls004599659",
        "name": "john james",
        "dob": "blk",
        "age": "17",
        "place_of_birth": "aberystwyth",
        "home_address": "blk",
        "f": "blk",
        "name_of_ship": "alice",
        "ship_port": "aberystwyth",
        "date_leaving": "1876-12-31",
        "joined_ship_date": "1877-01-01",
        "joined_at_port": "waterford",
        "capacity": "ordinary seaman",
        "date_left": "1877-06-30",
        "left_port": "liverpool",
        "cause_of_leaving": "discharged",
        "sign_with_mark": "n",
        "notes": "did not appear on crew list of previous voyage 27-10-3"
    },
    {
        "id": "vtls004599659_0_11",
        "type": "sailor",
        "parent": "vtls004599659",
        "name": "thomas e lewis",
        "dob": "blk",
        "age": "24",
        "place_of_birth": "aberystwyth",
        "home_address": "blk",
        "f": "blk",
        "name_of_ship": "alice",
        "ship_port": "aberystwyth",
        "date_leaving": "1876-12-31",
        "joined_ship_date": "1877-01-01",
        "joined_at_port": "waterford",
        "capacity": "master",
        "date_left": "1877-06-30",
        "left_port": "liverpool",
        "cause_of_leaving": "remains on board",
        "sign_with_mark": "n",
        "notes": "blk"
    },
    {
        "id": "vtls004599659_1_13",
        "type": "sailor",
        "parent": "vtls004599659",
        "name": "john james",
        "dob": "blk",
        "age": "18",
        "place_of_birth": "aberystwyth",
        "home_address": "blk",
        "f": "blk",
        "name_of_ship": "same ship",
        "ship_port": "aberystwyth",
        "date_leaving": "continued",
        "joined_ship_date": "blk",
        "joined_at_port": "blk",
        "capacity": "able seaman",
        "date_left": "remains on board",
        "left_port": "blk",
        "cause_of_leaving": "remains on board",
        "sign_with_mark": "n",
        "notes": "blk"
    },
    {
        "id": "vtls004599659_0_12",
        "type": "sailor",
        "parent": "vtls004599659",
        "name": "thomas price",
        "dob": "blk",
        "age": "32",
        "place_of_birth": "borth",
        "home_address": "blk",
        "f": "blk",
        "name_of_ship": "alice",
        "ship_port": "aberystwyth",
        "date_leaving": "1876-12-31",
        "joined_ship_date": "1877-01-01",
        "joined_at_port": "waterford",
        "capacity": "mate",
        "date_left": "1877-06-30",
        "left_port": "liverpool",
        "cause_of_leaving": "discharged",
        "sign_with_mark": "n",
        "notes": "blk"
    },
    {
        "id": "vtls004599659_1_11",
        "type": "sailor",
        "parent": "vtls004599659",
        "name": "thomas e lewis",
        "dob": "blk",
        "age": "23",
        "place_of_birth": "aberystwyth",
        "home_address": "blk",
        "f": "blk",
        "name_of_ship": "same ship",
        "ship_port": "aberystwyth",
        "date_leaving": "continued",
        "joined_ship_date": "blk",
        "joined_at_port": "blk",
        "capacity": "master",
        "date_left": "remains on board",
        "left_port": "blk",
        "cause_of_leaving": "remains on board",
        "sign_with_mark": "n",
        "notes": "blk"
    },
    {
        "id": "vtls004599667_0_11",
        "type": "sailor",
        "parent": "vtls004599667",
        "name": "thomas e lewis",
        "dob": "blk",
        "age": "23",
        "place_of_birth": "aberystwyth",
        "home_address": "blk",
        "f": "blk",
        "name_of_ship": "same ship",
        "ship_port": "aberystwyth",
        "date_leaving": "continues",
        "joined_ship_date": "blk",
        "joined_at_port": "blk",
        "capacity": "master",
        "date_left": "remains on board",
        "left_port": "blk",
        "cause_of_leaving": "remains on board",
        "sign_with_mark": "n",
        "notes": "blk"
    },
    {
        "id": "vtls004599659_1_12",
        "type": "sailor",
        "parent": "vtls004599659",
        "name": "william jenkins",
        "dob": "blk",
        "age": "38",
        "place_of_birth": "aberystwyth",
        "home_address": "blk",
        "f": "blk",
        "name_of_ship": "same ship",
        "ship_port": "aberystwyth",
        "date_leaving": "continued",
        "joined_ship_date": "blk",
        "joined_at_port": "blk",
        "capacity": "mate",
        "date_left": "remains on board",
        "left_port": "blk",
        "cause_of_leaving": "remains on board",
        "sign_with_mark": "n",
        "notes": "blk"
    },
    {
        "id": "vtls004599659_1_14",
        "type": "sailor",
        "parent": "vtls004599659",
        "name": "john evans",
        "dob": "blk",
        "age": "15",
        "place_of_birth": "aberystwyth",
        "home_address": "blk",
        "f": "blk",
        "name_of_ship": "same ship",
        "ship_port": "aberystwyth",
        "date_leaving": "continued",
        "joined_ship_date": "blk",
        "joined_at_port": "blk",
        "capacity": "boy",
        "date_left": "remains on board",
        "left_port": "blk",
        "cause_of_leaving": "remains on board",
        "sign_with_mark": "n",
        "notes": "blk"
    },
    {
        "id": "vtls004599667_1_14",
        "type": "sailor",
        "parent": "vtls004599667",
        "name": "william eggleton",
        "dob": "blk",
        "age": "19",
        "place_of_birth": "london",
        "home_address": "blk",
        "f": "blk",
        "name_of_ship": "continues",
        "ship_port": "blk",
        "date_leaving": "blk",
        "joined_ship_date": "blk",
        "joined_at_port": "blk",
        "capacity": "ordinary seaman",
        "date_left": "1878-09-20",
        "left_port": "aberystwyth",
        "cause_of_leaving": "discharged",
        "sign_with_mark": "n",
        "notes": "master and crew discharged at aberystwyth as vessel was layed up under repairs"
    },
    {
        "id": "vtls004599667_0_14",
        "type": "sailor",
        "parent": "vtls004599667",
        "name": "theophulus evans",
        "dob": "blk",
        "age": "16",
        "place_of_birth": "aberystwyth",
        "home_address": "blk",
        "f": "blk",
        "name_of_ship": "same ship",
        "ship_port": "aberystwyth",
        "date_leaving": "continues",
        "joined_ship_date": "blk",
        "joined_at_port": "blk",
        "capacity": "ordinary seaman",
        "date_left": "1878-02-25",
        "left_port": "porthmadog",
        "cause_of_leaving": "discharged",
        "sign_with_mark": "n",
        "notes": "named as john evans on previous voyage 27-11-2"
    },
    {
        "id": "vtls004599667_1_13",
        "type": "sailor",
        "parent": "vtls004599667",
        "name": "ellis jones",
        "dob": "blk",
        "age": "16",
        "place_of_birth": "portmadoc",
        "home_address": "blk",
        "f": "blk",
        "name_of_ship": "continues",
        "ship_port": "blk",
        "date_leaving": "blk",
        "joined_ship_date": "blk",
        "joined_at_port": "blk",
        "capacity": "ordinary seaman",
        "date_left": "1878-09-20",
        "left_port": "aberystwyth",
        "cause_of_leaving": "discharged",
        "sign_with_mark": "n",
        "notes": "master and crew discharged at aberystwyth as vessel was layed up under repairs"
    },
    {
        "id": "vtls004599667_1_11",
        "type": "sailor",
        "parent": "vtls004599667",
        "name": "thomas evans lewis",
        "dob": "blk",
        "age": "23",
        "place_of_birth": "aberystwyth",
        "home_address": "blk",
        "f": "blk",
        "name_of_ship": "continues",
        "ship_port": "blk",
        "date_leaving": "blk",
        "joined_ship_date": "blk",
        "joined_at_port": "blk",
        "capacity": "master",
        "date_left": "1878-09-16",
        "left_port": "aberystwyth",
        "cause_of_leaving": "discharged",
        "sign_with_mark": "n",
        "notes": "master and crew discharged at aberystwyth as vessel was layed up under repairs"
    },
    {
        "id": "vtls004599667_1_12",
        "type": "sailor",
        "parent": "vtls004599667",
        "name": "james davies",
        "dob": "blk",
        "age": "30",
        "place_of_birth": "aberystwyth",
        "home_address": "blk",
        "f": "blk",
        "name_of_ship": "continues",
        "ship_port": "blk",
        "date_leaving": "blk",
        "joined_ship_date": "blk",
        "joined_at_port": "blk",
        "capacity": "mate",
        "date_left": "1878-09-12",
        "left_port": "aberystwyth",
        "cause_of_leaving": "discharged",
        "sign_with_mark": "n",
        "notes": "master and crew discharged at aberystwyth as vessel was layed up under repairs"
    },
    {
        "id": "vtls004599667_0_16",
        "type": "sailor",
        "parent": "vtls004599667",
        "name": "william eggleton",
        "dob": "blk",
        "age": "19",
        "place_of_birth": "leamington",
        "home_address": "blk",
        "f": "blk",
        "name_of_ship": "mary lloyd",
        "ship_port": "portmadoc",
        "date_leaving": "1878-03-12",
        "joined_ship_date": "1878-03-18",
        "joined_at_port": "portmadoc",
        "capacity": "ordinary seaman",
        "date_left": "remains on board",
        "left_port": "blk",
        "cause_of_leaving": "remains on board",
        "sign_with_mark": "n",
        "notes": "blk"
    },
    {
        "id": "vtls004599667_0_15",
        "type": "sailor",
        "parent": "vtls004599667",
        "name": "james davies",
        "dob": "blk",
        "age": "32",
        "place_of_birth": "aberystwyth",
        "home_address": "blk",
        "f": "blk",
        "name_of_ship": "john davies",
        "ship_port": "[portmadoc]",
        "date_leaving": "1878-03-12",
        "joined_ship_date": "1878-03-18",
        "joined_at_port": "portmadoc",
        "capacity": "mate",
        "date_left": "1878-07-09",
        "left_port": "aberystwyth",
        "cause_of_leaving": "discharged",
        "sign_with_mark": "n",
        "notes": "blk"
    },
    {
        "id": "vtls004599667_0_17",
        "type": "sailor",
        "parent": "vtls004599667",
        "name": "ellis roberts",
        "dob": "blk",
        "age": "16",
        "place_of_birth": "portmadoc",
        "home_address": "blk",
        "f": "blk",
        "name_of_ship": "$$$$$$$",
        "ship_port": "blk",
        "date_leaving": "blk",
        "joined_ship_date": "1878-03-18",
        "joined_at_port": "portmadoc",
        "capacity": "ordinary seaman",
        "date_left": "remains on board",
        "left_port": "blk",
        "cause_of_leaving": "remains on board",
        "sign_with_mark": "n",
        "notes": "blk"
    },
    {
        "id": "vtls004599667_0_13",
        "type": "sailor",
        "parent": "vtls004599667",
        "name": "john james",
        "dob": "blk",
        "age": "19",
        "place_of_birth": "aberystwyth",
        "home_address": "blk",
        "f": "blk",
        "name_of_ship": "same ship",
        "ship_port": "aberystwyth",
        "date_leaving": "continues",
        "joined_ship_date": "blk",
        "joined_at_port": "blk",
        "capacity": "able seaman",
        "date_left": "1878-02-25",
        "left_port": "porthmadog",
        "cause_of_leaving": "discharged",
        "sign_with_mark": "n",
        "notes": "blk"
    },
    {
        "id": "vtls004599667_0_12",
        "type": "sailor",
        "parent": "vtls004599667",
        "name": "william jenkins",
        "dob": "blk",
        "age": "42",
        "place_of_birth": "aberystwyth",
        "home_address": "blk",
        "f": "blk",
        "name_of_ship": "same ship",
        "ship_port": "aberystwyth",
        "date_leaving": "continues",
        "joined_ship_date": "blk",
        "joined_at_port": "blk",
        "capacity": "mate",
        "date_left": "1878-02-25",
        "left_port": "porthmadog",
        "cause_of_leaving": "discharged",
        "sign_with_mark": "n",
        "notes": "blk"
    },
    {
        "id": "vtls004599710_1_13",
        "type": "sailor",
        "parent": "vtls004599710",
        "name": "david williams",
        "dob": "blk",
        "age": "32",
        "place_of_birth": "aberystwyth",
        "home_address": "blk",
        "f": "blk",
        "name_of_ship": "alice",
        "ship_port": "aberystwyth",
        "date_leaving": "continued",
        "joined_ship_date": "continued",
        "joined_at_port": "blk",
        "capacity": "able seaman",
        "date_left": "1879-12-31",
        "left_port": "runcorn",
        "cause_of_leaving": "remains on board",
        "sign_with_mark": "n",
        "notes": "david williams did ot appear on previous file 27-13-1 as being a crew member"
    },
    {
        "id": "vtls004599710_0_13",
        "type": "sailor",
        "parent": "vtls004599710",
        "name": "james lewis",
        "dob": "blk",
        "age": "50",
        "place_of_birth": "aberystwyth",
        "home_address": "blk",
        "f": "blk",
        "name_of_ship": "same ship",
        "ship_port": "aberystwyth",
        "date_leaving": "continued",
        "joined_ship_date": "continued",
        "joined_at_port": "blk",
        "capacity": "able seaman",
        "date_left": "1879-06-30",
        "left_port": "runcorn",
        "cause_of_leaving": "discharged",
        "sign_with_mark": "n",
        "notes": "blk"
    },
    {
        "id": "vtls004599710_0_11",
        "type": "sailor",
        "parent": "vtls004599710",
        "name": "t e lewis",
        "dob": "blk",
        "age": "25",
        "place_of_birth": "aberystwyth",
        "home_address": "blk",
        "f": "blk",
        "name_of_ship": "same ship",
        "ship_port": "aberystwyth",
        "date_leaving": "continued",
        "joined_ship_date": "continued",
        "joined_at_port": "blk",
        "capacity": "master",
        "date_left": "1879-06-30",
        "left_port": "runcorn",
        "cause_of_leaving": "remains on board",
        "sign_with_mark": "n",
        "notes": "blk"
    },
    {
        "id": "vtls004599710_0_12",
        "type": "sailor",
        "parent": "vtls004599710",
        "name": "john lewis",
        "dob": "blk",
        "age": "62",
        "place_of_birth": "aberystwyth",
        "home_address": "blk",
        "f": "blk",
        "name_of_ship": "same ship",
        "ship_port": "aberystwyth",
        "date_leaving": "continued",
        "joined_ship_date": "continued",
        "joined_at_port": "blk",
        "capacity": "mate",
        "date_left": "1879-06-30",
        "left_port": "runcorn",
        "cause_of_leaving": "remains on board",
        "sign_with_mark": "n",
        "notes": "blk"
    },
    {
        "id": "vtls004599710_1_11",
        "type": "sailor",
        "parent": "vtls004599710",
        "name": "t e lewis",
        "dob": "blk",
        "age": "24",
        "place_of_birth": "aberystwyth",
        "home_address": "blk",
        "f": "blk",
        "name_of_ship": "alice",
        "ship_port": "aberystwyth",
        "date_leaving": "continued",
        "joined_ship_date": "continued",
        "joined_at_port": "blk",
        "capacity": "master",
        "date_left": "1879-12-31",
        "left_port": "runcorn",
        "cause_of_leaving": "remains on board",
        "sign_with_mark": "n",
        "notes": "blk"
    },
    {
        "id": "vtls004599710_1_12",
        "type": "sailor",
        "parent": "vtls004599710",
        "name": "john lewis",
        "dob": "blk",
        "age": "62",
        "place_of_birth": "aberystwyth",
        "home_address": "blk",
        "f": "blk",
        "name_of_ship": "alice",
        "ship_port": "aberystwyth",
        "date_leaving": "continued",
        "joined_ship_date": "continued",
        "joined_at_port": "blk",
        "capacity": "mate",
        "date_left": "1879-12-31",
        "left_port": "runcorn",
        "cause_of_leaving": "discharged",
        "sign_with_mark": "n",
        "notes": "blk"
    },
    {
        "id": "vtls004599714_0_13",
        "type": "sailor",
        "parent": "vtls004599714",
        "name": "michael burnes",
        "dob": "blk",
        "age": "20",
        "place_of_birth": "dublin",
        "home_address": "blk",
        "f": "blk",
        "name_of_ship": "blk",
        "ship_port": "blk",
        "date_leaving": "blk",
        "joined_ship_date": "blk",
        "joined_at_port": "blk",
        "capacity": "ordinary seaman",
        "date_left": "remains",
        "left_port": "blk",
        "cause_of_leaving": "remains on board",
        "sign_with_mark": "n",
        "notes": "log states that he remained on board from last half year but his name was not on log for previous crew list"
    },
    {
        "id": "vtls004599714_1_11",
        "type": "sailor",
        "parent": "vtls004599714",
        "name": "t e lewis",
        "dob": "blk",
        "age": "blk",
        "place_of_birth": "aberystwyth",
        "home_address": "blk",
        "f": "blk",
        "name_of_ship": "same vessel",
        "ship_port": "aberystwyth",
        "date_leaving": "blk",
        "joined_ship_date": "blk",
        "joined_at_port": "blk",
        "capacity": "blk",
        "date_left": "blk",
        "left_port": "blk",
        "cause_of_leaving": "blk",
        "sign_with_mark": "n",
        "notes": "log states that particulars of crew unknown to the present owner - ownership of alice had changed hands"
    },
    {
        "id": "vtls004599402_0_13",
        "type": "sailor",
        "parent": "vtls004599402",
        "name": "james corre",
        "dob": "blk",
        "age": "21",
        "place_of_birth": "cornwall",
        "home_address": "blk",
        "f": "blk",
        "name_of_ship": "agenoria",
        "ship_port": "[milford]",
        "date_leaving": "1862-12",
        "joined_ship_date": "1863-04-07",
        "joined_at_port": "newport",
        "capacity": "able seaman",
        "date_left": "remains on board",
        "left_port": "blk",
        "cause_of_leaving": "remains on board",
        "sign_with_mark": "n",
        "notes": "blk"
    },
    {
        "id": "vtls004599402_0_14",
        "type": "sailor",
        "parent": "vtls004599402",
        "name": "david morgan",
        "dob": "blk",
        "age": "18",
        "place_of_birth": "aberystwyth",
        "home_address": "blk",
        "f": "blk",
        "name_of_ship": "cincinnati",
        "ship_port": "new york",
        "date_leaving": "1862-12",
        "joined_ship_date": "1863-04-07",
        "joined_at_port": "newport",
        "capacity": "able seaman",
        "date_left": "1863-06-26",
        "left_port": "swansea",
        "cause_of_leaving": "discharged",
        "sign_with_mark": "n",
        "notes": "blk"
    },
    {
        "id": "vtls004599402_0_11",
        "type": "sailor",
        "parent": "vtls004599402",
        "name": "john lewis",
        "dob": "blk",
        "age": "47",
        "place_of_birth": "aberystwyth",
        "home_address": "blk",
        "f": "blk",
        "name_of_ship": "alice",
        "ship_port": "aberystwyth",
        "date_leaving": "remained",
        "joined_ship_date": "1859-01-28",
        "joined_at_port": "aberystwyth",
        "capacity": "master",
        "date_left": "remains on board",
        "left_port": "blk",
        "cause_of_leaving": "remains on board",
        "sign_with_mark": "n",
        "notes": "blk"
    },
    {
        "id": "vtls004599402_0_12",
        "type": "sailor",
        "parent": "vtls004599402",
        "name": "david morgan",
        "dob": "blk",
        "age": "50",
        "place_of_birth": "aberystwyth",
        "home_address": "blk",
        "f": "blk",
        "name_of_ship": "nell",
        "ship_port": "aberystwyth",
        "date_leaving": "1858-11-12",
        "joined_ship_date": "1863-04-07",
        "joined_at_port": "newport",
        "capacity": "mate",
        "date_left": "remains on board",
        "left_port": "blk",
        "cause_of_leaving": "remains on board",
        "sign_with_mark": "n",
        "notes": "blk"
    },
    {
        "id": "vtls004599714_0_11",
        "type": "sailor",
        "parent": "vtls004599714",
        "name": "thomas e lewis",
        "dob": "blk",
        "age": "25",
        "place_of_birth": "aberystwyth",
        "home_address": "blk",
        "f": "blk",
        "name_of_ship": "same ship",
        "ship_port": "aberystwyth",
        "date_leaving": "continued",
        "joined_ship_date": "continued",
        "joined_at_port": "blk",
        "capacity": "master",
        "date_left": "remains",
        "left_port": "blk",
        "cause_of_leaving": "remains on board",
        "sign_with_mark": "n",
        "notes": "blk"
    },
    {
        "id": "vtls004599714_0_12",
        "type": "sailor",
        "parent": "vtls004599714",
        "name": "david williams",
        "dob": "blk",
        "age": "32",
        "place_of_birth": "newquay",
        "home_address": "blk",
        "f": "blk",
        "name_of_ship": "same ship",
        "ship_port": "aberystwyth",
        "date_leaving": "continued",
        "joined_ship_date": "continued",
        "joined_at_port": "blk",
        "capacity": "mate",
        "date_left": "remains",
        "left_port": "blk",
        "cause_of_leaving": "remains on board",
        "sign_with_mark": "n",
        "notes": "blk"
    },
    {
        "id": "vtls004599478_0_11",
        "type": "sailor",
        "parent": "vtls004599478",
        "name": "john lewis",
        "dob": "blk",
        "age": "48",
        "place_of_birth": "aberystwyth",
        "home_address": "blk",
        "f": "blk",
        "name_of_ship": "alice",
        "ship_port": "aberystwyth",
        "date_leaving": "remained on board",
        "joined_ship_date": "blk",
        "joined_at_port": "blk",
        "capacity": "master",
        "date_left": "remains on board",
        "left_port": "blk",
        "cause_of_leaving": "remains on board",
        "sign_with_mark": "n",
        "notes": "the schooner 'alice' was unemployed from the 1st day of january 1864 to the 24th day of september 1864 under repairs in aberystwyth harbour"
    },
    {
        "id": "vtls004599402_0_16",
        "type": "sailor",
        "parent": "vtls004599402",
        "name": "john smithson",
        "dob": "blk",
        "age": "17",
        "place_of_birth": "cornwall",
        "home_address": "blk",
        "f": "blk",
        "name_of_ship": "margaret",
        "ship_port": "plymouth",
        "date_leaving": "1862-05",
        "joined_ship_date": "1863-06-30",
        "joined_at_port": "swansea",
        "capacity": "ordinary seaman",
        "date_left": "remains on board",
        "left_port": "blk",
        "cause_of_leaving": "remains on board",
        "sign_with_mark": "n",
        "notes": "blk"
    },
    {
        "id": "vtls004599402_0_15",
        "type": "sailor",
        "parent": "vtls004599402",
        "name": "william griffiths",
        "dob": "blk",
        "age": "13",
        "place_of_birth": "aberystwyth",
        "home_address": "blk",
        "f": "blk",
        "name_of_ship": "first ship",
        "ship_port": "blk",
        "date_leaving": "blk",
        "joined_ship_date": "1863-04-07",
        "joined_at_port": "newport",
        "capacity": "boy",
        "date_left": "remains on board",
        "left_port": "blk",
        "cause_of_leaving": "remains on board",
        "sign_with_mark": "n",
        "notes": "blk"
    },
    {
        "id": "vtls004599516_0_12",
        "type": "sailor",
        "parent": "vtls004599516",
        "name": "thoepholus phea",
        "dob": "blk",
        "age": "30",
        "place_of_birth": "aberystwyth",
        "home_address": "blk",
        "f": "blk",
        "name_of_ship": "alice",
        "ship_port": "aberystwyth",
        "date_leaving": "remained on board",
        "joined_ship_date": "blk",
        "joined_at_port": "blk",
        "capacity": "mate",
        "date_left": "1867-04-19",
        "left_port": "runcorn",
        "cause_of_leaving": "discharged",
        "sign_with_mark": "n",
        "notes": "blk"
    },
    {
        "id": "vtls004599516_0_13",
        "type": "sailor",
        "parent": "vtls004599516",
        "name": "john price",
        "dob": "blk",
        "age": "blk",
        "place_of_birth": "plymouth",
        "home_address": "blk",
        "f": "blk",
        "name_of_ship": "alice",
        "ship_port": "aberystwyth",
        "date_leaving": "remained on board",
        "joined_ship_date": "blk",
        "joined_at_port": "blk",
        "capacity": "able seaman",
        "date_left": "1867-04-19",
        "left_port": "runcorn",
        "cause_of_leaving": "discharged",
        "sign_with_mark": "n",
        "notes": "blk"
    },
    {
        "id": "vtls004599516_0_14",
        "type": "sailor",
        "parent": "vtls004599516",
        "name": "richard williams",
        "dob": "blk",
        "age": "17",
        "place_of_birth": "aberystwyth",
        "home_address": "blk",
        "f": "blk",
        "name_of_ship": "alice",
        "ship_port": "aberystwyth",
        "date_leaving": "remained on board",
        "joined_ship_date": "blk",
        "joined_at_port": "blk",
        "capacity": "boy",
        "date_left": "1867-04-19",
        "left_port": "runcorn",
        "cause_of_leaving": "discharged",
        "sign_with_mark": "blk",
        "notes": "blk"
    },
    {
        "id": "vtls004599516_0_11",
        "type": "sailor",
        "parent": "vtls004599516",
        "name": "john lewis",
        "dob": "blk",
        "age": "50",
        "place_of_birth": "aberystwyth",
        "home_address": "blk",
        "f": "blk",
        "name_of_ship": "alice",
        "ship_port": "aberystwyth",
        "date_leaving": "remained on board",
        "joined_ship_date": "blk",
        "joined_at_port": "blk",
        "capacity": "master",
        "date_left": "remains",
        "left_port": "blk",
        "cause_of_leaving": "remains on board",
        "sign_with_mark": "n",
        "notes": "blk"
    },
    {
        "id": "vtls004599516_0_16",
        "type": "sailor",
        "parent": "vtls004599516",
        "name": "john davies",
        "dob": "blk",
        "age": "22",
        "place_of_birth": "aberystwyth",
        "home_address": "blk",
        "f": "blk",
        "name_of_ship": "jane herbert",
        "ship_port": "aberystwyth",
        "date_leaving": "1867-04-08",
        "joined_ship_date": "1867-04-14",
        "joined_at_port": "runcorn",
        "capacity": "able seaman",
        "date_left": "remains",
        "left_port": "blk",
        "cause_of_leaving": "remains on board",
        "sign_with_mark": "n",
        "notes": "blk"
    },
    {
        "id": "vtls004599516_0_17",
        "type": "sailor",
        "parent": "vtls004599516",
        "name": "robert knight",
        "dob": "blk",
        "age": "19",
        "place_of_birth": "liverpool",
        "home_address": "blk",
        "f": "blk",
        "name_of_ship": "touch me not",
        "ship_port": "fowey",
        "date_leaving": "1867-04-12",
        "joined_ship_date": "1867-04-14",
        "joined_at_port": "runcorn",
        "capacity": "ordinary seaman",
        "date_left": "remains",
        "left_port": "blk",
        "cause_of_leaving": "remains on board",
        "sign_with_mark": "n",
        "notes": "blk"
    },
    {
        "id": "vtls004599516_0_15",
        "type": "sailor",
        "parent": "vtls004599516",
        "name": "james lewis",
        "dob": "blk",
        "age": "40",
        "place_of_birth": "aberystwyth",
        "home_address": "blk",
        "f": "blk",
        "name_of_ship": "john & william",
        "ship_port": "aberystwyth",
        "date_leaving": "1867-04-10",
        "joined_ship_date": "1867-04-14",
        "joined_at_port": "runcorn",
        "capacity": "mate",
        "date_left": "remains",
        "left_port": "blk",
        "cause_of_leaving": "remains on board",
        "sign_with_mark": "n",
        "notes": "blk"
    },
    {
        "id": "vtls004599516_2_13",
        "type": "sailor",
        "parent": "vtls004599516",
        "name": "david d davies",
        "dob": "blk",
        "age": "42",
        "place_of_birth": "llanon",
        "home_address": "blk",
        "f": "blk",
        "name_of_ship": "alice",
        "ship_port": "aberystwyth",
        "date_leaving": "remained on board",
        "joined_ship_date": "blk",
        "joined_at_port": "blk",
        "capacity": "able seaman",
        "date_left": "1868-01-11",
        "left_port": "aberystwyth",
        "cause_of_leaving": "discharged",
        "sign_with_mark": "n",
        "notes": "blk"
    },
    {
        "id": "vtls004599516_2_11",
        "type": "sailor",
        "parent": "vtls004599516",
        "name": "john lewis",
        "dob": "blk",
        "age": "51",
        "place_of_birth": "aberystwyth",
        "home_address": "blk",
        "f": "blk",
        "name_of_ship": "alice",
        "ship_port": "aberystwyth",
        "date_leaving": "remained on board",
        "joined_ship_date": "blk",
        "joined_at_port": "blk",
        "capacity": "master",
        "date_left": "remains on board",
        "left_port": "blk",
        "cause_of_leaving": "remains on board",
        "sign_with_mark": "n",
        "notes": "blk"
    },
    {
        "id": "vtls004599516_2_12",
        "type": "sailor",
        "parent": "vtls004599516",
        "name": "james lewis",
        "dob": "blk",
        "age": "41",
        "place_of_birth": "aberystwyth",
        "home_address": "blk",
        "f": "blk",
        "name_of_ship": "alice",
        "ship_port": "aberystwyth",
        "date_leaving": "remained on board",
        "joined_ship_date": "blk",
        "joined_at_port": "blk",
        "capacity": "mate",
        "date_left": "1868-01-11",
        "left_port": "aberystwyth",
        "cause_of_leaving": "discharged",
        "sign_with_mark": "n",
        "notes": "blk"
    },
    {
        "id": "vtls004599516_1_14",
        "type": "sailor",
        "parent": "vtls004599516",
        "name": "robert knight",
        "dob": "blk",
        "age": "19",
        "place_of_birth": "liverpool",
        "home_address": "blk",
        "f": "blk",
        "name_of_ship": "touch me not",
        "ship_port": "fowey",
        "date_leaving": "1867-04-12",
        "joined_ship_date": "1867-04-14",
        "joined_at_port": "runcorn",
        "capacity": "ordinary seaman",
        "date_left": "blk",
        "left_port": "blk",
        "cause_of_leaving": "blk",
        "sign_with_mark": "blk",
        "notes": "blk"
    },
    {
        "id": "vtls004599516_1_12",
        "type": "sailor",
        "parent": "vtls004599516",
        "name": "james lewis",
        "dob": "blk",
        "age": "40",
        "place_of_birth": "aberystwyth",
        "home_address": "blk",
        "f": "blk",
        "name_of_ship": "john & william",
        "ship_port": "aberystwyth",
        "date_leaving": "1867-04-10",
        "joined_ship_date": "1867-04-14",
        "joined_at_port": "runcorn",
        "capacity": "mate",
        "date_left": "blk",
        "left_port": "blk",
        "cause_of_leaving": "blk",
        "sign_with_mark": "blk",
        "notes": "blk"
    },
    {
        "id": "vtls004599516_1_13",
        "type": "sailor",
        "parent": "vtls004599516",
        "name": "john davies",
        "dob": "blk",
        "age": "22",
        "place_of_birth": "aberystwyth",
        "home_address": "blk",
        "f": "blk",
        "name_of_ship": "jane & $$$$$$",
        "ship_port": "blk",
        "date_leaving": "1867-04-08",
        "joined_ship_date": "1867-04-14",
        "joined_at_port": "runcorn",
        "capacity": "seaman",
        "date_left": "blk",
        "left_port": "blk",
        "cause_of_leaving": "blk",
        "sign_with_mark": "blk",
        "notes": "blk"
    },
    {
        "id": "vtls004599516_1_11",
        "type": "sailor",
        "parent": "vtls004599516",
        "name": "john lewis",
        "dob": "blk",
        "age": "blk",
        "place_of_birth": "aberystwyth",
        "home_address": "blk",
        "f": "blk",
        "name_of_ship": "blk",
        "ship_port": "blk",
        "date_leaving": "blk",
        "joined_ship_date": "blk",
        "joined_at_port": "blk",
        "capacity": "master",
        "date_left": "blk",
        "left_port": "blk",
        "cause_of_leaving": "blk",
        "sign_with_mark": "blk",
        "notes": "blk"
    },
    {
        "id": "vtls004599516_2_14",
        "type": "sailor",
        "parent": "vtls004599516",
        "name": "wiliam morgan",
        "dob": "blk",
        "age": "13",
        "place_of_birth": "aberystwyth",
        "home_address": "blk",
        "f": "blk",
        "name_of_ship": "first ship",
        "ship_port": "blk",
        "date_leaving": "blk",
        "joined_ship_date": "1867-07-01",
        "joined_at_port": "bristol",
        "capacity": "boy",
        "date_left": "1868-01-11",
        "left_port": "aberystwyth",
        "cause_of_leaving": "discharged",
        "sign_with_mark": "n",
        "notes": "blk"
    },
    {
        "id": "vtls004599538_0_13",
        "type": "sailor",
        "parent": "vtls004599538",
        "name": "thomas lewis",
        "dob": "blk",
        "age": "25",
        "place_of_birth": "aberystwyth",
        "home_address": "blk",
        "f": "blk",
        "name_of_ship": "alice",
        "ship_port": "aberystwyth",
        "date_leaving": "continues",
        "joined_ship_date": "1870-01-01",
        "joined_at_port": "llanelly",
        "capacity": "seaman",
        "date_left": "blk",
        "left_port": "teignmouth",
        "cause_of_leaving": "remains on board",
        "sign_with_mark": "n",
        "notes": "blk"
    },
    {
        "id": "vtls004599538_1_13",
        "type": "sailor",
        "parent": "vtls004599538",
        "name": "joseph hayes",
        "dob": "blk",
        "age": "26",
        "place_of_birth": "bridgewater",
        "home_address": "blk",
        "f": "blk",
        "name_of_ship": "alice",
        "ship_port": "aberystwyth",
        "date_leaving": "blk",
        "joined_ship_date": "1870-05-03",
        "joined_at_port": "runcorn",
        "capacity": "able seaman",
        "date_left": "1870-12-24",
        "left_port": "cardiff",
        "cause_of_leaving": "discharged",
        "sign_with_mark": "n",
        "notes": "blk"
    },
    {
        "id": "vtls004599538_0_11",
        "type": "sailor",
        "parent": "vtls004599538",
        "name": "john lewis",
        "dob": "blk",
        "age": "53",
        "place_of_birth": "aberystwyth",
        "home_address": "blk",
        "f": "blk",
        "name_of_ship": "alice",
        "ship_port": "aberystwyth",
        "date_leaving": "continues",
        "joined_ship_date": "1870-91-01",
        "joined_at_port": "llanelly",
        "capacity": "master",
        "date_left": "blk",
        "left_port": "teignmouth",
        "cause_of_leaving": "remains on board",
        "sign_with_mark": "n",
        "notes": "blk"
    },
    {
        "id": "vtls004599538_0_14",
        "type": "sailor",
        "parent": "vtls004599538",
        "name": "thomas lewis",
        "dob": "blk",
        "age": "15",
        "place_of_birth": "aberystwyth",
        "home_address": "blk",
        "f": "blk",
        "name_of_ship": "alice",
        "ship_port": "aberystwyth",
        "date_leaving": "continues",
        "joined_ship_date": "1870-01-01",
        "joined_at_port": "llanelly",
        "capacity": "cook",
        "date_left": "blk",
        "left_port": "teignmouth",
        "cause_of_leaving": "remains on board",
        "sign_with_mark": "n",
        "notes": "blk"
    },
    {
        "id": "vtls004599538_0_12",
        "type": "sailor",
        "parent": "vtls004599538",
        "name": "john jones",
        "dob": "blk",
        "age": "35",
        "place_of_birth": "aberystwyth",
        "home_address": "blk",
        "f": "blk",
        "name_of_ship": "alice",
        "ship_port": "aberystwyth",
        "date_leaving": "continues",
        "joined_ship_date": "1870-01-01",
        "joined_at_port": "llanelly",
        "capacity": "mate",
        "date_left": "blk",
        "left_port": "teignmouth",
        "cause_of_leaving": "remains on board",
        "sign_with_mark": "n",
        "notes": "blk"
    },
    {
        "id": "vtls004599538_1_11",
        "type": "sailor",
        "parent": "vtls004599538",
        "name": "john lewis",
        "dob": "blk",
        "age": "56",
        "place_of_birth": "aberystwyth",
        "home_address": "blk",
        "f": "blk",
        "name_of_ship": "alice",
        "ship_port": "aberystwyth",
        "date_leaving": "blk",
        "joined_ship_date": "1864-11-10",
        "joined_at_port": "aberystwyth",
        "capacity": "master",
        "date_left": "remains",
        "left_port": "cardiff",
        "cause_of_leaving": "remains on board",
        "sign_with_mark": "n",
        "notes": "blk"
    },
    {
        "id": "vtls004599538_1_12",
        "type": "sailor",
        "parent": "vtls004599538",
        "name": "thomas lewis",
        "dob": "blk",
        "age": "25",
        "place_of_birth": "borth",
        "home_address": "blk",
        "f": "blk",
        "name_of_ship": "alice",
        "ship_port": "aberystwyth",
        "date_leaving": "blk",
        "joined_ship_date": "1870-05-03",
        "joined_at_port": "runcorn",
        "capacity": "mate",
        "date_left": "1870-12-24",
        "left_port": "cardiff",
        "cause_of_leaving": "discharged",
        "sign_with_mark": "n",
        "notes": "blk"
    },
    {
        "id": "vtls004599560_0_13",
        "type": "sailor",
        "parent": "vtls004599560",
        "name": "david jones",
        "dob": "blk",
        "age": "22",
        "place_of_birth": "carmarthen",
        "home_address": "blk",
        "f": "blk",
        "name_of_ship": "alice",
        "ship_port": "aberystwyth",
        "date_leaving": "continued",
        "joined_ship_date": "1871-01-01",
        "joined_at_port": "cardiff",
        "capacity": "able seaman",
        "date_left": "1871-06-30",
        "left_port": "liverpool",
        "cause_of_leaving": "remains on board",
        "sign_with_mark": "n",
        "notes": "blk"
    },
    {
        "id": "vtls004599560_0_11",
        "type": "sailor",
        "parent": "vtls004599560",
        "name": "john lewis",
        "dob": "blk",
        "age": "54",
        "place_of_birth": "aberystwyth",
        "home_address": "blk",
        "f": "blk",
        "name_of_ship": "alice",
        "ship_port": "aberystwyth",
        "date_leaving": "continued",
        "joined_ship_date": "1871-01-01",
        "joined_at_port": "cardiff",
        "capacity": "master",
        "date_left": "1871-06-30",
        "left_port": "liverpool",
        "cause_of_leaving": "remains on board",
        "sign_with_mark": "n",
        "notes": "blk"
    },
    {
        "id": "vtls004599560_1_13",
        "type": "sailor",
        "parent": "vtls004599560",
        "name": "david jones",
        "dob": "blk",
        "age": "22",
        "place_of_birth": "carmarthen",
        "home_address": "blk",
        "f": "blk",
        "name_of_ship": "alice",
        "ship_port": "aberystwyth",
        "date_leaving": "remains",
        "joined_ship_date": "1871-07-01",
        "joined_at_port": "liverpool",
        "capacity": "able seaman",
        "date_left": "1871-12-15",
        "left_port": "swansea",
        "cause_of_leaving": "discharged",
        "sign_with_mark": "n",
        "notes": "blk"
    },
    {
        "id": "vtls004599560_0_12",
        "type": "sailor",
        "parent": "vtls004599560",
        "name": "james lewis",
        "dob": "blk",
        "age": "40",
        "place_of_birth": "aberystwyth",
        "home_address": "blk",
        "f": "blk",
        "name_of_ship": "alice",
        "ship_port": "aberystwyth",
        "date_leaving": "continued",
        "joined_ship_date": "1871-01-01",
        "joined_at_port": "cardiff",
        "capacity": "mate",
        "date_left": "1871-06-30",
        "left_port": "liverpool",
        "cause_of_leaving": "remains on board",
        "sign_with_mark": "n",
        "notes": "blk"
    },
    {
        "id": "vtls004599560_1_11",
        "type": "sailor",
        "parent": "vtls004599560",
        "name": "john lewis",
        "dob": "blk",
        "age": "55",
        "place_of_birth": "aberystwyth",
        "home_address": "blk",
        "f": "blk",
        "name_of_ship": "alice",
        "ship_port": "aberystwyth",
        "date_leaving": "remains",
        "joined_ship_date": "1871-07-01",
        "joined_at_port": "liverpool",
        "capacity": "master",
        "date_left": "1872-01-04",
        "left_port": "swansea",
        "cause_of_leaving": "remains on board",
        "sign_with_mark": "n",
        "notes": "blk"
    },
    {
        "id": "vtls004599560_1_12",
        "type": "sailor",
        "parent": "vtls004599560",
        "name": "james lewis",
        "dob": "blk",
        "age": "40",
        "place_of_birth": "aberystwyth",
        "home_address": "blk",
        "f": "blk",
        "name_of_ship": "alice",
        "ship_port": "aberystwyth",
        "date_leaving": "remains",
        "joined_ship_date": "1871-01-01",
        "joined_at_port": "liverpool",
        "capacity": "mate",
        "date_left": "1872-01-04",
        "left_port": "swansea",
        "cause_of_leaving": "remains on board",
        "sign_with_mark": "n",
        "notes": "blk"
    },
    {
        "id": "vtls004599538_1_14",
        "type": "sailor",
        "parent": "vtls004599538",
        "name": "thomas evans lewis",
        "dob": "blk",
        "age": "15",
        "place_of_birth": "aberystwyth",
        "home_address": "blk",
        "f": "blk",
        "name_of_ship": "alice",
        "ship_port": "aberystwyth",
        "date_leaving": "blk",
        "joined_ship_date": "1868-03",
        "joined_at_port": "aberystwyth",
        "capacity": "boy",
        "date_left": "remains",
        "left_port": "cardiff",
        "cause_of_leaving": "remains on board",
        "sign_with_mark": "n",
        "notes": "blk"
    },
    {
        "id": "vtls004599581_0_11",
        "type": "sailor",
        "parent": "vtls004599581",
        "name": "john lewis",
        "dob": "blk",
        "age": "56",
        "place_of_birth": "aberystwyth",
        "home_address": "blk",
        "f": "blk",
        "name_of_ship": "alice",
        "ship_port": "aberystwyth",
        "date_leaving": "continues",
        "joined_ship_date": "1872-01-01",
        "joined_at_port": "swansea",
        "capacity": "master",
        "date_left": "remains",
        "left_port": "teignmouth",
        "cause_of_leaving": "remains on board",
        "sign_with_mark": "n",
        "notes": "blk"
    },
    {
        "id": "vtls004599581_0_16",
        "type": "sailor",
        "parent": "vtls004599581",
        "name": "david rees",
        "dob": "blk",
        "age": "48",
        "place_of_birth": "newquay",
        "home_address": "blk",
        "f": "blk",
        "name_of_ship": "eliza hannah",
        "ship_port": "new quay",
        "date_leaving": "1872-06-21",
        "joined_ship_date": "1872-06-24",
        "joined_at_port": "newport",
        "capacity": "mate",
        "date_left": "remains",
        "left_port": "teignmouth",
        "cause_of_leaving": "remains on board",
        "sign_with_mark": "n",
        "notes": "blk"
    },
    {
        "id": "vtls004599581_0_13",
        "type": "sailor",
        "parent": "vtls004599581",
        "name": "david jones",
        "dob": "blk",
        "age": "30",
        "place_of_birth": "aberystwyth",
        "home_address": "blk",
        "f": "blk",
        "name_of_ship": "james",
        "ship_port": "aberystwyth",
        "date_leaving": "[dec 1871]",
        "joined_ship_date": "1872-01-10",
        "joined_at_port": "swansea",
        "capacity": "seaman",
        "date_left": "1872-04-04",
        "left_port": "liverpool",
        "cause_of_leaving": "discharged",
        "sign_with_mark": "n",
        "notes": "blk"
    },
    {
        "id": "vtls004599581_0_15",
        "type": "sailor",
        "parent": "vtls004599581",
        "name": "thomas jones",
        "dob": "blk",
        "age": "17",
        "place_of_birth": "manchester",
        "home_address": "blk",
        "f": "blk",
        "name_of_ship": "first voyage",
        "ship_port": "blk",
        "date_leaving": "blk",
        "joined_ship_date": "1872-03-01",
        "joined_at_port": "liverpool",
        "capacity": "boy",
        "date_left": "remains",
        "left_port": "teignmouth",
        "cause_of_leaving": "remains on board",
        "sign_with_mark": "n",
        "notes": "blk"
    },
    {
        "id": "vtls004599581_0_17",
        "type": "sailor",
        "parent": "vtls004599581",
        "name": "john peterson",
        "dob": "blk",
        "age": "44",
        "place_of_birth": "sweden",
        "home_address": "blk",
        "f": "blk",
        "name_of_ship": "forest king",
        "ship_port": "newport",
        "date_leaving": "1870",
        "joined_ship_date": "1872-06-23",
        "joined_at_port": "newport",
        "capacity": "seaman",
        "date_left": "remains",
        "left_port": "teignmouth",
        "cause_of_leaving": "remains on board",
        "sign_with_mark": "n",
        "notes": "blk"
    },
    {
        "id": "vtls004599581_0_12",
        "type": "sailor",
        "parent": "vtls004599581",
        "name": "james lewis",
        "dob": "blk",
        "age": "40",
        "place_of_birth": "aberystwyth",
        "home_address": "blk",
        "f": "blk",
        "name_of_ship": "alice",
        "ship_port": "aberystwyth",
        "date_leaving": "continues",
        "joined_ship_date": "1872-01-01",
        "joined_at_port": "swansea",
        "capacity": "mate",
        "date_left": "1872-06-10",
        "left_port": "newport",
        "cause_of_leaving": "discharged",
        "sign_with_mark": "n",
        "notes": "blk"
    },
    {
        "id": "vtls004599581_0_14",
        "type": "sailor",
        "parent": "vtls004599581",
        "name": "hugh jones",
        "dob": "blk",
        "age": "35",
        "place_of_birth": "portmadoc",
        "home_address": "blk",
        "f": "blk",
        "name_of_ship": "not known",
        "ship_port": "blk",
        "date_leaving": "blk",
        "joined_ship_date": "1872-04-15",
        "joined_at_port": "liverpool",
        "capacity": "seaman",
        "date_left": "1872-06-10",
        "left_port": "newport",
        "cause_of_leaving": "discharged",
        "sign_with_mark": "n",
        "notes": "blk"
    },
    {
        "id": "vtls004599560_1_14",
        "type": "sailor",
        "parent": "vtls004599560",
        "name": "john griffiths",
        "dob": "blk",
        "age": "17",
        "place_of_birth": "swansea",
        "home_address": "blk",
        "f": "blk",
        "name_of_ship": "not known",
        "ship_port": "blk",
        "date_leaving": "blk",
        "joined_ship_date": "1871-10-13",
        "joined_at_port": "garston",
        "capacity": "boy",
        "date_left": "1871-12-15",
        "left_port": "swansea",
        "cause_of_leaving": "discharged",
        "sign_with_mark": "n",
        "notes": "blk"
    },
    {
        "id": "vtls004599581_1_13",
        "type": "sailor",
        "parent": "vtls004599581",
        "name": "john hughes",
        "dob": "blk",
        "age": "25",
        "place_of_birth": "holyhead",
        "home_address": "blk",
        "f": "blk",
        "name_of_ship": "alice",
        "ship_port": "aberystwyth",
        "date_leaving": "continued",
        "joined_ship_date": "1872-07-01",
        "joined_at_port": "newport",
        "capacity": "able seaman",
        "date_left": "1872-12-31",
        "left_port": "liverpool",
        "cause_of_leaving": "remains on board",
        "sign_with_mark": "n",
        "notes": "log states that he 'continued on board' from previous trip on alice but his name does not appear for the log of the first half of this year"
    },
    {
        "id": "vtls004599581_1_12",
        "type": "sailor",
        "parent": "vtls004599581",
        "name": "richard obrian",
        "dob": "blk",
        "age": "30",
        "place_of_birth": "duncannon",
        "home_address": "blk",
        "f": "blk",
        "name_of_ship": "alice",
        "ship_port": "aberystwyth",
        "date_leaving": "continued",
        "joined_ship_date": "1872-07-01",
        "joined_at_port": "newport",
        "capacity": "mate",
        "date_left": "1872-12-31",
        "left_port": "liverpool",
        "cause_of_leaving": "remains on board",
        "sign_with_mark": "n",
        "notes": "log states that he 'continued on board' from previous trip on alice but his name does not appear for the log of the first half of this year"
    },
    {
        "id": "vtls004599596_0_13",
        "type": "sailor",
        "parent": "vtls004599596",
        "name": "thomas e lewis",
        "dob": "blk",
        "age": "19",
        "place_of_birth": "aberystwyth",
        "home_address": "blk",
        "f": "blk",
        "name_of_ship": "same ship",
        "ship_port": "aberystwyth",
        "date_leaving": "continued",
        "joined_ship_date": "1873-01-01",
        "joined_at_port": "runcorn",
        "capacity": "able seaman",
        "date_left": "1873-06-30",
        "left_port": "remains",
        "cause_of_leaving": "remains on board",
        "sign_with_mark": "n",
        "notes": "log states that he 'continued' on board from previous voyage but his name does not appear on previous log"
    },
    {
        "id": "vtls004599596_0_12",
        "type": "sailor",
        "parent": "vtls004599596",
        "name": "thomas rees",
        "dob": "blk",
        "age": "47",
        "place_of_birth": "aberystwyth",
        "home_address": "blk",
        "f": "blk",
        "name_of_ship": "same ship",
        "ship_port": "aberystwyth",
        "date_leaving": "continued",
        "joined_ship_date": "1873-01-01",
        "joined_at_port": "runcorn",
        "capacity": "mate",
        "date_left": "1873-06-30",
        "left_port": "remains",
        "cause_of_leaving": "remains on board",
        "sign_with_mark": "n",
        "notes": "log states that he 'continued' on board from previous voyage but his name does not appear on previous log"
    },
    {
        "id": "vtls004599596_0_14",
        "type": "sailor",
        "parent": "vtls004599596",
        "name": "andrew rees",
        "dob": "blk",
        "age": "17",
        "place_of_birth": "aberystwyth",
        "home_address": "blk",
        "f": "blk",
        "name_of_ship": "same ship",
        "ship_port": "aberystwyth",
        "date_leaving": "continued",
        "joined_ship_date": "1873-01-01",
        "joined_at_port": "runcorn",
        "capacity": "cook",
        "date_left": "1873-06-30",
        "left_port": "remains",
        "cause_of_leaving": "remains on board",
        "sign_with_mark": "n",
        "notes": "log states that he 'continued' on board from previous voyage but his name does not appear on previous log"
    },
    {
        "id": "vtls004599581_1_14",
        "type": "sailor",
        "parent": "vtls004599581",
        "name": "thomas jones",
        "dob": "blk",
        "age": "18",
        "place_of_birth": "manchester",
        "home_address": "blk",
        "f": "blk",
        "name_of_ship": "alice",
        "ship_port": "aberystwyth",
        "date_leaving": "continued",
        "joined_ship_date": "1872-07-01",
        "joined_at_port": "newport",
        "capacity": "able seaman",
        "date_left": "1872-12-31",
        "left_port": "liverpool",
        "cause_of_leaving": "remains on board",
        "sign_with_mark": "n",
        "notes": "blk"
    },
    {
        "id": "vtls004599596_0_11",
        "type": "sailor",
        "parent": "vtls004599596",
        "name": "john lewis",
        "dob": "blk",
        "age": "57",
        "place_of_birth": "aberystwyth",
        "home_address": "blk",
        "f": "blk",
        "name_of_ship": "same ship",
        "ship_port": "aberystwyth",
        "date_leaving": "continued",
        "joined_ship_date": "1873-01-01",
        "joined_at_port": "runcorn",
        "capacity": "master",
        "date_left": "1873-06-30",
        "left_port": "remains",
        "cause_of_leaving": "remains on board",
        "sign_with_mark": "n",
        "notes": "blk"
    },
    {
        "id": "vtls004599581_1_11",
        "type": "sailor",
        "parent": "vtls004599581",
        "name": "john lewis",
        "dob": "blk",
        "age": "56",
        "place_of_birth": "aberystwyth",
        "home_address": "blk",
        "f": "blk",
        "name_of_ship": "alice",
        "ship_port": "aberystwyth",
        "date_leaving": "continued",
        "joined_ship_date": "1872-07-01",
        "joined_at_port": "newport",
        "capacity": "master",
        "date_left": "1872-12-31",
        "left_port": "liverpool",
        "cause_of_leaving": "remains on board",
        "sign_with_mark": "n",
        "notes": "blk"
    },
    {
        "id": "vtls004599596_1_11",
        "type": "sailor",
        "parent": "vtls004599596",
        "name": "john lewis",
        "dob": "blk",
        "age": "57",
        "place_of_birth": "co of cardigan",
        "home_address": "blk",
        "f": "blk",
        "name_of_ship": "alice",
        "ship_port": "aberystwyth",
        "date_leaving": "continues",
        "joined_ship_date": "blk",
        "joined_at_port": "blk",
        "capacity": "master",
        "date_left": "remains",
        "left_port": "blk",
        "cause_of_leaving": "remains on board",
        "sign_with_mark": "n",
        "notes": "blk"
    },
    {
        "id": "vtls004599606_0_14",
        "type": "sailor",
        "parent": "vtls004599606",
        "name": "william arnold",
        "dob": "blk",
        "age": "17",
        "place_of_birth": "aberystwyth",
        "home_address": "blk",
        "f": "blk",
        "name_of_ship": "same ship",
        "ship_port": "blk",
        "date_leaving": "blk",
        "joined_ship_date": "continues",
        "joined_at_port": "blk",
        "capacity": "boy",
        "date_left": "1874-06-30",
        "left_port": "runcorn",
        "cause_of_leaving": "remains on board",
        "sign_with_mark": "n",
        "notes": "log states that he was continuing aboard this vessel but previous log does not list him on crew list"
    },
    {
        "id": "vtls004599606_0_12",
        "type": "sailor",
        "parent": "vtls004599606",
        "name": "david morgan",
        "dob": "blk",
        "age": "60",
        "place_of_birth": "aberystwyth",
        "home_address": "blk",
        "f": "blk",
        "name_of_ship": "same ship",
        "ship_port": "blk",
        "date_leaving": "blk",
        "joined_ship_date": "continues",
        "joined_at_port": "blk",
        "capacity": "mate",
        "date_left": "1874-06-30",
        "left_port": "runcorn",
        "cause_of_leaving": "remains on board",
        "sign_with_mark": "n",
        "notes": "log states that he was continuing aboard this vessel but previous log does not list him on crew list"
    },
    {
        "id": "vtls004599596_1_14",
        "type": "sailor",
        "parent": "vtls004599596",
        "name": "john enos",
        "dob": "blk",
        "age": "14",
        "place_of_birth": "co of cardigan",
        "home_address": "blk",
        "f": "blk",
        "name_of_ship": "dovey belle",
        "ship_port": "aberystwyth",
        "date_leaving": "1873-07-09",
        "joined_ship_date": "1873-07-14",
        "joined_at_port": "runcorn",
        "capacity": "ordinary seaman",
        "date_left": "1873-12-24",
        "left_port": "porthmadog",
        "cause_of_leaving": "paid off",
        "sign_with_mark": "n",
        "notes": "blk"
    },
    {
        "id": "vtls004599596_1_13",
        "type": "sailor",
        "parent": "vtls004599596",
        "name": "thomas evans lewis",
        "dob": "blk",
        "age": "19",
        "place_of_birth": "co of cardigan",
        "home_address": "`blk",
        "f": "`blk",
        "name_of_ship": "alice",
        "ship_port": "aberystwyth",
        "date_leaving": "continues",
        "joined_ship_date": "blk",
        "joined_at_port": "blk",
        "capacity": "able seaman",
        "date_left": "remains",
        "left_port": "blk",
        "cause_of_leaving": "remains on board",
        "sign_with_mark": "n",
        "notes": "blk"
    },
    {
        "id": "vtls004599596_1_12",
        "type": "sailor",
        "parent": "vtls004599596",
        "name": "john jones",
        "dob": "blk",
        "age": "25",
        "place_of_birth": "co of cardigan",
        "home_address": "blk",
        "f": "blk",
        "name_of_ship": "hope",
        "ship_port": "aberystwyth",
        "date_leaving": "1873-07-09",
        "joined_ship_date": "1873-07-14",
        "joined_at_port": "runcorn",
        "capacity": "mate",
        "date_left": "1873-12-24",
        "left_port": "porthmadog",
        "cause_of_leaving": "paid off",
        "sign_with_mark": "n",
        "notes": "blk"
    },
    {
        "id": "vtls004599606_0_13",
        "type": "sailor",
        "parent": "vtls004599606",
        "name": "thomas e lewis",
        "dob": "blk",
        "age": "19",
        "place_of_birth": "aberystwyth",
        "home_address": "blk",
        "f": "blk",
        "name_of_ship": "same ship",
        "ship_port": "blk",
        "date_leaving": "blk",
        "joined_ship_date": "continues",
        "joined_at_port": "blk",
        "capacity": "able seaman",
        "date_left": "1874-06-30",
        "left_port": "runcorn",
        "cause_of_leaving": "remains on board",
        "sign_with_mark": "n",
        "notes": "blk"
    },
    {
        "id": "vtls004599606_0_11",
        "type": "sailor",
        "parent": "vtls004599606",
        "name": "john lewis",
        "dob": "blk",
        "age": "58",
        "place_of_birth": "aberystwyth",
        "home_address": "blk",
        "f": "blk",
        "name_of_ship": "same ship",
        "ship_port": "blk",
        "date_leaving": "blk",
        "joined_ship_date": "continues",
        "joined_at_port": "blk",
        "capacity": "master",
        "date_left": "1874-06-30",
        "left_port": "runcorn",
        "cause_of_leaving": "remains on board",
        "sign_with_mark": "n",
        "notes": "blk"
    },
    {
        "id": "vtls004599606_1_13",
        "type": "sailor",
        "parent": "vtls004599606",
        "name": "thomas evan lewis",
        "dob": "blk",
        "age": "19",
        "place_of_birth": "aberystwyth",
        "home_address": "blk",
        "f": "blk",
        "name_of_ship": "summer cloud",
        "ship_port": "aberystwyth",
        "date_leaving": "1874-06-30",
        "joined_ship_date": "1874-06-30",
        "joined_at_port": "runcorn",
        "capacity": "ordinary seaman",
        "date_left": "1874-12-24",
        "left_port": "runcorn",
        "cause_of_leaving": "discharged",
        "sign_with_mark": "n",
        "notes": "blk"
    },
    {
        "id": "vtls004599606_1_11",
        "type": "sailor",
        "parent": "vtls004599606",
        "name": "john lewis",
        "dob": "blk",
        "age": "58",
        "place_of_birth": "aberystwyth",
        "home_address": "blk",
        "f": "blk",
        "name_of_ship": "same ship",
        "ship_port": "blk",
        "date_leaving": "continues",
        "joined_ship_date": "continues",
        "joined_at_port": "blk",
        "capacity": "master",
        "date_left": "1874-12-31",
        "left_port": "runcorn",
        "cause_of_leaving": "remains on board",
        "sign_with_mark": "n",
        "notes": "blk"
    },
    {
        "id": "vtls004599606_1_12",
        "type": "sailor",
        "parent": "vtls004599606",
        "name": "david morgan",
        "dob": "blk",
        "age": "62",
        "place_of_birth": "aberystwyth",
        "home_address": "blk",
        "f": "blk",
        "name_of_ship": "same ship",
        "ship_port": "blk",
        "date_leaving": "continues",
        "joined_ship_date": "continues",
        "joined_at_port": "blk",
        "capacity": "mate",
        "date_left": "1874-12-31",
        "left_port": "runcorn",
        "cause_of_leaving": "remains on board",
        "sign_with_mark": "n",
        "notes": "blk"
    },
    {
        "id": "vtls004599606_1_14",
        "type": "sailor",
        "parent": "vtls004599606",
        "name": "charles jones",
        "dob": "blk",
        "age": "45",
        "place_of_birth": "plymouth",
        "home_address": "blk",
        "f": "blk",
        "name_of_ship": "jane",
        "ship_port": "plymouth",
        "date_leaving": "1874-08-18",
        "joined_ship_date": "1874-08-18",
        "joined_at_port": "plymouth",
        "capacity": "cook",
        "date_left": "1874-12-10",
        "left_port": "runcorn",
        "cause_of_leaving": "discharged",
        "sign_with_mark": "n",
        "notes": "blk"
    }
]