[
    {
        "id": "vtls004695631_0_14",
        "type": "sailor",
        "parent": "vtls004695631",
        "name": "john davies",
        "dob": "blk",
        "age": "17",
        "place_of_birth": "aberystwyth",
        "home_address": "blk",
        "f": "blk",
        "name_of_ship": "express",
        "ship_port": "aberystwyth",
        "date_leaving": "1863-03-10",
        "joined_ship_date": "1863-03-10",
        "joined_at_port": "aberystwyth",
        "capacity": "ordinary seaman",
        "date_left": "blk",
        "left_port": "blk",
        "cause_of_leaving": "remains on board",
        "sign_with_mark": "n",
        "notes": "blk"
    },
    {
        "id": "vtls004695631_1_13",
        "type": "sailor",
        "parent": "vtls004695631",
        "name": "william evans",
        "dob": "blk",
        "age": "22",
        "place_of_birth": "aberystwyth",
        "home_address": "blk",
        "f": "blk",
        "name_of_ship": "john & mary",
        "ship_port": "aberystwyth",
        "date_leaving": "continued",
        "joined_ship_date": "continued",
        "joined_at_port": "blk",
        "capacity": "seaman",
        "date_left": "1863-12-31",
        "left_port": "aberystwyth",
        "cause_of_leaving": "discharged",
        "sign_with_mark": "n",
        "notes": "blk"
    },
    {
        "id": "vtls004695631_0_15",
        "type": "sailor",
        "parent": "vtls004695631",
        "name": "john evans",
        "dob": "blk",
        "age": "14",
        "place_of_birth": "aberystwyth",
        "home_address": "blk",
        "f": "blk",
        "name_of_ship": "john & mary",
        "ship_port": "aberystwyth",
        "date_leaving": "continued",
        "joined_ship_date": "continued",
        "joined_at_port": "blk",
        "capacity": "ordinary seaman",
        "date_left": "blk",
        "left_port": "blk",
        "cause_of_leaving": "remains on board",
        "sign_with_mark": "n",
        "notes": "blk"
    },
    {
        "id": "vtls004695631_0_13",
        "type": "sailor",
        "parent": "vtls004695631",
        "name": "william evans",
        "dob": "blk",
        "age": "22",
        "place_of_birth": "aberystwyth",
        "home_address": "blk",
        "f": "blk",
        "name_of_ship": "john & mary",
        "ship_port": "aberystwyth",
        "date_leaving": "continued",
        "joined_ship_date": "continued",
        "joined_at_port": "blk",
        "capacity": "able seaman",
        "date_left": "blk",
        "left_port": "blk",
        "cause_of_leaving": "remains on board",
        "sign_with_mark": "n",
        "notes": "blk"
    },
    {
        "id": "vtls004695631_1_12",
        "type": "sailor",
        "parent": "vtls004695631",
        "name": "john davies",
        "dob": "blk",
        "age": "50",
        "place_of_birth": "aberystwyth",
        "home_address": "blk",
        "f": "blk",
        "name_of_ship": "john & mary",
        "ship_port": "aberystwyth",
        "date_leaving": "continued",
        "joined_ship_date": "continued",
        "joined_at_port": "blk",
        "capacity": "mate",
        "date_left": "1863-12-31",
        "left_port": "aberystwyth",
        "cause_of_leaving": "discharged",
        "sign_with_mark": "n",
        "notes": "blk"
    },
    {
        "id": "vtls004695631_0_11",
        "type": "sailor",
        "parent": "vtls004695631",
        "name": "john evans",
        "dob": "blk",
        "age": "57",
        "place_of_birth": "aberystwyth",
        "home_address": "blk",
        "f": "blk",
        "name_of_ship": "john & mary",
        "ship_port": "aberystwyth",
        "date_leaving": "continued",
        "joined_ship_date": "continued",
        "joined_at_port": "blk",
        "capacity": "master",
        "date_left": "blk",
        "left_port": "blk",
        "cause_of_leaving": "remains on board",
        "sign_with_mark": "n",
        "notes": "blk"
    },
    {
        "id": "vtls004695631_1_11",
        "type": "sailor",
        "parent": "vtls004695631",
        "name": "john evans",
        "dob": "blk",
        "age": "61",
        "place_of_birth": "aberystwyth",
        "home_address": "blk",
        "f": "blk",
        "name_of_ship": "john & mary",
        "ship_port": "aberystwyth",
        "date_leaving": "continued",
        "joined_ship_date": "continued",
        "joined_at_port": "blk",
        "capacity": "master",
        "date_left": "blk",
        "left_port": "blk",
        "cause_of_leaving": "remains on board",
        "sign_with_mark": "n",
        "notes": "blk"
    },
    {
        "id": "vtls004695631_0_12",
        "type": "sailor",
        "parent": "vtls004695631",
        "name": "john davies",
        "dob": "blk",
        "age": "50",
        "place_of_birth": "aberystwyth",
        "home_address": "blk",
        "f": "blk",
        "name_of_ship": "john & mary",
        "ship_port": "aberystwyth",
        "date_leaving": "continued",
        "joined_ship_date": "continued",
        "joined_at_port": "blk",
        "capacity": "mate",
        "date_left": "blk",
        "left_port": "blk",
        "cause_of_leaving": "remains on board",
        "sign_with_mark": "n",
        "notes": "blk"
    },
    {
        "id": "vtls004695633_0_14",
        "type": "sailor",
        "parent": "vtls004695633",
        "name": "david richards",
        "dob": "blk",
        "age": "17",
        "place_of_birth": "aberystwyth",
        "home_address": "blk",
        "f": "blk",
        "name_of_ship": "eleanor",
        "ship_port": "aberystwyth",
        "date_leaving": "1863-03-18",
        "joined_ship_date": "1864-07-10",
        "joined_at_port": "aberystwyth",
        "capacity": "ordinary seaman",
        "date_left": "blk",
        "left_port": "blk",
        "cause_of_leaving": "continues",
        "sign_with_mark": "n",
        "notes": "blk"
    },
    {
        "id": "vtls004695633_0_13",
        "type": "sailor",
        "parent": "vtls004695633",
        "name": "william evans",
        "dob": "blk",
        "age": "22",
        "place_of_birth": "aberystwyth",
        "home_address": "blk",
        "f": "blk",
        "name_of_ship": "john & mary",
        "ship_port": "aberystwyth",
        "date_leaving": "1863-12-20",
        "joined_ship_date": "1864-07-10",
        "joined_at_port": "aberystwyth",
        "capacity": "able seaman",
        "date_left": "blk",
        "left_port": "blk",
        "cause_of_leaving": "continues",
        "sign_with_mark": "n",
        "notes": "blk"
    },
    {
        "id": "vtls004695631_1_14",
        "type": "sailor",
        "parent": "vtls004695631",
        "name": "david d davies",
        "dob": "blk",
        "age": "18",
        "place_of_birth": "aberystwyth",
        "home_address": "blk",
        "f": "blk",
        "name_of_ship": "john & mary",
        "ship_port": "aberystwyth",
        "date_leaving": "continued",
        "joined_ship_date": "continued",
        "joined_at_port": "blk",
        "capacity": "seaman",
        "date_left": "1863-12-31",
        "left_port": "aberystwyth",
        "cause_of_leaving": "discharged",
        "sign_with_mark": "n",
        "notes": "blk"
    },
    {
        "id": "vtls004695633_1_12",
        "type": "sailor",
        "parent": "vtls004695633",
        "name": "richard simon",
        "dob": "blk",
        "age": "35",
        "place_of_birth": "aberystwyth",
        "home_address": "blk",
        "f": "blk",
        "name_of_ship": "john & mary",
        "ship_port": "aberystwyth",
        "date_leaving": "still on board",
        "joined_ship_date": "blk",
        "joined_at_port": "blk",
        "capacity": "mate",
        "date_left": "1864-12-31",
        "left_port": "aberystwyth",
        "cause_of_leaving": "discharged",
        "sign_with_mark": "n",
        "notes": "blk"
    },
    {
        "id": "vtls004695631_1_15",
        "type": "sailor",
        "parent": "vtls004695631",
        "name": "john evans",
        "dob": "blk",
        "age": "15",
        "place_of_birth": "aberystwyth",
        "home_address": "blk",
        "f": "blk",
        "name_of_ship": "john & mary",
        "ship_port": "aberystwyth",
        "date_leaving": "continued",
        "joined_ship_date": "continued",
        "joined_at_port": "blk",
        "capacity": "boy",
        "date_left": "1863-12-31",
        "left_port": "aberystwyth",
        "cause_of_leaving": "discharged",
        "sign_with_mark": "n",
        "notes": "blk"
    },
    {
        "id": "vtls004695633_0_12",
        "type": "sailor",
        "parent": "vtls004695633",
        "name": "richard simon",
        "dob": "blk",
        "age": "28",
        "place_of_birth": "aberystwyth",
        "home_address": "blk",
        "f": "blk",
        "name_of_ship": "empress",
        "ship_port": "aberystwyth",
        "date_leaving": "1863-11-07",
        "joined_ship_date": "1864-07-10",
        "joined_at_port": "aberystwyth",
        "capacity": "mate",
        "date_left": "blk",
        "left_port": "blk",
        "cause_of_leaving": "continues",
        "sign_with_mark": "n",
        "notes": "blk"
    },
    {
        "id": "vtls004695633_0_15",
        "type": "sailor",
        "parent": "vtls004695633",
        "name": "john evans",
        "dob": "blk",
        "age": "14",
        "place_of_birth": "aberystwyth",
        "home_address": "blk",
        "f": "blk",
        "name_of_ship": "john & mary",
        "ship_port": "aberystwyth",
        "date_leaving": "1863-12-30",
        "joined_ship_date": "1864-07-10",
        "joined_at_port": "aberystwyth",
        "capacity": "boy",
        "date_left": "blk",
        "left_port": "blk",
        "cause_of_leaving": "continues",
        "sign_with_mark": "n",
        "notes": "blk"
    },
    {
        "id": "vtls004695633_1_11",
        "type": "sailor",
        "parent": "vtls004695633",
        "name": "john evans",
        "dob": "blk",
        "age": "59",
        "place_of_birth": "aberystwyth",
        "home_address": "blk",
        "f": "blk",
        "name_of_ship": "john & mary",
        "ship_port": "aberystwyth",
        "date_leaving": "still on board",
        "joined_ship_date": "blk",
        "joined_at_port": "blk",
        "capacity": "master",
        "date_left": "blk",
        "left_port": "blk",
        "cause_of_leaving": "remains on board",
        "sign_with_mark": "n",
        "notes": "blk"
    },
    {
        "id": "vtls004695633_0_11",
        "type": "sailor",
        "parent": "vtls004695633",
        "name": "william owens",
        "dob": "blk",
        "age": "43",
        "place_of_birth": "aberystwyth",
        "home_address": "blk",
        "f": "blk",
        "name_of_ship": "ellen",
        "ship_port": "aberystwyth",
        "date_leaving": "1864-07-10",
        "joined_ship_date": "1864-07-10",
        "joined_at_port": "aberystwyth",
        "capacity": "master",
        "date_left": "blk",
        "left_port": "blk",
        "cause_of_leaving": "continues",
        "sign_with_mark": "n",
        "notes": "blk"
    },
    {
        "id": "vtls004695637_0_14",
        "type": "sailor",
        "parent": "vtls004695637",
        "name": "john evans",
        "dob": "blk",
        "age": "18",
        "place_of_birth": "aberystwyth",
        "home_address": "blk",
        "f": "blk",
        "name_of_ship": "john & mary",
        "ship_port": "aberystwyth",
        "date_leaving": "continued",
        "joined_ship_date": "continued",
        "joined_at_port": "runcorn",
        "capacity": "ordinary seaman",
        "date_left": "1867-06-30",
        "left_port": "runcorn",
        "cause_of_leaving": "remains on board",
        "sign_with_mark": "n",
        "notes": "blk"
    },
    {
        "id": "vtls004695637_0_13",
        "type": "sailor",
        "parent": "vtls004695637",
        "name": "william evans",
        "dob": "blk",
        "age": "26",
        "place_of_birth": "aberystwyth",
        "home_address": "blk",
        "f": "blk",
        "name_of_ship": "john & mary",
        "ship_port": "aberystwyth",
        "date_leaving": "continued",
        "joined_ship_date": "continued",
        "joined_at_port": "runcorn",
        "capacity": "able seaman",
        "date_left": "1867-06-30",
        "left_port": "runcorn",
        "cause_of_leaving": "remains on board",
        "sign_with_mark": "n",
        "notes": "blk"
    },
    {
        "id": "vtls004695633_1_15",
        "type": "sailor",
        "parent": "vtls004695633",
        "name": "john evans",
        "dob": "blk",
        "age": "16",
        "place_of_birth": "aberystwyth",
        "home_address": "blk",
        "f": "blk",
        "name_of_ship": "john & mary",
        "ship_port": "aberystwyth",
        "date_leaving": "still on board",
        "joined_ship_date": "blk",
        "joined_at_port": "blk",
        "capacity": "ordinary seaman",
        "date_left": "1864-12-31",
        "left_port": "aberystwyth",
        "cause_of_leaving": "discharged",
        "sign_with_mark": "n",
        "notes": "blk"
    },
    {
        "id": "vtls004695637_0_12",
        "type": "sailor",
        "parent": "vtls004695637",
        "name": "richard simon",
        "dob": "blk",
        "age": "32",
        "place_of_birth": "aberystwyth",
        "home_address": "blk",
        "f": "blk",
        "name_of_ship": "john & mary",
        "ship_port": "aberystwyth",
        "date_leaving": "continued",
        "joined_ship_date": "continued",
        "joined_at_port": "runcorn",
        "capacity": "mate",
        "date_left": "1867-06-30",
        "left_port": "runcorn",
        "cause_of_leaving": "remains on board",
        "sign_with_mark": "n",
        "notes": "blk"
    },
    {
        "id": "vtls004695633_1_14",
        "type": "sailor",
        "parent": "vtls004695633",
        "name": "david richards",
        "dob": "blk",
        "age": "19",
        "place_of_birth": "aberystwyth",
        "home_address": "blk",
        "f": "blk",
        "name_of_ship": "john & mary",
        "ship_port": "aberystwyth",
        "date_leaving": "still on board",
        "joined_ship_date": "blk",
        "joined_at_port": "blk",
        "capacity": "seaman",
        "date_left": "1863-12-31",
        "left_port": "aberystwyth",
        "cause_of_leaving": "discharged",
        "sign_with_mark": "n",
        "notes": "blk"
    },
    {
        "id": "vtls004695633_1_13",
        "type": "sailor",
        "parent": "vtls004695633",
        "name": "william evans",
        "dob": "blk",
        "age": "23",
        "place_of_birth": "aberystwyth",
        "home_address": "blk",
        "f": "blk",
        "name_of_ship": "john & mary",
        "ship_port": "aberystwyth",
        "date_leaving": "still on board",
        "joined_ship_date": "blk",
        "joined_at_port": "blk",
        "capacity": "seaman",
        "date_left": "1864-12-31",
        "left_port": "aberystwyth",
        "cause_of_leaving": "discharged",
        "sign_with_mark": "n",
        "notes": "blk"
    },
    {
        "id": "vtls004695637_0_11",
        "type": "sailor",
        "parent": "vtls004695637",
        "name": "thomas rees",
        "dob": "blk",
        "age": "45",
        "place_of_birth": "aberystwyth",
        "home_address": "blk",
        "f": "blk",
        "name_of_ship": "john & mary",
        "ship_port": "aberystwyth",
        "date_leaving": "continued",
        "joined_ship_date": "continued",
        "joined_at_port": "runcorn",
        "capacity": "master",
        "date_left": "1867-05-09",
        "left_port": "runcorn",
        "cause_of_leaving": "paid off",
        "sign_with_mark": "n",
        "notes": "blk"
    },
    {
        "id": "vtls004695637_1_14",
        "type": "sailor",
        "parent": "vtls004695637",
        "name": "john evans",
        "dob": "blk",
        "age": "18",
        "place_of_birth": "aberystwyth",
        "home_address": "blk",
        "f": "blk",
        "name_of_ship": "john & mary",
        "ship_port": "aberystwyth",
        "date_leaving": "continued",
        "joined_ship_date": "continued",
        "joined_at_port": "continued",
        "capacity": "ordinary seaman",
        "date_left": "1867-10-22",
        "left_port": "porthmadog",
        "cause_of_leaving": "paid off",
        "sign_with_mark": "n",
        "notes": "blk"
    },
    {
        "id": "vtls004695637_1_12",
        "type": "sailor",
        "parent": "vtls004695637",
        "name": "robert owen ellis",
        "dob": "blk",
        "age": "29",
        "place_of_birth": "pwllheli",
        "home_address": "blk",
        "f": "blk",
        "name_of_ship": "mary elizabeth",
        "ship_port": "pwllheli",
        "date_leaving": "1867-06-23",
        "joined_ship_date": "1867-07-12",
        "joined_at_port": "runcorn",
        "capacity": "mate",
        "date_left": "1867-10-15",
        "left_port": "porthmadog",
        "cause_of_leaving": "paid off",
        "sign_with_mark": "n",
        "notes": "blk"
    },
    {
        "id": "vtls004695637_1_13",
        "type": "sailor",
        "parent": "vtls004695637",
        "name": "william evans",
        "dob": "blk",
        "age": "26",
        "place_of_birth": "aberystwyth",
        "home_address": "blk",
        "f": "blk",
        "name_of_ship": "john & mary",
        "ship_port": "aberystwyth",
        "date_leaving": "continued",
        "joined_ship_date": "continued",
        "joined_at_port": "continued",
        "capacity": "able seaman",
        "date_left": "1867-09-05",
        "left_port": "swansea",
        "cause_of_leaving": "paid off",
        "sign_with_mark": "n",
        "notes": "blk"
    },
    {
        "id": "vtls004695637_0_15",
        "type": "sailor",
        "parent": "vtls004695637",
        "name": "thomas watkins",
        "dob": "blk",
        "age": "41",
        "place_of_birth": "aberystwyth",
        "home_address": "blk",
        "f": "blk",
        "name_of_ship": "alert",
        "ship_port": "aberystwyth",
        "date_leaving": "1867-05-09",
        "joined_ship_date": "1867-05-10",
        "joined_at_port": "runcorn",
        "capacity": "master",
        "date_left": "1867-06-30",
        "left_port": "runcorn",
        "cause_of_leaving": "remains on board",
        "sign_with_mark": "n",
        "notes": "blk"
    },
    {
        "id": "vtls004695637_1_17",
        "type": "sailor",
        "parent": "vtls004695637",
        "name": "james daniel",
        "dob": "blk",
        "age": "23",
        "place_of_birth": "aberystwyth",
        "home_address": "blk",
        "f": "blk",
        "name_of_ship": "ystwith",
        "ship_port": "aberystwyth",
        "date_leaving": "blk",
        "joined_ship_date": "1867-10-22",
        "joined_at_port": "portmadoc",
        "capacity": "mate",
        "date_left": "1867-12-23",
        "left_port": "runcorn",
        "cause_of_leaving": "remains on board",
        "sign_with_mark": "n",
        "notes": "blk"
    },
    {
        "id": "vtls004695637_1_11",
        "type": "sailor",
        "parent": "vtls004695637",
        "name": "thomas watkins",
        "dob": "blk",
        "age": "40",
        "place_of_birth": "aberystwyth",
        "home_address": "blk",
        "f": "blk",
        "name_of_ship": "john & mary",
        "ship_port": "aberystwyth",
        "date_leaving": "continued",
        "joined_ship_date": "continued",
        "joined_at_port": "continued",
        "capacity": "master",
        "date_left": "blk",
        "left_port": "blk",
        "cause_of_leaving": "remains on board",
        "sign_with_mark": "n",
        "notes": "blk"
    },
    {
        "id": "vtls004695637_1_18",
        "type": "sailor",
        "parent": "vtls004695637",
        "name": "ellis griffith",
        "dob": "blk",
        "age": "24",
        "place_of_birth": "pwllheli",
        "home_address": "blk",
        "f": "blk",
        "name_of_ship": "blk",
        "ship_port": "blk",
        "date_leaving": "blk",
        "joined_ship_date": "1867-10-22",
        "joined_at_port": "portmadoc",
        "capacity": "able seaman",
        "date_left": "1867-12-23",
        "left_port": "runcorn",
        "cause_of_leaving": "remains on board",
        "sign_with_mark": "n",
        "notes": "blk"
    },
    {
        "id": "vtls004695637_1_16",
        "type": "sailor",
        "parent": "vtls004695637",
        "name": "george john",
        "dob": "blk",
        "age": "18",
        "place_of_birth": "tenby",
        "home_address": "blk",
        "f": "blk",
        "name_of_ship": "morgan",
        "ship_port": "cardigan",
        "date_leaving": "1867-09-17",
        "joined_ship_date": "1867-09-18",
        "joined_at_port": "swansea",
        "capacity": "boy",
        "date_left": "1867-11-12",
        "left_port": "bridgewater",
        "cause_of_leaving": "paid off",
        "sign_with_mark": "n",
        "notes": "blk"
    },
    {
        "id": "vtls004695637_1_15",
        "type": "sailor",
        "parent": "vtls004695637",
        "name": "john mason",
        "dob": "blk",
        "age": "16",
        "place_of_birth": "lytham",
        "home_address": "blk",
        "f": "blk",
        "name_of_ship": "on shore",
        "ship_port": "blk",
        "date_leaving": "blk",
        "joined_ship_date": "1867-07-12",
        "joined_at_port": "runcorn",
        "capacity": "boy",
        "date_left": "1867-08-20",
        "left_port": "middlesbrough",
        "cause_of_leaving": "paid off",
        "sign_with_mark": "n",
        "notes": "blk"
    },
    {
        "id": "vtls004695647_0_13",
        "type": "sailor",
        "parent": "vtls004695647",
        "name": "william evans",
        "dob": "blk",
        "age": "28",
        "place_of_birth": "aberystwyth",
        "home_address": "blk",
        "f": "blk",
        "name_of_ship": "john & mary",
        "ship_port": "aberystwyth",
        "date_leaving": "1869-01-01",
        "joined_ship_date": "1869-01-01",
        "joined_at_port": "aberystwyth",
        "capacity": "able seaman",
        "date_left": "1869-01-30",
        "left_port": "plymouth",
        "cause_of_leaving": "remains on board",
        "sign_with_mark": "n",
        "notes": "blk"
    },
    {
        "id": "vtls004695647_1_14",
        "type": "sailor",
        "parent": "vtls004695647",
        "name": "william evans",
        "dob": "blk",
        "age": "27",
        "place_of_birth": "aberystwyth",
        "home_address": "blk",
        "f": "blk",
        "name_of_ship": "john & mary",
        "ship_port": "aberystwyth",
        "date_leaving": "remains",
        "joined_ship_date": "1869-07-04",
        "joined_at_port": "gloucester",
        "capacity": "able seaman",
        "date_left": "1869-12-31",
        "left_port": "dublin",
        "cause_of_leaving": "remains on board",
        "sign_with_mark": "n",
        "notes": "blk"
    },
    {
        "id": "vtls004695647_0_12",
        "type": "sailor",
        "parent": "vtls004695647",
        "name": "john humphreys",
        "dob": "blk",
        "age": "42",
        "place_of_birth": "aberystwyth",
        "home_address": "blk",
        "f": "blk",
        "name_of_ship": "john & mary",
        "ship_port": "aberystwyth",
        "date_leaving": "1869-01-01",
        "joined_ship_date": "1869-01-01",
        "joined_at_port": "aberystwyth",
        "capacity": "mate",
        "date_left": "1869-01-30",
        "left_port": "plymouth",
        "cause_of_leaving": "remains on board",
        "sign_with_mark": "n",
        "notes": "blk"
    },
    {
        "id": "vtls004695647_0_14",
        "type": "sailor",
        "parent": "vtls004695647",
        "name": "mc$$$$ patrick",
        "dob": "blk",
        "age": "20",
        "place_of_birth": "belfast",
        "home_address": "blk",
        "f": "blk",
        "name_of_ship": "john & mary",
        "ship_port": "aberystwyth",
        "date_leaving": "1869-01-01",
        "joined_ship_date": "1869-01-01",
        "joined_at_port": "aberystwyth",
        "capacity": "cook",
        "date_left": "1869-01-30",
        "left_port": "plymouth",
        "cause_of_leaving": "remains on board",
        "sign_with_mark": "n",
        "notes": "blk"
    },
    {
        "id": "vtls004695647_0_11",
        "type": "sailor",
        "parent": "vtls004695647",
        "name": "john evans",
        "dob": "blk",
        "age": "22",
        "place_of_birth": "aberystwyth",
        "home_address": "blk",
        "f": "blk",
        "name_of_ship": "john & mary",
        "ship_port": "aberystwyth",
        "date_leaving": "1869-01-01",
        "joined_ship_date": "1869-01-01",
        "joined_at_port": "aberystwyth",
        "capacity": "master",
        "date_left": "1869-01-30",
        "left_port": "plymouth",
        "cause_of_leaving": "remains on board",
        "sign_with_mark": "n",
        "notes": "blk"
    },
    {
        "id": "vtls004695647_1_11",
        "type": "sailor",
        "parent": "vtls004695647",
        "name": "john cevanz",
        "dob": "blk",
        "age": "21",
        "place_of_birth": "aberystwyth",
        "home_address": "blk",
        "f": "blk",
        "name_of_ship": "john & mary",
        "ship_port": "aberystwyth",
        "date_leaving": "remains",
        "joined_ship_date": "1869-07-04",
        "joined_at_port": "gloucester",
        "capacity": "master",
        "date_left": "1869-12-31",
        "left_port": "dublin",
        "cause_of_leaving": "remains on board",
        "sign_with_mark": "n",
        "notes": "blk"
    },
    {
        "id": "vtls004695647_1_12",
        "type": "sailor",
        "parent": "vtls004695647",
        "name": "john humphreys",
        "dob": "blk",
        "age": "40",
        "place_of_birth": "aberystwyth",
        "home_address": "blk",
        "f": "blk",
        "name_of_ship": "hope",
        "ship_port": "aberystwyth",
        "date_leaving": "1869-01",
        "joined_ship_date": "1869-07-04",
        "joined_at_port": "gloucester",
        "capacity": "mate",
        "date_left": "1869-12-30",
        "left_port": "porthmadog",
        "cause_of_leaving": "discharged",
        "sign_with_mark": "n",
        "notes": "blk"
    },
    {
        "id": "vtls004695647_1_13",
        "type": "sailor",
        "parent": "vtls004695647",
        "name": "john watkins",
        "dob": "blk",
        "age": "19",
        "place_of_birth": "aberystwyth",
        "home_address": "blk",
        "f": "blk",
        "name_of_ship": "none",
        "ship_port": "blk",
        "date_leaving": "blk",
        "joined_ship_date": "1869-10-03",
        "joined_at_port": "portmadoc",
        "capacity": "cook",
        "date_left": "1869-12-27",
        "left_port": "porthmadog",
        "cause_of_leaving": "discharged",
        "sign_with_mark": "n",
        "notes": "blk"
    },
    {
        "id": "vtls004695656_0_14",
        "type": "sailor",
        "parent": "vtls004695656",
        "name": "morris hughes",
        "dob": "blk",
        "age": "18",
        "place_of_birth": "aberystwyth",
        "home_address": "blk",
        "f": "blk",
        "name_of_ship": "john & mary",
        "ship_port": "aberystwyth",
        "date_leaving": "continued",
        "joined_ship_date": "1870-01-01",
        "joined_at_port": "dublin",
        "capacity": "ordinary seaman",
        "date_left": "1870-06-30",
        "left_port": "liverpool",
        "cause_of_leaving": "remains on board",
        "sign_with_mark": "n",
        "notes": "blk"
    },
    {
        "id": "vtls004695656_0_13",
        "type": "sailor",
        "parent": "vtls004695656",
        "name": "william evans",
        "dob": "blk",
        "age": "29",
        "place_of_birth": "aberystwyth",
        "home_address": "blk",
        "f": "blk",
        "name_of_ship": "john & mary",
        "ship_port": "aberystwyth",
        "date_leaving": "continued",
        "joined_ship_date": "1870-01-01",
        "joined_at_port": "dublin",
        "capacity": "able seaman",
        "date_left": "1870-06-30",
        "left_port": "liverpool",
        "cause_of_leaving": "remains on board",
        "sign_with_mark": "n",
        "notes": "blk"
    },
    {
        "id": "vtls004695656_1_13",
        "type": "sailor",
        "parent": "vtls004695656",
        "name": "william evans",
        "dob": "blk",
        "age": "29",
        "place_of_birth": "aberystwyth",
        "home_address": "blk",
        "f": "blk",
        "name_of_ship": "john & mary",
        "ship_port": "aberystwyth",
        "date_leaving": "previous to the 1870-06-32",
        "joined_ship_date": "blk",
        "joined_at_port": "blk",
        "capacity": "able seaman",
        "date_left": "blk",
        "left_port": "blk",
        "cause_of_leaving": "remains on board",
        "sign_with_mark": "n",
        "notes": "blk"
    },
    {
        "id": "vtls004695656_0_11",
        "type": "sailor",
        "parent": "vtls004695656",
        "name": "john evans",
        "dob": "blk",
        "age": "22",
        "place_of_birth": "aberystwyth",
        "home_address": "blk",
        "f": "blk",
        "name_of_ship": "john & mary",
        "ship_port": "aberystwyth",
        "date_leaving": "continued",
        "joined_ship_date": "1870-01-01",
        "joined_at_port": "dublin",
        "capacity": "master",
        "date_left": "1870-06-30",
        "left_port": "liverpool",
        "cause_of_leaving": "remains on board",
        "sign_with_mark": "n",
        "notes": "blk"
    },
    {
        "id": "vtls004695647_1_15",
        "type": "sailor",
        "parent": "vtls004695647",
        "name": "james humphreys",
        "dob": "blk",
        "age": "35",
        "place_of_birth": "aberystwyth",
        "home_address": "blk",
        "f": "blk",
        "name_of_ship": "john ann",
        "ship_port": "aberystwyth",
        "date_leaving": "1869-10",
        "joined_ship_date": "1869-10-03",
        "joined_at_port": "portmadoc",
        "capacity": "mate",
        "date_left": "1869-12-31",
        "left_port": "dublin",
        "cause_of_leaving": "remains on board",
        "sign_with_mark": "n",
        "notes": "blk"
    },
    {
        "id": "vtls004695656_1_12",
        "type": "sailor",
        "parent": "vtls004695656",
        "name": "john cole",
        "dob": "blk",
        "age": "39",
        "place_of_birth": "aberystwyth",
        "home_address": "blk",
        "f": "blk",
        "name_of_ship": "john & mary",
        "ship_port": "aberystwyth",
        "date_leaving": "previous to the 1870-06-31",
        "joined_ship_date": "blk",
        "joined_at_port": "blk",
        "capacity": "mate",
        "date_left": "1870-12-09",
        "left_port": "aberystwyth",
        "cause_of_leaving": "discharged",
        "sign_with_mark": "n",
        "notes": "blk"
    },
    {
        "id": "vtls004695656_0_12",
        "type": "sailor",
        "parent": "vtls004695656",
        "name": "john cole",
        "dob": "blk",
        "age": "50",
        "place_of_birth": "aberystwyth",
        "home_address": "blk",
        "f": "blk",
        "name_of_ship": "john & mary",
        "ship_port": "aberystwyth",
        "date_leaving": "continued",
        "joined_ship_date": "1870-01-01",
        "joined_at_port": "dublin",
        "capacity": "mate",
        "date_left": "1870-06-30",
        "left_port": "liverpool",
        "cause_of_leaving": "remains on board",
        "sign_with_mark": "n",
        "notes": "blk"
    },
    {
        "id": "vtls004695656_1_11",
        "type": "sailor",
        "parent": "vtls004695656",
        "name": "john evans",
        "dob": "blk",
        "age": "22",
        "place_of_birth": "aberystwyth",
        "home_address": "blk",
        "f": "blk",
        "name_of_ship": "john & mary",
        "ship_port": "aberystwyth",
        "date_leaving": "previous to the 1870-06-30",
        "joined_ship_date": "blk",
        "joined_at_port": "blk",
        "capacity": "master",
        "date_left": "blk",
        "left_port": "blk",
        "cause_of_leaving": "remains on board",
        "sign_with_mark": "n",
        "notes": "blk"
    },
    {
        "id": "vtls004695647_1_16",
        "type": "sailor",
        "parent": "vtls004695647",
        "name": "william williams",
        "dob": "blk",
        "age": "19",
        "place_of_birth": "aberystwyth",
        "home_address": "blk",
        "f": "blk",
        "name_of_ship": "none",
        "ship_port": "blk",
        "date_leaving": "blk",
        "joined_ship_date": "1869-10-28",
        "joined_at_port": "portmadoc",
        "capacity": "cook",
        "date_left": "1869-12-31",
        "left_port": "dublin",
        "cause_of_leaving": "remains on board",
        "sign_with_mark": "n",
        "notes": "blk"
    },
    {
        "id": "vtls004695656_1_14",
        "type": "sailor",
        "parent": "vtls004695656",
        "name": "morris hughes",
        "dob": "blk",
        "age": "20",
        "place_of_birth": "aberystwyth",
        "home_address": "blk",
        "f": "blk",
        "name_of_ship": "john & mary",
        "ship_port": "aberystwyth",
        "date_leaving": "previous to the 1870-06-33",
        "joined_ship_date": "blk",
        "joined_at_port": "blk",
        "capacity": "ordinary seaman",
        "date_left": "1870-09-06",
        "left_port": "runcorn",
        "cause_of_leaving": "discharged",
        "sign_with_mark": "n",
        "notes": "blk"
    },
    {
        "id": "vtls004695674_0_14",
        "type": "sailor",
        "parent": "vtls004695674",
        "name": "morris hughes",
        "dob": "blk",
        "age": "21",
        "place_of_birth": "aberystwyth",
        "home_address": "blk",
        "f": "blk",
        "name_of_ship": "jane griffiths",
        "ship_port": "aberystwyth",
        "date_leaving": "1871-12-27",
        "joined_ship_date": "1871-01-01",
        "joined_at_port": "aberystwyth",
        "capacity": "cook",
        "date_left": "1871-06-30",
        "left_port": "havre, france",
        "cause_of_leaving": "remains on board",
        "sign_with_mark": "n",
        "notes": "blk"
    },
    {
        "id": "vtls004695674_0_13",
        "type": "sailor",
        "parent": "vtls004695674",
        "name": "william evans",
        "dob": "blk",
        "age": "30",
        "place_of_birth": "aberystwyth",
        "home_address": "blk",
        "f": "blk",
        "name_of_ship": "john & mary",
        "ship_port": "blk",
        "date_leaving": "continued",
        "joined_ship_date": "1871-01-01",
        "joined_at_port": "aberystwyth",
        "capacity": "able seaman",
        "date_left": "1871-06-30",
        "left_port": "havre, france",
        "cause_of_leaving": "remains on board",
        "sign_with_mark": "n",
        "notes": "blk"
    },
    {
        "id": "vtls004695674_0_12",
        "type": "sailor",
        "parent": "vtls004695674",
        "name": "hugh jones",
        "dob": "blk",
        "age": "28",
        "place_of_birth": "aberystwyth",
        "home_address": "blk",
        "f": "blk",
        "name_of_ship": "jane jones",
        "ship_port": "aberdovey",
        "date_leaving": "1871-11-26",
        "joined_ship_date": "1871-01-01",
        "joined_at_port": "aberystwyth",
        "capacity": "mate",
        "date_left": "1871-06-30",
        "left_port": "havre, france",
        "cause_of_leaving": "remains on board",
        "sign_with_mark": "n",
        "notes": "blk"
    },
    {
        "id": "vtls004695674_0_11",
        "type": "sailor",
        "parent": "vtls004695674",
        "name": "john evans",
        "dob": "blk",
        "age": "23",
        "place_of_birth": "aberystwyth",
        "home_address": "blk",
        "f": "blk",
        "name_of_ship": "john & mary",
        "ship_port": "aberystwyth",
        "date_leaving": "continued",
        "joined_ship_date": "continued",
        "joined_at_port": "continued",
        "capacity": "master",
        "date_left": "1871-06-30",
        "left_port": "havre, france",
        "cause_of_leaving": "remains on board",
        "sign_with_mark": "n",
        "notes": "blk"
    },
    {
        "id": "vtls004695674_1_12",
        "type": "sailor",
        "parent": "vtls004695674",
        "name": "hugh jones",
        "dob": "blk",
        "age": "31",
        "place_of_birth": "borth",
        "home_address": "blk",
        "f": "blk",
        "name_of_ship": "john & mary",
        "ship_port": "aberystwyth",
        "date_leaving": "previous to 1871-06-30",
        "joined_ship_date": "blk",
        "joined_at_port": "blk",
        "capacity": "mate",
        "date_left": "1871-12-08",
        "left_port": "porthmadog",
        "cause_of_leaving": "discharged",
        "sign_with_mark": "n",
        "notes": "blk"
    },
    {
        "id": "vtls004695674_1_11",
        "type": "sailor",
        "parent": "vtls004695674",
        "name": "john evans",
        "dob": "blk",
        "age": "24",
        "place_of_birth": "aberystwyth",
        "home_address": "blk",
        "f": "blk",
        "name_of_ship": "john & mary",
        "ship_port": "aberystwyth",
        "date_leaving": "previous to 1871-06-30",
        "joined_ship_date": "blk",
        "joined_at_port": "blk",
        "capacity": "master",
        "date_left": "blk",
        "left_port": "blk",
        "cause_of_leaving": "remains on board",
        "sign_with_mark": "n",
        "notes": "blk"
    },
    {
        "id": "vtls004695674_1_14",
        "type": "sailor",
        "parent": "vtls004695674",
        "name": "morris hughes",
        "dob": "blk",
        "age": "20",
        "place_of_birth": "aberystwyth",
        "home_address": "blk",
        "f": "blk",
        "name_of_ship": "john & mary",
        "ship_port": "aberystwyth",
        "date_leaving": "previous to 1871-06-30",
        "joined_ship_date": "blk",
        "joined_at_port": "blk",
        "capacity": "ordinary seaman",
        "date_left": "1871-08-08",
        "left_port": "runcorn",
        "cause_of_leaving": "discharged",
        "sign_with_mark": "n",
        "notes": "blk"
    },
    {
        "id": "vtls004695681_0_13",
        "type": "sailor",
        "parent": "vtls004695681",
        "name": "william evans",
        "dob": "blk",
        "age": "32",
        "place_of_birth": "aberystwyth",
        "home_address": "blk",
        "f": "blk",
        "name_of_ship": "john & mary",
        "ship_port": "aberystwyth",
        "date_leaving": "previous to the 1871-12-33",
        "joined_ship_date": "blk",
        "joined_at_port": "blk",
        "capacity": "able seaman",
        "date_left": "1872-05-04",
        "left_port": "dublin",
        "cause_of_leaving": "discharged",
        "sign_with_mark": "n",
        "notes": "blk"
    },
    {
        "id": "vtls004695674_1_13",
        "type": "sailor",
        "parent": "vtls004695674",
        "name": "william evans",
        "dob": "blk",
        "age": "31",
        "place_of_birth": "aberystwyth",
        "home_address": "blk",
        "f": "blk",
        "name_of_ship": "john & mary",
        "ship_port": "aberystwyth",
        "date_leaving": "previous to 1871-06-30",
        "joined_ship_date": "blk",
        "joined_at_port": "blk",
        "capacity": "able seaman",
        "date_left": "1871-12-08",
        "left_port": "porthmadog",
        "cause_of_leaving": "discharged",
        "sign_with_mark": "n",
        "notes": "blk"
    },
    {
        "id": "vtls004695681_0_11",
        "type": "sailor",
        "parent": "vtls004695681",
        "name": "john evans",
        "dob": "blk",
        "age": "25",
        "place_of_birth": "aberystwyth",
        "home_address": "blk",
        "f": "blk",
        "name_of_ship": "john & mary",
        "ship_port": "aberystwyth",
        "date_leaving": "previous to the 1871-12-31",
        "joined_ship_date": "blk",
        "joined_at_port": "blk",
        "capacity": "master",
        "date_left": "1872-05-04",
        "left_port": "dublin",
        "cause_of_leaving": "discharged",
        "sign_with_mark": "n",
        "notes": "blk"
    },
    {
        "id": "vtls004695681_0_14",
        "type": "sailor",
        "parent": "vtls004695681",
        "name": "william hughes",
        "dob": "blk",
        "age": "19",
        "place_of_birth": "borth",
        "home_address": "blk",
        "f": "blk",
        "name_of_ship": "picton",
        "ship_port": "portmadoc",
        "date_leaving": "1872-02-10",
        "joined_ship_date": "1872-01-20",
        "joined_at_port": "portmadoc",
        "capacity": "ordinary seaman",
        "date_left": "1872-05-04",
        "left_port": "dublin",
        "cause_of_leaving": "discharged",
        "sign_with_mark": "n",
        "notes": "blk"
    },
    {
        "id": "vtls004695681_0_12",
        "type": "sailor",
        "parent": "vtls004695681",
        "name": "hugh jones",
        "dob": "blk",
        "age": "30",
        "place_of_birth": "borth",
        "home_address": "blk",
        "f": "blk",
        "name_of_ship": "john & mary",
        "ship_port": "aberystwyth",
        "date_leaving": "1871-12-14",
        "joined_ship_date": "1872-02-10",
        "joined_at_port": "portmadoc",
        "capacity": "mate",
        "date_left": "1872-05-04",
        "left_port": "dublin",
        "cause_of_leaving": "discharged",
        "sign_with_mark": "n",
        "notes": "blk"
    },
    {
        "id": "vtls004695674_1_15",
        "type": "sailor",
        "parent": "vtls004695674",
        "name": "paul samuel roberts",
        "dob": "blk",
        "age": "19",
        "place_of_birth": "liverpool",
        "home_address": "blk",
        "f": "blk",
        "name_of_ship": "first",
        "ship_port": "blk",
        "date_leaving": "blk",
        "joined_ship_date": "1871-08-08",
        "joined_at_port": "runcorn",
        "capacity": "boy",
        "date_left": "1871-12-07",
        "left_port": "porthmadog",
        "cause_of_leaving": "discharged",
        "sign_with_mark": "n",
        "notes": "blk"
    }
]