[
    {
        "id": "vtls004964687_0_11",
        "type": "sailor",
        "parent": "vtls004964687",
        "name": "henry davies",
        "dob": "blk",
        "age": "29",
        "place_of_birth": "newquay",
        "home_address": "blk",
        "f": "blk",
        "name_of_ship": "susanna",
        "ship_port": "aberystwyth",
        "date_leaving": "remained",
        "joined_ship_date": "1863-04-10",
        "joined_at_port": "cardiff",
        "capacity": "master",
        "date_left": "1863-06-24",
        "left_port": "liverpool",
        "cause_of_leaving": "remains on board",
        "sign_with_mark": "n",
        "notes": "blk"
    },
    {
        "id": "vtls004964687_1_11",
        "type": "sailor",
        "parent": "vtls004964687",
        "name": "henry davies",
        "dob": "blk",
        "age": "30",
        "place_of_birth": "newquay",
        "home_address": "blk",
        "f": "blk",
        "name_of_ship": "susanna",
        "ship_port": "aberystwyth",
        "date_leaving": "remained",
        "joined_ship_date": "1863-01-01",
        "joined_at_port": "at sea",
        "capacity": "master",
        "date_left": "1863-06-30",
        "left_port": "liverpool",
        "cause_of_leaving": "remains on board",
        "sign_with_mark": "n",
        "notes": "blk"
    },
    {
        "id": "vtls004964687_0_14",
        "type": "sailor",
        "parent": "vtls004964687",
        "name": "david d davies",
        "dob": "blk",
        "age": "17",
        "place_of_birth": "newquay",
        "home_address": "blk",
        "f": "blk",
        "name_of_ship": "john william",
        "ship_port": "blk",
        "date_leaving": "1863-03-blk",
        "joined_ship_date": "1863-04-10",
        "joined_at_port": "cardiff",
        "capacity": "able seaman",
        "date_left": "1863-06-24",
        "left_port": "liverpool",
        "cause_of_leaving": "discharged",
        "sign_with_mark": "n",
        "notes": "blk"
    },
    {
        "id": "vtls004964687_0_12",
        "type": "sailor",
        "parent": "vtls004964687",
        "name": "henry jenkin",
        "dob": "blk",
        "age": "27",
        "place_of_birth": "newquay",
        "home_address": "blk",
        "f": "blk",
        "name_of_ship": "susanna",
        "ship_port": "aberystwyth",
        "date_leaving": "remained",
        "joined_ship_date": "1863-04-10",
        "joined_at_port": "cardiff",
        "capacity": "boatswain",
        "date_left": "1863-06-24",
        "left_port": "liverpool",
        "cause_of_leaving": "discharged",
        "sign_with_mark": "n",
        "notes": "blk"
    },
    {
        "id": "vtls004964687_0_13",
        "type": "sailor",
        "parent": "vtls004964687",
        "name": "john owens",
        "dob": "blk",
        "age": "21",
        "place_of_birth": "cardigan",
        "home_address": "blk",
        "f": "blk",
        "name_of_ship": "gem of the sea",
        "ship_port": "blk",
        "date_leaving": "1863-01-29",
        "joined_ship_date": "1863-04-10",
        "joined_at_port": "cardiff",
        "capacity": "able seaman",
        "date_left": "1863-06-24",
        "left_port": "liverpool",
        "cause_of_leaving": "discharged",
        "sign_with_mark": "n",
        "notes": "blk"
    },
    {
        "id": "vtls004964687_1_13",
        "type": "sailor",
        "parent": "vtls004964687",
        "name": "jenkin jones",
        "dob": "blk",
        "age": "21",
        "place_of_birth": "newquay",
        "home_address": "blk",
        "f": "blk",
        "name_of_ship": "susanna",
        "ship_port": "aberystwyth",
        "date_leaving": "remained",
        "joined_ship_date": "1863-01-01",
        "joined_at_port": "at sea",
        "capacity": "able seaman",
        "date_left": "1863-04-12",
        "left_port": "cardiff",
        "cause_of_leaving": "discharged",
        "sign_with_mark": "n",
        "notes": "blk"
    },
    {
        "id": "vtls004964687_1_14",
        "type": "sailor",
        "parent": "vtls004964687",
        "name": "thomas lloyd",
        "dob": "blk",
        "age": "30",
        "place_of_birth": "newquay",
        "home_address": "blk",
        "f": "blk",
        "name_of_ship": "susanna",
        "ship_port": "aberystwyth",
        "date_leaving": "remained",
        "joined_ship_date": "1863-01-01",
        "joined_at_port": "at sea",
        "capacity": "able seaman",
        "date_left": "1863-04-12",
        "left_port": "cardiff",
        "cause_of_leaving": "discharged",
        "sign_with_mark": "n",
        "notes": "blk"
    },
    {
        "id": "vtls004964687_1_12",
        "type": "sailor",
        "parent": "vtls004964687",
        "name": "henry jenkins",
        "dob": "blk",
        "age": "28",
        "place_of_birth": "newquay",
        "home_address": "blk",
        "f": "blk",
        "name_of_ship": "susanna",
        "ship_port": "aberystwyth",
        "date_leaving": "remained",
        "joined_ship_date": "1863-01-01",
        "joined_at_port": "at sea",
        "capacity": "mate",
        "date_left": "1863-04-12",
        "left_port": "cardiff",
        "cause_of_leaving": "discharged",
        "sign_with_mark": "n",
        "notes": "blk"
    },
    {
        "id": "vtls004964695_0_11",
        "type": "sailor",
        "parent": "vtls004964695",
        "name": "henry davies",
        "dob": "blk",
        "age": "30",
        "place_of_birth": "newquay",
        "home_address": "blk",
        "f": "blk",
        "name_of_ship": "susanna",
        "ship_port": "aberystwyth",
        "date_leaving": "remained",
        "joined_ship_date": "blk",
        "joined_at_port": "blk",
        "capacity": "master",
        "date_left": "1864-05-14",
        "left_port": "swansea",
        "cause_of_leaving": "paid off",
        "sign_with_mark": "n",
        "notes": "henry davies continues as master in the next voyage"
    },
    {
        "id": "vtls004964687_2_14",
        "type": "sailor",
        "parent": "vtls004964687",
        "name": "wiliam jones",
        "dob": "blk",
        "age": "18",
        "place_of_birth": "cardigan",
        "home_address": "blk",
        "f": "blk",
        "name_of_ship": "susanna",
        "ship_port": "aberystwyth",
        "date_leaving": "1863-06-30",
        "joined_ship_date": "1863-07-01",
        "joined_at_port": "liverpool",
        "capacity": "ordinary seaman",
        "date_left": "1863-12-31",
        "left_port": "belfast",
        "cause_of_leaving": "discharged",
        "sign_with_mark": "n",
        "notes": "blk"
    },
    {
        "id": "vtls004964687_2_13",
        "type": "sailor",
        "parent": "vtls004964687",
        "name": "david jones",
        "dob": "blk",
        "age": "27",
        "place_of_birth": "newquay",
        "home_address": "blk",
        "f": "blk",
        "name_of_ship": "susanna",
        "ship_port": "aberystwyth",
        "date_leaving": "1863-06-30",
        "joined_ship_date": "1863-07-01",
        "joined_at_port": "liverpool",
        "capacity": "able seaman",
        "date_left": "1863-12-31",
        "left_port": "belfast",
        "cause_of_leaving": "discharged",
        "sign_with_mark": "n",
        "notes": "blk"
    },
    {
        "id": "vtls004964687_2_12",
        "type": "sailor",
        "parent": "vtls004964687",
        "name": "jhenry jenkins",
        "dob": "blk",
        "age": "29",
        "place_of_birth": "newquay",
        "home_address": "blk",
        "f": "blk",
        "name_of_ship": "susanna",
        "ship_port": "aberystwyth",
        "date_leaving": "1863-06-30",
        "joined_ship_date": "1863-07-01",
        "joined_at_port": "liverpool",
        "capacity": "mate",
        "date_left": "1863-12-31",
        "left_port": "belfast",
        "cause_of_leaving": "discharged",
        "sign_with_mark": "n",
        "notes": "blk"
    },
    {
        "id": "vtls004964695_0_13",
        "type": "sailor",
        "parent": "vtls004964695",
        "name": "william nicholas",
        "dob": "blk",
        "age": "32",
        "place_of_birth": "pembroke",
        "home_address": "blk",
        "f": "blk",
        "name_of_ship": "susanna",
        "ship_port": "aberystwyth",
        "date_leaving": "remained",
        "joined_ship_date": "blk",
        "joined_at_port": "blk",
        "capacity": "able seaman",
        "date_left": "1864-05-14",
        "left_port": "swansea",
        "cause_of_leaving": "paid off",
        "sign_with_mark": "n",
        "notes": "blk"
    },
    {
        "id": "vtls004964695_1_11",
        "type": "sailor",
        "parent": "vtls004964695",
        "name": "henry jenkins",
        "dob": "blk",
        "age": "29",
        "place_of_birth": "newquay",
        "home_address": "blk",
        "f": "blk",
        "name_of_ship": "susanna",
        "ship_port": "aberystwyth",
        "date_leaving": "remained",
        "joined_ship_date": "1864-08-08",
        "joined_at_port": "runcorn",
        "capacity": "master",
        "date_left": "blk",
        "left_port": "blk",
        "cause_of_leaving": "remains on board",
        "sign_with_mark": "n",
        "notes": "blk"
    },
    {
        "id": "vtls004964695_0_14",
        "type": "sailor",
        "parent": "vtls004964695",
        "name": "patrick mckey",
        "dob": "blk",
        "age": "27",
        "place_of_birth": "belfast",
        "home_address": "blk",
        "f": "blk",
        "name_of_ship": "susanna",
        "ship_port": "aberystwyth",
        "date_leaving": "remained",
        "joined_ship_date": "blk",
        "joined_at_port": "blk",
        "capacity": "able seaman",
        "date_left": "1864-05-14",
        "left_port": "swansea",
        "cause_of_leaving": "paid off",
        "sign_with_mark": "n",
        "notes": "blk"
    },
    {
        "id": "vtls004964695_0_12",
        "type": "sailor",
        "parent": "vtls004964695",
        "name": "henry jenkins",
        "dob": "blk",
        "age": "29",
        "place_of_birth": "newquay",
        "home_address": "blk",
        "f": "blk",
        "name_of_ship": "susanna",
        "ship_port": "aberystwyth",
        "date_leaving": "remained",
        "joined_ship_date": "blk",
        "joined_at_port": "blk",
        "capacity": "mate",
        "date_left": "1864-05-14",
        "left_port": "swansea",
        "cause_of_leaving": "paid off",
        "sign_with_mark": "n",
        "notes": "blk"
    },
    {
        "id": "vtls004964687_2_11",
        "type": "sailor",
        "parent": "vtls004964687",
        "name": "henry davies",
        "dob": "blk",
        "age": "30",
        "place_of_birth": "newquay",
        "home_address": "blk",
        "f": "blk",
        "name_of_ship": "susanna",
        "ship_port": "aberystwyth",
        "date_leaving": "remained",
        "joined_ship_date": "blk",
        "joined_at_port": "blk",
        "capacity": "master",
        "date_left": "blk",
        "left_port": "blk",
        "cause_of_leaving": "remains on board",
        "sign_with_mark": "n",
        "notes": "blk"
    },
    {
        "id": "vtls004964695_1_13",
        "type": "sailor",
        "parent": "vtls004964695",
        "name": "elija wyelcher",
        "dob": "blk",
        "age": "blk",
        "place_of_birth": "london",
        "home_address": "blk",
        "f": "blk",
        "name_of_ship": "susanna",
        "ship_port": "aberystwyth",
        "date_leaving": "remained",
        "joined_ship_date": "1864-08-08",
        "joined_at_port": "runcorn",
        "capacity": "able seaman",
        "date_left": "1864-12-21",
        "left_port": "cardiff",
        "cause_of_leaving": "discharged",
        "sign_with_mark": "n",
        "notes": "blk"
    },
    {
        "id": "vtls004964699_0_11",
        "type": "sailor",
        "parent": "vtls004964699",
        "name": "henry jenkins",
        "dob": "blk",
        "age": "blk",
        "place_of_birth": "newquay",
        "home_address": "blk",
        "f": "blk",
        "name_of_ship": "susanna",
        "ship_port": "aberystwyth",
        "date_leaving": "1866-06-30",
        "joined_ship_date": "1866-07-01",
        "joined_at_port": "blk",
        "capacity": "master",
        "date_left": "1866-12-31",
        "left_port": "liverpool",
        "cause_of_leaving": "remains on board",
        "sign_with_mark": "n",
        "notes": "blk"
    },
    {
        "id": "vtls004964695_1_14",
        "type": "sailor",
        "parent": "vtls004964695",
        "name": "william jenkins",
        "dob": "blk",
        "age": "blk",
        "place_of_birth": "cardigan",
        "home_address": "blk",
        "f": "blk",
        "name_of_ship": "susanna",
        "ship_port": "aberystwyth",
        "date_leaving": "remained",
        "joined_ship_date": "1864-08-08",
        "joined_at_port": "runcorn",
        "capacity": "able seaman",
        "date_left": "blk",
        "left_port": "blk",
        "cause_of_leaving": "remains on board",
        "sign_with_mark": "n",
        "notes": "blk"
    },
    {
        "id": "vtls004964699_0_12",
        "type": "sailor",
        "parent": "vtls004964699",
        "name": "david evans",
        "dob": "blk",
        "age": "blk",
        "place_of_birth": "newquay",
        "home_address": "blk",
        "f": "blk",
        "name_of_ship": "susanna",
        "ship_port": "aberystwyth",
        "date_leaving": "1866-06-30",
        "joined_ship_date": "1866-07-01",
        "joined_at_port": "blk",
        "capacity": "mate",
        "date_left": "1866-12-31",
        "left_port": "liverpool",
        "cause_of_leaving": "remains on board",
        "sign_with_mark": "n",
        "notes": "blk"
    },
    {
        "id": "vtls004964695_1_15",
        "type": "sailor",
        "parent": "vtls004964695",
        "name": "david phillips",
        "dob": "blk",
        "age": "blk",
        "place_of_birth": "newquay",
        "home_address": "blk",
        "f": "blk",
        "name_of_ship": "susanna",
        "ship_port": "aberystwyth",
        "date_leaving": "remained",
        "joined_ship_date": "1864-08-08",
        "joined_at_port": "runcorn",
        "capacity": "boy",
        "date_left": "1864-12-21",
        "left_port": "cardiff",
        "cause_of_leaving": "discharged",
        "sign_with_mark": "n",
        "notes": "blk"
    },
    {
        "id": "vtls004964695_1_12",
        "type": "sailor",
        "parent": "vtls004964695",
        "name": "john evans",
        "dob": "blk",
        "age": "blk",
        "place_of_birth": "newquay",
        "home_address": "blk",
        "f": "blk",
        "name_of_ship": "susanna",
        "ship_port": "aberystwyth",
        "date_leaving": "remained",
        "joined_ship_date": "1864-08-08",
        "joined_at_port": "runcorn",
        "capacity": "mate",
        "date_left": "1864-12-31",
        "left_port": "cardiff",
        "cause_of_leaving": "discharged",
        "sign_with_mark": "n",
        "notes": "blk"
    },
    {
        "id": "vtls004964699_0_13",
        "type": "sailor",
        "parent": "vtls004964699",
        "name": "unknown",
        "dob": "blk",
        "age": "blk",
        "place_of_birth": "unknown",
        "home_address": "blk",
        "f": "blk",
        "name_of_ship": "unknown",
        "ship_port": "unknown",
        "date_leaving": "unknown",
        "joined_ship_date": "unknown",
        "joined_at_port": "unknown",
        "capacity": "able seaman",
        "date_left": "unknown",
        "left_port": "unknown",
        "cause_of_leaving": "unknown",
        "sign_with_mark": "n",
        "notes": "blk"
    },
    {
        "id": "vtls004964714_0_11",
        "type": "sailor",
        "parent": "vtls004964714",
        "name": "henry jenkins",
        "dob": "blk",
        "age": "blk",
        "place_of_birth": "newquay",
        "home_address": "blk",
        "f": "blk",
        "name_of_ship": "susanna",
        "ship_port": "aberystwyth",
        "date_leaving": "1866-12-31",
        "joined_ship_date": "1867-01-01",
        "joined_at_port": "liverpool",
        "capacity": "master",
        "date_left": "1867-01-05",
        "left_port": "at sea",
        "cause_of_leaving": "drowned",
        "sign_with_mark": "n",
        "notes": "5th january 1867 from liverpool to tralee but foundered on the voyage and was never heard of afterwards."
    },
    {
        "id": "vtls004964699_0_14",
        "type": "sailor",
        "parent": "vtls004964699",
        "name": "thomas gordwing",
        "dob": "blk",
        "age": "17",
        "place_of_birth": "holyhead",
        "home_address": "blk",
        "f": "blk",
        "name_of_ship": "susanna",
        "ship_port": "aberystwyth",
        "date_leaving": "1866-06-30",
        "joined_ship_date": "1866-12-03",
        "joined_at_port": "liverpool",
        "capacity": "ordinary seaman",
        "date_left": "1866-12-31",
        "left_port": "liverpool",
        "cause_of_leaving": "remains on board",
        "sign_with_mark": "n",
        "notes": "blk"
    },
    {
        "id": "vtls004964699_1_15",
        "type": "sailor",
        "parent": "vtls004964699",
        "name": "george morgans",
        "dob": "blk",
        "age": "17",
        "place_of_birth": "newport",
        "home_address": "blk",
        "f": "blk",
        "name_of_ship": "ellen owen",
        "ship_port": "newquay",
        "date_leaving": "1866-04-28",
        "joined_ship_date": "1866-04-28",
        "joined_at_port": "runcorn",
        "capacity": "boy",
        "date_left": "blk",
        "left_port": "blk",
        "cause_of_leaving": "remains on board",
        "sign_with_mark": "n",
        "notes": "blk"
    },
    {
        "id": "vtls004964699_1_14",
        "type": "sailor",
        "parent": "vtls004964699",
        "name": "titus lewis",
        "dob": "blk",
        "age": "19",
        "place_of_birth": "newcastle",
        "home_address": "blk",
        "f": "blk",
        "name_of_ship": "susanna",
        "ship_port": "aberystwyth",
        "date_leaving": "remained",
        "joined_ship_date": "blk",
        "joined_at_port": "blk",
        "capacity": "able seaman",
        "date_left": "blk",
        "left_port": "blk",
        "cause_of_leaving": "remains on board",
        "sign_with_mark": "n",
        "notes": "blk"
    },
    {
        "id": "vtls004964699_1_13",
        "type": "sailor",
        "parent": "vtls004964699",
        "name": "john thomas",
        "dob": "blk",
        "age": "25",
        "place_of_birth": "trevor",
        "home_address": "blk",
        "f": "blk",
        "name_of_ship": "susanna",
        "ship_port": "aberystwyth",
        "date_leaving": "remained",
        "joined_ship_date": "blk",
        "joined_at_port": "blk",
        "capacity": "able seaman",
        "date_left": "blk",
        "left_port": "blk",
        "cause_of_leaving": "remains on board",
        "sign_with_mark": "n",
        "notes": "blk"
    },
    {
        "id": "vtls004964699_1_11",
        "type": "sailor",
        "parent": "vtls004964699",
        "name": "henry jenkins",
        "dob": "blk",
        "age": "30",
        "place_of_birth": "newquay",
        "home_address": "blk",
        "f": "blk",
        "name_of_ship": "susanna",
        "ship_port": "aberystwyth",
        "date_leaving": "remained",
        "joined_ship_date": "blk",
        "joined_at_port": "blk",
        "capacity": "master",
        "date_left": "blk",
        "left_port": "blk",
        "cause_of_leaving": "remains on board",
        "sign_with_mark": "n",
        "notes": "blk"
    },
    {
        "id": "vtls004964699_0_15",
        "type": "sailor",
        "parent": "vtls004964699",
        "name": "unknown",
        "dob": "blk",
        "age": "blk",
        "place_of_birth": "unknown",
        "home_address": "blk",
        "f": "blk",
        "name_of_ship": "unknown",
        "ship_port": "unknown",
        "date_leaving": "unknown",
        "joined_ship_date": "unknown",
        "joined_at_port": "unknown",
        "capacity": "ordinary seaman",
        "date_left": "unknown",
        "left_port": "unknown",
        "cause_of_leaving": "unknown",
        "sign_with_mark": "n",
        "notes": "blk"
    },
    {
        "id": "vtls004964699_1_12",
        "type": "sailor",
        "parent": "vtls004964699",
        "name": "david evans",
        "dob": "blk",
        "age": "27",
        "place_of_birth": "newquay",
        "home_address": "blk",
        "f": "blk",
        "name_of_ship": "susanna",
        "ship_port": "aberystwyth",
        "date_leaving": "remained",
        "joined_ship_date": "blk",
        "joined_at_port": "blk",
        "capacity": "mate",
        "date_left": "blk",
        "left_port": "blk",
        "cause_of_leaving": "remains on board",
        "sign_with_mark": "n",
        "notes": "blk"
    },
    {
        "id": "vtls004964699_0_16",
        "type": "sailor",
        "parent": "vtls004964699",
        "name": "unknown",
        "dob": "blk",
        "age": "blk",
        "place_of_birth": "unknown",
        "home_address": "blk",
        "f": "blk",
        "name_of_ship": "unknown",
        "ship_port": "unknown",
        "date_leaving": "unknown",
        "joined_ship_date": "unknown",
        "joined_at_port": "unknown",
        "capacity": "boy",
        "date_left": "unknown",
        "left_port": "unknown",
        "cause_of_leaving": "unknown",
        "sign_with_mark": "n",
        "notes": "blk"
    },
    {
        "id": "vtls004964714_0_14",
        "type": "sailor",
        "parent": "vtls004964714",
        "name": "thomas gordwin",
        "dob": "blk",
        "age": "17",
        "place_of_birth": "holyhead",
        "home_address": "blk",
        "f": "blk",
        "name_of_ship": "susanna",
        "ship_port": "aberystwyth",
        "date_leaving": "1866-12-31",
        "joined_ship_date": "1867-01-01",
        "joined_at_port": "liverpool",
        "capacity": "ordinary seaman",
        "date_left": "1867-01-05",
        "left_port": "at sea",
        "cause_of_leaving": "drowned",
        "sign_with_mark": "n",
        "notes": "blk"
    },
    {
        "id": "vtls004964714_0_12",
        "type": "sailor",
        "parent": "vtls004964714",
        "name": "david evans",
        "dob": "blk",
        "age": "blk",
        "place_of_birth": "newquay",
        "home_address": "blk",
        "f": "blk",
        "name_of_ship": "susanna",
        "ship_port": "aberystwyth",
        "date_leaving": "1866-12-31",
        "joined_ship_date": "1867-01-01",
        "joined_at_port": "liverpool",
        "capacity": "mate",
        "date_left": "1867-01-05",
        "left_port": "at sea",
        "cause_of_leaving": "drowned",
        "sign_with_mark": "n",
        "notes": "blk"
    },
    {
        "id": "vtls004964714_0_13",
        "type": "sailor",
        "parent": "vtls004964714",
        "name": "unknown",
        "dob": "blk",
        "age": "blk",
        "place_of_birth": "unknown",
        "home_address": "blk",
        "f": "blk",
        "name_of_ship": "unknown",
        "ship_port": "unknown",
        "date_leaving": "unknown",
        "joined_ship_date": "unknown",
        "joined_at_port": "unknown",
        "capacity": "able seaman",
        "date_left": "1867-01-05",
        "left_port": "at sea",
        "cause_of_leaving": "drowned",
        "sign_with_mark": "n",
        "notes": "blk"
    },
    {
        "id": "vtls004964714_0_15",
        "type": "sailor",
        "parent": "vtls004964714",
        "name": "unknown",
        "dob": "blk",
        "age": "blk",
        "place_of_birth": "unknown",
        "home_address": "blk",
        "f": "blk",
        "name_of_ship": "unknown",
        "ship_port": "unknown",
        "date_leaving": "unknown",
        "joined_ship_date": "unknown",
        "joined_at_port": "unknown",
        "capacity": "boy",
        "date_left": "1867-01-05",
        "left_port": "at sea",
        "cause_of_leaving": "drowned",
        "sign_with_mark": "n",
        "notes": "blk"
    }
]