[
    {
        "id": "vtls004574165_1_11",
        "type": "sailor",
        "parent": "vtls004574165",
        "name": "william edwards",
        "dob": "blk",
        "age": "48",
        "place_of_birth": "aberystwyth",
        "home_address": "9, prospect st., aberystwyth",
        "f": "9, prospect st., aberystwyth",
        "name_of_ship": "velocity",
        "ship_port": "aberystwyth",
        "date_leaving": "previous to 1871-06-30",
        "joined_ship_date": "previous to 1871-06-30",
        "joined_at_port": "blk",
        "capacity": "master",
        "date_left": "blk",
        "left_port": "blk",
        "cause_of_leaving": "remains on board",
        "sign_with_mark": "n",
        "notes": "blk"
    },
    {
        "id": "vtls004574165_1_12",
        "type": "sailor",
        "parent": "vtls004574165",
        "name": "hugh hughes",
        "dob": "blk",
        "age": "40",
        "place_of_birth": "aberdovey",
        "home_address": "blk",
        "f": "blk",
        "name_of_ship": "velocity",
        "ship_port": "aberystwyth",
        "date_leaving": "previous to 1871-06-30",
        "joined_ship_date": "previous to 1871-06-30",
        "joined_at_port": "blk",
        "capacity": "mate",
        "date_left": "1871-11-24",
        "left_port": "aberdovey",
        "cause_of_leaving": "discharged",
        "sign_with_mark": "n",
        "notes": "blk"
    },
    {
        "id": "vtls004574165_0_11",
        "type": "sailor",
        "parent": "vtls004574165",
        "name": "william edwards",
        "dob": "blk",
        "age": "48",
        "place_of_birth": "aberystwyth",
        "home_address": "9, prospect st., aberystwyth",
        "f": "9, prospect st., aberystwyth",
        "name_of_ship": "velocity",
        "ship_port": "aberystwyth",
        "date_leaving": "continued",
        "joined_ship_date": "blk",
        "joined_at_port": "blk",
        "capacity": "master",
        "date_left": "blk",
        "left_port": "blk",
        "cause_of_leaving": "remains on board",
        "sign_with_mark": "n",
        "notes": "blk"
    },
    {
        "id": "vtls004574165_0_14",
        "type": "sailor",
        "parent": "vtls004574165",
        "name": "william edwards",
        "dob": "blk",
        "age": "15",
        "place_of_birth": "aberystwyth",
        "home_address": "blk",
        "f": "blk",
        "name_of_ship": "velocity",
        "ship_port": "aberystwyth",
        "date_leaving": "continued",
        "joined_ship_date": "blk",
        "joined_at_port": "blk",
        "capacity": "ordinary seaman",
        "date_left": "1871-06-30",
        "left_port": "at sea",
        "cause_of_leaving": "on board",
        "sign_with_mark": "n",
        "notes": "blk"
    },
    {
        "id": "vtls004574165_0_13",
        "type": "sailor",
        "parent": "vtls004574165",
        "name": "john griffiths",
        "dob": "blk",
        "age": "20",
        "place_of_birth": "aberdovey",
        "home_address": "blk",
        "f": "blk",
        "name_of_ship": "velocity",
        "ship_port": "aberystwyth",
        "date_leaving": "continued",
        "joined_ship_date": "blk",
        "joined_at_port": "blk",
        "capacity": "able seaman",
        "date_left": "1871-06-30",
        "left_port": "at sea",
        "cause_of_leaving": "on board",
        "sign_with_mark": "n",
        "notes": "blk"
    },
    {
        "id": "vtls004574165_0_12",
        "type": "sailor",
        "parent": "vtls004574165",
        "name": "hugh hughes",
        "dob": "blk",
        "age": "41",
        "place_of_birth": "aberdovey",
        "home_address": "blk",
        "f": "blk",
        "name_of_ship": "velocity",
        "ship_port": "aberystwyth",
        "date_leaving": "continued",
        "joined_ship_date": "blk",
        "joined_at_port": "blk",
        "capacity": "mate",
        "date_left": "1871-06-30",
        "left_port": "at sea",
        "cause_of_leaving": "on board",
        "sign_with_mark": "n",
        "notes": "blk"
    },
    {
        "id": "vtls004973980_1_11",
        "type": "sailor",
        "parent": "vtls004973980",
        "name": "william edwards",
        "dob": "blk",
        "age": "50",
        "place_of_birth": "co. cardigan",
        "home_address": "aberystwyth",
        "f": "aberystwyth",
        "name_of_ship": "velocity",
        "ship_port": "aberystwyth",
        "date_leaving": "continues",
        "joined_ship_date": "blk",
        "joined_at_port": "blk",
        "capacity": "master",
        "date_left": "blk",
        "left_port": "blk",
        "cause_of_leaving": "remains on board",
        "sign_with_mark": "n",
        "notes": "there's a note attached in which the master apologises for being late in delivering the half yearly account owing to the vessel's schedule"
    },
    {
        "id": "vtls004574165_1_14",
        "type": "sailor",
        "parent": "vtls004574165",
        "name": "william edwards",
        "dob": "blk",
        "age": "15",
        "place_of_birth": "aberystwyth",
        "home_address": "blk",
        "f": "blk",
        "name_of_ship": "velocity",
        "ship_port": "aberystwyth",
        "date_leaving": "previous to 1871-06-30",
        "joined_ship_date": "previous to 1871-06-30",
        "joined_at_port": "blk",
        "capacity": "ordinary seaman",
        "date_left": "blk",
        "left_port": "blk",
        "cause_of_leaving": "remains on board",
        "sign_with_mark": "n",
        "notes": "blk"
    },
    {
        "id": "vtls004973980_0_11",
        "type": "sailor",
        "parent": "vtls004973980",
        "name": "william edwards",
        "dob": "blk",
        "age": "50",
        "place_of_birth": "aberystwyth",
        "home_address": "prospect st., aberystwyth ",
        "f": "prospect st., aberystwyth ",
        "name_of_ship": "velocity",
        "ship_port": "aberystwyth",
        "date_leaving": "continues",
        "joined_ship_date": "blk",
        "joined_at_port": "blk",
        "capacity": "master",
        "date_left": "blk",
        "left_port": "blk",
        "cause_of_leaving": "remains on board",
        "sign_with_mark": "n",
        "notes": "blk"
    },
    {
        "id": "vtls004973980_0_13",
        "type": "sailor",
        "parent": "vtls004973980",
        "name": "john jones",
        "dob": "blk",
        "age": "18",
        "place_of_birth": "aberystwyth",
        "home_address": "blk",
        "f": "blk",
        "name_of_ship": "james",
        "ship_port": "aberystwyth",
        "date_leaving": "1872-01-09",
        "joined_ship_date": "1872-01-10",
        "joined_at_port": "aberystwyth",
        "capacity": "ordinary seaman",
        "date_left": "blk",
        "left_port": "blk",
        "cause_of_leaving": "remains on board",
        "sign_with_mark": "n",
        "notes": "blk"
    },
    {
        "id": "vtls004973980_0_15",
        "type": "sailor",
        "parent": "vtls004973980",
        "name": "price lloyd",
        "dob": "blk",
        "age": "30",
        "place_of_birth": "aberystwyth",
        "home_address": "blk",
        "f": "blk",
        "name_of_ship": "glad tidings",
        "ship_port": "aberystwyth",
        "date_leaving": "1872-01-10",
        "joined_ship_date": "1872-05-10",
        "joined_at_port": "portmadoc",
        "capacity": "mate",
        "date_left": "blk",
        "left_port": "blk",
        "cause_of_leaving": "remains on board",
        "sign_with_mark": "n",
        "notes": "blk"
    },
    {
        "id": "vtls004574165_1_13",
        "type": "sailor",
        "parent": "vtls004574165",
        "name": "john lloyd",
        "dob": "blk",
        "age": "38",
        "place_of_birth": "bangor",
        "home_address": "blk",
        "f": "blk",
        "name_of_ship": "ellen",
        "ship_port": "carnarvon",
        "date_leaving": "1871-07-16",
        "joined_ship_date": "1871-07-18",
        "joined_at_port": "runcorn",
        "capacity": "able seaman",
        "date_left": "1871-11-24",
        "left_port": "aberdovey",
        "cause_of_leaving": "discharged",
        "sign_with_mark": "n",
        "notes": "blk"
    },
    {
        "id": "vtls004973980_0_12",
        "type": "sailor",
        "parent": "vtls004973980",
        "name": "walter davies",
        "dob": "blk",
        "age": "21",
        "place_of_birth": "aberystwyth",
        "home_address": "blk",
        "f": "blk",
        "name_of_ship": "james",
        "ship_port": "aberystwyth",
        "date_leaving": "1872-01-09",
        "joined_ship_date": "1872-01-10",
        "joined_at_port": "aberystwyth",
        "capacity": "mate",
        "date_left": "1872-05-10",
        "left_port": "porthmadog",
        "cause_of_leaving": "paid off",
        "sign_with_mark": "n",
        "notes": "blk"
    },
    {
        "id": "vtls004973980_1_12",
        "type": "sailor",
        "parent": "vtls004973980",
        "name": "price lloyd",
        "dob": "blk",
        "age": "30",
        "place_of_birth": "co. cardigan",
        "home_address": "blk",
        "f": "blk",
        "name_of_ship": "velocity",
        "ship_port": "aberystwyth",
        "date_leaving": "continues",
        "joined_ship_date": "blk",
        "joined_at_port": "blk",
        "capacity": "mate",
        "date_left": "1872-07-27",
        "left_port": "runcorn",
        "cause_of_leaving": "paid off",
        "sign_with_mark": "n",
        "notes": "blk"
    },
    {
        "id": "vtls004973980_0_14",
        "type": "sailor",
        "parent": "vtls004973980",
        "name": "william edwards",
        "dob": "blk",
        "age": "15",
        "place_of_birth": "aberystwyth",
        "home_address": "blk",
        "f": "blk",
        "name_of_ship": "velocity",
        "ship_port": "aberystwyth",
        "date_leaving": "continues",
        "joined_ship_date": "blk",
        "joined_at_port": "blk",
        "capacity": "boy",
        "date_left": "blk",
        "left_port": "blk",
        "cause_of_leaving": "remains on board",
        "sign_with_mark": "n",
        "notes": "blk"
    },
    {
        "id": "vtls004973980_1_15",
        "type": "sailor",
        "parent": "vtls004973980",
        "name": "isaac collins",
        "dob": "blk",
        "age": "45",
        "place_of_birth": "co. cardigan",
        "home_address": "blk",
        "f": "blk",
        "name_of_ship": "[i.s.t.]",
        "ship_port": "barrow",
        "date_leaving": "1872-07-16",
        "joined_ship_date": "1872-07-26",
        "joined_at_port": "runcorn",
        "capacity": "mate",
        "date_left": "1872-12-02",
        "left_port": "aberdovey",
        "cause_of_leaving": "paid off",
        "sign_with_mark": "n",
        "notes": "there was a ship reg. in barrow in the 1880s with the name 'j.t.s.'."
    },
    {
        "id": "vtls004973980_1_17",
        "type": "sailor",
        "parent": "vtls004973980",
        "name": "william williams",
        "dob": "blk",
        "age": "15",
        "place_of_birth": "co. cardigan",
        "home_address": "blk",
        "f": "blk",
        "name_of_ship": "ceres",
        "ship_port": "aberystwyth",
        "date_leaving": "1872-09-27",
        "joined_ship_date": "1872-10-04",
        "joined_at_port": "runcorn",
        "capacity": "ordinary seaman",
        "date_left": "1872-12-02",
        "left_port": "aberdovey",
        "cause_of_leaving": "paid off",
        "sign_with_mark": "n",
        "notes": "blk"
    },
    {
        "id": "vtls004973980_1_19",
        "type": "sailor",
        "parent": "vtls004973980",
        "name": "thomas rees",
        "dob": "blk",
        "age": "18",
        "place_of_birth": "co. cardigan",
        "home_address": "blk",
        "f": "blk",
        "name_of_ship": "mary alice",
        "ship_port": "carnarvon",
        "date_leaving": "1872-11-16",
        "joined_ship_date": "1872-12-03",
        "joined_at_port": "aberdovey",
        "capacity": "able seaman",
        "date_left": "blk",
        "left_port": "blk",
        "cause_of_leaving": "remains on board",
        "sign_with_mark": "n",
        "notes": "blk"
    },
    {
        "id": "vtls004973980_1_14",
        "type": "sailor",
        "parent": "vtls004973980",
        "name": "william edwards",
        "dob": "blk",
        "age": "16",
        "place_of_birth": "co. cardigan",
        "home_address": "blk",
        "f": "blk",
        "name_of_ship": "velocity",
        "ship_port": "aberystwyth",
        "date_leaving": "continues",
        "joined_ship_date": "blk",
        "joined_at_port": "blk",
        "capacity": "ordinary seaman",
        "date_left": "blk",
        "left_port": "blk",
        "cause_of_leaving": "remains on board",
        "sign_with_mark": "n",
        "notes": "blk"
    },
    {
        "id": "vtls004973980_1_16",
        "type": "sailor",
        "parent": "vtls004973980",
        "name": "carl buist",
        "dob": "blk",
        "age": "18",
        "place_of_birth": "prussia",
        "home_address": "blk",
        "f": "blk",
        "name_of_ship": "prussian vessel",
        "ship_port": "blk",
        "date_leaving": "1872-07-16",
        "joined_ship_date": "1872-07-26",
        "joined_at_port": "runcorn",
        "capacity": "able seaman",
        "date_left": "1872-10-01",
        "left_port": "runcorn",
        "cause_of_leaving": "paid off",
        "sign_with_mark": "n",
        "notes": "blk"
    },
    {
        "id": "vtls004973980_1_18",
        "type": "sailor",
        "parent": "vtls004973980",
        "name": "evan hughes",
        "dob": "blk",
        "age": "55",
        "place_of_birth": "co. cardigan",
        "home_address": "blk",
        "f": "blk",
        "name_of_ship": "battus",
        "ship_port": "aberystwyth",
        "date_leaving": "1872-05-09",
        "joined_ship_date": "1872-12-03",
        "joined_at_port": "aberdovey",
        "capacity": "mate",
        "date_left": "blk",
        "left_port": "blk",
        "cause_of_leaving": "remains on board",
        "sign_with_mark": "n",
        "notes": "blk"
    },
    {
        "id": "vtls004973980_1_13",
        "type": "sailor",
        "parent": "vtls004973980",
        "name": "john jones",
        "dob": "blk",
        "age": "22",
        "place_of_birth": "co. cardigan",
        "home_address": "blk",
        "f": "blk",
        "name_of_ship": "velocity",
        "ship_port": "aberystwyth",
        "date_leaving": "continues",
        "joined_ship_date": "blk",
        "joined_at_port": "blk",
        "capacity": "able seaman",
        "date_left": "1872-07-27",
        "left_port": "runcorn",
        "cause_of_leaving": "paid off",
        "sign_with_mark": "n",
        "notes": "blk"
    },
    {
        "id": "vtls004973981_1_11",
        "type": "sailor",
        "parent": "vtls004973981",
        "name": "william edwards",
        "dob": "blk",
        "age": "50",
        "place_of_birth": "aberystwyth",
        "home_address": "9, prospect st., aberystwyth",
        "f": "9, prospect st., aberystwyth",
        "name_of_ship": "velocity",
        "ship_port": "aberystwyth",
        "date_leaving": "continues",
        "joined_ship_date": "blk",
        "joined_at_port": "blk",
        "capacity": "master",
        "date_left": "blk",
        "left_port": "blk",
        "cause_of_leaving": "remains on board",
        "sign_with_mark": "n",
        "notes": "blk"
    },
    {
        "id": "vtls004973981_0_13",
        "type": "sailor",
        "parent": "vtls004973981",
        "name": "thomas thomas",
        "dob": "blk",
        "age": "45",
        "place_of_birth": "aberystwyth",
        "home_address": "blk",
        "f": "blk",
        "name_of_ship": "alert",
        "ship_port": "aberystwyth",
        "date_leaving": "1873-02",
        "joined_ship_date": "1873-03",
        "joined_at_port": "march",
        "capacity": "able seaman",
        "date_left": "1873-05-30",
        "left_port": "maryport",
        "cause_of_leaving": "discharged",
        "sign_with_mark": "n",
        "notes": "blk"
    },
    {
        "id": "vtls004973981_1_13",
        "type": "sailor",
        "parent": "vtls004973981",
        "name": "william rillep",
        "dob": "blk",
        "age": "28",
        "place_of_birth": "douglas",
        "home_address": "blk",
        "f": "blk",
        "name_of_ship": "velocity",
        "ship_port": "aberystwyth",
        "date_leaving": "continues",
        "joined_ship_date": "blk",
        "joined_at_port": "blk",
        "capacity": "able seaman",
        "date_left": "1873-12-01",
        "left_port": "bangor",
        "cause_of_leaving": "discharged",
        "sign_with_mark": "n",
        "notes": "blk"
    },
    {
        "id": "vtls004973986_0_11",
        "type": "sailor",
        "parent": "vtls004973986",
        "name": "william edwards",
        "dob": "blk",
        "age": "50",
        "place_of_birth": "aberystwyth",
        "home_address": "aberystwyth",
        "f": "aberystwyth",
        "name_of_ship": "velocity",
        "ship_port": "aberystwyth",
        "date_leaving": "continued",
        "joined_ship_date": "blk",
        "joined_at_port": "blk",
        "capacity": "master",
        "date_left": "blk",
        "left_port": "blk",
        "cause_of_leaving": "remains on board",
        "sign_with_mark": "n",
        "notes": "blk"
    },
    {
        "id": "vtls004973981_1_14",
        "type": "sailor",
        "parent": "vtls004973981",
        "name": "john slater",
        "dob": "blk",
        "age": "25",
        "place_of_birth": "york",
        "home_address": "blk",
        "f": "blk",
        "name_of_ship": "velocity",
        "ship_port": "aberystwyth",
        "date_leaving": "continues",
        "joined_ship_date": "blk",
        "joined_at_port": "blk",
        "capacity": "ordinary seaman",
        "date_left": "1873-12-01",
        "left_port": "bangor",
        "cause_of_leaving": "discharged",
        "sign_with_mark": "n",
        "notes": "blk"
    },
    {
        "id": "vtls004973981_0_14",
        "type": "sailor",
        "parent": "vtls004973981",
        "name": "john slater",
        "dob": "blk",
        "age": "25",
        "place_of_birth": "york",
        "home_address": "blk",
        "f": "blk",
        "name_of_ship": "velocity",
        "ship_port": "aberystwyth",
        "date_leaving": "[1872]-01",
        "joined_ship_date": "blk",
        "joined_at_port": "blk",
        "capacity": "ordinary seaman",
        "date_left": "blk",
        "left_port": "blk",
        "cause_of_leaving": "remains on board",
        "sign_with_mark": "n",
        "notes": "blk"
    },
    {
        "id": "vtls004973981_0_11",
        "type": "sailor",
        "parent": "vtls004973981",
        "name": "william edwards",
        "dob": "blk",
        "age": "50",
        "place_of_birth": "aberystwyth",
        "home_address": "aberystwyth",
        "f": "aberystwyth",
        "name_of_ship": "velocity",
        "ship_port": "aberystwyth",
        "date_leaving": "blk",
        "joined_ship_date": "blk",
        "joined_at_port": "blk",
        "capacity": "master",
        "date_left": "blk",
        "left_port": "blk",
        "cause_of_leaving": "remains on board",
        "sign_with_mark": "n",
        "notes": "blk"
    },
    {
        "id": "vtls004973981_1_12",
        "type": "sailor",
        "parent": "vtls004973981",
        "name": "william edwards",
        "dob": "blk",
        "age": "18",
        "place_of_birth": "aberystwyth",
        "home_address": "blk",
        "f": "blk",
        "name_of_ship": "velocity",
        "ship_port": "aberystwyth",
        "date_leaving": "continues",
        "joined_ship_date": "blk",
        "joined_at_port": "blk",
        "capacity": "mate",
        "date_left": "blk",
        "left_port": "blk",
        "cause_of_leaving": "remains on board",
        "sign_with_mark": "n",
        "notes": "blk"
    },
    {
        "id": "vtls004973981_0_12",
        "type": "sailor",
        "parent": "vtls004973981",
        "name": "william edwards",
        "dob": "blk",
        "age": "18",
        "place_of_birth": "aberystwyth",
        "home_address": "blk",
        "f": "blk",
        "name_of_ship": "velocity",
        "ship_port": "aberystwyth",
        "date_leaving": "blk",
        "joined_ship_date": "blk",
        "joined_at_port": "blk",
        "capacity": "mate",
        "date_left": "blk",
        "left_port": "blk",
        "cause_of_leaving": "remains on board",
        "sign_with_mark": "n",
        "notes": "blk"
    },
    {
        "id": "vtls004973986_1_15",
        "type": "sailor",
        "parent": "vtls004973986",
        "name": "david jones",
        "dob": "blk",
        "age": "17",
        "place_of_birth": "aberystwyth",
        "home_address": "blk",
        "f": "blk",
        "name_of_ship": "[cerus]",
        "ship_port": "aberystwyth",
        "date_leaving": "1874-10-26",
        "joined_ship_date": "1874-11-26",
        "joined_at_port": "aberystwyth",
        "capacity": "ordinary seaman",
        "date_left": "1875-01-02",
        "left_port": "aberystwyth",
        "cause_of_leaving": "discharged",
        "sign_with_mark": "n",
        "notes": "blk"
    },
    {
        "id": "vtls004973986_1_11",
        "type": "sailor",
        "parent": "vtls004973986",
        "name": "william edwards",
        "dob": "blk",
        "age": "51",
        "place_of_birth": "aberystwyth",
        "home_address": "10, prospect st., aberystwyth",
        "f": "10, prospect st., aberystwyth",
        "name_of_ship": "velocity",
        "ship_port": "aberystwyth",
        "date_leaving": "continues",
        "joined_ship_date": "blk",
        "joined_at_port": "blk",
        "capacity": "master",
        "date_left": "blk",
        "left_port": "blk",
        "cause_of_leaving": "remains on board",
        "sign_with_mark": "n",
        "notes": "blk"
    },
    {
        "id": "vtls004973986_1_14",
        "type": "sailor",
        "parent": "vtls004973986",
        "name": "william owens",
        "dob": "blk",
        "age": "42",
        "place_of_birth": "aberystwyth",
        "home_address": "blk",
        "f": "blk",
        "name_of_ship": "[ti]rinsburg",
        "ship_port": "blk",
        "date_leaving": "1874-06-10",
        "joined_ship_date": "1874-11-26",
        "joined_at_port": "aberystwyth",
        "capacity": "able seaman",
        "date_left": "1875-01-02",
        "left_port": "aberystwyth",
        "cause_of_leaving": "discharged",
        "sign_with_mark": "n",
        "notes": "blk"
    },
    {
        "id": "vtls004973986_0_13",
        "type": "sailor",
        "parent": "vtls004973986",
        "name": "thomas evans",
        "dob": "blk",
        "age": "50",
        "place_of_birth": "bangor",
        "home_address": "blk",
        "f": "blk",
        "name_of_ship": "admiral nelson",
        "ship_port": "blk",
        "date_leaving": "1874-03-21",
        "joined_ship_date": "1874-03-26",
        "joined_at_port": "bangor",
        "capacity": "able seaman",
        "date_left": "blk",
        "left_port": "blk",
        "cause_of_leaving": "remains on board",
        "sign_with_mark": "n",
        "notes": "blk"
    },
    {
        "id": "vtls004973986_1_13",
        "type": "sailor",
        "parent": "vtls004973986",
        "name": "john jones",
        "dob": "blk",
        "age": "20",
        "place_of_birth": "bangor",
        "home_address": "blk",
        "f": "blk",
        "name_of_ship": "velocity",
        "ship_port": "aberystwyth",
        "date_leaving": "continues",
        "joined_ship_date": "blk",
        "joined_at_port": "blk",
        "capacity": "able seaman",
        "date_left": "1874-10-30",
        "left_port": "aberystwyth",
        "cause_of_leaving": "discharged",
        "sign_with_mark": "n",
        "notes": "blk"
    },
    {
        "id": "vtls004973986_0_12",
        "type": "sailor",
        "parent": "vtls004973986",
        "name": "william edwards",
        "dob": "blk",
        "age": "20",
        "place_of_birth": "aberystwyth",
        "home_address": "blk",
        "f": "blk",
        "name_of_ship": "velocity",
        "ship_port": "aberystwyth",
        "date_leaving": "continued",
        "joined_ship_date": "blk",
        "joined_at_port": "blk",
        "capacity": "mate",
        "date_left": "blk",
        "left_port": "blk",
        "cause_of_leaving": "remains on board",
        "sign_with_mark": "n",
        "notes": "blk"
    },
    {
        "id": "vtls004973986_1_12",
        "type": "sailor",
        "parent": "vtls004973986",
        "name": "william edwards",
        "dob": "blk",
        "age": "19",
        "place_of_birth": "aberystwyth",
        "home_address": "blk",
        "f": "blk",
        "name_of_ship": "velocity",
        "ship_port": "aberystwyth",
        "date_leaving": "continues",
        "joined_ship_date": "blk",
        "joined_at_port": "blk",
        "capacity": "mate",
        "date_left": "blk",
        "left_port": "blk",
        "cause_of_leaving": "remains on board",
        "sign_with_mark": "n",
        "notes": "blk"
    },
    {
        "id": "vtls004973986_0_14",
        "type": "sailor",
        "parent": "vtls004973986",
        "name": "lewis jones",
        "dob": "blk",
        "age": "18",
        "place_of_birth": "bangor",
        "home_address": "blk",
        "f": "blk",
        "name_of_ship": "first ship",
        "ship_port": "blk",
        "date_leaving": "blk",
        "joined_ship_date": "blk",
        "joined_at_port": "blk",
        "capacity": "boy",
        "date_left": "blk",
        "left_port": "blk",
        "cause_of_leaving": "remains on board",
        "sign_with_mark": "n",
        "notes": "blk"
    },
    {
        "id": "vtls004974042_1_11",
        "type": "sailor",
        "parent": "vtls004974042",
        "name": "william edwards",
        "dob": "blk",
        "age": "21",
        "place_of_birth": "aberystwyth",
        "home_address": "9, prospect st., aberystwyth",
        "f": "9, prospect st., aberystwyth",
        "name_of_ship": "velocity",
        "ship_port": "aberystwyth",
        "date_leaving": "continues",
        "joined_ship_date": "blk",
        "joined_at_port": "blk",
        "capacity": "master",
        "date_left": "blk",
        "left_port": "blk",
        "cause_of_leaving": "remains on board",
        "sign_with_mark": "n",
        "notes": "velocity' was laid up at aberystwyth since arrival on 30th. oct. 1876"
    },
    {
        "id": "vtls004974042_0_11",
        "type": "sailor",
        "parent": "vtls004974042",
        "name": "william edwards",
        "dob": "blk",
        "age": "20",
        "place_of_birth": "aberystwyth",
        "home_address": "9, prospect st., aberystwyth",
        "f": "9, prospect st., aberystwyth",
        "name_of_ship": "velocity",
        "ship_port": "aberystwyth",
        "date_leaving": "continued",
        "joined_ship_date": "1876-01-01",
        "joined_at_port": "newry",
        "capacity": "master",
        "date_left": "blk",
        "left_port": "blk",
        "cause_of_leaving": "remains on board",
        "sign_with_mark": "n",
        "notes": "blk"
    },
    {
        "id": "vtls004974043_0_11",
        "type": "sailor",
        "parent": "vtls004974043",
        "name": "william edwards",
        "dob": "blk",
        "age": "21",
        "place_of_birth": "aberystwyth",
        "home_address": "prospect st., aberystwyth",
        "f": "prospect st., aberystwyth",
        "name_of_ship": "velocity",
        "ship_port": "aberystwyth",
        "date_leaving": "blk",
        "joined_ship_date": "blk",
        "joined_at_port": "blk",
        "capacity": "master",
        "date_left": "blk",
        "left_port": "blk",
        "cause_of_leaving": "remains on board",
        "sign_with_mark": "n",
        "notes": "account for jan - june 1877"
    },
    {
        "id": "vtls004974042_0_12",
        "type": "sailor",
        "parent": "vtls004974042",
        "name": "william edwards",
        "dob": "blk",
        "age": "53",
        "place_of_birth": "aberystwyth",
        "home_address": "9, prospect st., aberystwyth",
        "f": "9, prospect st., aberystwyth",
        "name_of_ship": "velocity",
        "ship_port": "aberystwyth",
        "date_leaving": "continued",
        "joined_ship_date": "1876-01-01",
        "joined_at_port": "newry",
        "capacity": "mate",
        "date_left": "blk",
        "left_port": "blk",
        "cause_of_leaving": "remains on board",
        "sign_with_mark": "n",
        "notes": "blk"
    },
    {
        "id": "vtls004974042_1_12",
        "type": "sailor",
        "parent": "vtls004974042",
        "name": "william edwards",
        "dob": "blk",
        "age": "53",
        "place_of_birth": "aberystwyth",
        "home_address": "9, prospect st., aberystwyth",
        "f": "9, prospect st., aberystwyth",
        "name_of_ship": "velocity",
        "ship_port": "aberystwyth",
        "date_leaving": "continues",
        "joined_ship_date": "blk",
        "joined_at_port": "blk",
        "capacity": "mate",
        "date_left": "blk",
        "left_port": "blk",
        "cause_of_leaving": "remains on board",
        "sign_with_mark": "n",
        "notes": "blk"
    },
    {
        "id": "vtls004974042_1_14",
        "type": "sailor",
        "parent": "vtls004974042",
        "name": "william jenkins",
        "dob": "blk",
        "age": "19",
        "place_of_birth": "milford",
        "home_address": "blk",
        "f": "blk",
        "name_of_ship": "fishguard lass",
        "ship_port": "milford",
        "date_leaving": "unknown",
        "joined_ship_date": "blk",
        "joined_at_port": "blk",
        "capacity": "ordinary seaman",
        "date_left": "1876-10-31",
        "left_port": "aberystwyth",
        "cause_of_leaving": "discharged",
        "sign_with_mark": "n",
        "notes": "blk"
    },
    {
        "id": "vtls004974042_0_13",
        "type": "sailor",
        "parent": "vtls004974042",
        "name": "george dunn",
        "dob": "blk",
        "age": "19",
        "place_of_birth": "poole",
        "home_address": "blk",
        "f": "blk",
        "name_of_ship": "velocity",
        "ship_port": "aberystwyth",
        "date_leaving": "continued",
        "joined_ship_date": "1876-01-01",
        "joined_at_port": "newry",
        "capacity": "ordinary seaman",
        "date_left": "blk",
        "left_port": "blk",
        "cause_of_leaving": "remains on board",
        "sign_with_mark": "n",
        "notes": "blk"
    },
    {
        "id": "vtls004974042_1_13",
        "type": "sailor",
        "parent": "vtls004974042",
        "name": "george dunn",
        "dob": "blk",
        "age": "20",
        "place_of_birth": "poole",
        "home_address": "blk",
        "f": "blk",
        "name_of_ship": "velocity",
        "ship_port": "aberystwyth",
        "date_leaving": "continues",
        "joined_ship_date": "blk",
        "joined_at_port": "blk",
        "capacity": "ordinary seaman",
        "date_left": "blk",
        "left_port": "blk",
        "cause_of_leaving": "remains on board",
        "sign_with_mark": "n",
        "notes": "blk"
    },
    {
        "id": "vtls004974043_1_11",
        "type": "sailor",
        "parent": "vtls004974043",
        "name": "william edwards",
        "dob": "blk",
        "age": "21",
        "place_of_birth": "aberystwyth",
        "home_address": "prospect st., aberystwyth",
        "f": "prospect st., aberystwyth",
        "name_of_ship": "velocity",
        "ship_port": "aberystwyth",
        "date_leaving": "blk",
        "joined_ship_date": "blk",
        "joined_at_port": "blk",
        "capacity": "master",
        "date_left": "blk",
        "left_port": "blk",
        "cause_of_leaving": "remains on board",
        "sign_with_mark": "n",
        "notes": "account for july - dec 1877"
    },
    {
        "id": "vtls004974043_0_13",
        "type": "sailor",
        "parent": "vtls004974043",
        "name": "david jones",
        "dob": "blk",
        "age": "19",
        "place_of_birth": "haverfordwest",
        "home_address": "blk",
        "f": "blk",
        "name_of_ship": "ruby",
        "ship_port": "new quay",
        "date_leaving": "1876-12-25",
        "joined_ship_date": "1877-02-28",
        "joined_at_port": "aberystwyth",
        "capacity": "ordinary seaman",
        "date_left": "blk",
        "left_port": "blk",
        "cause_of_leaving": "remains on board",
        "sign_with_mark": "n",
        "notes": "blk"
    },
    {
        "id": "vtls004974043_1_14",
        "type": "sailor",
        "parent": "vtls004974043",
        "name": "patrick dooley",
        "dob": "blk",
        "age": "17",
        "place_of_birth": "new ross, co. wexford",
        "home_address": "blk",
        "f": "blk",
        "name_of_ship": "velocity",
        "ship_port": "aberystwyth",
        "date_leaving": "blk",
        "joined_ship_date": "blk",
        "joined_at_port": "blk",
        "capacity": "boy",
        "date_left": "blk",
        "left_port": "blk",
        "cause_of_leaving": "remains on board",
        "sign_with_mark": "n",
        "notes": "blk"
    },
    {
        "id": "vtls004974043_1_13",
        "type": "sailor",
        "parent": "vtls004974043",
        "name": "david jones",
        "dob": "blk",
        "age": "20",
        "place_of_birth": "aberystwyth",
        "home_address": "blk",
        "f": "blk",
        "name_of_ship": "velocity",
        "ship_port": "aberystwyth",
        "date_leaving": "blk",
        "joined_ship_date": "blk",
        "joined_at_port": "blk",
        "capacity": "ordinary seaman",
        "date_left": "blk",
        "left_port": "blk",
        "cause_of_leaving": "remains on board",
        "sign_with_mark": "n",
        "notes": "blk"
    },
    {
        "id": "vtls004974043_0_12",
        "type": "sailor",
        "parent": "vtls004974043",
        "name": "william edwards",
        "dob": "blk",
        "age": "54",
        "place_of_birth": "aberystwyth",
        "home_address": "blk",
        "f": "blk",
        "name_of_ship": "velocity",
        "ship_port": "aberystwyth",
        "date_leaving": "blk",
        "joined_ship_date": "blk",
        "joined_at_port": "blk",
        "capacity": "mate",
        "date_left": "blk",
        "left_port": "blk",
        "cause_of_leaving": "remains on board",
        "sign_with_mark": "n",
        "notes": "blk"
    },
    {
        "id": "vtls004974043_1_12",
        "type": "sailor",
        "parent": "vtls004974043",
        "name": "william edwards",
        "dob": "blk",
        "age": "56",
        "place_of_birth": "aberystwyth",
        "home_address": "blk",
        "f": "blk",
        "name_of_ship": "velocity",
        "ship_port": "aberystwyth",
        "date_leaving": "blk",
        "joined_ship_date": "blk",
        "joined_at_port": "blk",
        "capacity": "mate",
        "date_left": "blk",
        "left_port": "blk",
        "cause_of_leaving": "remains on board",
        "sign_with_mark": "n",
        "notes": "blk"
    },
    {
        "id": "vtls004974043_0_14",
        "type": "sailor",
        "parent": "vtls004974043",
        "name": "george dunn",
        "dob": "blk",
        "age": "18",
        "place_of_birth": "dorset",
        "home_address": "blk",
        "f": "blk",
        "name_of_ship": "velocity",
        "ship_port": "aberystwyth",
        "date_leaving": "blk",
        "joined_ship_date": "blk",
        "joined_at_port": "blk",
        "capacity": "boy",
        "date_left": "blk",
        "left_port": "blk",
        "cause_of_leaving": "remains on board",
        "sign_with_mark": "n",
        "notes": "blk"
    },
    {
        "id": "vtls004974047_0_13",
        "type": "sailor",
        "parent": "vtls004974047",
        "name": "john rice",
        "dob": "blk",
        "age": "20",
        "place_of_birth": "aberystwyth",
        "home_address": "blk",
        "f": "blk",
        "name_of_ship": "messenger",
        "ship_port": "aberystwyth",
        "date_leaving": "1878-03-07",
        "joined_ship_date": "1878-03-08",
        "joined_at_port": "portmadoc",
        "capacity": "able seaman",
        "date_left": "1878-06-30",
        "left_port": "porthmadog",
        "cause_of_leaving": "remains on board",
        "sign_with_mark": "n",
        "notes": "blk"
    },
    {
        "id": "vtls004974047_1_14",
        "type": "sailor",
        "parent": "vtls004974047",
        "name": "william sims",
        "dob": "blk",
        "age": "17",
        "place_of_birth": "aberystwyth",
        "home_address": "blk",
        "f": "blk",
        "name_of_ship": "summer cloud",
        "ship_port": "aberystwyth",
        "date_leaving": "1878-06",
        "joined_ship_date": "1878-07-17",
        "joined_at_port": "portmadoc",
        "capacity": "ordinary seaman",
        "date_left": "1878-10-29",
        "left_port": "bangor",
        "cause_of_leaving": "paid off",
        "sign_with_mark": "n",
        "notes": "blk"
    },
    {
        "id": "vtls004974047_1_11",
        "type": "sailor",
        "parent": "vtls004974047",
        "name": "william edwards",
        "dob": "blk",
        "age": "22",
        "place_of_birth": "aberystwyth",
        "home_address": "9, prospect st., aberystwyth",
        "f": "9, prospect st., aberystwyth",
        "name_of_ship": "velocity",
        "ship_port": "aberystwyth",
        "date_leaving": "continued",
        "joined_ship_date": "blk",
        "joined_at_port": "blk",
        "capacity": "master",
        "date_left": "blk",
        "left_port": "blk",
        "cause_of_leaving": "remains on board",
        "sign_with_mark": "n",
        "notes": "blk"
    },
    {
        "id": "vtls004974047_1_13",
        "type": "sailor",
        "parent": "vtls004974047",
        "name": "william owens",
        "dob": "blk",
        "age": "46",
        "place_of_birth": "aberystwyth",
        "home_address": "blk",
        "f": "blk",
        "name_of_ship": "ellen beatrice",
        "ship_port": "aberystwyth",
        "date_leaving": "1878-06",
        "joined_ship_date": "1878-07-17",
        "joined_at_port": "portmadoc",
        "capacity": "able seaman",
        "date_left": "1878-10-29",
        "left_port": "bangor",
        "cause_of_leaving": "paid off",
        "sign_with_mark": "n",
        "notes": "blk"
    },
    {
        "id": "vtls004974047_0_14",
        "type": "sailor",
        "parent": "vtls004974047",
        "name": "john jones",
        "dob": "blk",
        "age": "13",
        "place_of_birth": "aberystwyth",
        "home_address": "blk",
        "f": "blk",
        "name_of_ship": "first voyage",
        "ship_port": "blk",
        "date_leaving": "blk",
        "joined_ship_date": "1878-03-08",
        "joined_at_port": "portmadoc",
        "capacity": "ordinary seaman",
        "date_left": "1878-06-30",
        "left_port": "porthmadog",
        "cause_of_leaving": "remains on board",
        "sign_with_mark": "n",
        "notes": "blk"
    },
    {
        "id": "vtls004974047_0_11",
        "type": "sailor",
        "parent": "vtls004974047",
        "name": "william edwards",
        "dob": "blk",
        "age": "22",
        "place_of_birth": "aberystwyth",
        "home_address": "aberystwyth",
        "f": "aberystwyth",
        "name_of_ship": "velocity",
        "ship_port": "aberystwyth",
        "date_leaving": "blk",
        "joined_ship_date": "continues",
        "joined_at_port": "blk",
        "capacity": "master",
        "date_left": "1878-06-30",
        "left_port": "porthmadog",
        "cause_of_leaving": "remains on board",
        "sign_with_mark": "n",
        "notes": "blk"
    },
    {
        "id": "vtls004974047_0_12",
        "type": "sailor",
        "parent": "vtls004974047",
        "name": "william edwards",
        "dob": "blk",
        "age": "56",
        "place_of_birth": "aberystwyth",
        "home_address": "blk",
        "f": "blk",
        "name_of_ship": "velocity",
        "ship_port": "aberystwyth",
        "date_leaving": "blk",
        "joined_ship_date": "continues",
        "joined_at_port": "blk",
        "capacity": "mate",
        "date_left": "1878-06-30",
        "left_port": "porthmadog",
        "cause_of_leaving": "remains on board",
        "sign_with_mark": "n",
        "notes": "blk"
    },
    {
        "id": "vtls004974049_0_11",
        "type": "sailor",
        "parent": "vtls004974049",
        "name": "william edwards",
        "dob": "blk",
        "age": "23",
        "place_of_birth": "aberystwyth",
        "home_address": "aberystwyth",
        "f": "aberystwyth",
        "name_of_ship": "velocity",
        "ship_port": "aberystwyth",
        "date_leaving": "blk",
        "joined_ship_date": "1879-01-17",
        "joined_at_port": "bangor",
        "capacity": "master",
        "date_left": "blk",
        "left_port": "blk",
        "cause_of_leaving": "remains on board",
        "sign_with_mark": "n",
        "notes": "blk"
    },
    {
        "id": "vtls004974047_1_12",
        "type": "sailor",
        "parent": "vtls004974047",
        "name": "william edwards",
        "dob": "blk",
        "age": "56",
        "place_of_birth": "aberystwyth",
        "home_address": "blk",
        "f": "blk",
        "name_of_ship": "velocity",
        "ship_port": "aberystwyth",
        "date_leaving": "continued",
        "joined_ship_date": "blk",
        "joined_at_port": "blk",
        "capacity": "mate",
        "date_left": "blk",
        "left_port": "blk",
        "cause_of_leaving": "remains on board",
        "sign_with_mark": "n",
        "notes": "blk"
    },
    {
        "id": "vtls004974049_1_14",
        "type": "sailor",
        "parent": "vtls004974049",
        "name": "david morgans",
        "dob": "blk",
        "age": "27",
        "place_of_birth": "aberystwyth",
        "home_address": "blk",
        "f": "blk",
        "name_of_ship": "volunteer",
        "ship_port": "aberystwyth",
        "date_leaving": "unknown",
        "joined_ship_date": "1879-08-12",
        "joined_at_port": "aberystwyth",
        "capacity": "ordinary seaman",
        "date_left": "1879-12-15",
        "left_port": "milford",
        "cause_of_leaving": "discharged",
        "sign_with_mark": "n",
        "notes": "blk"
    },
    {
        "id": "vtls004974049_1_11",
        "type": "sailor",
        "parent": "vtls004974049",
        "name": "william edwards",
        "dob": "blk",
        "age": "23",
        "place_of_birth": "aberystwyth",
        "home_address": "prospect st., aberystwyth",
        "f": "prospect st., aberystwyth",
        "name_of_ship": "velocity",
        "ship_port": "aberystwyth",
        "date_leaving": "blk",
        "joined_ship_date": "continues",
        "joined_at_port": "blk",
        "capacity": "master",
        "date_left": "blk",
        "left_port": "blk",
        "cause_of_leaving": "remains on board",
        "sign_with_mark": "n",
        "notes": "blk"
    },
    {
        "id": "vtls004974049_0_13",
        "type": "sailor",
        "parent": "vtls004974049",
        "name": "morris richards",
        "dob": "blk",
        "age": "18",
        "place_of_birth": "aberystwyth",
        "home_address": "blk",
        "f": "blk",
        "name_of_ship": "elizabeth davies",
        "ship_port": "blk",
        "date_leaving": "1879",
        "joined_ship_date": "1879-01-17",
        "joined_at_port": "bangor",
        "capacity": "able seaman",
        "date_left": "1879-04-21",
        "left_port": "swansea",
        "cause_of_leaving": "discharged",
        "sign_with_mark": "n",
        "notes": "blk"
    },
    {
        "id": "vtls004974049_1_13",
        "type": "sailor",
        "parent": "vtls004974049",
        "name": "humphrey jones",
        "dob": "blk",
        "age": "21",
        "place_of_birth": "talybont",
        "home_address": "blk",
        "f": "blk",
        "name_of_ship": "velocity",
        "ship_port": "aberystwyth",
        "date_leaving": "blk",
        "joined_ship_date": "continues",
        "joined_at_port": "blk",
        "capacity": "able seaman",
        "date_left": "1879-08-05",
        "left_port": "aberystwyth",
        "cause_of_leaving": "discharged",
        "sign_with_mark": "n",
        "notes": "blk"
    },
    {
        "id": "vtls004974049_0_12",
        "type": "sailor",
        "parent": "vtls004974049",
        "name": "william edwards",
        "dob": "blk",
        "age": "57",
        "place_of_birth": "aberystwyth",
        "home_address": "blk",
        "f": "blk",
        "name_of_ship": "velocity",
        "ship_port": "aberystwyth",
        "date_leaving": "blk",
        "joined_ship_date": "1879-01-17",
        "joined_at_port": "bangor",
        "capacity": "mate",
        "date_left": "blk",
        "left_port": "blk",
        "cause_of_leaving": "remains on board",
        "sign_with_mark": "n",
        "notes": "blk"
    },
    {
        "id": "vtls004974049_0_15",
        "type": "sailor",
        "parent": "vtls004974049",
        "name": "humphrey jones",
        "dob": "blk",
        "age": "20",
        "place_of_birth": "talybont",
        "home_address": "blk",
        "f": "blk",
        "name_of_ship": "rheidol",
        "ship_port": "blk",
        "date_leaving": "1879",
        "joined_ship_date": "1879-05-10",
        "joined_at_port": "swansea",
        "capacity": "able seaman",
        "date_left": "blk",
        "left_port": "blk",
        "cause_of_leaving": "remains on board",
        "sign_with_mark": "n",
        "notes": "blk"
    },
    {
        "id": "vtls004974049_1_12",
        "type": "sailor",
        "parent": "vtls004974049",
        "name": "william edwards",
        "dob": "blk",
        "age": "57",
        "place_of_birth": "aberystwyth",
        "home_address": "blk",
        "f": "blk",
        "name_of_ship": "velocity",
        "ship_port": "aberystwyth",
        "date_leaving": "blk",
        "joined_ship_date": "continues",
        "joined_at_port": "blk",
        "capacity": "mate",
        "date_left": "blk",
        "left_port": "blk",
        "cause_of_leaving": "remains on board",
        "sign_with_mark": "n",
        "notes": "blk"
    },
    {
        "id": "vtls004974049_0_14",
        "type": "sailor",
        "parent": "vtls004974049",
        "name": "james whims",
        "dob": "blk",
        "age": "17",
        "place_of_birth": "irvine",
        "home_address": "blk",
        "f": "blk",
        "name_of_ship": "victory",
        "ship_port": "dublin",
        "date_leaving": "1879",
        "joined_ship_date": "1879-02-19",
        "joined_at_port": "irvine",
        "capacity": "boy",
        "date_left": "1879-05-03",
        "left_port": "swansea",
        "cause_of_leaving": "discharged",
        "sign_with_mark": "n",
        "notes": "blk"
    },
    {
        "id": "vtls004974049_1_15",
        "type": "sailor",
        "parent": "vtls004974049",
        "name": "william lewis jones",
        "dob": "blk",
        "age": "16",
        "place_of_birth": "aberystwyth",
        "home_address": "blk",
        "f": "blk",
        "name_of_ship": "first ship",
        "ship_port": "blk",
        "date_leaving": "unknown",
        "joined_ship_date": "1879-08-12",
        "joined_at_port": "aberystwyth",
        "capacity": "ordinary seaman",
        "date_left": "1879-12-15",
        "left_port": "milford",
        "cause_of_leaving": "discharged",
        "sign_with_mark": "n",
        "notes": "blk"
    }
]