[
    {
        "id": "vtls004932193_0_13",
        "type": "sailor",
        "parent": "vtls004932193",
        "name": "frederick bailey",
        "dob": "blk",
        "age": "22",
        "place_of_birth": "liverpool",
        "home_address": "blk",
        "f": "blk",
        "name_of_ship": "try",
        "ship_port": "runcorn",
        "date_leaving": "blk",
        "joined_ship_date": "1876-01-05",
        "joined_at_port": "runcorn",
        "capacity": "ordinary seaman",
        "date_left": "1876-05-29",
        "left_port": "margate",
        "cause_of_leaving": "discharged",
        "sign_with_mark": "n",
        "notes": "blk"
    },
    {
        "id": "vtls004932193_0_11",
        "type": "sailor",
        "parent": "vtls004932193",
        "name": "john thomas",
        "dob": "blk",
        "age": "38",
        "place_of_birth": "aberystwyth",
        "home_address": "blk",
        "f": "blk",
        "name_of_ship": "nanteos",
        "ship_port": "aberystwyth",
        "date_leaving": "continues",
        "joined_ship_date": "1876-01-01",
        "joined_at_port": "runcorn",
        "capacity": "master",
        "date_left": "blk",
        "left_port": "blk",
        "cause_of_leaving": "remains on board",
        "sign_with_mark": "n",
        "notes": "blk"
    },
    {
        "id": "vtls004932193_0_12",
        "type": "sailor",
        "parent": "vtls004932193",
        "name": "william thomas",
        "dob": "blk",
        "age": "28",
        "place_of_birth": "aberystwyth",
        "home_address": "blk",
        "f": "blk",
        "name_of_ship": "idea",
        "ship_port": "aberystwyth",
        "date_leaving": "1875-12-14",
        "joined_ship_date": "1876-01-02",
        "joined_at_port": "runcorn",
        "capacity": "mate",
        "date_left": "blk",
        "left_port": "blk",
        "cause_of_leaving": "remains on board",
        "sign_with_mark": "n",
        "notes": "blk"
    },
    {
        "id": "vtls004932193_0_14",
        "type": "sailor",
        "parent": "vtls004932193",
        "name": "john yallan",
        "dob": "blk",
        "age": "17",
        "place_of_birth": "plymouth",
        "home_address": "blk",
        "f": "blk",
        "name_of_ship": "nanteos",
        "ship_port": "aberystwyth",
        "date_leaving": "continues",
        "joined_ship_date": "1876-01-01",
        "joined_at_port": "runcorn",
        "capacity": "boy",
        "date_left": "1876-01-14",
        "left_port": "newry",
        "cause_of_leaving": "discharged",
        "sign_with_mark": "n",
        "notes": "blk"
    },
    {
        "id": "vtls004932193_0_15",
        "type": "sailor",
        "parent": "vtls004932193",
        "name": "john evans",
        "dob": "blk",
        "age": "16",
        "place_of_birth": "aberystwyth",
        "home_address": "blk",
        "f": "blk",
        "name_of_ship": "waterloo",
        "ship_port": "aberystwyth",
        "date_leaving": "1875-04-26",
        "joined_ship_date": "1876-04-04",
        "joined_at_port": "llanelli",
        "capacity": "boy",
        "date_left": "blk",
        "left_port": "blk",
        "cause_of_leaving": "remains on board",
        "sign_with_mark": "n",
        "notes": "blk"
    },
    {
        "id": "vtls004932193_1_16",
        "type": "sailor",
        "parent": "vtls004932193",
        "name": "eleazar oliver",
        "dob": "blk",
        "age": "40",
        "place_of_birth": "aberystwyth",
        "home_address": "blk",
        "f": "blk",
        "name_of_ship": "eleanor & jane",
        "ship_port": "aberystwyth",
        "date_leaving": "1876-11-28",
        "joined_ship_date": "1876-12-01",
        "joined_at_port": "cardiff",
        "capacity": "able seaman",
        "date_left": "1876-12-23",
        "left_port": "aberystwyth",
        "cause_of_leaving": "discharged",
        "sign_with_mark": "n",
        "notes": "blk"
    },
    {
        "id": "vtls004932193_0_16",
        "type": "sailor",
        "parent": "vtls004932193",
        "name": "christian knudgon",
        "dob": "blk",
        "age": "20",
        "place_of_birth": "sweden",
        "home_address": "blk",
        "f": "blk",
        "name_of_ship": "foreign ship",
        "ship_port": "blk",
        "date_leaving": "1875-06-08",
        "joined_ship_date": "1875-06-08",
        "joined_at_port": "haversham",
        "capacity": "ordinary seaman",
        "date_left": "1876-07-11",
        "left_port": "llanelli",
        "cause_of_leaving": "discharged",
        "sign_with_mark": "n",
        "notes": "blk"
    },
    {
        "id": "vtls004932193_1_13",
        "type": "sailor",
        "parent": "vtls004932193",
        "name": "john evans",
        "dob": "blk",
        "age": "16",
        "place_of_birth": "aberystwyth",
        "home_address": "blk",
        "f": "blk",
        "name_of_ship": "nanteos",
        "ship_port": "aberystwyth",
        "date_leaving": "remains",
        "joined_ship_date": "1876-04-26",
        "joined_at_port": "llanelli",
        "capacity": "ordinary seaman",
        "date_left": "1876-08-25",
        "left_port": "liverpool",
        "cause_of_leaving": "discharged",
        "sign_with_mark": "n",
        "notes": "blk"
    },
    {
        "id": "vtls004932193_1_14",
        "type": "sailor",
        "parent": "vtls004932193",
        "name": "lewez housnooid",
        "dob": "blk",
        "age": "17",
        "place_of_birth": "danish",
        "home_address": "blk",
        "f": "blk",
        "name_of_ship": "nanteos",
        "ship_port": "aberystwyth",
        "date_leaving": "remains",
        "joined_ship_date": "1876-04-2-6",
        "joined_at_port": "blk",
        "capacity": "able seaman",
        "date_left": "1876-11-23",
        "left_port": "cardiff",
        "cause_of_leaving": "discharged",
        "sign_with_mark": "n",
        "notes": "blk"
    },
    {
        "id": "vtls004932193_1_12",
        "type": "sailor",
        "parent": "vtls004932193",
        "name": "william thomas",
        "dob": "blk",
        "age": "27",
        "place_of_birth": "aberystwyth",
        "home_address": "blk",
        "f": "blk",
        "name_of_ship": "nanteos",
        "ship_port": "aberystwyth",
        "date_leaving": "remains",
        "joined_ship_date": "1876-01-02",
        "joined_at_port": "aberystwyth",
        "capacity": "mate",
        "date_left": "1876-12-23",
        "left_port": "aberystwyth",
        "cause_of_leaving": "discharged",
        "sign_with_mark": "n",
        "notes": "blk"
    },
    {
        "id": "vtls004932193_1_11",
        "type": "sailor",
        "parent": "vtls004932193",
        "name": "john thomas",
        "dob": "blk",
        "age": "40",
        "place_of_birth": "aberystwyth",
        "home_address": "blk",
        "f": "blk",
        "name_of_ship": "nanteos",
        "ship_port": "aberystwyth",
        "date_leaving": "remains",
        "joined_ship_date": "1876-01-01",
        "joined_at_port": "aberystwyth",
        "capacity": "master",
        "date_left": "blk",
        "left_port": "blk",
        "cause_of_leaving": "remains on board",
        "sign_with_mark": "n",
        "notes": "blk"
    },
    {
        "id": "vtls004932193_1_15",
        "type": "sailor",
        "parent": "vtls004932193",
        "name": "john owen",
        "dob": "blk",
        "age": "17",
        "place_of_birth": "liverpool",
        "home_address": "blk",
        "f": "blk",
        "name_of_ship": "first voyage",
        "ship_port": "blk",
        "date_leaving": "blk",
        "joined_ship_date": "1876-08-26",
        "joined_at_port": "liverpool",
        "capacity": "boy",
        "date_left": "1876-11-23",
        "left_port": "cardiff",
        "cause_of_leaving": "discharged",
        "sign_with_mark": "n",
        "notes": "blk"
    },
    {
        "id": "vtls004932201_0_13",
        "type": "sailor",
        "parent": "vtls004932201",
        "name": "john edwards",
        "dob": "blk",
        "age": "18",
        "place_of_birth": "aberystwyth",
        "home_address": "blk",
        "f": "blk",
        "name_of_ship": "wellington",
        "ship_port": "aberystwyth",
        "date_leaving": "1876-12-28",
        "joined_ship_date": "1877-03-19",
        "joined_at_port": "aberystwyth",
        "capacity": "able seaman",
        "date_left": "1877-07-30",
        "left_port": "runcorn",
        "cause_of_leaving": "discharged",
        "sign_with_mark": "n",
        "notes": "blk"
    },
    {
        "id": "vtls004932201_0_12",
        "type": "sailor",
        "parent": "vtls004932201",
        "name": "william jones",
        "dob": "blk",
        "age": "22",
        "place_of_birth": "aberystwyth",
        "home_address": "blk",
        "f": "blk",
        "name_of_ship": "enterprise",
        "ship_port": "chester",
        "date_leaving": "1876-12-29",
        "joined_ship_date": "1877-03-19",
        "joined_at_port": "aberystwyth",
        "capacity": "mate",
        "date_left": "1877-07-30",
        "left_port": "runcorn",
        "cause_of_leaving": "discharged",
        "sign_with_mark": "n",
        "notes": "blk"
    },
    {
        "id": "vtls004932201_1_11",
        "type": "sailor",
        "parent": "vtls004932201",
        "name": "john thomas",
        "dob": "blk",
        "age": "40",
        "place_of_birth": "aberystwyth",
        "home_address": "blk",
        "f": "blk",
        "name_of_ship": "nanteos",
        "ship_port": "aberystwyth",
        "date_leaving": "continued",
        "joined_ship_date": "blk",
        "joined_at_port": "blk",
        "capacity": "master",
        "date_left": "blk",
        "left_port": "blk",
        "cause_of_leaving": "remains on board",
        "sign_with_mark": "n",
        "notes": "account for july - dec 1877"
    },
    {
        "id": "vtls004932201_1_13",
        "type": "sailor",
        "parent": "vtls004932201",
        "name": "peter shields",
        "dob": "blk",
        "age": "18",
        "place_of_birth": "belfast",
        "home_address": "blk",
        "f": "blk",
        "name_of_ship": "unknown",
        "ship_port": "unknown",
        "date_leaving": "unknown",
        "joined_ship_date": "1878-08-26",
        "joined_at_port": "runcorn",
        "capacity": "ordinary seaman",
        "date_left": "blk",
        "left_port": "blk",
        "cause_of_leaving": "remains on board",
        "sign_with_mark": "n",
        "notes": "blk"
    },
    {
        "id": "vtls004932201_0_11",
        "type": "sailor",
        "parent": "vtls004932201",
        "name": "john thomas",
        "dob": "blk",
        "age": "40",
        "place_of_birth": "aberystwyth",
        "home_address": "blk",
        "f": "blk",
        "name_of_ship": "nanteos",
        "ship_port": "aberystwyth",
        "date_leaving": "continued",
        "joined_ship_date": "blk",
        "joined_at_port": "blk",
        "capacity": "master",
        "date_left": "1877-07-30",
        "left_port": "runcorn",
        "cause_of_leaving": "remains on board",
        "sign_with_mark": "n",
        "notes": "blk"
    },
    {
        "id": "vtls004932201_0_14",
        "type": "sailor",
        "parent": "vtls004932201",
        "name": "owen enos",
        "dob": "blk",
        "age": "15",
        "place_of_birth": "aberystwyth",
        "home_address": "blk",
        "f": "blk",
        "name_of_ship": "first ship",
        "ship_port": "blk",
        "date_leaving": "blk",
        "joined_ship_date": "1877-03-19",
        "joined_at_port": "aberystwyth",
        "capacity": "boy",
        "date_left": "1877-07-30",
        "left_port": "runcorn",
        "cause_of_leaving": "remains on board",
        "sign_with_mark": "n",
        "notes": "blk"
    },
    {
        "id": "vtls004932209_0_11",
        "type": "sailor",
        "parent": "vtls004932209",
        "name": "james thomas",
        "dob": "blk",
        "age": "37",
        "place_of_birth": "aberystwyth",
        "home_address": "blk",
        "f": "blk",
        "name_of_ship": "messenger",
        "ship_port": "aberystwyth",
        "date_leaving": "1878",
        "joined_ship_date": "1878-02-15",
        "joined_at_port": "bangor",
        "capacity": "master",
        "date_left": "blk",
        "left_port": "blk",
        "cause_of_leaving": "remains on board",
        "sign_with_mark": "n",
        "notes": "blk"
    },
    {
        "id": "vtls004932201_1_12",
        "type": "sailor",
        "parent": "vtls004932201",
        "name": "william jones",
        "dob": "blk",
        "age": "24",
        "place_of_birth": "aberystwyth",
        "home_address": "blk",
        "f": "blk",
        "name_of_ship": "nanteos",
        "ship_port": "aberystwyth",
        "date_leaving": "continued",
        "joined_ship_date": "blk",
        "joined_at_port": "blk",
        "capacity": "mate",
        "date_left": "blk",
        "left_port": "blk",
        "cause_of_leaving": "remains on board",
        "sign_with_mark": "n",
        "notes": "blk"
    },
    {
        "id": "vtls004932201_1_14",
        "type": "sailor",
        "parent": "vtls004932201",
        "name": "owen enos",
        "dob": "blk",
        "age": "16",
        "place_of_birth": "aberystwyth",
        "home_address": "blk",
        "f": "blk",
        "name_of_ship": "nanteos",
        "ship_port": "aberystwyth",
        "date_leaving": "continued",
        "joined_ship_date": "blk",
        "joined_at_port": "blk",
        "capacity": "boy",
        "date_left": "blk",
        "left_port": "blk",
        "cause_of_leaving": "remains on board",
        "sign_with_mark": "n",
        "notes": "blk"
    },
    {
        "id": "vtls004932209_1_11",
        "type": "sailor",
        "parent": "vtls004932209",
        "name": "james thomas",
        "dob": "blk",
        "age": "37",
        "place_of_birth": "aberystwyth",
        "home_address": "blk",
        "f": "blk",
        "name_of_ship": "nanteos",
        "ship_port": "aberystwyth",
        "date_leaving": "continued",
        "joined_ship_date": "blk",
        "joined_at_port": "blk",
        "capacity": "master",
        "date_left": "1878-12-20",
        "left_port": "port dinorwic",
        "cause_of_leaving": "discharged",
        "sign_with_mark": "n",
        "notes": "account for july - dec 1878"
    },
    {
        "id": "vtls004932209_0_13",
        "type": "sailor",
        "parent": "vtls004932209",
        "name": "james dean",
        "dob": "blk",
        "age": "18",
        "place_of_birth": "liverpool",
        "home_address": "blk",
        "f": "blk",
        "name_of_ship": "annie [bozeos]",
        "ship_port": "aberystwyth",
        "date_leaving": "1878",
        "joined_ship_date": "1878-06-13",
        "joined_at_port": "runcorn",
        "capacity": "able seaman",
        "date_left": "1878-06-13",
        "left_port": "runcorn",
        "cause_of_leaving": "remains on board",
        "sign_with_mark": "n",
        "notes": "blk"
    },
    {
        "id": "vtls004932209_1_14",
        "type": "sailor",
        "parent": "vtls004932209",
        "name": "david lewis",
        "dob": "blk",
        "age": "17",
        "place_of_birth": "aberystwyth",
        "home_address": "blk",
        "f": "blk",
        "name_of_ship": "nanteos",
        "ship_port": "aberystwyth",
        "date_leaving": "continued",
        "joined_ship_date": "blk",
        "joined_at_port": "blk",
        "capacity": "ordinary seaman",
        "date_left": "1878-12-15",
        "left_port": "port dinorwic",
        "cause_of_leaving": "discharged",
        "sign_with_mark": "n",
        "notes": "blk"
    },
    {
        "id": "vtls004932209_1_13",
        "type": "sailor",
        "parent": "vtls004932209",
        "name": "james daying",
        "dob": "blk",
        "age": "19",
        "place_of_birth": "liverpool",
        "home_address": "blk",
        "f": "blk",
        "name_of_ship": "nanteos",
        "ship_port": "aberystwyth",
        "date_leaving": "continued",
        "joined_ship_date": "blk",
        "joined_at_port": "blk",
        "capacity": "able seaman",
        "date_left": "1878-12-15",
        "left_port": "port dinorwic",
        "cause_of_leaving": "discharged",
        "sign_with_mark": "n",
        "notes": "blk"
    },
    {
        "id": "vtls004932209_0_12",
        "type": "sailor",
        "parent": "vtls004932209",
        "name": "lewis thomas",
        "dob": "blk",
        "age": "30",
        "place_of_birth": "aberystwyth",
        "home_address": "blk",
        "f": "blk",
        "name_of_ship": "morning star",
        "ship_port": "aberystwyth",
        "date_leaving": "1878",
        "joined_ship_date": "1878-02-15",
        "joined_at_port": "bangor",
        "capacity": "mate",
        "date_left": "blk",
        "left_port": "blk",
        "cause_of_leaving": "remains on board",
        "sign_with_mark": "n",
        "notes": "blk"
    },
    {
        "id": "vtls004932209_1_12",
        "type": "sailor",
        "parent": "vtls004932209",
        "name": "lewis thomas",
        "dob": "blk",
        "age": "31",
        "place_of_birth": "aberystwyth",
        "home_address": "blk",
        "f": "blk",
        "name_of_ship": "nanteos",
        "ship_port": "aberystwyth",
        "date_leaving": "continued",
        "joined_ship_date": "blk",
        "joined_at_port": "blk",
        "capacity": "mate",
        "date_left": "1878-12-15",
        "left_port": "port dinorwic",
        "cause_of_leaving": "discharged",
        "sign_with_mark": "n",
        "notes": "blk"
    },
    {
        "id": "vtls004932209_0_14",
        "type": "sailor",
        "parent": "vtls004932209",
        "name": "david lewis",
        "dob": "blk",
        "age": "16",
        "place_of_birth": "aberystwyth",
        "home_address": "blk",
        "f": "blk",
        "name_of_ship": "[$$$ss]",
        "ship_port": "blk",
        "date_leaving": "1878",
        "joined_ship_date": "1878-02-15",
        "joined_at_port": "bangor",
        "capacity": "boy",
        "date_left": "1878-02-15",
        "left_port": "bangor",
        "cause_of_leaving": "remains on board",
        "sign_with_mark": "n",
        "notes": "blk"
    },
    {
        "id": "vtls004932215_1_15",
        "type": "sailor",
        "parent": "vtls004932215",
        "name": "frederick william prone",
        "dob": "blk",
        "age": "25",
        "place_of_birth": "merthyr tydfil",
        "home_address": "blk",
        "f": "blk",
        "name_of_ship": "[joseph fisher]",
        "ship_port": "[barrow]",
        "date_leaving": "unknown",
        "joined_ship_date": "1880-09-11",
        "joined_at_port": "newport",
        "capacity": "ordinary seaman",
        "date_left": "1880-11-27",
        "left_port": "glasgow",
        "cause_of_leaving": "discharged",
        "sign_with_mark": "n",
        "notes": "blk"
    },
    {
        "id": "vtls004932215_0_11",
        "type": "sailor",
        "parent": "vtls004932215",
        "name": "gwyn botwood",
        "dob": "blk",
        "age": "41",
        "place_of_birth": "aberystwyth",
        "home_address": "blk",
        "f": "blk",
        "name_of_ship": "nanteos",
        "ship_port": "aberystwyth",
        "date_leaving": "continued",
        "joined_ship_date": "blk",
        "joined_at_port": "blk",
        "capacity": "master",
        "date_left": "blk",
        "left_port": "blk",
        "cause_of_leaving": "remains on board",
        "sign_with_mark": "n",
        "notes": "account for jan - june 1880"
    },
    {
        "id": "vtls004932215_0_15",
        "type": "sailor",
        "parent": "vtls004932215",
        "name": "hosea williams",
        "dob": "blk",
        "age": "50",
        "place_of_birth": "conway",
        "home_address": "blk",
        "f": "blk",
        "name_of_ship": "unicorn",
        "ship_port": "caernarfon",
        "date_leaving": "1880-06-13",
        "joined_ship_date": "1880-06-19",
        "joined_at_port": "bangor",
        "capacity": "able seaman",
        "date_left": "blk",
        "left_port": "blk",
        "cause_of_leaving": "remains on board",
        "sign_with_mark": "n",
        "notes": "blk"
    },
    {
        "id": "vtls004932215_1_14",
        "type": "sailor",
        "parent": "vtls004932215",
        "name": "james ferguson",
        "dob": "blk",
        "age": "22",
        "place_of_birth": "belfast",
        "home_address": "blk",
        "f": "blk",
        "name_of_ship": "first ship",
        "ship_port": "blk",
        "date_leaving": "blk",
        "joined_ship_date": "1880-08-10",
        "joined_at_port": "belfast",
        "capacity": "ordinary seaman",
        "date_left": "1880-09-09",
        "left_port": "newport",
        "cause_of_leaving": "discharged",
        "sign_with_mark": "n",
        "notes": "blk"
    },
    {
        "id": "vtls004932215_1_13",
        "type": "sailor",
        "parent": "vtls004932215",
        "name": "joshua williams",
        "dob": "blk",
        "age": "60",
        "place_of_birth": "rhyl",
        "home_address": "blk",
        "f": "blk",
        "name_of_ship": "nanteos",
        "ship_port": "aberystwyth",
        "date_leaving": "continued",
        "joined_ship_date": "blk",
        "joined_at_port": "blk",
        "capacity": "able seaman",
        "date_left": "1880-08-08",
        "left_port": "belfast",
        "cause_of_leaving": "discharged",
        "sign_with_mark": "n",
        "notes": "blk"
    },
    {
        "id": "vtls004932215_0_13",
        "type": "sailor",
        "parent": "vtls004932215",
        "name": "evan davies",
        "dob": "blk",
        "age": "25",
        "place_of_birth": "aberystwyth",
        "home_address": "blk",
        "f": "blk",
        "name_of_ship": "nanteos",
        "ship_port": "aberystwyth",
        "date_leaving": "continued",
        "joined_ship_date": "blk",
        "joined_at_port": "blk",
        "capacity": "able seaman",
        "date_left": "1880-06-10",
        "left_port": "bangor",
        "cause_of_leaving": "discharged",
        "sign_with_mark": "n",
        "notes": "blk"
    },
    {
        "id": "vtls004932215_1_12",
        "type": "sailor",
        "parent": "vtls004932215",
        "name": "william jones",
        "dob": "blk",
        "age": "26",
        "place_of_birth": "aberystwyth",
        "home_address": "blk",
        "f": "blk",
        "name_of_ship": "nanteos",
        "ship_port": "aberystwyth",
        "date_leaving": "continued",
        "joined_ship_date": "blk",
        "joined_at_port": "blk",
        "capacity": "mate",
        "date_left": "1887-12-18",
        "left_port": "aberystwyth",
        "cause_of_leaving": "discharged",
        "sign_with_mark": "n",
        "notes": "blk"
    },
    {
        "id": "vtls004932215_0_14",
        "type": "sailor",
        "parent": "vtls004932215",
        "name": "james jenkins",
        "dob": "blk",
        "age": "20",
        "place_of_birth": "aberystwyth",
        "home_address": "blk",
        "f": "blk",
        "name_of_ship": "nanteos",
        "ship_port": "aberystwyth",
        "date_leaving": "continued",
        "joined_ship_date": "blk",
        "joined_at_port": "blk",
        "capacity": "cook",
        "date_left": "1880-06-10",
        "left_port": "bangor",
        "cause_of_leaving": "discharged",
        "sign_with_mark": "n",
        "notes": "blk"
    },
    {
        "id": "vtls004932215_1_11",
        "type": "sailor",
        "parent": "vtls004932215",
        "name": "gwynne botwood",
        "dob": "blk",
        "age": "42",
        "place_of_birth": "aberystwyth",
        "home_address": "blk",
        "f": "blk",
        "name_of_ship": "nanteos",
        "ship_port": "aberystwyth",
        "date_leaving": "continued",
        "joined_ship_date": "blk",
        "joined_at_port": "blk",
        "capacity": "master",
        "date_left": "blk",
        "left_port": "blk",
        "cause_of_leaving": "remains on board",
        "sign_with_mark": "n",
        "notes": "blk"
    },
    {
        "id": "vtls004932215_0_12",
        "type": "sailor",
        "parent": "vtls004932215",
        "name": "william jones",
        "dob": "blk",
        "age": "30",
        "place_of_birth": "aberystwyth",
        "home_address": "blk",
        "f": "blk",
        "name_of_ship": "nanteos",
        "ship_port": "aberystwyth",
        "date_leaving": "continued",
        "joined_ship_date": "blk",
        "joined_at_port": "blk",
        "capacity": "mate",
        "date_left": "blk",
        "left_port": "blk",
        "cause_of_leaving": "remains on board",
        "sign_with_mark": "n",
        "notes": "blk"
    },
    {
        "id": "vtls004932229_0_11",
        "type": "sailor",
        "parent": "vtls004932229",
        "name": "gwyn botwood",
        "dob": "blk",
        "age": "42",
        "place_of_birth": "aberystwyth",
        "home_address": "blk",
        "f": "blk",
        "name_of_ship": "nanteos",
        "ship_port": "aberystwyth",
        "date_leaving": "1880-12-31",
        "joined_ship_date": "1881-01-01",
        "joined_at_port": "aberystwyth",
        "capacity": "master",
        "date_left": "blk",
        "left_port": "blk",
        "cause_of_leaving": "remains on board",
        "sign_with_mark": "n",
        "notes": "account for jan - june 1881"
    },
    {
        "id": "vtls004932229_1_11",
        "type": "sailor",
        "parent": "vtls004932229",
        "name": "gwynne botwood",
        "dob": "blk",
        "age": "42",
        "place_of_birth": "aberystwyth",
        "home_address": "blk",
        "f": "blk",
        "name_of_ship": "nanteos",
        "ship_port": "aberystwyth",
        "date_leaving": "1881-06-30",
        "joined_ship_date": "1881-07-01",
        "joined_at_port": "porthmadog",
        "capacity": "master",
        "date_left": "1882-01-10",
        "left_port": "porthmadog",
        "cause_of_leaving": "remains on board",
        "sign_with_mark": "n",
        "notes": "blk"
    },
    {
        "id": "vtls004932229_1_12",
        "type": "sailor",
        "parent": "vtls004932229",
        "name": "william edwards",
        "dob": "blk",
        "age": "50",
        "place_of_birth": "aberystwyth",
        "home_address": "blk",
        "f": "blk",
        "name_of_ship": "cambrian belle",
        "ship_port": "aberystwyth",
        "date_leaving": "1881-07-20",
        "joined_ship_date": "1881-09-01",
        "joined_at_port": "porthmadog",
        "capacity": "mate",
        "date_left": "1882-01-07",
        "left_port": "porthmadog",
        "cause_of_leaving": "paid off",
        "sign_with_mark": "n",
        "notes": "blk"
    },
    {
        "id": "vtls004932215_1_16",
        "type": "sailor",
        "parent": "vtls004932215",
        "name": "alfred clark",
        "dob": "blk",
        "age": "20",
        "place_of_birth": "glasgow",
        "home_address": "blk",
        "f": "blk",
        "name_of_ship": "loch tay",
        "ship_port": "glasgow",
        "date_leaving": "unknown",
        "joined_ship_date": "1880-12-09",
        "joined_at_port": "glasgow",
        "capacity": "ordinary seaman",
        "date_left": "1880-12-29",
        "left_port": "aberystwyth",
        "cause_of_leaving": "discharged",
        "sign_with_mark": "n",
        "notes": "blk"
    },
    {
        "id": "vtls004932229_0_13",
        "type": "sailor",
        "parent": "vtls004932229",
        "name": "richard james",
        "dob": "blk",
        "age": "23",
        "place_of_birth": "aberystwyth",
        "home_address": "blk",
        "f": "blk",
        "name_of_ship": "jane",
        "ship_port": "aberystwyth",
        "date_leaving": "1881-04-04",
        "joined_ship_date": "1881-04-11",
        "joined_at_port": "aberystwyth",
        "capacity": "able seaman",
        "date_left": "blk",
        "left_port": "blk",
        "cause_of_leaving": "remains on board",
        "sign_with_mark": "n",
        "notes": "blk"
    },
    {
        "id": "vtls004932229_0_14",
        "type": "sailor",
        "parent": "vtls004932229",
        "name": "hugh evans",
        "dob": "blk",
        "age": "15",
        "place_of_birth": "aberystwyth",
        "home_address": "blk",
        "f": "blk",
        "name_of_ship": "jane jones",
        "ship_port": "aberystwyth",
        "date_leaving": "1881-04-07",
        "joined_ship_date": "1881-04-11",
        "joined_at_port": "aberystwyth",
        "capacity": "boy",
        "date_left": "blk",
        "left_port": "blk",
        "cause_of_leaving": "remains on board",
        "sign_with_mark": "n",
        "notes": "blk"
    },
    {
        "id": "vtls004932229_0_12",
        "type": "sailor",
        "parent": "vtls004932229",
        "name": "david clayton",
        "dob": "blk",
        "age": "30",
        "place_of_birth": "london",
        "home_address": "blk",
        "f": "blk",
        "name_of_ship": "jane",
        "ship_port": "aberystwyth",
        "date_leaving": "1881-04-04",
        "joined_ship_date": "1881-04-11",
        "joined_at_port": "aberystwyth",
        "capacity": "mate",
        "date_left": "blk",
        "left_port": "blk",
        "cause_of_leaving": "remains on board",
        "sign_with_mark": "n",
        "notes": "blk"
    },
    {
        "id": "vtls004932229_1_14",
        "type": "sailor",
        "parent": "vtls004932229",
        "name": "alfred johnson",
        "dob": "blk",
        "age": "19",
        "place_of_birth": "hull",
        "home_address": "blk",
        "f": "blk",
        "name_of_ship": "training ship",
        "ship_port": "southampton",
        "date_leaving": "unknown",
        "joined_ship_date": "1881-10-26",
        "joined_at_port": "hull",
        "capacity": "ordinary seaman",
        "date_left": "1882-01-10",
        "left_port": "porthmadog",
        "cause_of_leaving": "paid off",
        "sign_with_mark": "n",
        "notes": "blk"
    },
    {
        "id": "vtls004932238_0_13",
        "type": "sailor",
        "parent": "vtls004932238",
        "name": "alfred dobson",
        "dob": "1862",
        "age": "blk",
        "place_of_birth": "hull",
        "home_address": "blk",
        "f": "blk",
        "name_of_ship": "nanteos",
        "ship_port": "aberystwyth",
        "date_leaving": "blk",
        "joined_ship_date": "1882-01-08",
        "joined_at_port": "porthmadog",
        "capacity": "ordinary seaman",
        "date_left": "1882-07-03",
        "left_port": "liverpool",
        "cause_of_leaving": "discharged",
        "sign_with_mark": "n",
        "notes": "blk"
    },
    {
        "id": "vtls004932238_0_16",
        "type": "sailor",
        "parent": "vtls004932238",
        "name": "john g botswood",
        "dob": "1867",
        "age": "blk",
        "place_of_birth": "aberystwyth",
        "home_address": "blk",
        "f": "blk",
        "name_of_ship": "first ship",
        "ship_port": "blk",
        "date_leaving": "blk",
        "joined_ship_date": "1882-04-28",
        "joined_at_port": "bangor",
        "capacity": "cook",
        "date_left": "1882-07-03",
        "left_port": "liverpool",
        "cause_of_leaving": "discharged",
        "sign_with_mark": "n",
        "notes": "blk"
    },
    {
        "id": "vtls004932238_0_12",
        "type": "sailor",
        "parent": "vtls004932238",
        "name": "evan davies",
        "dob": "1847",
        "age": "blk",
        "place_of_birth": "porthmadog",
        "home_address": "blk",
        "f": "blk",
        "name_of_ship": "[ulassing]",
        "ship_port": "newquay",
        "date_leaving": "blk",
        "joined_ship_date": "1882-01-08",
        "joined_at_port": "porthmadog",
        "capacity": "mate",
        "date_left": "1882-03-02",
        "left_port": "london",
        "cause_of_leaving": "discharged",
        "sign_with_mark": "n",
        "notes": "blk"
    },
    {
        "id": "vtls004932238_0_15",
        "type": "sailor",
        "parent": "vtls004932238",
        "name": "thomas parry",
        "dob": "1858",
        "age": "blk",
        "place_of_birth": "conway",
        "home_address": "blk",
        "f": "blk",
        "name_of_ship": "rebecca",
        "ship_port": "[porthmadog]",
        "date_leaving": "blk",
        "joined_ship_date": "1882-03-06",
        "joined_at_port": "london",
        "capacity": "mate",
        "date_left": "1882-07-03",
        "left_port": "liverpool",
        "cause_of_leaving": "discharged",
        "sign_with_mark": "n",
        "notes": "blk"
    },
    {
        "id": "vtls004932238_0_11",
        "type": "sailor",
        "parent": "vtls004932238",
        "name": "gwyn botwood",
        "dob": "blk",
        "age": "blk",
        "place_of_birth": "aberystwyth",
        "home_address": "blk",
        "f": "blk",
        "name_of_ship": "nanteos",
        "ship_port": "aberystwyth",
        "date_leaving": "blk",
        "joined_ship_date": "1882-01-08",
        "joined_at_port": "porthmadog",
        "capacity": "master",
        "date_left": "blk",
        "left_port": "blk",
        "cause_of_leaving": "remains on board",
        "sign_with_mark": "n",
        "notes": "blk"
    },
    {
        "id": "vtls004932238_1_11",
        "type": "sailor",
        "parent": "vtls004932238",
        "name": "gwyn botwood",
        "dob": "blk",
        "age": "44",
        "place_of_birth": "aberystwyth",
        "home_address": "blk",
        "f": "blk",
        "name_of_ship": "nanteos",
        "ship_port": "aberysttwyth",
        "date_leaving": "blk",
        "joined_ship_date": "1882-07-19",
        "joined_at_port": "liverpool",
        "capacity": "master",
        "date_left": "blk",
        "left_port": "blk",
        "cause_of_leaving": "remains on board",
        "sign_with_mark": "n",
        "notes": "blk"
    },
    {
        "id": "vtls004932229_1_13",
        "type": "sailor",
        "parent": "vtls004932229",
        "name": "thomas george",
        "dob": "blk",
        "age": "16",
        "place_of_birth": "hull",
        "home_address": "blk",
        "f": "blk",
        "name_of_ship": "first voyage",
        "ship_port": "blk",
        "date_leaving": "blk",
        "joined_ship_date": "1881-09-01",
        "joined_at_port": "porthmadog",
        "capacity": "cook",
        "date_left": "1882-01-07",
        "left_port": "porthmadog",
        "cause_of_leaving": "paid off",
        "sign_with_mark": "n",
        "notes": "blk"
    },
    {
        "id": "vtls004932238_0_14",
        "type": "sailor",
        "parent": "vtls004932238",
        "name": "robert parry",
        "dob": "1866",
        "age": "blk",
        "place_of_birth": "caernarfon",
        "home_address": "blk",
        "f": "blk",
        "name_of_ship": "first ship",
        "ship_port": "blk",
        "date_leaving": "blk",
        "joined_ship_date": "blk",
        "joined_at_port": "blk",
        "capacity": "cook",
        "date_left": "1882-04-27",
        "left_port": "bangor",
        "cause_of_leaving": "discharged",
        "sign_with_mark": "n",
        "notes": "blk"
    },
    {
        "id": "vtls004932082_0_11",
        "type": "sailor",
        "parent": "vtls004932082",
        "name": "john lloyd",
        "dob": "blk",
        "age": "23",
        "place_of_birth": "borth",
        "home_address": "blk",
        "f": "blk",
        "name_of_ship": "nanteos",
        "ship_port": "aberstywith",
        "date_leaving": "1862-12-31",
        "joined_ship_date": "1863-01--01",
        "joined_at_port": "aberystwyth",
        "capacity": "master",
        "date_left": "blk",
        "left_port": "blk",
        "cause_of_leaving": "remains on board",
        "sign_with_mark": "n",
        "notes": "account for jan - june 1863"
    },
    {
        "id": "vtls004932238_1_14",
        "type": "sailor",
        "parent": "vtls004932238",
        "name": "j g botwood",
        "dob": "blk",
        "age": "13",
        "place_of_birth": "aberystwyth",
        "home_address": "blk",
        "f": "blk",
        "name_of_ship": "first voyage",
        "ship_port": "blk",
        "date_leaving": "blk",
        "joined_ship_date": "1882-07-19",
        "joined_at_port": "liverpool",
        "capacity": "cook & ordinary seaman",
        "date_left": "1882-11-13",
        "left_port": "porthmadog",
        "cause_of_leaving": "discharged",
        "sign_with_mark": "n",
        "notes": "blk"
    },
    {
        "id": "vtls004932238_1_17",
        "type": "sailor",
        "parent": "vtls004932238",
        "name": "owen owens",
        "dob": "1868",
        "age": "blk",
        "place_of_birth": "llanystumdwy",
        "home_address": "blk",
        "f": "blk",
        "name_of_ship": "first voyage",
        "ship_port": "blk",
        "date_leaving": "blk",
        "joined_ship_date": "1882-12-14",
        "joined_at_port": "porthmadog",
        "capacity": "cook & ordinary seaman",
        "date_left": "blk",
        "left_port": "blk",
        "cause_of_leaving": "remains on board",
        "sign_with_mark": "n",
        "notes": "blk"
    },
    {
        "id": "vtls004932238_1_13",
        "type": "sailor",
        "parent": "vtls004932238",
        "name": "a dobson",
        "dob": "blk",
        "age": "17",
        "place_of_birth": "bradford",
        "home_address": "blk",
        "f": "blk",
        "name_of_ship": "nanteos",
        "ship_port": "aberysttwyth",
        "date_leaving": "blk",
        "joined_ship_date": "1882-07-19",
        "joined_at_port": "liverpool",
        "capacity": "able seaman",
        "date_left": "1882-11-13",
        "left_port": "porthmadog",
        "cause_of_leaving": "discharged",
        "sign_with_mark": "n",
        "notes": "blk"
    },
    {
        "id": "vtls004932238_1_12",
        "type": "sailor",
        "parent": "vtls004932238",
        "name": "hugh parry",
        "dob": "blk",
        "age": "50",
        "place_of_birth": "aberystwyth",
        "home_address": "blk",
        "f": "blk",
        "name_of_ship": "nanteos",
        "ship_port": "aberysttwyth",
        "date_leaving": "blk",
        "joined_ship_date": "1882-07-19",
        "joined_at_port": "liverpool",
        "capacity": "mate",
        "date_left": "1882-11-13",
        "left_port": "porthmadog",
        "cause_of_leaving": "discharged",
        "sign_with_mark": "n",
        "notes": "blk"
    },
    {
        "id": "vtls004932238_1_16",
        "type": "sailor",
        "parent": "vtls004932238",
        "name": "john collister",
        "dob": "blk",
        "age": "20",
        "place_of_birth": "isle of man",
        "home_address": "blk",
        "f": "blk",
        "name_of_ship": "zephyr",
        "ship_port": "[peel]",
        "date_leaving": "1882",
        "joined_ship_date": "1882-12-14",
        "joined_at_port": "porthmadog",
        "capacity": "able seaman",
        "date_left": "blk",
        "left_port": "blk",
        "cause_of_leaving": "remains on board",
        "sign_with_mark": "n",
        "notes": "blk"
    },
    {
        "id": "vtls004932238_1_15",
        "type": "sailor",
        "parent": "vtls004932238",
        "name": "w bridson",
        "dob": "blk",
        "age": "23",
        "place_of_birth": "isle of man",
        "home_address": "blk",
        "f": "blk",
        "name_of_ship": "[consulfile]",
        "ship_port": "liverpool",
        "date_leaving": "1882",
        "joined_ship_date": "1882-12-14",
        "joined_at_port": "porthmadog",
        "capacity": "mate",
        "date_left": "blk",
        "left_port": "blk",
        "cause_of_leaving": "remains on board",
        "sign_with_mark": "n",
        "notes": "blk"
    },
    {
        "id": "vtls004932094_0_11",
        "type": "sailor",
        "parent": "vtls004932094",
        "name": "david lloyd",
        "dob": "blk",
        "age": "26",
        "place_of_birth": "borth, cardiganshire",
        "home_address": "blk",
        "f": "blk",
        "name_of_ship": "nanteos",
        "ship_port": "aberystwyth",
        "date_leaving": "previous to 1866-07-31",
        "joined_ship_date": "previous to 1866-07-31",
        "joined_at_port": "blk",
        "capacity": "master",
        "date_left": "1867-02-21",
        "left_port": "aberystwyth",
        "cause_of_leaving": "discharged",
        "sign_with_mark": "n",
        "notes": "account for july - dec 1866"
    },
    {
        "id": "vtls004932094_0_12",
        "type": "sailor",
        "parent": "vtls004932094",
        "name": "thomas enos",
        "dob": "blk",
        "age": "35",
        "place_of_birth": "borth, cardiganshire",
        "home_address": "blk",
        "f": "blk",
        "name_of_ship": "nanteos",
        "ship_port": "aberystwyth",
        "date_leaving": "previous to 1866-07-31",
        "joined_ship_date": "previous to 1866-07-31",
        "joined_at_port": "blk",
        "capacity": "mate",
        "date_left": "1867-02-15",
        "left_port": "aberystwyth",
        "cause_of_leaving": "discharged",
        "sign_with_mark": "n",
        "notes": "blk"
    },
    {
        "id": "vtls004932082_1_14",
        "type": "sailor",
        "parent": "vtls004932082",
        "name": "thomas bensley",
        "dob": "blk",
        "age": "21",
        "place_of_birth": "great yarmouth",
        "home_address": "blk",
        "f": "blk",
        "name_of_ship": "nanteos",
        "ship_port": "aberystwyth",
        "date_leaving": "1863-06-30",
        "joined_ship_date": "1863-07-01",
        "joined_at_port": "whitehaven",
        "capacity": "ordinary seaman",
        "date_left": "1863-12-31",
        "left_port": "at sea",
        "cause_of_leaving": "remains on board",
        "sign_with_mark": "n",
        "notes": "blk"
    },
    {
        "id": "vtls004932082_1_13",
        "type": "sailor",
        "parent": "vtls004932082",
        "name": "thomas davies",
        "dob": "blk",
        "age": "23",
        "place_of_birth": "borth",
        "home_address": "blk",
        "f": "blk",
        "name_of_ship": "nanteos",
        "ship_port": "aberystwyth",
        "date_leaving": "1863-06-30",
        "joined_ship_date": "1863-07-01",
        "joined_at_port": "whitehaven",
        "capacity": "able seaman",
        "date_left": "1863-12-31",
        "left_port": "at sea",
        "cause_of_leaving": "remains on board",
        "sign_with_mark": "n",
        "notes": "blk"
    },
    {
        "id": "vtls004932082_1_11",
        "type": "sailor",
        "parent": "vtls004932082",
        "name": "john lloyd",
        "dob": "blk",
        "age": "24",
        "place_of_birth": "borth",
        "home_address": "blk",
        "f": "blk",
        "name_of_ship": "nanteos",
        "ship_port": "aberystwyth",
        "date_leaving": "1863-06-30",
        "joined_ship_date": "1863-07-01",
        "joined_at_port": "whitehaven",
        "capacity": "master",
        "date_left": "1863-12-31",
        "left_port": "at sea",
        "cause_of_leaving": "remains on board",
        "sign_with_mark": "n",
        "notes": "blk"
    },
    {
        "id": "vtls004932082_1_12",
        "type": "sailor",
        "parent": "vtls004932082",
        "name": "morgan lloyd",
        "dob": "blk",
        "age": "22",
        "place_of_birth": "borth",
        "home_address": "blk",
        "f": "blk",
        "name_of_ship": "nanteos",
        "ship_port": "aberystwyth",
        "date_leaving": "1863-06-30",
        "joined_ship_date": "1863-07-01",
        "joined_at_port": "whitehaven",
        "capacity": "mate",
        "date_left": "1863-12-31",
        "left_port": "at sea",
        "cause_of_leaving": "remains on board",
        "sign_with_mark": "n",
        "notes": "blk"
    },
    {
        "id": "vtls004932082_0_13",
        "type": "sailor",
        "parent": "vtls004932082",
        "name": "thomas davies",
        "dob": "blk",
        "age": "22",
        "place_of_birth": "borth",
        "home_address": "blk",
        "f": "blk",
        "name_of_ship": "margaret jones",
        "ship_port": "aberstywith",
        "date_leaving": "1862-12-30",
        "joined_ship_date": "1863-01-01",
        "joined_at_port": "newport",
        "capacity": "seaman",
        "date_left": "blk",
        "left_port": "blk",
        "cause_of_leaving": "remains on board",
        "sign_with_mark": "n",
        "notes": "blk"
    },
    {
        "id": "vtls004932082_0_14",
        "type": "sailor",
        "parent": "vtls004932082",
        "name": "william stafford",
        "dob": "blk",
        "age": "17",
        "place_of_birth": "sunderland",
        "home_address": "blk",
        "f": "blk",
        "name_of_ship": "true blue",
        "ship_port": "newport",
        "date_leaving": "1863-01-22",
        "joined_ship_date": "1863-01-24",
        "joined_at_port": "newport",
        "capacity": "seaman",
        "date_left": "blk",
        "left_port": "blk",
        "cause_of_leaving": "remains on board",
        "sign_with_mark": "n",
        "notes": "blk"
    },
    {
        "id": "vtls004932082_0_12",
        "type": "sailor",
        "parent": "vtls004932082",
        "name": "morgan lloyd",
        "dob": "blk",
        "age": "21",
        "place_of_birth": "borth",
        "home_address": "blk",
        "f": "blk",
        "name_of_ship": "nanteos",
        "ship_port": "aberstywith",
        "date_leaving": "1862-12-31",
        "joined_ship_date": "1863-01-01",
        "joined_at_port": "aberystwyth",
        "capacity": "mate",
        "date_left": "blk",
        "left_port": "blk",
        "cause_of_leaving": "remains on board",
        "sign_with_mark": "n",
        "notes": "blk"
    },
    {
        "id": "vtls004932094_0_14",
        "type": "sailor",
        "parent": "vtls004932094",
        "name": "john thomas",
        "dob": "blk",
        "age": "17",
        "place_of_birth": "cardiganshire",
        "home_address": "blk",
        "f": "blk",
        "name_of_ship": "nanteos",
        "ship_port": "aberystwyth",
        "date_leaving": "previous to 1866-07-31",
        "joined_ship_date": "previous to 1866-07-31",
        "joined_at_port": "blk",
        "capacity": "ordinary seaman",
        "date_left": "1867-02-20",
        "left_port": "aberystwyth",
        "cause_of_leaving": "discharged",
        "sign_with_mark": "n",
        "notes": "blk"
    },
    {
        "id": "vtls004932094_0_13",
        "type": "sailor",
        "parent": "vtls004932094",
        "name": "richard williams",
        "dob": "blk",
        "age": "25",
        "place_of_birth": "borth, cardiganshire",
        "home_address": "blk",
        "f": "blk",
        "name_of_ship": "nanteos",
        "ship_port": "aberystwyth",
        "date_leaving": "previous to 1866-07-31",
        "joined_ship_date": "previous to 1866-07-31",
        "joined_at_port": "blk",
        "capacity": "able seaman",
        "date_left": "1867-02-15",
        "left_port": "aberystwyth",
        "cause_of_leaving": "discharged",
        "sign_with_mark": "n",
        "notes": "blk"
    },
    {
        "id": "vtls004932098_0_11",
        "type": "sailor",
        "parent": "vtls004932098",
        "name": "john thomas",
        "dob": "blk",
        "age": "30",
        "place_of_birth": "aberystwyth",
        "home_address": "blk",
        "f": "blk",
        "name_of_ship": "nanteos",
        "ship_port": "aberystwyth",
        "date_leaving": "continued",
        "joined_ship_date": "continued",
        "joined_at_port": "continued",
        "capacity": "master",
        "date_left": "1867-06-30",
        "left_port": "at sea",
        "cause_of_leaving": "remains on board",
        "sign_with_mark": "n",
        "notes": "account for jan - june 1867"
    },
    {
        "id": "vtls004932098_0_14",
        "type": "sailor",
        "parent": "vtls004932098",
        "name": "thomas williams",
        "dob": "blk",
        "age": "16",
        "place_of_birth": "aberystwyth",
        "home_address": "blk",
        "f": "blk",
        "name_of_ship": "nanteos",
        "ship_port": "aberystwyth",
        "date_leaving": "continued",
        "joined_ship_date": "continued",
        "joined_at_port": "continued",
        "capacity": "ordinary seaman",
        "date_left": "1867-06-30",
        "left_port": "at sea",
        "cause_of_leaving": "remains on board",
        "sign_with_mark": "n",
        "notes": "blk"
    },
    {
        "id": "vtls004932098_0_13",
        "type": "sailor",
        "parent": "vtls004932098",
        "name": "isaac thomas",
        "dob": "blk",
        "age": "18",
        "place_of_birth": "aberystwyth",
        "home_address": "blk",
        "f": "blk",
        "name_of_ship": "nanteos",
        "ship_port": "aberystwyth",
        "date_leaving": "continued",
        "joined_ship_date": "continued",
        "joined_at_port": "continued",
        "capacity": "able seaman",
        "date_left": "1867-06-30",
        "left_port": "at sea",
        "cause_of_leaving": "remains on board",
        "sign_with_mark": "n",
        "notes": "blk"
    },
    {
        "id": "vtls004932098_0_12",
        "type": "sailor",
        "parent": "vtls004932098",
        "name": "david williams",
        "dob": "blk",
        "age": "27",
        "place_of_birth": "aberystwyth",
        "home_address": "blk",
        "f": "blk",
        "name_of_ship": "nanteos",
        "ship_port": "aberystwyth",
        "date_leaving": "continued",
        "joined_ship_date": "continued",
        "joined_at_port": "continued",
        "capacity": "mate",
        "date_left": "1867-06-30",
        "left_port": "at sea",
        "cause_of_leaving": "remains on board",
        "sign_with_mark": "n",
        "notes": "blk"
    },
    {
        "id": "vtls004932098_1_11",
        "type": "sailor",
        "parent": "vtls004932098",
        "name": "john thomas",
        "dob": "blk",
        "age": "30",
        "place_of_birth": "aberystwyth",
        "home_address": "blk",
        "f": "blk",
        "name_of_ship": "nanteos",
        "ship_port": "aberystwyth",
        "date_leaving": "remains",
        "joined_ship_date": "1867-07-20",
        "joined_at_port": "runcorn",
        "capacity": "master",
        "date_left": "1867-12-11",
        "left_port": "on board",
        "cause_of_leaving": "remains on board",
        "sign_with_mark": "n",
        "notes": "blk"
    },
    {
        "id": "vtls004932102_0_11",
        "type": "sailor",
        "parent": "vtls004932102",
        "name": "john thomas",
        "dob": "blk",
        "age": "31",
        "place_of_birth": "aberystwyth",
        "home_address": "blk",
        "f": "blk",
        "name_of_ship": "nanteos",
        "ship_port": "aberystwyth",
        "date_leaving": "remains",
        "joined_ship_date": "1867-05-04",
        "joined_at_port": "aberystwyth",
        "capacity": "master",
        "date_left": "remains",
        "left_port": "blk",
        "cause_of_leaving": "remains on board",
        "sign_with_mark": "n",
        "notes": "account for jan - june 1868"
    },
    {
        "id": "vtls004932098_1_14",
        "type": "sailor",
        "parent": "vtls004932098",
        "name": "thomas williams",
        "dob": "blk",
        "age": "17",
        "place_of_birth": "aberystwyth",
        "home_address": "blk",
        "f": "blk",
        "name_of_ship": "jane and mary",
        "ship_port": "aberystwyth",
        "date_leaving": "1867-07-14",
        "joined_ship_date": "1867-07-14",
        "joined_at_port": "runcorn",
        "capacity": "boy",
        "date_left": "1867-12-10",
        "left_port": "porthmadog",
        "cause_of_leaving": "discharged",
        "sign_with_mark": "n",
        "notes": "blk"
    },
    {
        "id": "vtls004932098_1_16",
        "type": "sailor",
        "parent": "vtls004932098",
        "name": "william langley",
        "dob": "blk",
        "age": "24",
        "place_of_birth": "shields",
        "home_address": "blk",
        "f": "blk",
        "name_of_ship": "honora",
        "ship_port": "aberystwyth",
        "date_leaving": "1867--12-09",
        "joined_ship_date": "1867-12-10",
        "joined_at_port": "portmadoc",
        "capacity": "seaman",
        "date_left": "blk",
        "left_port": "on board",
        "cause_of_leaving": "remains on board",
        "sign_with_mark": "n",
        "notes": "blk"
    },
    {
        "id": "vtls004932098_1_15",
        "type": "sailor",
        "parent": "vtls004932098",
        "name": "hugh thomas",
        "dob": "blk",
        "age": "33",
        "place_of_birth": "aberystwyth",
        "home_address": "blk",
        "f": "blk",
        "name_of_ship": "jane morgan",
        "ship_port": "aberystwyth",
        "date_leaving": "1867-11-10",
        "joined_ship_date": "1867-07-19",
        "joined_at_port": "portmadoc",
        "capacity": "mate",
        "date_left": "blk",
        "left_port": "on board",
        "cause_of_leaving": "remains on board",
        "sign_with_mark": "n",
        "notes": "blk"
    },
    {
        "id": "vtls004932102_0_13",
        "type": "sailor",
        "parent": "vtls004932102",
        "name": "william langley",
        "dob": "blk",
        "age": "28",
        "place_of_birth": "ipswich",
        "home_address": "blk",
        "f": "blk",
        "name_of_ship": "nanteos",
        "ship_port": "aberystwyth",
        "date_leaving": "remains",
        "joined_ship_date": "1868-01-06",
        "joined_at_port": "waterford",
        "capacity": "able seaman",
        "date_left": "remains",
        "left_port": "blk",
        "cause_of_leaving": "remains on board",
        "sign_with_mark": "n",
        "notes": "blk"
    },
    {
        "id": "vtls004932098_1_13",
        "type": "sailor",
        "parent": "vtls004932098",
        "name": "edwin jenkins",
        "dob": "blk",
        "age": "24",
        "place_of_birth": "aberystwyth",
        "home_address": "blk",
        "f": "blk",
        "name_of_ship": "express",
        "ship_port": "aberystwyth",
        "date_leaving": "1867-07-18",
        "joined_ship_date": "1867-07-19",
        "joined_at_port": "runcorn",
        "capacity": "seaman",
        "date_left": "1867-12-10",
        "left_port": "porthmadog",
        "cause_of_leaving": "discharged",
        "sign_with_mark": "n",
        "notes": "blk"
    },
    {
        "id": "vtls004932098_1_12",
        "type": "sailor",
        "parent": "vtls004932098",
        "name": "david williams",
        "dob": "blk",
        "age": "27",
        "place_of_birth": "aberystwyth",
        "home_address": "blk",
        "f": "blk",
        "name_of_ship": "nanteos",
        "ship_port": "aberystwyth",
        "date_leaving": "remains",
        "joined_ship_date": "1667-07-20",
        "joined_at_port": "runcorn",
        "capacity": "mate",
        "date_left": "1867-12-11",
        "left_port": "porthmadog",
        "cause_of_leaving": "discharged",
        "sign_with_mark": "n",
        "notes": "blk"
    },
    {
        "id": "vtls004932098_1_17",
        "type": "sailor",
        "parent": "vtls004932098",
        "name": "john thomas",
        "dob": "blk",
        "age": "15",
        "place_of_birth": "aberystwyth",
        "home_address": "blk",
        "f": "blk",
        "name_of_ship": "sarah",
        "ship_port": "aberdovey",
        "date_leaving": "1867-11-11",
        "joined_ship_date": "1867-12-11",
        "joined_at_port": "portmadoc",
        "capacity": "boy",
        "date_left": "blk",
        "left_port": "on board",
        "cause_of_leaving": "remains on board",
        "sign_with_mark": "n",
        "notes": "blk"
    },
    {
        "id": "vtls004932102_0_12",
        "type": "sailor",
        "parent": "vtls004932102",
        "name": "hugh thomas",
        "dob": "blk",
        "age": "34",
        "place_of_birth": "aberystwyth",
        "home_address": "blk",
        "f": "blk",
        "name_of_ship": "nanteos",
        "ship_port": "aberystwyth",
        "date_leaving": "remains",
        "joined_ship_date": "1868-01-06",
        "joined_at_port": "waterford",
        "capacity": "mate",
        "date_left": "remains",
        "left_port": "blk",
        "cause_of_leaving": "remains on board",
        "sign_with_mark": "n",
        "notes": "blk"
    },
    {
        "id": "vtls004932102_1_13",
        "type": "sailor",
        "parent": "vtls004932102",
        "name": "william neget",
        "dob": "blk",
        "age": "17",
        "place_of_birth": "ipswich",
        "home_address": "blk",
        "f": "blk",
        "name_of_ship": "nanteos",
        "ship_port": "aberystwyth",
        "date_leaving": "1868-06-30",
        "joined_ship_date": "1868-07-01",
        "joined_at_port": "newport",
        "capacity": "ordinary seaman",
        "date_left": "1868-10-02",
        "left_port": "porthmadog",
        "cause_of_leaving": "paid off",
        "sign_with_mark": "n",
        "notes": "blk"
    },
    {
        "id": "vtls004932102_1_14",
        "type": "sailor",
        "parent": "vtls004932102",
        "name": "william jones",
        "dob": "blk",
        "age": "18",
        "place_of_birth": "milford",
        "home_address": "blk",
        "f": "blk",
        "name_of_ship": "nanteos",
        "ship_port": "aberystwyth",
        "date_leaving": "1868-06-30",
        "joined_ship_date": "1868-07-01",
        "joined_at_port": "newport",
        "capacity": "ordinary seaman",
        "date_left": "1868-10-02",
        "left_port": "porthmadog",
        "cause_of_leaving": "paid off",
        "sign_with_mark": "n",
        "notes": "blk"
    },
    {
        "id": "vtls004932102_1_15",
        "type": "sailor",
        "parent": "vtls004932102",
        "name": "john jones",
        "dob": "blk",
        "age": "32",
        "place_of_birth": "aberystwyth",
        "home_address": "blk",
        "f": "blk",
        "name_of_ship": "confidence",
        "ship_port": "aberystwyth",
        "date_leaving": "1868-10-17",
        "joined_ship_date": "1868-10-20",
        "joined_at_port": "portmadoc",
        "capacity": "able seaman",
        "date_left": "remains",
        "left_port": "blk",
        "cause_of_leaving": "remains on board",
        "sign_with_mark": "n",
        "notes": "blk"
    },
    {
        "id": "vtls004932102_1_11",
        "type": "sailor",
        "parent": "vtls004932102",
        "name": "john thomas",
        "dob": "blk",
        "age": "32",
        "place_of_birth": "aberystwyth",
        "home_address": "blk",
        "f": "blk",
        "name_of_ship": "nanteos",
        "ship_port": "aberystwyth",
        "date_leaving": "1868-06-30",
        "joined_ship_date": "1868-07-01",
        "joined_at_port": "newport",
        "capacity": "master",
        "date_left": "remains",
        "left_port": "blk",
        "cause_of_leaving": "remains on board",
        "sign_with_mark": "n",
        "notes": "blk"
    },
    {
        "id": "vtls004932102_1_12",
        "type": "sailor",
        "parent": "vtls004932102",
        "name": "hugh thomas",
        "dob": "blk",
        "age": "34",
        "place_of_birth": "aberystwyth",
        "home_address": "blk",
        "f": "blk",
        "name_of_ship": "nanteos",
        "ship_port": "aberystwyth",
        "date_leaving": "1868-06-30",
        "joined_ship_date": "1868-07-01",
        "joined_at_port": "newport",
        "capacity": "mate",
        "date_left": "remains",
        "left_port": "blk",
        "cause_of_leaving": "remains on board",
        "sign_with_mark": "n",
        "notes": "blk"
    },
    {
        "id": "vtls004932102_0_14",
        "type": "sailor",
        "parent": "vtls004932102",
        "name": "john james",
        "dob": "blk",
        "age": "15",
        "place_of_birth": "aberystwyth",
        "home_address": "blk",
        "f": "blk",
        "name_of_ship": "nanteos",
        "ship_port": "aberystwyth",
        "date_leaving": "remains",
        "joined_ship_date": "1868-01-06",
        "joined_at_port": "waterford",
        "capacity": "boy",
        "date_left": "remains",
        "left_port": "blk",
        "cause_of_leaving": "remains on board",
        "sign_with_mark": "n",
        "notes": "blk"
    },
    {
        "id": "vtls004932102_1_16",
        "type": "sailor",
        "parent": "vtls004932102",
        "name": "henry moris",
        "dob": "blk",
        "age": "14",
        "place_of_birth": "portmadoc",
        "home_address": "blk",
        "f": "blk",
        "name_of_ship": "gomer",
        "ship_port": "portmadoc",
        "date_leaving": "1868-10-16",
        "joined_ship_date": "1868-10-20",
        "joined_at_port": "portmadoc",
        "capacity": "boy",
        "date_left": "remains",
        "left_port": "blk",
        "cause_of_leaving": "remains on board",
        "sign_with_mark": "n",
        "notes": "blk"
    },
    {
        "id": "vtls004932105_1_13",
        "type": "sailor",
        "parent": "vtls004932105",
        "name": "evan jones",
        "dob": "blk",
        "age": "17",
        "place_of_birth": "aberystwyth",
        "home_address": "blk",
        "f": "blk",
        "name_of_ship": "nanteos",
        "ship_port": "aberystwyth",
        "date_leaving": "continues",
        "joined_ship_date": "1869-07-01",
        "joined_at_port": "charlestown",
        "capacity": "able seaman",
        "date_left": "1869-12-21",
        "left_port": "porthmadog",
        "cause_of_leaving": "paid off",
        "sign_with_mark": "n",
        "notes": "blk"
    },
    {
        "id": "vtls004932105_0_14",
        "type": "sailor",
        "parent": "vtls004932105",
        "name": "charles morris",
        "dob": "blk",
        "age": "18",
        "place_of_birth": "aberystwyth",
        "home_address": "blk",
        "f": "blk",
        "name_of_ship": "eaglet",
        "ship_port": "aberystwyth",
        "date_leaving": "1869-01-29",
        "joined_ship_date": "1869-01-29",
        "joined_at_port": "liverpool",
        "capacity": "able seaman",
        "date_left": "remains",
        "left_port": "blk",
        "cause_of_leaving": "remains on board",
        "sign_with_mark": "n",
        "notes": "blk"
    },
    {
        "id": "vtls004932105_0_11",
        "type": "sailor",
        "parent": "vtls004932105",
        "name": "john thomas",
        "dob": "blk",
        "age": "32",
        "place_of_birth": "aberystwyth",
        "home_address": "blk",
        "f": "blk",
        "name_of_ship": "nanteos",
        "ship_port": "aberystwyth",
        "date_leaving": "continues",
        "joined_ship_date": "blk",
        "joined_at_port": "blk",
        "capacity": "master",
        "date_left": "remains",
        "left_port": "blk",
        "cause_of_leaving": "remains on board",
        "sign_with_mark": "n",
        "notes": "account for jan - june 1869"
    },
    {
        "id": "vtls004932105_1_14",
        "type": "sailor",
        "parent": "vtls004932105",
        "name": "charles thomas",
        "dob": "blk",
        "age": "15",
        "place_of_birth": "aberystwyth",
        "home_address": "blk",
        "f": "blk",
        "name_of_ship": "nanteos",
        "ship_port": "aberystwyth",
        "date_leaving": "continues",
        "joined_ship_date": "1869-07-01",
        "joined_at_port": "charlestown",
        "capacity": "boy",
        "date_left": "1869-12-21",
        "left_port": "porthmadog",
        "cause_of_leaving": "paid off",
        "sign_with_mark": "n",
        "notes": "blk"
    },
    {
        "id": "vtls004932105_1_11",
        "type": "sailor",
        "parent": "vtls004932105",
        "name": "john thomas",
        "dob": "blk",
        "age": "32",
        "place_of_birth": "aberystwyth",
        "home_address": "blk",
        "f": "blk",
        "name_of_ship": "nanteos",
        "ship_port": "aberystwyth",
        "date_leaving": "continues",
        "joined_ship_date": "1869-07-01",
        "joined_at_port": "charlestown",
        "capacity": "master",
        "date_left": "remains",
        "left_port": "blk",
        "cause_of_leaving": "remains on board",
        "sign_with_mark": "n",
        "notes": "blk"
    },
    {
        "id": "vtls004932105_1_12",
        "type": "sailor",
        "parent": "vtls004932105",
        "name": "hugh thomas",
        "dob": "blk",
        "age": "34",
        "place_of_birth": "aberystwyth",
        "home_address": "blk",
        "f": "blk",
        "name_of_ship": "nanteos",
        "ship_port": "aberystwyth",
        "date_leaving": "continues",
        "joined_ship_date": "1869-07-01",
        "joined_at_port": "charlestown",
        "capacity": "mate",
        "date_left": "1869-12-21",
        "left_port": "porthmadog",
        "cause_of_leaving": "paid off",
        "sign_with_mark": "n",
        "notes": "blk"
    },
    {
        "id": "vtls004932105_0_13",
        "type": "sailor",
        "parent": "vtls004932105",
        "name": "john jones",
        "dob": "blk",
        "age": "31",
        "place_of_birth": "aberystwyth",
        "home_address": "blk",
        "f": "blk",
        "name_of_ship": "nanteos",
        "ship_port": "aberystwyth",
        "date_leaving": "continues",
        "joined_ship_date": "blk",
        "joined_at_port": "blk",
        "capacity": "able seaman",
        "date_left": "1869-01-29",
        "left_port": "liverpool",
        "cause_of_leaving": "left",
        "sign_with_mark": "n",
        "notes": "blk"
    },
    {
        "id": "vtls004932105_0_15",
        "type": "sailor",
        "parent": "vtls004932105",
        "name": "charles thomas",
        "dob": "blk",
        "age": "13",
        "place_of_birth": "aberystwyth",
        "home_address": "blk",
        "f": "blk",
        "name_of_ship": "nanteos",
        "ship_port": "aberystwyth",
        "date_leaving": "continues",
        "joined_ship_date": "blk",
        "joined_at_port": "blk",
        "capacity": "boy",
        "date_left": "remains",
        "left_port": "blk",
        "cause_of_leaving": "remains on board",
        "sign_with_mark": "n",
        "notes": "blk"
    },
    {
        "id": "vtls004932105_0_12",
        "type": "sailor",
        "parent": "vtls004932105",
        "name": "hugh thomas",
        "dob": "blk",
        "age": "34",
        "place_of_birth": "aberystwyth",
        "home_address": "blk",
        "f": "blk",
        "name_of_ship": "nanteos",
        "ship_port": "aberystwyth",
        "date_leaving": "continues",
        "joined_ship_date": "blk",
        "joined_at_port": "blk",
        "capacity": "mate",
        "date_left": "remains",
        "left_port": "blk",
        "cause_of_leaving": "remains on board",
        "sign_with_mark": "n",
        "notes": "blk"
    },
    {
        "id": "vtls004932108_0_14",
        "type": "sailor",
        "parent": "vtls004932108",
        "name": "charles thomas",
        "dob": "blk",
        "age": "16",
        "place_of_birth": "aberystwyth",
        "home_address": "blk",
        "f": "blk",
        "name_of_ship": "nanteos",
        "ship_port": "aberystwyth",
        "date_leaving": "1869-12-31",
        "joined_ship_date": "1870-01-27",
        "joined_at_port": "porthmadoc",
        "capacity": "ordinary seaman",
        "date_left": "1870-03-24",
        "left_port": "liverpool",
        "cause_of_leaving": "discharged",
        "sign_with_mark": "n",
        "notes": "blk"
    },
    {
        "id": "vtls004932108_0_15",
        "type": "sailor",
        "parent": "vtls004932108",
        "name": "john jones",
        "dob": "blk",
        "age": "17",
        "place_of_birth": "aberystwyth",
        "home_address": "blk",
        "f": "blk",
        "name_of_ship": "battus",
        "ship_port": "aberystwyth",
        "date_leaving": "1870-05-06",
        "joined_ship_date": "1870-05-07",
        "joined_at_port": "cardiff",
        "capacity": "ordinary seaman",
        "date_left": "1870-06-30",
        "left_port": "poole",
        "cause_of_leaving": "remains on board",
        "sign_with_mark": "n",
        "notes": "blk"
    },
    {
        "id": "vtls004932108_0_13",
        "type": "sailor",
        "parent": "vtls004932108",
        "name": "john thomas",
        "dob": "blk",
        "age": "19",
        "place_of_birth": "aberystwyth",
        "home_address": "blk",
        "f": "blk",
        "name_of_ship": "nanteos",
        "ship_port": "aberystwyth",
        "date_leaving": "1869-12-31",
        "joined_ship_date": "1870-01-27",
        "joined_at_port": "porthmadoc",
        "capacity": "able seaman",
        "date_left": "1870-05-05",
        "left_port": "cardiff",
        "cause_of_leaving": "discharged",
        "sign_with_mark": "n",
        "notes": "blk"
    },
    {
        "id": "vtls004932108_0_11",
        "type": "sailor",
        "parent": "vtls004932108",
        "name": "john thomas",
        "dob": "blk",
        "age": "33",
        "place_of_birth": "aberystwyth",
        "home_address": "blk",
        "f": "blk",
        "name_of_ship": "nanteos",
        "ship_port": "aberystwyth",
        "date_leaving": "1869-12-31",
        "joined_ship_date": "1870-01-01",
        "joined_at_port": "porthmadoc",
        "capacity": "master",
        "date_left": "1870-06-30",
        "left_port": "poole",
        "cause_of_leaving": "remains on board",
        "sign_with_mark": "n",
        "notes": "blk"
    },
    {
        "id": "vtls004932108_0_12",
        "type": "sailor",
        "parent": "vtls004932108",
        "name": "evan james",
        "dob": "blk",
        "age": "42",
        "place_of_birth": "aberystwyth",
        "home_address": "blk",
        "f": "blk",
        "name_of_ship": "nanteos",
        "ship_port": "aberystwyth",
        "date_leaving": "1869-12-31",
        "joined_ship_date": "1870-01-27",
        "joined_at_port": "porthmadoc",
        "capacity": "mate",
        "date_left": "1870-06-30",
        "left_port": "poole",
        "cause_of_leaving": "remains on board",
        "sign_with_mark": "n",
        "notes": "blk"
    },
    {
        "id": "vtls004932108_1_11",
        "type": "sailor",
        "parent": "vtls004932108",
        "name": "john thomas",
        "dob": "blk",
        "age": "34",
        "place_of_birth": "aberystwyth",
        "home_address": "blk",
        "f": "blk",
        "name_of_ship": "nanteos",
        "ship_port": "aberystwyth",
        "date_leaving": "remains",
        "joined_ship_date": "blk",
        "joined_at_port": "blk",
        "capacity": "master",
        "date_left": "remains",
        "left_port": "blk",
        "cause_of_leaving": "remains on board",
        "sign_with_mark": "n",
        "notes": "account for july - dec 1870"
    },
    {
        "id": "vtls004932108_0_16",
        "type": "sailor",
        "parent": "vtls004932108",
        "name": "owen parry",
        "dob": "blk",
        "age": "16",
        "place_of_birth": "holyhead",
        "home_address": "blk",
        "f": "blk",
        "name_of_ship": "first ship",
        "ship_port": "blk",
        "date_leaving": "blk",
        "joined_ship_date": "1870-03-26",
        "joined_at_port": "liverpool",
        "capacity": "boy",
        "date_left": "1870-06-30",
        "left_port": "poole",
        "cause_of_leaving": "remains on board",
        "sign_with_mark": "n",
        "notes": "blk"
    },
    {
        "id": "vtls004932108_1_12",
        "type": "sailor",
        "parent": "vtls004932108",
        "name": "evan james",
        "dob": "blk",
        "age": "42",
        "place_of_birth": "aberystwyth",
        "home_address": "blk",
        "f": "blk",
        "name_of_ship": "nanteos",
        "ship_port": "aberystwyth",
        "date_leaving": "remains",
        "joined_ship_date": "blk",
        "joined_at_port": "blk",
        "capacity": "mate",
        "date_left": "remains",
        "left_port": "blk",
        "cause_of_leaving": "remains on board",
        "sign_with_mark": "n",
        "notes": "blk"
    },
    {
        "id": "vtls004932118_0_14",
        "type": "sailor",
        "parent": "vtls004932118",
        "name": "thomas jones",
        "dob": "blk",
        "age": "17",
        "place_of_birth": "caernarfon",
        "home_address": "blk",
        "f": "blk",
        "name_of_ship": "nanteos",
        "ship_port": "aberystwyth",
        "date_leaving": "continues",
        "joined_ship_date": "1871-03-17",
        "joined_at_port": "porthmadoc",
        "capacity": "ordinary seaman",
        "date_left": "blk",
        "left_port": "blk",
        "cause_of_leaving": "remains on board",
        "sign_with_mark": "n",
        "notes": "blk"
    },
    {
        "id": "vtls004932118_0_13",
        "type": "sailor",
        "parent": "vtls004932118",
        "name": "william klasfraff",
        "dob": "blk",
        "age": "19",
        "place_of_birth": "russia",
        "home_address": "blk",
        "f": "blk",
        "name_of_ship": "nanteos",
        "ship_port": "aberystwyth",
        "date_leaving": "continues",
        "joined_ship_date": "1871-03-17",
        "joined_at_port": "porthmadoc",
        "capacity": "able seaman",
        "date_left": "blk",
        "left_port": "blk",
        "cause_of_leaving": "remains on board",
        "sign_with_mark": "n",
        "notes": "blk"
    },
    {
        "id": "vtls004932118_1_13",
        "type": "sailor",
        "parent": "vtls004932118",
        "name": "william klasfraff",
        "dob": "blk",
        "age": "19",
        "place_of_birth": "russia",
        "home_address": "blk",
        "f": "blk",
        "name_of_ship": "nanteos",
        "ship_port": "aberystwyth",
        "date_leaving": "1871-08-29",
        "joined_ship_date": "1871-08-29",
        "joined_at_port": "liverpool",
        "capacity": "able seaman",
        "date_left": "blk",
        "left_port": "blk",
        "cause_of_leaving": "remains on board",
        "sign_with_mark": "n",
        "notes": "blk"
    },
    {
        "id": "vtls004932118_0_12",
        "type": "sailor",
        "parent": "vtls004932118",
        "name": "richard rowlands",
        "dob": "blk",
        "age": "37",
        "place_of_birth": "aberystwyth",
        "home_address": "blk",
        "f": "blk",
        "name_of_ship": "nanteos",
        "ship_port": "aberystwyth",
        "date_leaving": "continues",
        "joined_ship_date": "1871-03-17",
        "joined_at_port": "porthmadoc",
        "capacity": "mate",
        "date_left": "blk",
        "left_port": "blk",
        "cause_of_leaving": "remains on board",
        "sign_with_mark": "n",
        "notes": "blk"
    },
    {
        "id": "vtls004932118_1_12",
        "type": "sailor",
        "parent": "vtls004932118",
        "name": "richard rowland",
        "dob": "blk",
        "age": "37",
        "place_of_birth": "aberystwyth",
        "home_address": "blk",
        "f": "blk",
        "name_of_ship": "nanteos",
        "ship_port": "aberystwyth",
        "date_leaving": "1871-08-29",
        "joined_ship_date": "1871-08-29",
        "joined_at_port": "liverpool",
        "capacity": "mate",
        "date_left": "blk",
        "left_port": "blk",
        "cause_of_leaving": "remains on board",
        "sign_with_mark": "n",
        "notes": "blk"
    },
    {
        "id": "vtls004932118_0_11",
        "type": "sailor",
        "parent": "vtls004932118",
        "name": "john thomas",
        "dob": "blk",
        "age": "46",
        "place_of_birth": "aberystwyth",
        "home_address": "blk",
        "f": "blk",
        "name_of_ship": "nanteos",
        "ship_port": "aberystwyth",
        "date_leaving": "blk",
        "joined_ship_date": "blk",
        "joined_at_port": "blk",
        "capacity": "master",
        "date_left": "blk",
        "left_port": "blk",
        "cause_of_leaving": "remains on board",
        "sign_with_mark": "n",
        "notes": "account for jan - june 1871"
    },
    {
        "id": "vtls004932118_1_11",
        "type": "sailor",
        "parent": "vtls004932118",
        "name": "john thomas",
        "dob": "blk",
        "age": "34",
        "place_of_birth": "aberystwyth",
        "home_address": "blk",
        "f": "blk",
        "name_of_ship": "nanteos",
        "ship_port": "aberystwyth",
        "date_leaving": "blk",
        "joined_ship_date": "blk",
        "joined_at_port": "blk",
        "capacity": "master",
        "date_left": "blk",
        "left_port": "blk",
        "cause_of_leaving": "remains on board",
        "sign_with_mark": "n",
        "notes": "account for july - dec 1871"
    },
    {
        "id": "vtls004932108_1_13",
        "type": "sailor",
        "parent": "vtls004932108",
        "name": "john jones",
        "dob": "blk",
        "age": "18",
        "place_of_birth": "aberystwyth",
        "home_address": "blk",
        "f": "blk",
        "name_of_ship": "nanteos",
        "ship_port": "aberystwyth",
        "date_leaving": "remains",
        "joined_ship_date": "blk",
        "joined_at_port": "blk",
        "capacity": "ordinary seaman",
        "date_left": "remains",
        "left_port": "blk",
        "cause_of_leaving": "remains on board",
        "sign_with_mark": "n",
        "notes": "blk"
    },
    {
        "id": "vtls004932108_1_14",
        "type": "sailor",
        "parent": "vtls004932108",
        "name": "owen parry",
        "dob": "blk",
        "age": "17",
        "place_of_birth": "holyhead",
        "home_address": "blk",
        "f": "blk",
        "name_of_ship": "nanteos",
        "ship_port": "aberystwyth",
        "date_leaving": "remains",
        "joined_ship_date": "blk",
        "joined_at_port": "blk",
        "capacity": "boy",
        "date_left": "remains",
        "left_port": "blk",
        "cause_of_leaving": "remains on board",
        "sign_with_mark": "n",
        "notes": "blk"
    },
    {
        "id": "vtls004932142_1_11",
        "type": "sailor",
        "parent": "vtls004932142",
        "name": "john thomas",
        "dob": "blk",
        "age": "34",
        "place_of_birth": "aberystwyth",
        "home_address": "blk",
        "f": "blk",
        "name_of_ship": "nanteos",
        "ship_port": "aberystwyth",
        "date_leaving": "blk",
        "joined_ship_date": "blk",
        "joined_at_port": "blk",
        "capacity": "master",
        "date_left": "blk",
        "left_port": "blk",
        "cause_of_leaving": "remains in ship",
        "sign_with_mark": "n",
        "notes": "remains on board while ship is layed up for repairs in aberystwyth harbour since 1872-05-28 to 1872-07-01"
    },
    {
        "id": "vtls004932118_1_15",
        "type": "sailor",
        "parent": "vtls004932118",
        "name": "loormtagam john",
        "dob": "blk",
        "age": "23",
        "place_of_birth": "malta",
        "home_address": "blk",
        "f": "blk",
        "name_of_ship": "[slotterful]",
        "ship_port": "blk",
        "date_leaving": "1871-09-26",
        "joined_ship_date": "1871-10-02",
        "joined_at_port": "dunkirk",
        "capacity": "ordinary seaman",
        "date_left": "blk",
        "left_port": "blk",
        "cause_of_leaving": "remains on board",
        "sign_with_mark": "n",
        "notes": "blk"
    },
    {
        "id": "vtls004932142_0_14",
        "type": "sailor",
        "parent": "vtls004932142",
        "name": "william roberts",
        "dob": "blk",
        "age": "16",
        "place_of_birth": "portmadoc",
        "home_address": "blk",
        "f": "blk",
        "name_of_ship": "first ship",
        "ship_port": "aberystwyth",
        "date_leaving": "blk",
        "joined_ship_date": "1872-01-22",
        "joined_at_port": "portmadoc",
        "capacity": "boy",
        "date_left": "remains",
        "left_port": "blk",
        "cause_of_leaving": "remains on board",
        "sign_with_mark": "n",
        "notes": "blk"
    },
    {
        "id": "vtls004932142_0_13",
        "type": "sailor",
        "parent": "vtls004932142",
        "name": "john crutiana",
        "dob": "blk",
        "age": "24",
        "place_of_birth": "kiel, germany",
        "home_address": "blk",
        "f": "blk",
        "name_of_ship": "nanteos",
        "ship_port": "aberystwyth",
        "date_leaving": "blk",
        "joined_ship_date": "blk",
        "joined_at_port": "blk",
        "capacity": "able seaman",
        "date_left": "1872-06-01",
        "left_port": "aberystwyth",
        "cause_of_leaving": "discharged",
        "sign_with_mark": "n",
        "notes": "blk"
    },
    {
        "id": "vtls004932118_1_14",
        "type": "sailor",
        "parent": "vtls004932118",
        "name": "thomas jones",
        "dob": "blk",
        "age": "16",
        "place_of_birth": "aberystwyth",
        "home_address": "blk",
        "f": "blk",
        "name_of_ship": "nanteos",
        "ship_port": "aberystwyth",
        "date_leaving": "1871-08-29",
        "joined_ship_date": "1871-08-29",
        "joined_at_port": "liverpool",
        "capacity": "boy",
        "date_left": "blk",
        "left_port": "blk",
        "cause_of_leaving": "remains on board",
        "sign_with_mark": "n",
        "notes": "blk"
    },
    {
        "id": "vtls004932142_0_12",
        "type": "sailor",
        "parent": "vtls004932142",
        "name": "richard rowlands",
        "dob": "blk",
        "age": "37",
        "place_of_birth": "aberystwyth",
        "home_address": "blk",
        "f": "blk",
        "name_of_ship": "nanteos",
        "ship_port": "aberystwyth",
        "date_leaving": "continues",
        "joined_ship_date": "blk",
        "joined_at_port": "blk",
        "capacity": "mate",
        "date_left": "1872-06-01",
        "left_port": "aberystwyth",
        "cause_of_leaving": "discharged",
        "sign_with_mark": "n",
        "notes": "blk"
    },
    {
        "id": "vtls004932142_0_11",
        "type": "sailor",
        "parent": "vtls004932142",
        "name": "john thomas",
        "dob": "blk",
        "age": "35",
        "place_of_birth": "aberystwyth",
        "home_address": "blk",
        "f": "blk",
        "name_of_ship": "nanteos",
        "ship_port": "aberystwyth",
        "date_leaving": "continues",
        "joined_ship_date": "blk",
        "joined_at_port": "blk",
        "capacity": "master",
        "date_left": "remains",
        "left_port": "blk",
        "cause_of_leaving": "remains on board",
        "sign_with_mark": "n",
        "notes": "blk"
    },
    {
        "id": "vtls004932181_0_11",
        "type": "sailor",
        "parent": "vtls004932181",
        "name": "john thomas",
        "dob": "blk",
        "age": "37",
        "place_of_birth": "aberystwyth",
        "home_address": "blk",
        "f": "blk",
        "name_of_ship": "nanteos",
        "ship_port": "aerystwyth",
        "date_leaving": "remains",
        "joined_ship_date": "from last half year",
        "joined_at_port": "blk",
        "capacity": "master",
        "date_left": "blk",
        "left_port": "blk",
        "cause_of_leaving": "remains on board",
        "sign_with_mark": "n",
        "notes": "account for jan - june 1873"
    },
    {
        "id": "vtls004932181_0_13",
        "type": "sailor",
        "parent": "vtls004932181",
        "name": "william evans",
        "dob": "blk",
        "age": "18",
        "place_of_birth": "aberystwyth",
        "home_address": "blk",
        "f": "blk",
        "name_of_ship": "nanteos",
        "ship_port": "aerystwyth",
        "date_leaving": "remains",
        "joined_ship_date": "from last half year",
        "joined_at_port": "blk",
        "capacity": "able seaman",
        "date_left": "blk",
        "left_port": "blk",
        "cause_of_leaving": "remains on board",
        "sign_with_mark": "n",
        "notes": "blk"
    },
    {
        "id": "vtls004932181_0_12",
        "type": "sailor",
        "parent": "vtls004932181",
        "name": "william mathews",
        "dob": "blk",
        "age": "32",
        "place_of_birth": "aberystwyth",
        "home_address": "blk",
        "f": "blk",
        "name_of_ship": "nanteos",
        "ship_port": "aerystwyth",
        "date_leaving": "remains",
        "joined_ship_date": "from last half year",
        "joined_at_port": "blk",
        "capacity": "mate",
        "date_left": "blk",
        "left_port": "blk",
        "cause_of_leaving": "remains on board",
        "sign_with_mark": "n",
        "notes": "blk"
    },
    {
        "id": "vtls004932181_1_13",
        "type": "sailor",
        "parent": "vtls004932181",
        "name": "thomas lane",
        "dob": "blk",
        "age": "19",
        "place_of_birth": "aberystwyth",
        "home_address": "blk",
        "f": "blk",
        "name_of_ship": "nanteos",
        "ship_port": "aberystwyth",
        "date_leaving": "remains",
        "joined_ship_date": "1873-06-30",
        "joined_at_port": "blk",
        "capacity": "able seaman",
        "date_left": "1873-12-22",
        "left_port": "bangor",
        "cause_of_leaving": "discharged",
        "sign_with_mark": "n",
        "notes": "blk"
    },
    {
        "id": "vtls004932181_1_12",
        "type": "sailor",
        "parent": "vtls004932181",
        "name": "william mathews",
        "dob": "blk",
        "age": "34",
        "place_of_birth": "aberystwyth",
        "home_address": "blk",
        "f": "blk",
        "name_of_ship": "nanteos",
        "ship_port": "aberystwyth",
        "date_leaving": "remains",
        "joined_ship_date": "1873-06-30",
        "joined_at_port": "blk",
        "capacity": "mate",
        "date_left": "1873-12-22",
        "left_port": "bangor",
        "cause_of_leaving": "discharged",
        "sign_with_mark": "n",
        "notes": "blk"
    },
    {
        "id": "vtls004932181_0_14",
        "type": "sailor",
        "parent": "vtls004932181",
        "name": "evan davies",
        "dob": "blk",
        "age": "14",
        "place_of_birth": "aberystwyth",
        "home_address": "blk",
        "f": "blk",
        "name_of_ship": "nanteos",
        "ship_port": "aerystwyth",
        "date_leaving": "remains",
        "joined_ship_date": "from last half year",
        "joined_at_port": "blk",
        "capacity": "boy",
        "date_left": "blk",
        "left_port": "blk",
        "cause_of_leaving": "remains on board",
        "sign_with_mark": "n",
        "notes": "blk"
    },
    {
        "id": "vtls004932181_1_14",
        "type": "sailor",
        "parent": "vtls004932181",
        "name": "william bowen",
        "dob": "blk",
        "age": "16",
        "place_of_birth": "aberystwyth",
        "home_address": "blk",
        "f": "blk",
        "name_of_ship": "nanteos",
        "ship_port": "aberystwyth",
        "date_leaving": "remains",
        "joined_ship_date": "1873-06-30",
        "joined_at_port": "blk",
        "capacity": "boy",
        "date_left": "1973-12-22",
        "left_port": "bangor",
        "cause_of_leaving": "discharged",
        "sign_with_mark": "n",
        "notes": "blk"
    },
    {
        "id": "vtls004932181_1_11",
        "type": "sailor",
        "parent": "vtls004932181",
        "name": "john thomas",
        "dob": "blk",
        "age": "36",
        "place_of_birth": "aberystwyth",
        "home_address": "blk",
        "f": "blk",
        "name_of_ship": "nanteos",
        "ship_port": "aberystwyth",
        "date_leaving": "remains",
        "joined_ship_date": "1873-06-30",
        "joined_at_port": "blk",
        "capacity": "master",
        "date_left": "blk",
        "left_port": "blk",
        "cause_of_leaving": "remains on board",
        "sign_with_mark": "n",
        "notes": "blk"
    }
]