[
    {
        "id": "vtls004931996_0_15",
        "type": "sailor",
        "parent": "vtls004931996",
        "name": "thomas thomas",
        "dob": "blk",
        "age": "18",
        "place_of_birth": "newquay",
        "home_address": "blk",
        "f": "blk",
        "name_of_ship": "mountain lass",
        "ship_port": "aberystwyth",
        "date_leaving": "remained",
        "joined_ship_date": "1863-10-30",
        "joined_at_port": "cardiff",
        "capacity": "ordinary seaman",
        "date_left": "1864-02-24",
        "left_port": "liverpool",
        "cause_of_leaving": "discharged",
        "sign_with_mark": "n",
        "notes": "blk"
    },
    {
        "id": "vtls004931996_0_16",
        "type": "sailor",
        "parent": "vtls004931996",
        "name": "james sylvann",
        "dob": "blk",
        "age": "25",
        "place_of_birth": "london",
        "home_address": "blk",
        "f": "blk",
        "name_of_ship": "eagle",
        "ship_port": "new quay [aberystwyth]",
        "date_leaving": "1863-11-02",
        "joined_ship_date": "1863-11-07",
        "joined_at_port": "cardiff",
        "capacity": "able seaman",
        "date_left": "1864-02-23",
        "left_port": "liverpool",
        "cause_of_leaving": "discharged",
        "sign_with_mark": "n",
        "notes": "blk"
    },
    {
        "id": "vtls004931996_0_13",
        "type": "sailor",
        "parent": "vtls004931996",
        "name": "james howells",
        "dob": "blk",
        "age": "26",
        "place_of_birth": "newport, pembs",
        "home_address": "blk",
        "f": "blk",
        "name_of_ship": "coral",
        "ship_port": "[pem$asen]",
        "date_leaving": "1863-10-25",
        "joined_ship_date": "1863-10-30",
        "joined_at_port": "cardiff",
        "capacity": "able seaman",
        "date_left": "1864-02-24",
        "left_port": "liverpool",
        "cause_of_leaving": "discharged",
        "sign_with_mark": "n",
        "notes": "blk"
    },
    {
        "id": "vtls004931996_0_14",
        "type": "sailor",
        "parent": "vtls004931996",
        "name": "david d davies",
        "dob": "blk",
        "age": "22",
        "place_of_birth": "newquay",
        "home_address": "blk",
        "f": "blk",
        "name_of_ship": "betsy",
        "ship_port": "cardiff",
        "date_leaving": "1863-10-20",
        "joined_ship_date": "1863-10-30",
        "joined_at_port": "cardiff",
        "capacity": "ordinary seaman",
        "date_left": "1864-02-23",
        "left_port": "liverpool",
        "cause_of_leaving": "discharged",
        "sign_with_mark": "n",
        "notes": "blk"
    },
    {
        "id": "vtls004931996_1_13",
        "type": "sailor",
        "parent": "vtls004931996",
        "name": "hezekiah jones",
        "dob": "blk",
        "age": "19",
        "place_of_birth": "cardigan",
        "home_address": "blk",
        "f": "blk",
        "name_of_ship": "$aid$",
        "ship_port": "cardiff",
        "date_leaving": "1864-03-29",
        "joined_ship_date": "1864-03-30",
        "joined_at_port": "cardiff",
        "capacity": "able seaman",
        "date_left": "1864-06-11",
        "left_port": "dublin",
        "cause_of_leaving": "remains on board",
        "sign_with_mark": "n",
        "notes": "blk"
    },
    {
        "id": "vtls004931996_1_14",
        "type": "sailor",
        "parent": "vtls004931996",
        "name": "evan davies",
        "dob": "blk",
        "age": "18",
        "place_of_birth": "cardigan",
        "home_address": "blk",
        "f": "blk",
        "name_of_ship": "stevens",
        "ship_port": "cardigan",
        "date_leaving": "1864-02-01",
        "joined_ship_date": "1864-03-30",
        "joined_at_port": "cardiff",
        "capacity": "ordinary seaman",
        "date_left": "1864-06-11",
        "left_port": "dublin",
        "cause_of_leaving": "discharged",
        "sign_with_mark": "n",
        "notes": "blk"
    },
    {
        "id": "vtls004931996_1_12",
        "type": "sailor",
        "parent": "vtls004931996",
        "name": "thos jones",
        "dob": "blk",
        "age": "29",
        "place_of_birth": "newquay",
        "home_address": "blk",
        "f": "blk",
        "name_of_ship": "mountain lass",
        "ship_port": "aberystwyth",
        "date_leaving": "blk",
        "joined_ship_date": "1864-03-30",
        "joined_at_port": "cardiff",
        "capacity": "mate",
        "date_left": "1864-06-11",
        "left_port": "dublin",
        "cause_of_leaving": "remains on board",
        "sign_with_mark": "n",
        "notes": "blk"
    },
    {
        "id": "vtls004931996_1_11",
        "type": "sailor",
        "parent": "vtls004931996",
        "name": "john jones",
        "dob": "blk",
        "age": "28",
        "place_of_birth": "aberaeron",
        "home_address": "blk",
        "f": "blk",
        "name_of_ship": "mountain lass",
        "ship_port": "aberystwyth",
        "date_leaving": "remains",
        "joined_ship_date": "blk",
        "joined_at_port": "blk",
        "capacity": "master",
        "date_left": "1864-06-11",
        "left_port": "dublin",
        "cause_of_leaving": "remains on board",
        "sign_with_mark": "n",
        "notes": "blk"
    },
    {
        "id": "vtls004931996_0_11",
        "type": "sailor",
        "parent": "vtls004931996",
        "name": "john jones",
        "dob": "blk",
        "age": "27",
        "place_of_birth": "aberaeron",
        "home_address": "blk",
        "f": "blk",
        "name_of_ship": "mountain lass",
        "ship_port": "aberystwyth",
        "date_leaving": "blk",
        "joined_ship_date": "blk",
        "joined_at_port": "blk",
        "capacity": "master",
        "date_left": "1864-02-23",
        "left_port": "liverpool",
        "cause_of_leaving": "remains on board",
        "sign_with_mark": "n",
        "notes": "blk"
    },
    {
        "id": "vtls004931996_0_12",
        "type": "sailor",
        "parent": "vtls004931996",
        "name": "evan jones",
        "dob": "blk",
        "age": "48",
        "place_of_birth": "newquay",
        "home_address": "blk",
        "f": "blk",
        "name_of_ship": "condor",
        "ship_port": "a$$$$fren",
        "date_leaving": "1863-10-25",
        "joined_ship_date": "1863-10-30",
        "joined_at_port": "cardiff",
        "capacity": "mate",
        "date_left": "1864-02-24",
        "left_port": "liverpool",
        "cause_of_leaving": "discharged",
        "sign_with_mark": "n",
        "notes": "blk"
    },
    {
        "id": "vtls004931996_2_15",
        "type": "sailor",
        "parent": "vtls004931996",
        "name": "john evans",
        "dob": "blk",
        "age": "19",
        "place_of_birth": "cardigan",
        "home_address": "blk",
        "f": "blk",
        "name_of_ship": "great of the ware",
        "ship_port": "blk",
        "date_leaving": "1864-01-27",
        "joined_ship_date": "1864-07-22",
        "joined_at_port": "cardiff",
        "capacity": "ordinary seaman",
        "date_left": "1864-11-03",
        "left_port": "liverpool",
        "cause_of_leaving": "discharged",
        "sign_with_mark": "n",
        "notes": "blk"
    },
    {
        "id": "vtls004931996_1_16",
        "type": "sailor",
        "parent": "vtls004931996",
        "name": "thomas thomas",
        "dob": "blk",
        "age": "18",
        "place_of_birth": "newquay",
        "home_address": "blk",
        "f": "blk",
        "name_of_ship": "mountain lass",
        "ship_port": "aberystwyth",
        "date_leaving": "blk",
        "joined_ship_date": "1864-03-30",
        "joined_at_port": "cardiff",
        "capacity": "ordinary seaman",
        "date_left": "1864-06-11",
        "left_port": "dublin",
        "cause_of_leaving": "discharged",
        "sign_with_mark": "n",
        "notes": "blk"
    },
    {
        "id": "vtls004931996_2_14",
        "type": "sailor",
        "parent": "vtls004931996",
        "name": "john phillips",
        "dob": "blk",
        "age": "19",
        "place_of_birth": "cardigan",
        "home_address": "blk",
        "f": "blk",
        "name_of_ship": "lettice",
        "ship_port": "aberystwyth",
        "date_leaving": "1864-01-27",
        "joined_ship_date": "1864-07-22",
        "joined_at_port": "cardiff",
        "capacity": "able seaman",
        "date_left": "1864-11-03",
        "left_port": "liverpool",
        "cause_of_leaving": "discharged",
        "sign_with_mark": "n",
        "notes": "blk"
    },
    {
        "id": "vtls004931996_1_15",
        "type": "sailor",
        "parent": "vtls004931996",
        "name": "george martin",
        "dob": "blk",
        "age": "22",
        "place_of_birth": "bristol",
        "home_address": "blk",
        "f": "blk",
        "name_of_ship": "runnymede",
        "ship_port": "bristol",
        "date_leaving": "1864-02-17",
        "joined_ship_date": "1864-03-30",
        "joined_at_port": "cardiff",
        "capacity": "able seaman",
        "date_left": "1864-06-11",
        "left_port": "dublin",
        "cause_of_leaving": "discharged",
        "sign_with_mark": "y",
        "notes": "blk"
    },
    {
        "id": "vtls004931996_2_11",
        "type": "sailor",
        "parent": "vtls004931996",
        "name": "thomas jones",
        "dob": "blk",
        "age": "29",
        "place_of_birth": "newquay",
        "home_address": "blk",
        "f": "blk",
        "name_of_ship": "mountain lass",
        "ship_port": "aberystwyth",
        "date_leaving": "remains",
        "joined_ship_date": "blk",
        "joined_at_port": "blk",
        "capacity": "master",
        "date_left": "1864-11-03",
        "left_port": "liverpool",
        "cause_of_leaving": "remains on board",
        "sign_with_mark": "n",
        "notes": "blk"
    },
    {
        "id": "vtls004931996_2_12",
        "type": "sailor",
        "parent": "vtls004931996",
        "name": "thomas llewelyn",
        "dob": "blk",
        "age": "46",
        "place_of_birth": "fishguard",
        "home_address": "blk",
        "f": "blk",
        "name_of_ship": "falcon",
        "ship_port": "london",
        "date_leaving": "1864-02-23",
        "joined_ship_date": "1864-07-22",
        "joined_at_port": "cardiff",
        "capacity": "mate",
        "date_left": "1864-11-03",
        "left_port": "liverpool",
        "cause_of_leaving": "discharged",
        "sign_with_mark": "n",
        "notes": "blk"
    },
    {
        "id": "vtls004931996_2_13",
        "type": "sailor",
        "parent": "vtls004931996",
        "name": "thomas witcher",
        "dob": "blk",
        "age": "52",
        "place_of_birth": "dorset",
        "home_address": "blk",
        "f": "blk",
        "name_of_ship": "royal",
        "ship_port": "fa$",
        "date_leaving": "1864-07-19",
        "joined_ship_date": "1864-07-22",
        "joined_at_port": "cardiff",
        "capacity": "able seaman",
        "date_left": "1864-11-03",
        "left_port": "liverpool",
        "cause_of_leaving": "discharged",
        "sign_with_mark": "n",
        "notes": "blk"
    },
    {
        "id": "vtls004931996_1_17",
        "type": "sailor",
        "parent": "vtls004931996",
        "name": "thomas jones",
        "dob": "blk",
        "age": "14",
        "place_of_birth": "blk",
        "home_address": "blk",
        "f": "blk",
        "name_of_ship": "blk",
        "ship_port": "blk",
        "date_leaving": "blk",
        "joined_ship_date": "blk",
        "joined_at_port": "blk",
        "capacity": "apprentice",
        "date_left": "blk",
        "left_port": "blk",
        "cause_of_leaving": "blk",
        "sign_with_mark": "blk",
        "notes": "registry of indenture - march 18th, 1864 in aberystwyth."
    },
    {
        "id": "vtls004932006_0_11",
        "type": "sailor",
        "parent": "vtls004932006",
        "name": "john thomas",
        "dob": "blk",
        "age": "50",
        "place_of_birth": "cardigan",
        "home_address": "blk",
        "f": "blk",
        "name_of_ship": "mountain lass",
        "ship_port": "aberystwyth",
        "date_leaving": "1867-06-23",
        "joined_ship_date": "1867-07-17",
        "joined_at_port": "aberystwyth",
        "capacity": "master",
        "date_left": "blk",
        "left_port": "blk",
        "cause_of_leaving": "remains on board",
        "sign_with_mark": "n",
        "notes": "account for july - dec 1867"
    },
    {
        "id": "vtls004932006_0_16",
        "type": "sailor",
        "parent": "vtls004932006",
        "name": "griffith jones",
        "dob": "blk",
        "age": "25",
        "place_of_birth": "pembrokeshire",
        "home_address": "blk",
        "f": "blk",
        "name_of_ship": "mountain lass",
        "ship_port": "aberystwyth",
        "date_leaving": "1867-06-23",
        "joined_ship_date": "1867-07-17",
        "joined_at_port": "aberystwyth",
        "capacity": "able seaman",
        "date_left": "blk",
        "left_port": "blk",
        "cause_of_leaving": "remains on board",
        "sign_with_mark": "n",
        "notes": "blk"
    },
    {
        "id": "vtls004932006_0_15",
        "type": "sailor",
        "parent": "vtls004932006",
        "name": "thomas evans",
        "dob": "blk",
        "age": "17",
        "place_of_birth": "cardigan",
        "home_address": "blk",
        "f": "blk",
        "name_of_ship": "mountain lass",
        "ship_port": "aberystwyth",
        "date_leaving": "1867-06-23",
        "joined_ship_date": "1867-07-17",
        "joined_at_port": "aberystwyth",
        "capacity": "ordinary seaman",
        "date_left": "blk",
        "left_port": "blk",
        "cause_of_leaving": "remains on board",
        "sign_with_mark": "n",
        "notes": "blk"
    },
    {
        "id": "vtls004932006_0_13",
        "type": "sailor",
        "parent": "vtls004932006",
        "name": "mathias thomas",
        "dob": "blk",
        "age": "58",
        "place_of_birth": "cardigan",
        "home_address": "blk",
        "f": "blk",
        "name_of_ship": "mountain lass",
        "ship_port": "aberystwyth",
        "date_leaving": "1867-06023",
        "joined_ship_date": "1867-07-17",
        "joined_at_port": "aberystwyth",
        "capacity": "able seaman",
        "date_left": "blk",
        "left_port": "blk",
        "cause_of_leaving": "remains on board",
        "sign_with_mark": "n",
        "notes": "blk"
    },
    {
        "id": "vtls004932006_0_14",
        "type": "sailor",
        "parent": "vtls004932006",
        "name": "david thomas",
        "dob": "blk",
        "age": "18",
        "place_of_birth": "cardigan",
        "home_address": "blk",
        "f": "blk",
        "name_of_ship": "mountain lass",
        "ship_port": "aberystwyth",
        "date_leaving": "1867-06-23",
        "joined_ship_date": "1867-07-17",
        "joined_at_port": "aberystwyth",
        "capacity": "able seaman",
        "date_left": "blk",
        "left_port": "blk",
        "cause_of_leaving": "remains on board",
        "sign_with_mark": "n",
        "notes": "blk"
    },
    {
        "id": "vtls004932006_0_17",
        "type": "sailor",
        "parent": "vtls004932006",
        "name": "john martins",
        "dob": "blk",
        "age": "30",
        "place_of_birth": "solva",
        "home_address": "blk",
        "f": "blk",
        "name_of_ship": "mountain lass",
        "ship_port": "aberystwyth",
        "date_leaving": "1867-06-23",
        "joined_ship_date": "1867-07-17",
        "joined_at_port": "aberystwyth",
        "capacity": "able seaman",
        "date_left": "bl;k",
        "left_port": "blk",
        "cause_of_leaving": "remains on board",
        "sign_with_mark": "n",
        "notes": "blk"
    },
    {
        "id": "vtls004931996_2_16",
        "type": "sailor",
        "parent": "vtls004931996",
        "name": "thomas jones",
        "dob": "blk",
        "age": "15",
        "place_of_birth": "blk",
        "home_address": "blk",
        "f": "blk",
        "name_of_ship": "blk",
        "ship_port": "blk",
        "date_leaving": "bl",
        "joined_ship_date": "blk",
        "joined_at_port": "blk",
        "capacity": "apprentice",
        "date_left": "blk",
        "left_port": "blk",
        "cause_of_leaving": "blk",
        "sign_with_mark": "blk",
        "notes": "registry of indenture - 28th march, 1864 in aberystwyth. remains on board."
    },
    {
        "id": "vtls004932006_0_12",
        "type": "sailor",
        "parent": "vtls004932006",
        "name": "david jones",
        "dob": "blk",
        "age": "59",
        "place_of_birth": "cardigan",
        "home_address": "blk",
        "f": "blk",
        "name_of_ship": "mountain lass",
        "ship_port": "aberystwyth",
        "date_leaving": "1867-06-23",
        "joined_ship_date": "1867-07-17",
        "joined_at_port": "aberystwyth",
        "capacity": "mate",
        "date_left": "blk",
        "left_port": "blk",
        "cause_of_leaving": "remains on board",
        "sign_with_mark": "n",
        "notes": "blk"
    },
    {
        "id": "vtls004932041_0_15",
        "type": "sailor",
        "parent": "vtls004932041",
        "name": "david thomas",
        "dob": "blk",
        "age": "18",
        "place_of_birth": "cardigan",
        "home_address": "blk",
        "f": "blk",
        "name_of_ship": "friends",
        "ship_port": "cardigan ",
        "date_leaving": "1866-04-10",
        "joined_ship_date": "1868-02-04",
        "joined_at_port": "waterford",
        "capacity": "ordinary seaman",
        "date_left": "1868-07-11",
        "left_port": "swansea",
        "cause_of_leaving": "continued",
        "sign_with_mark": "n",
        "notes": "blk"
    },
    {
        "id": "vtls004932041_1_11",
        "type": "sailor",
        "parent": "vtls004932041",
        "name": "john thomas",
        "dob": "blk",
        "age": "50",
        "place_of_birth": "cardigan",
        "home_address": "blk",
        "f": "blk",
        "name_of_ship": "mountain lass",
        "ship_port": "aberystwyth",
        "date_leaving": "continued",
        "joined_ship_date": "blk",
        "joined_at_port": "blk",
        "capacity": "master",
        "date_left": "blk",
        "left_port": "blk",
        "cause_of_leaving": "remains on board",
        "sign_with_mark": "n",
        "notes": "account for july - dec 1868"
    },
    {
        "id": "vtls004932041_0_14",
        "type": "sailor",
        "parent": "vtls004932041",
        "name": "mathias thomas",
        "dob": "blk",
        "age": "59",
        "place_of_birth": "cardigan",
        "home_address": "blk",
        "f": "blk",
        "name_of_ship": "friends",
        "ship_port": "cardigan ",
        "date_leaving": "1866-04-10",
        "joined_ship_date": "1868-02-04",
        "joined_at_port": "waterford",
        "capacity": "able seaman",
        "date_left": "1868-07-11",
        "left_port": "swansea",
        "cause_of_leaving": "continued",
        "sign_with_mark": "n",
        "notes": "blk"
    },
    {
        "id": "vtls004932041_0_17",
        "type": "sailor",
        "parent": "vtls004932041",
        "name": "joseph kearney",
        "dob": "blk",
        "age": "16",
        "place_of_birth": "arthurstown",
        "home_address": "blk",
        "f": "blk",
        "name_of_ship": "alcedo",
        "ship_port": "blk",
        "date_leaving": "1868-01-20",
        "joined_ship_date": "1868-02-04",
        "joined_at_port": "waterford",
        "capacity": "ordinary seaman",
        "date_left": "1868-07-11",
        "left_port": "swansea",
        "cause_of_leaving": "continued",
        "sign_with_mark": "n",
        "notes": "blk"
    },
    {
        "id": "vtls004932041_0_16",
        "type": "sailor",
        "parent": "vtls004932041",
        "name": "john martin",
        "dob": "blk",
        "age": "30",
        "place_of_birth": "solva",
        "home_address": "blk",
        "f": "blk",
        "name_of_ship": "catherine",
        "ship_port": "blk",
        "date_leaving": "1867-12-06",
        "joined_ship_date": "1868-02-04",
        "joined_at_port": "waterford",
        "capacity": "able seaman",
        "date_left": "1868-03-30",
        "left_port": "llanelli",
        "cause_of_leaving": "discharged",
        "sign_with_mark": "n",
        "notes": "blk"
    },
    {
        "id": "vtls004932041_0_12",
        "type": "sailor",
        "parent": "vtls004932041",
        "name": "john richards",
        "dob": "blk",
        "age": "27",
        "place_of_birth": "cardigan",
        "home_address": "blk",
        "f": "blk",
        "name_of_ship": "violet",
        "ship_port": "cardigan",
        "date_leaving": "1867-05-25",
        "joined_ship_date": "1868-04-06",
        "joined_at_port": "llanelly",
        "capacity": "master",
        "date_left": "1868-07-11",
        "left_port": "swansea",
        "cause_of_leaving": "continued",
        "sign_with_mark": "n",
        "notes": "blk"
    },
    {
        "id": "vtls004932041_0_11",
        "type": "sailor",
        "parent": "vtls004932041",
        "name": "john thomas",
        "dob": "blk",
        "age": "60",
        "place_of_birth": "cardigan",
        "home_address": "blk",
        "f": "blk",
        "name_of_ship": "mountain lass",
        "ship_port": "aberystwyth",
        "date_leaving": "continued",
        "joined_ship_date": "blk",
        "joined_at_port": "blk",
        "capacity": "master",
        "date_left": "1868-04-04",
        "left_port": "llanelli",
        "cause_of_leaving": "discharged",
        "sign_with_mark": "n",
        "notes": "blk"
    },
    {
        "id": "vtls004932041_0_13",
        "type": "sailor",
        "parent": "vtls004932041",
        "name": "david jones",
        "dob": "blk",
        "age": "54",
        "place_of_birth": "cardigan",
        "home_address": "blk",
        "f": "blk",
        "name_of_ship": "mountain lass",
        "ship_port": "aberystwyth",
        "date_leaving": "continued",
        "joined_ship_date": "blk",
        "joined_at_port": "blk",
        "capacity": "mate",
        "date_left": "1868-06-13",
        "left_port": "swansea",
        "cause_of_leaving": "discharged",
        "sign_with_mark": "n",
        "notes": "blk"
    },
    {
        "id": "vtls004932041_1_15",
        "type": "sailor",
        "parent": "vtls004932041",
        "name": "david thomas",
        "dob": "blk",
        "age": "19",
        "place_of_birth": "cardigan",
        "home_address": "blk",
        "f": "blk",
        "name_of_ship": "mountain lass",
        "ship_port": "aberystwyth",
        "date_leaving": "continued",
        "joined_ship_date": "blk",
        "joined_at_port": "blk",
        "capacity": "ordinary seaman",
        "date_left": "blk",
        "left_port": "blk",
        "cause_of_leaving": "remains on board",
        "sign_with_mark": "n",
        "notes": "blk"
    },
    {
        "id": "vtls004932041_1_13",
        "type": "sailor",
        "parent": "vtls004932041",
        "name": "mathias thomas",
        "dob": "blk",
        "age": "59",
        "place_of_birth": "cardigan",
        "home_address": "blk",
        "f": "blk",
        "name_of_ship": "mountain lass",
        "ship_port": "aberystwyth",
        "date_leaving": "continued",
        "joined_ship_date": "blk",
        "joined_at_port": "blk",
        "capacity": "able seaman",
        "date_left": "blk",
        "left_port": "blk",
        "cause_of_leaving": "remains on board",
        "sign_with_mark": "n",
        "notes": "blk"
    },
    {
        "id": "vtls004932041_1_14",
        "type": "sailor",
        "parent": "vtls004932041",
        "name": "john shelby",
        "dob": "blk",
        "age": "32",
        "place_of_birth": "st dogmaels",
        "home_address": "blk",
        "f": "blk",
        "name_of_ship": "mountain lass",
        "ship_port": "aberystwyth",
        "date_leaving": "continued",
        "joined_ship_date": "blk",
        "joined_at_port": "blk",
        "capacity": "able seaman",
        "date_left": "blk",
        "left_port": "blk",
        "cause_of_leaving": "remains on board",
        "sign_with_mark": "n",
        "notes": "blk"
    },
    {
        "id": "vtls004932041_1_16",
        "type": "sailor",
        "parent": "vtls004932041",
        "name": "john thomas",
        "dob": "blk",
        "age": "15",
        "place_of_birth": "cardigan",
        "home_address": "blk",
        "f": "blk",
        "name_of_ship": "no vessel",
        "ship_port": "blk",
        "date_leaving": "blk",
        "joined_ship_date": "blk",
        "joined_at_port": "blk",
        "capacity": "boy",
        "date_left": "blk",
        "left_port": "blk",
        "cause_of_leaving": "remains on board",
        "sign_with_mark": "n",
        "notes": "blk"
    }
]