[
    {
        "id": "vtls004938089_0_11",
        "type": "sailor",
        "parent": "vtls004938089",
        "name": "john richards",
        "dob": "blk",
        "age": "50",
        "place_of_birth": "llanrhystud",
        "home_address": "blk",
        "f": "blk",
        "name_of_ship": "pandora",
        "ship_port": "aberystwyth",
        "date_leaving": "continued",
        "joined_ship_date": "1863-01-01",
        "joined_at_port": "bangor",
        "capacity": "master",
        "date_left": "blk",
        "left_port": "blk",
        "cause_of_leaving": "remains on board",
        "sign_with_mark": "n",
        "notes": "vessel laid up at bangor for jan - june 1963 with no crew on board."
    },
    {
        "id": "vtls004938089_1_18",
        "type": "sailor",
        "parent": "vtls004938089",
        "name": "charles dunn",
        "dob": "blk",
        "age": "19",
        "place_of_birth": "liverpool",
        "home_address": "blk",
        "f": "blk",
        "name_of_ship": "margaret evans",
        "ship_port": "aberystwyth",
        "date_leaving": "1863-11-16",
        "joined_ship_date": "1863-11-19",
        "joined_at_port": "liverpool",
        "capacity": "ordinary seaman",
        "date_left": "blk",
        "left_port": "blk",
        "cause_of_leaving": "remains on board",
        "sign_with_mark": "n",
        "notes": "blk"
    },
    {
        "id": "vtls004938089_1_13",
        "type": "sailor",
        "parent": "vtls004938089",
        "name": "john davies",
        "dob": "blk",
        "age": "26",
        "place_of_birth": "aberaeron",
        "home_address": "blk",
        "f": "blk",
        "name_of_ship": "pandora",
        "ship_port": "aberystwyth",
        "date_leaving": "continued",
        "joined_ship_date": "1863-07-01",
        "joined_at_port": "bangor",
        "capacity": "able seaman",
        "date_left": "1863-10-24",
        "left_port": "plymouth",
        "cause_of_leaving": "remains on board",
        "sign_with_mark": "n",
        "notes": "blk"
    },
    {
        "id": "vtls004938089_1_19",
        "type": "sailor",
        "parent": "vtls004938089",
        "name": "john richards",
        "dob": "blk",
        "age": "19",
        "place_of_birth": "st ives",
        "home_address": "blk",
        "f": "blk",
        "name_of_ship": "ellen edwards",
        "ship_port": "aberystwyth",
        "date_leaving": "1863-12-08",
        "joined_ship_date": "1863-12-09",
        "joined_at_port": "milford",
        "capacity": "ordinary seaman",
        "date_left": "blk",
        "left_port": "blk",
        "cause_of_leaving": "remains on board",
        "sign_with_mark": "n",
        "notes": "blk"
    },
    {
        "id": "vtls004938089_1_14",
        "type": "sailor",
        "parent": "vtls004938089",
        "name": "william owens",
        "dob": "blk",
        "age": "21",
        "place_of_birth": "nefyn",
        "home_address": "blk",
        "f": "blk",
        "name_of_ship": "highland mary",
        "ship_port": "beaumaris",
        "date_leaving": "blk",
        "joined_ship_date": "1863-07-23",
        "joined_at_port": "bangor",
        "capacity": "able seaman",
        "date_left": "1863-10-24",
        "left_port": "plymouth",
        "cause_of_leaving": "discharged",
        "sign_with_mark": "n",
        "notes": "blk"
    },
    {
        "id": "vtls004938089_1_11",
        "type": "sailor",
        "parent": "vtls004938089",
        "name": "john richards",
        "dob": "blk",
        "age": "50",
        "place_of_birth": "llanrhystud",
        "home_address": "blk",
        "f": "blk",
        "name_of_ship": "pandora",
        "ship_port": "aberystwyth",
        "date_leaving": "continued",
        "joined_ship_date": "1863-07-01",
        "joined_at_port": "bangor",
        "capacity": "master",
        "date_left": "blk",
        "left_port": "blk",
        "cause_of_leaving": "remains on board",
        "sign_with_mark": "n",
        "notes": "blk"
    },
    {
        "id": "vtls004938089_1_16",
        "type": "sailor",
        "parent": "vtls004938089",
        "name": "james thomas",
        "dob": "blk",
        "age": "22",
        "place_of_birth": "looe",
        "home_address": "blk",
        "f": "blk",
        "name_of_ship": "margaret",
        "ship_port": "[looe]",
        "date_leaving": "1863-09",
        "joined_ship_date": "1863-10-26",
        "joined_at_port": "plymouth",
        "capacity": "able seaman",
        "date_left": "1863-10-24",
        "left_port": "milford",
        "cause_of_leaving": "discharged",
        "sign_with_mark": "n",
        "notes": "blk"
    },
    {
        "id": "vtls004938089_1_12",
        "type": "sailor",
        "parent": "vtls004938089",
        "name": "david richards",
        "dob": "blk",
        "age": "35",
        "place_of_birth": "cardigan",
        "home_address": "blk",
        "f": "blk",
        "name_of_ship": "pandora",
        "ship_port": "aberystwyth",
        "date_leaving": "continued",
        "joined_ship_date": "1863-07-01",
        "joined_at_port": "bangor",
        "capacity": "mate",
        "date_left": "blk",
        "left_port": "blk",
        "cause_of_leaving": "remains on board",
        "sign_with_mark": "n",
        "notes": "blk"
    },
    {
        "id": "vtls004938089_1_17",
        "type": "sailor",
        "parent": "vtls004938089",
        "name": "john coffey",
        "dob": "blk",
        "age": "15",
        "place_of_birth": "liverpool",
        "home_address": "blk",
        "f": "blk",
        "name_of_ship": "first voyage",
        "ship_port": "blk",
        "date_leaving": "blk",
        "joined_ship_date": "1863-11-16",
        "joined_at_port": "garston",
        "capacity": "boy",
        "date_left": "1863-10-24",
        "left_port": "milford",
        "cause_of_leaving": "discharged",
        "sign_with_mark": "n",
        "notes": "blk"
    },
    {
        "id": "vtls004938089_1_15",
        "type": "sailor",
        "parent": "vtls004938089",
        "name": "thomas phillips",
        "dob": "blk",
        "age": "18",
        "place_of_birth": "st davids",
        "home_address": "blk",
        "f": "blk",
        "name_of_ship": "first ship",
        "ship_port": "blk",
        "date_leaving": "blk",
        "joined_ship_date": "1863-07-23",
        "joined_at_port": "bangor",
        "capacity": "boy",
        "date_left": "blk",
        "left_port": "blk",
        "cause_of_leaving": "remains on board",
        "sign_with_mark": "n",
        "notes": "blk"
    },
    {
        "id": "vtls004938091_0_14",
        "type": "sailor",
        "parent": "vtls004938091",
        "name": "hugh rowlands",
        "dob": "blk",
        "age": "22",
        "place_of_birth": "beaumaris",
        "home_address": "blk",
        "f": "blk",
        "name_of_ship": "thomas jones",
        "ship_port": "[liverpool coasting]",
        "date_leaving": "1864-04-01",
        "joined_ship_date": "1864-04-28",
        "joined_at_port": "bangor",
        "capacity": "ordinary seaman",
        "date_left": "1864-06-30",
        "left_port": "liverpool",
        "cause_of_leaving": "discharged",
        "sign_with_mark": "n",
        "notes": "blk"
    },
    {
        "id": "vtls004938091_0_15",
        "type": "sailor",
        "parent": "vtls004938091",
        "name": "david richards",
        "dob": "blk",
        "age": "14",
        "place_of_birth": "aberystwyth",
        "home_address": "blk",
        "f": "blk",
        "name_of_ship": "pandora",
        "ship_port": "aberystwyth coasting",
        "date_leaving": "1864-12-30",
        "joined_ship_date": "01864-04-28",
        "joined_at_port": "bangor",
        "capacity": "boy",
        "date_left": "1864-06-30",
        "left_port": "liverpool",
        "cause_of_leaving": "remains on board",
        "sign_with_mark": "n",
        "notes": "blk"
    },
    {
        "id": "vtls004938091_0_13",
        "type": "sailor",
        "parent": "vtls004938091",
        "name": "james evans",
        "dob": "blk",
        "age": "50",
        "place_of_birth": "milford",
        "home_address": "blk",
        "f": "blk",
        "name_of_ship": "louisa jane",
        "ship_port": "[ipswich coasting]",
        "date_leaving": "1864-04-27",
        "joined_ship_date": "1864-04-28",
        "joined_at_port": "bangor",
        "capacity": "able seaman",
        "date_left": "1864-06-30",
        "left_port": "liverpool",
        "cause_of_leaving": "discharged",
        "sign_with_mark": "n",
        "notes": "blk"
    },
    {
        "id": "vtls004938091_0_11",
        "type": "sailor",
        "parent": "vtls004938091",
        "name": "john richards",
        "dob": "blk",
        "age": "50",
        "place_of_birth": "aberystwyth",
        "home_address": "blk",
        "f": "blk",
        "name_of_ship": "pandora",
        "ship_port": "aberystwyth",
        "date_leaving": "1864-12-30",
        "joined_ship_date": "1864-04-28",
        "joined_at_port": "bangor",
        "capacity": "master",
        "date_left": "1864-06-30",
        "left_port": "liverpool",
        "cause_of_leaving": "remains on board",
        "sign_with_mark": "n",
        "notes": "blk"
    },
    {
        "id": "vtls004938091_0_12",
        "type": "sailor",
        "parent": "vtls004938091",
        "name": "david richards",
        "dob": "blk",
        "age": "36",
        "place_of_birth": "aberystwyth",
        "home_address": "blk",
        "f": "blk",
        "name_of_ship": "pandora",
        "ship_port": "aberystwyth",
        "date_leaving": "1864-12-30",
        "joined_ship_date": "1864-04-28",
        "joined_at_port": "bangor",
        "capacity": "mate",
        "date_left": "1864-06-30",
        "left_port": "liverpool",
        "cause_of_leaving": "remains on board",
        "sign_with_mark": "n",
        "notes": "blk"
    },
    {
        "id": "vtls004938091_1_11",
        "type": "sailor",
        "parent": "vtls004938091",
        "name": "john richards",
        "dob": "blk",
        "age": "52",
        "place_of_birth": "aberystwyth",
        "home_address": "blk",
        "f": "blk",
        "name_of_ship": "pandora",
        "ship_port": "aberystwyth",
        "date_leaving": "1865-06-31",
        "joined_ship_date": "1865-07-01",
        "joined_at_port": "liverpool",
        "capacity": "master",
        "date_left": "blk",
        "left_port": "blk",
        "cause_of_leaving": "remains on board",
        "sign_with_mark": "n",
        "notes": "blk"
    },
    {
        "id": "vtls004938091_1_12",
        "type": "sailor",
        "parent": "vtls004938091",
        "name": "david richards",
        "dob": "blk",
        "age": "36",
        "place_of_birth": "aberystwyth",
        "home_address": "blk",
        "f": "blk",
        "name_of_ship": "pandora",
        "ship_port": "aberystwyth",
        "date_leaving": "1865-06-31",
        "joined_ship_date": "1865-07-01",
        "joined_at_port": "liverpool",
        "capacity": "mate",
        "date_left": "blk",
        "left_port": "blk",
        "cause_of_leaving": "remains on board",
        "sign_with_mark": "n",
        "notes": "blk"
    },
    {
        "id": "vtls004938092_1_12",
        "type": "sailor",
        "parent": "vtls004938092",
        "name": "david richards",
        "dob": "blk",
        "age": "38",
        "place_of_birth": "llanrhystud, cardiganshire",
        "home_address": "blk",
        "f": "blk",
        "name_of_ship": "pandora",
        "ship_port": "aberystwyth",
        "date_leaving": "1866-06-30",
        "joined_ship_date": "1866-07-01",
        "joined_at_port": "liverpool",
        "capacity": "mate",
        "date_left": "1866-12-31",
        "left_port": "runcorn",
        "cause_of_leaving": "remains on board",
        "sign_with_mark": "n",
        "notes": "blk"
    },
    {
        "id": "vtls004938092_1_11",
        "type": "sailor",
        "parent": "vtls004938092",
        "name": "john rowlands",
        "dob": "blk",
        "age": "53",
        "place_of_birth": "llanrhystud, cardiganshire",
        "home_address": "blk",
        "f": "blk",
        "name_of_ship": "pandora",
        "ship_port": "aberystwyth",
        "date_leaving": "1866-06-30",
        "joined_ship_date": "1866-07-01",
        "joined_at_port": "liverpool",
        "capacity": "master",
        "date_left": "continued",
        "left_port": "blk",
        "cause_of_leaving": "remains on board",
        "sign_with_mark": "n",
        "notes": "blk"
    },
    {
        "id": "vtls004938092_0_13",
        "type": "sailor",
        "parent": "vtls004938092",
        "name": "david d davies",
        "dob": "blk",
        "age": "27",
        "place_of_birth": "cardigan",
        "home_address": "blk",
        "f": "blk",
        "name_of_ship": "pandora",
        "ship_port": "aberystwyth",
        "date_leaving": "1865-12-31",
        "joined_ship_date": "1866-07-01",
        "joined_at_port": "runcorn",
        "capacity": "able seaman",
        "date_left": "1866-06-30",
        "left_port": "liverpool",
        "cause_of_leaving": "remains on board",
        "sign_with_mark": "n",
        "notes": "blk"
    },
    {
        "id": "vtls004938092_0_11",
        "type": "sailor",
        "parent": "vtls004938092",
        "name": "john richards",
        "dob": "blk",
        "age": "53",
        "place_of_birth": "aberystwyth",
        "home_address": "blk",
        "f": "blk",
        "name_of_ship": "pandora",
        "ship_port": "aberystwyth",
        "date_leaving": "1865-12-31",
        "joined_ship_date": "1866-07-01",
        "joined_at_port": "runcorn",
        "capacity": "master",
        "date_left": "1866-06-30",
        "left_port": "liverpool",
        "cause_of_leaving": "remains on board",
        "sign_with_mark": "n",
        "notes": "blk"
    },
    {
        "id": "vtls004938092_0_12",
        "type": "sailor",
        "parent": "vtls004938092",
        "name": "david richards",
        "dob": "blk",
        "age": "58",
        "place_of_birth": "aberystwyth",
        "home_address": "blk",
        "f": "blk",
        "name_of_ship": "pandora",
        "ship_port": "aberystwyth",
        "date_leaving": "1865-12-31",
        "joined_ship_date": "1866-07-01",
        "joined_at_port": "runcorn",
        "capacity": "mate",
        "date_left": "1866-06-30",
        "left_port": "liverpool",
        "cause_of_leaving": "remains on board",
        "sign_with_mark": "n",
        "notes": "blk"
    },
    {
        "id": "vtls004938092_0_14",
        "type": "sailor",
        "parent": "vtls004938092",
        "name": "ben colman",
        "dob": "blk",
        "age": "20",
        "place_of_birth": "deal",
        "home_address": "blk",
        "f": "blk",
        "name_of_ship": "pandora",
        "ship_port": "aberystwyth",
        "date_leaving": "1865-12-31",
        "joined_ship_date": "1866-07-01",
        "joined_at_port": "runcorn",
        "capacity": "able seaman",
        "date_left": "1866-06-30",
        "left_port": "liverpool",
        "cause_of_leaving": "remains on board",
        "sign_with_mark": "n",
        "notes": "blk"
    },
    {
        "id": "vtls004938091_1_14",
        "type": "sailor",
        "parent": "vtls004938091",
        "name": "evan williams",
        "dob": "blk",
        "age": "23",
        "place_of_birth": "aberystwyth",
        "home_address": "blk",
        "f": "blk",
        "name_of_ship": "pandora",
        "ship_port": "aberystwyth",
        "date_leaving": "1865-06-31",
        "joined_ship_date": "1865-07-01",
        "joined_at_port": "liverpool",
        "capacity": "able seaman",
        "date_left": "blk",
        "left_port": "blk",
        "cause_of_leaving": "remains on board",
        "sign_with_mark": "n",
        "notes": "blk"
    },
    {
        "id": "vtls004938091_1_13",
        "type": "sailor",
        "parent": "vtls004938091",
        "name": "james thomas",
        "dob": "blk",
        "age": "23",
        "place_of_birth": "milford",
        "home_address": "blk",
        "f": "blk",
        "name_of_ship": "pandora",
        "ship_port": "aberystwyth",
        "date_leaving": "1865-06-31",
        "joined_ship_date": "1865-07-01",
        "joined_at_port": "liverpool",
        "capacity": "able seaman",
        "date_left": "blk",
        "left_port": "blk",
        "cause_of_leaving": "remains on board",
        "sign_with_mark": "n",
        "notes": "blk"
    },
    {
        "id": "vtls004938091_1_15",
        "type": "sailor",
        "parent": "vtls004938091",
        "name": "david gibbon",
        "dob": "blk",
        "age": "37",
        "place_of_birth": "newport",
        "home_address": "blk",
        "f": "blk",
        "name_of_ship": "pandora",
        "ship_port": "aberystwyth",
        "date_leaving": "1865-06-31",
        "joined_ship_date": "1865-07-01",
        "joined_at_port": "liverpool",
        "capacity": "able seaman",
        "date_left": "blk",
        "left_port": "blk",
        "cause_of_leaving": "remains on board",
        "sign_with_mark": "n",
        "notes": "blk"
    },
    {
        "id": "vtls004938092_1_13",
        "type": "sailor",
        "parent": "vtls004938092",
        "name": "david jones",
        "dob": "blk",
        "age": "27",
        "place_of_birth": "llanrhystud, cardiganshire",
        "home_address": "blk",
        "f": "blk",
        "name_of_ship": "pandora",
        "ship_port": "aberystwyth",
        "date_leaving": "1866-06-30",
        "joined_ship_date": "1866-07-01",
        "joined_at_port": "liverpool",
        "capacity": "able seaman",
        "date_left": "1866-12-31",
        "left_port": "runcorn",
        "cause_of_leaving": "remains on board",
        "sign_with_mark": "n",
        "notes": "blk"
    },
    {
        "id": "vtls004938092_1_14",
        "type": "sailor",
        "parent": "vtls004938092",
        "name": "david lewis",
        "dob": "blk",
        "age": "28",
        "place_of_birth": "st dogmaels, cardigan",
        "home_address": "blk",
        "f": "blk",
        "name_of_ship": "pandora",
        "ship_port": "aberystwyth",
        "date_leaving": "1866-06-30",
        "joined_ship_date": "1866-07-01",
        "joined_at_port": "liverpool",
        "capacity": "able seaman",
        "date_left": "1866-12-31",
        "left_port": "runcorn",
        "cause_of_leaving": "remains on board",
        "sign_with_mark": "n",
        "notes": "blk"
    },
    {
        "id": "vtls004938092_1_15",
        "type": "sailor",
        "parent": "vtls004938092",
        "name": "david richards",
        "dob": "blk",
        "age": "13",
        "place_of_birth": "llanrhystud, cardiganshire",
        "home_address": "blk",
        "f": "blk",
        "name_of_ship": "pandora",
        "ship_port": "aberystwyth",
        "date_leaving": "1866-06-30",
        "joined_ship_date": "1866-07-01",
        "joined_at_port": "liverpool",
        "capacity": "boy",
        "date_left": "1866-12-31",
        "left_port": "runcorn",
        "cause_of_leaving": "remains on board",
        "sign_with_mark": "n",
        "notes": "blk"
    },
    {
        "id": "vtls004938095_0_14",
        "type": "sailor",
        "parent": "vtls004938095",
        "name": "john nicholas",
        "dob": "blk",
        "age": "17",
        "place_of_birth": "st dogmaels",
        "home_address": "blk",
        "f": "blk",
        "name_of_ship": "pandora",
        "ship_port": "aberystwyth",
        "date_leaving": "continued",
        "joined_ship_date": "1866",
        "joined_at_port": "liverpool",
        "capacity": "ordinary seaman",
        "date_left": "blk",
        "left_port": "blk",
        "cause_of_leaving": "remains on board",
        "sign_with_mark": "n",
        "notes": "blk"
    },
    {
        "id": "vtls004938095_0_13",
        "type": "sailor",
        "parent": "vtls004938095",
        "name": "david lloyd",
        "dob": "blk",
        "age": "27",
        "place_of_birth": "aberystwyth",
        "home_address": "blk",
        "f": "blk",
        "name_of_ship": "pandora",
        "ship_port": "aberystwyth",
        "date_leaving": "continued",
        "joined_ship_date": "1866",
        "joined_at_port": "liverpool",
        "capacity": "able seaman",
        "date_left": "blk",
        "left_port": "blk",
        "cause_of_leaving": "remains on board",
        "sign_with_mark": "n",
        "notes": "blk"
    },
    {
        "id": "vtls004938095_0_12",
        "type": "sailor",
        "parent": "vtls004938095",
        "name": "thomas evans",
        "dob": "blk",
        "age": "27",
        "place_of_birth": "fishguard",
        "home_address": "blk",
        "f": "blk",
        "name_of_ship": "pandora",
        "ship_port": "aberystwyth",
        "date_leaving": "continued",
        "joined_ship_date": "1865",
        "joined_at_port": "cardiff",
        "capacity": "mate",
        "date_left": "blk",
        "left_port": "blk",
        "cause_of_leaving": "remains on board",
        "sign_with_mark": "n",
        "notes": "blk"
    },
    {
        "id": "vtls004938095_0_11",
        "type": "sailor",
        "parent": "vtls004938095",
        "name": "john richards",
        "dob": "blk",
        "age": "54",
        "place_of_birth": "aberystwyth",
        "home_address": "blk",
        "f": "blk",
        "name_of_ship": "pandora",
        "ship_port": "aberystwyth",
        "date_leaving": "1849",
        "joined_ship_date": "1849",
        "joined_at_port": "aberystwyth",
        "capacity": "master",
        "date_left": "blk",
        "left_port": "blk",
        "cause_of_leaving": "remains on board",
        "sign_with_mark": "n",
        "notes": "blk"
    },
    {
        "id": "vtls004938096_0_12",
        "type": "sailor",
        "parent": "vtls004938096",
        "name": "john davies",
        "dob": "blk",
        "age": "34",
        "place_of_birth": "llanarth",
        "home_address": "blk",
        "f": "blk",
        "name_of_ship": "[serah prichard]",
        "ship_port": "[liverpool]",
        "date_leaving": "1868-04-20",
        "joined_ship_date": "1868-05-20",
        "joined_at_port": "newport",
        "capacity": "mate",
        "date_left": "continued",
        "left_port": "blk",
        "cause_of_leaving": "remains on board",
        "sign_with_mark": "n",
        "notes": "blk"
    },
    {
        "id": "vtls004938096_0_13",
        "type": "sailor",
        "parent": "vtls004938096",
        "name": "thomas morgan",
        "dob": "blk",
        "age": "20",
        "place_of_birth": "aberystwyth",
        "home_address": "blk",
        "f": "blk",
        "name_of_ship": "neptune",
        "ship_port": "aberystwyth",
        "date_leaving": "1868-04-11",
        "joined_ship_date": "1868-05-20",
        "joined_at_port": "newport",
        "capacity": "able seaman",
        "date_left": "continued",
        "left_port": "blk",
        "cause_of_leaving": "remains on board",
        "sign_with_mark": "n",
        "notes": "blk"
    },
    {
        "id": "vtls004938095_1_11",
        "type": "sailor",
        "parent": "vtls004938095",
        "name": "john richards",
        "dob": "blk",
        "age": "55",
        "place_of_birth": "llanrhystud, aberystwyth",
        "home_address": "blk",
        "f": "blk",
        "name_of_ship": "pandora",
        "ship_port": "aberystwyth",
        "date_leaving": "continued",
        "joined_ship_date": "blk",
        "joined_at_port": "blk",
        "capacity": "master",
        "date_left": "blk",
        "left_port": "blk",
        "cause_of_leaving": "remains on board",
        "sign_with_mark": "n",
        "notes": "blk"
    },
    {
        "id": "vtls004938095_1_12",
        "type": "sailor",
        "parent": "vtls004938095",
        "name": "david richards",
        "dob": "blk",
        "age": "40",
        "place_of_birth": "llanrhystud, aberystwyth",
        "home_address": "blk",
        "f": "blk",
        "name_of_ship": "pandora",
        "ship_port": "aberystwyth",
        "date_leaving": "continued",
        "joined_ship_date": "blk",
        "joined_at_port": "blk",
        "capacity": "mate",
        "date_left": "blk",
        "left_port": "blk",
        "cause_of_leaving": "remains on board",
        "sign_with_mark": "n",
        "notes": "blk"
    },
    {
        "id": "vtls004938095_1_13",
        "type": "sailor",
        "parent": "vtls004938095",
        "name": "edward barrett",
        "dob": "blk",
        "age": "30",
        "place_of_birth": "limerick",
        "home_address": "blk",
        "f": "blk",
        "name_of_ship": "pandora",
        "ship_port": "aberystwyth",
        "date_leaving": "continued",
        "joined_ship_date": "blk",
        "joined_at_port": "blk",
        "capacity": "able seaman",
        "date_left": "blk",
        "left_port": "blk",
        "cause_of_leaving": "remains on board",
        "sign_with_mark": "n",
        "notes": "blk"
    },
    {
        "id": "vtls004938095_1_14",
        "type": "sailor",
        "parent": "vtls004938095",
        "name": "evan davies",
        "dob": "blk",
        "age": "33",
        "place_of_birth": "cardigan",
        "home_address": "blk",
        "f": "blk",
        "name_of_ship": "pandora",
        "ship_port": "aberystwyth",
        "date_leaving": "continued",
        "joined_ship_date": "blk",
        "joined_at_port": "blk",
        "capacity": "able seaman",
        "date_left": "blk",
        "left_port": "blk",
        "cause_of_leaving": "remains on board",
        "sign_with_mark": "n",
        "notes": "blk"
    },
    {
        "id": "vtls004938095_0_15",
        "type": "sailor",
        "parent": "vtls004938095",
        "name": "david lloyd",
        "dob": "blk",
        "age": "16",
        "place_of_birth": "cardigan",
        "home_address": "blk",
        "f": "blk",
        "name_of_ship": "pandora",
        "ship_port": "aberystwyth",
        "date_leaving": "continued",
        "joined_ship_date": "1866",
        "joined_at_port": "liverpool",
        "capacity": "boy",
        "date_left": "blk",
        "left_port": "blk",
        "cause_of_leaving": "remains on board",
        "sign_with_mark": "n",
        "notes": "blk"
    },
    {
        "id": "vtls004938096_0_11",
        "type": "sailor",
        "parent": "vtls004938096",
        "name": "john richards",
        "dob": "blk",
        "age": "49",
        "place_of_birth": "aberystwyth",
        "home_address": "blk",
        "f": "blk",
        "name_of_ship": "pandora",
        "ship_port": "aberystwyth",
        "date_leaving": "blk",
        "joined_ship_date": "blk",
        "joined_at_port": "blk",
        "capacity": "master",
        "date_left": "continued",
        "left_port": "blk",
        "cause_of_leaving": "remains on board",
        "sign_with_mark": "n",
        "notes": "blk"
    },
    {
        "id": "vtls004938095_1_15",
        "type": "sailor",
        "parent": "vtls004938095",
        "name": "hugh jones",
        "dob": "blk",
        "age": "17",
        "place_of_birth": "waterford",
        "home_address": "blk",
        "f": "blk",
        "name_of_ship": "pandora",
        "ship_port": "aberystwyth",
        "date_leaving": "continued",
        "joined_ship_date": "blk",
        "joined_at_port": "blk",
        "capacity": "boy",
        "date_left": "blk",
        "left_port": "blk",
        "cause_of_leaving": "remains on board",
        "sign_with_mark": "n",
        "notes": "blk"
    },
    {
        "id": "vtls004938096_1_13",
        "type": "sailor",
        "parent": "vtls004938096",
        "name": "david richards",
        "dob": "blk",
        "age": "16",
        "place_of_birth": "llanrhystud",
        "home_address": "blk",
        "f": "blk",
        "name_of_ship": "pandora",
        "ship_port": "aberystwyth",
        "date_leaving": "continued",
        "joined_ship_date": "blk",
        "joined_at_port": "blk",
        "capacity": "ordinary seaman",
        "date_left": "1868-12-31",
        "left_port": "runcorn",
        "cause_of_leaving": "remains on board",
        "sign_with_mark": "n",
        "notes": "blk"
    },
    {
        "id": "vtls004938096_1_14",
        "type": "sailor",
        "parent": "vtls004938096",
        "name": "hugh jones",
        "dob": "blk",
        "age": "17",
        "place_of_birth": "holyhead",
        "home_address": "blk",
        "f": "blk",
        "name_of_ship": "pandora",
        "ship_port": "aberystwyth",
        "date_leaving": "continued",
        "joined_ship_date": "blk",
        "joined_at_port": "blk",
        "capacity": "ordinary seaman",
        "date_left": "1868-12-31",
        "left_port": "runcorn",
        "cause_of_leaving": "remains on board",
        "sign_with_mark": "n",
        "notes": "blk"
    },
    {
        "id": "vtls004938096_1_11",
        "type": "sailor",
        "parent": "vtls004938096",
        "name": "john richards",
        "dob": "blk",
        "age": "55",
        "place_of_birth": "llanrhystud",
        "home_address": "blk",
        "f": "blk",
        "name_of_ship": "pandora",
        "ship_port": "aberystwyth",
        "date_leaving": "continued",
        "joined_ship_date": "blk",
        "joined_at_port": "blk",
        "capacity": "master",
        "date_left": "1868-12-31",
        "left_port": "runcorn",
        "cause_of_leaving": "remains on board",
        "sign_with_mark": "n",
        "notes": "blk"
    },
    {
        "id": "vtls004938096_1_12",
        "type": "sailor",
        "parent": "vtls004938096",
        "name": "thomas evans",
        "dob": "blk",
        "age": "28",
        "place_of_birth": "aberporth",
        "home_address": "blk",
        "f": "blk",
        "name_of_ship": "pandora",
        "ship_port": "aberystwyth",
        "date_leaving": "continued",
        "joined_ship_date": "blk",
        "joined_at_port": "blk",
        "capacity": "mate",
        "date_left": "1868-12-31",
        "left_port": "runcorn",
        "cause_of_leaving": "remains on board",
        "sign_with_mark": "n",
        "notes": "blk"
    },
    {
        "id": "vtls004938096_0_14",
        "type": "sailor",
        "parent": "vtls004938096",
        "name": "david richards",
        "dob": "blk",
        "age": "16",
        "place_of_birth": "aberystwyth",
        "home_address": "blk",
        "f": "blk",
        "name_of_ship": "first ship",
        "ship_port": "blk",
        "date_leaving": "blk",
        "joined_ship_date": "1868-05-16",
        "joined_at_port": "newport",
        "capacity": "boy",
        "date_left": "continued",
        "left_port": "blk",
        "cause_of_leaving": "remains on board",
        "sign_with_mark": "n",
        "notes": "blk"
    },
    {
        "id": "vtls004938096_1_15",
        "type": "sailor",
        "parent": "vtls004938096",
        "name": "charles adams",
        "dob": "blk",
        "age": "15",
        "place_of_birth": "par",
        "home_address": "blk",
        "f": "blk",
        "name_of_ship": "pandora",
        "ship_port": "aberystwyth",
        "date_leaving": "continued",
        "joined_ship_date": "blk",
        "joined_at_port": "blk",
        "capacity": "boy",
        "date_left": "1868-12-31",
        "left_port": "runcorn",
        "cause_of_leaving": "remains on board",
        "sign_with_mark": "n",
        "notes": "blk"
    },
    {
        "id": "vtls004938096_0_15",
        "type": "sailor",
        "parent": "vtls004938096",
        "name": "hugh jones",
        "dob": "blk",
        "age": "16",
        "place_of_birth": "holyhead",
        "home_address": "blk",
        "f": "blk",
        "name_of_ship": "first ship",
        "ship_port": "blk",
        "date_leaving": "blk",
        "joined_ship_date": "1867-03-12",
        "joined_at_port": "holyhead",
        "capacity": "boy",
        "date_left": "continued",
        "left_port": "blk",
        "cause_of_leaving": "remains on board",
        "sign_with_mark": "n",
        "notes": "blk"
    },
    {
        "id": "vtls004938101_1_13",
        "type": "sailor",
        "parent": "vtls004938101",
        "name": "john richards",
        "dob": "blk",
        "age": "13",
        "place_of_birth": "llanrhystud, cardiganshire",
        "home_address": "blk",
        "f": "blk",
        "name_of_ship": "pandora",
        "ship_port": "aberystwyth",
        "date_leaving": "1869-06-30",
        "joined_ship_date": "1869-07-01",
        "joined_at_port": "bangor",
        "capacity": "ordinary seaman",
        "date_left": "1868-12-18",
        "left_port": "maplin sands",
        "cause_of_leaving": "discharged, vessel wrecked",
        "sign_with_mark": "n",
        "notes": "blk"
    },
    {
        "id": "vtls004938101_1_11",
        "type": "sailor",
        "parent": "vtls004938101",
        "name": "john richards",
        "dob": "blk",
        "age": "56",
        "place_of_birth": "llanrhystud, cardiganshire",
        "home_address": "blk",
        "f": "blk",
        "name_of_ship": "pandora",
        "ship_port": "aberystwyth",
        "date_leaving": "1869-06-30",
        "joined_ship_date": "1869-07-01",
        "joined_at_port": "bangor",
        "capacity": "master",
        "date_left": "1868-12-18",
        "left_port": "maplin sands",
        "cause_of_leaving": "discharged, vessel wrecked",
        "sign_with_mark": "n",
        "notes": "blk"
    },
    {
        "id": "vtls004938101_1_12",
        "type": "sailor",
        "parent": "vtls004938101",
        "name": "david richards",
        "dob": "blk",
        "age": "17",
        "place_of_birth": "llanrhystud, cardiganshire",
        "home_address": "blk",
        "f": "blk",
        "name_of_ship": "pandora",
        "ship_port": "aberystwyth",
        "date_leaving": "1869-06-30",
        "joined_ship_date": "1869-07-01",
        "joined_at_port": "bangor",
        "capacity": "mate",
        "date_left": "1868-12-18",
        "left_port": "maplin sands",
        "cause_of_leaving": "discharged, vessel wrecked",
        "sign_with_mark": "n",
        "notes": "blk"
    },
    {
        "id": "vtls004938101_1_15",
        "type": "sailor",
        "parent": "vtls004938101",
        "name": "evan jones",
        "dob": "blk",
        "age": "17",
        "place_of_birth": "bangor",
        "home_address": "blk",
        "f": "blk",
        "name_of_ship": "not known",
        "ship_port": "blk",
        "date_leaving": "blk",
        "joined_ship_date": "1869-08",
        "joined_at_port": "bangor",
        "capacity": "ordinary seaman",
        "date_left": "1868-12-18",
        "left_port": "maplin sands",
        "cause_of_leaving": "discharged, vessel wrecked",
        "sign_with_mark": "n",
        "notes": "blk"
    },
    {
        "id": "vtls004938101_1_14",
        "type": "sailor",
        "parent": "vtls004938101",
        "name": "david evans",
        "dob": "blk",
        "age": "30",
        "place_of_birth": "aberporth",
        "home_address": "blk",
        "f": "blk",
        "name_of_ship": "not known",
        "ship_port": "blk",
        "date_leaving": "blk",
        "joined_ship_date": "1869-08",
        "joined_at_port": "bangor",
        "capacity": "able seaman",
        "date_left": "1868-12-18",
        "left_port": "maplin sands",
        "cause_of_leaving": "discharged, vessel wrecked",
        "sign_with_mark": "n",
        "notes": "blk"
    },
    {
        "id": "vtls004938101_0_14",
        "type": "sailor",
        "parent": "vtls004938101",
        "name": "david richards",
        "dob": "blk",
        "age": "16",
        "place_of_birth": "llanrhystud",
        "home_address": "blk",
        "f": "blk",
        "name_of_ship": "pandora",
        "ship_port": "aberystwyth",
        "date_leaving": "continued",
        "joined_ship_date": "blk",
        "joined_at_port": "blk",
        "capacity": "ordinary seaman",
        "date_left": "blk",
        "left_port": "blk",
        "cause_of_leaving": "remains on board",
        "sign_with_mark": "n",
        "notes": "blk"
    },
    {
        "id": "vtls004938101_0_13",
        "type": "sailor",
        "parent": "vtls004938101",
        "name": "david evans",
        "dob": "blk",
        "age": "30",
        "place_of_birth": "aberporth",
        "home_address": "blk",
        "f": "blk",
        "name_of_ship": "pandora",
        "ship_port": "aberystwyth",
        "date_leaving": "continued",
        "joined_ship_date": "blk",
        "joined_at_port": "blk",
        "capacity": "able seaman",
        "date_left": "1869-06-26",
        "left_port": "munster",
        "cause_of_leaving": "discharged",
        "sign_with_mark": "n",
        "notes": "blk"
    },
    {
        "id": "vtls004938101_0_12",
        "type": "sailor",
        "parent": "vtls004938101",
        "name": "thomas evans",
        "dob": "blk",
        "age": "30",
        "place_of_birth": "aberporth",
        "home_address": "blk",
        "f": "blk",
        "name_of_ship": "pandora",
        "ship_port": "aberystwyth",
        "date_leaving": "continued",
        "joined_ship_date": "blk",
        "joined_at_port": "blk",
        "capacity": "mate",
        "date_left": "1869-06-26",
        "left_port": "munster",
        "cause_of_leaving": "discharged",
        "sign_with_mark": "n",
        "notes": "blk"
    },
    {
        "id": "vtls004938101_0_11",
        "type": "sailor",
        "parent": "vtls004938101",
        "name": "john richards",
        "dob": "blk",
        "age": "56",
        "place_of_birth": "llanrhystud",
        "home_address": "blk",
        "f": "blk",
        "name_of_ship": "pandora",
        "ship_port": "aberystwyth",
        "date_leaving": "continued",
        "joined_ship_date": "blk",
        "joined_at_port": "blk",
        "capacity": "master",
        "date_left": "blk",
        "left_port": "blk",
        "cause_of_leaving": "remains on board",
        "sign_with_mark": "n",
        "notes": "blk"
    },
    {
        "id": "vtls004938101_0_15",
        "type": "sailor",
        "parent": "vtls004938101",
        "name": "john richards",
        "dob": "blk",
        "age": "13",
        "place_of_birth": "llanrhystud",
        "home_address": "blk",
        "f": "blk",
        "name_of_ship": "first time",
        "ship_port": "blk",
        "date_leaving": "blk",
        "joined_ship_date": "1869-01-10",
        "joined_at_port": "garston",
        "capacity": "boy",
        "date_left": "blk",
        "left_port": "blk",
        "cause_of_leaving": "remains on board",
        "sign_with_mark": "n",
        "notes": "blk"
    }
]