[
    {
        "id": "vtls004587965_0_11",
        "type": "sailor",
        "parent": "vtls004587965",
        "name": "john jones",
        "dob": "blk",
        "age": "28",
        "place_of_birth": "aberdovey",
        "home_address": "llanrhystid",
        "f": "llanrhystid",
        "name_of_ship": "adoram",
        "ship_port": "aberystwyth",
        "date_leaving": "remains",
        "joined_ship_date": "blk",
        "joined_at_port": "blk",
        "capacity": "master",
        "date_left": "blk",
        "left_port": "blk",
        "cause_of_leaving": "remains on board",
        "sign_with_mark": "n",
        "notes": "blk"
    },
    {
        "id": "vtls004587965_1_12",
        "type": "sailor",
        "parent": "vtls004587965",
        "name": "stephen davies",
        "dob": "blk",
        "age": "46",
        "place_of_birth": "llanon",
        "home_address": "blk",
        "f": "blk",
        "name_of_ship": "same ship",
        "ship_port": "aberystwyth",
        "date_leaving": "1862-11-03",
        "joined_ship_date": "1863-07",
        "joined_at_port": "middlesbrough",
        "capacity": "mate",
        "date_left": "1863-11-03",
        "left_port": "dublin",
        "cause_of_leaving": "discharged",
        "sign_with_mark": "n",
        "notes": "states the date of joining as july 1862"
    },
    {
        "id": "vtls004587965_1_13",
        "type": "sailor",
        "parent": "vtls004587965",
        "name": "richard rowlands",
        "dob": "blk",
        "age": "30",
        "place_of_birth": "aberystwyth",
        "home_address": "blk",
        "f": "blk",
        "name_of_ship": "glynaeron",
        "ship_port": "aberystwyth",
        "date_leaving": "1863-02",
        "joined_ship_date": "1863-07",
        "joined_at_port": "middlesbrough",
        "capacity": "able seaman",
        "date_left": "1863-11-03",
        "left_port": "dublin",
        "cause_of_leaving": "went as mate",
        "sign_with_mark": "n",
        "notes": "blk"
    },
    {
        "id": "vtls004587965_0_14",
        "type": "sailor",
        "parent": "vtls004587965",
        "name": "matthew nott",
        "dob": "blk",
        "age": "19",
        "place_of_birth": "newport",
        "home_address": "blk",
        "f": "blk",
        "name_of_ship": "eliza francis",
        "ship_port": "aberystwyth",
        "date_leaving": "1863-01-20",
        "joined_ship_date": "1863-02-02",
        "joined_at_port": "newport",
        "capacity": "ordinary seaman",
        "date_left": "1863-05-17",
        "left_port": "cardiff",
        "cause_of_leaving": "discharged",
        "sign_with_mark": "n",
        "notes": "blk"
    },
    {
        "id": "vtls004587965_0_17",
        "type": "sailor",
        "parent": "vtls004587965",
        "name": "george emery",
        "dob": "blk",
        "age": "21",
        "place_of_birth": "bristol",
        "home_address": "blk",
        "f": "blk",
        "name_of_ship": "red rover",
        "ship_port": "whitehaven",
        "date_leaving": "1863-05-15",
        "joined_ship_date": "1863-05-22",
        "joined_at_port": "cardiff",
        "capacity": "ordinary seaman",
        "date_left": "blk",
        "left_port": "blk",
        "cause_of_leaving": "remains on board",
        "sign_with_mark": "n",
        "notes": "blk"
    },
    {
        "id": "vtls004587965_0_16",
        "type": "sailor",
        "parent": "vtls004587965",
        "name": "david d davies",
        "dob": "blk",
        "age": "22",
        "place_of_birth": "cardigan",
        "home_address": "blk",
        "f": "blk",
        "name_of_ship": "lord stanley",
        "ship_port": "beaumaris",
        "date_leaving": "1863-04-07",
        "joined_ship_date": "1863-05-22",
        "joined_at_port": "cardiff",
        "capacity": "able seaman",
        "date_left": "blk",
        "left_port": "blk",
        "cause_of_leaving": "remains on board",
        "sign_with_mark": "n",
        "notes": "blk"
    },
    {
        "id": "vtls004587965_0_13",
        "type": "sailor",
        "parent": "vtls004587965",
        "name": "timothy $earns",
        "dob": "blk",
        "age": "32",
        "place_of_birth": "cardiganshire",
        "home_address": "blk",
        "f": "blk",
        "name_of_ship": "adoram",
        "ship_port": "aberystwyth",
        "date_leaving": "continued",
        "joined_ship_date": "blk",
        "joined_at_port": "blk",
        "capacity": "able seaman",
        "date_left": "1863-05-17",
        "left_port": "cardiff",
        "cause_of_leaving": "discharged",
        "sign_with_mark": "n",
        "notes": "blk"
    },
    {
        "id": "vtls004587965_1_14",
        "type": "sailor",
        "parent": "vtls004587965",
        "name": "richard rowlands",
        "dob": "blk",
        "age": "30",
        "place_of_birth": "aberystwyth",
        "home_address": "blk",
        "f": "blk",
        "name_of_ship": "adoram",
        "ship_port": "aberystwyth",
        "date_leaving": "1863-11-03",
        "joined_ship_date": "1863-11-03",
        "joined_at_port": "dublin",
        "capacity": "mate",
        "date_left": "remained",
        "left_port": "blk",
        "cause_of_leaving": "remains on board",
        "sign_with_mark": "n",
        "notes": "blk"
    },
    {
        "id": "vtls004587965_1_11",
        "type": "sailor",
        "parent": "vtls004587965",
        "name": "john jones",
        "dob": "blk",
        "age": "29",
        "place_of_birth": "llanrhystud",
        "home_address": "blk",
        "f": "blk",
        "name_of_ship": "same ship",
        "ship_port": "aberystwyth",
        "date_leaving": "remained",
        "joined_ship_date": "1862-10",
        "joined_at_port": "aberystwyth",
        "capacity": "master",
        "date_left": "blk",
        "left_port": "blk",
        "cause_of_leaving": "remains on board",
        "sign_with_mark": "n",
        "notes": "blk"
    },
    {
        "id": "vtls004587965_0_15",
        "type": "sailor",
        "parent": "vtls004587965",
        "name": "daniel jones",
        "dob": "blk",
        "age": "19",
        "place_of_birth": "aberdovey",
        "home_address": "blk",
        "f": "blk",
        "name_of_ship": "adoram",
        "ship_port": "aberystwyth",
        "date_leaving": "not discharged",
        "joined_ship_date": "blk",
        "joined_at_port": "blk",
        "capacity": "boy",
        "date_left": "1863-05-10",
        "left_port": "cardiff",
        "cause_of_leaving": "discharged",
        "sign_with_mark": "n",
        "notes": "blk"
    },
    {
        "id": "vtls004587965_0_12",
        "type": "sailor",
        "parent": "vtls004587965",
        "name": "stephen davies",
        "dob": "blk",
        "age": "45",
        "place_of_birth": "cardiganshire",
        "home_address": "blk",
        "f": "blk",
        "name_of_ship": "adoram",
        "ship_port": "aberystwyth",
        "date_leaving": "remains",
        "joined_ship_date": "blk",
        "joined_at_port": "blk",
        "capacity": "mate",
        "date_left": "blk",
        "left_port": "blk",
        "cause_of_leaving": "remains on board",
        "sign_with_mark": "n",
        "notes": "blk"
    },
    {
        "id": "vtls004587965_1_16",
        "type": "sailor",
        "parent": "vtls004587965",
        "name": "charles elsworth",
        "dob": "blk",
        "age": "22",
        "place_of_birth": "washington",
        "home_address": "blk",
        "f": "blk",
        "name_of_ship": "jameson",
        "ship_port": "liverpool",
        "date_leaving": "1863-11-10",
        "joined_ship_date": "1863-11-16",
        "joined_at_port": "whitehaven",
        "capacity": "able seaman",
        "date_left": "1863-12-26",
        "left_port": "cardiff",
        "cause_of_leaving": "discharged",
        "sign_with_mark": "n",
        "notes": "blk"
    },
    {
        "id": "vtls004587972_0_13",
        "type": "sailor",
        "parent": "vtls004587972",
        "name": "daniel parry",
        "dob": "blk",
        "age": "33",
        "place_of_birth": "llanon, cardigan",
        "home_address": "blk",
        "f": "blk",
        "name_of_ship": "eigen",
        "ship_port": "aberystwyth",
        "date_leaving": "1864-01-09",
        "joined_ship_date": "1864-01-18",
        "joined_at_port": "cardiff",
        "capacity": "able seaman",
        "date_left": "1864-05-11",
        "left_port": "runcorn",
        "cause_of_leaving": "discharged",
        "sign_with_mark": "n",
        "notes": "blk"
    },
    {
        "id": "vtls004587965_1_15",
        "type": "sailor",
        "parent": "vtls004587965",
        "name": "david d davies",
        "dob": "blk",
        "age": "18",
        "place_of_birth": "llanon",
        "home_address": "blk",
        "f": "blk",
        "name_of_ship": "friends",
        "ship_port": "aberystwyth",
        "date_leaving": "1863-03",
        "joined_ship_date": "1863-07",
        "joined_at_port": "middlesbrough",
        "capacity": "ordinary seaman",
        "date_left": "1863-12-29",
        "left_port": "cardiff",
        "cause_of_leaving": "discharged",
        "sign_with_mark": "n",
        "notes": "blk"
    },
    {
        "id": "vtls004587972_0_11",
        "type": "sailor",
        "parent": "vtls004587972",
        "name": "john jones",
        "dob": "blk",
        "age": "29",
        "place_of_birth": "llanrhystud, cardiganshire",
        "home_address": "llanrhystyd, cardigan",
        "f": "llanrhystyd, cardigan",
        "name_of_ship": "adoram",
        "ship_port": "aberystwyth",
        "date_leaving": "remains",
        "joined_ship_date": "1862-10-27",
        "joined_at_port": "aberystwyth",
        "capacity": "master",
        "date_left": "remains",
        "left_port": "blk",
        "cause_of_leaving": "blk",
        "sign_with_mark": "n",
        "notes": "blk"
    },
    {
        "id": "vtls004587972_0_15",
        "type": "sailor",
        "parent": "vtls004587972",
        "name": "thomas jones",
        "dob": "blk",
        "age": "18",
        "place_of_birth": "st davids pembrokeshire",
        "home_address": "blk",
        "f": "blk",
        "name_of_ship": "union",
        "ship_port": "newport",
        "date_leaving": "1864-03-03",
        "joined_ship_date": "1864-03-09",
        "joined_at_port": "newport",
        "capacity": "boy",
        "date_left": "7-jul",
        "left_port": "newport",
        "cause_of_leaving": "discharged",
        "sign_with_mark": "n",
        "notes": "blk"
    },
    {
        "id": "vtls004587972_0_12",
        "type": "sailor",
        "parent": "vtls004587972",
        "name": "richard rowlands",
        "dob": "blk",
        "age": "31",
        "place_of_birth": "aberystwyth",
        "home_address": "blk",
        "f": "blk",
        "name_of_ship": "adoram",
        "ship_port": "aberystwyth",
        "date_leaving": "remains",
        "joined_ship_date": "1864-01-01",
        "joined_at_port": "cardiff",
        "capacity": "mate",
        "date_left": "remains",
        "left_port": "blk",
        "cause_of_leaving": "blk",
        "sign_with_mark": "n",
        "notes": "blk"
    },
    {
        "id": "vtls004587972_0_14",
        "type": "sailor",
        "parent": "vtls004587972",
        "name": "john davies",
        "dob": "blk",
        "age": "19",
        "place_of_birth": "blk, cardigan",
        "home_address": "blk",
        "f": "blk",
        "name_of_ship": "union",
        "ship_port": "newport",
        "date_leaving": "1864-03-03",
        "joined_ship_date": "1864-03-09",
        "joined_at_port": "newport",
        "capacity": "boy",
        "date_left": "1864-03",
        "left_port": "newport",
        "cause_of_leaving": "discharged",
        "sign_with_mark": "n",
        "notes": "blk"
    },
    {
        "id": "vtls004587972_1_13",
        "type": "sailor",
        "parent": "vtls004587972",
        "name": "samuel thomas",
        "dob": "blk",
        "age": "21",
        "place_of_birth": "pembroke",
        "home_address": "blk",
        "f": "blk",
        "name_of_ship": "adoram",
        "ship_port": "aberystwyth",
        "date_leaving": "blk",
        "joined_ship_date": "1864-07-01",
        "joined_at_port": "cardiff",
        "capacity": "ordinary seaman",
        "date_left": "1864-10-$",
        "left_port": "cardiff",
        "cause_of_leaving": "paid off",
        "sign_with_mark": "n",
        "notes": "blk"
    },
    {
        "id": "vtls004587972_0_16",
        "type": "sailor",
        "parent": "vtls004587972",
        "name": "dan jones",
        "dob": "blk",
        "age": "20",
        "place_of_birth": "aberaeron",
        "home_address": "blk",
        "f": "blk",
        "name_of_ship": "mystery",
        "ship_port": "swansea",
        "date_leaving": "1864-01-04",
        "joined_ship_date": "1864-03-12",
        "joined_at_port": "cardiff",
        "capacity": "ordinary seaman",
        "date_left": "remains",
        "left_port": "blk",
        "cause_of_leaving": "blk",
        "sign_with_mark": "n",
        "notes": "blk"
    },
    {
        "id": "vtls004587972_0_17",
        "type": "sailor",
        "parent": "vtls004587972",
        "name": "samuel thomas",
        "dob": "blk",
        "age": "21",
        "place_of_birth": "fishguard",
        "home_address": "blk",
        "f": "blk",
        "name_of_ship": "e. edwards",
        "ship_port": "aberystwyth",
        "date_leaving": "1864-05-04",
        "joined_ship_date": "1864-05-04",
        "joined_at_port": "runcorn",
        "capacity": "able seaman",
        "date_left": "remains",
        "left_port": "blk",
        "cause_of_leaving": "blk",
        "sign_with_mark": "n",
        "notes": "blk"
    },
    {
        "id": "vtls004587972_1_14",
        "type": "sailor",
        "parent": "vtls004587972",
        "name": "daniel jones",
        "dob": "blk",
        "age": "21",
        "place_of_birth": "aberaeron",
        "home_address": "blk",
        "f": "blk",
        "name_of_ship": "adoram",
        "ship_port": "aberystwyth",
        "date_leaving": "blk",
        "joined_ship_date": "1864-07-01",
        "joined_at_port": "cardiff",
        "capacity": "ordinary seaman",
        "date_left": "remains",
        "left_port": "blk",
        "cause_of_leaving": "blk",
        "sign_with_mark": "n",
        "notes": "blk"
    },
    {
        "id": "vtls004587990_0_12",
        "type": "sailor",
        "parent": "vtls004587990",
        "name": "griffith jones",
        "dob": "blk",
        "age": "25",
        "place_of_birth": "aberaeron",
        "home_address": "blk",
        "f": "blk",
        "name_of_ship": "same ship",
        "ship_port": "aberystwyth",
        "date_leaving": "blk",
        "joined_ship_date": "blk",
        "joined_at_port": "blk",
        "capacity": "mate",
        "date_left": "1866-04-11",
        "left_port": "glasgow",
        "cause_of_leaving": "discharged",
        "sign_with_mark": "n",
        "notes": "blk"
    },
    {
        "id": "vtls004587972_1_11",
        "type": "sailor",
        "parent": "vtls004587972",
        "name": "john jones",
        "dob": "blk",
        "age": "30",
        "place_of_birth": "cardigan",
        "home_address": "aberystwyth",
        "f": "aberystwyth",
        "name_of_ship": "adoram",
        "ship_port": "aberystwyth",
        "date_leaving": "blk",
        "joined_ship_date": "1864-07-01",
        "joined_at_port": "cardiff",
        "capacity": "master",
        "date_left": "remains",
        "left_port": "blk",
        "cause_of_leaving": "blk",
        "sign_with_mark": "n",
        "notes": "blk"
    },
    {
        "id": "vtls004587972_1_15",
        "type": "sailor",
        "parent": "vtls004587972",
        "name": "thomas davis",
        "dob": "blk",
        "age": "32",
        "place_of_birth": "aberaeron",
        "home_address": "blk",
        "f": "blk",
        "name_of_ship": "gambi$",
        "ship_port": "blk",
        "date_leaving": "1864-10-15",
        "joined_ship_date": "1864-10-27",
        "joined_at_port": "cardiff",
        "capacity": "able seaman",
        "date_left": "remains",
        "left_port": "blk",
        "cause_of_leaving": "blk",
        "sign_with_mark": "n",
        "notes": "blk"
    },
    {
        "id": "vtls004587972_1_12",
        "type": "sailor",
        "parent": "vtls004587972",
        "name": "richard rowlands",
        "dob": "blk",
        "age": "31",
        "place_of_birth": "aberystwyth",
        "home_address": "blk",
        "f": "blk",
        "name_of_ship": "adoram",
        "ship_port": "aberystwyth",
        "date_leaving": "blk",
        "joined_ship_date": "1864-07-01",
        "joined_at_port": "cardiff",
        "capacity": "mate",
        "date_left": "remains",
        "left_port": "blk",
        "cause_of_leaving": "blk",
        "sign_with_mark": "n",
        "notes": "blk"
    },
    {
        "id": "vtls004587990_0_11",
        "type": "sailor",
        "parent": "vtls004587990",
        "name": "john jones",
        "dob": "blk",
        "age": "32",
        "place_of_birth": "llanrhystud",
        "home_address": "llanrhystyd",
        "f": "llanrhystyd",
        "name_of_ship": "same ship",
        "ship_port": "aberystwyth",
        "date_leaving": "blk",
        "joined_ship_date": "blk",
        "joined_at_port": "blk",
        "capacity": "master",
        "date_left": "remains",
        "left_port": "blk",
        "cause_of_leaving": "blk",
        "sign_with_mark": "n",
        "notes": "blk"
    },
    {
        "id": "vtls004587990_0_17",
        "type": "sailor",
        "parent": "vtls004587990",
        "name": "evan thomas",
        "dob": "blk",
        "age": "25",
        "place_of_birth": "cardigan",
        "home_address": "blk",
        "f": "blk",
        "name_of_ship": "dimia",
        "ship_port": "aberystwyth",
        "date_leaving": "1866-04-11",
        "joined_ship_date": "1866-04-11",
        "joined_at_port": "glasgow",
        "capacity": "able seaman",
        "date_left": "blk",
        "left_port": "blk",
        "cause_of_leaving": "remains on board",
        "sign_with_mark": "n",
        "notes": "read last ship served clearly as dimia, but no such ship found on crew list index"
    },
    {
        "id": "vtls004587990_0_16",
        "type": "sailor",
        "parent": "vtls004587990",
        "name": "david d davies",
        "dob": "blk",
        "age": "39",
        "place_of_birth": "cardigan",
        "home_address": "blk",
        "f": "blk",
        "name_of_ship": "$emori",
        "ship_port": "aberystwyth",
        "date_leaving": "1866-04-11",
        "joined_ship_date": "1866-04-11",
        "joined_at_port": "glasgow",
        "capacity": "mate",
        "date_left": "blk",
        "left_port": "blk",
        "cause_of_leaving": "remains on board",
        "sign_with_mark": "blk",
        "notes": "would guess ship last served as 'memori', but no such ship found on crew list index"
    },
    {
        "id": "vtls004587990_1_11",
        "type": "sailor",
        "parent": "vtls004587990",
        "name": "john jones",
        "dob": "blk",
        "age": "51",
        "place_of_birth": "llanrhystud, cardiganshire",
        "home_address": "llanrhystid, cardiganshire",
        "f": "llanrhystid, cardiganshire",
        "name_of_ship": "adoram",
        "ship_port": "aberystwyth",
        "date_leaving": "blk",
        "joined_ship_date": "1866-07-01",
        "joined_at_port": "middlesbrough",
        "capacity": "master",
        "date_left": "blk",
        "left_port": "blk",
        "cause_of_leaving": "remains on board",
        "sign_with_mark": "n",
        "notes": "blk"
    },
    {
        "id": "vtls004587990_1_13",
        "type": "sailor",
        "parent": "vtls004587990",
        "name": "evan thomas",
        "dob": "blk",
        "age": "25",
        "place_of_birth": "cardiganshire",
        "home_address": "blk",
        "f": "blk",
        "name_of_ship": "adoram",
        "ship_port": "aberystwyth",
        "date_leaving": "blk",
        "joined_ship_date": "1866-07-01",
        "joined_at_port": "middlesbrough",
        "capacity": "able seaman",
        "date_left": "blk",
        "left_port": "blk",
        "cause_of_leaving": "remains on board",
        "sign_with_mark": "n",
        "notes": "blk"
    },
    {
        "id": "vtls004587990_1_12",
        "type": "sailor",
        "parent": "vtls004587990",
        "name": "david davis",
        "dob": "blk",
        "age": "39",
        "place_of_birth": "cardiganshire",
        "home_address": "blk",
        "f": "blk",
        "name_of_ship": "adoram",
        "ship_port": "aberystwyth",
        "date_leaving": "blk",
        "joined_ship_date": "1866-07-01",
        "joined_at_port": "middlesbrough",
        "capacity": "mate",
        "date_left": "1866-11-28",
        "left_port": "newport",
        "cause_of_leaving": "paid off",
        "sign_with_mark": "n",
        "notes": "blk"
    },
    {
        "id": "vtls004587990_0_13",
        "type": "sailor",
        "parent": "vtls004587990",
        "name": "david evans",
        "dob": "blk",
        "age": "25",
        "place_of_birth": "aberaeron",
        "home_address": "blk",
        "f": "blk",
        "name_of_ship": "same ship",
        "ship_port": "aberystwyth",
        "date_leaving": "blk",
        "joined_ship_date": "blk",
        "joined_at_port": "blk",
        "capacity": "able seaman",
        "date_left": "1866-04-11",
        "left_port": "glasgow",
        "cause_of_leaving": "discharged",
        "sign_with_mark": "n",
        "notes": "blk"
    },
    {
        "id": "vtls004587990_0_15",
        "type": "sailor",
        "parent": "vtls004587990",
        "name": "thomas wharton",
        "dob": "blk",
        "age": "16",
        "place_of_birth": "liverpool",
        "home_address": "blk",
        "f": "blk",
        "name_of_ship": "same ship",
        "ship_port": "aberystwyth",
        "date_leaving": "blk",
        "joined_ship_date": "blk",
        "joined_at_port": "blk",
        "capacity": "cook",
        "date_left": "blk",
        "left_port": "blk",
        "cause_of_leaving": "remains on board",
        "sign_with_mark": "n",
        "notes": "blk"
    },
    {
        "id": "vtls004587990_0_14",
        "type": "sailor",
        "parent": "vtls004587990",
        "name": "daniel jones",
        "dob": "blk",
        "age": "21",
        "place_of_birth": "aberarth",
        "home_address": "blk",
        "f": "blk",
        "name_of_ship": "same ship",
        "ship_port": "aberystwyth",
        "date_leaving": "blk",
        "joined_ship_date": "blk",
        "joined_at_port": "blk",
        "capacity": "ordinary seaman",
        "date_left": "remains",
        "left_port": "blk",
        "cause_of_leaving": "blk",
        "sign_with_mark": "n",
        "notes": "blk"
    },
    {
        "id": "vtls004587990_1_14",
        "type": "sailor",
        "parent": "vtls004587990",
        "name": "daniel jones",
        "dob": "blk",
        "age": "24",
        "place_of_birth": "cardiganshire",
        "home_address": "blk",
        "f": "blk",
        "name_of_ship": "adoram",
        "ship_port": "aberystwyth",
        "date_leaving": "blk",
        "joined_ship_date": "1866-07-01",
        "joined_at_port": "middlesbrough",
        "capacity": "able seaman",
        "date_left": "1866-08-08",
        "left_port": "swansea",
        "cause_of_leaving": "paid off",
        "sign_with_mark": "n",
        "notes": "blk"
    },
    {
        "id": "vtls004587990_1_18",
        "type": "sailor",
        "parent": "vtls004587990",
        "name": "john morgan",
        "dob": "blk",
        "age": "20",
        "place_of_birth": "newport, mon.",
        "home_address": "blk",
        "f": "blk",
        "name_of_ship": "jeddo s.s.",
        "ship_port": "london",
        "date_leaving": "1866-10-10",
        "joined_ship_date": "1866-12-04",
        "joined_at_port": "newport",
        "capacity": "ordinary seaman",
        "date_left": "blk",
        "left_port": "blk",
        "cause_of_leaving": "remains on board",
        "sign_with_mark": "n",
        "notes": "blk"
    },
    {
        "id": "vtls004587990_1_16",
        "type": "sailor",
        "parent": "vtls004587990",
        "name": "thomas w thomas",
        "dob": "blk",
        "age": "16",
        "place_of_birth": "newport, mon.",
        "home_address": "blk",
        "f": "blk",
        "name_of_ship": "adoram",
        "ship_port": "aberystwyth",
        "date_leaving": "blk",
        "joined_ship_date": "1866-10-22",
        "joined_at_port": "dublin",
        "capacity": "ordinary seaman",
        "date_left": "1866-11-27",
        "left_port": "newport",
        "cause_of_leaving": "paid off",
        "sign_with_mark": "n",
        "notes": "blk"
    },
    {
        "id": "vtls004588098_0_11",
        "type": "sailor",
        "parent": "vtls004588098",
        "name": "evan davies",
        "dob": "blk",
        "age": "57",
        "place_of_birth": "aberystwyth",
        "home_address": "baker street, aberystwyth",
        "f": "baker street, aberystwyth",
        "name_of_ship": "margaret ann",
        "ship_port": "lost",
        "date_leaving": "blk",
        "joined_ship_date": "1869-04-24",
        "joined_at_port": "aberystwyth",
        "capacity": "captain",
        "date_left": "remains",
        "left_port": "blk",
        "cause_of_leaving": "blk",
        "sign_with_mark": "blk",
        "notes": "blk"
    },
    {
        "id": "vtls004587990_1_17",
        "type": "sailor",
        "parent": "vtls004587990",
        "name": "theopulus jones",
        "dob": "blk",
        "age": "37",
        "place_of_birth": "cardigan",
        "home_address": "blk",
        "f": "blk",
        "name_of_ship": "mary ann",
        "ship_port": "aberystwyth",
        "date_leaving": "1866-08-17",
        "joined_ship_date": "1866-11-29",
        "joined_at_port": "newport",
        "capacity": "mate",
        "date_left": "blk",
        "left_port": "blk",
        "cause_of_leaving": "remains on board",
        "sign_with_mark": "n",
        "notes": "blk"
    },
    {
        "id": "vtls004587990_1_15",
        "type": "sailor",
        "parent": "vtls004587990",
        "name": "thomas wharton",
        "dob": "blk",
        "age": "17",
        "place_of_birth": "liverpool",
        "home_address": "blk",
        "f": "blk",
        "name_of_ship": "adoram",
        "ship_port": "aberystwyth",
        "date_leaving": "blk",
        "joined_ship_date": "1866-07-01",
        "joined_at_port": "middlesbrough",
        "capacity": "boy",
        "date_left": "1866-10-31",
        "left_port": "dublin",
        "cause_of_leaving": "paid off",
        "sign_with_mark": "n",
        "notes": "blk"
    },
    {
        "id": "vtls004588098_0_12",
        "type": "sailor",
        "parent": "vtls004588098",
        "name": "david jones",
        "dob": "blk",
        "age": "34",
        "place_of_birth": "aberystwyth",
        "home_address": "blk",
        "f": "blk",
        "name_of_ship": "native",
        "ship_port": "blk",
        "date_leaving": "1869-02-21",
        "joined_ship_date": "1869-04-24",
        "joined_at_port": "aberystwyth",
        "capacity": "mate",
        "date_left": "remains",
        "left_port": "blk",
        "cause_of_leaving": "blk",
        "sign_with_mark": "blk",
        "notes": "blk"
    },
    {
        "id": "vtls004588098_1_11",
        "type": "sailor",
        "parent": "vtls004588098",
        "name": "evan davies",
        "dob": "blk",
        "age": "59",
        "place_of_birth": "aberystwyth",
        "home_address": "baker street, aberystwyth",
        "f": "baker street, aberystwyth",
        "name_of_ship": "adoram",
        "ship_port": "aberystwyth",
        "date_leaving": "remains",
        "joined_ship_date": "1869-07-01",
        "joined_at_port": "middlesbrough",
        "capacity": "captain",
        "date_left": "remains",
        "left_port": "blk",
        "cause_of_leaving": "blk",
        "sign_with_mark": "n",
        "notes": "blk"
    },
    {
        "id": "vtls004588098_1_14",
        "type": "sailor",
        "parent": "vtls004588098",
        "name": "david morgan",
        "dob": "blk",
        "age": "19",
        "place_of_birth": "aberystwyth",
        "home_address": "blk",
        "f": "blk",
        "name_of_ship": "adoram",
        "ship_port": "aberystwyth",
        "date_leaving": "remains",
        "joined_ship_date": "1869-07-01",
        "joined_at_port": "middlesbrough",
        "capacity": "ordinary seaman",
        "date_left": "remains",
        "left_port": "blk",
        "cause_of_leaving": "blk",
        "sign_with_mark": "n",
        "notes": "blk"
    },
    {
        "id": "vtls004588098_0_13",
        "type": "sailor",
        "parent": "vtls004588098",
        "name": "john jones",
        "dob": "blk",
        "age": "20",
        "place_of_birth": "aberystwyth",
        "home_address": "blk",
        "f": "blk",
        "name_of_ship": "fanny fothergill",
        "ship_port": "blk",
        "date_leaving": "1868-12-27",
        "joined_ship_date": "1869-04-24",
        "joined_at_port": "aberystwyth",
        "capacity": "able seaman",
        "date_left": "remains",
        "left_port": "blk",
        "cause_of_leaving": "blk",
        "sign_with_mark": "blk",
        "notes": "blk"
    },
    {
        "id": "vtls004588098_1_13",
        "type": "sailor",
        "parent": "vtls004588098",
        "name": "john jones",
        "dob": "blk",
        "age": "20",
        "place_of_birth": "aberystwyth",
        "home_address": "blk",
        "f": "blk",
        "name_of_ship": "adoram",
        "ship_port": "aberystwyth",
        "date_leaving": "remains",
        "joined_ship_date": "1869-07-01",
        "joined_at_port": "middlesbrough",
        "capacity": "able seaman",
        "date_left": "remains",
        "left_port": "blk",
        "cause_of_leaving": "blk",
        "sign_with_mark": "n",
        "notes": "blk"
    },
    {
        "id": "vtls004588098_0_14",
        "type": "sailor",
        "parent": "vtls004588098",
        "name": "david morgan",
        "dob": "blk",
        "age": "17",
        "place_of_birth": "aberystwyth",
        "home_address": "blk",
        "f": "blk",
        "name_of_ship": "meridian",
        "ship_port": "blk",
        "date_leaving": "1869-04-01",
        "joined_ship_date": "1869-04-24",
        "joined_at_port": "aberystwyth",
        "capacity": "able seaman",
        "date_left": "remains",
        "left_port": "blk",
        "cause_of_leaving": "blk",
        "sign_with_mark": "blk",
        "notes": "blk"
    },
    {
        "id": "vtls004588098_1_12",
        "type": "sailor",
        "parent": "vtls004588098",
        "name": "david jones",
        "dob": "blk",
        "age": "24",
        "place_of_birth": "aberystwyth",
        "home_address": "blk",
        "f": "blk",
        "name_of_ship": "adoram",
        "ship_port": "aberystwyth",
        "date_leaving": "remains",
        "joined_ship_date": "1869-07-01",
        "joined_at_port": "middlesbrough",
        "capacity": "mate",
        "date_left": "remains",
        "left_port": "blk",
        "cause_of_leaving": "blk",
        "sign_with_mark": "n",
        "notes": "blk"
    },
    {
        "id": "vtls004588098_1_15",
        "type": "sailor",
        "parent": "vtls004588098",
        "name": "thomas jones",
        "dob": "blk",
        "age": "18",
        "place_of_birth": "aberystwyth",
        "home_address": "blk",
        "f": "blk",
        "name_of_ship": "adoram",
        "ship_port": "aberystwyth",
        "date_leaving": "remains",
        "joined_ship_date": "1869-07-01",
        "joined_at_port": "middlesbrough",
        "capacity": "boy",
        "date_left": "remains",
        "left_port": "blk",
        "cause_of_leaving": "blk",
        "sign_with_mark": "n",
        "notes": "blk"
    },
    {
        "id": "vtls004588098_0_15",
        "type": "sailor",
        "parent": "vtls004588098",
        "name": "thomas jones",
        "dob": "blk",
        "age": "17",
        "place_of_birth": "aberystwyth",
        "home_address": "blk",
        "f": "blk",
        "name_of_ship": "clarissa",
        "ship_port": "blk",
        "date_leaving": "1869-03-12",
        "joined_ship_date": "1869-04-24",
        "joined_at_port": "aberystwyth",
        "capacity": "boy",
        "date_left": "remains",
        "left_port": "blk",
        "cause_of_leaving": "blk",
        "sign_with_mark": "blk",
        "notes": "blk"
    },
    {
        "id": "vtls004588101_0_14",
        "type": "sailor",
        "parent": "vtls004588101",
        "name": "thomas jones",
        "dob": "blk",
        "age": "18",
        "place_of_birth": "aberystwyth",
        "home_address": "blk",
        "f": "blk",
        "name_of_ship": "same ship",
        "ship_port": "aberystwyth",
        "date_leaving": "still remaining",
        "joined_ship_date": "1870-01-04",
        "joined_at_port": "portmadoc",
        "capacity": "ordinary seaman",
        "date_left": "still remaining",
        "left_port": "blk",
        "cause_of_leaving": "blk",
        "sign_with_mark": "n",
        "notes": "he made his mark in the 'agreement for home trade ship' document of the same period"
    },
    {
        "id": "vtls004588101_1_14",
        "type": "sailor",
        "parent": "vtls004588101",
        "name": "thomas jones",
        "dob": "blk",
        "age": "18",
        "place_of_birth": "aberystwyth",
        "home_address": "blk",
        "f": "blk",
        "name_of_ship": "adoram",
        "ship_port": "aberystwyth",
        "date_leaving": "blk",
        "joined_ship_date": "1870-01-04",
        "joined_at_port": "porthmadog",
        "capacity": "ordinary seaman",
        "date_left": "still on board",
        "left_port": "blk",
        "cause_of_leaving": "blk",
        "sign_with_mark": "n",
        "notes": "in previous 'agreement for home trade ship' document, he put his x"
    },
    {
        "id": "vtls004588101_0_12",
        "type": "sailor",
        "parent": "vtls004588101",
        "name": "david jones",
        "dob": "blk",
        "age": "35",
        "place_of_birth": "aberystwyth",
        "home_address": "blk",
        "f": "blk",
        "name_of_ship": "same ship",
        "ship_port": "aberystwyth",
        "date_leaving": "still remaining",
        "joined_ship_date": "1870-01-04",
        "joined_at_port": "portmadoc",
        "capacity": "mate",
        "date_left": "still remaining",
        "left_port": "blk",
        "cause_of_leaving": "blk",
        "sign_with_mark": "n",
        "notes": "port maddoc is more than likely to be porthmadog, n. wales"
    },
    {
        "id": "vtls004588101_0_11",
        "type": "sailor",
        "parent": "vtls004588101",
        "name": "evan davies",
        "dob": "blk",
        "age": "59",
        "place_of_birth": "aberystwyth",
        "home_address": "baker street, aberystwyth",
        "f": "baker street, aberystwyth",
        "name_of_ship": "same ship",
        "ship_port": "aberystwyth",
        "date_leaving": "still remaining",
        "joined_ship_date": "1869-02-04",
        "joined_at_port": "aberystwyth",
        "capacity": "captain",
        "date_left": "still remaining",
        "left_port": "blk",
        "cause_of_leaving": "blk",
        "sign_with_mark": "n",
        "notes": "blk"
    },
    {
        "id": "vtls004588101_0_13",
        "type": "sailor",
        "parent": "vtls004588101",
        "name": "john jones",
        "dob": "blk",
        "age": "20",
        "place_of_birth": "aberystwyth",
        "home_address": "blk",
        "f": "blk",
        "name_of_ship": "same ship",
        "ship_port": "aberystwyth",
        "date_leaving": "still remaining",
        "joined_ship_date": "1870-01-04",
        "joined_at_port": "portmadoc",
        "capacity": "able seaman",
        "date_left": "still remaining",
        "left_port": "blk",
        "cause_of_leaving": "blk",
        "sign_with_mark": "n",
        "notes": "blk"
    },
    {
        "id": "vtls004588101_1_15",
        "type": "sailor",
        "parent": "vtls004588101",
        "name": "james hughes",
        "dob": "blk",
        "age": "41",
        "place_of_birth": "aberystwyth",
        "home_address": "blk",
        "f": "blk",
        "name_of_ship": "colorado s.s.",
        "ship_port": "liverpool",
        "date_leaving": "1870-08-01",
        "joined_ship_date": "1870-08-04",
        "joined_at_port": "liverpool",
        "capacity": "seaman",
        "date_left": "still on board",
        "left_port": "blk",
        "cause_of_leaving": "blk",
        "sign_with_mark": "n",
        "notes": "blk"
    },
    {
        "id": "vtls004588101_1_11",
        "type": "sailor",
        "parent": "vtls004588101",
        "name": "evan davies",
        "dob": "blk",
        "age": "59",
        "place_of_birth": "aberystwyth",
        "home_address": "baker street, aberystwyth",
        "f": "baker street, aberystwyth",
        "name_of_ship": "adoram",
        "ship_port": "aberystwyth",
        "date_leaving": "remains",
        "joined_ship_date": "blk",
        "joined_at_port": "blk",
        "capacity": "master",
        "date_left": "still on board",
        "left_port": "blk",
        "cause_of_leaving": "blk",
        "sign_with_mark": "n",
        "notes": "blk"
    },
    {
        "id": "vtls004588101_1_13",
        "type": "sailor",
        "parent": "vtls004588101",
        "name": "john jones",
        "dob": "blk",
        "age": "20",
        "place_of_birth": "aberystwyth",
        "home_address": "blk",
        "f": "blk",
        "name_of_ship": "adoram",
        "ship_port": "aberystwyth",
        "date_leaving": "blk",
        "joined_ship_date": "1870-01-04",
        "joined_at_port": "porthmadog",
        "capacity": "seaman",
        "date_left": "1870-08-28",
        "left_port": "runcorn",
        "cause_of_leaving": "blk",
        "sign_with_mark": "n",
        "notes": "blk"
    },
    {
        "id": "vtls004588101_1_12",
        "type": "sailor",
        "parent": "vtls004588101",
        "name": "david jones",
        "dob": "blk",
        "age": "35",
        "place_of_birth": "aberystwyth",
        "home_address": "blk",
        "f": "blk",
        "name_of_ship": "adoram",
        "ship_port": "aberystwyth",
        "date_leaving": "blk",
        "joined_ship_date": "1870-01-04",
        "joined_at_port": "porthmadog",
        "capacity": "mate",
        "date_left": "1870-12-17",
        "left_port": "bangor",
        "cause_of_leaving": "blk",
        "sign_with_mark": "n",
        "notes": "blk"
    },
    {
        "id": "vtls004588147_0_11",
        "type": "sailor",
        "parent": "vtls004588147",
        "name": "evan davies",
        "dob": "blk",
        "age": "60",
        "place_of_birth": "aberystwyth",
        "home_address": "baker street, aberystwyth",
        "f": "baker street, aberystwyth",
        "name_of_ship": "this ship",
        "ship_port": "aberystwyth",
        "date_leaving": "1870-12-31",
        "joined_ship_date": "1871-01-01",
        "joined_at_port": "bangor",
        "capacity": "master",
        "date_left": "blk",
        "left_port": "blk",
        "cause_of_leaving": "remains in charge",
        "sign_with_mark": "n",
        "notes": "blk"
    },
    {
        "id": "vtls004588147_0_14",
        "type": "sailor",
        "parent": "vtls004588147",
        "name": "thomas jones",
        "dob": "blk",
        "age": "18",
        "place_of_birth": "aberystwyth",
        "home_address": "blk",
        "f": "blk",
        "name_of_ship": "this ship",
        "ship_port": "aberystwyth",
        "date_leaving": "1870-12-31",
        "joined_ship_date": "1871-01-01",
        "joined_at_port": "bangor",
        "capacity": "ordinary seaman",
        "date_left": "blk",
        "left_port": "blk",
        "cause_of_leaving": "remains in pay",
        "sign_with_mark": "n",
        "notes": "blk"
    },
    {
        "id": "vtls004588147_0_13",
        "type": "sailor",
        "parent": "vtls004588147",
        "name": "john jones",
        "dob": "blk",
        "age": "52",
        "place_of_birth": "aberystwyth",
        "home_address": "blk",
        "f": "blk",
        "name_of_ship": "forest queen",
        "ship_port": "blk",
        "date_leaving": "1870-11-27",
        "joined_ship_date": "1871-01-04",
        "joined_at_port": "bangor",
        "capacity": "able seaman",
        "date_left": "1871-04-04",
        "left_port": "dublin",
        "cause_of_leaving": "paid off",
        "sign_with_mark": "n",
        "notes": "blk"
    },
    {
        "id": "vtls004588147_0_15",
        "type": "sailor",
        "parent": "vtls004588147",
        "name": "carl roh$",
        "dob": "blk",
        "age": "27",
        "place_of_birth": "holstein",
        "home_address": "blk",
        "f": "blk",
        "name_of_ship": "[dougald stuart]",
        "ship_port": "blk",
        "date_leaving": "1871-02-10",
        "joined_ship_date": "1871-02-19",
        "joined_at_port": "london",
        "capacity": "able seaman",
        "date_left": "blk",
        "left_port": "blk",
        "cause_of_leaving": "remains in pay",
        "sign_with_mark": "n",
        "notes": "blk"
    },
    {
        "id": "vtls004588147_0_12",
        "type": "sailor",
        "parent": "vtls004588147",
        "name": "james hughes",
        "dob": "blk",
        "age": "42",
        "place_of_birth": "aberystwyth",
        "home_address": "blk",
        "f": "blk",
        "name_of_ship": "this ship",
        "ship_port": "aberystwyth",
        "date_leaving": "1870-12-31",
        "joined_ship_date": "1871-01-01",
        "joined_at_port": "bangor",
        "capacity": "mate",
        "date_left": "blk",
        "left_port": "blk",
        "cause_of_leaving": "remains in pay",
        "sign_with_mark": "n",
        "notes": "blk"
    },
    {
        "id": "vtls004588147_1_11",
        "type": "sailor",
        "parent": "vtls004588147",
        "name": "evan davies",
        "dob": "blk",
        "age": "60",
        "place_of_birth": "aberystwyth",
        "home_address": "16, baker street, aberystwyth",
        "f": "16, baker street, aberystwyth",
        "name_of_ship": "same ship",
        "ship_port": "blk",
        "date_leaving": "blk",
        "joined_ship_date": "blk",
        "joined_at_port": "blk",
        "capacity": "master",
        "date_left": "blk",
        "left_port": "blk",
        "cause_of_leaving": "remains",
        "sign_with_mark": "n",
        "notes": "blk"
    },
    {
        "id": "vtls004588147_0_16",
        "type": "sailor",
        "parent": "vtls004588147",
        "name": "william bissett",
        "dob": "blk",
        "age": "12",
        "place_of_birth": "london",
        "home_address": "blk",
        "f": "blk",
        "name_of_ship": "first ship",
        "ship_port": "blk",
        "date_leaving": "blk",
        "joined_ship_date": "1871-01-04",
        "joined_at_port": "bangor",
        "capacity": "boy",
        "date_left": "blk",
        "left_port": "blk",
        "cause_of_leaving": "remains in pay",
        "sign_with_mark": "n",
        "notes": "blk"
    },
    {
        "id": "vtls004588147_1_12",
        "type": "sailor",
        "parent": "vtls004588147",
        "name": "james hughes",
        "dob": "blk",
        "age": "41",
        "place_of_birth": "aberystwyth",
        "home_address": "blk",
        "f": "blk",
        "name_of_ship": "same ship",
        "ship_port": "blk",
        "date_leaving": "blk",
        "joined_ship_date": "blk",
        "joined_at_port": "blk",
        "capacity": "mate",
        "date_left": "1871-12-15",
        "left_port": "bristol",
        "cause_of_leaving": "discharged",
        "sign_with_mark": "n",
        "notes": "blk"
    },
    {
        "id": "vtls004588154_0_11",
        "type": "sailor",
        "parent": "vtls004588154",
        "name": "evan davies",
        "dob": "blk",
        "age": "62",
        "place_of_birth": "aberystwyth",
        "home_address": "blk",
        "f": "blk",
        "name_of_ship": "continued",
        "ship_port": "aberystwyth",
        "date_leaving": "blk",
        "joined_ship_date": "continued",
        "joined_at_port": "blk",
        "capacity": "master",
        "date_left": "1873-06-30",
        "left_port": "plymouth",
        "cause_of_leaving": "remains on board",
        "sign_with_mark": "n",
        "notes": "although he's down as leaving in plymouth, he remains on ship"
    },
    {
        "id": "vtls004588147_1_15",
        "type": "sailor",
        "parent": "vtls004588147",
        "name": "william williams",
        "dob": "blk",
        "age": "17",
        "place_of_birth": "llanfihangel",
        "home_address": "blk",
        "f": "blk",
        "name_of_ship": "volunteer",
        "ship_port": "blki",
        "date_leaving": "1871-08-09",
        "joined_ship_date": "1871-08-09 ",
        "joined_at_port": "newcastle",
        "capacity": "boy",
        "date_left": "1871-10-12",
        "left_port": "runcorn",
        "cause_of_leaving": "discharged",
        "sign_with_mark": "n",
        "notes": "where born written as 'llanhengel'"
    },
    {
        "id": "vtls004588154_0_14",
        "type": "sailor",
        "parent": "vtls004588154",
        "name": "david morgan",
        "dob": "blk",
        "age": "69",
        "place_of_birth": "aberystwyth",
        "home_address": "blk",
        "f": "blk",
        "name_of_ship": "[dovey packet]",
        "ship_port": "aberystwyth",
        "date_leaving": "1872-12-10",
        "joined_ship_date": "continued",
        "joined_at_port": "blk",
        "capacity": "able seaman",
        "date_left": "1873-04-16",
        "left_port": "porthcawl",
        "cause_of_leaving": "discharged",
        "sign_with_mark": "n",
        "notes": "blk"
    },
    {
        "id": "vtls004588147_1_13",
        "type": "sailor",
        "parent": "vtls004588147",
        "name": "william jenkins",
        "dob": "blk",
        "age": "33",
        "place_of_birth": "aberystwyth",
        "home_address": "blk",
        "f": "blk",
        "name_of_ship": "lord willoughby",
        "ship_port": "blk",
        "date_leaving": "blk",
        "joined_ship_date": "1871-10-13",
        "joined_at_port": "runcorn",
        "capacity": "able seaman",
        "date_left": "1871-12-08",
        "left_port": "bristol",
        "cause_of_leaving": "discharged",
        "sign_with_mark": "n",
        "notes": "blk"
    },
    {
        "id": "vtls004588147_1_17",
        "type": "sailor",
        "parent": "vtls004588147",
        "name": "charles thomas",
        "dob": "blk",
        "age": "17",
        "place_of_birth": "aberystwyth",
        "home_address": "blk",
        "f": "blk",
        "name_of_ship": "idea",
        "ship_port": "blk",
        "date_leaving": "1871-10-02",
        "joined_ship_date": "1871-10-02",
        "joined_at_port": "runcorn",
        "capacity": "ordinary seaman",
        "date_left": "1871-12-20",
        "left_port": "newport",
        "cause_of_leaving": "discharged",
        "sign_with_mark": "n",
        "notes": "blk"
    },
    {
        "id": "vtls004588154_0_12",
        "type": "sailor",
        "parent": "vtls004588154",
        "name": "david thomas",
        "dob": "blk",
        "age": "30",
        "place_of_birth": "aberystwyth",
        "home_address": "blk",
        "f": "blk",
        "name_of_ship": "mary [jones]",
        "ship_port": "blk",
        "date_leaving": "1872-08-01",
        "joined_ship_date": "continued",
        "joined_at_port": "blk",
        "capacity": "mate",
        "date_left": "1873-04-16",
        "left_port": "porthcawl",
        "cause_of_leaving": "discharged",
        "sign_with_mark": "n",
        "notes": "blk"
    },
    {
        "id": "vtls004588154_0_13",
        "type": "sailor",
        "parent": "vtls004588154",
        "name": "hugh thomas",
        "dob": "blk",
        "age": "40",
        "place_of_birth": "aberystwyth",
        "home_address": "blk",
        "f": "blk",
        "name_of_ship": "adoram",
        "ship_port": "aberystwyth",
        "date_leaving": "blk",
        "joined_ship_date": "continued",
        "joined_at_port": "blk",
        "capacity": "able seaman",
        "date_left": "1863-04-16",
        "left_port": "porthcawl",
        "cause_of_leaving": "discharged",
        "sign_with_mark": "n",
        "notes": "blk"
    },
    {
        "id": "vtls004588147_1_14",
        "type": "sailor",
        "parent": "vtls004588147",
        "name": "thomas jones",
        "dob": "blk",
        "age": "20",
        "place_of_birth": "llanon",
        "home_address": "blk",
        "f": "blk",
        "name_of_ship": "sarah",
        "ship_port": "blk",
        "date_leaving": "1871-09-06",
        "joined_ship_date": "1871-09-06",
        "joined_at_port": "poole",
        "capacity": "able seaman",
        "date_left": "1871-10-12",
        "left_port": "runcorn",
        "cause_of_leaving": "discharged",
        "sign_with_mark": "n",
        "notes": "blk"
    },
    {
        "id": "vtls004588147_1_16",
        "type": "sailor",
        "parent": "vtls004588147",
        "name": "thomas jones",
        "dob": "blk",
        "age": "19",
        "place_of_birth": "aberystwyth",
        "home_address": "blk",
        "f": "blk",
        "name_of_ship": "same ship",
        "ship_port": "blk",
        "date_leaving": "blk",
        "joined_ship_date": "blk",
        "joined_at_port": "blk",
        "capacity": "ordinary seaman",
        "date_left": "1871-10-12",
        "left_port": "runcorn",
        "cause_of_leaving": "discharged",
        "sign_with_mark": "n",
        "notes": "blk"
    },
    {
        "id": "vtls004588154_0_16",
        "type": "sailor",
        "parent": "vtls004588154",
        "name": "john evans",
        "dob": "blk",
        "age": "34",
        "place_of_birth": "aberystwyth",
        "home_address": "blk",
        "f": "blk",
        "name_of_ship": "bodotria",
        "ship_port": "aberystwyth",
        "date_leaving": "1873-03-10",
        "joined_ship_date": "1873-04-18",
        "joined_at_port": "porthcawl",
        "capacity": "able seaman",
        "date_left": "1873-06-30",
        "left_port": "plymouth",
        "cause_of_leaving": "remains on board",
        "sign_with_mark": "n",
        "notes": "on another document of the same time, john evans' place of birth down as llanon"
    },
    {
        "id": "vtls004588154_1_13",
        "type": "sailor",
        "parent": "vtls004588154",
        "name": "john evans",
        "dob": "blk",
        "age": "40",
        "place_of_birth": "co. cardigan",
        "home_address": "blk",
        "f": "blk",
        "name_of_ship": "adoram",
        "ship_port": "aberystwyth",
        "date_leaving": "1872",
        "joined_ship_date": "1873-07-28",
        "joined_at_port": "plymouth",
        "capacity": "able seaman",
        "date_left": "1873-12-20",
        "left_port": "porthmadog",
        "cause_of_leaving": "paid off",
        "sign_with_mark": "n",
        "notes": "in another document , j.e.'s place of birth down as llanon"
    },
    {
        "id": "vtls004588154_1_14",
        "type": "sailor",
        "parent": "vtls004588154",
        "name": "samuel townsend",
        "dob": "blk",
        "age": "21",
        "place_of_birth": "guernsey",
        "home_address": "blk",
        "f": "blk",
        "name_of_ship": "catherine and mary",
        "ship_port": "aberystwyth",
        "date_leaving": "1872",
        "joined_ship_date": "1873-07-28",
        "joined_at_port": "plymouth",
        "capacity": "ordinary seaman",
        "date_left": "1873-12-20",
        "left_port": "porthmadog",
        "cause_of_leaving": "paid off",
        "sign_with_mark": "n",
        "notes": "blk"
    },
    {
        "id": "vtls004588154_1_15",
        "type": "sailor",
        "parent": "vtls004588154",
        "name": "thomas gilbert",
        "dob": "blk",
        "age": "16",
        "place_of_birth": "lambeth",
        "home_address": "blk",
        "f": "blk",
        "name_of_ship": "[emily] southern",
        "ship_port": "london",
        "date_leaving": "1872-11-01",
        "joined_ship_date": "1873-07-28",
        "joined_at_port": "plymouth",
        "capacity": "ordinary seaman",
        "date_left": "1873-12-20",
        "left_port": "porthmadog",
        "cause_of_leaving": "paid off",
        "sign_with_mark": "n",
        "notes": "blk"
    },
    {
        "id": "vtls004588154_0_17",
        "type": "sailor",
        "parent": "vtls004588154",
        "name": "richard jones",
        "dob": "blk",
        "age": "57",
        "place_of_birth": "aberystwyth",
        "home_address": "blk",
        "f": "blk",
        "name_of_ship": "adoram",
        "ship_port": "aberystwyth",
        "date_leaving": "1873-04-07",
        "joined_ship_date": "1873-06-25",
        "joined_at_port": "liverpool",
        "capacity": "able seaman",
        "date_left": "1873-06-30",
        "left_port": "plymouth",
        "cause_of_leaving": "remains on board",
        "sign_with_mark": "n",
        "notes": "blk"
    },
    {
        "id": "vtls004588154_0_15",
        "type": "sailor",
        "parent": "vtls004588154",
        "name": "david morgan",
        "dob": "blk",
        "age": "37",
        "place_of_birth": "fishguard",
        "home_address": "blk",
        "f": "blk",
        "name_of_ship": "jane bacon",
        "ship_port": "blk",
        "date_leaving": "1873-03-19",
        "joined_ship_date": "1873-04-19",
        "joined_at_port": "porthcawl",
        "capacity": "mate",
        "date_left": "1873-07-23",
        "left_port": "plymouth",
        "cause_of_leaving": "discharged",
        "sign_with_mark": "n",
        "notes": "blk"
    },
    {
        "id": "vtls004588154_1_11",
        "type": "sailor",
        "parent": "vtls004588154",
        "name": "evan davies",
        "dob": "blk",
        "age": "59",
        "place_of_birth": "co. cardigan",
        "home_address": "aberystwytrh",
        "f": "aberystwytrh",
        "name_of_ship": "adoram",
        "ship_port": "aberystwyth",
        "date_leaving": "continue",
        "joined_ship_date": "blk",
        "joined_at_port": "blk",
        "capacity": "master",
        "date_left": "remains",
        "left_port": "blk",
        "cause_of_leaving": "blk",
        "sign_with_mark": "n",
        "notes": "blk"
    },
    {
        "id": "vtls004588154_1_12",
        "type": "sailor",
        "parent": "vtls004588154",
        "name": "richard jones",
        "dob": "blk",
        "age": "50",
        "place_of_birth": "co. cardigan",
        "home_address": "blk",
        "f": "blk",
        "name_of_ship": "adoram",
        "ship_port": "aberystwyth",
        "date_leaving": "continue",
        "joined_ship_date": "blk",
        "joined_at_port": "blk",
        "capacity": "mate",
        "date_left": "remains",
        "left_port": "blk",
        "cause_of_leaving": "blk",
        "sign_with_mark": "n",
        "notes": "blk"
    },
    {
        "id": "vtls004588243_0_11",
        "type": "sailor",
        "parent": "vtls004588243",
        "name": "richard jones",
        "dob": "blk",
        "age": "56",
        "place_of_birth": "aberystwyth",
        "home_address": "shipbuilder's row",
        "f": "shipbuilder's row",
        "name_of_ship": "remained on board",
        "ship_port": "blk",
        "date_leaving": "blk",
        "joined_ship_date": "1873-12-31",
        "joined_at_port": "blk",
        "capacity": "master",
        "date_left": "1874-03-17",
        "left_port": "kingstown",
        "cause_of_leaving": "discharged",
        "sign_with_mark": "n",
        "notes": "vessel was lost on the way to dublin on 17 march 1874 on the [mugline] rock, near kingstown. all crew saved, landed at kingstown and discharged the same day"
    },
    {
        "id": "vtls004588243_0_13",
        "type": "sailor",
        "parent": "vtls004588243",
        "name": "thomas gilbert",
        "dob": "blk",
        "age": "18",
        "place_of_birth": "london",
        "home_address": "blk",
        "f": "blk",
        "name_of_ship": "remained on board",
        "ship_port": "blk",
        "date_leaving": "blk",
        "joined_ship_date": "1873-12-31",
        "joined_at_port": "blk",
        "capacity": "ordinary seaman",
        "date_left": "1874-03-17",
        "left_port": "kingstown",
        "cause_of_leaving": "discharged",
        "sign_with_mark": "n",
        "notes": "blk"
    },
    {
        "id": "vtls004588243_0_12",
        "type": "sailor",
        "parent": "vtls004588243",
        "name": "john jones",
        "dob": "blk",
        "age": "24",
        "place_of_birth": "aberystwyth",
        "home_address": "blk",
        "f": "blk",
        "name_of_ship": "remained on board",
        "ship_port": "blk",
        "date_leaving": "blk",
        "joined_ship_date": "1873-12-31",
        "joined_at_port": "blk",
        "capacity": "mate",
        "date_left": "1874-03-17",
        "left_port": "kingstown",
        "cause_of_leaving": "discharged",
        "sign_with_mark": "n",
        "notes": "blk"
    },
    {
        "id": "vtls004588243_0_14",
        "type": "sailor",
        "parent": "vtls004588243",
        "name": "thomas holly",
        "dob": "blk",
        "age": "17",
        "place_of_birth": "margate",
        "home_address": "blk",
        "f": "blk",
        "name_of_ship": "remained on board",
        "ship_port": "blk",
        "date_leaving": "blk",
        "joined_ship_date": "1873-12-31",
        "joined_at_port": "blk",
        "capacity": "17",
        "date_left": "1874-03-3",
        "left_port": "kingstown",
        "cause_of_leaving": "discharged",
        "sign_with_mark": "n",
        "notes": "blk"
    }
]