[
    {
        "id": "vtls004917104_0_11",
        "type": "sailor",
        "parent": "vtls004917104",
        "name": "evan thomas",
        "dob": "blk",
        "age": "27",
        "place_of_birth": "aberaeron",
        "home_address": "blk",
        "f": "blk",
        "name_of_ship": "mair",
        "ship_port": "aberystwyth",
        "date_leaving": "1863-06-30",
        "joined_ship_date": "1863-07-01",
        "joined_at_port": "kinsale",
        "capacity": "master",
        "date_left": "1863-12-01",
        "left_port": "aberaeron",
        "cause_of_leaving": "remains on board",
        "sign_with_mark": "n",
        "notes": "blk"
    },
    {
        "id": "vtls004917112_0_11",
        "type": "sailor",
        "parent": "vtls004917112",
        "name": "john evans",
        "dob": "blk",
        "age": "22",
        "place_of_birth": "aberaeron",
        "home_address": "blk",
        "f": "blk",
        "name_of_ship": "berlin",
        "ship_port": "aberystwyth",
        "date_leaving": "1863-12-16",
        "joined_ship_date": "1864-03-01",
        "joined_at_port": "aberaeron",
        "capacity": "master",
        "date_left": "1864-06-30",
        "left_port": "aberaeron",
        "cause_of_leaving": "remains on board",
        "sign_with_mark": "n",
        "notes": "the ship is supposed to have started the voyage on 1864-01-01, although the captain and only sailor joins in march"
    },
    {
        "id": "vtls004917104_0_13",
        "type": "sailor",
        "parent": "vtls004917104",
        "name": "evan francis",
        "dob": "blk",
        "age": "17",
        "place_of_birth": "cardigan",
        "home_address": "blk",
        "f": "blk",
        "name_of_ship": "mair",
        "ship_port": "aberystwyth",
        "date_leaving": "1863-06-30",
        "joined_ship_date": "1863-07-01",
        "joined_at_port": "kinsale",
        "capacity": "ordinary seaman",
        "date_left": "1863-12-06",
        "left_port": "aberaeron",
        "cause_of_leaving": "discharged",
        "sign_with_mark": "n",
        "notes": "blk"
    },
    {
        "id": "vtls004917104_1_13",
        "type": "sailor",
        "parent": "vtls004917104",
        "name": "owen iarwis",
        "dob": "blk",
        "age": "blk",
        "place_of_birth": "aberporth",
        "home_address": "blk",
        "f": "blk",
        "name_of_ship": "mair",
        "ship_port": "aberystwyth",
        "date_leaving": "blk",
        "joined_ship_date": "1863-01-01",
        "joined_at_port": "liverpool",
        "capacity": "mate",
        "date_left": "1863-03-16",
        "left_port": "blk",
        "cause_of_leaving": "died",
        "sign_with_mark": "n",
        "notes": "died on board, no explanation"
    },
    {
        "id": "vtls004917104_1_14",
        "type": "sailor",
        "parent": "vtls004917104",
        "name": "griffith thomas",
        "dob": "blk",
        "age": "18",
        "place_of_birth": "aberporth",
        "home_address": "blk",
        "f": "blk",
        "name_of_ship": "mair",
        "ship_port": "aberystwyth",
        "date_leaving": "blk",
        "joined_ship_date": "1863-01-01",
        "joined_at_port": "liverpool",
        "capacity": "ordinary seaman",
        "date_left": "blk",
        "left_port": "blk",
        "cause_of_leaving": "remains on board",
        "sign_with_mark": "n",
        "notes": "blk"
    },
    {
        "id": "vtls004917104_0_12",
        "type": "sailor",
        "parent": "vtls004917104",
        "name": "david james",
        "dob": "blk",
        "age": "29",
        "place_of_birth": "aberaeron",
        "home_address": "blk",
        "f": "blk",
        "name_of_ship": "mair",
        "ship_port": "aberystwyth",
        "date_leaving": "1863-06-30",
        "joined_ship_date": "1863-07-01",
        "joined_at_port": "kinsale",
        "capacity": "mate",
        "date_left": "1863-12-06",
        "left_port": "aberaeron",
        "cause_of_leaving": "discharged",
        "sign_with_mark": "n",
        "notes": "blk"
    },
    {
        "id": "vtls004917104_1_12",
        "type": "sailor",
        "parent": "vtls004917104",
        "name": "jenkin davis",
        "dob": "blk",
        "age": "45",
        "place_of_birth": "newquay",
        "home_address": "blk",
        "f": "blk",
        "name_of_ship": "dan & mary",
        "ship_port": "new quay",
        "date_leaving": "1863-04-12",
        "joined_ship_date": "1863-04-15",
        "joined_at_port": "cardiff",
        "capacity": "mate",
        "date_left": "blk",
        "left_port": "blk",
        "cause_of_leaving": "remains on board",
        "sign_with_mark": "n",
        "notes": "blk"
    },
    {
        "id": "vtls004917104_0_14",
        "type": "sailor",
        "parent": "vtls004917104",
        "name": "phillip steavens",
        "dob": "blk",
        "age": "14",
        "place_of_birth": "milford",
        "home_address": "blk",
        "f": "blk",
        "name_of_ship": "blk",
        "ship_port": "first ship",
        "date_leaving": "blk",
        "joined_ship_date": "1863-09-16",
        "joined_at_port": "milford",
        "capacity": "boy",
        "date_left": "1863-11-16",
        "left_port": "porthcawl",
        "cause_of_leaving": "discharged",
        "sign_with_mark": "n",
        "notes": "blk"
    },
    {
        "id": "vtls004917104_1_11",
        "type": "sailor",
        "parent": "vtls004917104",
        "name": "evan thomas",
        "dob": "blk",
        "age": "26",
        "place_of_birth": "aberaeron",
        "home_address": "blk",
        "f": "blk",
        "name_of_ship": "mair",
        "ship_port": "aberystwyth",
        "date_leaving": "blk",
        "joined_ship_date": "1863-01-01",
        "joined_at_port": "liverpool",
        "capacity": "master",
        "date_left": "blk",
        "left_port": "blk",
        "cause_of_leaving": "remains on board",
        "sign_with_mark": "n",
        "notes": "blk"
    },
    {
        "id": "vtls004917104_1_15",
        "type": "sailor",
        "parent": "vtls004917104",
        "name": "thomas rees",
        "dob": "blk",
        "age": "14",
        "place_of_birth": "cardiff",
        "home_address": "blk",
        "f": "blk",
        "name_of_ship": "mair",
        "ship_port": "aberystwyth",
        "date_leaving": "blk",
        "joined_ship_date": "1863-01-01",
        "joined_at_port": "liverpool",
        "capacity": "boy",
        "date_left": "blk",
        "left_port": "blk",
        "cause_of_leaving": "remains on board",
        "sign_with_mark": "n",
        "notes": "blk"
    },
    {
        "id": "vtls004917112_1_11",
        "type": "sailor",
        "parent": "vtls004917112",
        "name": "john evans",
        "dob": "blk",
        "age": "22",
        "place_of_birth": "cardigan",
        "home_address": "blk",
        "f": "blk",
        "name_of_ship": "adelphoi",
        "ship_port": "cardigan",
        "date_leaving": "1864-05-05",
        "joined_ship_date": "1864-07-01",
        "joined_at_port": "whitehaven",
        "capacity": "master",
        "date_left": "blk",
        "left_port": "blk",
        "cause_of_leaving": "remains on board",
        "sign_with_mark": "n",
        "notes": "second half year, 1864-07-01 to 1864-12-31"
    },
    {
        "id": "vtls004917112_1_13",
        "type": "sailor",
        "parent": "vtls004917112",
        "name": "thomas hooper",
        "dob": "blk",
        "age": "18",
        "place_of_birth": "cardigan",
        "home_address": "blk",
        "f": "blk",
        "name_of_ship": "mair",
        "ship_port": "aberystwyth",
        "date_leaving": "blk",
        "joined_ship_date": "1864-03-20",
        "joined_at_port": "liverpool",
        "capacity": "able seaman",
        "date_left": "blk",
        "left_port": "blk",
        "cause_of_leaving": "remains on board",
        "sign_with_mark": "n",
        "notes": "blk"
    },
    {
        "id": "vtls004917112_1_14",
        "type": "sailor",
        "parent": "vtls004917112",
        "name": "john jones",
        "dob": "blk",
        "age": "16",
        "place_of_birth": "cardigan",
        "home_address": "blk",
        "f": "blk",
        "name_of_ship": "mair",
        "ship_port": "aberystwyth",
        "date_leaving": "blk",
        "joined_ship_date": "1864-04-05",
        "joined_at_port": "cardiff",
        "capacity": "apprentice",
        "date_left": "blk",
        "left_port": "blk",
        "cause_of_leaving": "remains on board",
        "sign_with_mark": "n",
        "notes": "blk"
    },
    {
        "id": "vtls004917112_1_12",
        "type": "sailor",
        "parent": "vtls004917112",
        "name": "george evans",
        "dob": "blk",
        "age": "25",
        "place_of_birth": "cardigan",
        "home_address": "blk",
        "f": "blk",
        "name_of_ship": "mair",
        "ship_port": "aberystwyth",
        "date_leaving": "blk",
        "joined_ship_date": "1864-02-05",
        "joined_at_port": "barrow",
        "capacity": "mate",
        "date_left": "blk",
        "left_port": "blk",
        "cause_of_leaving": "remains on board",
        "sign_with_mark": "n",
        "notes": "blk"
    }
]