[
    {
        "id": "vtls004662935_0_11",
        "type": "sailor",
        "parent": "vtls004662935",
        "name": "edward lewis",
        "dob": "blk",
        "age": "45",
        "place_of_birth": "aberystwyth",
        "home_address": "aberystwyth",
        "f": "aberystwyth",
        "name_of_ship": "george",
        "ship_port": "aberystwyth",
        "date_leaving": "continued",
        "joined_ship_date": "1861-08-27",
        "joined_at_port": "liverpool",
        "capacity": "master",
        "date_left": "1862-09-03",
        "left_port": "liverpool",
        "cause_of_leaving": "discharged",
        "sign_with_mark": "n",
        "notes": "blk"
    },
    {
        "id": "vtls004662935_0_13",
        "type": "sailor",
        "parent": "vtls004662935",
        "name": "david thomas",
        "dob": "blk",
        "age": "24",
        "place_of_birth": "aberystwyth",
        "home_address": "blk",
        "f": "blk",
        "name_of_ship": "evergreen",
        "ship_port": "gloucester",
        "date_leaving": "1861-08-",
        "joined_ship_date": "1861-08-27",
        "joined_at_port": "liverpool",
        "capacity": "carpenter",
        "date_left": "1863-03-13",
        "left_port": "london",
        "cause_of_leaving": "discharged",
        "sign_with_mark": "n",
        "notes": "blk"
    },
    {
        "id": "vtls004662935_0_16",
        "type": "sailor",
        "parent": "vtls004662935",
        "name": "hugh evans",
        "dob": "blk",
        "age": "20",
        "place_of_birth": "aberystwyth",
        "home_address": "blk",
        "f": "blk",
        "name_of_ship": "agenoria",
        "ship_port": "aberystwyth",
        "date_leaving": "1861-06-",
        "joined_ship_date": "1861-08-27",
        "joined_at_port": "liverpool",
        "capacity": "able seaman",
        "date_left": "1863-03-13",
        "left_port": "london",
        "cause_of_leaving": "discharged",
        "sign_with_mark": "n",
        "notes": "blk"
    },
    {
        "id": "vtls004662935_0_14",
        "type": "sailor",
        "parent": "vtls004662935",
        "name": "thomas raive",
        "dob": "blk",
        "age": "40",
        "place_of_birth": "east cowes",
        "home_address": "blk",
        "f": "blk",
        "name_of_ship": "george",
        "ship_port": "aberystwyth",
        "date_leaving": "1861-06-12",
        "joined_ship_date": "1861-08-27",
        "joined_at_port": "liverpool",
        "capacity": "bosun",
        "date_left": "1863-03-13",
        "left_port": "london",
        "cause_of_leaving": "discharged",
        "sign_with_mark": "n",
        "notes": "blk"
    },
    {
        "id": "vtls004662935_0_15",
        "type": "sailor",
        "parent": "vtls004662935",
        "name": "patrick flynn",
        "dob": "blk",
        "age": "20",
        "place_of_birth": "cork",
        "home_address": "blk",
        "f": "blk",
        "name_of_ship": "azorean",
        "ship_port": "aberystwyth",
        "date_leaving": "1861-08-13",
        "joined_ship_date": "1861-08-27",
        "joined_at_port": "liverpool",
        "capacity": "able seaman",
        "date_left": "1863-03-13",
        "left_port": "london",
        "cause_of_leaving": "discharged",
        "sign_with_mark": "n",
        "notes": "blk"
    },
    {
        "id": "vtls004662935_0_12",
        "type": "sailor",
        "parent": "vtls004662935",
        "name": "john jones",
        "dob": "blk",
        "age": "27",
        "place_of_birth": "aberavon",
        "home_address": "blk",
        "f": "blk",
        "name_of_ship": "eliza bowen",
        "ship_port": "liverpool",
        "date_leaving": "1861-08-",
        "joined_ship_date": "1861-09-04",
        "joined_at_port": "liverpool",
        "capacity": "master",
        "date_left": "blk",
        "left_port": "blk",
        "cause_of_leaving": "remains on board",
        "sign_with_mark": "n",
        "notes": "blk"
    },
    {
        "id": "vtls004662935_0_19",
        "type": "sailor",
        "parent": "vtls004662935",
        "name": "michael mcclean",
        "dob": "blk",
        "age": "19",
        "place_of_birth": "miramichi",
        "home_address": "blk",
        "f": "blk",
        "name_of_ship": "salavera",
        "ship_port": "liverpool",
        "date_leaving": "1861-05-15",
        "joined_ship_date": "1861-08-27",
        "joined_at_port": "liverpool",
        "capacity": "ordinary seaman",
        "date_left": "1863-03-13",
        "left_port": "london",
        "cause_of_leaving": "discharged",
        "sign_with_mark": "n",
        "notes": "blk"
    },
    {
        "id": "vtls004662935_0_17",
        "type": "sailor",
        "parent": "vtls004662935",
        "name": "william fitzgerald",
        "dob": "blk",
        "age": "24",
        "place_of_birth": "queenstown",
        "home_address": "blk",
        "f": "blk",
        "name_of_ship": "rising sun",
        "ship_port": "liverpool",
        "date_leaving": "1861-08-11",
        "joined_ship_date": "1861-08-27",
        "joined_at_port": "liverpool",
        "capacity": "able seaman",
        "date_left": "1863-03-13",
        "left_port": "london",
        "cause_of_leaving": "discharged",
        "sign_with_mark": "n",
        "notes": "blk"
    },
    {
        "id": "vtls004662935_0_21",
        "type": "sailor",
        "parent": "vtls004662935",
        "name": "james scott",
        "dob": "blk",
        "age": "23",
        "place_of_birth": "st mawes",
        "home_address": "blk",
        "f": "blk",
        "name_of_ship": "sunderland",
        "ship_port": "windsor",
        "date_leaving": "1861-08-18",
        "joined_ship_date": "1861-08-27",
        "joined_at_port": "liverpool",
        "capacity": "cook & steward",
        "date_left": "1862-07-15",
        "left_port": "realejo",
        "cause_of_leaving": "discharged",
        "sign_with_mark": "n",
        "notes": "blk"
    },
    {
        "id": "vtls004662935_0_20",
        "type": "sailor",
        "parent": "vtls004662935",
        "name": "william sattell",
        "dob": "blk",
        "age": "19",
        "place_of_birth": "dublin",
        "home_address": "blk",
        "f": "blk",
        "name_of_ship": "nova",
        "ship_port": "sunderland",
        "date_leaving": "1861-07-20",
        "joined_ship_date": "1861-08-27",
        "joined_at_port": "liverpool",
        "capacity": "ordinary seaman",
        "date_left": "1863-03-13",
        "left_port": "london",
        "cause_of_leaving": "discharged",
        "sign_with_mark": "n",
        "notes": "blk"
    },
    {
        "id": "vtls004662935_0_23",
        "type": "sailor",
        "parent": "vtls004662935",
        "name": "joseph williams",
        "dob": "blk",
        "age": "31",
        "place_of_birth": "st davids",
        "home_address": "blk",
        "f": "blk",
        "name_of_ship": "fanny bailey",
        "ship_port": "liverpool",
        "date_leaving": "1861-07-24",
        "joined_ship_date": "1861-09-20",
        "joined_at_port": "holyhead",
        "capacity": "mate",
        "date_left": "1863-03-13",
        "left_port": "london",
        "cause_of_leaving": "discharged",
        "sign_with_mark": "n",
        "notes": "blk"
    },
    {
        "id": "vtls004662935_0_18",
        "type": "sailor",
        "parent": "vtls004662935",
        "name": "william smith",
        "dob": "blk",
        "age": "25",
        "place_of_birth": "liverpool",
        "home_address": "blk",
        "f": "blk",
        "name_of_ship": "rising sun",
        "ship_port": "liverpool",
        "date_leaving": "1861-08-11",
        "joined_ship_date": "1861-08-27",
        "joined_at_port": "liverpool",
        "capacity": "able seaman",
        "date_left": "1863-03-13",
        "left_port": "london",
        "cause_of_leaving": "discharged",
        "sign_with_mark": "n",
        "notes": "blk"
    },
    {
        "id": "vtls004662935_0_22",
        "type": "sailor",
        "parent": "vtls004662935",
        "name": "william isherwood",
        "dob": "blk",
        "age": "29",
        "place_of_birth": "hartlepool",
        "home_address": "blk",
        "f": "blk",
        "name_of_ship": "$",
        "ship_port": "blk",
        "date_leaving": "1861-05-15",
        "joined_ship_date": "1861-08-05",
        "joined_at_port": "realejo",
        "capacity": "cook & steward",
        "date_left": "1863-03-13",
        "left_port": "london",
        "cause_of_leaving": "discharged",
        "sign_with_mark": "n",
        "notes": "blk"
    },
    {
        "id": "vtls004662935_0_24",
        "type": "sailor",
        "parent": "vtls004662935",
        "name": "owen jones",
        "dob": "blk",
        "age": "17",
        "place_of_birth": "holyhead",
        "home_address": "blk",
        "f": "blk",
        "name_of_ship": "first ship",
        "ship_port": "blk",
        "date_leaving": "blk",
        "joined_ship_date": "1861-09-20",
        "joined_at_port": "holyhead",
        "capacity": "ordinary seaman",
        "date_left": "1863-03-13",
        "left_port": "london",
        "cause_of_leaving": "discharged",
        "sign_with_mark": "n",
        "notes": "blk"
    },
    {
        "id": "vtls004662935_1_16",
        "type": "sailor",
        "parent": "vtls004662935",
        "name": "david williams",
        "dob": "blk",
        "age": "25",
        "place_of_birth": "barmouth",
        "home_address": "blk",
        "f": "blk",
        "name_of_ship": "grey sergeant",
        "ship_port": "w.s.",
        "date_leaving": "1863-05-19",
        "joined_ship_date": "1863-05-22",
        "joined_at_port": "london",
        "capacity": "able seaman",
        "date_left": "1863-05-26",
        "left_port": "gravesend",
        "cause_of_leaving": "deserted",
        "sign_with_mark": "n",
        "notes": "blk"
    },
    {
        "id": "vtls004662935_1_17",
        "type": "sailor",
        "parent": "vtls004662935",
        "name": "barney sullivan",
        "dob": "blk",
        "age": "28",
        "place_of_birth": "london",
        "home_address": "blk",
        "f": "blk",
        "name_of_ship": "ly mcdonald",
        "ship_port": "london",
        "date_leaving": "1863-02-24",
        "joined_ship_date": "1863-05-22",
        "joined_at_port": "london",
        "capacity": "able seaman",
        "date_left": "1864-05-31",
        "left_port": "london",
        "cause_of_leaving": "discharged",
        "sign_with_mark": "n",
        "notes": "blk"
    },
    {
        "id": "vtls004662935_0_25",
        "type": "sailor",
        "parent": "vtls004662935",
        "name": "edward lewis",
        "dob": "blk",
        "age": "22",
        "place_of_birth": "aberystwyth",
        "home_address": "blk",
        "f": "blk",
        "name_of_ship": "george",
        "ship_port": "aberystwyth",
        "date_leaving": "1862-01-12",
        "joined_ship_date": "1861-08-27",
        "joined_at_port": "liverpool",
        "capacity": "mate",
        "date_left": "1863-09-15",
        "left_port": "holyhead",
        "cause_of_leaving": "discharged",
        "sign_with_mark": "n",
        "notes": "blk"
    },
    {
        "id": "vtls004662935_1_13",
        "type": "sailor",
        "parent": "vtls004662935",
        "name": "eliazer jones",
        "dob": "blk",
        "age": "29",
        "place_of_birth": "aberavon",
        "home_address": "blk",
        "f": "blk",
        "name_of_ship": "john pierce",
        "ship_port": "aberavon",
        "date_leaving": "1863-04-07",
        "joined_ship_date": "1863-05-22",
        "joined_at_port": "london",
        "capacity": "boatswain",
        "date_left": "1864-05-31",
        "left_port": "london",
        "cause_of_leaving": "discharged",
        "sign_with_mark": "n",
        "notes": "blk"
    },
    {
        "id": "vtls004662935_1_14",
        "type": "sailor",
        "parent": "vtls004662935",
        "name": "david thomas",
        "dob": "blk",
        "age": "30",
        "place_of_birth": "aberystwyth",
        "home_address": "blk",
        "f": "blk",
        "name_of_ship": "george",
        "ship_port": "aberystwyth",
        "date_leaving": "1863-04-07",
        "joined_ship_date": "1863-05-22",
        "joined_at_port": "london",
        "capacity": "carpenter",
        "date_left": "1864-05-31",
        "left_port": "london",
        "cause_of_leaving": "discharged",
        "sign_with_mark": "n",
        "notes": "blk"
    },
    {
        "id": "vtls004662935_1_19",
        "type": "sailor",
        "parent": "vtls004662935",
        "name": "william lloyd",
        "dob": "blk",
        "age": "25",
        "place_of_birth": "deptford",
        "home_address": "blk",
        "f": "blk",
        "name_of_ship": "mary",
        "ship_port": "whitby",
        "date_leaving": "1863-05-09",
        "joined_ship_date": "1863-05-22",
        "joined_at_port": "london",
        "capacity": "able seaman",
        "date_left": "1863-05-26",
        "left_port": "gravesend",
        "cause_of_leaving": "deserted",
        "sign_with_mark": "n",
        "notes": "blk"
    },
    {
        "id": "vtls004662935_1_18",
        "type": "sailor",
        "parent": "vtls004662935",
        "name": "w n koleus",
        "dob": "blk",
        "age": "27",
        "place_of_birth": "stockholm",
        "home_address": "blk",
        "f": "blk",
        "name_of_ship": "quiver",
        "ship_port": "london",
        "date_leaving": "1863-05-22",
        "joined_ship_date": "1863-05-22",
        "joined_at_port": "london",
        "capacity": "able seaman",
        "date_left": "1863-05-25",
        "left_port": "gravesend",
        "cause_of_leaving": "deserted",
        "sign_with_mark": "n",
        "notes": "blk"
    },
    {
        "id": "vtls004662935_1_15",
        "type": "sailor",
        "parent": "vtls004662935",
        "name": "daniel jones",
        "dob": "blk",
        "age": "26",
        "place_of_birth": "aberavon",
        "home_address": "blk",
        "f": "blk",
        "name_of_ship": "nipisigent",
        "ship_port": "milford",
        "date_leaving": "1858-09-",
        "joined_ship_date": "1863-05-22",
        "joined_at_port": "london",
        "capacity": "cook",
        "date_left": "1864-05-31",
        "left_port": "london",
        "cause_of_leaving": "discharged",
        "sign_with_mark": "n",
        "notes": "blk"
    },
    {
        "id": "vtls004662935_1_12",
        "type": "sailor",
        "parent": "vtls004662935",
        "name": "john james",
        "dob": "blk",
        "age": "31",
        "place_of_birth": "aberavon",
        "home_address": "blk",
        "f": "blk",
        "name_of_ship": "envelope",
        "ship_port": "waterford",
        "date_leaving": "1863-03-25",
        "joined_ship_date": "1863-05-25",
        "joined_at_port": "london",
        "capacity": "mate",
        "date_left": "1864-05-31",
        "left_port": "london",
        "cause_of_leaving": "discharged",
        "sign_with_mark": "n",
        "notes": "blk"
    },
    {
        "id": "vtls004662935_1_11",
        "type": "sailor",
        "parent": "vtls004662935",
        "name": "john jones",
        "dob": "blk",
        "age": "27",
        "place_of_birth": "aberavon",
        "home_address": "aberystwyth",
        "f": "aberystwyth",
        "name_of_ship": "george",
        "ship_port": "aberystwyth",
        "date_leaving": "continues",
        "joined_ship_date": "blk",
        "joined_at_port": "blk",
        "capacity": "master",
        "date_left": "blk",
        "left_port": "blk",
        "cause_of_leaving": "remains on board",
        "sign_with_mark": "n",
        "notes": "blk"
    },
    {
        "id": "vtls004662935_1_20",
        "type": "sailor",
        "parent": "vtls004662935",
        "name": "john thomas",
        "dob": "blk",
        "age": "19",
        "place_of_birth": "cardigan",
        "home_address": "blk",
        "f": "blk",
        "name_of_ship": "aeron vale",
        "ship_port": "aberavon",
        "date_leaving": "1863-04-25",
        "joined_ship_date": "1863-05-22",
        "joined_at_port": "london",
        "capacity": "ordinary seaman",
        "date_left": "1864-05-31",
        "left_port": "london",
        "cause_of_leaving": "discharged",
        "sign_with_mark": "n",
        "notes": "blk"
    },
    {
        "id": "vtls004662935_1_23",
        "type": "sailor",
        "parent": "vtls004662935",
        "name": "james sadler",
        "dob": "blk",
        "age": "30",
        "place_of_birth": "liverpool",
        "home_address": "blk",
        "f": "blk",
        "name_of_ship": "adelaide",
        "ship_port": "guernsey",
        "date_leaving": "1863-05-25",
        "joined_ship_date": "1863-05-26",
        "joined_at_port": "gravesend",
        "capacity": "able seaman",
        "date_left": "1864-05-31",
        "left_port": "london",
        "cause_of_leaving": "discharged",
        "sign_with_mark": "n",
        "notes": "blk"
    },
    {
        "id": "vtls004662935_1_24",
        "type": "sailor",
        "parent": "vtls004662935",
        "name": "john lawson",
        "dob": "blk",
        "age": "34",
        "place_of_birth": "perth",
        "home_address": "blk",
        "f": "blk",
        "name_of_ship": "clutha",
        "ship_port": "glasgow",
        "date_leaving": "1861-02-20",
        "joined_ship_date": "1863-05-26",
        "joined_at_port": "gravesend",
        "capacity": "able seaman",
        "date_left": "1864-05-31",
        "left_port": "london",
        "cause_of_leaving": "discharged",
        "sign_with_mark": "n",
        "notes": "blk"
    },
    {
        "id": "vtls004662935_1_26",
        "type": "sailor",
        "parent": "vtls004662935",
        "name": "john houghton",
        "dob": "blk",
        "age": "19",
        "place_of_birth": "leigh",
        "home_address": "blk",
        "f": "blk",
        "name_of_ship": "james",
        "ship_port": "london",
        "date_leaving": "1863-05-22",
        "joined_ship_date": "1863-05-26",
        "joined_at_port": "gravesend",
        "capacity": "ordinary seaman",
        "date_left": "1864-05-31",
        "left_port": "london",
        "cause_of_leaving": "discharged",
        "sign_with_mark": "n",
        "notes": "blk"
    },
    {
        "id": "vtls004662935_1_27",
        "type": "sailor",
        "parent": "vtls004662935",
        "name": "edward gargan",
        "dob": "blk",
        "age": "20",
        "place_of_birth": "dublin",
        "home_address": "blk",
        "f": "blk",
        "name_of_ship": "c s l$$$$$$",
        "ship_port": "blk",
        "date_leaving": "1863-03-20",
        "joined_ship_date": "1863-12-09",
        "joined_at_port": "colombo",
        "capacity": "able seaman",
        "date_left": "1864-05-31",
        "left_port": "london",
        "cause_of_leaving": "discharged",
        "sign_with_mark": "n",
        "notes": "blk"
    },
    {
        "id": "vtls004662935_1_21",
        "type": "sailor",
        "parent": "vtls004662935",
        "name": "james riley",
        "dob": "blk",
        "age": "18",
        "place_of_birth": "london",
        "home_address": "blk",
        "f": "blk",
        "name_of_ship": "formidable",
        "ship_port": "blk",
        "date_leaving": "1863-01-23",
        "joined_ship_date": "1863-05-22",
        "joined_at_port": "london",
        "capacity": "ordinary seaman",
        "date_left": "1863-05-26",
        "left_port": "gravesend",
        "cause_of_leaving": "deserted",
        "sign_with_mark": "n",
        "notes": "blk"
    },
    {
        "id": "vtls004662935_1_25",
        "type": "sailor",
        "parent": "vtls004662935",
        "name": "arthur hamilton",
        "dob": "blk",
        "age": "28",
        "place_of_birth": "london",
        "home_address": "blk",
        "f": "blk",
        "name_of_ship": "pembroke",
        "ship_port": "$",
        "date_leaving": "1863-04-26",
        "joined_ship_date": "1863-05-26",
        "joined_at_port": "gravesend",
        "capacity": "able seaman",
        "date_left": "1863-11-13",
        "left_port": "colombo, sri lanka",
        "cause_of_leaving": "deserted",
        "sign_with_mark": "n",
        "notes": "blk"
    },
    {
        "id": "vtls004662935_1_22",
        "type": "sailor",
        "parent": "vtls004662935",
        "name": "william jones",
        "dob": "blk",
        "age": "15",
        "place_of_birth": "aberavon",
        "home_address": "blk",
        "f": "blk",
        "name_of_ship": "first ship",
        "ship_port": "blk",
        "date_leaving": "blk",
        "joined_ship_date": "1863-05-22",
        "joined_at_port": "london",
        "capacity": "boy",
        "date_left": "1864-05-31",
        "left_port": "london",
        "cause_of_leaving": "discharged",
        "sign_with_mark": "n",
        "notes": "blk"
    }
]