[
    {
        "id": "vtls006006613_0_11",
        "type": "sailor",
        "parent": "vtls006006613",
        "name": "daniel doyle",
        "dob": "blk",
        "age": "blk",
        "place_of_birth": "blk",
        "home_address": "blk",
        "f": "blk",
        "name_of_ship": "blk",
        "ship_port": "blk",
        "date_leaving": "blk",
        "joined_ship_date": "blk",
        "joined_at_port": "blk",
        "capacity": "blk",
        "date_left": "1877-09-28",
        "left_port": "workington",
        "cause_of_leaving": "release document",
        "sign_with_mark": "n",
        "notes": "the balance of wages due to daniel doyle was deposited by the master with superintendent on 1876-04-19, doyle having been incarcerated in carlisle gaol."
    },
    {
        "id": "vtls004658273_0_14",
        "type": "sailor",
        "parent": "vtls004658273",
        "name": "donald cambel",
        "dob": "blk",
        "age": "23",
        "place_of_birth": "rothsay",
        "home_address": "blk",
        "f": "blk",
        "name_of_ship": "ellen owen",
        "ship_port": "aberystwyth",
        "date_leaving": "remained",
        "joined_ship_date": "1862-07-03",
        "joined_at_port": "cardiff",
        "capacity": "able seaman",
        "date_left": "1863-01-23",
        "left_port": "cardiff",
        "cause_of_leaving": "discharged",
        "sign_with_mark": "n",
        "notes": "blk"
    },
    {
        "id": "vtls004658273_0_15",
        "type": "sailor",
        "parent": "vtls004658273",
        "name": "henry davies",
        "dob": "blk",
        "age": "25",
        "place_of_birth": "cardigan",
        "home_address": "blk",
        "f": "blk",
        "name_of_ship": "leander",
        "ship_port": "aberystwyth",
        "date_leaving": "1862-01",
        "joined_ship_date": "1862-07-03",
        "joined_at_port": "cardiff",
        "capacity": "able seaman",
        "date_left": "1863-01-23",
        "left_port": "cardiff",
        "cause_of_leaving": "discharged",
        "sign_with_mark": "n",
        "notes": "blk"
    },
    {
        "id": "vtls004658273_0_12",
        "type": "sailor",
        "parent": "vtls004658273",
        "name": "david nicholas",
        "dob": "blk",
        "age": "27",
        "place_of_birth": "cardigan",
        "home_address": "blk",
        "f": "blk",
        "name_of_ship": "ellen owen",
        "ship_port": "aberystwyth",
        "date_leaving": "remained",
        "joined_ship_date": "1862-07-03",
        "joined_at_port": "cardiff",
        "capacity": "mate",
        "date_left": "1863-01-23",
        "left_port": "cardiff",
        "cause_of_leaving": "discharged",
        "sign_with_mark": "n",
        "notes": "blk"
    },
    {
        "id": "vtls004658273_0_11",
        "type": "sailor",
        "parent": "vtls004658273",
        "name": "enoc thomas",
        "dob": "blk",
        "age": "43",
        "place_of_birth": "newquay",
        "home_address": "blk",
        "f": "blk",
        "name_of_ship": "ellen owen",
        "ship_port": "aberystwyth",
        "date_leaving": "remained",
        "joined_ship_date": "1857-03-12",
        "joined_at_port": "aberystwyth",
        "capacity": "master",
        "date_left": "remained",
        "left_port": "blk",
        "cause_of_leaving": "remains on board",
        "sign_with_mark": "n",
        "notes": "blk"
    },
    {
        "id": "vtls004658273_0_13",
        "type": "sailor",
        "parent": "vtls004658273",
        "name": "elias jones",
        "dob": "blk",
        "age": "25",
        "place_of_birth": "cardigan",
        "home_address": "blk",
        "f": "blk",
        "name_of_ship": "susanna",
        "ship_port": "newquay",
        "date_leaving": "1862-06-20",
        "joined_ship_date": "1862-07-03",
        "joined_at_port": "cardiff",
        "capacity": "able seaman",
        "date_left": "1863-01-23",
        "left_port": "cardiff",
        "cause_of_leaving": "discharged",
        "sign_with_mark": "n",
        "notes": "blk"
    },
    {
        "id": "vtls004658273_1_12",
        "type": "sailor",
        "parent": "vtls004658273",
        "name": "david nicholas",
        "dob": "blk",
        "age": "27",
        "place_of_birth": "cardigan",
        "home_address": "blk",
        "f": "blk",
        "name_of_ship": "ellen owen",
        "ship_port": "aberystwyth",
        "date_leaving": "blk",
        "joined_ship_date": "1863-02-16",
        "joined_at_port": "cardiff",
        "capacity": "mate",
        "date_left": "1863-09-01",
        "left_port": "bristol",
        "cause_of_leaving": "discharged",
        "sign_with_mark": "n",
        "notes": "blk"
    },
    {
        "id": "vtls004658273_1_11",
        "type": "sailor",
        "parent": "vtls004658273",
        "name": "enoch thomas",
        "dob": "blk",
        "age": "43",
        "place_of_birth": "newquay",
        "home_address": "blk",
        "f": "blk",
        "name_of_ship": "ellen owen",
        "ship_port": "aberystwyth",
        "date_leaving": "blk",
        "joined_ship_date": "blk",
        "joined_at_port": "blk",
        "capacity": "master",
        "date_left": "blk",
        "left_port": "blk",
        "cause_of_leaving": "remains on board",
        "sign_with_mark": "n",
        "notes": "blk"
    },
    {
        "id": "vtls004658273_2_15",
        "type": "sailor",
        "parent": "vtls004658273",
        "name": "ebanazer thomas",
        "dob": "blk",
        "age": "17",
        "place_of_birth": "cardigan",
        "home_address": "blk",
        "f": "blk",
        "name_of_ship": "ellen owen",
        "ship_port": "aberystwyth",
        "date_leaving": "blk",
        "joined_ship_date": "1863-09-24",
        "joined_at_port": "newport",
        "capacity": "ordinary seaman",
        "date_left": "1864-02-22",
        "left_port": "london",
        "cause_of_leaving": "discharged",
        "sign_with_mark": "y",
        "notes": "blk"
    },
    {
        "id": "vtls004658273_2_14",
        "type": "sailor",
        "parent": "vtls004658273",
        "name": "evan owens",
        "dob": "blk",
        "age": "19",
        "place_of_birth": "cardigan",
        "home_address": "blk",
        "f": "blk",
        "name_of_ship": "union packet",
        "ship_port": "cardigan",
        "date_leaving": "1863-09-22",
        "joined_ship_date": "1863-09-24",
        "joined_at_port": "newport",
        "capacity": "able seaman",
        "date_left": "1864-02-22",
        "left_port": "london",
        "cause_of_leaving": "discharged",
        "sign_with_mark": "n",
        "notes": "blk"
    },
    {
        "id": "vtls004658273_1_16",
        "type": "sailor",
        "parent": "vtls004658273",
        "name": "stephen lewis",
        "dob": "blk",
        "age": "17",
        "place_of_birth": "fishguard",
        "home_address": "blk",
        "f": "blk",
        "name_of_ship": "[kelyhead]",
        "ship_port": "blk",
        "date_leaving": "blk",
        "joined_ship_date": "1863-02-16",
        "joined_at_port": "falmouth",
        "capacity": "ordinary seaman",
        "date_left": "1863-09-01",
        "left_port": "bristol",
        "cause_of_leaving": "discharged",
        "sign_with_mark": "n",
        "notes": "blk"
    },
    {
        "id": "vtls004658273_2_13",
        "type": "sailor",
        "parent": "vtls004658273",
        "name": "joseph davies",
        "dob": "blk",
        "age": "47",
        "place_of_birth": "cardigan",
        "home_address": "blk",
        "f": "blk",
        "name_of_ship": "charterhurst",
        "ship_port": "cardiff",
        "date_leaving": "blk",
        "joined_ship_date": "1863-09-24",
        "joined_at_port": "newport",
        "capacity": "able seaman",
        "date_left": "1864-02-22",
        "left_port": "london",
        "cause_of_leaving": "discharged",
        "sign_with_mark": "y",
        "notes": "blk"
    },
    {
        "id": "vtls004658273_1_14",
        "type": "sailor",
        "parent": "vtls004658273",
        "name": "mark lamb",
        "dob": "blk",
        "age": "25",
        "place_of_birth": "cardigan",
        "home_address": "blk",
        "f": "blk",
        "name_of_ship": "william carey",
        "ship_port": "pwllheli",
        "date_leaving": "blk",
        "joined_ship_date": "1863-02-16",
        "joined_at_port": "cardiff",
        "capacity": "able seaman",
        "date_left": "1863-09-01",
        "left_port": "bristol",
        "cause_of_leaving": "discharged",
        "sign_with_mark": "n",
        "notes": "blk"
    },
    {
        "id": "vtls004658273_2_12",
        "type": "sailor",
        "parent": "vtls004658273",
        "name": "david nicholas",
        "dob": "blk",
        "age": "25",
        "place_of_birth": "cardigan",
        "home_address": "blk",
        "f": "blk",
        "name_of_ship": "ellen owen",
        "ship_port": "aberystwyth",
        "date_leaving": "blk",
        "joined_ship_date": "1863-09-24",
        "joined_at_port": "newport",
        "capacity": "mate",
        "date_left": "1864-02-22",
        "left_port": "london",
        "cause_of_leaving": "discharged",
        "sign_with_mark": "n",
        "notes": "blk"
    },
    {
        "id": "vtls004658273_1_13",
        "type": "sailor",
        "parent": "vtls004658273",
        "name": "david lewis",
        "dob": "blk",
        "age": "28",
        "place_of_birth": "cardigan",
        "home_address": "blk",
        "f": "blk",
        "name_of_ship": "ajax",
        "ship_port": "[london]",
        "date_leaving": "1863-02-17",
        "joined_ship_date": "1863-02-16",
        "joined_at_port": "cardiff",
        "capacity": "able seaman",
        "date_left": "1863-04-01",
        "left_port": "naples",
        "cause_of_leaving": "discharged",
        "sign_with_mark": "n",
        "notes": "blk"
    },
    {
        "id": "vtls004658273_2_11",
        "type": "sailor",
        "parent": "vtls004658273",
        "name": "enoch thomas",
        "dob": "blk",
        "age": "13",
        "place_of_birth": "cardigan",
        "home_address": "blk",
        "f": "blk",
        "name_of_ship": "ellen owen",
        "ship_port": "aberystwyth",
        "date_leaving": "blk",
        "joined_ship_date": "1867-03-01",
        "joined_at_port": "liverpool",
        "capacity": "master",
        "date_left": "blk",
        "left_port": "blk",
        "cause_of_leaving": "remains on board",
        "sign_with_mark": "n",
        "notes": "blk"
    },
    {
        "id": "vtls004658273_1_15",
        "type": "sailor",
        "parent": "vtls004658273",
        "name": "thomas jones",
        "dob": "blk",
        "age": "23",
        "place_of_birth": "cardigan",
        "home_address": "blk",
        "f": "blk",
        "name_of_ship": "liza",
        "ship_port": "padstow",
        "date_leaving": "blk",
        "joined_ship_date": "1863-02-16",
        "joined_at_port": "cardiff",
        "capacity": "able seaman",
        "date_left": "1863-09-01",
        "left_port": "bristol",
        "cause_of_leaving": "discharged",
        "sign_with_mark": "n",
        "notes": "blk"
    },
    {
        "id": "vtls004658273_1_22",
        "type": "sailor",
        "parent": "vtls004658273",
        "name": "",
        "dob": "blk",
        "age": "blk",
        "place_of_birth": "blk",
        "home_address": "blk",
        "f": "blk",
        "name_of_ship": "blk",
        "ship_port": "blk",
        "date_leaving": "blk",
        "joined_ship_date": "blk",
        "joined_at_port": "blk",
        "capacity": "blk",
        "date_left": "blk",
        "left_port": "blk",
        "cause_of_leaving": "blk",
        "sign_with_mark": "blk",
        "notes": "blk"
    },
    {
        "id": "vtls004658273_3_16",
        "type": "sailor",
        "parent": "vtls004658273",
        "name": "thomas thomas",
        "dob": "blk",
        "age": "10",
        "place_of_birth": "cardigan",
        "home_address": " blk",
        "f": " blk",
        "name_of_ship": "[catherine & jane]",
        "ship_port": "[newquay]",
        "date_leaving": "1864-04-15",
        "joined_ship_date": "1864-04-14",
        "joined_at_port": "cardiff",
        "capacity": "able seaman",
        "date_left": "1864-08-25",
        "left_port": "liverpool",
        "cause_of_leaving": "discharged",
        "sign_with_mark": "n",
        "notes": "blk"
    },
    {
        "id": "vtls004658273_2_16",
        "type": "sailor",
        "parent": "vtls004658273",
        "name": "william mason",
        "dob": "blk",
        "age": "22",
        "place_of_birth": "bristol",
        "home_address": "blk",
        "f": "blk",
        "name_of_ship": "crocodile",
        "ship_port": "denmark",
        "date_leaving": "1863-09-24",
        "joined_ship_date": "1863-09-28",
        "joined_at_port": "newport",
        "capacity": "able seaman",
        "date_left": "1864-02-22",
        "left_port": "london",
        "cause_of_leaving": "discharged",
        "sign_with_mark": "n",
        "notes": "blk"
    },
    {
        "id": "vtls004658273_3_13",
        "type": "sailor",
        "parent": "vtls004658273",
        "name": "john davies",
        "dob": "blk",
        "age": "32",
        "place_of_birth": "newquay",
        "home_address": " blk",
        "f": " blk",
        "name_of_ship": "ellen owen",
        "ship_port": "aberystwyth",
        "date_leaving": "blk",
        "joined_ship_date": "1864-04-11",
        "joined_at_port": "cardiff",
        "capacity": "able seaman",
        "date_left": "1864-08-25",
        "left_port": "liverpool",
        "cause_of_leaving": "discharged",
        "sign_with_mark": "n",
        "notes": "blk"
    },
    {
        "id": "vtls004658273_3_15",
        "type": "sailor",
        "parent": "vtls004658273",
        "name": "charles henry",
        "dob": "blk",
        "age": "22",
        "place_of_birth": "norway",
        "home_address": " blk",
        "f": " blk",
        "name_of_ship": "allendale",
        "ship_port": "shields",
        "date_leaving": "1864-03",
        "joined_ship_date": "1864-04-11",
        "joined_at_port": "cardiff",
        "capacity": "able seaman",
        "date_left": "1864-08-25",
        "left_port": "liverpool",
        "cause_of_leaving": "discharged",
        "sign_with_mark": "y",
        "notes": "blk"
    },
    {
        "id": "vtls004658273_3_14",
        "type": "sailor",
        "parent": "vtls004658273",
        "name": "james mathias",
        "dob": "blk",
        "age": "24",
        "place_of_birth": "cardigan",
        "home_address": " blk",
        "f": " blk",
        "name_of_ship": "gem",
        "ship_port": "cardiff",
        "date_leaving": "1864-01-06",
        "joined_ship_date": "1864-04-11",
        "joined_at_port": "cardiff",
        "capacity": "able seaman",
        "date_left": "1864-08-25",
        "left_port": "liverpool",
        "cause_of_leaving": "discharged",
        "sign_with_mark": "n",
        "notes": "blk"
    },
    {
        "id": "vtls004658273_3_12",
        "type": "sailor",
        "parent": "vtls004658273",
        "name": "john evans",
        "dob": "blk",
        "age": "32",
        "place_of_birth": "newquay",
        "home_address": " blk",
        "f": " blk",
        "name_of_ship": "ellen owen",
        "ship_port": "aberystwyth",
        "date_leaving": "blk",
        "joined_ship_date": "1864-04-11",
        "joined_at_port": "cardiff",
        "capacity": "mate",
        "date_left": "1864-08-25",
        "left_port": "liverpool",
        "cause_of_leaving": "discharged",
        "sign_with_mark": "n",
        "notes": "blk"
    },
    {
        "id": "vtls004658273_3_11",
        "type": "sailor",
        "parent": "vtls004658273",
        "name": "enoch thomas",
        "dob": "blk",
        "age": "44",
        "place_of_birth": "newquay",
        "home_address": "blk",
        "f": "blk",
        "name_of_ship": "ellen owen",
        "ship_port": "aberystwyth",
        "date_leaving": "blk",
        "joined_ship_date": "blk",
        "joined_at_port": "blk",
        "capacity": "master",
        "date_left": "1864-08-25",
        "left_port": "liverpool",
        "cause_of_leaving": "remains on board",
        "sign_with_mark": "n",
        "notes": "blk"
    },
    {
        "id": "vtls004658281_0_15",
        "type": "sailor",
        "parent": "vtls004658281",
        "name": "llewelyn davies",
        "dob": "blk",
        "age": "17",
        "place_of_birth": "cardigan",
        "home_address": "blk",
        "f": "blk",
        "name_of_ship": "oliver lloyd",
        "ship_port": "blk",
        "date_leaving": "1866-06-12",
        "joined_ship_date": "1866-06-26",
        "joined_at_port": "cardiff",
        "capacity": "able seaman",
        "date_left": "1866-09-12",
        "left_port": "bristol",
        "cause_of_leaving": "discharged",
        "sign_with_mark": "n",
        "notes": "blk"
    },
    {
        "id": "vtls004658281_0_14",
        "type": "sailor",
        "parent": "vtls004658281",
        "name": "william williams",
        "dob": "blk",
        "age": "21",
        "place_of_birth": "cardigan",
        "home_address": "blk",
        "f": "blk",
        "name_of_ship": "ellen owen",
        "ship_port": "aberystwyth",
        "date_leaving": "blk",
        "joined_ship_date": "1866-06-26",
        "joined_at_port": "cardiff",
        "capacity": "able seaman",
        "date_left": "1866-09-12",
        "left_port": "bristol",
        "cause_of_leaving": "discharged",
        "sign_with_mark": "n",
        "notes": "blk"
    },
    {
        "id": "vtls004658281_0_16",
        "type": "sailor",
        "parent": "vtls004658281",
        "name": "henry parker",
        "dob": "blk",
        "age": "18",
        "place_of_birth": "stafford",
        "home_address": "blk",
        "f": "blk",
        "name_of_ship": "lovely sally",
        "ship_port": "blk",
        "date_leaving": "1866-06-04",
        "joined_ship_date": "1866-06-26",
        "joined_at_port": "cardiff",
        "capacity": "ordinary seaman",
        "date_left": "1866-09-11",
        "left_port": "bristol",
        "cause_of_leaving": "deserted",
        "sign_with_mark": "n",
        "notes": "blk"
    },
    {
        "id": "vtls004658281_0_17",
        "type": "sailor",
        "parent": "vtls004658281",
        "name": "david lloyd",
        "dob": "blk",
        "age": "14",
        "place_of_birth": "cardigan",
        "home_address": "blk",
        "f": "blk",
        "name_of_ship": "ada & alice",
        "ship_port": "blk",
        "date_leaving": "1866-06-26",
        "joined_ship_date": "1866-06-26",
        "joined_at_port": "cardiff",
        "capacity": "ordinary seaman",
        "date_left": "1866-09-12",
        "left_port": "bristol",
        "cause_of_leaving": "discharged",
        "sign_with_mark": "y",
        "notes": "blk"
    },
    {
        "id": "vtls004658281_0_13",
        "type": "sailor",
        "parent": "vtls004658281",
        "name": "thomas jones",
        "dob": "blk",
        "age": "47",
        "place_of_birth": "cardigan",
        "home_address": "blk",
        "f": "blk",
        "name_of_ship": "ellen owen",
        "ship_port": "aberystwyth",
        "date_leaving": "blk",
        "joined_ship_date": "1866-06-26",
        "joined_at_port": "cardiff",
        "capacity": "able seaman",
        "date_left": "1866-09-12",
        "left_port": "bristol",
        "cause_of_leaving": "discharged",
        "sign_with_mark": "n",
        "notes": "blk"
    },
    {
        "id": "vtls004658281_1_13",
        "type": "sailor",
        "parent": "vtls004658281",
        "name": "evan evans",
        "dob": "blk",
        "age": "30",
        "place_of_birth": "newquay",
        "home_address": "blk",
        "f": "blk",
        "name_of_ship": "elizabeth",
        "ship_port": "london",
        "date_leaving": "1866-10-02",
        "joined_ship_date": "1866-10-09",
        "joined_at_port": "cardiff",
        "capacity": "able seaman",
        "date_left": "1867-01-14",
        "left_port": "london",
        "cause_of_leaving": "discharged",
        "sign_with_mark": "n",
        "notes": "blk"
    },
    {
        "id": "vtls004658281_1_12",
        "type": "sailor",
        "parent": "vtls004658281",
        "name": "daniel evans",
        "dob": "blk",
        "age": "27",
        "place_of_birth": "cardigan",
        "home_address": "blk",
        "f": "blk",
        "name_of_ship": "warlock",
        "ship_port": "whitehaven",
        "date_leaving": "1864-09",
        "joined_ship_date": "1866-10-09",
        "joined_at_port": "cardiff",
        "capacity": "mate",
        "date_left": "1867-01-14",
        "left_port": "london",
        "cause_of_leaving": "discharged",
        "sign_with_mark": "n",
        "notes": "blk"
    },
    {
        "id": "vtls004658281_0_12",
        "type": "sailor",
        "parent": "vtls004658281",
        "name": "john evans",
        "dob": "blk",
        "age": "34",
        "place_of_birth": "cardigan",
        "home_address": "blk",
        "f": "blk",
        "name_of_ship": "ellen owen",
        "ship_port": "aberystwyth",
        "date_leaving": "blk",
        "joined_ship_date": "1866-06-26",
        "joined_at_port": "cardiff",
        "capacity": "mate",
        "date_left": "1866-09-12",
        "left_port": "bristol",
        "cause_of_leaving": "discharged",
        "sign_with_mark": "n",
        "notes": "blk"
    },
    {
        "id": "vtls004658281_0_11",
        "type": "sailor",
        "parent": "vtls004658281",
        "name": "enoch thomas",
        "dob": "blk",
        "age": "45",
        "place_of_birth": "newquay",
        "home_address": "blk",
        "f": "blk",
        "name_of_ship": "ellen owen",
        "ship_port": "aberystwyth",
        "date_leaving": "blk",
        "joined_ship_date": "blk",
        "joined_at_port": "blk",
        "capacity": "master",
        "date_left": "blk",
        "left_port": "blk",
        "cause_of_leaving": "remains on board",
        "sign_with_mark": "n",
        "notes": "blk"
    },
    {
        "id": "vtls004658281_1_11",
        "type": "sailor",
        "parent": "vtls004658281",
        "name": "enoch thomas",
        "dob": "blk",
        "age": "46",
        "place_of_birth": "newquay",
        "home_address": "blk",
        "f": "blk",
        "name_of_ship": "ellen owen",
        "ship_port": "aberystwyth",
        "date_leaving": "blk",
        "joined_ship_date": "blk",
        "joined_at_port": "blk",
        "capacity": "master",
        "date_left": "blk",
        "left_port": "blk",
        "cause_of_leaving": "remains on board",
        "sign_with_mark": "n",
        "notes": "blk"
    },
    {
        "id": "vtls004658293_0_11",
        "type": "sailor",
        "parent": "vtls004658293",
        "name": "enoch thomas",
        "dob": "blk",
        "age": "46",
        "place_of_birth": "newquay",
        "home_address": "cardigan",
        "f": "cardigan",
        "name_of_ship": "ellen owen",
        "ship_port": "aberystwyth",
        "date_leaving": "blk",
        "joined_ship_date": "1867-03-09",
        "joined_at_port": "cardiff",
        "capacity": "master",
        "date_left": "1867-10-28",
        "left_port": "plymouth",
        "cause_of_leaving": "remains on board",
        "sign_with_mark": "n",
        "notes": "blk"
    },
    {
        "id": "vtls004658281_1_15",
        "type": "sailor",
        "parent": "vtls004658281",
        "name": "john thomas",
        "dob": "blk",
        "age": "21",
        "place_of_birth": "newquay",
        "home_address": "blk",
        "f": "blk",
        "name_of_ship": "florence annie",
        "ship_port": "newport",
        "date_leaving": "1866-07-25",
        "joined_ship_date": "1866-10-09",
        "joined_at_port": "cardiff",
        "capacity": "able seaman",
        "date_left": "1867-01-14",
        "left_port": "london",
        "cause_of_leaving": "discharged",
        "sign_with_mark": "n",
        "notes": "blk"
    },
    {
        "id": "vtls004658281_1_14",
        "type": "sailor",
        "parent": "vtls004658281",
        "name": "richard richards",
        "dob": "blk",
        "age": "22",
        "place_of_birth": "st dogmaels",
        "home_address": "blk",
        "f": "blk",
        "name_of_ship": "kate",
        "ship_port": "pe island",
        "date_leaving": "1866-10-02",
        "joined_ship_date": "1866-10-09",
        "joined_at_port": "cardiff",
        "capacity": "able seaman",
        "date_left": "1867-01-14",
        "left_port": "london",
        "cause_of_leaving": "discharged",
        "sign_with_mark": "n",
        "notes": "blk"
    },
    {
        "id": "vtls004658293_0_13",
        "type": "sailor",
        "parent": "vtls004658293",
        "name": "evan evans",
        "dob": "blk",
        "age": "30",
        "place_of_birth": "newquay",
        "home_address": "cornwall",
        "f": "cornwall",
        "name_of_ship": "ellen owen",
        "ship_port": "aberystwyth",
        "date_leaving": "blk",
        "joined_ship_date": "1867-03-09",
        "joined_at_port": "cardiff",
        "capacity": "able seaman",
        "date_left": "1867-10-28",
        "left_port": "plymouth",
        "cause_of_leaving": "discharged",
        "sign_with_mark": "n",
        "notes": "blk"
    },
    {
        "id": "vtls004658293_0_12",
        "type": "sailor",
        "parent": "vtls004658293",
        "name": "daniel evans",
        "dob": "blk",
        "age": "28",
        "place_of_birth": "llangranog",
        "home_address": "cardigan",
        "f": "cardigan",
        "name_of_ship": "ellen owen",
        "ship_port": "aberystwyth",
        "date_leaving": "blk",
        "joined_ship_date": "1867-03-09",
        "joined_at_port": "cardiff",
        "capacity": "mate",
        "date_left": "1867-10-28",
        "left_port": "plymouth",
        "cause_of_leaving": "discharged",
        "sign_with_mark": "n",
        "notes": "blk"
    },
    {
        "id": "vtls004658281_1_16",
        "type": "sailor",
        "parent": "vtls004658281",
        "name": "john davies",
        "dob": "blk",
        "age": "19",
        "place_of_birth": "newquay",
        "home_address": "blk",
        "f": "blk",
        "name_of_ship": "g. walker",
        "ship_port": "newport",
        "date_leaving": "1866-10-08",
        "joined_ship_date": "1866-10-09",
        "joined_at_port": "cardiff",
        "capacity": "able seaman",
        "date_left": "1867-01-14",
        "left_port": "london",
        "cause_of_leaving": "discharged",
        "sign_with_mark": "n",
        "notes": "blk"
    },
    {
        "id": "vtls004658281_1_17",
        "type": "sailor",
        "parent": "vtls004658281",
        "name": "john marshea",
        "dob": "blk",
        "age": "18",
        "place_of_birth": "liverpool",
        "home_address": "blk",
        "f": "blk",
        "name_of_ship": "first ship",
        "ship_port": "blk",
        "date_leaving": "blk",
        "joined_ship_date": "1866-10-09",
        "joined_at_port": "cardiff",
        "capacity": "boy",
        "date_left": "1867-01-14",
        "left_port": "london",
        "cause_of_leaving": "discharged",
        "sign_with_mark": "n",
        "notes": "blk"
    },
    {
        "id": "vtls004658293_1_15",
        "type": "sailor",
        "parent": "vtls004658293",
        "name": "william lee",
        "dob": "blk",
        "age": "24",
        "place_of_birth": "devonport",
        "home_address": "blk",
        "f": "blk",
        "name_of_ship": "morning light",
        "ship_port": "st johns",
        "date_leaving": "1867-10",
        "joined_ship_date": "1867-10-27",
        "joined_at_port": "plymouth",
        "capacity": "able seaman",
        "date_left": "1868-01-23",
        "left_port": "spezia",
        "cause_of_leaving": "discharged",
        "sign_with_mark": "n",
        "notes": "unfit as seaman"
    },
    {
        "id": "vtls004658293_0_15",
        "type": "sailor",
        "parent": "vtls004658293",
        "name": "benjamn davies",
        "dob": "blk",
        "age": "23",
        "place_of_birth": "newquay",
        "home_address": "cornwall",
        "f": "cornwall",
        "name_of_ship": "ellen catherine",
        "ship_port": "1867-03",
        "date_leaving": "blk",
        "joined_ship_date": "1867-03-09",
        "joined_at_port": "cardiff",
        "capacity": "able seaman",
        "date_left": "1867-09-16",
        "left_port": "cronstadt",
        "cause_of_leaving": "discharged",
        "sign_with_mark": "y",
        "notes": "sick"
    },
    {
        "id": "vtls004658293_0_14",
        "type": "sailor",
        "parent": "vtls004658293",
        "name": "david evans",
        "dob": "blk",
        "age": "25",
        "place_of_birth": "newport",
        "home_address": "pembrokshire",
        "f": "pembrokshire",
        "name_of_ship": "elizabeth ann",
        "ship_port": "cardigan",
        "date_leaving": "blk",
        "joined_ship_date": "1867-03-09",
        "joined_at_port": "cardiff",
        "capacity": "able seaman",
        "date_left": "1867-10-28",
        "left_port": "plymouth",
        "cause_of_leaving": "discharged",
        "sign_with_mark": "n",
        "notes": "blk"
    },
    {
        "id": "vtls004658293_1_14",
        "type": "sailor",
        "parent": "vtls004658293",
        "name": "john lewis",
        "dob": "blk",
        "age": "18",
        "place_of_birth": "cardigan",
        "home_address": "blk",
        "f": "blk",
        "name_of_ship": "ellen owen",
        "ship_port": "aberystwyth",
        "date_leaving": "1867-10-27",
        "joined_ship_date": "1867-10-27",
        "joined_at_port": "plymouth",
        "capacity": "able seaman",
        "date_left": "1868-04-24",
        "left_port": "bristol",
        "cause_of_leaving": "discharged",
        "sign_with_mark": "n",
        "notes": "blk"
    },
    {
        "id": "vtls004658293_1_13",
        "type": "sailor",
        "parent": "vtls004658293",
        "name": "david evans",
        "dob": "blk",
        "age": "25",
        "place_of_birth": "wales",
        "home_address": "blk",
        "f": "blk",
        "name_of_ship": "ellen owen",
        "ship_port": "aberystwyth",
        "date_leaving": "1867-10-27",
        "joined_ship_date": "1867-10-27",
        "joined_at_port": "plymouth",
        "capacity": "able seaman",
        "date_left": "1868-04-24",
        "left_port": "bristol",
        "cause_of_leaving": "discharged",
        "sign_with_mark": "n",
        "notes": "blk"
    },
    {
        "id": "vtls004658293_0_16",
        "type": "sailor",
        "parent": "vtls004658293",
        "name": "john lewis",
        "dob": "blk",
        "age": "18",
        "place_of_birth": "cardigan",
        "home_address": "blk",
        "f": "blk",
        "name_of_ship": "lizzie ellen",
        "ship_port": "1867-03",
        "date_leaving": "blk",
        "joined_ship_date": "1867-03-09",
        "joined_at_port": "cardiff",
        "capacity": "ordinary seaman",
        "date_left": "1867-10-28",
        "left_port": "plymouth",
        "cause_of_leaving": "discharged",
        "sign_with_mark": "n",
        "notes": "blk"
    },
    {
        "id": "vtls004658293_0_18",
        "type": "sailor",
        "parent": "vtls004658293",
        "name": "chuster pholento",
        "dob": "blk",
        "age": "30",
        "place_of_birth": "nyberg",
        "home_address": "blk",
        "f": "blk",
        "name_of_ship": "finnish ship",
        "ship_port": "blk",
        "date_leaving": "blk",
        "joined_ship_date": "1867-03-09",
        "joined_at_port": "cardiff",
        "capacity": "able seaman",
        "date_left": "1867-10-28",
        "left_port": "plymouth",
        "cause_of_leaving": "discharged",
        "sign_with_mark": "n",
        "notes": "blk"
    },
    {
        "id": "vtls004658293_1_12",
        "type": "sailor",
        "parent": "vtls004658293",
        "name": "daniel evans",
        "dob": "blk",
        "age": "28",
        "place_of_birth": "wales",
        "home_address": "blk",
        "f": "blk",
        "name_of_ship": "ellen owen",
        "ship_port": "aberystwyth",
        "date_leaving": "1867-10-27",
        "joined_ship_date": "1867-10-27",
        "joined_at_port": "plymouth",
        "capacity": "mate",
        "date_left": "1868-04-24",
        "left_port": "bristol",
        "cause_of_leaving": "discharged",
        "sign_with_mark": "n",
        "notes": "blk"
    },
    {
        "id": "vtls004658293_0_17",
        "type": "sailor",
        "parent": "vtls004658293",
        "name": "john marshea",
        "dob": "blk",
        "age": "18",
        "place_of_birth": "liverpool",
        "home_address": "blk",
        "f": "blk",
        "name_of_ship": "ellen owen",
        "ship_port": "aberystwyth",
        "date_leaving": "blk",
        "joined_ship_date": "1867-03-09",
        "joined_at_port": "cardiff",
        "capacity": "boy",
        "date_left": "1867-10-28",
        "left_port": "plymouth",
        "cause_of_leaving": "discharged",
        "sign_with_mark": "n",
        "notes": "blk"
    },
    {
        "id": "vtls004658293_1_11",
        "type": "sailor",
        "parent": "vtls004658293",
        "name": "enoch thomas",
        "dob": "blk",
        "age": "46",
        "place_of_birth": "newquay",
        "home_address": "blk",
        "f": "blk",
        "name_of_ship": "ellen owen",
        "ship_port": "aberystwyth",
        "date_leaving": "blk",
        "joined_ship_date": "blk",
        "joined_at_port": "blk",
        "capacity": "master",
        "date_left": "blk",
        "left_port": "blk",
        "cause_of_leaving": "remains on board",
        "sign_with_mark": "n",
        "notes": "blk"
    },
    {
        "id": "vtls004658293_1_18",
        "type": "sailor",
        "parent": "vtls004658293",
        "name": "per filippe prusaco",
        "dob": "blk",
        "age": "56",
        "place_of_birth": "s tareuzio gulf of spezia",
        "home_address": "blk",
        "f": "blk",
        "name_of_ship": "[fenice]",
        "ship_port": "[camogli]",
        "date_leaving": "1867-12-20",
        "joined_ship_date": "1868-01-29",
        "joined_at_port": "spezia",
        "capacity": "able seaman",
        "date_left": "1868-04-24",
        "left_port": "bristol",
        "cause_of_leaving": "discharged",
        "sign_with_mark": "n",
        "notes": "blk"
    },
    {
        "id": "vtls004658293_1_19",
        "type": "sailor",
        "parent": "vtls004658293",
        "name": "francaico prusaco",
        "dob": "blk",
        "age": "17",
        "place_of_birth": "s tareuzio gulf of spezia",
        "home_address": "blk",
        "f": "blk",
        "name_of_ship": "tireno",
        "ship_port": "[chiavari]",
        "date_leaving": "1868-01-25",
        "joined_ship_date": "1868-01-29",
        "joined_at_port": "spezia",
        "capacity": "able seaman",
        "date_left": "1868-04-24",
        "left_port": "bristol",
        "cause_of_leaving": "discharged",
        "sign_with_mark": "n",
        "notes": "blk"
    },
    {
        "id": "vtls004658293_1_16",
        "type": "sailor",
        "parent": "vtls004658293",
        "name": "george lee",
        "dob": "blk",
        "age": "21",
        "place_of_birth": "devonport",
        "home_address": "blk",
        "f": "blk",
        "name_of_ship": "john hedley",
        "ship_port": "plymouth",
        "date_leaving": "1867-10",
        "joined_ship_date": "1867-10-27",
        "joined_at_port": "plymouth",
        "capacity": "cook",
        "date_left": "1868-01-23",
        "left_port": "spezia",
        "cause_of_leaving": "discharged",
        "sign_with_mark": "n",
        "notes": "unfit to perform duty"
    },
    {
        "id": "vtls004658293_1_17",
        "type": "sailor",
        "parent": "vtls004658293",
        "name": "peter anson",
        "dob": "blk",
        "age": "32",
        "place_of_birth": "swansea",
        "home_address": "blk",
        "f": "blk",
        "name_of_ship": "[lircassia]",
        "ship_port": "[huelus]",
        "date_leaving": "1867-08",
        "joined_ship_date": "1867-11-07",
        "joined_at_port": "plymouth",
        "capacity": "able seaman",
        "date_left": "1868-04-24",
        "left_port": "bristol",
        "cause_of_leaving": "discharged",
        "sign_with_mark": "n",
        "notes": "blk"
    },
    {
        "id": "vtls004658349_0_12",
        "type": "sailor",
        "parent": "vtls004658349",
        "name": "thomas owens",
        "dob": "blk",
        "age": "25",
        "place_of_birth": "cardigan",
        "home_address": "blk",
        "f": "blk",
        "name_of_ship": "sarah bridget",
        "ship_port": "aberystwyth",
        "date_leaving": "1868-03-21",
        "joined_ship_date": "1868-05-16",
        "joined_at_port": "cardiff",
        "capacity": "mate",
        "date_left": "blk",
        "left_port": "blk",
        "cause_of_leaving": "blk",
        "sign_with_mark": "n",
        "notes": "blk"
    },
    {
        "id": "vtls004658349_0_13",
        "type": "sailor",
        "parent": "vtls004658349",
        "name": "ebenezen thomas",
        "dob": "blk",
        "age": "22",
        "place_of_birth": "newquay",
        "home_address": "blk",
        "f": "blk",
        "name_of_ship": "hinda",
        "ship_port": "bristol",
        "date_leaving": "1868-02-14",
        "joined_ship_date": "1868-05-16",
        "joined_at_port": "cardiff",
        "capacity": "able seaman",
        "date_left": "blk",
        "left_port": "blk",
        "cause_of_leaving": "blk",
        "sign_with_mark": "n",
        "notes": "blk"
    },
    {
        "id": "vtls004658349_0_11",
        "type": "sailor",
        "parent": "vtls004658349",
        "name": "enoch thomas",
        "dob": "blk",
        "age": "47",
        "place_of_birth": "newquay",
        "home_address": "blk",
        "f": "blk",
        "name_of_ship": "ellen owen",
        "ship_port": "aberystwyth",
        "date_leaving": "blk",
        "joined_ship_date": "1868-05-16",
        "joined_at_port": "cardiff",
        "capacity": "master",
        "date_left": "blk",
        "left_port": "blk",
        "cause_of_leaving": "blk",
        "sign_with_mark": "n",
        "notes": "blk"
    },
    {
        "id": "vtls004658373_0_11",
        "type": "sailor",
        "parent": "vtls004658373",
        "name": "enoch thomas",
        "dob": "blk",
        "age": "48",
        "place_of_birth": "newquay",
        "home_address": "cardiganshire",
        "f": "cardiganshire",
        "name_of_ship": "ellen owen",
        "ship_port": "aberystwyth",
        "date_leaving": "blk",
        "joined_ship_date": "1869-03-02",
        "joined_at_port": "antwerp",
        "capacity": "master",
        "date_left": "1870-03-02",
        "left_port": "newquay",
        "cause_of_leaving": "remains on board",
        "sign_with_mark": "n",
        "notes": "blk"
    },
    {
        "id": "vtls004658373_0_15",
        "type": "sailor",
        "parent": "vtls004658373",
        "name": "thomas davies",
        "dob": "blk",
        "age": "18",
        "place_of_birth": "aberaeron",
        "home_address": "cardigan",
        "f": "cardigan",
        "name_of_ship": "ellen owen",
        "ship_port": "aberystwyth",
        "date_leaving": "blk",
        "joined_ship_date": "1869-03-02",
        "joined_at_port": "antwerp",
        "capacity": "able seaman",
        "date_left": "1870-03-02",
        "left_port": "newquay",
        "cause_of_leaving": "discharged",
        "sign_with_mark": "n",
        "notes": "blk"
    },
    {
        "id": "vtls004658373_0_13",
        "type": "sailor",
        "parent": "vtls004658373",
        "name": "ebenezer thomas",
        "dob": "blk",
        "age": "23",
        "place_of_birth": "newquay",
        "home_address": "cardigan",
        "f": "cardigan",
        "name_of_ship": "ellen owen",
        "ship_port": "aberystwyth",
        "date_leaving": "blk",
        "joined_ship_date": "1869-03-02",
        "joined_at_port": "antwerp",
        "capacity": "boatswain",
        "date_left": "1870-03-02",
        "left_port": "newquay",
        "cause_of_leaving": "discharged",
        "sign_with_mark": "n",
        "notes": "blk"
    },
    {
        "id": "vtls004658373_0_16",
        "type": "sailor",
        "parent": "vtls004658373",
        "name": "charles anderson",
        "dob": "blk",
        "age": "24",
        "place_of_birth": "gothenburg, sweden",
        "home_address": "blk",
        "f": "blk",
        "name_of_ship": "canondah",
        "ship_port": "blk",
        "date_leaving": "1869-02-14",
        "joined_ship_date": "1869-03-02",
        "joined_at_port": "antwerp",
        "capacity": "able seaman",
        "date_left": "1870-03-02",
        "left_port": "newquay",
        "cause_of_leaving": "discharged",
        "sign_with_mark": "n",
        "notes": "blk"
    },
    {
        "id": "vtls004658373_0_14",
        "type": "sailor",
        "parent": "vtls004658373",
        "name": "john jones",
        "dob": "blk",
        "age": "19",
        "place_of_birth": "newquay",
        "home_address": "cardigan",
        "f": "cardigan",
        "name_of_ship": "ellen owen",
        "ship_port": "aberystwyth",
        "date_leaving": "blk",
        "joined_ship_date": "1869-03-02",
        "joined_at_port": "antwerp",
        "capacity": "able seaman",
        "date_left": "1870-03-02",
        "left_port": "newquay",
        "cause_of_leaving": "discharged",
        "sign_with_mark": "n",
        "notes": "blk"
    },
    {
        "id": "vtls004658373_0_12",
        "type": "sailor",
        "parent": "vtls004658373",
        "name": "thomas owens",
        "dob": "blk",
        "age": "26",
        "place_of_birth": "cardigan",
        "home_address": "blk",
        "f": "blk",
        "name_of_ship": "ellen owen",
        "ship_port": "aberystwyth",
        "date_leaving": "blk",
        "joined_ship_date": "1869-03-02",
        "joined_at_port": "antwerp",
        "capacity": "mate",
        "date_left": "1870-03-02",
        "left_port": "newquay",
        "cause_of_leaving": "discharged",
        "sign_with_mark": "n",
        "notes": "blk"
    },
    {
        "id": "vtls004658349_0_16",
        "type": "sailor",
        "parent": "vtls004658349",
        "name": "thomas davies",
        "dob": "blk",
        "age": "18",
        "place_of_birth": "aberaeron",
        "home_address": "blk",
        "f": "blk",
        "name_of_ship": "caledonian",
        "ship_port": "boston",
        "date_leaving": "1868-05-05",
        "joined_ship_date": "1868-05-16",
        "joined_at_port": "cardiff",
        "capacity": "ordinary seaman",
        "date_left": "blk",
        "left_port": "blk",
        "cause_of_leaving": "blk",
        "sign_with_mark": "n",
        "notes": "blk"
    },
    {
        "id": "vtls004658349_0_15",
        "type": "sailor",
        "parent": "vtls004658349",
        "name": "john jones",
        "dob": "blk",
        "age": "19",
        "place_of_birth": "newquay",
        "home_address": "blk",
        "f": "blk",
        "name_of_ship": "mary sarah",
        "ship_port": "newquay",
        "date_leaving": "1868-05-12",
        "joined_ship_date": "1868-05-16",
        "joined_at_port": "cardiff",
        "capacity": "able seaman",
        "date_left": "blk",
        "left_port": "blk",
        "cause_of_leaving": "blk",
        "sign_with_mark": "n",
        "notes": "blk"
    },
    {
        "id": "vtls004658349_0_14",
        "type": "sailor",
        "parent": "vtls004658349",
        "name": "henry evans",
        "dob": "blk",
        "age": "26",
        "place_of_birth": "cardigan",
        "home_address": "blk",
        "f": "blk",
        "name_of_ship": "hope",
        "ship_port": "newport",
        "date_leaving": "1868-02-26",
        "joined_ship_date": "1868-05-16",
        "joined_at_port": "cardiff",
        "capacity": "able seaman",
        "date_left": "blk",
        "left_port": "blk",
        "cause_of_leaving": "blk",
        "sign_with_mark": "n",
        "notes": "blk"
    },
    {
        "id": "vtls004658394_0_13",
        "type": "sailor",
        "parent": "vtls004658394",
        "name": "david jenkins",
        "dob": "blk",
        "age": "40",
        "place_of_birth": "newquay",
        "home_address": "blk",
        "f": "blk",
        "name_of_ship": "ellen owen",
        "ship_port": "aberystwyth",
        "date_leaving": "1870",
        "joined_ship_date": "1870-05-26",
        "joined_at_port": "swansea",
        "capacity": "able seaman",
        "date_left": "1871-02-12",
        "left_port": "london",
        "cause_of_leaving": "discharged",
        "sign_with_mark": "n",
        "notes": "blk"
    },
    {
        "id": "vtls004658394_0_12",
        "type": "sailor",
        "parent": "vtls004658394",
        "name": "william shearis",
        "dob": "blk",
        "age": "57",
        "place_of_birth": "kidwelly",
        "home_address": "blk",
        "f": "blk",
        "name_of_ship": "ellen owen",
        "ship_port": "aberystwyth",
        "date_leaving": "1870",
        "joined_ship_date": "1870-05-26",
        "joined_at_port": "swansea",
        "capacity": "mate",
        "date_left": "1871-02-12",
        "left_port": "london",
        "cause_of_leaving": "discharged",
        "sign_with_mark": "n",
        "notes": "blk"
    },
    {
        "id": "vtls004658394_0_16",
        "type": "sailor",
        "parent": "vtls004658394",
        "name": "john evans",
        "dob": "blk",
        "age": "20",
        "place_of_birth": "newquay",
        "home_address": "blk",
        "f": "blk",
        "name_of_ship": "ellen owen",
        "ship_port": "aberystwyth",
        "date_leaving": "1870",
        "joined_ship_date": "1870-05-26",
        "joined_at_port": "swansea",
        "capacity": "able seaman",
        "date_left": "1871-02-12",
        "left_port": "london",
        "cause_of_leaving": "discharged",
        "sign_with_mark": "n",
        "notes": "blk"
    },
    {
        "id": "vtls004658394_0_11",
        "type": "sailor",
        "parent": "vtls004658394",
        "name": "enoch davies",
        "dob": "blk",
        "age": "49",
        "place_of_birth": "newquay",
        "home_address": "high terrace, new quay",
        "f": "high terrace, new quay",
        "name_of_ship": "ellen owen",
        "ship_port": "aberystwyth",
        "date_leaving": "blk",
        "joined_ship_date": "continued",
        "joined_at_port": "blk",
        "capacity": "$",
        "date_left": "blk",
        "left_port": "blk",
        "cause_of_leaving": "remains on board",
        "sign_with_mark": "n",
        "notes": "blk"
    },
    {
        "id": "vtls004658394_0_15",
        "type": "sailor",
        "parent": "vtls004658394",
        "name": "evan thomas",
        "dob": "blk",
        "age": "19",
        "place_of_birth": "newquay",
        "home_address": "blk",
        "f": "blk",
        "name_of_ship": "ocean dart",
        "ship_port": "new quay",
        "date_leaving": "1870",
        "joined_ship_date": "1870-05-26",
        "joined_at_port": "swansea",
        "capacity": "able seaman",
        "date_left": "1871-02-12",
        "left_port": "london",
        "cause_of_leaving": "discharged",
        "sign_with_mark": "n",
        "notes": "blk"
    },
    {
        "id": "vtls004658394_0_14",
        "type": "sailor",
        "parent": "vtls004658394",
        "name": "daniel davies",
        "dob": "blk",
        "age": "29",
        "place_of_birth": "newquay",
        "home_address": "blk",
        "f": "blk",
        "name_of_ship": "ann",
        "ship_port": "p.e.island",
        "date_leaving": "1870",
        "joined_ship_date": "1870-05-26",
        "joined_at_port": "swansea",
        "capacity": "able seaman",
        "date_left": "1871-02-12",
        "left_port": "london",
        "cause_of_leaving": "discharged",
        "sign_with_mark": "n",
        "notes": "blk"
    },
    {
        "id": "vtls004658373_0_17",
        "type": "sailor",
        "parent": "vtls004658373",
        "name": "daniel evans",
        "dob": "blk",
        "age": "blk",
        "place_of_birth": "cilgerran",
        "home_address": "blk",
        "f": "blk",
        "name_of_ship": "blk",
        "ship_port": "blk",
        "date_leaving": "blk",
        "joined_ship_date": "blk",
        "joined_at_port": "blk",
        "capacity": "apprentice",
        "date_left": "blk",
        "left_port": "blk",
        "cause_of_leaving": "blk",
        "sign_with_mark": "n",
        "notes": "registry of indenture at bristol 1868-05-01"
    },
    {
        "id": "vtls004658394_1_14",
        "type": "sailor",
        "parent": "vtls004658394",
        "name": "william lampoher",
        "dob": "blk",
        "age": "19",
        "place_of_birth": "mumbles",
        "home_address": "blk",
        "f": "blk",
        "name_of_ship": "ellen owen",
        "ship_port": "aberystwyth",
        "date_leaving": "1871",
        "joined_ship_date": "1871-03-31",
        "joined_at_port": "cardiff",
        "capacity": "able seaman",
        "date_left": "1871-10-05",
        "left_port": "london",
        "cause_of_leaving": "discharged",
        "sign_with_mark": "n",
        "notes": "blk"
    },
    {
        "id": "vtls004658394_1_16",
        "type": "sailor",
        "parent": "vtls004658394",
        "name": "henry lawson",
        "dob": "blk",
        "age": "22",
        "place_of_birth": "london",
        "home_address": "blk",
        "f": "blk",
        "name_of_ship": "star of china",
        "ship_port": "aberdeen",
        "date_leaving": "1871",
        "joined_ship_date": "1871-03-31",
        "joined_at_port": "cardiff",
        "capacity": "ordinary seaman",
        "date_left": "1871-10-05",
        "left_port": "london",
        "cause_of_leaving": "discharged",
        "sign_with_mark": "n",
        "notes": "blk"
    },
    {
        "id": "vtls004658394_1_15",
        "type": "sailor",
        "parent": "vtls004658394",
        "name": "jenkin evans",
        "dob": "blk",
        "age": "33",
        "place_of_birth": "aberaeron",
        "home_address": "blk",
        "f": "blk",
        "name_of_ship": "steuart lane",
        "ship_port": "liverpool",
        "date_leaving": "1871",
        "joined_ship_date": "1871-03-31",
        "joined_at_port": "cardiff",
        "capacity": "boatswain",
        "date_left": "1871-10-05",
        "left_port": "london",
        "cause_of_leaving": "discharged",
        "sign_with_mark": "n",
        "notes": "blk"
    },
    {
        "id": "vtls004658394_1_13",
        "type": "sailor",
        "parent": "vtls004658394",
        "name": "john collett",
        "dob": "blk",
        "age": "23",
        "place_of_birth": "london",
        "home_address": "blk",
        "f": "blk",
        "name_of_ship": "ellen owen",
        "ship_port": "aberystwyth",
        "date_leaving": "1871",
        "joined_ship_date": "1871-03-31",
        "joined_at_port": "cardiff",
        "capacity": "able seaman",
        "date_left": "1871-10-05",
        "left_port": "london",
        "cause_of_leaving": "discharged",
        "sign_with_mark": "n",
        "notes": "blk"
    },
    {
        "id": "vtls004658394_1_17",
        "type": "sailor",
        "parent": "vtls004658394",
        "name": "david owens",
        "dob": "blk",
        "age": "15",
        "place_of_birth": "blk",
        "home_address": "blk",
        "f": "blk",
        "name_of_ship": "blk",
        "ship_port": "blk",
        "date_leaving": "blk",
        "joined_ship_date": "blk",
        "joined_at_port": "blk",
        "capacity": "apprentice",
        "date_left": "blk",
        "left_port": "blk",
        "cause_of_leaving": "remains on board",
        "sign_with_mark": "blk",
        "notes": "regostry of indenture on 1870-05-27 at swansea"
    },
    {
        "id": "vtls004658394_1_11",
        "type": "sailor",
        "parent": "vtls004658394",
        "name": "enoch thomas",
        "dob": "blk",
        "age": "49",
        "place_of_birth": "newquay",
        "home_address": "cardigan",
        "f": "cardigan",
        "name_of_ship": "ellen owen",
        "ship_port": "aberystwyth",
        "date_leaving": "1871",
        "joined_ship_date": "1871-03-31",
        "joined_at_port": "cardiff",
        "capacity": "53589",
        "date_left": "blk",
        "left_port": "blk",
        "cause_of_leaving": "remains on board",
        "sign_with_mark": "n",
        "notes": "blk"
    },
    {
        "id": "vtls004658411_0_12",
        "type": "sailor",
        "parent": "vtls004658411",
        "name": "thomas owens",
        "dob": "blk",
        "age": "29",
        "place_of_birth": "llangranog",
        "home_address": "blk",
        "f": "blk",
        "name_of_ship": "ellen owen",
        "ship_port": "aberystwyth",
        "date_leaving": "1871",
        "joined_ship_date": "1871-10-24",
        "joined_at_port": "london",
        "capacity": "mate",
        "date_left": "1872-04-10",
        "left_port": "london",
        "cause_of_leaving": "discharged",
        "sign_with_mark": "n",
        "notes": "blk"
    },
    {
        "id": "vtls004658394_1_12",
        "type": "sailor",
        "parent": "vtls004658394",
        "name": "thomas owens",
        "dob": "blk",
        "age": "28",
        "place_of_birth": "cardigan",
        "home_address": "blk",
        "f": "blk",
        "name_of_ship": "chrysolite",
        "ship_port": "whitehaven",
        "date_leaving": "1871",
        "joined_ship_date": "1871-03-31",
        "joined_at_port": "cardiff",
        "capacity": "mate",
        "date_left": "1871-10-05",
        "left_port": "london",
        "cause_of_leaving": "discharged",
        "sign_with_mark": "n",
        "notes": "blk"
    },
    {
        "id": "vtls004658411_0_11",
        "type": "sailor",
        "parent": "vtls004658411",
        "name": "enoch thomas",
        "dob": "blk",
        "age": "50",
        "place_of_birth": "newquay",
        "home_address": "blk",
        "f": "blk",
        "name_of_ship": "ellen owen",
        "ship_port": "aberystwyth",
        "date_leaving": "1871",
        "joined_ship_date": "continued",
        "joined_at_port": "blk",
        "capacity": "master",
        "date_left": "blk",
        "left_port": "blk",
        "cause_of_leaving": "remains on board",
        "sign_with_mark": "n",
        "notes": "blk"
    },
    {
        "id": "vtls004658411_0_14",
        "type": "sailor",
        "parent": "vtls004658411",
        "name": "william james",
        "dob": "blk",
        "age": "20",
        "place_of_birth": "dominique",
        "home_address": "blk",
        "f": "blk",
        "name_of_ship": "oliver cromwell",
        "ship_port": "liverpool",
        "date_leaving": "1871",
        "joined_ship_date": "1871-10-24",
        "joined_at_port": "london",
        "capacity": "cook",
        "date_left": "1872-01-16",
        "left_port": "grenada",
        "cause_of_leaving": "left in goal",
        "sign_with_mark": "y",
        "notes": "account in log book"
    },
    {
        "id": "vtls004658411_0_15",
        "type": "sailor",
        "parent": "vtls004658411",
        "name": "charles williamson",
        "dob": "blk",
        "age": "25",
        "place_of_birth": "stockholm",
        "home_address": "blk",
        "f": "blk",
        "name_of_ship": "american ship",
        "ship_port": "blk",
        "date_leaving": "1871",
        "joined_ship_date": "1871-10-25",
        "joined_at_port": "london",
        "capacity": "able seaman",
        "date_left": "1872-04-10",
        "left_port": "london",
        "cause_of_leaving": "discharged",
        "sign_with_mark": "y",
        "notes": "blk"
    },
    {
        "id": "vtls004658411_0_16",
        "type": "sailor",
        "parent": "vtls004658411",
        "name": "john doran",
        "dob": "blk",
        "age": "29",
        "place_of_birth": "prussia",
        "home_address": "blk",
        "f": "blk",
        "name_of_ship": "glen$$$$",
        "ship_port": "london",
        "date_leaving": "1871",
        "joined_ship_date": "1871-10-25",
        "joined_at_port": "london",
        "capacity": "able seaman",
        "date_left": "1872-04-10",
        "left_port": "london",
        "cause_of_leaving": "discharged",
        "sign_with_mark": "n",
        "notes": "blk"
    },
    {
        "id": "vtls004658426_0_12",
        "type": "sailor",
        "parent": "vtls004658426",
        "name": "thomas owen",
        "dob": "blk",
        "age": "30",
        "place_of_birth": "cardigan",
        "home_address": "blk",
        "f": "blk",
        "name_of_ship": "ellen owen",
        "ship_port": "aberystwyth",
        "date_leaving": "1872",
        "joined_ship_date": "1872-05-03",
        "joined_at_port": "london",
        "capacity": "mate",
        "date_left": "1873-04-05",
        "left_port": "hull",
        "cause_of_leaving": "discharged",
        "sign_with_mark": "n",
        "notes": "blk"
    },
    {
        "id": "vtls004658411_0_13",
        "type": "sailor",
        "parent": "vtls004658411",
        "name": "john martinson",
        "dob": "blk",
        "age": "25",
        "place_of_birth": "norway",
        "home_address": "blk",
        "f": "blk",
        "name_of_ship": "american ship",
        "ship_port": "blk",
        "date_leaving": "1871",
        "joined_ship_date": "1871-10-25",
        "joined_at_port": "london",
        "capacity": "boy",
        "date_left": "1872-04-10",
        "left_port": "london",
        "cause_of_leaving": "discharged",
        "sign_with_mark": "y",
        "notes": "blk"
    },
    {
        "id": "vtls004658426_0_11",
        "type": "sailor",
        "parent": "vtls004658426",
        "name": "enoch thomas",
        "dob": "blk",
        "age": "52",
        "place_of_birth": "newquay",
        "home_address": "blk",
        "f": "blk",
        "name_of_ship": "ellen owen",
        "ship_port": "aberystwyth",
        "date_leaving": "blk",
        "joined_ship_date": "continues",
        "joined_at_port": "blk",
        "capacity": "master",
        "date_left": "blk",
        "left_port": "blk",
        "cause_of_leaving": "remains on board",
        "sign_with_mark": "n",
        "notes": "blk"
    },
    {
        "id": "vtls004658426_0_13",
        "type": "sailor",
        "parent": "vtls004658426",
        "name": "john hall",
        "dob": "blk",
        "age": "31",
        "place_of_birth": "northwick",
        "home_address": "blk",
        "f": "blk",
        "name_of_ship": "medusa",
        "ship_port": "london",
        "date_leaving": "1872",
        "joined_ship_date": "1872-05-03",
        "joined_at_port": "london",
        "capacity": "boatswain",
        "date_left": "1873-04-05",
        "left_port": "hull",
        "cause_of_leaving": "discharged",
        "sign_with_mark": "n",
        "notes": "blk"
    },
    {
        "id": "vtls004658426_1_14",
        "type": "sailor",
        "parent": "vtls004658426",
        "name": "alfredo consiglio",
        "dob": "blk",
        "age": "35",
        "place_of_birth": "gallipoli",
        "home_address": "blk",
        "f": "blk",
        "name_of_ship": "ellen owen",
        "ship_port": "aberystwyth",
        "date_leaving": "1873",
        "joined_ship_date": "1873-04-17",
        "joined_at_port": "hull",
        "capacity": "able seaman",
        "date_left": "1873-12-03",
        "left_port": "malaga",
        "cause_of_leaving": "discharged",
        "sign_with_mark": "n",
        "notes": "mutual consent"
    },
    {
        "id": "vtls004658426_0_17",
        "type": "sailor",
        "parent": "vtls004658426",
        "name": "charles nielson",
        "dob": "blk",
        "age": "19",
        "place_of_birth": "denmark",
        "home_address": "blk",
        "f": "blk",
        "name_of_ship": "stafford",
        "ship_port": "blk",
        "date_leaving": "1872",
        "joined_ship_date": "1872-12-13",
        "joined_at_port": "naples",
        "capacity": "cook & ordinary seaman",
        "date_left": "1873-04-05",
        "left_port": "hull",
        "cause_of_leaving": "discharged",
        "sign_with_mark": "n",
        "notes": "blk"
    },
    {
        "id": "vtls004658426_0_14",
        "type": "sailor",
        "parent": "vtls004658426",
        "name": "harry lawson",
        "dob": "blk",
        "age": "23",
        "place_of_birth": "london",
        "home_address": "blk",
        "f": "blk",
        "name_of_ship": "somersetshire",
        "ship_port": "london",
        "date_leaving": "1872",
        "joined_ship_date": "1872-05-03",
        "joined_at_port": "london",
        "capacity": "cook",
        "date_left": "1872-07-02",
        "left_port": "halifax",
        "cause_of_leaving": "hospital",
        "sign_with_mark": "n",
        "notes": "left in hospital"
    },
    {
        "id": "vtls004658426_0_15",
        "type": "sailor",
        "parent": "vtls004658426",
        "name": "john mackenzie",
        "dob": "blk",
        "age": "20",
        "place_of_birth": "bauffshire",
        "home_address": "blk",
        "f": "blk",
        "name_of_ship": "rival",
        "ship_port": "inverness",
        "date_leaving": "1872",
        "joined_ship_date": "1872-05-03",
        "joined_at_port": "london",
        "capacity": "able seaman",
        "date_left": "1873-04-05",
        "left_port": "hull",
        "cause_of_leaving": "discharged",
        "sign_with_mark": "y",
        "notes": "blk"
    },
    {
        "id": "vtls004658426_0_16",
        "type": "sailor",
        "parent": "vtls004658426",
        "name": "rainault johnson",
        "dob": "blk",
        "age": "25",
        "place_of_birth": "finland",
        "home_address": "blk",
        "f": "blk",
        "name_of_ship": "carrick",
        "ship_port": "london",
        "date_leaving": "1872",
        "joined_ship_date": "1872-05-03",
        "joined_at_port": "london",
        "capacity": "able seaman",
        "date_left": "1873-04-05",
        "left_port": "hull",
        "cause_of_leaving": "discharged",
        "sign_with_mark": "y",
        "notes": "blk"
    },
    {
        "id": "vtls004658426_1_12",
        "type": "sailor",
        "parent": "vtls004658426",
        "name": "john thomas",
        "dob": "blk",
        "age": "43",
        "place_of_birth": "newquay",
        "home_address": "blk",
        "f": "blk",
        "name_of_ship": "dreadnought",
        "ship_port": "aberystwyth",
        "date_leaving": "1873",
        "joined_ship_date": "1873-04-17",
        "joined_at_port": "hull",
        "capacity": "mate",
        "date_left": "1874-01-01",
        "left_port": "bristol",
        "cause_of_leaving": "discharged",
        "sign_with_mark": "n",
        "notes": "blk"
    },
    {
        "id": "vtls004658426_1_15",
        "type": "sailor",
        "parent": "vtls004658426",
        "name": "thomas ivenson",
        "dob": "blk",
        "age": "19",
        "place_of_birth": "sweden",
        "home_address": "blk",
        "f": "blk",
        "name_of_ship": "norwegian",
        "ship_port": "blk",
        "date_leaving": "1873",
        "joined_ship_date": "1873-04-17",
        "joined_at_port": "hull",
        "capacity": "able seaman",
        "date_left": "1873-12-31",
        "left_port": "bristol",
        "cause_of_leaving": "discharged",
        "sign_with_mark": "n",
        "notes": "blk"
    },
    {
        "id": "vtls004658426_1_11",
        "type": "sailor",
        "parent": "vtls004658426",
        "name": "enoch thomas",
        "dob": "blk",
        "age": "54",
        "place_of_birth": "newquay",
        "home_address": "blk",
        "f": "blk",
        "name_of_ship": "ellen owen",
        "ship_port": "aberystwyth",
        "date_leaving": "1873",
        "joined_ship_date": "1873-04-17",
        "joined_at_port": "hull",
        "capacity": "53589",
        "date_left": "blk",
        "left_port": "blk",
        "cause_of_leaving": "remains on board",
        "sign_with_mark": "n",
        "notes": "blk"
    },
    {
        "id": "vtls004658426_1_13",
        "type": "sailor",
        "parent": "vtls004658426",
        "name": "l helson",
        "dob": "blk",
        "age": "39",
        "place_of_birth": "schleswig",
        "home_address": "blk",
        "f": "blk",
        "name_of_ship": "norwegian",
        "ship_port": "blk",
        "date_leaving": "1873",
        "joined_ship_date": "1873-04-17",
        "joined_at_port": "hull",
        "capacity": "able seaman",
        "date_left": "1873-12-31",
        "left_port": "bristol",
        "cause_of_leaving": "discharged",
        "sign_with_mark": "n",
        "notes": "blk"
    },
    {
        "id": "vtls004658426_0_18",
        "type": "sailor",
        "parent": "vtls004658426",
        "name": "david owens",
        "dob": "blk",
        "age": "16",
        "place_of_birth": "blk",
        "home_address": "blk",
        "f": "blk",
        "name_of_ship": "blk",
        "ship_port": "blk",
        "date_leaving": "blk",
        "joined_ship_date": "blk",
        "joined_at_port": "blk",
        "capacity": "apprentice",
        "date_left": "blk",
        "left_port": "blk",
        "cause_of_leaving": "blk",
        "sign_with_mark": "n",
        "notes": "registry of indenture 1870-05-27 at swansea"
    },
    {
        "id": "vtls004658458_0_13",
        "type": "sailor",
        "parent": "vtls004658458",
        "name": "thomas davies",
        "dob": "blk",
        "age": "23",
        "place_of_birth": "newquay",
        "home_address": "blk",
        "f": "blk",
        "name_of_ship": "catherine & mary",
        "ship_port": "newquay",
        "date_leaving": "1874",
        "joined_ship_date": "1874-04--09",
        "joined_at_port": "briton ferry",
        "capacity": "able seaman",
        "date_left": "1874-11-20",
        "left_port": "liverpool",
        "cause_of_leaving": "discharged",
        "sign_with_mark": "y",
        "notes": "blk"
    },
    {
        "id": "vtls004658458_0_16",
        "type": "sailor",
        "parent": "vtls004658458",
        "name": "thomas rossiter",
        "dob": "blk",
        "age": "22",
        "place_of_birth": "bridgewater",
        "home_address": "blk",
        "f": "blk",
        "name_of_ship": "[campanell]",
        "ship_port": "cardiff",
        "date_leaving": "1874",
        "joined_ship_date": "1874-04-14",
        "joined_at_port": "briton ferry",
        "capacity": "cook & seaman",
        "date_left": "1874-11-20",
        "left_port": "liverpool",
        "cause_of_leaving": "discharged",
        "sign_with_mark": "n",
        "notes": "blk"
    },
    {
        "id": "vtls004658458_0_14",
        "type": "sailor",
        "parent": "vtls004658458",
        "name": "john davies",
        "dob": "blk",
        "age": "21",
        "place_of_birth": "newquay",
        "home_address": "blk",
        "f": "blk",
        "name_of_ship": "integrity",
        "ship_port": "newquay",
        "date_leaving": "1874",
        "joined_ship_date": "1874-04-09",
        "joined_at_port": "briton ferry",
        "capacity": "able seaman",
        "date_left": "1874-11-20",
        "left_port": "liverpool",
        "cause_of_leaving": "discharged",
        "sign_with_mark": "n",
        "notes": "blk"
    },
    {
        "id": "vtls004658458_0_15",
        "type": "sailor",
        "parent": "vtls004658458",
        "name": "jenkin evans",
        "dob": "blk",
        "age": "27",
        "place_of_birth": "newquay",
        "home_address": "blk",
        "f": "blk",
        "name_of_ship": "onward",
        "ship_port": "swansea",
        "date_leaving": "1874",
        "joined_ship_date": "1874-04-09",
        "joined_at_port": "briton ferry",
        "capacity": "able seaman",
        "date_left": "1874-11-20",
        "left_port": "liverpool",
        "cause_of_leaving": "discharged",
        "sign_with_mark": "n",
        "notes": "blk"
    },
    {
        "id": "vtls004658458_0_12",
        "type": "sailor",
        "parent": "vtls004658458",
        "name": "john thomas",
        "dob": "blk",
        "age": "45",
        "place_of_birth": "newquay",
        "home_address": "blk",
        "f": "blk",
        "name_of_ship": "this ship",
        "ship_port": "blk",
        "date_leaving": "blk",
        "joined_ship_date": "1874-04-09",
        "joined_at_port": "briton ferry",
        "capacity": "mate",
        "date_left": "1874-11-20",
        "left_port": "liverpool",
        "cause_of_leaving": "discharged",
        "sign_with_mark": "n",
        "notes": "blk"
    },
    {
        "id": "vtls004658426_1_16",
        "type": "sailor",
        "parent": "vtls004658426",
        "name": "carl nielson",
        "dob": "blk",
        "age": "36",
        "place_of_birth": "denmark",
        "home_address": "blk",
        "f": "blk",
        "name_of_ship": "ellen owen",
        "ship_port": "aberystwyth",
        "date_leaving": "1873",
        "joined_ship_date": "1873-04-17",
        "joined_at_port": "hull",
        "capacity": "cook & seaman",
        "date_left": "1873-12-31",
        "left_port": "bristol",
        "cause_of_leaving": "discharged",
        "sign_with_mark": "n",
        "notes": "blk"
    },
    {
        "id": "vtls004658458_0_11",
        "type": "sailor",
        "parent": "vtls004658458",
        "name": "enoch thomas",
        "dob": "blk",
        "age": "53",
        "place_of_birth": "newquay",
        "home_address": "blk",
        "f": "blk",
        "name_of_ship": "this ship",
        "ship_port": "blk",
        "date_leaving": "blk",
        "joined_ship_date": "blk",
        "joined_at_port": "blk",
        "capacity": "53589",
        "date_left": "blk",
        "left_port": "blk",
        "cause_of_leaving": "remains on board",
        "sign_with_mark": "n",
        "notes": "blk"
    },
    {
        "id": "vtls004658458_0_17",
        "type": "sailor",
        "parent": "vtls004658458",
        "name": "david evans",
        "dob": "blk",
        "age": "15",
        "place_of_birth": "bridgewater",
        "home_address": "blk",
        "f": "blk",
        "name_of_ship": "blk",
        "ship_port": "blk",
        "date_leaving": "blk",
        "joined_ship_date": "blk",
        "joined_at_port": "blk",
        "capacity": "apprentice",
        "date_left": "blk",
        "left_port": "blk",
        "cause_of_leaving": "remains on board",
        "sign_with_mark": "n",
        "notes": "blk"
    }
]