[
    {
        "id": "vtls004647700_0_11",
        "type": "sailor",
        "parent": "vtls004647700",
        "name": "david daniel",
        "dob": "blk",
        "age": "57",
        "place_of_birth": "borth",
        "home_address": "blk",
        "f": "blk",
        "name_of_ship": "dove",
        "ship_port": "aberystwyth",
        "date_leaving": "[blk]",
        "joined_ship_date": "1863-02-20",
        "joined_at_port": "aberystwyth",
        "capacity": "master",
        "date_left": "blk",
        "left_port": "blk",
        "cause_of_leaving": "remaining",
        "sign_with_mark": "n",
        "notes": "blk"
    },
    {
        "id": "vtls004647700_0_12",
        "type": "sailor",
        "parent": "vtls004647700",
        "name": "john hughes",
        "dob": "blk",
        "age": "29",
        "place_of_birth": "borth, cardigan",
        "home_address": "blk",
        "f": "blk",
        "name_of_ship": "dove",
        "ship_port": "aberystwyth",
        "date_leaving": "blk",
        "joined_ship_date": "1864-03-02",
        "joined_at_port": "aberdovey",
        "capacity": "maite",
        "date_left": "1864-12-01",
        "left_port": "aberdovey",
        "cause_of_leaving": "discharged",
        "sign_with_mark": "n",
        "notes": "blk"
    }
]