[
    {
        "id": "vtls004622571_0_11",
        "type": "sailor",
        "parent": "vtls004622571",
        "name": "thomas doughton",
        "dob": "blk",
        "age": "36",
        "place_of_birth": "aberystwyth",
        "home_address": "aberystwyth",
        "f": "aberystwyth",
        "name_of_ship": "jane griffith",
        "ship_port": "aberystwyth",
        "date_leaving": "1862-12-20",
        "joined_ship_date": "1863-01-19",
        "joined_at_port": "cardiff",
        "capacity": "master",
        "date_left": "1863-06-09",
        "left_port": "cardiff",
        "cause_of_leaving": "discharged",
        "sign_with_mark": "n",
        "notes": "blk"
    },
    {
        "id": "vtls004622571_0_18",
        "type": "sailor",
        "parent": "vtls004622571",
        "name": "richard thorcumb",
        "dob": "blk",
        "age": "23",
        "place_of_birth": "london",
        "home_address": "blk",
        "f": "blk",
        "name_of_ship": "antonia",
        "ship_port": "aberystwyth",
        "date_leaving": "1863-06-03",
        "joined_ship_date": "1863-06-09",
        "joined_at_port": "cardiff",
        "capacity": "able seaman",
        "date_left": "1863-07-15",
        "left_port": "bristol",
        "cause_of_leaving": "remains on board",
        "sign_with_mark": "n",
        "notes": "there is no antonia on the clip site for aberystwyth"
    },
    {
        "id": "vtls004622571_0_15",
        "type": "sailor",
        "parent": "vtls004622571",
        "name": "william goodwin",
        "dob": "blk",
        "age": "23",
        "place_of_birth": "london",
        "home_address": "blk",
        "f": "blk",
        "name_of_ship": "maria alice",
        "ship_port": "bideford",
        "date_leaving": "1862-12-24",
        "joined_ship_date": "1863-01-24",
        "joined_at_port": "cardiff",
        "capacity": "able seaman",
        "date_left": "1863-06-04",
        "left_port": "cardiff",
        "cause_of_leaving": "discharged",
        "sign_with_mark": "n",
        "notes": "blk"
    },
    {
        "id": "vtls004622571_0_14",
        "type": "sailor",
        "parent": "vtls004622571",
        "name": "david roberts",
        "dob": "blk",
        "age": "22",
        "place_of_birth": "aberystwyth",
        "home_address": "blk",
        "f": "blk",
        "name_of_ship": "arcturus",
        "ship_port": "aberystwyth",
        "date_leaving": "blk",
        "joined_ship_date": "1863-01-24",
        "joined_at_port": "cardiff",
        "capacity": "able seaman",
        "date_left": "1863-05-26",
        "left_port": "cardiff",
        "cause_of_leaving": "remains on board",
        "sign_with_mark": "n",
        "notes": "blk"
    },
    {
        "id": "vtls004622571_0_16",
        "type": "sailor",
        "parent": "vtls004622571",
        "name": "william cristo",
        "dob": "blk",
        "age": "20",
        "place_of_birth": "lowestoft",
        "home_address": "blk",
        "f": "blk",
        "name_of_ship": "alert",
        "ship_port": "ipswich",
        "date_leaving": "1863-01-20",
        "joined_ship_date": "1863-01-28",
        "joined_at_port": "cardiff",
        "capacity": "ordinary seaman",
        "date_left": "1863-07-15",
        "left_port": "bristol",
        "cause_of_leaving": "discharged",
        "sign_with_mark": "n",
        "notes": "blk"
    },
    {
        "id": "vtls004622571_0_19",
        "type": "sailor",
        "parent": "vtls004622571",
        "name": "thomas doughton",
        "dob": "blk",
        "age": "36",
        "place_of_birth": "aberystwyth",
        "home_address": "blk",
        "f": "blk",
        "name_of_ship": "arcturus",
        "ship_port": "aberystwyth",
        "date_leaving": "1863-06-09",
        "joined_ship_date": "1863-06-09",
        "joined_at_port": "cardiff",
        "capacity": "mate",
        "date_left": "1863-07-15",
        "left_port": "bristol",
        "cause_of_leaving": "discharged",
        "sign_with_mark": "n",
        "notes": "blk"
    },
    {
        "id": "vtls004622571_0_12",
        "type": "sailor",
        "parent": "vtls004622571",
        "name": "morgan owens",
        "dob": "blk",
        "age": "36",
        "place_of_birth": "aberystwyth",
        "home_address": "blk",
        "f": "blk",
        "name_of_ship": "arcturus",
        "ship_port": "aberystwyth",
        "date_leaving": "1863-06-02",
        "joined_ship_date": "1863-06-09",
        "joined_at_port": "cardiff",
        "capacity": "master",
        "date_left": "blk",
        "left_port": "blk",
        "cause_of_leaving": "remains on board",
        "sign_with_mark": "n",
        "notes": "blk"
    },
    {
        "id": "vtls004622571_0_13",
        "type": "sailor",
        "parent": "vtls004622571",
        "name": "john davies",
        "dob": "blk",
        "age": "46",
        "place_of_birth": "aberystwyth",
        "home_address": "blk",
        "f": "blk",
        "name_of_ship": "arcturus",
        "ship_port": "aberystwyth",
        "date_leaving": "blk",
        "joined_ship_date": "1863-01-24",
        "joined_at_port": "cardiff",
        "capacity": "mate",
        "date_left": "1863-05-26",
        "left_port": "cardiff",
        "cause_of_leaving": "discharged",
        "sign_with_mark": "n",
        "notes": "blk"
    },
    {
        "id": "vtls004622571_0_17",
        "type": "sailor",
        "parent": "vtls004622571",
        "name": "james bean",
        "dob": "blk",
        "age": "15",
        "place_of_birth": "plymouth",
        "home_address": "blk",
        "f": "blk",
        "name_of_ship": "mary",
        "ship_port": "plymouth",
        "date_leaving": "1863-01-15",
        "joined_ship_date": "1863-01-31",
        "joined_at_port": "cardiff",
        "capacity": "boy",
        "date_left": "1863-07-15",
        "left_port": "bristol",
        "cause_of_leaving": "discharged",
        "sign_with_mark": "n",
        "notes": "blk"
    },
    {
        "id": "vtls004622571_1_14",
        "type": "sailor",
        "parent": "vtls004622571",
        "name": "william edwards",
        "dob": "blk",
        "age": "24",
        "place_of_birth": "fishguard",
        "home_address": "blk",
        "f": "blk",
        "name_of_ship": "elizabeth",
        "ship_port": "blk",
        "date_leaving": "1863-08-04",
        "joined_ship_date": "1863-08-13",
        "joined_at_port": "cardiff",
        "capacity": "ordinary seaman",
        "date_left": "1863-12-26",
        "left_port": "bristol",
        "cause_of_leaving": "discharged",
        "sign_with_mark": "n",
        "notes": "blk"
    },
    {
        "id": "vtls004622571_1_17",
        "type": "sailor",
        "parent": "vtls004622571",
        "name": "theophilus jones",
        "dob": "blk",
        "age": "33",
        "place_of_birth": "cardigan",
        "home_address": "blk",
        "f": "blk",
        "name_of_ship": "harry herbert",
        "ship_port": "blk",
        "date_leaving": "1863-08-11",
        "joined_ship_date": "1863-08-14",
        "joined_at_port": "cardiff",
        "capacity": "boatswain",
        "date_left": "1863-12-26",
        "left_port": "bristol",
        "cause_of_leaving": "discharged",
        "sign_with_mark": "n",
        "notes": "blk"
    },
    {
        "id": "vtls004622576_0_12",
        "type": "sailor",
        "parent": "vtls004622576",
        "name": "seth evans",
        "dob": "blk",
        "age": "22",
        "place_of_birth": "fishguard",
        "home_address": "blk",
        "f": "blk",
        "name_of_ship": "arcturus",
        "ship_port": "aberystwyth",
        "date_leaving": "1864-07-24",
        "joined_ship_date": "1864-07-24",
        "joined_at_port": "cardiff",
        "capacity": "boatswain",
        "date_left": "1864-08-18",
        "left_port": "cardiff",
        "cause_of_leaving": "discharged",
        "sign_with_mark": "n",
        "notes": "blk"
    },
    {
        "id": "vtls004622571_1_11",
        "type": "sailor",
        "parent": "vtls004622571",
        "name": "titus evans",
        "dob": "blk",
        "age": "30",
        "place_of_birth": "fishguard",
        "home_address": "fishguard",
        "f": "fishguard",
        "name_of_ship": "rose of england",
        "ship_port": "blk",
        "date_leaving": "1863-06-10",
        "joined_ship_date": "1863-07-27",
        "joined_at_port": "cardiff",
        "capacity": "master",
        "date_left": "blk",
        "left_port": "blk",
        "cause_of_leaving": "remains on board",
        "sign_with_mark": "n",
        "notes": "blk"
    },
    {
        "id": "vtls004622571_1_13",
        "type": "sailor",
        "parent": "vtls004622571",
        "name": "david jones",
        "dob": "blk",
        "age": "33",
        "place_of_birth": "carmarthen",
        "home_address": "blk",
        "f": "blk",
        "name_of_ship": "ocean",
        "ship_port": "blk",
        "date_leaving": "1863-05-04",
        "joined_ship_date": "1863-08-13",
        "joined_at_port": "cardiff",
        "capacity": "able seaman",
        "date_left": "1863-12-26",
        "left_port": "bristol",
        "cause_of_leaving": "discharged",
        "sign_with_mark": "n",
        "notes": "blk"
    },
    {
        "id": "vtls004622571_1_15",
        "type": "sailor",
        "parent": "vtls004622571",
        "name": "john davies",
        "dob": "blk",
        "age": "18",
        "place_of_birth": "caernarfon",
        "home_address": "blk",
        "f": "blk",
        "name_of_ship": "$",
        "ship_port": "blk",
        "date_leaving": "1863-07-27",
        "joined_ship_date": "1863-08-13",
        "joined_at_port": "cardiff",
        "capacity": "ordinary seaman",
        "date_left": "1863-12-26",
        "left_port": "bristol",
        "cause_of_leaving": "discharged",
        "sign_with_mark": "n",
        "notes": "blk"
    },
    {
        "id": "vtls004622571_1_16",
        "type": "sailor",
        "parent": "vtls004622571",
        "name": "william james",
        "dob": "blk",
        "age": "18",
        "place_of_birth": "bristol",
        "home_address": "blk",
        "f": "blk",
        "name_of_ship": "$",
        "ship_port": "blk",
        "date_leaving": "1863-07-27",
        "joined_ship_date": "1863-08-13",
        "joined_at_port": "cardiff",
        "capacity": "ordinary seaman",
        "date_left": "1863-12-26",
        "left_port": "bristol",
        "cause_of_leaving": "discharged",
        "sign_with_mark": "n",
        "notes": "blk"
    },
    {
        "id": "vtls004622576_0_11",
        "type": "sailor",
        "parent": "vtls004622576",
        "name": "titus evans",
        "dob": "blk",
        "age": "30",
        "place_of_birth": "fishguard",
        "home_address": "cardiff",
        "f": "cardiff",
        "name_of_ship": "arcturus",
        "ship_port": "aberystwyth",
        "date_leaving": "blk",
        "joined_ship_date": "1864-07-24",
        "joined_at_port": "cardiff",
        "capacity": "master",
        "date_left": "blk",
        "left_port": "blk",
        "cause_of_leaving": "remains on board",
        "sign_with_mark": "n",
        "notes": "blk"
    },
    {
        "id": "vtls004622571_1_12",
        "type": "sailor",
        "parent": "vtls004622571",
        "name": "david jones",
        "dob": "blk",
        "age": "47",
        "place_of_birth": "carmarthen",
        "home_address": "blk",
        "f": "blk",
        "name_of_ship": "triumph",
        "ship_port": "blk",
        "date_leaving": "1863-05-04",
        "joined_ship_date": "1863-08-13",
        "joined_at_port": "cardiff",
        "capacity": "mate",
        "date_left": "1863-08-20",
        "left_port": "cardiff",
        "cause_of_leaving": "deserted",
        "sign_with_mark": "n",
        "notes": "blk"
    },
    {
        "id": "vtls004622576_0_15",
        "type": "sailor",
        "parent": "vtls004622576",
        "name": "william davies",
        "dob": "blk",
        "age": "20",
        "place_of_birth": "newport",
        "home_address": "blk",
        "f": "blk",
        "name_of_ship": "harriet & jane",
        "ship_port": "caernarfon",
        "date_leaving": "1864-07-27",
        "joined_ship_date": "1864-07-28",
        "joined_at_port": "cardiff",
        "capacity": "ordinary seaman",
        "date_left": "1864-08-18",
        "left_port": "cardiff",
        "cause_of_leaving": "discharged",
        "sign_with_mark": "n",
        "notes": "blk"
    },
    {
        "id": "vtls004622576_1_13",
        "type": "sailor",
        "parent": "vtls004622576",
        "name": "r thomas",
        "dob": "blk",
        "age": "22",
        "place_of_birth": "fishguard",
        "home_address": "blk",
        "f": "blk",
        "name_of_ship": "city of new york",
        "ship_port": "liverpool",
        "date_leaving": "1864-01",
        "joined_ship_date": "1864-04-30",
        "joined_at_port": "cardiff",
        "capacity": "cook & able seaman",
        "date_left": "1864-08-31",
        "left_port": "runcorn",
        "cause_of_leaving": "paid off",
        "sign_with_mark": "n",
        "notes": "blk"
    },
    {
        "id": "vtls004622576_1_11",
        "type": "sailor",
        "parent": "vtls004622576",
        "name": "titus evans",
        "dob": "blk",
        "age": "32",
        "place_of_birth": "fishguard",
        "home_address": "fishguard",
        "f": "fishguard",
        "name_of_ship": "arcturus",
        "ship_port": "aberystwyth",
        "date_leaving": "remains",
        "joined_ship_date": "1864-04-30",
        "joined_at_port": "cardiff",
        "capacity": "master",
        "date_left": "1864-08-31",
        "left_port": "runcorn",
        "cause_of_leaving": "remains on board",
        "sign_with_mark": "n",
        "notes": "blk"
    },
    {
        "id": "vtls004622576_0_16",
        "type": "sailor",
        "parent": "vtls004622576",
        "name": "thomas brooks",
        "dob": "blk",
        "age": "21",
        "place_of_birth": "newfoundland",
        "home_address": "blk",
        "f": "blk",
        "name_of_ship": "[solieno]",
        "ship_port": "[prussian]",
        "date_leaving": "blk",
        "joined_ship_date": "1864-07-28",
        "joined_at_port": "cardiff",
        "capacity": "ordinary seaman",
        "date_left": "1864-08-18",
        "left_port": "cardiff",
        "cause_of_leaving": "discharged",
        "sign_with_mark": "n",
        "notes": "blk"
    },
    {
        "id": "vtls004622576_1_12",
        "type": "sailor",
        "parent": "vtls004622576",
        "name": "seth evans",
        "dob": "blk",
        "age": "23",
        "place_of_birth": "fishguard",
        "home_address": "blk",
        "f": "blk",
        "name_of_ship": "arcturus",
        "ship_port": "aberystwyth",
        "date_leaving": "remains",
        "joined_ship_date": "1864-04-30",
        "joined_at_port": "cardiff",
        "capacity": "boatswain",
        "date_left": "1864-08-31",
        "left_port": "runcorn",
        "cause_of_leaving": "paid off",
        "sign_with_mark": "n",
        "notes": "blk"
    },
    {
        "id": "vtls004622576_0_14",
        "type": "sailor",
        "parent": "vtls004622576",
        "name": "william gronow",
        "dob": "blk",
        "age": "36",
        "place_of_birth": "solva",
        "home_address": "blk",
        "f": "blk",
        "name_of_ship": "saxon",
        "ship_port": "london",
        "date_leaving": "1864-07-10",
        "joined_ship_date": "1864-07-27",
        "joined_at_port": "cardiff",
        "capacity": "able seaman",
        "date_left": "1864-08-18",
        "left_port": "cardiff",
        "cause_of_leaving": "discharged",
        "sign_with_mark": "n",
        "notes": "blk"
    },
    {
        "id": "vtls004622576_1_14",
        "type": "sailor",
        "parent": "vtls004622576",
        "name": "john larn",
        "dob": "blk",
        "age": "22",
        "place_of_birth": "dinas",
        "home_address": "blk",
        "f": "blk",
        "name_of_ship": "betsey",
        "ship_port": "cardigan",
        "date_leaving": "1864-03-14",
        "joined_ship_date": "1864-04-30",
        "joined_at_port": "cardiff",
        "capacity": "able seaman",
        "date_left": "1864-08-31",
        "left_port": "runcorn",
        "cause_of_leaving": "paid off",
        "sign_with_mark": "n",
        "notes": "blk"
    },
    {
        "id": "vtls004622576_0_13",
        "type": "sailor",
        "parent": "vtls004622576",
        "name": "charles rees",
        "dob": "blk",
        "age": "13",
        "place_of_birth": "pembroke",
        "home_address": "blk",
        "f": "blk",
        "name_of_ship": "blk",
        "ship_port": "blk",
        "date_leaving": "blk",
        "joined_ship_date": "1864-07-16",
        "joined_at_port": "cardiff",
        "capacity": "cook",
        "date_left": "1864-08-18",
        "left_port": "cardiff",
        "cause_of_leaving": "discharged",
        "sign_with_mark": "n",
        "notes": "blk"
    },
    {
        "id": "vtls004622576_1_15",
        "type": "sailor",
        "parent": "vtls004622576",
        "name": "thomas thomas",
        "dob": "blk",
        "age": "18",
        "place_of_birth": "cardigan",
        "home_address": "blk",
        "f": "blk",
        "name_of_ship": "lilly green",
        "ship_port": "liverpool",
        "date_leaving": "1864-03-14",
        "joined_ship_date": "1864-04-30",
        "joined_at_port": "cardiff",
        "capacity": "ordinary seaman",
        "date_left": "1864-08-31",
        "left_port": "runcorn",
        "cause_of_leaving": "paid off",
        "sign_with_mark": "n",
        "notes": "blk"
    },
    {
        "id": "vtls004622576_2_15",
        "type": "sailor",
        "parent": "vtls004622576",
        "name": "robert jones",
        "dob": "blk",
        "age": "17",
        "place_of_birth": "pembroke",
        "home_address": "blk",
        "f": "blk",
        "name_of_ship": "[laurel]",
        "ship_port": "whitehaven",
        "date_leaving": "1864-09-19",
        "joined_ship_date": "1864-09-19",
        "joined_at_port": "whitehaven",
        "capacity": "ordinary seaman",
        "date_left": "1864-10-22",
        "left_port": "cardiff",
        "cause_of_leaving": "paid off",
        "sign_with_mark": "n",
        "notes": "blk"
    },
    {
        "id": "vtls004622576_2_11",
        "type": "sailor",
        "parent": "vtls004622576",
        "name": "titus evans",
        "dob": "blk",
        "age": "31",
        "place_of_birth": "fishguard",
        "home_address": "fishguard",
        "f": "fishguard",
        "name_of_ship": "arcturus",
        "ship_port": "aberystwyth",
        "date_leaving": "1864-09-02",
        "joined_ship_date": "1864-09-02",
        "joined_at_port": "runcorn",
        "capacity": "master",
        "date_left": "1864-10-22",
        "left_port": "cardiff",
        "cause_of_leaving": "paid off",
        "sign_with_mark": "n",
        "notes": "blk"
    },
    {
        "id": "vtls004622576_2_13",
        "type": "sailor",
        "parent": "vtls004622576",
        "name": "john larne",
        "dob": "blk",
        "age": "22",
        "place_of_birth": "pembroke",
        "home_address": "blk",
        "f": "blk",
        "name_of_ship": "arcturus",
        "ship_port": "aberystwyth",
        "date_leaving": "1864-09-02",
        "joined_ship_date": "1864-09-02",
        "joined_at_port": "runcorn",
        "capacity": "able seaman",
        "date_left": "1864-10-22",
        "left_port": "cardiff",
        "cause_of_leaving": "paid off",
        "sign_with_mark": "n",
        "notes": "blk"
    },
    {
        "id": "vtls004622576_2_12",
        "type": "sailor",
        "parent": "vtls004622576",
        "name": "thomas williams",
        "dob": "blk",
        "age": "28",
        "place_of_birth": "pembroke",
        "home_address": "blk",
        "f": "blk",
        "name_of_ship": "betsey",
        "ship_port": "cardigan",
        "date_leaving": "1864-09-02",
        "joined_ship_date": "1864-09-06",
        "joined_at_port": "runcorn",
        "capacity": "boatswain",
        "date_left": "1864-10-22",
        "left_port": "cardiff",
        "cause_of_leaving": "paid off",
        "sign_with_mark": "n",
        "notes": "blk"
    },
    {
        "id": "vtls004622576_1_16",
        "type": "sailor",
        "parent": "vtls004622576",
        "name": "evan evans",
        "dob": "blk",
        "age": "21",
        "place_of_birth": "aberdovey",
        "home_address": "blk",
        "f": "blk",
        "name_of_ship": "teneriffe",
        "ship_port": "blk",
        "date_leaving": "1864-04-27",
        "joined_ship_date": "1864-04-30",
        "joined_at_port": "cardiff",
        "capacity": "ordinary seaman",
        "date_left": "1864-08-31",
        "left_port": "runcorn",
        "cause_of_leaving": "paid off",
        "sign_with_mark": "n",
        "notes": "blk"
    },
    {
        "id": "vtls004622576_2_14",
        "type": "sailor",
        "parent": "vtls004622576",
        "name": "james phillips",
        "dob": "blk",
        "age": "32",
        "place_of_birth": "pembroke",
        "home_address": "blk",
        "f": "blk",
        "name_of_ship": "fairy",
        "ship_port": "blk",
        "date_leaving": "1864-09-10",
        "joined_ship_date": "1864-09-10",
        "joined_at_port": "liverpool",
        "capacity": "able seaman",
        "date_left": "1864-10-22",
        "left_port": "cardiff",
        "cause_of_leaving": "paid off",
        "sign_with_mark": "n",
        "notes": "blk"
    }
]