[
    {
        "id": "vtls004623534_0_11",
        "type": "sailor",
        "parent": "vtls004623534",
        "name": "robert griffiths",
        "dob": "blk",
        "age": "50",
        "place_of_birth": "caernarfon",
        "home_address": "blk",
        "f": "blk",
        "name_of_ship": "argo",
        "ship_port": "aberystwyth",
        "date_leaving": "1877",
        "joined_ship_date": "1877-06-09",
        "joined_at_port": "port dinorwic",
        "capacity": "master",
        "date_left": "remains",
        "left_port": "port dinorwic",
        "cause_of_leaving": "remains on board",
        "sign_with_mark": "n",
        "notes": "blk"
    },
    {
        "id": "vtls004623534_0_13",
        "type": "sailor",
        "parent": "vtls004623534",
        "name": "griffith wiliams",
        "dob": "blk",
        "age": "17",
        "place_of_birth": "newborough",
        "home_address": "blk",
        "f": "blk",
        "name_of_ship": "[carnsew]",
        "ship_port": "blk",
        "date_leaving": "1877",
        "joined_ship_date": "1877-06-09",
        "joined_at_port": "port dinorwic",
        "capacity": "cook",
        "date_left": "remains",
        "left_port": "port dinorwic",
        "cause_of_leaving": "remains on board",
        "sign_with_mark": "n",
        "notes": "blk"
    },
    {
        "id": "vtls004623534_0_12",
        "type": "sailor",
        "parent": "vtls004623534",
        "name": "evan jones",
        "dob": "blk",
        "age": "24",
        "place_of_birth": "conway",
        "home_address": "blk",
        "f": "blk",
        "name_of_ship": "argo",
        "ship_port": "aberystwyth",
        "date_leaving": "1877",
        "joined_ship_date": "1877-06-09",
        "joined_at_port": "port dinorwic",
        "capacity": "mate",
        "date_left": "remains",
        "left_port": "port dinorwic",
        "cause_of_leaving": "remains on board",
        "sign_with_mark": "n",
        "notes": "blk"
    },
    {
        "id": "vtls004623534_1_14",
        "type": "sailor",
        "parent": "vtls004623534",
        "name": "griffith jones",
        "dob": "blk",
        "age": "18",
        "place_of_birth": "newborough",
        "home_address": "blk",
        "f": "blk",
        "name_of_ship": "argo",
        "ship_port": "aberystwyth",
        "date_leaving": "continued",
        "joined_ship_date": "1877-07-12",
        "joined_at_port": "cardiff",
        "capacity": "boy",
        "date_left": "1877-12-19",
        "left_port": "port dinorwic",
        "cause_of_leaving": "remains on board",
        "sign_with_mark": "n",
        "notes": "record states that he continued on board from previous journey but record gives the name on previous journey as griffith williams"
    },
    {
        "id": "vtls004623534_1_13",
        "type": "sailor",
        "parent": "vtls004623534",
        "name": "thomas hughes",
        "dob": "blk",
        "age": "25",
        "place_of_birth": "newborough",
        "home_address": "blk",
        "f": "blk",
        "name_of_ship": "menai packet",
        "ship_port": "caernarvon",
        "date_leaving": "1877-07-11",
        "joined_ship_date": "1877-08-07",
        "joined_at_port": "bangor",
        "capacity": "mate",
        "date_left": "remains",
        "left_port": "blk",
        "cause_of_leaving": "remains on board",
        "sign_with_mark": "n",
        "notes": "blk"
    },
    {
        "id": "vtls004623548_0_11",
        "type": "sailor",
        "parent": "vtls004623548",
        "name": "robert griffiths",
        "dob": "blk",
        "age": "52",
        "place_of_birth": "caernarfon",
        "home_address": "blk",
        "f": "blk",
        "name_of_ship": "argo",
        "ship_port": "aberystwyth",
        "date_leaving": "continues",
        "joined_ship_date": "1878-01-26",
        "joined_at_port": "cardiff",
        "capacity": "master",
        "date_left": "remains",
        "left_port": "blk",
        "cause_of_leaving": "remains on board",
        "sign_with_mark": "n",
        "notes": "blk"
    },
    {
        "id": "vtls004623534_1_11",
        "type": "sailor",
        "parent": "vtls004623534",
        "name": "robert griffith",
        "dob": "blk",
        "age": "52",
        "place_of_birth": "caernarfon",
        "home_address": "blk",
        "f": "blk",
        "name_of_ship": "argo",
        "ship_port": "aberystwyth",
        "date_leaving": "continued",
        "joined_ship_date": "1877-07-12",
        "joined_at_port": "cardiff",
        "capacity": "master",
        "date_left": "remains",
        "left_port": "blk",
        "cause_of_leaving": "remains on board",
        "sign_with_mark": "n",
        "notes": "blk"
    },
    {
        "id": "vtls004623548_0_12",
        "type": "sailor",
        "parent": "vtls004623548",
        "name": "thomas hughes",
        "dob": "blk",
        "age": "25",
        "place_of_birth": "newborough",
        "home_address": "blk",
        "f": "blk",
        "name_of_ship": "argo",
        "ship_port": "aberystwyth",
        "date_leaving": "continues",
        "joined_ship_date": "1878-01-26",
        "joined_at_port": "cardiff",
        "capacity": "mate",
        "date_left": "1878-02-11",
        "left_port": "caernarfon",
        "cause_of_leaving": "paid off",
        "sign_with_mark": "n",
        "notes": "blk"
    },
    {
        "id": "vtls004623548_0_13",
        "type": "sailor",
        "parent": "vtls004623548",
        "name": "owen hughes",
        "dob": "blk",
        "age": "18",
        "place_of_birth": "newborough",
        "home_address": "blk",
        "f": "blk",
        "name_of_ship": "argo",
        "ship_port": "aberystwyth",
        "date_leaving": "continues",
        "joined_ship_date": "1878-01-26",
        "joined_at_port": "cardiff",
        "capacity": "boy",
        "date_left": "1878-02-11",
        "left_port": "caernarfon",
        "cause_of_leaving": "paid off",
        "sign_with_mark": "n",
        "notes": "blk"
    },
    {
        "id": "vtls004623534_1_15",
        "type": "sailor",
        "parent": "vtls004623534",
        "name": "david parry",
        "dob": "blk",
        "age": "17",
        "place_of_birth": "newborough",
        "home_address": "blk",
        "f": "blk",
        "name_of_ship": "first voyage",
        "ship_port": "blk",
        "date_leaving": "blk",
        "joined_ship_date": "1878-01-01",
        "joined_at_port": "port dinorwic",
        "capacity": "boy",
        "date_left": "remains",
        "left_port": "blk",
        "cause_of_leaving": "remains on board",
        "sign_with_mark": "n",
        "notes": "blk"
    },
    {
        "id": "vtls004623548_0_14",
        "type": "sailor",
        "parent": "vtls004623548",
        "name": "wiliam thomas",
        "dob": "blk",
        "age": "40",
        "place_of_birth": "newborough",
        "home_address": "blk",
        "f": "blk",
        "name_of_ship": "martha",
        "ship_port": "newport",
        "date_leaving": "blk",
        "joined_ship_date": "1878-03-14",
        "joined_at_port": "caernarvon",
        "capacity": "mate",
        "date_left": "1878-06-14",
        "left_port": "caernarfon",
        "cause_of_leaving": "paid off",
        "sign_with_mark": "n",
        "notes": "blk"
    },
    {
        "id": "vtls004623534_1_12",
        "type": "sailor",
        "parent": "vtls004623534",
        "name": "evan jones",
        "dob": "blk",
        "age": "25",
        "place_of_birth": "bangor",
        "home_address": "blk",
        "f": "blk",
        "name_of_ship": "argo",
        "ship_port": "aberystwyth",
        "date_leaving": "continued",
        "joined_ship_date": "1877-07-12",
        "joined_at_port": "cardiff",
        "capacity": "mate",
        "date_left": "1877-08-07",
        "left_port": "bangor",
        "cause_of_leaving": "discharged",
        "sign_with_mark": "n",
        "notes": "blk"
    },
    {
        "id": "vtls004623548_1_13",
        "type": "sailor",
        "parent": "vtls004623548",
        "name": "john o jones",
        "dob": "blk",
        "age": "15",
        "place_of_birth": "llanfair",
        "home_address": "blk",
        "f": "blk",
        "name_of_ship": "william & caroline",
        "ship_port": "caernarvon",
        "date_leaving": "1878",
        "joined_ship_date": "1878-07-02",
        "joined_at_port": "port dinorwic",
        "capacity": "ordinary seaman",
        "date_left": "remains",
        "left_port": "port dinorwic",
        "cause_of_leaving": "remains on board",
        "sign_with_mark": "n",
        "notes": "blk"
    },
    {
        "id": "vtls004623548_1_11",
        "type": "sailor",
        "parent": "vtls004623548",
        "name": "robert griffiths",
        "dob": "blk",
        "age": "52",
        "place_of_birth": "caernarfon",
        "home_address": "blk",
        "f": "blk",
        "name_of_ship": "argo",
        "ship_port": "aberystwyth",
        "date_leaving": "continues",
        "joined_ship_date": "1878-07-02",
        "joined_at_port": "port dinorwic",
        "capacity": "master",
        "date_left": "remains",
        "left_port": "port dinorwic",
        "cause_of_leaving": "remains on board",
        "sign_with_mark": "n",
        "notes": "blk"
    },
    {
        "id": "vtls004623548_0_16",
        "type": "sailor",
        "parent": "vtls004623548",
        "name": "john o jones",
        "dob": "blk",
        "age": "15",
        "place_of_birth": "llanfair",
        "home_address": "blk",
        "f": "blk",
        "name_of_ship": "william & caroline",
        "ship_port": "caernarvon",
        "date_leaving": "1878-06-20",
        "joined_ship_date": "1878-06-28",
        "joined_at_port": "caernarvon",
        "capacity": "boy",
        "date_left": "remains",
        "left_port": "blk",
        "cause_of_leaving": "remains on board",
        "sign_with_mark": "n",
        "notes": "blk"
    },
    {
        "id": "vtls004623548_1_12",
        "type": "sailor",
        "parent": "vtls004623548",
        "name": "henry williams",
        "dob": "blk",
        "age": "36",
        "place_of_birth": "pwllheli",
        "home_address": "blk",
        "f": "blk",
        "name_of_ship": "geneva",
        "ship_port": "caernarvon",
        "date_leaving": "1878",
        "joined_ship_date": "1878-07-02",
        "joined_at_port": "port dinorwic",
        "capacity": "mate",
        "date_left": "remains",
        "left_port": "port dinorwic",
        "cause_of_leaving": "remains on board",
        "sign_with_mark": "n",
        "notes": "blk"
    },
    {
        "id": "vtls004623555_0_12",
        "type": "sailor",
        "parent": "vtls004623555",
        "name": "john thomas",
        "dob": "blk",
        "age": "26",
        "place_of_birth": "newborough",
        "home_address": "blk",
        "f": "blk",
        "name_of_ship": "argo",
        "ship_port": "aberystwyth",
        "date_leaving": "continues",
        "joined_ship_date": "blk",
        "joined_at_port": "blk",
        "capacity": "able seaman",
        "date_left": "1879-02-19",
        "left_port": "caernarfon",
        "cause_of_leaving": "paid off",
        "sign_with_mark": "n",
        "notes": "blk"
    },
    {
        "id": "vtls004623548_0_15",
        "type": "sailor",
        "parent": "vtls004623548",
        "name": "henry williams",
        "dob": "blk",
        "age": "36",
        "place_of_birth": "pwllheli",
        "home_address": "blk",
        "f": "blk",
        "name_of_ship": "geneva",
        "ship_port": "caernarvon",
        "date_leaving": "blk",
        "joined_ship_date": "1878-06-28",
        "joined_at_port": "caernarvon",
        "capacity": "mate",
        "date_left": "remains",
        "left_port": "blk",
        "cause_of_leaving": "remains on board",
        "sign_with_mark": "n",
        "notes": "blk"
    },
    {
        "id": "vtls004623555_0_11",
        "type": "sailor",
        "parent": "vtls004623555",
        "name": "robert griffith",
        "dob": "blk",
        "age": "52",
        "place_of_birth": "caernarfon",
        "home_address": "blk",
        "f": "blk",
        "name_of_ship": "argo",
        "ship_port": "aberystwyth",
        "date_leaving": "continues",
        "joined_ship_date": "blk",
        "joined_at_port": "blk",
        "capacity": "master",
        "date_left": "remains",
        "left_port": "blk",
        "cause_of_leaving": "remains on board",
        "sign_with_mark": "n",
        "notes": "blk"
    },
    {
        "id": "vtls004623555_0_13",
        "type": "sailor",
        "parent": "vtls004623555",
        "name": "hugh humphreys",
        "dob": "blk",
        "age": "28",
        "place_of_birth": "newborough",
        "home_address": "blk",
        "f": "blk",
        "name_of_ship": "blk",
        "ship_port": "blk",
        "date_leaving": "blk",
        "joined_ship_date": "1879-03-25",
        "joined_at_port": "caernarvon",
        "capacity": "ordinary seaman",
        "date_left": "1879-05-29",
        "left_port": "caernarfon",
        "cause_of_leaving": "paid off",
        "sign_with_mark": "n",
        "notes": "record states that hugh humphreys 'worked for years in the slate quarries'"
    },
    {
        "id": "vtls004623555_1_11",
        "type": "sailor",
        "parent": "vtls004623555",
        "name": "robert griffiths",
        "dob": "blk",
        "age": "52",
        "place_of_birth": "newboro",
        "home_address": "anglesea",
        "f": "anglesea",
        "name_of_ship": "argo",
        "ship_port": "aberystwyth",
        "date_leaving": "1879",
        "joined_ship_date": "1879-07-01",
        "joined_at_port": "port dinorwic",
        "capacity": "master",
        "date_left": "remains",
        "left_port": "liverpool",
        "cause_of_leaving": "remains on board",
        "sign_with_mark": "n",
        "notes": "blk"
    },
    {
        "id": "vtls004623631_0_12",
        "type": "sailor",
        "parent": "vtls004623631",
        "name": "john owen",
        "dob": "blk",
        "age": "30",
        "place_of_birth": "newborough",
        "home_address": "anglesea",
        "f": "anglesea",
        "name_of_ship": "argo",
        "ship_port": "aberystwyth",
        "date_leaving": "continues",
        "joined_ship_date": "blk",
        "joined_at_port": "blk",
        "capacity": "able seaman",
        "date_left": "1880-06-26",
        "left_port": "port dinorwic",
        "cause_of_leaving": "paid off",
        "sign_with_mark": "n",
        "notes": "blk"
    },
    {
        "id": "vtls004623555_1_12",
        "type": "sailor",
        "parent": "vtls004623555",
        "name": "john hughes",
        "dob": "blk",
        "age": "26",
        "place_of_birth": "anglesey",
        "home_address": "blk",
        "f": "blk",
        "name_of_ship": "argo",
        "ship_port": "aberystwyth",
        "date_leaving": "1879",
        "joined_ship_date": "1879-07-01",
        "joined_at_port": "port dinorwic",
        "capacity": "mate",
        "date_left": "1880-01-15",
        "left_port": "liverpool",
        "cause_of_leaving": "discharged",
        "sign_with_mark": "n",
        "notes": "blk"
    },
    {
        "id": "vtls004623631_1_11",
        "type": "sailor",
        "parent": "vtls004623631",
        "name": "robert griffiths",
        "dob": "blk",
        "age": "53",
        "place_of_birth": "caernarfon",
        "home_address": "blk",
        "f": "blk",
        "name_of_ship": "argo",
        "ship_port": "aberystwyth",
        "date_leaving": "continues",
        "joined_ship_date": "blk",
        "joined_at_port": "blk",
        "capacity": "master",
        "date_left": "still on board",
        "left_port": "blk",
        "cause_of_leaving": "remains on board",
        "sign_with_mark": "n",
        "notes": "blk"
    },
    {
        "id": "vtls004623631_1_13",
        "type": "sailor",
        "parent": "vtls004623631",
        "name": "john owen",
        "dob": "blk",
        "age": "25",
        "place_of_birth": "newborough",
        "home_address": "blk",
        "f": "blk",
        "name_of_ship": "argo",
        "ship_port": "aberystwyth",
        "date_leaving": "continues",
        "joined_ship_date": "blk",
        "joined_at_port": "blk",
        "capacity": "able seaman",
        "date_left": "still on board",
        "left_port": "blk",
        "cause_of_leaving": "remains on board",
        "sign_with_mark": "n",
        "notes": "blk"
    },
    {
        "id": "vtls004623631_1_12",
        "type": "sailor",
        "parent": "vtls004623631",
        "name": "john jones",
        "dob": "blk",
        "age": "30",
        "place_of_birth": "newborough",
        "home_address": "blk",
        "f": "blk",
        "name_of_ship": "[landsman]",
        "ship_port": "blk",
        "date_leaving": "blk",
        "joined_ship_date": "1880-07-22",
        "joined_at_port": "port dinorwic",
        "capacity": "mate",
        "date_left": "1880-08-30",
        "left_port": "port dinorwic",
        "cause_of_leaving": "paid off",
        "sign_with_mark": "n",
        "notes": "blk"
    },
    {
        "id": "vtls004623631_0_11",
        "type": "sailor",
        "parent": "vtls004623631",
        "name": "robert griffiths",
        "dob": "blk",
        "age": "53",
        "place_of_birth": "caernarfon",
        "home_address": "blk",
        "f": "blk",
        "name_of_ship": "argo",
        "ship_port": "aberystwyth",
        "date_leaving": "continues",
        "joined_ship_date": "blk",
        "joined_at_port": "blk",
        "capacity": "master",
        "date_left": "remains",
        "left_port": "blk",
        "cause_of_leaving": "remains on board",
        "sign_with_mark": "n",
        "notes": "blk"
    },
    {
        "id": "vtls004623644_2_12",
        "type": "sailor",
        "parent": "vtls004623644",
        "name": "william griffith",
        "dob": "1830",
        "age": "blk",
        "place_of_birth": "bangor",
        "home_address": "blk",
        "f": "blk",
        "name_of_ship": "eliza & mary",
        "ship_port": "blk",
        "date_leaving": "1881",
        "joined_ship_date": "1881-09-19",
        "joined_at_port": "port dinorwic",
        "capacity": "mate",
        "date_left": "1881-12-14",
        "left_port": "port dinorwic",
        "cause_of_leaving": "paid off",
        "sign_with_mark": "n",
        "notes": "blk"
    },
    {
        "id": "vtls004623644_2_11",
        "type": "sailor",
        "parent": "vtls004623644",
        "name": "robert griffiths",
        "dob": "1827",
        "age": "blk",
        "place_of_birth": "caernarfon",
        "home_address": "blk",
        "f": "blk",
        "name_of_ship": "argo",
        "ship_port": "aberystwyth",
        "date_leaving": "1881",
        "joined_ship_date": "continued",
        "joined_at_port": "port dinorwic",
        "capacity": "master",
        "date_left": "blk",
        "left_port": "blk",
        "cause_of_leaving": "remains on board",
        "sign_with_mark": "n",
        "notes": "blk"
    },
    {
        "id": "vtls004623644_2_13",
        "type": "sailor",
        "parent": "vtls004623644",
        "name": "john roberts",
        "dob": "1863",
        "age": "blk",
        "place_of_birth": "newborough",
        "home_address": "blk",
        "f": "blk",
        "name_of_ship": "nil",
        "ship_port": "blk",
        "date_leaving": "1881",
        "joined_ship_date": "1881-09-05",
        "joined_at_port": "port dinorwic",
        "capacity": "boy",
        "date_left": "1881-12-15",
        "left_port": "port dinorwic",
        "cause_of_leaving": "paid off",
        "sign_with_mark": "n",
        "notes": "blk"
    },
    {
        "id": "vtls004623644_1_12",
        "type": "sailor",
        "parent": "vtls004623644",
        "name": "john owen",
        "dob": "1851",
        "age": "blk",
        "place_of_birth": "newborough",
        "home_address": "blk",
        "f": "blk",
        "name_of_ship": "argo",
        "ship_port": "aberystwyth",
        "date_leaving": "remain",
        "joined_ship_date": "blk",
        "joined_at_port": "blk",
        "capacity": "mate",
        "date_left": "1881-09-10",
        "left_port": "port dinorwic",
        "cause_of_leaving": "paid off",
        "sign_with_mark": "n",
        "notes": "blk"
    },
    {
        "id": "vtls004623644_0_11",
        "type": "sailor",
        "parent": "vtls004623644",
        "name": "robert griffiths",
        "dob": "blk",
        "age": "54",
        "place_of_birth": "anglesey",
        "home_address": "blk",
        "f": "blk",
        "name_of_ship": "argo",
        "ship_port": "aberystwyth",
        "date_leaving": "continued",
        "joined_ship_date": "blk",
        "joined_at_port": "blk",
        "capacity": "master",
        "date_left": "blk",
        "left_port": "blk",
        "cause_of_leaving": "remains on board",
        "sign_with_mark": "n",
        "notes": "blk"
    },
    {
        "id": "vtls004623644_1_11",
        "type": "sailor",
        "parent": "vtls004623644",
        "name": "robert griffiths",
        "dob": "1827",
        "age": "blk",
        "place_of_birth": "caernarfon",
        "home_address": "blk",
        "f": "blk",
        "name_of_ship": "argo",
        "ship_port": "aberystwyth",
        "date_leaving": "remain",
        "joined_ship_date": "blk",
        "joined_at_port": "blk",
        "capacity": "master",
        "date_left": "blk",
        "left_port": "blk",
        "cause_of_leaving": "remains on board",
        "sign_with_mark": "n",
        "notes": "blk"
    },
    {
        "id": "vtls004623644_0_12",
        "type": "sailor",
        "parent": "vtls004623644",
        "name": "john owen",
        "dob": "blk",
        "age": "35",
        "place_of_birth": "newborough",
        "home_address": "blk",
        "f": "blk",
        "name_of_ship": "argo",
        "ship_port": "aberystwyth",
        "date_leaving": "continued",
        "joined_ship_date": "blk",
        "joined_at_port": "blk",
        "capacity": "mate",
        "date_left": "blk",
        "left_port": "blk",
        "cause_of_leaving": "remains on board",
        "sign_with_mark": "n",
        "notes": "blk"
    },
    {
        "id": "vtls004623717_0_11",
        "type": "sailor",
        "parent": "vtls004623717",
        "name": "griffith griffiths",
        "dob": "1828",
        "age": "blk",
        "place_of_birth": "caernarfon",
        "home_address": "blk",
        "f": "blk",
        "name_of_ship": "argo",
        "ship_port": "aberystwyth",
        "date_leaving": "continued",
        "joined_ship_date": "continued",
        "joined_at_port": "blk",
        "capacity": "master",
        "date_left": "blk",
        "left_port": "blk",
        "cause_of_leaving": "remains on board",
        "sign_with_mark": "n",
        "notes": "griffith griffiths written but might mean robert griffiths."
    },
    {
        "id": "vtls004623710_1_11",
        "type": "sailor",
        "parent": "vtls004623710",
        "name": "robert griffiths",
        "dob": "1828",
        "age": "blk",
        "place_of_birth": "anglesey",
        "home_address": "blk",
        "f": "blk",
        "name_of_ship": "argo",
        "ship_port": "aberystwyth",
        "date_leaving": "continued",
        "joined_ship_date": "blk",
        "joined_at_port": "blk",
        "capacity": "master",
        "date_left": "blk",
        "left_port": "blk",
        "cause_of_leaving": "remains on board",
        "sign_with_mark": "n",
        "notes": "years of birth might be incorrect"
    },
    {
        "id": "vtls004623710_0_12",
        "type": "sailor",
        "parent": "vtls004623710",
        "name": "john owen",
        "dob": "1847",
        "age": "blk",
        "place_of_birth": "newborough",
        "home_address": "blk",
        "f": "blk",
        "name_of_ship": "argo",
        "ship_port": "aberystwyth",
        "date_leaving": "1882",
        "joined_ship_date": "continued",
        "joined_at_port": "blk",
        "capacity": "able seaman",
        "date_left": "1882-07-12",
        "left_port": "port dinorwic",
        "cause_of_leaving": "paid off",
        "sign_with_mark": "n",
        "notes": "blk"
    },
    {
        "id": "vtls004623717_1_11",
        "type": "sailor",
        "parent": "vtls004623717",
        "name": "robert griffiths",
        "dob": "1829",
        "age": "blk",
        "place_of_birth": "caernarfon",
        "home_address": "blk",
        "f": "blk",
        "name_of_ship": "argo",
        "ship_port": "aberystwyth",
        "date_leaving": "1884",
        "joined_ship_date": "1884-07-21",
        "joined_at_port": "carnarvon",
        "capacity": "master",
        "date_left": "1885-01-16",
        "left_port": "swansea",
        "cause_of_leaving": "continue",
        "sign_with_mark": "n",
        "notes": "blk"
    },
    {
        "id": "vtls004623717_0_12",
        "type": "sailor",
        "parent": "vtls004623717",
        "name": "john owens",
        "dob": "1844",
        "age": "blk",
        "place_of_birth": "anglesey",
        "home_address": "blk",
        "f": "blk",
        "name_of_ship": "argo",
        "ship_port": "aberystwyth",
        "date_leaving": "continued",
        "joined_ship_date": "continued",
        "joined_at_port": "blk",
        "capacity": "mate",
        "date_left": "1884-06-28",
        "left_port": "port dinorwic",
        "cause_of_leaving": "discharged",
        "sign_with_mark": "n",
        "notes": "blk"
    },
    {
        "id": "vtls004623717_1_12",
        "type": "sailor",
        "parent": "vtls004623717",
        "name": "john owens",
        "dob": "1845",
        "age": "blk",
        "place_of_birth": "newborough",
        "home_address": "blk",
        "f": "blk",
        "name_of_ship": "argo",
        "ship_port": "aberystwyth",
        "date_leaving": "1884",
        "joined_ship_date": "1884-07-21",
        "joined_at_port": "carnarvon",
        "capacity": "mate",
        "date_left": "1885-01-16",
        "left_port": "swansea",
        "cause_of_leaving": "continue",
        "sign_with_mark": "n",
        "notes": "blk"
    },
    {
        "id": "vtls004623717_1_13",
        "type": "sailor",
        "parent": "vtls004623717",
        "name": "daniel jones",
        "dob": "1868",
        "age": "blk",
        "place_of_birth": "newborough",
        "home_address": "blk",
        "f": "blk",
        "name_of_ship": "first ship",
        "ship_port": "blk",
        "date_leaving": "1884",
        "joined_ship_date": "1885-01-12",
        "joined_at_port": "carnarvon",
        "capacity": "boy",
        "date_left": "1885-01-16",
        "left_port": "swansea",
        "cause_of_leaving": "continue",
        "sign_with_mark": "n",
        "notes": "blk"
    },
    {
        "id": "vtls004623710_0_11",
        "type": "sailor",
        "parent": "vtls004623710",
        "name": "robert griffith",
        "dob": "1827",
        "age": "blk",
        "place_of_birth": "caernarfon",
        "home_address": "blk",
        "f": "blk",
        "name_of_ship": "argo",
        "ship_port": "aberystwyth",
        "date_leaving": "1882",
        "joined_ship_date": "continued",
        "joined_at_port": "blk",
        "capacity": "master",
        "date_left": "blk",
        "left_port": "blk",
        "cause_of_leaving": "remains on board",
        "sign_with_mark": "n",
        "notes": "blk"
    },
    {
        "id": "vtls004623710_1_12",
        "type": "sailor",
        "parent": "vtls004623710",
        "name": "john owen",
        "dob": "1845",
        "age": "blk",
        "place_of_birth": "anglesey",
        "home_address": "blk",
        "f": "blk",
        "name_of_ship": "argo",
        "ship_port": "aberystwyth",
        "date_leaving": "continued",
        "joined_ship_date": "blk",
        "joined_at_port": "blk",
        "capacity": "mate",
        "date_left": "blk",
        "left_port": "blk",
        "cause_of_leaving": "remains on board",
        "sign_with_mark": "n",
        "notes": "blk"
    },
    {
        "id": "vtls004623730_1_15",
        "type": "sailor",
        "parent": "vtls004623730",
        "name": "robert griffiths jr",
        "dob": "1860",
        "age": "blk",
        "place_of_birth": "caernarfon",
        "home_address": "blk",
        "f": "blk",
        "name_of_ship": "$ & jane",
        "ship_port": "caernarvon",
        "date_leaving": "blk",
        "joined_ship_date": "1886-10-26",
        "joined_at_port": "portmadoc",
        "capacity": "mate",
        "date_left": "1886-12-31",
        "left_port": "belfast",
        "cause_of_leaving": "discharged",
        "sign_with_mark": "n",
        "notes": "blk"
    },
    {
        "id": "vtls004623730_1_14",
        "type": "sailor",
        "parent": "vtls004623730",
        "name": "griffith hughes",
        "dob": "1869",
        "age": "blk",
        "place_of_birth": "bangor",
        "home_address": "blk",
        "f": "blk",
        "name_of_ship": "martha jane",
        "ship_port": "caernarvon",
        "date_leaving": "blk",
        "joined_ship_date": "1886-09-15",
        "joined_at_port": "portmadoc",
        "capacity": "boy",
        "date_left": "1886-11-29",
        "left_port": "porthmadog",
        "cause_of_leaving": "discharged",
        "sign_with_mark": "n",
        "notes": "blk"
    },
    {
        "id": "vtls004623730_1_13",
        "type": "sailor",
        "parent": "vtls004623730",
        "name": "david d davies",
        "dob": "1868",
        "age": "blk",
        "place_of_birth": "caernarfon",
        "home_address": "blk",
        "f": "blk",
        "name_of_ship": "argo",
        "ship_port": "aberystwyth",
        "date_leaving": "blk",
        "joined_ship_date": "1886-07-01",
        "joined_at_port": "newport",
        "capacity": "boy",
        "date_left": "1886-08-25",
        "left_port": "porthmadog",
        "cause_of_leaving": "discharged",
        "sign_with_mark": "n",
        "notes": "blk"
    },
    {
        "id": "vtls004623730_1_12",
        "type": "sailor",
        "parent": "vtls004623730",
        "name": "john owen",
        "dob": "1857",
        "age": "blk",
        "place_of_birth": "anglesey",
        "home_address": "blk",
        "f": "blk",
        "name_of_ship": "argo",
        "ship_port": "aberystwyth",
        "date_leaving": "blk",
        "joined_ship_date": "1886-07-01",
        "joined_at_port": "newport",
        "capacity": "mate",
        "date_left": "1886-10-05",
        "left_port": "porthmadog",
        "cause_of_leaving": "discharged",
        "sign_with_mark": "n",
        "notes": "blk"
    },
    {
        "id": "vtls004623730_0_11",
        "type": "sailor",
        "parent": "vtls004623730",
        "name": "robert griffiths",
        "dob": "1829",
        "age": "blk",
        "place_of_birth": "caernarfon",
        "home_address": "blk",
        "f": "blk",
        "name_of_ship": "argo",
        "ship_port": "aberystwyth",
        "date_leaving": "blk",
        "joined_ship_date": "1886-01",
        "joined_at_port": "conway",
        "capacity": "master",
        "date_left": "blk",
        "left_port": "blk",
        "cause_of_leaving": "remains on board",
        "sign_with_mark": "n",
        "notes": "blk"
    },
    {
        "id": "vtls004623730_1_11",
        "type": "sailor",
        "parent": "vtls004623730",
        "name": "robert griffiths",
        "dob": "1832",
        "age": "blk",
        "place_of_birth": "caernarfon",
        "home_address": "blk",
        "f": "blk",
        "name_of_ship": "argo",
        "ship_port": "aberystwyth",
        "date_leaving": "blk",
        "joined_ship_date": "continued",
        "joined_at_port": "blk",
        "capacity": "master",
        "date_left": "blk",
        "left_port": "blk",
        "cause_of_leaving": "remains on board",
        "sign_with_mark": "n",
        "notes": "blk"
    },
    {
        "id": "vtls004623730_0_12",
        "type": "sailor",
        "parent": "vtls004623730",
        "name": "john owen",
        "dob": "1846",
        "age": "blk",
        "place_of_birth": "anglesey",
        "home_address": "blk",
        "f": "blk",
        "name_of_ship": "argo",
        "ship_port": "aberystwyth",
        "date_leaving": "blk",
        "joined_ship_date": "1886-01",
        "joined_at_port": "conway",
        "capacity": "mate",
        "date_left": "blk",
        "left_port": "blk",
        "cause_of_leaving": "remains on board",
        "sign_with_mark": "n",
        "notes": "blk"
    },
    {
        "id": "vtls004623743_0_12",
        "type": "sailor",
        "parent": "vtls004623743",
        "name": "robert griffiths",
        "dob": "1857",
        "age": "blk",
        "place_of_birth": "portmadoc",
        "home_address": "blk",
        "f": "blk",
        "name_of_ship": "argo",
        "ship_port": "aberystwyth",
        "date_leaving": "1886",
        "joined_ship_date": "1887-01-09",
        "joined_at_port": "belfast",
        "capacity": "boatswain",
        "date_left": "1887-05-09",
        "left_port": "bangor",
        "cause_of_leaving": "discharged",
        "sign_with_mark": "n",
        "notes": "blk"
    },
    {
        "id": "vtls004623730_1_16",
        "type": "sailor",
        "parent": "vtls004623730",
        "name": "joseph jones",
        "dob": "1868",
        "age": "blk",
        "place_of_birth": "caernarfon",
        "home_address": "blk",
        "f": "blk",
        "name_of_ship": "talacre",
        "ship_port": "beaumaris",
        "date_leaving": "blk",
        "joined_ship_date": "1886-12-20",
        "joined_at_port": "portmadoc",
        "capacity": "boy",
        "date_left": "1886-12-31",
        "left_port": "belfast",
        "cause_of_leaving": "discharged",
        "sign_with_mark": "n",
        "notes": "blk"
    },
    {
        "id": "vtls004623743_0_13",
        "type": "sailor",
        "parent": "vtls004623743",
        "name": "john owen",
        "dob": "1847",
        "age": "blk",
        "place_of_birth": "anglesey",
        "home_address": "blk",
        "f": "blk",
        "name_of_ship": "argo",
        "ship_port": "aberystwyth",
        "date_leaving": "1886",
        "joined_ship_date": "1887-06-07",
        "joined_at_port": "bangor",
        "capacity": "boatswain",
        "date_left": "1887-06-29",
        "left_port": "porthmadog",
        "cause_of_leaving": "discharged",
        "sign_with_mark": "n",
        "notes": "blk"
    },
    {
        "id": "vtls004623753_0_11",
        "type": "sailor",
        "parent": "vtls004623753",
        "name": "robert griffiths",
        "dob": "1830",
        "age": "blk",
        "place_of_birth": "caernarfon",
        "home_address": "blk",
        "f": "blk",
        "name_of_ship": "argo",
        "ship_port": "aberystwyth",
        "date_leaving": "blk",
        "joined_ship_date": "1888-01",
        "joined_at_port": "londonderry",
        "capacity": "master",
        "date_left": "blk",
        "left_port": "blk",
        "cause_of_leaving": "remains on board",
        "sign_with_mark": "n",
        "notes": "blk"
    },
    {
        "id": "vtls004623743_0_11",
        "type": "sailor",
        "parent": "vtls004623743",
        "name": "robert griffiths",
        "dob": "1827",
        "age": "blk",
        "place_of_birth": "anglesey",
        "home_address": "blk",
        "f": "blk",
        "name_of_ship": "argo",
        "ship_port": "aberystwyth",
        "date_leaving": "1886",
        "joined_ship_date": "continue",
        "joined_at_port": "blk",
        "capacity": "master",
        "date_left": "blk",
        "left_port": "blk",
        "cause_of_leaving": "remains on board",
        "sign_with_mark": "n",
        "notes": "blk"
    },
    {
        "id": "vtls004623743_1_11",
        "type": "sailor",
        "parent": "vtls004623743",
        "name": "robert griffiths",
        "dob": "1830",
        "age": "blk",
        "place_of_birth": "newborough, anglesey",
        "home_address": "blk",
        "f": "blk",
        "name_of_ship": "continued",
        "ship_port": "blk",
        "date_leaving": "1887",
        "joined_ship_date": "continued",
        "joined_at_port": "blk",
        "capacity": "master",
        "date_left": "blk",
        "left_port": "blk",
        "cause_of_leaving": "continued",
        "sign_with_mark": "n",
        "notes": "blk"
    },
    {
        "id": "vtls004623753_0_12",
        "type": "sailor",
        "parent": "vtls004623753",
        "name": "john owen",
        "dob": "1853",
        "age": "blk",
        "place_of_birth": "anglesey",
        "home_address": "blk",
        "f": "blk",
        "name_of_ship": "argo",
        "ship_port": "aberystwyth",
        "date_leaving": "blk",
        "joined_ship_date": "1888-01",
        "joined_at_port": "londonderry",
        "capacity": "mate",
        "date_left": "blk",
        "left_port": "blk",
        "cause_of_leaving": "remains on board",
        "sign_with_mark": "n",
        "notes": "blk"
    },
    {
        "id": "vtls004623743_1_12",
        "type": "sailor",
        "parent": "vtls004623743",
        "name": "john owens",
        "dob": "1847",
        "age": "blk",
        "place_of_birth": "newborough, anglesey",
        "home_address": "blk",
        "f": "blk",
        "name_of_ship": "continued",
        "ship_port": "blk",
        "date_leaving": "1887",
        "joined_ship_date": "continued",
        "joined_at_port": "blk",
        "capacity": "mate",
        "date_left": "blk",
        "left_port": "blk",
        "cause_of_leaving": "continued",
        "sign_with_mark": "n",
        "notes": "blk"
    },
    {
        "id": "vtls004623753_1_11",
        "type": "sailor",
        "parent": "vtls004623753",
        "name": "robert griffiths",
        "dob": "1831",
        "age": "blk",
        "place_of_birth": "newborough",
        "home_address": "blk",
        "f": "blk",
        "name_of_ship": "argo",
        "ship_port": "aberystwyth",
        "date_leaving": "1888",
        "joined_ship_date": "1888-07-01",
        "joined_at_port": "newport",
        "capacity": "master",
        "date_left": "1889-01-22",
        "left_port": "liverpool",
        "cause_of_leaving": "remains on board",
        "sign_with_mark": "n",
        "notes": "blk"
    },
    {
        "id": "vtls004623279_0_14",
        "type": "sailor",
        "parent": "vtls004623279",
        "name": "john james",
        "dob": "blk",
        "age": "15",
        "place_of_birth": "newquay",
        "home_address": "blk",
        "f": "blk",
        "name_of_ship": "blk",
        "ship_port": "blk",
        "date_leaving": "blk",
        "joined_ship_date": "blk",
        "joined_at_port": "blk",
        "capacity": "apprentice",
        "date_left": "blk",
        "left_port": "blk",
        "cause_of_leaving": "remains on board",
        "sign_with_mark": "n",
        "notes": "registry of indenture - date of 1863 - port of aberystwyth."
    },
    {
        "id": "vtls004623753_1_12",
        "type": "sailor",
        "parent": "vtls004623753",
        "name": "john owen",
        "dob": "1854",
        "age": "blk",
        "place_of_birth": "newborough",
        "home_address": "blk",
        "f": "blk",
        "name_of_ship": "argo",
        "ship_port": "aberystwyth",
        "date_leaving": "1888",
        "joined_ship_date": "1888-07-01",
        "joined_at_port": "newport",
        "capacity": "mate",
        "date_left": "1889-01-22",
        "left_port": "liverpool",
        "cause_of_leaving": "[discharged]",
        "sign_with_mark": "n",
        "notes": "blk"
    },
    {
        "id": "vtls004623279_1_11",
        "type": "sailor",
        "parent": "vtls004623279",
        "name": "john james",
        "dob": "blk",
        "age": "52",
        "place_of_birth": "newquay",
        "home_address": "blk",
        "f": "blk",
        "name_of_ship": "argo",
        "ship_port": "aberystwyth",
        "date_leaving": "continued",
        "joined_ship_date": "1859-",
        "joined_at_port": "newquay",
        "capacity": "master",
        "date_left": "1865-01-10",
        "left_port": "swansea",
        "cause_of_leaving": "continues",
        "sign_with_mark": "n",
        "notes": "blk"
    },
    {
        "id": "vtls004623279_0_11",
        "type": "sailor",
        "parent": "vtls004623279",
        "name": "john james",
        "dob": "blk",
        "age": "50",
        "place_of_birth": "newquay",
        "home_address": "blk",
        "f": "blk",
        "name_of_ship": "argo",
        "ship_port": "aberystwyth",
        "date_leaving": "blk",
        "joined_ship_date": "1853",
        "joined_at_port": "newquay",
        "capacity": "master",
        "date_left": "blk",
        "left_port": "blk",
        "cause_of_leaving": "remains on board",
        "sign_with_mark": "n",
        "notes": "blk"
    },
    {
        "id": "vtls004623279_0_12",
        "type": "sailor",
        "parent": "vtls004623279",
        "name": "john jones",
        "dob": "blk",
        "age": "21",
        "place_of_birth": "newquay",
        "home_address": "blk",
        "f": "blk",
        "name_of_ship": "argo",
        "ship_port": "aberystwyth",
        "date_leaving": "blk",
        "joined_ship_date": "1863",
        "joined_at_port": "liverpool",
        "capacity": "mate",
        "date_left": "1864",
        "left_port": "neath",
        "cause_of_leaving": "discharged",
        "sign_with_mark": "n",
        "notes": "blk"
    },
    {
        "id": "vtls004623279_0_13",
        "type": "sailor",
        "parent": "vtls004623279",
        "name": "john evans",
        "dob": "blk",
        "age": "28",
        "place_of_birth": "aberaeron",
        "home_address": "blk",
        "f": "blk",
        "name_of_ship": "sheffield",
        "ship_port": "blk",
        "date_leaving": "1864",
        "joined_ship_date": "1864",
        "joined_at_port": "neath",
        "capacity": "mate",
        "date_left": "blk",
        "left_port": "blk",
        "cause_of_leaving": "remains on board",
        "sign_with_mark": "n",
        "notes": "blk"
    },
    {
        "id": "vtls004623795_0_11",
        "type": "sailor",
        "parent": "vtls004623795",
        "name": "robert griffiths",
        "dob": "1831",
        "age": "blk",
        "place_of_birth": "caernarfon",
        "home_address": "blk",
        "f": "blk",
        "name_of_ship": "argo",
        "ship_port": "aberystwyth",
        "date_leaving": "1888",
        "joined_ship_date": "1889-01-01",
        "joined_at_port": "larne",
        "capacity": "master",
        "date_left": "1889-06-30",
        "left_port": "rhew north wales",
        "cause_of_leaving": "discharged",
        "sign_with_mark": "n",
        "notes": "blk"
    },
    {
        "id": "vtls004623795_0_13",
        "type": "sailor",
        "parent": "vtls004623795",
        "name": "william jones",
        "dob": "1873",
        "age": "blk",
        "place_of_birth": "caernarfon",
        "home_address": "blk",
        "f": "blk",
        "name_of_ship": "argo",
        "ship_port": "aberystwyth",
        "date_leaving": "1888",
        "joined_ship_date": "1889-01-01",
        "joined_at_port": "larne",
        "capacity": "cook",
        "date_left": "1889-06-30",
        "left_port": "rhew north wales",
        "cause_of_leaving": "discharged",
        "sign_with_mark": "n",
        "notes": "blk"
    },
    {
        "id": "vtls004623795_0_12",
        "type": "sailor",
        "parent": "vtls004623795",
        "name": "john jones",
        "dob": "1864",
        "age": "blk",
        "place_of_birth": "anglesey",
        "home_address": "blk",
        "f": "blk",
        "name_of_ship": "argo",
        "ship_port": "aberystwyth",
        "date_leaving": "1888",
        "joined_ship_date": "1889-01-01",
        "joined_at_port": "larne",
        "capacity": "mate",
        "date_left": "1889-06-30",
        "left_port": "rhew north wales",
        "cause_of_leaving": "discharged",
        "sign_with_mark": "n",
        "notes": "blk"
    },
    {
        "id": "vtls004623795_1_11",
        "type": "sailor",
        "parent": "vtls004623795",
        "name": "robert griffiths",
        "dob": "blk",
        "age": "blk",
        "place_of_birth": "anglesey",
        "home_address": "blk",
        "f": "blk",
        "name_of_ship": "argo",
        "ship_port": "aberystwyth",
        "date_leaving": "blk",
        "joined_ship_date": "continued",
        "joined_at_port": "blk",
        "capacity": "master",
        "date_left": "1889-10-07",
        "left_port": "valley",
        "cause_of_leaving": "vessel stranded",
        "sign_with_mark": "n",
        "notes": "blk"
    },
    {
        "id": "vtls004623279_1_14",
        "type": "sailor",
        "parent": "vtls004623279",
        "name": "john james",
        "dob": "blk",
        "age": "16",
        "place_of_birth": "newquay",
        "home_address": "blk",
        "f": "blk",
        "name_of_ship": "blk",
        "ship_port": "blk",
        "date_leaving": "blk",
        "joined_ship_date": "blk",
        "joined_at_port": "blk",
        "capacity": "apprentice",
        "date_left": "blk",
        "left_port": "blk",
        "cause_of_leaving": "blk",
        "sign_with_mark": "n",
        "notes": "registry of indenture - date of 1863-03-04 - port of aberystwyth."
    },
    {
        "id": "vtls004623795_1_12",
        "type": "sailor",
        "parent": "vtls004623795",
        "name": "william rowlands",
        "dob": "blk",
        "age": "blk",
        "place_of_birth": "anglesey",
        "home_address": "blk",
        "f": "blk",
        "name_of_ship": "argo",
        "ship_port": "aberystwyth",
        "date_leaving": "blk",
        "joined_ship_date": "continued",
        "joined_at_port": "blk",
        "capacity": "mate",
        "date_left": "1889-10-07",
        "left_port": "valley",
        "cause_of_leaving": "vessel stranded",
        "sign_with_mark": "n",
        "notes": "blk"
    },
    {
        "id": "vtls004623279_1_12",
        "type": "sailor",
        "parent": "vtls004623279",
        "name": "james james",
        "dob": "blk",
        "age": "30",
        "place_of_birth": "newquay",
        "home_address": "blk",
        "f": "blk",
        "name_of_ship": "argo",
        "ship_port": "aberystwyth",
        "date_leaving": "continued",
        "joined_ship_date": "1864-06-18",
        "joined_at_port": "newquay",
        "capacity": "mate",
        "date_left": "1865-01-10",
        "left_port": "swansea",
        "cause_of_leaving": "continues",
        "sign_with_mark": "n",
        "notes": "blk"
    },
    {
        "id": "vtls004623279_1_13",
        "type": "sailor",
        "parent": "vtls004623279",
        "name": "john james",
        "dob": "blk",
        "age": "16",
        "place_of_birth": "newquay",
        "home_address": "blk",
        "f": "blk",
        "name_of_ship": "argo",
        "ship_port": "aberystwyth",
        "date_leaving": "continued",
        "joined_ship_date": "1863-",
        "joined_at_port": "newquay",
        "capacity": "boy",
        "date_left": "1865-01-10",
        "left_port": "swansea",
        "cause_of_leaving": "continues",
        "sign_with_mark": "n",
        "notes": "blk"
    },
    {
        "id": "vtls004623899_1_12",
        "type": "sailor",
        "parent": "vtls004623899",
        "name": "michael owen",
        "dob": "blk",
        "age": "54",
        "place_of_birth": "moelfre",
        "home_address": "blk",
        "f": "blk",
        "name_of_ship": "lady louisa pennant",
        "ship_port": "beaumaris",
        "date_leaving": "1890",
        "joined_ship_date": "1890-05-14",
        "joined_at_port": "holyhead",
        "capacity": "mate",
        "date_left": "1890-07-04",
        "left_port": "holyhead",
        "cause_of_leaving": "remains on board",
        "sign_with_mark": "n",
        "notes": "blk"
    },
    {
        "id": "vtls004623899_1_11",
        "type": "sailor",
        "parent": "vtls004623899",
        "name": "john jones",
        "dob": "blk",
        "age": "44",
        "place_of_birth": "moelfre",
        "home_address": "blk",
        "f": "blk",
        "name_of_ship": "[taulee jane]",
        "ship_port": "beaumaris",
        "date_leaving": "1889",
        "joined_ship_date": "1890-05-14",
        "joined_at_port": "holyhead",
        "capacity": "master",
        "date_left": "1890-07-04",
        "left_port": "holyhead",
        "cause_of_leaving": "remains on board",
        "sign_with_mark": "n",
        "notes": "blk"
    },
    {
        "id": "vtls004623902_0_11",
        "type": "sailor",
        "parent": "vtls004623902",
        "name": "richard williams",
        "dob": "blk",
        "age": "59",
        "place_of_birth": "caernarfonshire",
        "home_address": "blk",
        "f": "blk",
        "name_of_ship": "argo",
        "ship_port": "aberystwyth",
        "date_leaving": "1891",
        "joined_ship_date": "1891-01-01",
        "joined_at_port": "holyhead",
        "capacity": "master",
        "date_left": "blk",
        "left_port": "blk",
        "cause_of_leaving": "remains on board",
        "sign_with_mark": "n",
        "notes": "blk"
    },
    {
        "id": "vtls004623899_0_13",
        "type": "sailor",
        "parent": "vtls004623899",
        "name": "william williams",
        "dob": "1863",
        "age": "blk",
        "place_of_birth": "moelfre",
        "home_address": "blk",
        "f": "blk",
        "name_of_ship": "blk",
        "ship_port": "blk",
        "date_leaving": "1890",
        "joined_ship_date": "1890-08-22",
        "joined_at_port": "holyhead",
        "capacity": "master",
        "date_left": "1890-12-31",
        "left_port": "holyhead",
        "cause_of_leaving": "remains on board",
        "sign_with_mark": "n",
        "notes": "blk"
    },
    {
        "id": "vtls004623899_0_12",
        "type": "sailor",
        "parent": "vtls004623899",
        "name": "griffith owen",
        "dob": "1870",
        "age": "blk",
        "place_of_birth": "holyhead",
        "home_address": "blk",
        "f": "blk",
        "name_of_ship": "argo",
        "ship_port": "aberystwyth",
        "date_leaving": "1890",
        "joined_ship_date": "1890-05-15",
        "joined_at_port": "holyhead",
        "capacity": "mate",
        "date_left": "1890-08-01",
        "left_port": "holyhead",
        "cause_of_leaving": "discharged",
        "sign_with_mark": "n",
        "notes": "blk"
    },
    {
        "id": "vtls004623899_0_11",
        "type": "sailor",
        "parent": "vtls004623899",
        "name": "john jones",
        "dob": "1832",
        "age": "blk",
        "place_of_birth": "moelfre",
        "home_address": "blk",
        "f": "blk",
        "name_of_ship": "argo",
        "ship_port": "aberystwyth",
        "date_leaving": "1890",
        "joined_ship_date": "1890-05-14",
        "joined_at_port": "holyhead",
        "capacity": "master",
        "date_left": "1890-08-01",
        "left_port": "holyhead",
        "cause_of_leaving": "discharged",
        "sign_with_mark": "n",
        "notes": "blk"
    },
    {
        "id": "vtls004623899_0_14",
        "type": "sailor",
        "parent": "vtls004623899",
        "name": "$ jones",
        "dob": "1866",
        "age": "blk",
        "place_of_birth": "cemae",
        "home_address": "blk",
        "f": "blk",
        "name_of_ship": "friends",
        "ship_port": "blk",
        "date_leaving": "1890",
        "joined_ship_date": "1890-07-02",
        "joined_at_port": "valley",
        "capacity": "mate",
        "date_left": "1890-12-31",
        "left_port": "holyhead",
        "cause_of_leaving": "remains on board",
        "sign_with_mark": "n",
        "notes": "blk"
    },
    {
        "id": "vtls004623902_1_11",
        "type": "sailor",
        "parent": "vtls004623902",
        "name": "richard williams",
        "dob": "blk",
        "age": "61",
        "place_of_birth": "caernarfonshire",
        "home_address": "blk",
        "f": "blk",
        "name_of_ship": "argo",
        "ship_port": "aberystwyth",
        "date_leaving": "1891",
        "joined_ship_date": "1891-07-01",
        "joined_at_port": "liverpool",
        "capacity": "master",
        "date_left": "1892-01-04",
        "left_port": "liverpool",
        "cause_of_leaving": "remains on board",
        "sign_with_mark": "n",
        "notes": "blk"
    },
    {
        "id": "vtls004623911_0_13",
        "type": "sailor",
        "parent": "vtls004623911",
        "name": "hugh williams",
        "dob": "1870",
        "age": "blk",
        "place_of_birth": "valley anglesey",
        "home_address": "blk",
        "f": "blk",
        "name_of_ship": "argo",
        "ship_port": "aberystwyth",
        "date_leaving": "blk",
        "joined_ship_date": "continued",
        "joined_at_port": "blk",
        "capacity": "ordinary seaman",
        "date_left": "1892-04-12",
        "left_port": "drogheda",
        "cause_of_leaving": "discharged",
        "sign_with_mark": "blk",
        "notes": "blk"
    },
    {
        "id": "vtls004623911_0_11",
        "type": "sailor",
        "parent": "vtls004623911",
        "name": "samuel hughes",
        "dob": "1842",
        "age": "blk",
        "place_of_birth": "denbighshire",
        "home_address": "blk",
        "f": "blk",
        "name_of_ship": "argo",
        "ship_port": "aberystwyth",
        "date_leaving": "blk",
        "joined_ship_date": "continued",
        "joined_at_port": "blk",
        "capacity": "master",
        "date_left": "1892-04-12",
        "left_port": "drogheda",
        "cause_of_leaving": "discharged",
        "sign_with_mark": "blk",
        "notes": "blk"
    },
    {
        "id": "vtls004623902_0_13",
        "type": "sailor",
        "parent": "vtls004623902",
        "name": "thomas jones",
        "dob": "blk",
        "age": "19",
        "place_of_birth": "holyhead",
        "home_address": "blk",
        "f": "blk",
        "name_of_ship": "argo",
        "ship_port": "aberystwyth",
        "date_leaving": "1891",
        "joined_ship_date": "1891-01-01",
        "joined_at_port": "holyhead",
        "capacity": "able seaman",
        "date_left": "1891-01-08",
        "left_port": "liverpool",
        "cause_of_leaving": "discharged",
        "sign_with_mark": "n",
        "notes": "blk"
    },
    {
        "id": "vtls004623902_1_12",
        "type": "sailor",
        "parent": "vtls004623902",
        "name": "henry williams",
        "dob": "blk",
        "age": "50",
        "place_of_birth": "pwllheli",
        "home_address": "blk",
        "f": "blk",
        "name_of_ship": "argo",
        "ship_port": "aberystwyth",
        "date_leaving": "1891",
        "joined_ship_date": "1891-07-01",
        "joined_at_port": "liverpool",
        "capacity": "mate",
        "date_left": "1892-01-04",
        "left_port": "liverpool",
        "cause_of_leaving": "discharged",
        "sign_with_mark": "n",
        "notes": "blk"
    },
    {
        "id": "vtls004623911_0_12",
        "type": "sailor",
        "parent": "vtls004623911",
        "name": "owen griffith",
        "dob": "1830",
        "age": "blk",
        "place_of_birth": "denbighshire",
        "home_address": "blk",
        "f": "blk",
        "name_of_ship": "argo",
        "ship_port": "aberystwyth",
        "date_leaving": "blk",
        "joined_ship_date": "continued",
        "joined_at_port": "blk",
        "capacity": "mate",
        "date_left": "1892-04-20",
        "left_port": "holyhead",
        "cause_of_leaving": "discharged",
        "sign_with_mark": "blk",
        "notes": "blk"
    },
    {
        "id": "vtls004623902_0_12",
        "type": "sailor",
        "parent": "vtls004623902",
        "name": "william hughes",
        "dob": "blk",
        "age": "17",
        "place_of_birth": "holyhead",
        "home_address": "blk",
        "f": "blk",
        "name_of_ship": "argo",
        "ship_port": "aberystwyth",
        "date_leaving": "1891",
        "joined_ship_date": "1891-01-01",
        "joined_at_port": "holyhead",
        "capacity": "mate",
        "date_left": "1891-01-08",
        "left_port": "liverpool",
        "cause_of_leaving": "discharged",
        "sign_with_mark": "n",
        "notes": "blk"
    },
    {
        "id": "vtls004623911_0_15",
        "type": "sailor",
        "parent": "vtls004623911",
        "name": "john hughes",
        "dob": "1873",
        "age": "blk",
        "place_of_birth": "holyhead",
        "home_address": "blk",
        "f": "blk",
        "name_of_ship": "argo",
        "ship_port": "aberystwyth",
        "date_leaving": "blk",
        "joined_ship_date": "1892-04-20",
        "joined_at_port": "holyhead",
        "capacity": "mate",
        "date_left": "1892-06-30",
        "left_port": "blk",
        "cause_of_leaving": "remains on board",
        "sign_with_mark": "blk",
        "notes": "blk"
    },
    {
        "id": "vtls004623911_0_14",
        "type": "sailor",
        "parent": "vtls004623911",
        "name": "joseph owen",
        "dob": "1842",
        "age": "blk",
        "place_of_birth": "amlwch",
        "home_address": "blk",
        "f": "blk",
        "name_of_ship": "unknown",
        "ship_port": "blk",
        "date_leaving": "blk",
        "joined_ship_date": "1892-04-12",
        "joined_at_port": "drogheda",
        "capacity": "master",
        "date_left": "1892-06-30",
        "left_port": "blk",
        "cause_of_leaving": "remains on board",
        "sign_with_mark": "blk",
        "notes": "blk"
    },
    {
        "id": "vtls004623911_1_11",
        "type": "sailor",
        "parent": "vtls004623911",
        "name": "joseph owen",
        "dob": "1842",
        "age": "blk",
        "place_of_birth": "amlwch",
        "home_address": "blk",
        "f": "blk",
        "name_of_ship": "argo",
        "ship_port": "aberystwyth",
        "date_leaving": "blk",
        "joined_ship_date": "continued",
        "joined_at_port": "blk",
        "capacity": "master",
        "date_left": "1892-07-19",
        "left_port": "vessel foundered about 1 miles off douglas harbour, isle of man; all hands lost",
        "cause_of_leaving": "blk",
        "sign_with_mark": "n",
        "notes": "ship foundered about 2 miles off douglas, isle of man. all lost."
    },
    {
        "id": "vtls004623911_1_13",
        "type": "sailor",
        "parent": "vtls004623911",
        "name": "hugh jones",
        "dob": "1872",
        "age": "blk",
        "place_of_birth": "holyhead",
        "home_address": "blk",
        "f": "blk",
        "name_of_ship": "unknown",
        "ship_port": "blk",
        "date_leaving": "blk",
        "joined_ship_date": "continued",
        "joined_at_port": "blk",
        "capacity": "ordinary seaman",
        "date_left": "1892-07-19",
        "left_port": "vessel foundered about 1 miles off douglas harbour, isle of man; all hands lost",
        "cause_of_leaving": "continued",
        "sign_with_mark": "n",
        "notes": "blk"
    },
    {
        "id": "vtls004623911_1_12",
        "type": "sailor",
        "parent": "vtls004623911",
        "name": "john hughes",
        "dob": "1873",
        "age": "blk",
        "place_of_birth": "holyhead",
        "home_address": "blk",
        "f": "blk",
        "name_of_ship": "unknown",
        "ship_port": "blk",
        "date_leaving": "blk",
        "joined_ship_date": "continued",
        "joined_at_port": "blk",
        "capacity": "mate",
        "date_left": "1892-07-19",
        "left_port": "vessel foundered about 1 miles off douglas harbour, isle of man; all hands lost",
        "cause_of_leaving": "blk",
        "sign_with_mark": "n",
        "notes": "blk"
    },
    {
        "id": "vtls004623911_0_16",
        "type": "sailor",
        "parent": "vtls004623911",
        "name": "hugh jones",
        "dob": "1872",
        "age": "blk",
        "place_of_birth": "holyhead",
        "home_address": "blk",
        "f": "blk",
        "name_of_ship": "argo",
        "ship_port": "aberystwyth",
        "date_leaving": "blk",
        "joined_ship_date": "1892-04-20",
        "joined_at_port": "holyhead",
        "capacity": "ordinary seaman",
        "date_left": "1892-06-30",
        "left_port": "blk",
        "cause_of_leaving": "remains on board",
        "sign_with_mark": "blk",
        "notes": "blk"
    },
    {
        "id": "vtls004623298_0_11",
        "type": "sailor",
        "parent": "vtls004623298",
        "name": "john james",
        "dob": "blk",
        "age": "55",
        "place_of_birth": "newquay",
        "home_address": "blk",
        "f": "blk",
        "name_of_ship": "argo",
        "ship_port": "aberystwyth",
        "date_leaving": "remains",
        "joined_ship_date": "1853-",
        "joined_at_port": "newquay",
        "capacity": "master",
        "date_left": "blk",
        "left_port": "blk",
        "cause_of_leaving": "remains on board",
        "sign_with_mark": "n",
        "notes": "blk"
    },
    {
        "id": "vtls004623298_0_13",
        "type": "sailor",
        "parent": "vtls004623298",
        "name": "thomas thomas",
        "dob": "blk",
        "age": "18",
        "place_of_birth": "newquay",
        "home_address": "blk",
        "f": "blk",
        "name_of_ship": "argo",
        "ship_port": "aberystwyth",
        "date_leaving": "remains",
        "joined_ship_date": "1864-",
        "joined_at_port": "newquay",
        "capacity": "boy",
        "date_left": "blk",
        "left_port": "blk",
        "cause_of_leaving": "remains on board",
        "sign_with_mark": "n",
        "notes": "blk"
    },
    {
        "id": "vtls004623298_0_12",
        "type": "sailor",
        "parent": "vtls004623298",
        "name": "john james",
        "dob": "blk",
        "age": "17",
        "place_of_birth": "newquay",
        "home_address": "blk",
        "f": "blk",
        "name_of_ship": "argo",
        "ship_port": "aberystwyth",
        "date_leaving": "remains",
        "joined_ship_date": "1863-",
        "joined_at_port": "newquay",
        "capacity": "mate",
        "date_left": "blk",
        "left_port": "blk",
        "cause_of_leaving": "remains on board",
        "sign_with_mark": "n",
        "notes": "blk"
    },
    {
        "id": "vtls004623298_1_14",
        "type": "sailor",
        "parent": "vtls004623298",
        "name": "solomon james",
        "dob": "blk",
        "age": "14",
        "place_of_birth": "newquay",
        "home_address": "blk",
        "f": "blk",
        "name_of_ship": "argo",
        "ship_port": "aberystwyth",
        "date_leaving": "1866-06-30",
        "joined_ship_date": "1866-07-01",
        "joined_at_port": "limerick",
        "capacity": "ordinary seaman",
        "date_left": "1866-12-31",
        "left_port": "holyhead",
        "cause_of_leaving": "remains on board",
        "sign_with_mark": "n",
        "notes": "blk"
    },
    {
        "id": "vtls004623298_1_13",
        "type": "sailor",
        "parent": "vtls004623298",
        "name": "lewis evans",
        "dob": "blk",
        "age": "16",
        "place_of_birth": "newquay",
        "home_address": "blk",
        "f": "blk",
        "name_of_ship": "argo",
        "ship_port": "aberystwyth",
        "date_leaving": "1866-06-30",
        "joined_ship_date": "1866-07-01",
        "joined_at_port": "limerick",
        "capacity": "ordinary seaman",
        "date_left": "1866-12-31",
        "left_port": "holyhead",
        "cause_of_leaving": "remains on board",
        "sign_with_mark": "n",
        "notes": "blk"
    },
    {
        "id": "vtls004623298_1_11",
        "type": "sailor",
        "parent": "vtls004623298",
        "name": "john james",
        "dob": "blk",
        "age": "59",
        "place_of_birth": "newquay",
        "home_address": "blk",
        "f": "blk",
        "name_of_ship": "argo",
        "ship_port": "aberystwyth",
        "date_leaving": "1866-06-30",
        "joined_ship_date": "1866-07-01",
        "joined_at_port": "limerick",
        "capacity": "master",
        "date_left": "1866-12-31",
        "left_port": "holyhead",
        "cause_of_leaving": "remains on board",
        "sign_with_mark": "n",
        "notes": "blk"
    },
    {
        "id": "vtls004623298_1_12",
        "type": "sailor",
        "parent": "vtls004623298",
        "name": "john james",
        "dob": "blk",
        "age": "18",
        "place_of_birth": "newquay",
        "home_address": "blk",
        "f": "blk",
        "name_of_ship": "argo",
        "ship_port": "aberystwyth",
        "date_leaving": "1866-06-30",
        "joined_ship_date": "1866-07-01",
        "joined_at_port": "limerick",
        "capacity": "mate",
        "date_left": "1866-12-31",
        "left_port": "holyhead",
        "cause_of_leaving": "remains on board",
        "sign_with_mark": "n",
        "notes": "blk"
    },
    {
        "id": "vtls004623312_1_11",
        "type": "sailor",
        "parent": "vtls004623312",
        "name": "john james",
        "dob": "blk",
        "age": "59",
        "place_of_birth": "newquay",
        "home_address": "blk",
        "f": "blk",
        "name_of_ship": "argo",
        "ship_port": "aberystwyth",
        "date_leaving": "1867-06-30",
        "joined_ship_date": "1867-07-01",
        "joined_at_port": "duddon",
        "capacity": "master",
        "date_left": "1867-12-31",
        "left_port": "sea",
        "cause_of_leaving": "remains on board",
        "sign_with_mark": "n",
        "notes": "blk"
    },
    {
        "id": "vtls004623312_0_11",
        "type": "sailor",
        "parent": "vtls004623312",
        "name": "john james",
        "dob": "blk",
        "age": "58",
        "place_of_birth": "newquay",
        "home_address": "blk",
        "f": "blk",
        "name_of_ship": "argo",
        "ship_port": "aberystwyth",
        "date_leaving": "remains",
        "joined_ship_date": "1861-06-03",
        "joined_at_port": "newquay",
        "capacity": "master",
        "date_left": "blk",
        "left_port": "blk",
        "cause_of_leaving": "remains on board",
        "sign_with_mark": "n",
        "notes": "blk"
    },
    {
        "id": "vtls004623312_0_12",
        "type": "sailor",
        "parent": "vtls004623312",
        "name": "john james",
        "dob": "blk",
        "age": "18",
        "place_of_birth": "newquay",
        "home_address": "blk",
        "f": "blk",
        "name_of_ship": "argo",
        "ship_port": "aberystwyth",
        "date_leaving": "remains",
        "joined_ship_date": "1865-07-02",
        "joined_at_port": "newquay",
        "capacity": "mate",
        "date_left": "blk",
        "left_port": "blk",
        "cause_of_leaving": "remains on board",
        "sign_with_mark": "n",
        "notes": "blk"
    },
    {
        "id": "vtls004623312_0_13",
        "type": "sailor",
        "parent": "vtls004623312",
        "name": "lewis evans",
        "dob": "blk",
        "age": "17",
        "place_of_birth": "newquay",
        "home_address": "blk",
        "f": "blk",
        "name_of_ship": "argo",
        "ship_port": "aberystwyth",
        "date_leaving": "remains",
        "joined_ship_date": "1865-07-02",
        "joined_at_port": "newquay",
        "capacity": "boy",
        "date_left": "blk",
        "left_port": "blk",
        "cause_of_leaving": "remains on board",
        "sign_with_mark": "n",
        "notes": "blk"
    },
    {
        "id": "vtls004623298_0_14",
        "type": "sailor",
        "parent": "vtls004623298",
        "name": "solomon james",
        "dob": "blk",
        "age": "14",
        "place_of_birth": "newquay",
        "home_address": "blk",
        "f": "blk",
        "name_of_ship": "argo",
        "ship_port": "aberystwyth",
        "date_leaving": "remains",
        "joined_ship_date": "1865-",
        "joined_at_port": "newquay",
        "capacity": "boy",
        "date_left": "blk",
        "left_port": "blk",
        "cause_of_leaving": "remains on board",
        "sign_with_mark": "n",
        "notes": "blk"
    },
    {
        "id": "vtls004623312_1_12",
        "type": "sailor",
        "parent": "vtls004623312",
        "name": "thomas davies",
        "dob": "blk",
        "age": "19",
        "place_of_birth": "newquay",
        "home_address": "blk",
        "f": "blk",
        "name_of_ship": "argo",
        "ship_port": "aberystwyth",
        "date_leaving": "1867-06-30",
        "joined_ship_date": "1867-07-01",
        "joined_at_port": "duddon",
        "capacity": "mate",
        "date_left": "1867-12-31",
        "left_port": "sea",
        "cause_of_leaving": "remains on board",
        "sign_with_mark": "n",
        "notes": "blk"
    },
    {
        "id": "vtls004623312_1_13",
        "type": "sailor",
        "parent": "vtls004623312",
        "name": "solomon davies",
        "dob": "blk",
        "age": "14",
        "place_of_birth": "newquay",
        "home_address": "blk",
        "f": "blk",
        "name_of_ship": "argo",
        "ship_port": "aberystwyth",
        "date_leaving": "1867-06-30",
        "joined_ship_date": "1867-07-01",
        "joined_at_port": "duddon",
        "capacity": "boy",
        "date_left": "1867-12-31",
        "left_port": "sea",
        "cause_of_leaving": "remains on board",
        "sign_with_mark": "n",
        "notes": "blk"
    },
    {
        "id": "vtls004623322_1_12",
        "type": "sailor",
        "parent": "vtls004623322",
        "name": "william roberts",
        "dob": "blk",
        "age": "30",
        "place_of_birth": "anglesey",
        "home_address": "blk",
        "f": "blk",
        "name_of_ship": "not known",
        "ship_port": "blk",
        "date_leaving": "blk",
        "joined_ship_date": "1868-08-10",
        "joined_at_port": "port diurrwic",
        "capacity": "mate",
        "date_left": "1868-08-17",
        "left_port": "milford",
        "cause_of_leaving": "discharged",
        "sign_with_mark": "n",
        "notes": "blk"
    },
    {
        "id": "vtls004623322_0_12",
        "type": "sailor",
        "parent": "vtls004623322",
        "name": "john griffith",
        "dob": "blk",
        "age": "30",
        "place_of_birth": "llanon",
        "home_address": "blk",
        "f": "blk",
        "name_of_ship": "argo",
        "ship_port": "aberystwyth",
        "date_leaving": "continues",
        "joined_ship_date": "blk",
        "joined_at_port": "blk",
        "capacity": "mate",
        "date_left": "1868-05-08",
        "left_port": "port dinorwic",
        "cause_of_leaving": "discharged",
        "sign_with_mark": "n",
        "notes": "blk"
    },
    {
        "id": "vtls004623322_0_11",
        "type": "sailor",
        "parent": "vtls004623322",
        "name": "john james",
        "dob": "blk",
        "age": "59",
        "place_of_birth": "newquay",
        "home_address": "blk",
        "f": "blk",
        "name_of_ship": "argo",
        "ship_port": "aberystwyth",
        "date_leaving": "continues",
        "joined_ship_date": "blk",
        "joined_at_port": "blk",
        "capacity": "master",
        "date_left": "blk",
        "left_port": "blk",
        "cause_of_leaving": "remains on board",
        "sign_with_mark": "n",
        "notes": "blk"
    },
    {
        "id": "vtls004623322_0_13",
        "type": "sailor",
        "parent": "vtls004623322",
        "name": "solomon james",
        "dob": "blk",
        "age": "15",
        "place_of_birth": "newquay",
        "home_address": "blk",
        "f": "blk",
        "name_of_ship": "argo",
        "ship_port": "aberystwyth",
        "date_leaving": "continues",
        "joined_ship_date": "blk",
        "joined_at_port": "blk",
        "capacity": "boy",
        "date_left": "blk",
        "left_port": "blk",
        "cause_of_leaving": "remains on board",
        "sign_with_mark": "n",
        "notes": "blk"
    },
    {
        "id": "vtls004623322_1_11",
        "type": "sailor",
        "parent": "vtls004623322",
        "name": "john james",
        "dob": "blk",
        "age": "60",
        "place_of_birth": "newquay",
        "home_address": "blk",
        "f": "blk",
        "name_of_ship": "argo",
        "ship_port": "aberystwyth",
        "date_leaving": "continues",
        "joined_ship_date": "blk",
        "joined_at_port": "blk",
        "capacity": "master",
        "date_left": "blk",
        "left_port": "blk",
        "cause_of_leaving": "remains on board",
        "sign_with_mark": "n",
        "notes": "blk"
    },
    {
        "id": "vtls004623371_0_14",
        "type": "sailor",
        "parent": "vtls004623371",
        "name": "william davies",
        "dob": "blk",
        "age": "18",
        "place_of_birth": "newquay",
        "home_address": "blk",
        "f": "blk",
        "name_of_ship": "john & henry",
        "ship_port": "britonferry",
        "date_leaving": "1869-03-30",
        "joined_ship_date": "1869-04-30",
        "joined_at_port": "newquay",
        "capacity": "ordinary seaman",
        "date_left": "1869-05-01",
        "left_port": "caernarfon",
        "cause_of_leaving": "discharged",
        "sign_with_mark": "n",
        "notes": "blk"
    },
    {
        "id": "vtls004623371_0_13",
        "type": "sailor",
        "parent": "vtls004623371",
        "name": "john jones",
        "dob": "blk",
        "age": "30",
        "place_of_birth": "caernarfon",
        "home_address": "blk",
        "f": "blk",
        "name_of_ship": "valiant",
        "ship_port": "carnarvon",
        "date_leaving": "1869-01-07",
        "joined_ship_date": "1869-01-13",
        "joined_at_port": "carnarvon",
        "capacity": "able seaman",
        "date_left": "1869-04-14",
        "left_port": "aberystwyth",
        "cause_of_leaving": "discharged",
        "sign_with_mark": "n",
        "notes": "blk"
    },
    {
        "id": "vtls004623371_0_15",
        "type": "sailor",
        "parent": "vtls004623371",
        "name": "griffith jons",
        "dob": "blk",
        "age": "35",
        "place_of_birth": "st dogmaels",
        "home_address": "blk",
        "f": "blk",
        "name_of_ship": "hephzibah",
        "ship_port": "carnarvon",
        "date_leaving": "1869-06-22",
        "joined_ship_date": "1869-06-22",
        "joined_at_port": "carnarvon",
        "capacity": "able seaman",
        "date_left": "blk",
        "left_port": "blk",
        "cause_of_leaving": "remains on board",
        "sign_with_mark": "n",
        "notes": "blk"
    },
    {
        "id": "vtls004623371_0_11",
        "type": "sailor",
        "parent": "vtls004623371",
        "name": "john james",
        "dob": "blk",
        "age": "60",
        "place_of_birth": "newquay",
        "home_address": "blk",
        "f": "blk",
        "name_of_ship": "argo",
        "ship_port": "aberystwyth",
        "date_leaving": "1868-12-31",
        "joined_ship_date": "1869-01-01",
        "joined_at_port": "carnarvon",
        "capacity": "master",
        "date_left": "blk",
        "left_port": "blk",
        "cause_of_leaving": "remains on board",
        "sign_with_mark": "n",
        "notes": "blk"
    },
    {
        "id": "vtls004623371_0_12",
        "type": "sailor",
        "parent": "vtls004623371",
        "name": "thomas james",
        "dob": "blk",
        "age": "17",
        "place_of_birth": "newquay",
        "home_address": "blk",
        "f": "blk",
        "name_of_ship": "argo",
        "ship_port": "aberystwyth",
        "date_leaving": "1868-12-31",
        "joined_ship_date": "1869-01-01",
        "joined_at_port": "carnarvon",
        "capacity": "mate",
        "date_left": "blk",
        "left_port": "blk",
        "cause_of_leaving": "remains on board",
        "sign_with_mark": "n",
        "notes": "blk"
    },
    {
        "id": "vtls004623371_1_11",
        "type": "sailor",
        "parent": "vtls004623371",
        "name": "john james",
        "dob": "blk",
        "age": "61",
        "place_of_birth": "newquay",
        "home_address": "blk",
        "f": "blk",
        "name_of_ship": "argo",
        "ship_port": "aberystwyth",
        "date_leaving": "continued",
        "joined_ship_date": "blk",
        "joined_at_port": "blk",
        "capacity": "master",
        "date_left": "blk",
        "left_port": "blk",
        "cause_of_leaving": "remains on board",
        "sign_with_mark": "n",
        "notes": "blk"
    },
    {
        "id": "vtls004623371_1_12",
        "type": "sailor",
        "parent": "vtls004623371",
        "name": "griffith jones",
        "dob": "blk",
        "age": "35",
        "place_of_birth": "fishguard",
        "home_address": "blk",
        "f": "blk",
        "name_of_ship": "argo",
        "ship_port": "aberystwyth",
        "date_leaving": "continued",
        "joined_ship_date": "blk",
        "joined_at_port": "blk",
        "capacity": "mate",
        "date_left": "1869-12-14",
        "left_port": "bristol",
        "cause_of_leaving": "discharged",
        "sign_with_mark": "n",
        "notes": "blk"
    },
    {
        "id": "vtls004623322_1_14",
        "type": "sailor",
        "parent": "vtls004623322",
        "name": "john gillam",
        "dob": "blk",
        "age": "15",
        "place_of_birth": "milford",
        "home_address": "blk",
        "f": "blk",
        "name_of_ship": "first voyage",
        "ship_port": "blk",
        "date_leaving": "blk",
        "joined_ship_date": "1868-09-11",
        "joined_at_port": "milford",
        "capacity": "boy",
        "date_left": "1868-12-23",
        "left_port": "bangor",
        "cause_of_leaving": "discharged",
        "sign_with_mark": "n",
        "notes": "blk"
    },
    {
        "id": "vtls004623322_1_13",
        "type": "sailor",
        "parent": "vtls004623322",
        "name": "solomon james",
        "dob": "blk",
        "age": "16",
        "place_of_birth": "newquay",
        "home_address": "blk",
        "f": "blk",
        "name_of_ship": "argo",
        "ship_port": "aberystwyth",
        "date_leaving": "continues",
        "joined_ship_date": "blk",
        "joined_at_port": "blk",
        "capacity": "mate",
        "date_left": "blk",
        "left_port": "blk",
        "cause_of_leaving": "remains on board",
        "sign_with_mark": "n",
        "notes": "blk"
    },
    {
        "id": "vtls004623371_1_13",
        "type": "sailor",
        "parent": "vtls004623371",
        "name": "john davies",
        "dob": "blk",
        "age": "49",
        "place_of_birth": "newquay",
        "home_address": "blk",
        "f": "blk",
        "name_of_ship": "pride of the west",
        "ship_port": "london",
        "date_leaving": "1869-12-12",
        "joined_ship_date": "1869-12-17",
        "joined_at_port": "bristol",
        "capacity": "mate",
        "date_left": "blk",
        "left_port": "blk",
        "cause_of_leaving": "remains on board",
        "sign_with_mark": "n",
        "notes": "blk"
    },
    {
        "id": "vtls004623399_0_13",
        "type": "sailor",
        "parent": "vtls004623399",
        "name": "john hughes",
        "dob": "blk",
        "age": "23",
        "place_of_birth": "newboro",
        "home_address": "blk",
        "f": "blk",
        "name_of_ship": "leader",
        "ship_port": "caernarvon",
        "date_leaving": "1871-02-11",
        "joined_ship_date": "1871-02-13",
        "joined_at_port": "caernarvon",
        "capacity": "able seaman",
        "date_left": "1871-03-31",
        "left_port": "caernarfon",
        "cause_of_leaving": "discharged",
        "sign_with_mark": "n",
        "notes": "blk"
    },
    {
        "id": "vtls004623371_1_14",
        "type": "sailor",
        "parent": "vtls004623371",
        "name": "solomon james",
        "dob": "blk",
        "age": "17",
        "place_of_birth": "newquay",
        "home_address": "blk",
        "f": "blk",
        "name_of_ship": "argo",
        "ship_port": "aberystwyth",
        "date_leaving": "continued",
        "joined_ship_date": "blk",
        "joined_at_port": "blk",
        "capacity": "ordinary seaman",
        "date_left": "blk",
        "left_port": "blk",
        "cause_of_leaving": "remains on board",
        "sign_with_mark": "n",
        "notes": "blk"
    },
    {
        "id": "vtls004623399_0_9",
        "type": "sailor",
        "parent": "vtls004623399",
        "name": "blk",
        "dob": "blk",
        "age": "35",
        "place_of_birth": "cardigan",
        "home_address": "blk",
        "f": "blk",
        "name_of_ship": "majestic of aberystwyth",
        "ship_port": "cardiff",
        "date_leaving": "1868",
        "joined_ship_date": "1850-09-21",
        "joined_at_port": "llanelly",
        "capacity": "mate",
        "date_left": "blk",
        "left_port": "blk",
        "cause_of_leaving": "remains on board",
        "sign_with_mark": "n",
        "notes": "remains on board"
    },
    {
        "id": "vtls004623399_0_14",
        "type": "sailor",
        "parent": "vtls004623399",
        "name": "owen lewis",
        "dob": "blk",
        "age": "16",
        "place_of_birth": "newboro",
        "home_address": "blk",
        "f": "blk",
        "name_of_ship": "jane",
        "ship_port": "caernarvon",
        "date_leaving": "1871-04-01",
        "joined_ship_date": "1871-04-20",
        "joined_at_port": "caernarvon",
        "capacity": "boy",
        "date_left": "remains",
        "left_port": "blk",
        "cause_of_leaving": "remains on board",
        "sign_with_mark": "n",
        "notes": "blk"
    },
    {
        "id": "vtls004623399_0_11",
        "type": "sailor",
        "parent": "vtls004623399",
        "name": "robert roberts",
        "dob": "blk",
        "age": "40",
        "place_of_birth": "newboro",
        "home_address": "blk",
        "f": "blk",
        "name_of_ship": "argo",
        "ship_port": "aberystwyth",
        "date_leaving": "continues",
        "joined_ship_date": "blk",
        "joined_at_port": "blk",
        "capacity": "master",
        "date_left": "remains",
        "left_port": "blk",
        "cause_of_leaving": "remains on board",
        "sign_with_mark": "n",
        "notes": "blk"
    },
    {
        "id": "vtls004623399_0_12",
        "type": "sailor",
        "parent": "vtls004623399",
        "name": "thomas roberts",
        "dob": "blk",
        "age": "46",
        "place_of_birth": "newboro",
        "home_address": "blk",
        "f": "blk",
        "name_of_ship": "argo",
        "ship_port": "aberystwyth",
        "date_leaving": "continues",
        "joined_ship_date": "blk",
        "joined_at_port": "blk",
        "capacity": "mate",
        "date_left": "remains",
        "left_port": "blk",
        "cause_of_leaving": "remains on board",
        "sign_with_mark": "n",
        "notes": "blk"
    },
    {
        "id": "vtls004623425_0_13",
        "type": "sailor",
        "parent": "vtls004623425",
        "name": "john jones",
        "dob": "blk",
        "age": "16",
        "place_of_birth": "anglesey",
        "home_address": "blk",
        "f": "blk",
        "name_of_ship": "argo",
        "ship_port": "aberystwyth",
        "date_leaving": "continues",
        "joined_ship_date": "1872-01-01",
        "joined_at_port": "liverpool",
        "capacity": "boy",
        "date_left": "1872-06-30",
        "left_port": "liverpool",
        "cause_of_leaving": "discharged",
        "sign_with_mark": "n",
        "notes": "record states that john jones 'continued' on board this ship from previous voyage as 'boy' but previous record and journey names 'boy' as william rowlands"
    },
    {
        "id": "vtls004623399_1_13",
        "type": "sailor",
        "parent": "vtls004623399",
        "name": "wiliam rowlands",
        "dob": "blk",
        "age": "16",
        "place_of_birth": "newborough",
        "home_address": "blk",
        "f": "blk",
        "name_of_ship": "argo",
        "ship_port": "aberystwyth",
        "date_leaving": "continues",
        "joined_ship_date": "blk",
        "joined_at_port": "blk",
        "capacity": "boy",
        "date_left": "1871-12-31",
        "left_port": "liverpool",
        "cause_of_leaving": "remains on board",
        "sign_with_mark": "n",
        "notes": "on previous voyage (1 jan - 30 june 1871) position of boy was named as owen lewis who 'remained on board'"
    },
    {
        "id": "vtls004623425_1_13",
        "type": "sailor",
        "parent": "vtls004623425",
        "name": "owen williams",
        "dob": "blk",
        "age": "18",
        "place_of_birth": "newborough",
        "home_address": "blk",
        "f": "blk",
        "name_of_ship": "argo",
        "ship_port": "aberystwyth",
        "date_leaving": "blk",
        "joined_ship_date": "1872-07-01",
        "joined_at_port": "liverpool",
        "capacity": "ordinary seaman",
        "date_left": "1872-12-31",
        "left_port": "liverpool",
        "cause_of_leaving": "remains on board",
        "sign_with_mark": "n",
        "notes": "blk"
    },
    {
        "id": "vtls004623425_1_12",
        "type": "sailor",
        "parent": "vtls004623425",
        "name": "thomas roberts",
        "dob": "blk",
        "age": "39",
        "place_of_birth": "newborough",
        "home_address": "blk",
        "f": "blk",
        "name_of_ship": "argo",
        "ship_port": "aberystwyth",
        "date_leaving": "continued",
        "joined_ship_date": "1872-07-01",
        "joined_at_port": "blk",
        "capacity": "mate",
        "date_left": "1872-12-31",
        "left_port": "liverpool",
        "cause_of_leaving": "remains on board",
        "sign_with_mark": "n",
        "notes": "blk"
    },
    {
        "id": "vtls004623399_1_11",
        "type": "sailor",
        "parent": "vtls004623399",
        "name": "robert roberts",
        "dob": "blk",
        "age": "40",
        "place_of_birth": "newborough",
        "home_address": "blk",
        "f": "blk",
        "name_of_ship": "argo",
        "ship_port": "aberystwyth",
        "date_leaving": "continues",
        "joined_ship_date": "blk",
        "joined_at_port": "blk",
        "capacity": "master",
        "date_left": "1871-12-31",
        "left_port": "liverpool",
        "cause_of_leaving": "remains on board",
        "sign_with_mark": "n",
        "notes": "blk"
    },
    {
        "id": "vtls004623425_1_11",
        "type": "sailor",
        "parent": "vtls004623425",
        "name": "robert roberts",
        "dob": "blk",
        "age": "44",
        "place_of_birth": "newborough",
        "home_address": "blk",
        "f": "blk",
        "name_of_ship": "argo",
        "ship_port": "aberystwyth",
        "date_leaving": "continued",
        "joined_ship_date": "blk",
        "joined_at_port": "blk",
        "capacity": "master",
        "date_left": "1872-12-31",
        "left_port": "liverpool",
        "cause_of_leaving": "remains on board",
        "sign_with_mark": "n",
        "notes": "blk"
    },
    {
        "id": "vtls004623399_1_12",
        "type": "sailor",
        "parent": "vtls004623399",
        "name": "thomas roberts",
        "dob": "blk",
        "age": "38",
        "place_of_birth": "newborough",
        "home_address": "blk",
        "f": "blk",
        "name_of_ship": "argo",
        "ship_port": "aberystwyth",
        "date_leaving": "continues",
        "joined_ship_date": "blk",
        "joined_at_port": "blk",
        "capacity": "mate",
        "date_left": "1871-12-31",
        "left_port": "liverpool",
        "cause_of_leaving": "remains on board",
        "sign_with_mark": "n",
        "notes": "blk"
    },
    {
        "id": "vtls004623425_0_11",
        "type": "sailor",
        "parent": "vtls004623425",
        "name": "robert roberts",
        "dob": "blk",
        "age": "43",
        "place_of_birth": "anglesey",
        "home_address": "blk",
        "f": "blk",
        "name_of_ship": "argo",
        "ship_port": "aberystwyth",
        "date_leaving": "continues",
        "joined_ship_date": "blk",
        "joined_at_port": "blk",
        "capacity": "master",
        "date_left": "1872-06-30",
        "left_port": "liverpool",
        "cause_of_leaving": "remains on board",
        "sign_with_mark": "n",
        "notes": "blk"
    },
    {
        "id": "vtls004623425_0_12",
        "type": "sailor",
        "parent": "vtls004623425",
        "name": "thomas roberts",
        "dob": "blk",
        "age": "39",
        "place_of_birth": "anglesey",
        "home_address": "blk",
        "f": "blk",
        "name_of_ship": "argo",
        "ship_port": "aberystwyth",
        "date_leaving": "continues",
        "joined_ship_date": "blk",
        "joined_at_port": "blk",
        "capacity": "mate",
        "date_left": "1872-06-30",
        "left_port": "liverpool",
        "cause_of_leaving": "discharged",
        "sign_with_mark": "n",
        "notes": "blk"
    },
    {
        "id": "vtls004623442_0_13",
        "type": "sailor",
        "parent": "vtls004623442",
        "name": "william rowlands",
        "dob": "blk",
        "age": "18",
        "place_of_birth": "newborough",
        "home_address": "blk",
        "f": "blk",
        "name_of_ship": "argo",
        "ship_port": "aberystwyth",
        "date_leaving": "continues",
        "joined_ship_date": "1973-01-01",
        "joined_at_port": "liverpool",
        "capacity": "ordinary seaman",
        "date_left": "1873-06-30",
        "left_port": "liverpool",
        "cause_of_leaving": "remains on board",
        "sign_with_mark": "n",
        "notes": "blk"
    },
    {
        "id": "vtls004623442_0_11",
        "type": "sailor",
        "parent": "vtls004623442",
        "name": "robert roberts",
        "dob": "blk",
        "age": "44",
        "place_of_birth": "newborough",
        "home_address": "blk",
        "f": "blk",
        "name_of_ship": "argo",
        "ship_port": "aberystwyth",
        "date_leaving": "continues",
        "joined_ship_date": "1873-01-01",
        "joined_at_port": "liverpool",
        "capacity": "master",
        "date_left": "1873-06-30",
        "left_port": "liverpool",
        "cause_of_leaving": "remains on board",
        "sign_with_mark": "n",
        "notes": "blk"
    },
    {
        "id": "vtls004623442_1_13",
        "type": "sailor",
        "parent": "vtls004623442",
        "name": "john herbert",
        "dob": "blk",
        "age": "50",
        "place_of_birth": "port dinorwic",
        "home_address": "blk",
        "f": "blk",
        "name_of_ship": "argo",
        "ship_port": "aberystwyth",
        "date_leaving": "blk",
        "joined_ship_date": "1873-07-01",
        "joined_at_port": "liverpool",
        "capacity": "able seaman",
        "date_left": "1874-01-13",
        "left_port": "liverpool",
        "cause_of_leaving": "discharged",
        "sign_with_mark": "n",
        "notes": "blk"
    },
    {
        "id": "vtls004623442_0_12",
        "type": "sailor",
        "parent": "vtls004623442",
        "name": "john jones",
        "dob": "blk",
        "age": "35",
        "place_of_birth": "newborough",
        "home_address": "blk",
        "f": "blk",
        "name_of_ship": "argo",
        "ship_port": "aberystwyth",
        "date_leaving": "continues",
        "joined_ship_date": "1873-01-01",
        "joined_at_port": "liverpool",
        "capacity": "mate",
        "date_left": "1873-06-30",
        "left_port": "liverpool",
        "cause_of_leaving": "remains on board",
        "sign_with_mark": "n",
        "notes": "blk"
    },
    {
        "id": "vtls004623442_1_11",
        "type": "sailor",
        "parent": "vtls004623442",
        "name": "robert roberts",
        "dob": "blk",
        "age": "44",
        "place_of_birth": "newborough",
        "home_address": "blk",
        "f": "blk",
        "name_of_ship": "argo",
        "ship_port": "aberystwyth",
        "date_leaving": "blk",
        "joined_ship_date": "1873-07-01",
        "joined_at_port": "liverpool",
        "capacity": "master",
        "date_left": "1874-01-13",
        "left_port": "liverpool",
        "cause_of_leaving": "remains on board",
        "sign_with_mark": "n",
        "notes": "blk"
    },
    {
        "id": "vtls004623442_1_12",
        "type": "sailor",
        "parent": "vtls004623442",
        "name": "john hughes",
        "dob": "blk",
        "age": "40",
        "place_of_birth": "newborough",
        "home_address": "blk",
        "f": "blk",
        "name_of_ship": "argo",
        "ship_port": "aberystwyth",
        "date_leaving": "blk",
        "joined_ship_date": "1873-07-01",
        "joined_at_port": "liverpool",
        "capacity": "mate",
        "date_left": "1874-01-13",
        "left_port": "liverpool",
        "cause_of_leaving": "discharged",
        "sign_with_mark": "n",
        "notes": "blk"
    },
    {
        "id": "vtls004623451_1_14",
        "type": "sailor",
        "parent": "vtls004623451",
        "name": "william humphrey",
        "dob": "blk",
        "age": "56",
        "place_of_birth": "brynseinken",
        "home_address": "anglesea",
        "f": "anglesea",
        "name_of_ship": "sparling",
        "ship_port": "chester",
        "date_leaving": "1876-11-17",
        "joined_ship_date": "1876-11-21",
        "joined_at_port": "caernarvon",
        "capacity": "able seaman",
        "date_left": "1876-12-26",
        "left_port": "caernarfon",
        "cause_of_leaving": "paid off",
        "sign_with_mark": "n",
        "notes": "brynseinken is probably brynsiencyn"
    },
    {
        "id": "vtls004623451_1_12",
        "type": "sailor",
        "parent": "vtls004623451",
        "name": "robert griffiths",
        "dob": "blk",
        "age": "48",
        "place_of_birth": "caernarfon",
        "home_address": "blk",
        "f": "blk",
        "name_of_ship": "katherine ellen",
        "ship_port": "liverpool",
        "date_leaving": "1876-11-18",
        "joined_ship_date": "1876-11-18",
        "joined_at_port": "caernarvon",
        "capacity": "master",
        "date_left": "remains",
        "left_port": "blk",
        "cause_of_leaving": "remains on board",
        "sign_with_mark": "n",
        "notes": "blk"
    },
    {
        "id": "vtls004623451_1_13",
        "type": "sailor",
        "parent": "vtls004623451",
        "name": "john jones",
        "dob": "blk",
        "age": "33",
        "place_of_birth": "newborough",
        "home_address": "anglesea",
        "f": "anglesea",
        "name_of_ship": "liitle gem",
        "ship_port": "brixham",
        "date_leaving": "blk",
        "joined_ship_date": "1876-07-10",
        "joined_at_port": "port dinorwic",
        "capacity": "able seaman",
        "date_left": "1876-09-19",
        "left_port": "caernarfon",
        "cause_of_leaving": "paid off",
        "sign_with_mark": "n",
        "notes": "blk"
    },
    {
        "id": "vtls004623451_0_14",
        "type": "sailor",
        "parent": "vtls004623451",
        "name": "thomas williams",
        "dob": "blk",
        "age": "43",
        "place_of_birth": "anglesey",
        "home_address": "blk",
        "f": "blk",
        "name_of_ship": "spain",
        "ship_port": "liverpool",
        "date_leaving": "1878-06-18",
        "joined_ship_date": "1878-07-08",
        "joined_at_port": "caernarvon",
        "capacity": "master",
        "date_left": "blk",
        "left_port": "blk",
        "cause_of_leaving": "remains on board",
        "sign_with_mark": "n",
        "notes": "blk"
    },
    {
        "id": "vtls004623451_1_11",
        "type": "sailor",
        "parent": "vtls004623451",
        "name": "thomas wiliams",
        "dob": "blk",
        "age": "43",
        "place_of_birth": "hermon",
        "home_address": "anglesea",
        "f": "anglesea",
        "name_of_ship": "argo",
        "ship_port": "aberystwyth",
        "date_leaving": "continues",
        "joined_ship_date": "blk",
        "joined_at_port": "blk",
        "capacity": "master",
        "date_left": "1876-11-18",
        "left_port": "caernarfon",
        "cause_of_leaving": "paid off",
        "sign_with_mark": "n",
        "notes": "blk"
    },
    {
        "id": "vtls004623451_0_11",
        "type": "sailor",
        "parent": "vtls004623451",
        "name": "thomas jones",
        "dob": "blk",
        "age": "42",
        "place_of_birth": "anglesey",
        "home_address": "blk",
        "f": "blk",
        "name_of_ship": "argo",
        "ship_port": "aberystwyth",
        "date_leaving": "continued",
        "joined_ship_date": "blk",
        "joined_at_port": "blk",
        "capacity": "master",
        "date_left": "1876-04-18",
        "left_port": "caernarfon",
        "cause_of_leaving": "discharged",
        "sign_with_mark": "n",
        "notes": "blk"
    },
    {
        "id": "vtls004623451_0_12",
        "type": "sailor",
        "parent": "vtls004623451",
        "name": "john roberts",
        "dob": "blk",
        "age": "46",
        "place_of_birth": "caernarfon",
        "home_address": "blk",
        "f": "blk",
        "name_of_ship": "argo",
        "ship_port": "aberystwyth",
        "date_leaving": "continued",
        "joined_ship_date": "blk",
        "joined_at_port": "blk",
        "capacity": "mate",
        "date_left": "blk",
        "left_port": "blk",
        "cause_of_leaving": "remains on board",
        "sign_with_mark": "n",
        "notes": "blk"
    },
    {
        "id": "vtls004623451_0_13",
        "type": "sailor",
        "parent": "vtls004623451",
        "name": "thomas roberts",
        "dob": "blk",
        "age": "16",
        "place_of_birth": "anglesey",
        "home_address": "blk",
        "f": "blk",
        "name_of_ship": "argo",
        "ship_port": "aberystwyth",
        "date_leaving": "continued",
        "joined_ship_date": "blk",
        "joined_at_port": "blk",
        "capacity": "boy",
        "date_left": "blk",
        "left_port": "blk",
        "cause_of_leaving": "remains on board",
        "sign_with_mark": "n",
        "notes": "blk"
    }
]