[
    {
        "id": "vtls004923464_0_14",
        "type": "sailor",
        "parent": "vtls004923464",
        "name": "james griffiths",
        "dob": "blk",
        "age": "20",
        "place_of_birth": "aberystwyth",
        "home_address": "blk",
        "f": "blk",
        "name_of_ship": "eagle of aberystwyth",
        "ship_port": "aberystwyth",
        "date_leaving": "1863-12-18",
        "joined_ship_date": "1864-03-16",
        "joined_at_port": "aberystwyth",
        "capacity": "ordinary seaman",
        "date_left": "1864-06-30",
        "left_port": "at sea",
        "cause_of_leaving": "discharged",
        "sign_with_mark": "n",
        "notes": "blk"
    },
    {
        "id": "vtls004923464_1_11",
        "type": "sailor",
        "parent": "vtls004923464",
        "name": "seth botwood",
        "dob": "blk",
        "age": "51",
        "place_of_birth": "aberystwyth",
        "home_address": "north parade, aberystwyth",
        "f": "north parade, aberystwyth",
        "name_of_ship": "mary botwood",
        "ship_port": "aberystwyth",
        "date_leaving": "blk",
        "joined_ship_date": "blk",
        "joined_at_port": "blk",
        "capacity": "master",
        "date_left": "blk",
        "left_port": "blk",
        "cause_of_leaving": "remains on board",
        "sign_with_mark": "n",
        "notes": "account for july - dec 1864"
    },
    {
        "id": "vtls004923464_0_13",
        "type": "sailor",
        "parent": "vtls004923464",
        "name": "william edwards",
        "dob": "blk",
        "age": "24",
        "place_of_birth": "aberystwyth",
        "home_address": "blk",
        "f": "blk",
        "name_of_ship": "jane griffiths",
        "ship_port": "aberystwyth",
        "date_leaving": "1863-05-15",
        "joined_ship_date": "1864-05-18",
        "joined_at_port": "llanelly",
        "capacity": "mate",
        "date_left": "1864-06-30",
        "left_port": "at sea",
        "cause_of_leaving": "discharged",
        "sign_with_mark": "n",
        "notes": "blk"
    },
    {
        "id": "vtls004923464_0_12",
        "type": "sailor",
        "parent": "vtls004923464",
        "name": "thomas hughes",
        "dob": "blk",
        "age": "22",
        "place_of_birth": "aberystwyth",
        "home_address": "blk",
        "f": "blk",
        "name_of_ship": "mary botwood",
        "ship_port": "aberystwyth",
        "date_leaving": "1863-12-31",
        "joined_ship_date": "1864-03-16",
        "joined_at_port": "aberystwyth",
        "capacity": "mate",
        "date_left": "1864-05-10",
        "left_port": "llanelli",
        "cause_of_leaving": "discharged",
        "sign_with_mark": "n",
        "notes": "blk"
    },
    {
        "id": "vtls004923464_0_15",
        "type": "sailor",
        "parent": "vtls004923464",
        "name": "thomas humphreys",
        "dob": "blk",
        "age": "17",
        "place_of_birth": "aberystwyth",
        "home_address": "blk",
        "f": "blk",
        "name_of_ship": "mary botwood",
        "ship_port": "aberystwyth",
        "date_leaving": "1863-12-01",
        "joined_ship_date": "1864-03-16",
        "joined_at_port": "aberystwyth",
        "capacity": "boy",
        "date_left": "1864-06-30",
        "left_port": "at sea",
        "cause_of_leaving": "discharged",
        "sign_with_mark": "n",
        "notes": "blk"
    },
    {
        "id": "vtls004923464_0_11",
        "type": "sailor",
        "parent": "vtls004923464",
        "name": "seth botwood",
        "dob": "blk",
        "age": "51",
        "place_of_birth": "aberystwyth",
        "home_address": "blk",
        "f": "blk",
        "name_of_ship": "mary botwood",
        "ship_port": "aberystwyth",
        "date_leaving": "blk",
        "joined_ship_date": "blk",
        "joined_at_port": "blk",
        "capacity": "master",
        "date_left": "1864-06-30",
        "left_port": "at sea",
        "cause_of_leaving": "remains on board",
        "sign_with_mark": "n",
        "notes": "blk"
    },
    {
        "id": "vtls004923464_1_13",
        "type": "sailor",
        "parent": "vtls004923464",
        "name": "james griffiths",
        "dob": "blk",
        "age": "19",
        "place_of_birth": "aberystwyth",
        "home_address": "blk",
        "f": "blk",
        "name_of_ship": "mary botwood",
        "ship_port": "aberystwyth",
        "date_leaving": "blk",
        "joined_ship_date": "blk",
        "joined_at_port": "blk",
        "capacity": "seaman",
        "date_left": "blk",
        "left_port": "blk",
        "cause_of_leaving": "remains on board",
        "sign_with_mark": "n",
        "notes": "blk"
    },
    {
        "id": "vtls004923464_1_12",
        "type": "sailor",
        "parent": "vtls004923464",
        "name": "richard owens",
        "dob": "blk",
        "age": "30",
        "place_of_birth": "penuwch",
        "home_address": "blk",
        "f": "blk",
        "name_of_ship": "mary botwood",
        "ship_port": "aberystwyth",
        "date_leaving": "blk",
        "joined_ship_date": "blk",
        "joined_at_port": "blk",
        "capacity": "mate",
        "date_left": "blk",
        "left_port": "blk",
        "cause_of_leaving": "remains on board",
        "sign_with_mark": "n",
        "notes": "blk"
    },
    {
        "id": "vtls004923482_1_11",
        "type": "sailor",
        "parent": "vtls004923482",
        "name": "seth botwood",
        "dob": "blk",
        "age": "53",
        "place_of_birth": "aberystwyth",
        "home_address": "blk",
        "f": "blk",
        "name_of_ship": "mary botwood",
        "ship_port": "aberystwyth",
        "date_leaving": "1866-06-30",
        "joined_ship_date": "1866-07-01",
        "joined_at_port": "londonderry",
        "capacity": "master",
        "date_left": "blk",
        "left_port": "blk",
        "cause_of_leaving": "remains on board",
        "sign_with_mark": "n",
        "notes": "account for july - dec 1866"
    },
    {
        "id": "vtls004923482_1_13",
        "type": "sailor",
        "parent": "vtls004923482",
        "name": "evan jones",
        "dob": "blk",
        "age": "30",
        "place_of_birth": "aberystwyth",
        "home_address": "blk",
        "f": "blk",
        "name_of_ship": "mary botwood",
        "ship_port": "aberystwyth",
        "date_leaving": "1866-06-30",
        "joined_ship_date": "1866-07-01",
        "joined_at_port": "londonderry",
        "capacity": "ordinary seaman",
        "date_left": "blk",
        "left_port": "blk",
        "cause_of_leaving": "remains on board",
        "sign_with_mark": "n",
        "notes": "blk"
    },
    {
        "id": "vtls004923482_1_14",
        "type": "sailor",
        "parent": "vtls004923482",
        "name": "william griffith",
        "dob": "blk",
        "age": "17",
        "place_of_birth": "gloucester",
        "home_address": "blk",
        "f": "blk",
        "name_of_ship": "mary botwood",
        "ship_port": "aberystwyth",
        "date_leaving": "1866-06-30",
        "joined_ship_date": "1866-07-01",
        "joined_at_port": "londonderry",
        "capacity": "cook",
        "date_left": "blk",
        "left_port": "blk",
        "cause_of_leaving": "remains on board",
        "sign_with_mark": "n",
        "notes": "blk"
    },
    {
        "id": "vtls004923482_0_11",
        "type": "sailor",
        "parent": "vtls004923482",
        "name": "seth botwood",
        "dob": "blk",
        "age": "53",
        "place_of_birth": "aberystwyth",
        "home_address": "blk",
        "f": "blk",
        "name_of_ship": "mary botwood",
        "ship_port": "aberystwyth",
        "date_leaving": "blk",
        "joined_ship_date": "continued",
        "joined_at_port": "blk",
        "capacity": "master",
        "date_left": "blk",
        "left_port": "blk",
        "cause_of_leaving": "remains on board",
        "sign_with_mark": "n",
        "notes": "account for jan - june 1866"
    },
    {
        "id": "vtls004923482_0_13",
        "type": "sailor",
        "parent": "vtls004923482",
        "name": "evan jones",
        "dob": "blk",
        "age": "20",
        "place_of_birth": "aberystwyth",
        "home_address": "blk",
        "f": "blk",
        "name_of_ship": "new diligence",
        "ship_port": "aberystwyth",
        "date_leaving": "blk",
        "joined_ship_date": "1866-06-01",
        "joined_at_port": "aberystwyth",
        "capacity": "ordinary seaman",
        "date_left": "blk",
        "left_port": "blk",
        "cause_of_leaving": "remains on board",
        "sign_with_mark": "n",
        "notes": "blk"
    },
    {
        "id": "vtls004923482_1_12",
        "type": "sailor",
        "parent": "vtls004923482",
        "name": "evan jones",
        "dob": "blk",
        "age": "27",
        "place_of_birth": "aberystwyth",
        "home_address": "blk",
        "f": "blk",
        "name_of_ship": "mary botwood",
        "ship_port": "aberystwyth",
        "date_leaving": "1866-06-30",
        "joined_ship_date": "1866-07-01",
        "joined_at_port": "londonderry",
        "capacity": "mate",
        "date_left": "blk",
        "left_port": "blk",
        "cause_of_leaving": "remains on board",
        "sign_with_mark": "n",
        "notes": "blk"
    },
    {
        "id": "vtls004923464_1_14",
        "type": "sailor",
        "parent": "vtls004923464",
        "name": "thomas humphreys",
        "dob": "blk",
        "age": "18",
        "place_of_birth": "aberystwyth",
        "home_address": "blk",
        "f": "blk",
        "name_of_ship": "mary botwood",
        "ship_port": "aberystwyth",
        "date_leaving": "blk",
        "joined_ship_date": "blk",
        "joined_at_port": "blk",
        "capacity": "ordinary seaman",
        "date_left": "blk",
        "left_port": "blk",
        "cause_of_leaving": "remains on board",
        "sign_with_mark": "n",
        "notes": "blk"
    },
    {
        "id": "vtls004923482_0_14",
        "type": "sailor",
        "parent": "vtls004923482",
        "name": "william swinnett",
        "dob": "blk",
        "age": "16",
        "place_of_birth": "gloucester",
        "home_address": "blk",
        "f": "blk",
        "name_of_ship": "towy",
        "ship_port": "aberystwyth",
        "date_leaving": "blk",
        "joined_ship_date": "1866-06-06",
        "joined_at_port": "aberdovey",
        "capacity": "boy",
        "date_left": "blk",
        "left_port": "blk",
        "cause_of_leaving": "remains on board",
        "sign_with_mark": "n",
        "notes": "blk"
    },
    {
        "id": "vtls004923482_0_12",
        "type": "sailor",
        "parent": "vtls004923482",
        "name": "evan jones",
        "dob": "blk",
        "age": "31",
        "place_of_birth": "aberystwyth",
        "home_address": "blk",
        "f": "blk",
        "name_of_ship": "idea",
        "ship_port": "aberystwyth",
        "date_leaving": "blk",
        "joined_ship_date": "1866-06-01",
        "joined_at_port": "aberystwyth",
        "capacity": "mate",
        "date_left": "blk",
        "left_port": "blk",
        "cause_of_leaving": "remains on board",
        "sign_with_mark": "n",
        "notes": "blk"
    },
    {
        "id": "vtls004923496_0_11",
        "type": "sailor",
        "parent": "vtls004923496",
        "name": "seth botwood",
        "dob": "blk",
        "age": "54",
        "place_of_birth": "cardigan",
        "home_address": "blk",
        "f": "blk",
        "name_of_ship": "mary botwood",
        "ship_port": "aberystwyth",
        "date_leaving": "continues",
        "joined_ship_date": "continues",
        "joined_at_port": "blk",
        "capacity": "master",
        "date_left": "1867-06-30",
        "left_port": "sea",
        "cause_of_leaving": "remains on board",
        "sign_with_mark": "n",
        "notes": "account for jan - june 1867"
    },
    {
        "id": "vtls004923496_1_13",
        "type": "sailor",
        "parent": "vtls004923496",
        "name": "edward roberts",
        "dob": "blk",
        "age": "18",
        "place_of_birth": "aberystwyth",
        "home_address": "blk",
        "f": "blk",
        "name_of_ship": "mary botwood",
        "ship_port": "aberystwyth",
        "date_leaving": "blk",
        "joined_ship_date": "1867-07-01",
        "joined_at_port": "blk",
        "capacity": "ordinary seaman",
        "date_left": "1867-12-02",
        "left_port": "port dinorwic",
        "cause_of_leaving": "discharged",
        "sign_with_mark": "n",
        "notes": "blk"
    },
    {
        "id": "vtls004923496_0_13",
        "type": "sailor",
        "parent": "vtls004923496",
        "name": "edward roberts",
        "dob": "blk",
        "age": "18",
        "place_of_birth": "newquay",
        "home_address": "blk",
        "f": "blk",
        "name_of_ship": "mary botwood",
        "ship_port": "aberystwyth",
        "date_leaving": "continues",
        "joined_ship_date": "continues",
        "joined_at_port": "blk",
        "capacity": "able seaman",
        "date_left": "1867-06-30",
        "left_port": "sea",
        "cause_of_leaving": "remains on board",
        "sign_with_mark": "n",
        "notes": "blk"
    },
    {
        "id": "vtls004923496_1_12",
        "type": "sailor",
        "parent": "vtls004923496",
        "name": "william botwood",
        "dob": "blk",
        "age": "30",
        "place_of_birth": "aberystwyth",
        "home_address": "blk",
        "f": "blk",
        "name_of_ship": "mary botwood",
        "ship_port": "aberystwyth",
        "date_leaving": "blk",
        "joined_ship_date": "1867-07-01",
        "joined_at_port": "blk",
        "capacity": "mate",
        "date_left": "1867-12-02",
        "left_port": "port dinorwic",
        "cause_of_leaving": "discharged",
        "sign_with_mark": "n",
        "notes": "blk"
    },
    {
        "id": "vtls004923496_0_12",
        "type": "sailor",
        "parent": "vtls004923496",
        "name": "william botwood",
        "dob": "blk",
        "age": "30",
        "place_of_birth": "cardigan",
        "home_address": "blk",
        "f": "blk",
        "name_of_ship": "mary botwood",
        "ship_port": "aberystwyth",
        "date_leaving": "continues",
        "joined_ship_date": "continues",
        "joined_at_port": "blk",
        "capacity": "mate",
        "date_left": "1867-06-30",
        "left_port": "sea",
        "cause_of_leaving": "remains on board",
        "sign_with_mark": "n",
        "notes": "blk"
    },
    {
        "id": "vtls004923496_0_14",
        "type": "sailor",
        "parent": "vtls004923496",
        "name": "edward richard",
        "dob": "blk",
        "age": "17",
        "place_of_birth": "aberystwyth",
        "home_address": "blk",
        "f": "blk",
        "name_of_ship": "mary botwood",
        "ship_port": "aberystwyth",
        "date_leaving": "continues",
        "joined_ship_date": "continues",
        "joined_at_port": "blk",
        "capacity": "boy",
        "date_left": "1867-06-30",
        "left_port": "sea",
        "cause_of_leaving": "remains on board",
        "sign_with_mark": "n",
        "notes": "blk"
    },
    {
        "id": "vtls004923496_1_11",
        "type": "sailor",
        "parent": "vtls004923496",
        "name": "seth botwood",
        "dob": "blk",
        "age": "54",
        "place_of_birth": "aberystwyth",
        "home_address": "blk",
        "f": "blk",
        "name_of_ship": "mary botwood",
        "ship_port": "aberystwyth",
        "date_leaving": "blk",
        "joined_ship_date": "1867-07-01",
        "joined_at_port": "blk",
        "capacity": "master",
        "date_left": "blk",
        "left_port": "blk",
        "cause_of_leaving": "remains on board",
        "sign_with_mark": "n",
        "notes": "blk"
    },
    {
        "id": "vtls004923508_1_13",
        "type": "sailor",
        "parent": "vtls004923508",
        "name": "edward roberts",
        "dob": "blk",
        "age": "19",
        "place_of_birth": "aberystwyth",
        "home_address": "blk",
        "f": "blk",
        "name_of_ship": "mary botwood",
        "ship_port": "aberystwyth",
        "date_leaving": "1868-06-30",
        "joined_ship_date": "1868-06-30",
        "joined_at_port": "aberystwyth",
        "capacity": "able seaman",
        "date_left": "1868-11-26",
        "left_port": "port dinorwic",
        "cause_of_leaving": "discharged",
        "sign_with_mark": "n",
        "notes": "blk"
    },
    {
        "id": "vtls004923496_1_14",
        "type": "sailor",
        "parent": "vtls004923496",
        "name": "edward richards",
        "dob": "blk",
        "age": "17",
        "place_of_birth": "machynlleth",
        "home_address": "blk",
        "f": "blk",
        "name_of_ship": "mary botwood",
        "ship_port": "aberystwyth",
        "date_leaving": "blk",
        "joined_ship_date": "1867-07-01",
        "joined_at_port": "blk",
        "capacity": "ordinary seaman",
        "date_left": "1867-12-02",
        "left_port": "port dinorwic",
        "cause_of_leaving": "discharged",
        "sign_with_mark": "n",
        "notes": "blk"
    },
    {
        "id": "vtls004923508_1_12",
        "type": "sailor",
        "parent": "vtls004923508",
        "name": "william botwood",
        "dob": "blk",
        "age": "32",
        "place_of_birth": "aberystwyth",
        "home_address": "blk",
        "f": "blk",
        "name_of_ship": "mary botwood",
        "ship_port": "aberystwyth",
        "date_leaving": "1868-06-30",
        "joined_ship_date": "1868-06-30",
        "joined_at_port": "aberystwyth",
        "capacity": "mate",
        "date_left": "1868-11-26",
        "left_port": "port dinorwic",
        "cause_of_leaving": "discharged",
        "sign_with_mark": "n",
        "notes": "blk"
    },
    {
        "id": "vtls004923508_1_14",
        "type": "sailor",
        "parent": "vtls004923508",
        "name": "james dundonal",
        "dob": "blk",
        "age": "16",
        "place_of_birth": "liverpool",
        "home_address": "blk",
        "f": "blk",
        "name_of_ship": "mary botwood",
        "ship_port": "aberystwyth",
        "date_leaving": "1868-06-30",
        "joined_ship_date": "1868-06-30",
        "joined_at_port": "aberystwyth",
        "capacity": "boy",
        "date_left": "1868-11-26",
        "left_port": "port dinorwic",
        "cause_of_leaving": "discharged",
        "sign_with_mark": "n",
        "notes": "blk"
    },
    {
        "id": "vtls004923508_0_11",
        "type": "sailor",
        "parent": "vtls004923508",
        "name": "seth botwood",
        "dob": "blk",
        "age": "55",
        "place_of_birth": "aberystwyth",
        "home_address": "blk",
        "f": "blk",
        "name_of_ship": "mary botwood",
        "ship_port": "aberystwyth",
        "date_leaving": "blk",
        "joined_ship_date": "remains",
        "joined_at_port": "blk",
        "capacity": "master",
        "date_left": "blk",
        "left_port": "blk",
        "cause_of_leaving": "remains on board",
        "sign_with_mark": "n",
        "notes": "account for jan - june 1868"
    },
    {
        "id": "vtls004923508_1_11",
        "type": "sailor",
        "parent": "vtls004923508",
        "name": "seth botwood",
        "dob": "blk",
        "age": "55",
        "place_of_birth": "aberystwyth",
        "home_address": "blk",
        "f": "blk",
        "name_of_ship": "mary botwood",
        "ship_port": "aberystwyth",
        "date_leaving": "1868-06-30",
        "joined_ship_date": "1868-06-30",
        "joined_at_port": "aberystwyth",
        "capacity": "master",
        "date_left": "blk",
        "left_port": "blk",
        "cause_of_leaving": "remains on board",
        "sign_with_mark": "n",
        "notes": "blk"
    },
    {
        "id": "vtls004923508_0_13",
        "type": "sailor",
        "parent": "vtls004923508",
        "name": "edward roberts",
        "dob": "blk",
        "age": "19",
        "place_of_birth": "aberystwyth",
        "home_address": "blk",
        "f": "blk",
        "name_of_ship": "mary botwood",
        "ship_port": "aberystwyth",
        "date_leaving": "blk",
        "joined_ship_date": "remains",
        "joined_at_port": "blk",
        "capacity": "able seaman",
        "date_left": "blk",
        "left_port": "blk",
        "cause_of_leaving": "remains on board",
        "sign_with_mark": "n",
        "notes": "blk"
    },
    {
        "id": "vtls004923508_0_14",
        "type": "sailor",
        "parent": "vtls004923508",
        "name": "thomas griffiths",
        "dob": "blk",
        "age": "16",
        "place_of_birth": "aberystwyth",
        "home_address": "blk",
        "f": "blk",
        "name_of_ship": "mary botwood",
        "ship_port": "aberystwyth",
        "date_leaving": "blk",
        "joined_ship_date": "remains",
        "joined_at_port": "blk",
        "capacity": "boy",
        "date_left": "blk",
        "left_port": "blk",
        "cause_of_leaving": "remains on board",
        "sign_with_mark": "n",
        "notes": "blk"
    },
    {
        "id": "vtls004923508_0_12",
        "type": "sailor",
        "parent": "vtls004923508",
        "name": "william botwood",
        "dob": "blk",
        "age": "32",
        "place_of_birth": "aberystwyth",
        "home_address": "blk",
        "f": "blk",
        "name_of_ship": "mary botwood",
        "ship_port": "aberystwyth",
        "date_leaving": "blk",
        "joined_ship_date": "remains",
        "joined_at_port": "blk",
        "capacity": "mate",
        "date_left": "blk",
        "left_port": "blk",
        "cause_of_leaving": "remains on board",
        "sign_with_mark": "n",
        "notes": "blk"
    },
    {
        "id": "vtls004923528_1_11",
        "type": "sailor",
        "parent": "vtls004923528",
        "name": "seth botwood",
        "dob": "blk",
        "age": "56",
        "place_of_birth": "aberystwyth",
        "home_address": "blk",
        "f": "blk",
        "name_of_ship": "mary botwood",
        "ship_port": "aberystwyth",
        "date_leaving": "1869-06-30",
        "joined_ship_date": "1869-06-30",
        "joined_at_port": "blk",
        "capacity": "master",
        "date_left": "1869-08-08",
        "left_port": "off hastings",
        "cause_of_leaving": "discharged",
        "sign_with_mark": "n",
        "notes": "lost the ship; the vessel was run down by the \"deuchland of bremene\" bound for new york; the master was saved by the same ss ship and landed at southampton on august 9th 1869"
    },
    {
        "id": "vtls004923528_1_12",
        "type": "sailor",
        "parent": "vtls004923528",
        "name": "evan jones",
        "dob": "blk",
        "age": "32",
        "place_of_birth": "aberystwyth",
        "home_address": "blk",
        "f": "blk",
        "name_of_ship": "mary botwood",
        "ship_port": "aberystwyth",
        "date_leaving": "1869-06-30",
        "joined_ship_date": "1869-06-30",
        "joined_at_port": "blk",
        "capacity": "mate",
        "date_left": "1869-08-08",
        "left_port": "off hastings",
        "cause_of_leaving": "drowned",
        "sign_with_mark": "n",
        "notes": "drowned at sea; see above note"
    },
    {
        "id": "vtls004923528_0_12",
        "type": "sailor",
        "parent": "vtls004923528",
        "name": "robert owen",
        "dob": "blk",
        "age": "20",
        "place_of_birth": "bangor",
        "home_address": "blk",
        "f": "blk",
        "name_of_ship": "mary botwood",
        "ship_port": "aberystwyth",
        "date_leaving": "1868-12",
        "joined_ship_date": "1869-01-07",
        "joined_at_port": "portdinorwig",
        "capacity": "ordinary seaman",
        "date_left": "1869-04",
        "left_port": "liverpool",
        "cause_of_leaving": "discharged",
        "sign_with_mark": "n",
        "notes": "blk"
    },
    {
        "id": "vtls004923528_0_14",
        "type": "sailor",
        "parent": "vtls004923528",
        "name": "lewis jones",
        "dob": "blk",
        "age": "18",
        "place_of_birth": "aberystwyth",
        "home_address": "blk",
        "f": "blk",
        "name_of_ship": "eliza blake",
        "ship_port": "caernarfon",
        "date_leaving": "1869-02",
        "joined_ship_date": "1869-04",
        "joined_at_port": "liverpool",
        "capacity": "ordinary seaman",
        "date_left": "blk",
        "left_port": "blk",
        "cause_of_leaving": "remains on board",
        "sign_with_mark": "n",
        "notes": "blk"
    },
    {
        "id": "vtls004923528_0_13",
        "type": "sailor",
        "parent": "vtls004923528",
        "name": "william owen",
        "dob": "blk",
        "age": "15",
        "place_of_birth": "bangor",
        "home_address": "blk",
        "f": "blk",
        "name_of_ship": "mary botwood",
        "ship_port": "aberystwyth",
        "date_leaving": "1868-12",
        "joined_ship_date": "1869-01-07",
        "joined_at_port": "portdinorwig",
        "capacity": "boy",
        "date_left": "1869-04",
        "left_port": "liverpool",
        "cause_of_leaving": "discharged",
        "sign_with_mark": "n",
        "notes": "blk"
    },
    {
        "id": "vtls004923528_0_15",
        "type": "sailor",
        "parent": "vtls004923528",
        "name": "thomas enos",
        "dob": "blk",
        "age": "17",
        "place_of_birth": "aberystwyth",
        "home_address": "blk",
        "f": "blk",
        "name_of_ship": "jane griffiths",
        "ship_port": "caernarfon",
        "date_leaving": "1869-03",
        "joined_ship_date": "1869-04",
        "joined_at_port": "liverpool",
        "capacity": "boy",
        "date_left": "blk",
        "left_port": "blk",
        "cause_of_leaving": "remains on board",
        "sign_with_mark": "n",
        "notes": "blk"
    },
    {
        "id": "vtls004923528_0_11",
        "type": "sailor",
        "parent": "vtls004923528",
        "name": "seth botwood",
        "dob": "blk",
        "age": "56",
        "place_of_birth": "aberystwyth",
        "home_address": "blk",
        "f": "blk",
        "name_of_ship": "mary botwood",
        "ship_port": "aberystwyth",
        "date_leaving": "blk",
        "joined_ship_date": "1858",
        "joined_at_port": "aberystwyth",
        "capacity": "master",
        "date_left": "blk",
        "left_port": "blk",
        "cause_of_leaving": "remains on board",
        "sign_with_mark": "n",
        "notes": "blk"
    },
    {
        "id": "vtls004923528_1_13",
        "type": "sailor",
        "parent": "vtls004923528",
        "name": "lewis jones",
        "dob": "blk",
        "age": "18",
        "place_of_birth": "aberystwyth",
        "home_address": "blk",
        "f": "blk",
        "name_of_ship": "mary botwood",
        "ship_port": "aberystwyth",
        "date_leaving": "1869-06-30",
        "joined_ship_date": "1869-06-30",
        "joined_at_port": "blk",
        "capacity": "ordinary seaman",
        "date_left": "1869-08-08",
        "left_port": "off hastings",
        "cause_of_leaving": "drowned",
        "sign_with_mark": "n",
        "notes": "drowned at sea; see above note"
    },
    {
        "id": "vtls004923528_1_14",
        "type": "sailor",
        "parent": "vtls004923528",
        "name": "james enos",
        "dob": "blk",
        "age": "16",
        "place_of_birth": "aberystwyth",
        "home_address": "blk",
        "f": "blk",
        "name_of_ship": "mary botwood",
        "ship_port": "aberystwyth",
        "date_leaving": "1869-06-30",
        "joined_ship_date": "1869-06-30",
        "joined_at_port": "blk",
        "capacity": "boy",
        "date_left": "1869-08-08",
        "left_port": "off hastings",
        "cause_of_leaving": "drowned",
        "sign_with_mark": "n",
        "notes": "drowned at sea; see above note"
    }
]