[
    {
        "id": "vtls004605094_1_11",
        "type": "sailor",
        "parent": "vtls004605094",
        "name": "david d davies",
        "dob": "blk",
        "age": "48",
        "place_of_birth": "aberaeron",
        "home_address": "tower lane, aberaeron",
        "f": "tower lane, aberaeron",
        "name_of_ship": "all right",
        "ship_port": "aberystwyth",
        "date_leaving": "continued",
        "joined_ship_date": "continued",
        "joined_at_port": "continued",
        "capacity": "master",
        "date_left": "1874-12-31",
        "left_port": "milford",
        "cause_of_leaving": "remains on board",
        "sign_with_mark": "n",
        "notes": "blk"
    },
    {
        "id": "vtls004605094_0_11",
        "type": "sailor",
        "parent": "vtls004605094",
        "name": "david d davies",
        "dob": "blk",
        "age": "48",
        "place_of_birth": "aberaeron",
        "home_address": "tower lane, aberaeron",
        "f": "tower lane, aberaeron",
        "name_of_ship": "all right",
        "ship_port": "aberystwyth",
        "date_leaving": "continued",
        "joined_ship_date": "continued",
        "joined_at_port": "continued",
        "capacity": "master",
        "date_left": "remains",
        "left_port": "remains",
        "cause_of_leaving": "remains on board",
        "sign_with_mark": "n",
        "notes": "blk"
    },
    {
        "id": "vtls004605094_0_12",
        "type": "sailor",
        "parent": "vtls004605094",
        "name": "jenkin james",
        "dob": "blk",
        "age": "42",
        "place_of_birth": "aberaeron",
        "home_address": "blk",
        "f": "blk",
        "name_of_ship": "all right",
        "ship_port": "aberystwyth",
        "date_leaving": "continued",
        "joined_ship_date": "continued",
        "joined_at_port": "continued",
        "capacity": "mate",
        "date_left": "remains",
        "left_port": "remains",
        "cause_of_leaving": "remains on board",
        "sign_with_mark": "n",
        "notes": "blk"
    },
    {
        "id": "vtls004605094_0_13",
        "type": "sailor",
        "parent": "vtls004605094",
        "name": "david d davies",
        "dob": "blk",
        "age": "13",
        "place_of_birth": "aberaeron",
        "home_address": "blk",
        "f": "blk",
        "name_of_ship": "all right",
        "ship_port": "aberystwyth",
        "date_leaving": "continued",
        "joined_ship_date": "continued",
        "joined_at_port": "continued",
        "capacity": "boy",
        "date_left": "remains",
        "left_port": "remains",
        "cause_of_leaving": "remains on board",
        "sign_with_mark": "n",
        "notes": "blk"
    },
    {
        "id": "vtls004605096_0_11",
        "type": "sailor",
        "parent": "vtls004605096",
        "name": "david d davies",
        "dob": "blk",
        "age": "50",
        "place_of_birth": "aberaeron",
        "home_address": "rock terrace, aberaeron",
        "f": "rock terrace, aberaeron",
        "name_of_ship": "all right",
        "ship_port": "aberystwth",
        "date_leaving": "continued",
        "joined_ship_date": "1876-01-01",
        "joined_at_port": "milford",
        "capacity": "master",
        "date_left": "1876-06-30",
        "left_port": "remains",
        "cause_of_leaving": "remains on board",
        "sign_with_mark": "n",
        "notes": "blk"
    },
    {
        "id": "vtls004605096_1_11",
        "type": "sailor",
        "parent": "vtls004605096",
        "name": "david d davies",
        "dob": "blk",
        "age": "51",
        "place_of_birth": "aberaeron",
        "home_address": "rock terrace, aberaeron",
        "f": "rock terrace, aberaeron",
        "name_of_ship": "all right",
        "ship_port": "aberystwyth",
        "date_leaving": "continued",
        "joined_ship_date": "continued",
        "joined_at_port": "continued",
        "capacity": "master",
        "date_left": "remains",
        "left_port": "remains",
        "cause_of_leaving": "remains on board",
        "sign_with_mark": "n",
        "notes": "blk"
    },
    {
        "id": "vtls004605094_1_12",
        "type": "sailor",
        "parent": "vtls004605094",
        "name": "jenkin james",
        "dob": "blk",
        "age": "43",
        "place_of_birth": "aberaeron",
        "home_address": "blk",
        "f": "blk",
        "name_of_ship": "all right",
        "ship_port": "aberystwyth",
        "date_leaving": "continued",
        "joined_ship_date": "continued",
        "joined_at_port": "continued",
        "capacity": "mate",
        "date_left": "1874-12-31",
        "left_port": "milford",
        "cause_of_leaving": "remains on board",
        "sign_with_mark": "n",
        "notes": "blk"
    },
    {
        "id": "vtls004605096_0_13",
        "type": "sailor",
        "parent": "vtls004605096",
        "name": "evan evans",
        "dob": "blk",
        "age": "64",
        "place_of_birth": "aberaeron",
        "home_address": "blk",
        "f": "blk",
        "name_of_ship": "eleanor",
        "ship_port": "cardigan",
        "date_leaving": "1875-10-18",
        "joined_ship_date": "1876-03-22",
        "joined_at_port": "aberaeron",
        "capacity": "mate",
        "date_left": "1876-06-30",
        "left_port": "remains",
        "cause_of_leaving": "remains on board",
        "sign_with_mark": "n",
        "notes": "blk"
    },
    {
        "id": "vtls004605094_1_13",
        "type": "sailor",
        "parent": "vtls004605094",
        "name": "david d davies",
        "dob": "blk",
        "age": "13",
        "place_of_birth": "aberaeron",
        "home_address": "blk",
        "f": "blk",
        "name_of_ship": "all right",
        "ship_port": "aberystwyth",
        "date_leaving": "continued",
        "joined_ship_date": "continued",
        "joined_at_port": "continued",
        "capacity": "boy",
        "date_left": "1874-11-16",
        "left_port": "aberaeron",
        "cause_of_leaving": "discharged",
        "sign_with_mark": "n",
        "notes": "blk"
    },
    {
        "id": "vtls004605096_1_12",
        "type": "sailor",
        "parent": "vtls004605096",
        "name": "evan evans",
        "dob": "blk",
        "age": "63",
        "place_of_birth": "aberaeron",
        "home_address": "blk",
        "f": "blk",
        "name_of_ship": "all right",
        "ship_port": "aberystwyth",
        "date_leaving": "continued",
        "joined_ship_date": "continued",
        "joined_at_port": "continued",
        "capacity": "mate",
        "date_left": "remains",
        "left_port": "remains",
        "cause_of_leaving": "remains on board",
        "sign_with_mark": "n",
        "notes": "blk"
    },
    {
        "id": "vtls004605096_0_12",
        "type": "sailor",
        "parent": "vtls004605096",
        "name": "jenkin james",
        "dob": "blk",
        "age": "45",
        "place_of_birth": "aberaeron",
        "home_address": "blk",
        "f": "blk",
        "name_of_ship": "all right",
        "ship_port": "aberystwth",
        "date_leaving": "continued",
        "joined_ship_date": "1876-01-01",
        "joined_at_port": "milford",
        "capacity": "mate",
        "date_left": "1876-02",
        "left_port": "aberaeron",
        "cause_of_leaving": "discharged",
        "sign_with_mark": "n",
        "notes": "blk"
    },
    {
        "id": "vtls004605130_0_12",
        "type": "sailor",
        "parent": "vtls004605130",
        "name": "evan williams",
        "dob": "blk",
        "age": "21",
        "place_of_birth": "aberaeron",
        "home_address": "blk",
        "f": "blk",
        "name_of_ship": "all right",
        "ship_port": "aberystwyth",
        "date_leaving": "continued",
        "joined_ship_date": "continued",
        "joined_at_port": "continued",
        "capacity": "mate",
        "date_left": "1878-05-28",
        "left_port": "graiglas",
        "cause_of_leaving": "discharged",
        "sign_with_mark": "n",
        "notes": "graignes in france possible place of discharge mispealt on document"
    },
    {
        "id": "vtls004605130_1_11",
        "type": "sailor",
        "parent": "vtls004605130",
        "name": "david d davies",
        "dob": "blk",
        "age": "52",
        "place_of_birth": "aberaeron",
        "home_address": "rock terrace, aberystwyth",
        "f": "rock terrace, aberystwyth",
        "name_of_ship": "all right",
        "ship_port": "aberystwyth",
        "date_leaving": "continued",
        "joined_ship_date": "continued",
        "joined_at_port": "continued",
        "capacity": "master",
        "date_left": "remains",
        "left_port": "remains",
        "cause_of_leaving": "remains on board",
        "sign_with_mark": "n",
        "notes": "blk"
    },
    {
        "id": "vtls004605102_0_11",
        "type": "sailor",
        "parent": "vtls004605102",
        "name": "david d davies",
        "dob": "blk",
        "age": "57",
        "place_of_birth": "aberaeron",
        "home_address": "rock terrace, aberaeron",
        "f": "rock terrace, aberaeron",
        "name_of_ship": "all right",
        "ship_port": "aberystwyth",
        "date_leaving": "continued",
        "joined_ship_date": "continued",
        "joined_at_port": "continued",
        "capacity": "master",
        "date_left": "remains",
        "left_port": "remains",
        "cause_of_leaving": "remains on board",
        "sign_with_mark": "n",
        "notes": "blk"
    },
    {
        "id": "vtls004605102_1_11",
        "type": "sailor",
        "parent": "vtls004605102",
        "name": "david d davies",
        "dob": "blk",
        "age": "52",
        "place_of_birth": "aberaeron",
        "home_address": "rock terrace, aberaeron",
        "f": "rock terrace, aberaeron",
        "name_of_ship": "all right",
        "ship_port": "aberystwyth",
        "date_leaving": "continued",
        "joined_ship_date": "continued",
        "joined_at_port": "continued",
        "capacity": "master",
        "date_left": "remains",
        "left_port": "remains",
        "cause_of_leaving": "remains on board",
        "sign_with_mark": "n",
        "notes": "blk"
    },
    {
        "id": "vtls004605130_0_11",
        "type": "sailor",
        "parent": "vtls004605130",
        "name": "david d davies",
        "dob": "blk",
        "age": "52",
        "place_of_birth": "aberaeron",
        "home_address": "rock terrace, aberaeron",
        "f": "rock terrace, aberaeron",
        "name_of_ship": "all right",
        "ship_port": "aberystwyth",
        "date_leaving": "continued",
        "joined_ship_date": "continued",
        "joined_at_port": "continued",
        "capacity": "master",
        "date_left": "remains",
        "left_port": "remains",
        "cause_of_leaving": "remains on board",
        "sign_with_mark": "n",
        "notes": "blk"
    },
    {
        "id": "vtls004605102_0_13",
        "type": "sailor",
        "parent": "vtls004605102",
        "name": "evan williams",
        "dob": "blk",
        "age": "20",
        "place_of_birth": "aberaeron",
        "home_address": "blk",
        "f": "blk",
        "name_of_ship": "aeron belle",
        "ship_port": "aberystwyth",
        "date_leaving": "1876-12",
        "joined_ship_date": "1877-03-19",
        "joined_at_port": "aberaeron",
        "capacity": "mate",
        "date_left": "remains",
        "left_port": "remains",
        "cause_of_leaving": "remains on board",
        "sign_with_mark": "n",
        "notes": "blk"
    },
    {
        "id": "vtls004605102_1_12",
        "type": "sailor",
        "parent": "vtls004605102",
        "name": "evan williams",
        "dob": "blk",
        "age": "21",
        "place_of_birth": "aberaeron",
        "home_address": "blk",
        "f": "blk",
        "name_of_ship": "all right",
        "ship_port": "aberystwyth",
        "date_leaving": "continued",
        "joined_ship_date": "continued",
        "joined_at_port": "continued",
        "capacity": "mate",
        "date_left": "remains",
        "left_port": "remains",
        "cause_of_leaving": "remains on board",
        "sign_with_mark": "n",
        "notes": "blk"
    },
    {
        "id": "vtls004605102_0_12",
        "type": "sailor",
        "parent": "vtls004605102",
        "name": "evan evans",
        "dob": "blk",
        "age": "64",
        "place_of_birth": "aberaeron",
        "home_address": "blk",
        "f": "blk",
        "name_of_ship": "all right",
        "ship_port": "aberystwyth",
        "date_leaving": "continued",
        "joined_ship_date": "continued",
        "joined_at_port": "continued",
        "capacity": "mate",
        "date_left": "1877-01-07",
        "left_port": "aberaeron",
        "cause_of_leaving": "discharged",
        "sign_with_mark": "n",
        "notes": "blk"
    },
    {
        "id": "vtls004605130_1_12",
        "type": "sailor",
        "parent": "vtls004605130",
        "name": "john james jones",
        "dob": "blk",
        "age": "16",
        "place_of_birth": "aberaeron",
        "home_address": "blk",
        "f": "blk",
        "name_of_ship": "ema[ ]lawson",
        "ship_port": "blk",
        "date_leaving": "1878 june",
        "joined_ship_date": "1879-07-06",
        "joined_at_port": "graigloves",
        "capacity": "ordinary seaman",
        "date_left": "1878-12-10",
        "left_port": "aberaeron",
        "cause_of_leaving": "discharged",
        "sign_with_mark": "n",
        "notes": "possible port of joining graignes in france name of ship could be emma lawson from whitby"
    },
    {
        "id": "vtls004605139_0_11",
        "type": "sailor",
        "parent": "vtls004605139",
        "name": "david d davies",
        "dob": "blk",
        "age": "53",
        "place_of_birth": "aberaeron",
        "home_address": "rock terrace, aberaeron",
        "f": "rock terrace, aberaeron",
        "name_of_ship": "all right",
        "ship_port": "aberystwyth",
        "date_leaving": "continued",
        "joined_ship_date": "continued",
        "joined_at_port": "continued",
        "capacity": "master",
        "date_left": "1879-06-30",
        "left_port": "duddon",
        "cause_of_leaving": "remains on board",
        "sign_with_mark": "n",
        "notes": "blk"
    },
    {
        "id": "vtls004605139_1_11",
        "type": "sailor",
        "parent": "vtls004605139",
        "name": "david d davies",
        "dob": "blk",
        "age": "56",
        "place_of_birth": "aberaeron",
        "home_address": "rock terrace, aberaeron",
        "f": "rock terrace, aberaeron",
        "name_of_ship": "all right",
        "ship_port": "aberystwyth",
        "date_leaving": "continued",
        "joined_ship_date": "continued",
        "joined_at_port": "continued",
        "capacity": "master",
        "date_left": "remains",
        "left_port": "remains",
        "cause_of_leaving": "remains on board",
        "sign_with_mark": "n",
        "notes": "blk"
    },
    {
        "id": "vtls004605130_1_13",
        "type": "sailor",
        "parent": "vtls004605130",
        "name": "david d davies",
        "dob": "blk",
        "age": "17",
        "place_of_birth": "aberaeron",
        "home_address": "blk",
        "f": "blk",
        "name_of_ship": "all right",
        "ship_port": "aberystwyth",
        "date_leaving": "continued",
        "joined_ship_date": "continued",
        "joined_at_port": "continued",
        "capacity": "mate",
        "date_left": "remains",
        "left_port": "remains",
        "cause_of_leaving": "remains on board",
        "sign_with_mark": "n",
        "notes": "no record of joining ship"
    },
    {
        "id": "vtls004605139_1_13",
        "type": "sailor",
        "parent": "vtls004605139",
        "name": "john harris evans",
        "dob": "blk",
        "age": "14",
        "place_of_birth": "aberaeron",
        "home_address": "blk",
        "f": "blk",
        "name_of_ship": "all right",
        "ship_port": "aberystwyth",
        "date_leaving": "continued",
        "joined_ship_date": "continued",
        "joined_at_port": "continued",
        "capacity": "ordinary seaman",
        "date_left": "1879-12-10",
        "left_port": "porthmadog",
        "cause_of_leaving": "discharged",
        "sign_with_mark": "n",
        "notes": "blk"
    },
    {
        "id": "vtls004605139_1_14",
        "type": "sailor",
        "parent": "vtls004605139",
        "name": "john edwards jones",
        "dob": "blk",
        "age": "13",
        "place_of_birth": "aberaeron",
        "home_address": "blk",
        "f": "blk",
        "name_of_ship": "first ship",
        "ship_port": "blk",
        "date_leaving": "blk",
        "joined_ship_date": "1879-12-13",
        "joined_at_port": "porthmadog",
        "capacity": "ordinary seaman",
        "date_left": "remains",
        "left_port": "remains",
        "cause_of_leaving": "remains on board",
        "sign_with_mark": "n",
        "notes": "blk"
    },
    {
        "id": "vtls004605139_0_12",
        "type": "sailor",
        "parent": "vtls004605139",
        "name": "david d davies",
        "dob": "blk",
        "age": "18",
        "place_of_birth": "aberaeron",
        "home_address": "blk",
        "f": "blk",
        "name_of_ship": "all right",
        "ship_port": "aberystwyth",
        "date_leaving": "continued",
        "joined_ship_date": "continued",
        "joined_at_port": "continued",
        "capacity": "mate",
        "date_left": "1879-06-30",
        "left_port": "duddon",
        "cause_of_leaving": "remains on board",
        "sign_with_mark": "n",
        "notes": "blk"
    },
    {
        "id": "vtls004605139_1_12",
        "type": "sailor",
        "parent": "vtls004605139",
        "name": "david d davies",
        "dob": "blk",
        "age": "18",
        "place_of_birth": "aberaeron",
        "home_address": "blk",
        "f": "blk",
        "name_of_ship": "all right",
        "ship_port": "aberystwyth",
        "date_leaving": "continued",
        "joined_ship_date": "continued",
        "joined_at_port": "continued",
        "capacity": "mate",
        "date_left": "remains",
        "left_port": "remains",
        "cause_of_leaving": "remains on board",
        "sign_with_mark": "n",
        "notes": "blk"
    },
    {
        "id": "vtls004605139_0_13",
        "type": "sailor",
        "parent": "vtls004605139",
        "name": "john harries evans",
        "dob": "blk",
        "age": "14",
        "place_of_birth": "aberaeron",
        "home_address": "blk",
        "f": "blk",
        "name_of_ship": "first ship",
        "ship_port": "blk",
        "date_leaving": "blk",
        "joined_ship_date": "1879-03-13",
        "joined_at_port": "aberaeron",
        "capacity": "boy",
        "date_left": "1879-06-30",
        "left_port": "duddon",
        "cause_of_leaving": "remains on board",
        "sign_with_mark": "n",
        "notes": "blk"
    },
    {
        "id": "vtls004605166_1_13",
        "type": "sailor",
        "parent": "vtls004605166",
        "name": "john harris evans",
        "dob": "1866",
        "age": "blk",
        "place_of_birth": "llanarth",
        "home_address": "blk",
        "f": "blk",
        "name_of_ship": "all right",
        "ship_port": "aberystwyth",
        "date_leaving": "1880",
        "joined_ship_date": "1880-07-01",
        "joined_at_port": "abersoch",
        "capacity": "boy",
        "date_left": "1880-10-07",
        "left_port": "aberaeron",
        "cause_of_leaving": "discharged",
        "sign_with_mark": "n",
        "notes": "on other documents place of birth aberaeron"
    },
    {
        "id": "vtls004605166_1_11",
        "type": "sailor",
        "parent": "vtls004605166",
        "name": "david d davies",
        "dob": "1826",
        "age": "blk",
        "place_of_birth": "aberaeron",
        "home_address": "rock terrace, aberaeron",
        "f": "rock terrace, aberaeron",
        "name_of_ship": "all right",
        "ship_port": "aberystwyth",
        "date_leaving": "1880",
        "joined_ship_date": "1880-07-01",
        "joined_at_port": "abersoch",
        "capacity": "master",
        "date_left": "1880-12-31",
        "left_port": "porthcawl",
        "cause_of_leaving": "remains on board",
        "sign_with_mark": "n",
        "notes": "blk"
    },
    {
        "id": "vtls004605166_0_11",
        "type": "sailor",
        "parent": "vtls004605166",
        "name": "david d davies",
        "dob": "blk",
        "age": "53",
        "place_of_birth": "aberaeron",
        "home_address": "rock terrace, aberaeron",
        "f": "rock terrace, aberaeron",
        "name_of_ship": "all right",
        "ship_port": "aberystwyth",
        "date_leaving": "continued",
        "joined_ship_date": "continued",
        "joined_at_port": "continued",
        "capacity": "master",
        "date_left": "remains",
        "left_port": "remains",
        "cause_of_leaving": "remains on board",
        "sign_with_mark": "n",
        "notes": "blk"
    },
    {
        "id": "vtls004605166_0_13",
        "type": "sailor",
        "parent": "vtls004605166",
        "name": "john harris evans",
        "dob": "blk",
        "age": "14",
        "place_of_birth": "aberaeron",
        "home_address": "blk",
        "f": "blk",
        "name_of_ship": "all right",
        "ship_port": "aberystwyth",
        "date_leaving": "continued",
        "joined_ship_date": "continued",
        "joined_at_port": "continued",
        "capacity": "ordinary seaman",
        "date_left": "remains",
        "left_port": "remains",
        "cause_of_leaving": "remains on board",
        "sign_with_mark": "n",
        "notes": "blk"
    },
    {
        "id": "vtls004605166_1_12",
        "type": "sailor",
        "parent": "vtls004605166",
        "name": "david d davies",
        "dob": "1861",
        "age": "blk",
        "place_of_birth": "aberaeron",
        "home_address": "blk",
        "f": "blk",
        "name_of_ship": "all right",
        "ship_port": "aberystwyth",
        "date_leaving": "1880",
        "joined_ship_date": "1880-07-01",
        "joined_at_port": "abersoch",
        "capacity": "mate",
        "date_left": "1880-12-31",
        "left_port": "porthcawl",
        "cause_of_leaving": "remains on board",
        "sign_with_mark": "n",
        "notes": "blk"
    },
    {
        "id": "vtls004605166_1_14",
        "type": "sailor",
        "parent": "vtls004605166",
        "name": "john edward jones",
        "dob": "1866",
        "age": "blk",
        "place_of_birth": "aberaeron",
        "home_address": "blk",
        "f": "blk",
        "name_of_ship": "prima",
        "ship_port": "aberystwyth",
        "date_leaving": "1880",
        "joined_ship_date": "1880-10-08",
        "joined_at_port": "aberaeron",
        "capacity": "boy",
        "date_left": "1880-12-31",
        "left_port": "porthcawl",
        "cause_of_leaving": "remains on board",
        "sign_with_mark": "n",
        "notes": "blk"
    },
    {
        "id": "vtls004605166_0_12",
        "type": "sailor",
        "parent": "vtls004605166",
        "name": "david d davies",
        "dob": "blk",
        "age": "19",
        "place_of_birth": "aberaeron",
        "home_address": "blk",
        "f": "blk",
        "name_of_ship": "all right",
        "ship_port": "aberystwyth",
        "date_leaving": "continued",
        "joined_ship_date": "continued",
        "joined_at_port": "continued",
        "capacity": "mate",
        "date_left": "remains",
        "left_port": "remains",
        "cause_of_leaving": "remains on board",
        "sign_with_mark": "n",
        "notes": "blk"
    },
    {
        "id": "vtls004605169_0_11",
        "type": "sailor",
        "parent": "vtls004605169",
        "name": "david d davies",
        "dob": "blk",
        "age": "55",
        "place_of_birth": "aberaeron",
        "home_address": "rock terrace, aberaeron",
        "f": "rock terrace, aberaeron",
        "name_of_ship": "all right",
        "ship_port": "aberystwyth",
        "date_leaving": "1880-12-31",
        "joined_ship_date": "1881-01-01",
        "joined_at_port": "porthcawl",
        "capacity": "master",
        "date_left": "1881-03-04",
        "left_port": "at sea",
        "cause_of_leaving": "vessel lost",
        "sign_with_mark": "n",
        "notes": "vessel lost at sea west of cardigan all crew picked up by spanish ship ss marie  and landed at garston docks on the 1881-03-05"
    },
    {
        "id": "vtls004604917_0_11",
        "type": "sailor",
        "parent": "vtls004604917",
        "name": "david d davies",
        "dob": "blk",
        "age": "36",
        "place_of_birth": "aberaeron",
        "home_address": "rock terrace, aberaeron",
        "f": "rock terrace, aberaeron",
        "name_of_ship": "all right",
        "ship_port": "aberystwyth",
        "date_leaving": "1863-12-31",
        "joined_ship_date": "1864-01-01",
        "joined_at_port": "bristol",
        "capacity": "master",
        "date_left": "1864-06-30",
        "left_port": "porthmadog",
        "cause_of_leaving": "remains on board",
        "sign_with_mark": "n",
        "notes": "blk"
    },
    {
        "id": "vtls004604917_0_12",
        "type": "sailor",
        "parent": "vtls004604917",
        "name": "jenkin jones",
        "dob": "blk",
        "age": "30",
        "place_of_birth": "aberaeron",
        "home_address": "blk",
        "f": "blk",
        "name_of_ship": "all right",
        "ship_port": "aberystwyth",
        "date_leaving": "1863-12-31",
        "joined_ship_date": "1864-01-01",
        "joined_at_port": "bristol",
        "capacity": "mate",
        "date_left": "1864-06-30",
        "left_port": "porthmadog",
        "cause_of_leaving": "remains on board",
        "sign_with_mark": "n",
        "notes": "blk"
    },
    {
        "id": "vtls004605169_0_13",
        "type": "sailor",
        "parent": "vtls004605169",
        "name": "john e evans",
        "dob": "blk",
        "age": "14",
        "place_of_birth": "aberaeron",
        "home_address": "blk",
        "f": "blk",
        "name_of_ship": "all right",
        "ship_port": "aberystwyth",
        "date_leaving": "1880-12-31",
        "joined_ship_date": "1881-01-01",
        "joined_at_port": "porthcawl",
        "capacity": "boy",
        "date_left": "1881-03-04",
        "left_port": "at sea",
        "cause_of_leaving": "vessel lost",
        "sign_with_mark": "n",
        "notes": "blk"
    },
    {
        "id": "vtls004605169_0_12",
        "type": "sailor",
        "parent": "vtls004605169",
        "name": "david d davies",
        "dob": "blk",
        "age": "20",
        "place_of_birth": "aberaeron",
        "home_address": "blk",
        "f": "blk",
        "name_of_ship": "all right",
        "ship_port": "aberystwyth",
        "date_leaving": "1880-12-31",
        "joined_ship_date": "1881-01-01",
        "joined_at_port": "porthcawl",
        "capacity": "mate",
        "date_left": "1881-03-04",
        "left_port": "at sea",
        "cause_of_leaving": "vessel lost",
        "sign_with_mark": "n",
        "notes": "blk"
    },
    {
        "id": "vtls004604917_0_13",
        "type": "sailor",
        "parent": "vtls004604917",
        "name": "john jones",
        "dob": "blk",
        "age": "16",
        "place_of_birth": "aberaeron",
        "home_address": "blk",
        "f": "blk",
        "name_of_ship": "all right",
        "ship_port": "aberystwyth",
        "date_leaving": "1863-12-31",
        "joined_ship_date": "1864-01-01",
        "joined_at_port": "bristol",
        "capacity": "boy",
        "date_left": "1864-05-30",
        "left_port": "aberaeron",
        "cause_of_leaving": "discharged",
        "sign_with_mark": "n",
        "notes": "blk"
    },
    {
        "id": "vtls004604917_0_14",
        "type": "sailor",
        "parent": "vtls004604917",
        "name": "isaac jones",
        "dob": "blk",
        "age": "15",
        "place_of_birth": "aberaeron",
        "home_address": "blk",
        "f": "blk",
        "name_of_ship": "ellen",
        "ship_port": "aberystwyth",
        "date_leaving": "1864-05-24",
        "joined_ship_date": "1864-06-07",
        "joined_at_port": "aberaeron",
        "capacity": "boy",
        "date_left": "1864-06-30",
        "left_port": "porthmadog",
        "cause_of_leaving": "discharged",
        "sign_with_mark": "n",
        "notes": "blk"
    },
    {
        "id": "vtls004604917_1_11",
        "type": "sailor",
        "parent": "vtls004604917",
        "name": "david d davies",
        "dob": "blk",
        "age": "37",
        "place_of_birth": "aberaeron",
        "home_address": "tower lane, aberaeron",
        "f": "tower lane, aberaeron",
        "name_of_ship": "all right",
        "ship_port": "aberystwyth",
        "date_leaving": "1864-06-30",
        "joined_ship_date": "1864-07-01",
        "joined_at_port": "aberaeron",
        "capacity": "master",
        "date_left": "1864-12-31",
        "left_port": "aberaeron",
        "cause_of_leaving": "remains on board",
        "sign_with_mark": "n",
        "notes": "blk"
    },
    {
        "id": "vtls004604955_1_11",
        "type": "sailor",
        "parent": "vtls004604955",
        "name": "david d davies",
        "dob": "blk",
        "age": "40",
        "place_of_birth": "aberaeron",
        "home_address": "tower lane, aberaeron",
        "f": "tower lane, aberaeron",
        "name_of_ship": "all right",
        "ship_port": "aberystwyth",
        "date_leaving": "1866-06-30",
        "joined_ship_date": "1866-07-01",
        "joined_at_port": "aberaeron",
        "capacity": "master",
        "date_left": "1866-12-31",
        "left_port": "at sea",
        "cause_of_leaving": "remains on board",
        "sign_with_mark": "n",
        "notes": "blk"
    },
    {
        "id": "vtls004604955_0_11",
        "type": "sailor",
        "parent": "vtls004604955",
        "name": "david d davies",
        "dob": "blk",
        "age": "39",
        "place_of_birth": "aberaeron",
        "home_address": "tower lane, aberaeron",
        "f": "tower lane, aberaeron",
        "name_of_ship": "all right",
        "ship_port": "aberystwyth",
        "date_leaving": "continued",
        "joined_ship_date": "continued",
        "joined_at_port": "continued",
        "capacity": "master",
        "date_left": "1865-06-30",
        "left_port": "aberaeron",
        "cause_of_leaving": "remains on board",
        "sign_with_mark": "n",
        "notes": "blk"
    },
    {
        "id": "vtls004604955_0_13",
        "type": "sailor",
        "parent": "vtls004604955",
        "name": "edward robinson",
        "dob": "blk",
        "age": "16",
        "place_of_birth": "aberaeron",
        "home_address": "blk",
        "f": "blk",
        "name_of_ship": "all right",
        "ship_port": "aberystwyth",
        "date_leaving": "continued",
        "joined_ship_date": "continued",
        "joined_at_port": "continued",
        "capacity": "boy",
        "date_left": "1865-06-30",
        "left_port": "aberaeron",
        "cause_of_leaving": "remains on board",
        "sign_with_mark": "n",
        "notes": "blk"
    },
    {
        "id": "vtls004604917_1_12",
        "type": "sailor",
        "parent": "vtls004604917",
        "name": "jenkin jones",
        "dob": "blk",
        "age": "31",
        "place_of_birth": "aberaeron",
        "home_address": "blk",
        "f": "blk",
        "name_of_ship": "all right",
        "ship_port": "aberystwyth",
        "date_leaving": "1864-06-30",
        "joined_ship_date": "1864-07-01",
        "joined_at_port": "aberaeron",
        "capacity": "mate",
        "date_left": "1864-12-31",
        "left_port": "aberaeron",
        "cause_of_leaving": "remains on board",
        "sign_with_mark": "n",
        "notes": "blk"
    },
    {
        "id": "vtls004604955_1_13",
        "type": "sailor",
        "parent": "vtls004604955",
        "name": "william evans",
        "dob": "blk",
        "age": "14",
        "place_of_birth": "aberaeron",
        "home_address": "blk",
        "f": "blk",
        "name_of_ship": "all right",
        "ship_port": "aberystwyth",
        "date_leaving": "1866-06-30",
        "joined_ship_date": "1866-07-01",
        "joined_at_port": "aberaeron",
        "capacity": "boy",
        "date_left": "1866-12-31",
        "left_port": "at sea",
        "cause_of_leaving": "remains on board",
        "sign_with_mark": "n",
        "notes": "blk"
    },
    {
        "id": "vtls004604955_1_12",
        "type": "sailor",
        "parent": "vtls004604955",
        "name": "jenkin jones",
        "dob": "blk",
        "age": "34",
        "place_of_birth": "aberaeron",
        "home_address": "blk",
        "f": "blk",
        "name_of_ship": "all right",
        "ship_port": "aberystwyth",
        "date_leaving": "1866-06-30",
        "joined_ship_date": "1866-07-01",
        "joined_at_port": "aberaeron",
        "capacity": "mate",
        "date_left": "1866-12-31",
        "left_port": "at sea",
        "cause_of_leaving": "remains on board",
        "sign_with_mark": "n",
        "notes": "blk"
    },
    {
        "id": "vtls004604955_0_12",
        "type": "sailor",
        "parent": "vtls004604955",
        "name": "jenkin jones",
        "dob": "blk",
        "age": "35",
        "place_of_birth": "aberaeron",
        "home_address": "blk",
        "f": "blk",
        "name_of_ship": "all right",
        "ship_port": "aberystwyth",
        "date_leaving": "continued",
        "joined_ship_date": "continued",
        "joined_at_port": "continued",
        "capacity": "mate",
        "date_left": "1865-06-30",
        "left_port": "aberaeron",
        "cause_of_leaving": "remains on board",
        "sign_with_mark": "n",
        "notes": "blk"
    },
    {
        "id": "vtls004604917_1_13",
        "type": "sailor",
        "parent": "vtls004604917",
        "name": "isaac jones",
        "dob": "blk",
        "age": "15",
        "place_of_birth": "aberaeron",
        "home_address": "blk",
        "f": "blk",
        "name_of_ship": "all right",
        "ship_port": "aberystwyth",
        "date_leaving": "1864-06-30",
        "joined_ship_date": "1864-07-01",
        "joined_at_port": "aberaeron",
        "capacity": "boy",
        "date_left": "1864-12-31",
        "left_port": "aberaeron",
        "cause_of_leaving": "discharged",
        "sign_with_mark": "n",
        "notes": "blk"
    },
    {
        "id": "vtls004604962_0_11",
        "type": "sailor",
        "parent": "vtls004604962",
        "name": "david d davies",
        "dob": "blk",
        "age": "40",
        "place_of_birth": "aberaeron",
        "home_address": "tower lane, aberaeron",
        "f": "tower lane, aberaeron",
        "name_of_ship": "all right",
        "ship_port": "aberystwyth",
        "date_leaving": "continued",
        "joined_ship_date": "1867-03",
        "joined_at_port": "aberaeron",
        "capacity": "master",
        "date_left": "remains",
        "left_port": "remains",
        "cause_of_leaving": "remains on board",
        "sign_with_mark": "n",
        "notes": "blk"
    },
    {
        "id": "vtls004604962_1_11",
        "type": "sailor",
        "parent": "vtls004604962",
        "name": "david d davies",
        "dob": "blk",
        "age": "40",
        "place_of_birth": "aberaeron",
        "home_address": "tower lane, aberaeron",
        "f": "tower lane, aberaeron",
        "name_of_ship": "all right",
        "ship_port": "aberystwyth",
        "date_leaving": "continued",
        "joined_ship_date": "continued",
        "joined_at_port": "continued",
        "capacity": "master",
        "date_left": "remains",
        "left_port": "remains",
        "cause_of_leaving": "remains on board",
        "sign_with_mark": "n",
        "notes": "blk"
    },
    {
        "id": "vtls004604962_0_12",
        "type": "sailor",
        "parent": "vtls004604962",
        "name": "jenkin jones",
        "dob": "blk",
        "age": "35",
        "place_of_birth": "aberaeron",
        "home_address": "blk",
        "f": "blk",
        "name_of_ship": "all right",
        "ship_port": "aberystwyth",
        "date_leaving": "continued",
        "joined_ship_date": "1867-03",
        "joined_at_port": "aberaeron",
        "capacity": "mate",
        "date_left": "remains",
        "left_port": "remains",
        "cause_of_leaving": "remains on board",
        "sign_with_mark": "n",
        "notes": "blk"
    },
    {
        "id": "vtls004604962_0_13",
        "type": "sailor",
        "parent": "vtls004604962",
        "name": "evan jones",
        "dob": "blk",
        "age": "15",
        "place_of_birth": "aberaeron",
        "home_address": "blk",
        "f": "blk",
        "name_of_ship": "all right",
        "ship_port": "aberystwyth",
        "date_leaving": "continued",
        "joined_ship_date": "1867-03",
        "joined_at_port": "aberaeron",
        "capacity": "seaman",
        "date_left": "remains",
        "left_port": "remains",
        "cause_of_leaving": "remains on board",
        "sign_with_mark": "n",
        "notes": "blk"
    },
    {
        "id": "vtls004604962_1_12",
        "type": "sailor",
        "parent": "vtls004604962",
        "name": "jenkin jones",
        "dob": "blk",
        "age": "36",
        "place_of_birth": "aberaeron",
        "home_address": "blk",
        "f": "blk",
        "name_of_ship": "all right",
        "ship_port": "aberystwyth",
        "date_leaving": "continued",
        "joined_ship_date": "continued",
        "joined_at_port": "continued",
        "capacity": "mate",
        "date_left": "1867-11-18",
        "left_port": "newport",
        "cause_of_leaving": "discharged",
        "sign_with_mark": "n",
        "notes": "blk"
    },
    {
        "id": "vtls004604962_1_14",
        "type": "sailor",
        "parent": "vtls004604962",
        "name": "isaac morgan",
        "dob": "blk",
        "age": "39",
        "place_of_birth": "aberystwyth",
        "home_address": "blk",
        "f": "blk",
        "name_of_ship": "sir howey",
        "ship_port": "newport",
        "date_leaving": "1867-11-12",
        "joined_ship_date": "1867-11-19",
        "joined_at_port": "newport",
        "capacity": "mate",
        "date_left": "remains",
        "left_port": "remains",
        "cause_of_leaving": "remains on board",
        "sign_with_mark": "n",
        "notes": "blk"
    },
    {
        "id": "vtls004604962_1_13",
        "type": "sailor",
        "parent": "vtls004604962",
        "name": "evan evans",
        "dob": "blk",
        "age": "16",
        "place_of_birth": "aberaeron",
        "home_address": "blk",
        "f": "blk",
        "name_of_ship": "all right",
        "ship_port": "aberystwyth",
        "date_leaving": "continued",
        "joined_ship_date": "continued",
        "joined_at_port": "continued",
        "capacity": "boy",
        "date_left": "remains",
        "left_port": "remains",
        "cause_of_leaving": "remains on board",
        "sign_with_mark": "n",
        "notes": "blk"
    },
    {
        "id": "vtls004604974_0_11",
        "type": "sailor",
        "parent": "vtls004604974",
        "name": "david d davies",
        "dob": "blk",
        "age": "41",
        "place_of_birth": "aberaeron",
        "home_address": "tower lane, aberaeron",
        "f": "tower lane, aberaeron",
        "name_of_ship": "all right",
        "ship_port": "aberystwyth",
        "date_leaving": "continued",
        "joined_ship_date": "1868-01-01",
        "joined_at_port": "bristol",
        "capacity": "master",
        "date_left": "1868-06-30",
        "left_port": "at sea",
        "cause_of_leaving": "remains on board",
        "sign_with_mark": "n",
        "notes": "blk"
    },
    {
        "id": "vtls004604974_1_11",
        "type": "sailor",
        "parent": "vtls004604974",
        "name": "david d davies",
        "dob": "blk",
        "age": "41",
        "place_of_birth": "aberaeron",
        "home_address": "tower lane, aberaeron",
        "f": "tower lane, aberaeron",
        "name_of_ship": "all right",
        "ship_port": "aberystwyth",
        "date_leaving": "continued",
        "joined_ship_date": "continued",
        "joined_at_port": "continued",
        "capacity": "master",
        "date_left": "remains",
        "left_port": "remains",
        "cause_of_leaving": "remains on board",
        "sign_with_mark": "n",
        "notes": "blk"
    },
    {
        "id": "vtls004604974_0_12",
        "type": "sailor",
        "parent": "vtls004604974",
        "name": "isaac morgan",
        "dob": "blk",
        "age": "40",
        "place_of_birth": "aberystwyth",
        "home_address": "blk",
        "f": "blk",
        "name_of_ship": "all right",
        "ship_port": "aberystwyth",
        "date_leaving": "continued",
        "joined_ship_date": "1868-01-01",
        "joined_at_port": "bristol",
        "capacity": "mate",
        "date_left": "1868-02-28",
        "left_port": "aberaeron",
        "cause_of_leaving": "discharged",
        "sign_with_mark": "n",
        "notes": "blk"
    },
    {
        "id": "vtls004604974_1_12",
        "type": "sailor",
        "parent": "vtls004604974",
        "name": "evan morgan",
        "dob": "blk",
        "age": "39",
        "place_of_birth": "aberaeron",
        "home_address": "blk",
        "f": "blk",
        "name_of_ship": "all right",
        "ship_port": "aberystwyth",
        "date_leaving": "continued",
        "joined_ship_date": "continued",
        "joined_at_port": "continued",
        "capacity": "mate",
        "date_left": "remains",
        "left_port": "remains",
        "cause_of_leaving": "remains on board",
        "sign_with_mark": "n",
        "notes": "blk"
    },
    {
        "id": "vtls004604974_1_13",
        "type": "sailor",
        "parent": "vtls004604974",
        "name": "john jones",
        "dob": "blk",
        "age": "15",
        "place_of_birth": "aberaeron",
        "home_address": "blk",
        "f": "blk",
        "name_of_ship": "all right",
        "ship_port": "aberystwyth",
        "date_leaving": "continued",
        "joined_ship_date": "continued",
        "joined_at_port": "continued",
        "capacity": "boy",
        "date_left": "remains",
        "left_port": "remains",
        "cause_of_leaving": "remains on board",
        "sign_with_mark": "n",
        "notes": "blk"
    },
    {
        "id": "vtls004604974_0_13",
        "type": "sailor",
        "parent": "vtls004604974",
        "name": "evan evans",
        "dob": "blk",
        "age": "16",
        "place_of_birth": "aberaeron",
        "home_address": "blk",
        "f": "blk",
        "name_of_ship": "all right",
        "ship_port": "aberystwyth",
        "date_leaving": "continued",
        "joined_ship_date": "1868-01-01",
        "joined_at_port": "bristol",
        "capacity": "boy",
        "date_left": "1868-02-28",
        "left_port": "aberaeron",
        "cause_of_leaving": "discharged",
        "sign_with_mark": "n",
        "notes": "blk"
    },
    {
        "id": "vtls004604974_0_14",
        "type": "sailor",
        "parent": "vtls004604974",
        "name": "evan morgan",
        "dob": "blk",
        "age": "38",
        "place_of_birth": "aberaeron",
        "home_address": "blk",
        "f": "blk",
        "name_of_ship": "grace evans",
        "ship_port": "beaumaris",
        "date_leaving": "1868-02",
        "joined_ship_date": "1868-03-27",
        "joined_at_port": "aberaeron",
        "capacity": "mate",
        "date_left": "1868-06-30",
        "left_port": "at sea",
        "cause_of_leaving": "discharged",
        "sign_with_mark": "n",
        "notes": "blk"
    },
    {
        "id": "vtls004604974_0_15",
        "type": "sailor",
        "parent": "vtls004604974",
        "name": "john jones",
        "dob": "blk",
        "age": "14",
        "place_of_birth": "aberaeron",
        "home_address": "blk",
        "f": "blk",
        "name_of_ship": "thomas",
        "ship_port": "aberystwyth",
        "date_leaving": "1867-12",
        "joined_ship_date": "1868-03-27",
        "joined_at_port": "aberaeron",
        "capacity": "boy",
        "date_left": "1868-06-30",
        "left_port": "at sea",
        "cause_of_leaving": "discharged",
        "sign_with_mark": "n",
        "notes": "blk"
    },
    {
        "id": "vtls004604999_0_11",
        "type": "sailor",
        "parent": "vtls004604999",
        "name": "david d davies",
        "dob": "blk",
        "age": "41",
        "place_of_birth": "aberaeron",
        "home_address": "tower lane, aberaeron",
        "f": "tower lane, aberaeron",
        "name_of_ship": "all right",
        "ship_port": "aberystwyth",
        "date_leaving": "continued",
        "joined_ship_date": "continued",
        "joined_at_port": "continued",
        "capacity": "master",
        "date_left": "remains",
        "left_port": "remains",
        "cause_of_leaving": "remains on board",
        "sign_with_mark": "n",
        "notes": "blk"
    },
    {
        "id": "vtls004604999_1_11",
        "type": "sailor",
        "parent": "vtls004604999",
        "name": "david d davies",
        "dob": "blk",
        "age": "42",
        "place_of_birth": "aberaeron",
        "home_address": "tower lane, aberaeron",
        "f": "tower lane, aberaeron",
        "name_of_ship": "all right",
        "ship_port": "aberystwyth",
        "date_leaving": "continued",
        "joined_ship_date": "continued",
        "joined_at_port": "continued",
        "capacity": "master",
        "date_left": "remains",
        "left_port": "remains",
        "cause_of_leaving": "remains on board",
        "sign_with_mark": "n",
        "notes": "blk"
    },
    {
        "id": "vtls004604999_0_13",
        "type": "sailor",
        "parent": "vtls004604999",
        "name": "john jones",
        "dob": "blk",
        "age": "14",
        "place_of_birth": "aberaeron",
        "home_address": "blk",
        "f": "blk",
        "name_of_ship": "all right",
        "ship_port": "aberystwyth",
        "date_leaving": "continued",
        "joined_ship_date": "continued",
        "joined_at_port": "continued",
        "capacity": "ordinary seaman",
        "date_left": "1869-01-15",
        "left_port": "aberaeron",
        "cause_of_leaving": "discharged",
        "sign_with_mark": "n",
        "notes": "blk"
    },
    {
        "id": "vtls004604999_0_14",
        "type": "sailor",
        "parent": "vtls004604999",
        "name": "evan jones",
        "dob": "blk",
        "age": "16",
        "place_of_birth": "aberaeron",
        "home_address": "blk",
        "f": "blk",
        "name_of_ship": "first ship",
        "ship_port": "first ship",
        "date_leaving": "blk",
        "joined_ship_date": "1869-03-30",
        "joined_at_port": "aberaeron",
        "capacity": "ordinary seaman",
        "date_left": "remains",
        "left_port": "remains",
        "cause_of_leaving": "remains on board",
        "sign_with_mark": "n",
        "notes": "blk"
    },
    {
        "id": "vtls004604999_0_12",
        "type": "sailor",
        "parent": "vtls004604999",
        "name": "evan morgan",
        "dob": "blk",
        "age": "39",
        "place_of_birth": "aberaeron",
        "home_address": "blk",
        "f": "blk",
        "name_of_ship": "all right",
        "ship_port": "aberystwyth",
        "date_leaving": "continued",
        "joined_ship_date": "continued",
        "joined_at_port": "continued",
        "capacity": "mate",
        "date_left": "remains",
        "left_port": "remains",
        "cause_of_leaving": "remains on board",
        "sign_with_mark": "n",
        "notes": "blk"
    },
    {
        "id": "vtls004604999_1_12",
        "type": "sailor",
        "parent": "vtls004604999",
        "name": "evan morgan",
        "dob": "blk",
        "age": "37",
        "place_of_birth": "aberaeron",
        "home_address": "blk",
        "f": "blk",
        "name_of_ship": "all right",
        "ship_port": "aberystwyth",
        "date_leaving": "continued",
        "joined_ship_date": "continued",
        "joined_at_port": "continued",
        "capacity": "mate",
        "date_left": "1869-12-31",
        "left_port": "aberaeron",
        "cause_of_leaving": "discharged",
        "sign_with_mark": "n",
        "notes": "blk"
    },
    {
        "id": "vtls004604999_1_13",
        "type": "sailor",
        "parent": "vtls004604999",
        "name": "evan jones",
        "dob": "blk",
        "age": "15",
        "place_of_birth": "aberaeron",
        "home_address": "blk",
        "f": "blk",
        "name_of_ship": "all right",
        "ship_port": "aberystwyth",
        "date_leaving": "continued",
        "joined_ship_date": "continued",
        "joined_at_port": "continued",
        "capacity": "boy",
        "date_left": "1869-08-11",
        "left_port": "aberaeron",
        "cause_of_leaving": "discharged",
        "sign_with_mark": "n",
        "notes": "blk"
    },
    {
        "id": "vtls004604999_1_14",
        "type": "sailor",
        "parent": "vtls004604999",
        "name": "thomas evans",
        "dob": "blk",
        "age": "14",
        "place_of_birth": "aberaeron",
        "home_address": "blk",
        "f": "blk",
        "name_of_ship": "first ship",
        "ship_port": "first ship",
        "date_leaving": "blk",
        "joined_ship_date": "1869-08-11",
        "joined_at_port": "aberaeron",
        "capacity": "boy",
        "date_left": "1869-12-31",
        "left_port": "aberaeron",
        "cause_of_leaving": "discharged",
        "sign_with_mark": "n",
        "notes": "blk"
    },
    {
        "id": "vtls004605001_0_11",
        "type": "sailor",
        "parent": "vtls004605001",
        "name": "david d davies",
        "dob": "blk",
        "age": "43",
        "place_of_birth": "aberaeron",
        "home_address": "tower lane, aberaeron",
        "f": "tower lane, aberaeron",
        "name_of_ship": "all right",
        "ship_port": "aberystwyth",
        "date_leaving": "continued",
        "joined_ship_date": "continued",
        "joined_at_port": "continued",
        "capacity": "master",
        "date_left": "remains",
        "left_port": "remains",
        "cause_of_leaving": "remains on board",
        "sign_with_mark": "n",
        "notes": "blk"
    },
    {
        "id": "vtls004605001_1_11",
        "type": "sailor",
        "parent": "vtls004605001",
        "name": "david d davies",
        "dob": "blk",
        "age": "43",
        "place_of_birth": "aberaeron",
        "home_address": "tower lane, aberaeron",
        "f": "tower lane, aberaeron",
        "name_of_ship": "all right",
        "ship_port": "aberystwyth",
        "date_leaving": "continued",
        "joined_ship_date": "continued",
        "joined_at_port": "continued",
        "capacity": "master",
        "date_left": "remains",
        "left_port": "remains",
        "cause_of_leaving": "remains on board",
        "sign_with_mark": "n",
        "notes": "blk"
    },
    {
        "id": "vtls004605001_0_12",
        "type": "sailor",
        "parent": "vtls004605001",
        "name": "thomas davies",
        "dob": "blk",
        "age": "53",
        "place_of_birth": "aberaeron",
        "home_address": "blk",
        "f": "blk",
        "name_of_ship": "all right",
        "ship_port": "aberystwyth",
        "date_leaving": "continued",
        "joined_ship_date": "continued",
        "joined_at_port": "continued",
        "capacity": "mate",
        "date_left": "remains",
        "left_port": "remains",
        "cause_of_leaving": "remains on board",
        "sign_with_mark": "n",
        "notes": "blk"
    },
    {
        "id": "vtls004605001_1_14",
        "type": "sailor",
        "parent": "vtls004605001",
        "name": "thomas davies",
        "dob": "blk",
        "age": "53",
        "place_of_birth": "aberaeron",
        "home_address": "blk",
        "f": "blk",
        "name_of_ship": "napthali",
        "ship_port": "cardigan",
        "date_leaving": "1870-04-27",
        "joined_ship_date": "1870-05-13",
        "joined_at_port": "aberaeron",
        "capacity": "mate",
        "date_left": "remains",
        "left_port": "remains",
        "cause_of_leaving": "remains on board",
        "sign_with_mark": "n",
        "notes": "blk"
    },
    {
        "id": "vtls004605001_0_13",
        "type": "sailor",
        "parent": "vtls004605001",
        "name": "john morgan",
        "dob": "blk",
        "age": "15",
        "place_of_birth": "aberaeron",
        "home_address": "blk",
        "f": "blk",
        "name_of_ship": "all right",
        "ship_port": "aberystwyth",
        "date_leaving": "continued",
        "joined_ship_date": "continued",
        "joined_at_port": "continued",
        "capacity": "boy",
        "date_left": "1869-12-31",
        "left_port": "aberaeron",
        "cause_of_leaving": "discharged",
        "sign_with_mark": "n",
        "notes": "blk"
    },
    {
        "id": "vtls004605001_1_13",
        "type": "sailor",
        "parent": "vtls004605001",
        "name": "john morgan",
        "dob": "blk",
        "age": "13",
        "place_of_birth": "aberaeron",
        "home_address": "blk",
        "f": "blk",
        "name_of_ship": "thomas",
        "ship_port": "aberystwyth",
        "date_leaving": "1869",
        "joined_ship_date": "1870-03-04",
        "joined_at_port": "aberaeron",
        "capacity": "boy",
        "date_left": "remains",
        "left_port": "remains",
        "cause_of_leaving": "remains on board",
        "sign_with_mark": "n",
        "notes": "blk"
    },
    {
        "id": "vtls004605001_1_12",
        "type": "sailor",
        "parent": "vtls004605001",
        "name": "david morgan",
        "dob": "blk",
        "age": "46",
        "place_of_birth": "aberaeron",
        "home_address": "blk",
        "f": "blk",
        "name_of_ship": "thomas",
        "ship_port": "aberystwyth",
        "date_leaving": "1869",
        "joined_ship_date": "1870-03-04",
        "joined_at_port": "aberaeron",
        "capacity": "mate",
        "date_left": "1870-03-29",
        "left_port": "aberaeron",
        "cause_of_leaving": "discharged",
        "sign_with_mark": "n",
        "notes": "blk"
    },
    {
        "id": "vtls004605008_0_11",
        "type": "sailor",
        "parent": "vtls004605008",
        "name": "david d davies",
        "dob": "blk",
        "age": "44",
        "place_of_birth": "aberaeron",
        "home_address": "tower lane, aberaeron",
        "f": "tower lane, aberaeron",
        "name_of_ship": "all right",
        "ship_port": "aberystwyth",
        "date_leaving": "continued",
        "joined_ship_date": "continued",
        "joined_at_port": "continued",
        "capacity": "master",
        "date_left": "blk",
        "left_port": "blk",
        "cause_of_leaving": "blk",
        "sign_with_mark": "n",
        "notes": "log ripped after job description"
    },
    {
        "id": "vtls004605008_1_11",
        "type": "sailor",
        "parent": "vtls004605008",
        "name": "david d davies",
        "dob": "blk",
        "age": "45",
        "place_of_birth": "aberaeron",
        "home_address": "tower lane, aberaeron",
        "f": "tower lane, aberaeron",
        "name_of_ship": "all right",
        "ship_port": "aberystwyth",
        "date_leaving": "continued",
        "joined_ship_date": "continued",
        "joined_at_port": "continued",
        "capacity": "master",
        "date_left": "remains",
        "left_port": "remains",
        "cause_of_leaving": "remains on board",
        "sign_with_mark": "n",
        "notes": "blk"
    },
    {
        "id": "vtls004605066_0_11",
        "type": "sailor",
        "parent": "vtls004605066",
        "name": "david d davies",
        "dob": "blk",
        "age": "45",
        "place_of_birth": "aberaeron",
        "home_address": "tower lane, aberaeron",
        "f": "tower lane, aberaeron",
        "name_of_ship": "all right",
        "ship_port": "aberystwyth",
        "date_leaving": "continued",
        "joined_ship_date": "continued",
        "joined_at_port": "continued",
        "capacity": "master",
        "date_left": "remains",
        "left_port": "remains",
        "cause_of_leaving": "remains on board",
        "sign_with_mark": "n",
        "notes": "blk"
    },
    {
        "id": "vtls004605008_1_13",
        "type": "sailor",
        "parent": "vtls004605008",
        "name": "evan evans",
        "dob": "blk",
        "age": "14",
        "place_of_birth": "aberaeron",
        "home_address": "blk",
        "f": "blk",
        "name_of_ship": "all right",
        "ship_port": "aberystwyth",
        "date_leaving": "continued",
        "joined_ship_date": "continued",
        "joined_at_port": "continued",
        "capacity": "ordinary seaman",
        "date_left": "remains",
        "left_port": "remains",
        "cause_of_leaving": "remains on board",
        "sign_with_mark": "n",
        "notes": "blk"
    },
    {
        "id": "vtls004605008_0_12",
        "type": "sailor",
        "parent": "vtls004605008",
        "name": "thomas davies",
        "dob": "blk",
        "age": "55",
        "place_of_birth": "aberaeron",
        "home_address": "blk",
        "f": "blk",
        "name_of_ship": "all right",
        "ship_port": "aberystwyth",
        "date_leaving": "continued",
        "joined_ship_date": "continued",
        "joined_at_port": "continued",
        "capacity": "mate",
        "date_left": "blk",
        "left_port": "blk",
        "cause_of_leaving": "blk",
        "sign_with_mark": "n",
        "notes": "log ripped after job description"
    },
    {
        "id": "vtls004605008_1_12",
        "type": "sailor",
        "parent": "vtls004605008",
        "name": "thomas davies",
        "dob": "blk",
        "age": "53",
        "place_of_birth": "aberaeron",
        "home_address": "blk",
        "f": "blk",
        "name_of_ship": "all right",
        "ship_port": "aberystwyth",
        "date_leaving": "continued",
        "joined_ship_date": "continued",
        "joined_at_port": "continued",
        "capacity": "mate",
        "date_left": "remains",
        "left_port": "remains",
        "cause_of_leaving": "remains on board",
        "sign_with_mark": "n",
        "notes": "blk"
    },
    {
        "id": "vtls004605008_0_13",
        "type": "sailor",
        "parent": "vtls004605008",
        "name": "john morgan",
        "dob": "blk",
        "age": "14",
        "place_of_birth": "aberaeron",
        "home_address": "blk",
        "f": "blk",
        "name_of_ship": "all right",
        "ship_port": "aberystwyth",
        "date_leaving": "continued",
        "joined_ship_date": "continued",
        "joined_at_port": "continued",
        "capacity": "boy",
        "date_left": "blk",
        "left_port": "blk",
        "cause_of_leaving": "blk",
        "sign_with_mark": "n",
        "notes": "log ripped after job description"
    },
    {
        "id": "vtls004605008_0_14",
        "type": "sailor",
        "parent": "vtls004605008",
        "name": "evan evans",
        "dob": "blk",
        "age": "14",
        "place_of_birth": "aberaeron",
        "home_address": "blk",
        "f": "blk",
        "name_of_ship": "first ship",
        "ship_port": "first ship",
        "date_leaving": "blk",
        "joined_ship_date": "1871-03-23",
        "joined_at_port": "aberaeron",
        "capacity": "boy",
        "date_left": "blk",
        "left_port": "blk",
        "cause_of_leaving": "blk",
        "sign_with_mark": "n",
        "notes": "log ripped after job description"
    },
    {
        "id": "vtls004605066_1_11",
        "type": "sailor",
        "parent": "vtls004605066",
        "name": "david d davies",
        "dob": "blk",
        "age": "46",
        "place_of_birth": "aberaeron",
        "home_address": "tower lane, aberaeron",
        "f": "tower lane, aberaeron",
        "name_of_ship": "all right",
        "ship_port": "aberystwyth",
        "date_leaving": "continued",
        "joined_ship_date": "continued",
        "joined_at_port": "continued",
        "capacity": "master",
        "date_left": "remains",
        "left_port": "remains",
        "cause_of_leaving": "remains on board",
        "sign_with_mark": "n",
        "notes": "blk"
    },
    {
        "id": "vtls004605071_0_11",
        "type": "sailor",
        "parent": "vtls004605071",
        "name": "david d davies",
        "dob": "blk",
        "age": "46",
        "place_of_birth": "aberaeron",
        "home_address": "tower lane, aberaeron",
        "f": "tower lane, aberaeron",
        "name_of_ship": "all right",
        "ship_port": "aberystwyth",
        "date_leaving": "continued",
        "joined_ship_date": "continued",
        "joined_at_port": "continued",
        "capacity": "master",
        "date_left": "remains",
        "left_port": "remains",
        "cause_of_leaving": "remains on board",
        "sign_with_mark": "n",
        "notes": "blk"
    },
    {
        "id": "vtls004605066_1_12",
        "type": "sailor",
        "parent": "vtls004605066",
        "name": "morgan jenkins",
        "dob": "blk",
        "age": "39",
        "place_of_birth": "cardiganshire",
        "home_address": "blk",
        "f": "blk",
        "name_of_ship": "all right",
        "ship_port": "aberystwyth",
        "date_leaving": "continued",
        "joined_ship_date": "continued",
        "joined_at_port": "continued",
        "capacity": "mate",
        "date_left": "remains",
        "left_port": "remains",
        "cause_of_leaving": "remains on board",
        "sign_with_mark": "n",
        "notes": "blk"
    },
    {
        "id": "vtls004605066_0_15",
        "type": "sailor",
        "parent": "vtls004605066",
        "name": "evan williams",
        "dob": "blk",
        "age": "13",
        "place_of_birth": "aberaeron",
        "home_address": "blk",
        "f": "blk",
        "name_of_ship": "martha jane",
        "ship_port": "aberystwyth",
        "date_leaving": "1872-06-01",
        "joined_ship_date": "1872-06-04",
        "joined_at_port": "aberaeron",
        "capacity": "boy",
        "date_left": "remains",
        "left_port": "remains",
        "cause_of_leaving": "remains on board",
        "sign_with_mark": "n",
        "notes": "blk"
    },
    {
        "id": "vtls004605066_0_16",
        "type": "sailor",
        "parent": "vtls004605066",
        "name": "morgan jenkins",
        "dob": "blk",
        "age": "36",
        "place_of_birth": "llanon",
        "home_address": "blk",
        "f": "blk",
        "name_of_ship": "berlin",
        "ship_port": "aberystwyth",
        "date_leaving": "1871-11-13",
        "joined_ship_date": "1872-05-22",
        "joined_at_port": "aberaeron",
        "capacity": "mate",
        "date_left": "remains",
        "left_port": "remains",
        "cause_of_leaving": "remains on board",
        "sign_with_mark": "n",
        "notes": "blk"
    },
    {
        "id": "vtls004605066_0_12",
        "type": "sailor",
        "parent": "vtls004605066",
        "name": "thomas davies",
        "dob": "blk",
        "age": "58",
        "place_of_birth": "aberaeron",
        "home_address": "blk",
        "f": "blk",
        "name_of_ship": "all right",
        "ship_port": "aberystwyth",
        "date_leaving": "continued",
        "joined_ship_date": "continued",
        "joined_at_port": "continued",
        "capacity": "mate",
        "date_left": "1872-05-20",
        "left_port": "aberaeron",
        "cause_of_leaving": "discharged",
        "sign_with_mark": "n",
        "notes": "blk"
    },
    {
        "id": "vtls004605066_1_13",
        "type": "sailor",
        "parent": "vtls004605066",
        "name": "evan williams",
        "dob": "blk",
        "age": "14",
        "place_of_birth": "aberaeron",
        "home_address": "blk",
        "f": "blk",
        "name_of_ship": "all right",
        "ship_port": "aberystwyth",
        "date_leaving": "continued",
        "joined_ship_date": "continued",
        "joined_at_port": "continued",
        "capacity": "boy",
        "date_left": "remains",
        "left_port": "remains",
        "cause_of_leaving": "remains on board",
        "sign_with_mark": "n",
        "notes": "blk"
    },
    {
        "id": "vtls004605066_0_13",
        "type": "sailor",
        "parent": "vtls004605066",
        "name": "evan evans",
        "dob": "blk",
        "age": "13",
        "place_of_birth": "aberaeron",
        "home_address": "blk",
        "f": "blk",
        "name_of_ship": "all right",
        "ship_port": "aberystwyth",
        "date_leaving": "continued",
        "joined_ship_date": "continued",
        "joined_at_port": "continued",
        "capacity": "boy",
        "date_left": "1872-05-25",
        "left_port": "aberaeron",
        "cause_of_leaving": "discharged",
        "sign_with_mark": "n",
        "notes": "blk"
    },
    {
        "id": "vtls004605066_0_14",
        "type": "sailor",
        "parent": "vtls004605066",
        "name": "david jones",
        "dob": "blk",
        "age": "16",
        "place_of_birth": "aberaeron",
        "home_address": "blk",
        "f": "blk",
        "name_of_ship": "first ship",
        "ship_port": "first ship",
        "date_leaving": "blk",
        "joined_ship_date": "1872-03-25",
        "joined_at_port": "aberaeron",
        "capacity": "boy",
        "date_left": "1872-06-72",
        "left_port": "aberaeron",
        "cause_of_leaving": "discharged",
        "sign_with_mark": "n",
        "notes": "blk"
    },
    {
        "id": "vtls004605071_0_12",
        "type": "sailor",
        "parent": "vtls004605071",
        "name": "morgan jenkins",
        "dob": "blk",
        "age": "38",
        "place_of_birth": "cardiganshire",
        "home_address": "blk",
        "f": "blk",
        "name_of_ship": "all right",
        "ship_port": "aberystwyth",
        "date_leaving": "continued",
        "joined_ship_date": "continued",
        "joined_at_port": "continued",
        "capacity": "mate",
        "date_left": "1872-06-12",
        "left_port": "newquay",
        "cause_of_leaving": "discharged",
        "sign_with_mark": "n",
        "notes": "on document 1872 date of discharge but year must be 1873"
    },
    {
        "id": "vtls004605071_0_15",
        "type": "sailor",
        "parent": "vtls004605071",
        "name": "jenkin james",
        "dob": "blk",
        "age": "42",
        "place_of_birth": "aberaeron",
        "home_address": "blk",
        "f": "blk",
        "name_of_ship": "maria ania",
        "ship_port": "aberystwyth",
        "date_leaving": "1873-06-02",
        "joined_ship_date": "1873-06-12",
        "joined_at_port": "newquay",
        "capacity": "mate",
        "date_left": "remains",
        "left_port": "remains",
        "cause_of_leaving": "remains on board",
        "sign_with_mark": "n",
        "notes": "no maria ania in aberystwyth possible ship maria anna or maria & anna"
    },
    {
        "id": "vtls004605071_1_11",
        "type": "sailor",
        "parent": "vtls004605071",
        "name": "david d davies",
        "dob": "blk",
        "age": "47",
        "place_of_birth": "cardigan",
        "home_address": "tower lane, aberaeron",
        "f": "tower lane, aberaeron",
        "name_of_ship": "all right",
        "ship_port": "aberystwyth",
        "date_leaving": "continued",
        "joined_ship_date": "continued",
        "joined_at_port": "continued",
        "capacity": "master",
        "date_left": "remains",
        "left_port": "remains",
        "cause_of_leaving": "remains on board",
        "sign_with_mark": "n",
        "notes": "blk"
    },
    {
        "id": "vtls004605071_0_13",
        "type": "sailor",
        "parent": "vtls004605071",
        "name": "evan williams",
        "dob": "blk",
        "age": "14",
        "place_of_birth": "aberaeron",
        "home_address": "blk",
        "f": "blk",
        "name_of_ship": "all right",
        "ship_port": "aberystwyth",
        "date_leaving": "continued",
        "joined_ship_date": "continued",
        "joined_at_port": "continued",
        "capacity": "boy",
        "date_left": "1905-02-15",
        "left_port": "aberaeron",
        "cause_of_leaving": "discharged",
        "sign_with_mark": "n",
        "notes": "blk"
    },
    {
        "id": "vtls004605071_1_12",
        "type": "sailor",
        "parent": "vtls004605071",
        "name": "jenkin james",
        "dob": "blk",
        "age": "43",
        "place_of_birth": "cardigan",
        "home_address": "blk",
        "f": "blk",
        "name_of_ship": "all right",
        "ship_port": "aberystwyth",
        "date_leaving": "continued",
        "joined_ship_date": "continued",
        "joined_at_port": "continued",
        "capacity": "mate",
        "date_left": "remains",
        "left_port": "remains",
        "cause_of_leaving": "remains on board",
        "sign_with_mark": "n",
        "notes": "blk"
    },
    {
        "id": "vtls004605071_1_13",
        "type": "sailor",
        "parent": "vtls004605071",
        "name": "david d davies",
        "dob": "blk",
        "age": "13",
        "place_of_birth": "cardigan",
        "home_address": "blk",
        "f": "blk",
        "name_of_ship": "all right",
        "ship_port": "aberystwyth",
        "date_leaving": "continued",
        "joined_ship_date": "continued",
        "joined_at_port": "continued",
        "capacity": "boy",
        "date_left": "remains",
        "left_port": "remains",
        "cause_of_leaving": "remains on board",
        "sign_with_mark": "n",
        "notes": "blk"
    },
    {
        "id": "vtls004605071_0_14",
        "type": "sailor",
        "parent": "vtls004605071",
        "name": "david d davies",
        "dob": "blk",
        "age": "13",
        "place_of_birth": "aberaeron",
        "home_address": "blk",
        "f": "blk",
        "name_of_ship": "first ship",
        "ship_port": "first ship",
        "date_leaving": "blk",
        "joined_ship_date": "1873-03-17",
        "joined_at_port": "aberaeron",
        "capacity": "boy",
        "date_left": "remains",
        "left_port": "remains",
        "cause_of_leaving": "remains on board",
        "sign_with_mark": "n",
        "notes": "blk"
    }
]