[
    {
        "id": "vtls004687861_0_11",
        "type": "sailor",
        "parent": "vtls004687861",
        "name": "john lewis",
        "dob": "1829",
        "age": "blk",
        "place_of_birth": "barmouth",
        "home_address": "barmouth",
        "f": "barmouth",
        "name_of_ship": "jane gwynne",
        "ship_port": "aberystwyth",
        "date_leaving": "1885",
        "joined_ship_date": "1885-01-12",
        "joined_at_port": "wexford",
        "capacity": "master",
        "date_left": "1885-06-30",
        "left_port": "aberdeen",
        "cause_of_leaving": "remains on board",
        "sign_with_mark": "n",
        "notes": "blk"
    },
    {
        "id": "vtls004687861_0_12",
        "type": "sailor",
        "parent": "vtls004687861",
        "name": "john brighton",
        "dob": "1844",
        "age": "blk",
        "place_of_birth": "douglas",
        "home_address": "blk",
        "f": "blk",
        "name_of_ship": "jane gwynne",
        "ship_port": "aberystwyth",
        "date_leaving": "1885",
        "joined_ship_date": "1885-01-12",
        "joined_at_port": "wexford",
        "capacity": "mate",
        "date_left": "1885-06-12",
        "left_port": "porthmadog",
        "cause_of_leaving": "discharged",
        "sign_with_mark": "y",
        "notes": "blk"
    },
    {
        "id": "vtls004687861_0_17",
        "type": "sailor",
        "parent": "vtls004687861",
        "name": "evan jones",
        "dob": "1865",
        "age": "blk",
        "place_of_birth": "tremadog, caernarvonshire",
        "home_address": "blk",
        "f": "blk",
        "name_of_ship": "ana jane",
        "ship_port": "portmadoc",
        "date_leaving": "1885",
        "joined_ship_date": "1885-03-05",
        "joined_at_port": "portmadoc",
        "capacity": "ordinary seaman",
        "date_left": "1885-06-30",
        "left_port": "aberdeen",
        "cause_of_leaving": "remains on board",
        "sign_with_mark": "n",
        "notes": "blk"
    },
    {
        "id": "vtls004687861_0_15",
        "type": "sailor",
        "parent": "vtls004687861",
        "name": "robert lewis",
        "dob": "1856",
        "age": "blk",
        "place_of_birth": "barmouth, merioneth",
        "home_address": "blk",
        "f": "blk",
        "name_of_ship": "elizabeth and ellin",
        "ship_port": "portmadoc",
        "date_leaving": "1885",
        "joined_ship_date": "1885-03-05",
        "joined_at_port": "portmadoc",
        "capacity": "mate",
        "date_left": "1885-06-30",
        "left_port": "aberdeen",
        "cause_of_leaving": "remains on board",
        "sign_with_mark": "n",
        "notes": "blk"
    },
    {
        "id": "vtls004687861_0_16",
        "type": "sailor",
        "parent": "vtls004687861",
        "name": "owen humphreys",
        "dob": "1863",
        "age": "blk",
        "place_of_birth": "bontddu",
        "home_address": "blk",
        "f": "blk",
        "name_of_ship": "glean",
        "ship_port": "caernarvon",
        "date_leaving": "1885",
        "joined_ship_date": "1885-03-05",
        "joined_at_port": "portmadoc",
        "capacity": "ordinary seaman",
        "date_left": "1885-06-30",
        "left_port": "aberdeen",
        "cause_of_leaving": "remains on board",
        "sign_with_mark": "n",
        "notes": "blk"
    },
    {
        "id": "vtls004687861_1_11",
        "type": "sailor",
        "parent": "vtls004687861",
        "name": "john lewis",
        "dob": "1829",
        "age": "blk",
        "place_of_birth": "barmouth",
        "home_address": "rock terrace, barmouth",
        "f": "rock terrace, barmouth",
        "name_of_ship": "jane gwynne",
        "ship_port": "aberystwyth",
        "date_leaving": "1885",
        "joined_ship_date": "1885-07-01",
        "joined_at_port": "aberdeen",
        "capacity": "master",
        "date_left": "blk",
        "left_port": "blk",
        "cause_of_leaving": "remains on board",
        "sign_with_mark": "n",
        "notes": "blk"
    },
    {
        "id": "vtls004687861_0_13",
        "type": "sailor",
        "parent": "vtls004687861",
        "name": "james lewis",
        "dob": "1866",
        "age": "blk",
        "place_of_birth": "barmouth",
        "home_address": "blk",
        "f": "blk",
        "name_of_ship": "jane gwynne",
        "ship_port": "aberystwyth",
        "date_leaving": "1885",
        "joined_ship_date": "1885-01-12",
        "joined_at_port": "wexford",
        "capacity": "ordinary seaman",
        "date_left": "1885-06-12",
        "left_port": "porthmadog",
        "cause_of_leaving": "discharged",
        "sign_with_mark": "n",
        "notes": "blk"
    },
    {
        "id": "vtls004687861_0_18",
        "type": "sailor",
        "parent": "vtls004687861",
        "name": "job thomas",
        "dob": "1860",
        "age": "blk",
        "place_of_birth": "tremadog, caernarvonshire",
        "home_address": "blk",
        "f": "blk",
        "name_of_ship": "geraldine",
        "ship_port": "blk",
        "date_leaving": "1885",
        "joined_ship_date": "1885-03-05",
        "joined_at_port": "portmadoc",
        "capacity": "cook",
        "date_left": "1885-05-22",
        "left_port": "aberdovey",
        "cause_of_leaving": "discharged",
        "sign_with_mark": "n",
        "notes": "blk"
    },
    {
        "id": "vtls004687861_0_14",
        "type": "sailor",
        "parent": "vtls004687861",
        "name": "hugh davies",
        "dob": "1868",
        "age": "blk",
        "place_of_birth": "barmouth",
        "home_address": "blk",
        "f": "blk",
        "name_of_ship": "jane gwynne",
        "ship_port": "aberystwyth",
        "date_leaving": "1885",
        "joined_ship_date": "1885-01-12",
        "joined_at_port": "wexford",
        "capacity": "cook",
        "date_left": "1885-06-12",
        "left_port": "porthmadog",
        "cause_of_leaving": "discharged",
        "sign_with_mark": "n",
        "notes": "blk"
    },
    {
        "id": "vtls004687861_0_19",
        "type": "sailor",
        "parent": "vtls004687861",
        "name": "john evans",
        "dob": "1868",
        "age": "blk",
        "place_of_birth": "dolgellau",
        "home_address": "blk",
        "f": "blk",
        "name_of_ship": "first voyage",
        "ship_port": "blk",
        "date_leaving": "blk",
        "joined_ship_date": "1885-06-02",
        "joined_at_port": "aberdovey",
        "capacity": "cook",
        "date_left": "1885-06-30",
        "left_port": "aberdeen",
        "cause_of_leaving": "remains on board",
        "sign_with_mark": "n",
        "notes": "blk"
    },
    {
        "id": "vtls004687861_1_20",
        "type": "sailor",
        "parent": "vtls004687861",
        "name": "hugh davies",
        "dob": "1869",
        "age": "blk",
        "place_of_birth": "barmouth",
        "home_address": "blk",
        "f": "blk",
        "name_of_ship": "glad tidings",
        "ship_port": "aberystwyth",
        "date_leaving": "1885",
        "joined_ship_date": "1885-10-06",
        "joined_at_port": "porthmadoc",
        "capacity": "ordinary seaman",
        "date_left": "1885-12-26",
        "left_port": "porthmadog",
        "cause_of_leaving": "discharged",
        "sign_with_mark": "n",
        "notes": "ability=very good, conduct=very good"
    },
    {
        "id": "vtls004687861_1_19",
        "type": "sailor",
        "parent": "vtls004687861",
        "name": "owen humphreys",
        "dob": "1856",
        "age": "blk",
        "place_of_birth": "bontddu",
        "home_address": "blk",
        "f": "blk",
        "name_of_ship": "jane gwynne",
        "ship_port": "aberystwyth",
        "date_leaving": "1885",
        "joined_ship_date": "1885-10-06",
        "joined_at_port": "porthmadoc",
        "capacity": "able seaman",
        "date_left": "1885-12-20",
        "left_port": "plymouth",
        "cause_of_leaving": "discharged",
        "sign_with_mark": "n",
        "notes": "ability=very good, conduct=very good"
    },
    {
        "id": "vtls004687861_1_13",
        "type": "sailor",
        "parent": "vtls004687861",
        "name": "owen humphreys",
        "dob": "1856",
        "age": "blk",
        "place_of_birth": "bontddu",
        "home_address": "blk",
        "f": "blk",
        "name_of_ship": "jane gwynne",
        "ship_port": "aberystwyth",
        "date_leaving": "1885",
        "joined_ship_date": "1885-07-01",
        "joined_at_port": "aberdeen",
        "capacity": "able seaman",
        "date_left": "1885-08-21",
        "left_port": "porthmadog",
        "cause_of_leaving": "discharged",
        "sign_with_mark": "n",
        "notes": "ability=very good, conduct=very good"
    },
    {
        "id": "vtls004687861_1_16",
        "type": "sailor",
        "parent": "vtls004687861",
        "name": "edward williams",
        "dob": "1822",
        "age": "blk",
        "place_of_birth": "liverpool",
        "home_address": "blk",
        "f": "blk",
        "name_of_ship": "william shepherd",
        "ship_port": "blk",
        "date_leaving": "1885",
        "joined_ship_date": "1885-07-01",
        "joined_at_port": "aberdeen",
        "capacity": "getting his passage",
        "date_left": "1885-07-17",
        "left_port": "london",
        "cause_of_leaving": "discharged",
        "sign_with_mark": "n",
        "notes": "ability=good, conduct=good"
    },
    {
        "id": "vtls004687861_1_14",
        "type": "sailor",
        "parent": "vtls004687861",
        "name": "evan jones",
        "dob": "1865",
        "age": "blk",
        "place_of_birth": "tremadog",
        "home_address": "blk",
        "f": "blk",
        "name_of_ship": "jane gwynne",
        "ship_port": "aberystwyth",
        "date_leaving": "1885",
        "joined_ship_date": "1885-07-01",
        "joined_at_port": "aberdeen",
        "capacity": "ordinary seaman",
        "date_left": "1885-07-17",
        "left_port": "london",
        "cause_of_leaving": "discharged",
        "sign_with_mark": "n",
        "notes": "ability=good, conduct=good"
    },
    {
        "id": "vtls004687861_1_12",
        "type": "sailor",
        "parent": "vtls004687861",
        "name": "robert lewis",
        "dob": "1856",
        "age": "blk",
        "place_of_birth": "barmouth",
        "home_address": "blk",
        "f": "blk",
        "name_of_ship": "jane gwynne",
        "ship_port": "aberystwyth",
        "date_leaving": "1885",
        "joined_ship_date": "1885-07-01",
        "joined_at_port": "aberdeen",
        "capacity": "mate",
        "date_left": "1885-08-21",
        "left_port": "porthmadog",
        "cause_of_leaving": "discharged",
        "sign_with_mark": "n",
        "notes": "ability=very good, conduct=very good"
    },
    {
        "id": "vtls004687861_1_17",
        "type": "sailor",
        "parent": "vtls004687861",
        "name": "john whitesides",
        "dob": "1861",
        "age": "blk",
        "place_of_birth": "london",
        "home_address": "blk",
        "f": "blk",
        "name_of_ship": "fez",
        "ship_port": "liverpool",
        "date_leaving": "1885",
        "joined_ship_date": "1885-07-21",
        "joined_at_port": "london",
        "capacity": "ordinary seaman",
        "date_left": "1885-08-21",
        "left_port": "porthmadog",
        "cause_of_leaving": "discharged",
        "sign_with_mark": "n",
        "notes": "ability=very good, conduct=good"
    },
    {
        "id": "vtls004687861_1_15",
        "type": "sailor",
        "parent": "vtls004687861",
        "name": "john evans",
        "dob": "1868",
        "age": "blk",
        "place_of_birth": "dolgellau",
        "home_address": "blk",
        "f": "blk",
        "name_of_ship": "jane gwynne",
        "ship_port": "aberystwyth",
        "date_leaving": "1885",
        "joined_ship_date": "1885-07-01",
        "joined_at_port": "aberdeen",
        "capacity": "cook",
        "date_left": "1885-08-21",
        "left_port": "porthmadog",
        "cause_of_leaving": "discharged",
        "sign_with_mark": "n",
        "notes": "ability=very good, conduct=very good"
    },
    {
        "id": "vtls004687861_1_18",
        "type": "sailor",
        "parent": "vtls004687861",
        "name": "thomas l davies",
        "dob": "1856",
        "age": "blk",
        "place_of_birth": "barmouth",
        "home_address": "blk",
        "f": "blk",
        "name_of_ship": "sage",
        "ship_port": "lerwick",
        "date_leaving": "1885",
        "joined_ship_date": "1885-10-06",
        "joined_at_port": "porthmadoc",
        "capacity": "mate",
        "date_left": "1885-12-26",
        "left_port": "porthmadog",
        "cause_of_leaving": "discharged",
        "sign_with_mark": "n",
        "notes": "ability=very good, conduct=very good"
    }
]