[
    {
        "id": "vtls004976778_0_11",
        "type": "sailor",
        "parent": "vtls004976778",
        "name": "thomas jones",
        "dob": "blk",
        "age": "45",
        "place_of_birth": "newquay",
        "home_address": "blk",
        "f": "blk",
        "name_of_ship": "wasp",
        "ship_port": "cardigan",
        "date_leaving": "blk",
        "joined_ship_date": "1855-05-14",
        "joined_at_port": "cardiff",
        "capacity": "master",
        "date_left": "1863-05-30",
        "left_port": "newquay",
        "cause_of_leaving": "discharged",
        "sign_with_mark": "n",
        "notes": "blk"
    },
    {
        "id": "vtls004976778_0_12",
        "type": "sailor",
        "parent": "vtls004976778",
        "name": "david williams",
        "dob": "blk",
        "age": "24",
        "place_of_birth": "newquay",
        "home_address": "blk",
        "f": "blk",
        "name_of_ship": "wasp",
        "ship_port": "cardigan",
        "date_leaving": "blk",
        "joined_ship_date": "1862-10-06",
        "joined_at_port": "newquay",
        "capacity": "mate",
        "date_left": "1863-05-30",
        "left_port": "newquay",
        "cause_of_leaving": "discharged",
        "sign_with_mark": "n",
        "notes": "blk"
    },
    {
        "id": "vtls004976778_1_11",
        "type": "sailor",
        "parent": "vtls004976778",
        "name": "thomas nicholas",
        "dob": "blk",
        "age": "42",
        "place_of_birth": "newquay",
        "home_address": "newquay, cardiganshire",
        "f": "newquay, cardiganshire",
        "name_of_ship": "maria",
        "ship_port": "newquay",
        "date_leaving": "1863-07-04",
        "joined_ship_date": "1863-07-10",
        "joined_at_port": "newquay",
        "capacity": "master",
        "date_left": "1864-01-07",
        "left_port": "waterford",
        "cause_of_leaving": "remains on board",
        "sign_with_mark": "n",
        "notes": "blk"
    },
    {
        "id": "vtls004976778_0_16",
        "type": "sailor",
        "parent": "vtls004976778",
        "name": "thomas evans",
        "dob": "blk",
        "age": "15",
        "place_of_birth": "newquay",
        "home_address": "blk",
        "f": "blk",
        "name_of_ship": "ann & mary",
        "ship_port": "newquay",
        "date_leaving": "1863-04-30",
        "joined_ship_date": "1863-06-30",
        "joined_at_port": "newquay",
        "capacity": "seaman",
        "date_left": "1863-07-11",
        "left_port": "porthcawl",
        "cause_of_leaving": "remains on board",
        "sign_with_mark": "n",
        "notes": "blk"
    },
    {
        "id": "vtls004976778_0_15",
        "type": "sailor",
        "parent": "vtls004976778",
        "name": "john jenkins",
        "dob": "blk",
        "age": "39",
        "place_of_birth": "newquay",
        "home_address": "blk",
        "f": "blk",
        "name_of_ship": "heart of oak",
        "ship_port": "newquay",
        "date_leaving": "1863-06-15",
        "joined_ship_date": "1863-06-30",
        "joined_at_port": "newquay",
        "capacity": "mate",
        "date_left": "1863-07-11",
        "left_port": "porthcawl",
        "cause_of_leaving": "remains on board",
        "sign_with_mark": "n",
        "notes": "blk"
    },
    {
        "id": "vtls004976778_0_14",
        "type": "sailor",
        "parent": "vtls004976778",
        "name": "thomas nicolas",
        "dob": "blk",
        "age": "41",
        "place_of_birth": "newquay",
        "home_address": "blk",
        "f": "blk",
        "name_of_ship": "maria",
        "ship_port": "newquay",
        "date_leaving": "1863-06-15",
        "joined_ship_date": "1863-06-29",
        "joined_at_port": "newquay",
        "capacity": "master",
        "date_left": "1863-07-11",
        "left_port": "porthcawl",
        "cause_of_leaving": "remains on board",
        "sign_with_mark": "n",
        "notes": "blk"
    },
    {
        "id": "vtls004976778_1_12",
        "type": "sailor",
        "parent": "vtls004976778",
        "name": "john jenkins",
        "dob": "blk",
        "age": "40",
        "place_of_birth": "newquay",
        "home_address": "blk",
        "f": "blk",
        "name_of_ship": "wasp",
        "ship_port": "aberystwyth",
        "date_leaving": "blk",
        "joined_ship_date": "1863-08-04",
        "joined_at_port": "newquay",
        "capacity": "mate",
        "date_left": "1864-01-07",
        "left_port": "waterford",
        "cause_of_leaving": "remains on board",
        "sign_with_mark": "n",
        "notes": "blk"
    },
    {
        "id": "vtls004976778_1_13",
        "type": "sailor",
        "parent": "vtls004976778",
        "name": "thomas brown",
        "dob": "blk",
        "age": "14",
        "place_of_birth": "newquay",
        "home_address": "blk",
        "f": "blk",
        "name_of_ship": "wasp",
        "ship_port": "aberystwyth",
        "date_leaving": "blk",
        "joined_ship_date": "1863-08-04",
        "joined_at_port": "newquay",
        "capacity": "boy",
        "date_left": "1864-01-07",
        "left_port": "waterford",
        "cause_of_leaving": "remains on board",
        "sign_with_mark": "n",
        "notes": "blk"
    },
    {
        "id": "vtls004976778_0_13",
        "type": "sailor",
        "parent": "vtls004976778",
        "name": "david evans",
        "dob": "blk",
        "age": "15",
        "place_of_birth": "newquay",
        "home_address": "blk",
        "f": "blk",
        "name_of_ship": "wasp",
        "ship_port": "cardigan",
        "date_leaving": "blk",
        "joined_ship_date": "1862-10-06",
        "joined_at_port": "newquay",
        "capacity": "seaman",
        "date_left": "1863-05-30",
        "left_port": "newquay",
        "cause_of_leaving": "discharged",
        "sign_with_mark": "n",
        "notes": "blk"
    }
]