[
    {
        "id": "vtls004629735_0_14",
        "type": "sailor",
        "parent": "vtls004629735",
        "name": "cornelius de lugl",
        "dob": "blk",
        "age": "28",
        "place_of_birth": "amsterdam",
        "home_address": "blk",
        "f": "blk",
        "name_of_ship": "ripleman",
        "ship_port": "[teignmouth]",
        "date_leaving": "1863-08-18",
        "joined_ship_date": "1863-09-02",
        "joined_at_port": "swansea",
        "capacity": "cook & able seaman",
        "date_left": "1863-09",
        "left_port": "swansea",
        "cause_of_leaving": "deserted",
        "sign_with_mark": "n",
        "notes": "deserted"
    },
    {
        "id": "vtls004629735_0_12",
        "type": "sailor",
        "parent": "vtls004629735",
        "name": "thomas roach",
        "dob": "blk",
        "age": "24",
        "place_of_birth": "dinas",
        "home_address": "blk",
        "f": "blk",
        "name_of_ship": "[sanra ann]",
        "ship_port": "yarmouth",
        "date_leaving": "1863-05-18",
        "joined_ship_date": "1863-09-02",
        "joined_at_port": "swansea",
        "capacity": "mate",
        "date_left": "1863-11-16",
        "left_port": "smyrna",
        "cause_of_leaving": "left behind - sick",
        "sign_with_mark": "n",
        "notes": "left behind- sick"
    },
    {
        "id": "vtls004629735_0_16",
        "type": "sailor",
        "parent": "vtls004629735",
        "name": "james rouch",
        "dob": "blk",
        "age": "16",
        "place_of_birth": "dinas",
        "home_address": "blk",
        "f": "blk",
        "name_of_ship": "sillin",
        "ship_port": "$werpool",
        "date_leaving": "1863-08-20",
        "joined_ship_date": "1863-09-02",
        "joined_at_port": "swansea",
        "capacity": "ordinary seaman",
        "date_left": "1864-01-06",
        "left_port": "bristol",
        "cause_of_leaving": "discharged",
        "sign_with_mark": "n",
        "notes": "blk"
    },
    {
        "id": "vtls004629735_0_15",
        "type": "sailor",
        "parent": "vtls004629735",
        "name": "alfred butler",
        "dob": "blk",
        "age": "17",
        "place_of_birth": "jersey",
        "home_address": "blk",
        "f": "blk",
        "name_of_ship": "glynn",
        "ship_port": "st ives",
        "date_leaving": "1863-08-25",
        "joined_ship_date": "1863-09-02",
        "joined_at_port": "swansea",
        "capacity": "ordinary seaman",
        "date_left": "1864-01-28",
        "left_port": "bristol",
        "cause_of_leaving": "discharged",
        "sign_with_mark": "n",
        "notes": "blk"
    },
    {
        "id": "vtls004629735_0_13",
        "type": "sailor",
        "parent": "vtls004629735",
        "name": "john both",
        "dob": "blk",
        "age": "22",
        "place_of_birth": "fishguard",
        "home_address": "blk",
        "f": "blk",
        "name_of_ship": "at $",
        "ship_port": "aberayron",
        "date_leaving": "1863-06-25",
        "joined_ship_date": "1863-09-02",
        "joined_at_port": "swansea",
        "capacity": "boatswain",
        "date_left": "1864-01-25",
        "left_port": "bristol",
        "cause_of_leaving": "discharged",
        "sign_with_mark": "n",
        "notes": "blk"
    },
    {
        "id": "vtls004629735_0_11",
        "type": "sailor",
        "parent": "vtls004629735",
        "name": "jenkin jones",
        "dob": "blk",
        "age": "33",
        "place_of_birth": "aberystwyth",
        "home_address": "blk",
        "f": "blk",
        "name_of_ship": "bodotria",
        "ship_port": "aberystwyth",
        "date_leaving": "continued",
        "joined_ship_date": "1863-09-02",
        "joined_at_port": "swansea",
        "capacity": "master",
        "date_left": "blk",
        "left_port": "blk",
        "cause_of_leaving": "remains on board",
        "sign_with_mark": "n",
        "notes": "blk"
    },
    {
        "id": "vtls004629735_0_19",
        "type": "sailor",
        "parent": "vtls004629735",
        "name": "john mcnul",
        "dob": "blk",
        "age": "47",
        "place_of_birth": "argyle",
        "home_address": "blk",
        "f": "blk",
        "name_of_ship": "flynn gray",
        "ship_port": "$",
        "date_leaving": "1863-09-02",
        "joined_ship_date": "1863-11-16",
        "joined_at_port": "swyrna",
        "capacity": "boatswain",
        "date_left": "1864-01-07",
        "left_port": "queenstown",
        "cause_of_leaving": "left behind-sick",
        "sign_with_mark": "n",
        "notes": "left behind- sick"
    },
    {
        "id": "vtls004629735_0_17",
        "type": "sailor",
        "parent": "vtls004629735",
        "name": "thomas esue",
        "dob": "blk",
        "age": "21",
        "place_of_birth": "cardigan",
        "home_address": "blk",
        "f": "blk",
        "name_of_ship": "ocean queen",
        "ship_port": "cardigan",
        "date_leaving": "1863-08-06",
        "joined_ship_date": "1863-09-21",
        "joined_at_port": "swansea",
        "capacity": "ordinary seaman",
        "date_left": "1864-01-06",
        "left_port": "bristol",
        "cause_of_leaving": "discharged",
        "sign_with_mark": "n",
        "notes": "blk"
    },
    {
        "id": "vtls004629735_0_18",
        "type": "sailor",
        "parent": "vtls004629735",
        "name": "thomas pring",
        "dob": "blk",
        "age": "20",
        "place_of_birth": "padstow",
        "home_address": "blk",
        "f": "blk",
        "name_of_ship": "buscoppa",
        "ship_port": "padstow",
        "date_leaving": "1863-09-04",
        "joined_ship_date": "1863-09-21",
        "joined_at_port": "swansea",
        "capacity": "ordinary seaman",
        "date_left": "1864-01-06",
        "left_port": "bristol",
        "cause_of_leaving": "discharged",
        "sign_with_mark": "y",
        "notes": "blk"
    },
    {
        "id": "vtls004629735_0_20",
        "type": "sailor",
        "parent": "vtls004629735",
        "name": "john jones",
        "dob": "blk",
        "age": "18",
        "place_of_birth": "blk",
        "home_address": "blk",
        "f": "blk",
        "name_of_ship": "blk",
        "ship_port": "blk",
        "date_leaving": "blk",
        "joined_ship_date": "blk",
        "joined_at_port": "blk",
        "capacity": "apprentice",
        "date_left": "blk",
        "left_port": "blk",
        "cause_of_leaving": "remains on board",
        "sign_with_mark": "n",
        "notes": "registry of indenture - date of 1863-10-6 - port of liverpool"
    },
    {
        "id": "vtls004629735_1_13",
        "type": "sailor",
        "parent": "vtls004629735",
        "name": "thomas davies",
        "dob": "blk",
        "age": "14",
        "place_of_birth": "cardigan",
        "home_address": "blk",
        "f": "blk",
        "name_of_ship": "[ina]",
        "ship_port": "gloucester",
        "date_leaving": "1863-07-10",
        "joined_ship_date": "1863-07-22",
        "joined_at_port": "cardiff",
        "capacity": "boatswain",
        "date_left": "1864-07-04",
        "left_port": "exeter",
        "cause_of_leaving": "discharged",
        "sign_with_mark": "n",
        "notes": "blk"
    },
    {
        "id": "vtls004629735_1_12",
        "type": "sailor",
        "parent": "vtls004629735",
        "name": "david owens",
        "dob": "blk",
        "age": "27",
        "place_of_birth": "aberaeron",
        "home_address": "blk",
        "f": "blk",
        "name_of_ship": "beatrice",
        "ship_port": "aberystwyth",
        "date_leaving": "1863-29?",
        "joined_ship_date": "1863-07-22",
        "joined_at_port": "cardiff",
        "capacity": "mate",
        "date_left": "1864-07-06",
        "left_port": "exeter",
        "cause_of_leaving": "discharged",
        "sign_with_mark": "n",
        "notes": "blk"
    },
    {
        "id": "vtls004629735_1_14",
        "type": "sailor",
        "parent": "vtls004629735",
        "name": "john owens",
        "dob": "blk",
        "age": "20",
        "place_of_birth": "cardigan",
        "home_address": "blk",
        "f": "blk",
        "name_of_ship": "phantom",
        "ship_port": "newport",
        "date_leaving": "1863",
        "joined_ship_date": "1863-07-22",
        "joined_at_port": "cardiff",
        "capacity": "able seaman",
        "date_left": "1864-07-04",
        "left_port": "exeter",
        "cause_of_leaving": "discharged",
        "sign_with_mark": "n",
        "notes": "blk"
    },
    {
        "id": "vtls004629735_1_11",
        "type": "sailor",
        "parent": "vtls004629735",
        "name": "jenkin jones",
        "dob": "blk",
        "age": "36",
        "place_of_birth": "cardiganshire",
        "home_address": "blk",
        "f": "blk",
        "name_of_ship": "bodotria",
        "ship_port": "aberystwyth",
        "date_leaving": "remain",
        "joined_ship_date": "blk",
        "joined_at_port": "blk",
        "capacity": "master",
        "date_left": "blk",
        "left_port": "blk",
        "cause_of_leaving": "remains on board",
        "sign_with_mark": "n",
        "notes": "blk"
    },
    {
        "id": "vtls004629735_2_17",
        "type": "sailor",
        "parent": "vtls004629735",
        "name": "andrew mcintosh",
        "dob": "blk",
        "age": "16",
        "place_of_birth": "penuwch",
        "home_address": "blk",
        "f": "blk",
        "name_of_ship": "[corradown]",
        "ship_port": "london",
        "date_leaving": "1864-07-23",
        "joined_ship_date": "1864-08-02",
        "joined_at_port": "swansea",
        "capacity": "cook & ordinary seaman",
        "date_left": "1864-11-26",
        "left_port": "glasgow",
        "cause_of_leaving": "discharged",
        "sign_with_mark": "n",
        "notes": "blk"
    },
    {
        "id": "vtls004629735_2_15",
        "type": "sailor",
        "parent": "vtls004629735",
        "name": "jenkin rees",
        "dob": "blk",
        "age": "19",
        "place_of_birth": "cardigan",
        "home_address": "blk",
        "f": "blk",
        "name_of_ship": "bodotria",
        "ship_port": "aberystwyth",
        "date_leaving": "continued",
        "joined_ship_date": "1864-07-29",
        "joined_at_port": "swansea",
        "capacity": "ordinary seaman",
        "date_left": "1864-11-26",
        "left_port": "glasgow",
        "cause_of_leaving": "discharged",
        "sign_with_mark": "n",
        "notes": "blk"
    },
    {
        "id": "vtls004629735_2_16",
        "type": "sailor",
        "parent": "vtls004629735",
        "name": "david jones",
        "dob": "blk",
        "age": "18",
        "place_of_birth": "cardigan",
        "home_address": "blk",
        "f": "blk",
        "name_of_ship": "bodotria",
        "ship_port": "aberystwyth",
        "date_leaving": "continued",
        "joined_ship_date": "1864-07-29",
        "joined_at_port": "swansea",
        "capacity": "ordinary seaman",
        "date_left": "1864-11-26",
        "left_port": "glasgow",
        "cause_of_leaving": "discharged",
        "sign_with_mark": "n",
        "notes": "blk"
    },
    {
        "id": "vtls004629735_2_14",
        "type": "sailor",
        "parent": "vtls004629735",
        "name": "john beaumont",
        "dob": "blk",
        "age": "28",
        "place_of_birth": "liverpool",
        "home_address": "blk",
        "f": "blk",
        "name_of_ship": "[john brigant]",
        "ship_port": "boston",
        "date_leaving": "1864-07-30",
        "joined_ship_date": "1864-08-02",
        "joined_at_port": "swansea",
        "capacity": "able seaman",
        "date_left": "1864-11-26",
        "left_port": "glasgow",
        "cause_of_leaving": "discharged",
        "sign_with_mark": "n",
        "notes": "blk"
    },
    {
        "id": "vtls004629735_1_15",
        "type": "sailor",
        "parent": "vtls004629735",
        "name": "jenkin rees",
        "dob": "blk",
        "age": "18",
        "place_of_birth": "cardigan",
        "home_address": "blk",
        "f": "blk",
        "name_of_ship": "mary anna",
        "ship_port": "aberystwyth",
        "date_leaving": "1863-01-10",
        "joined_ship_date": "blk",
        "joined_at_port": "cardiff",
        "capacity": "ordinary seaman",
        "date_left": "1864-07-04",
        "left_port": "exeter",
        "cause_of_leaving": "discharged",
        "sign_with_mark": "n",
        "notes": "blk"
    },
    {
        "id": "vtls004629735_1_17",
        "type": "sailor",
        "parent": "vtls004629735",
        "name": "david jones",
        "dob": "blk",
        "age": "18",
        "place_of_birth": "cardigan",
        "home_address": "blk",
        "f": "blk",
        "name_of_ship": "[alien]",
        "ship_port": "aberystwyth",
        "date_leaving": "blk",
        "joined_ship_date": "blk",
        "joined_at_port": "cardiff",
        "capacity": "cook & ordinary seaman",
        "date_left": "1864-07-04",
        "left_port": "exeter",
        "cause_of_leaving": "discharged",
        "sign_with_mark": "n",
        "notes": "blk"
    },
    {
        "id": "vtls004629735_2_13",
        "type": "sailor",
        "parent": "vtls004629735",
        "name": "john brown",
        "dob": "blk",
        "age": "26",
        "place_of_birth": "glasgow",
        "home_address": "blk",
        "f": "blk",
        "name_of_ship": "[john brigant]",
        "ship_port": "boston",
        "date_leaving": "1864-07-30",
        "joined_ship_date": "1864-08-02",
        "joined_at_port": "swansea",
        "capacity": "boatswain",
        "date_left": "1864-11-26",
        "left_port": "glasgow",
        "cause_of_leaving": "discharged",
        "sign_with_mark": "n",
        "notes": "blk"
    },
    {
        "id": "vtls004629735_1_16",
        "type": "sailor",
        "parent": "vtls004629735",
        "name": "evan davies",
        "dob": "blk",
        "age": "19",
        "place_of_birth": "cardigan",
        "home_address": "blk",
        "f": "blk",
        "name_of_ship": "[alien]",
        "ship_port": "aberystwyth",
        "date_leaving": "1863-01-10",
        "joined_ship_date": "blk",
        "joined_at_port": "cardiff",
        "capacity": "able seaman",
        "date_left": "1864-07-04",
        "left_port": "exeter",
        "cause_of_leaving": "discharged",
        "sign_with_mark": "n",
        "notes": "blk"
    },
    {
        "id": "vtls004629735_2_11",
        "type": "sailor",
        "parent": "vtls004629735",
        "name": "jenkin jones",
        "dob": "blk",
        "age": "35",
        "place_of_birth": "aberystwyth",
        "home_address": "blk",
        "f": "blk",
        "name_of_ship": "bodotria",
        "ship_port": "aberystwyth",
        "date_leaving": "continued",
        "joined_ship_date": "1864-07-29",
        "joined_at_port": "swansea",
        "capacity": "master",
        "date_left": "blk",
        "left_port": "blk",
        "cause_of_leaving": "remains on board",
        "sign_with_mark": "n",
        "notes": "blk"
    },
    {
        "id": "vtls004629735_2_12",
        "type": "sailor",
        "parent": "vtls004629735",
        "name": "william eynon",
        "dob": "blk",
        "age": "35",
        "place_of_birth": "newquay",
        "home_address": "blk",
        "f": "blk",
        "name_of_ship": "sisters",
        "ship_port": "newquay",
        "date_leaving": "1864-07-20",
        "joined_ship_date": "1864-07-29",
        "joined_at_port": "swansea",
        "capacity": "mate",
        "date_left": "1864-11-26",
        "left_port": "glasgow",
        "cause_of_leaving": "discharged",
        "sign_with_mark": "n",
        "notes": "blk"
    }
]