[
    {
        "id": "vtls004624957_0_20",
        "type": "sailor",
        "parent": "vtls004624957",
        "name": "walter davies",
        "dob": "blk",
        "age": "16",
        "place_of_birth": "blk",
        "home_address": "blk",
        "f": "blk",
        "name_of_ship": "blk",
        "ship_port": "blk",
        "date_leaving": "blk",
        "joined_ship_date": "blk",
        "joined_at_port": "blk",
        "capacity": "apprentice",
        "date_left": "blk",
        "left_port": "blk",
        "cause_of_leaving": "blk",
        "sign_with_mark": "n",
        "notes": "registry of indenture 1862-07-17 at aberystwyth"
    },
    {
        "id": "vtls004624962_0_15",
        "type": "sailor",
        "parent": "vtls004624962",
        "name": "roderick edwards",
        "dob": "blk",
        "age": "21",
        "place_of_birth": "aberystwyth",
        "home_address": "blk",
        "f": "blk",
        "name_of_ship": "battus",
        "ship_port": "aberystwyth",
        "date_leaving": "blk",
        "joined_ship_date": "1864-01-26",
        "joined_at_port": "cardiff",
        "capacity": "able seaman",
        "date_left": "1864-09-03",
        "left_port": "aberystwyth",
        "cause_of_leaving": "discharged",
        "sign_with_mark": "n",
        "notes": "blk"
    },
    {
        "id": "vtls004624962_0_13",
        "type": "sailor",
        "parent": "vtls004624962",
        "name": "william mathias",
        "dob": "blk",
        "age": "24",
        "place_of_birth": "aberystwyth",
        "home_address": "blk",
        "f": "blk",
        "name_of_ship": "battus",
        "ship_port": "aberystwyth",
        "date_leaving": "blk",
        "joined_ship_date": "1864-01-26",
        "joined_at_port": "cardiff",
        "capacity": "boatswain",
        "date_left": "1864-09-03",
        "left_port": "aberystwyth",
        "cause_of_leaving": "discharged",
        "sign_with_mark": "y",
        "notes": "blk"
    },
    {
        "id": "vtls004624962_0_11",
        "type": "sailor",
        "parent": "vtls004624962",
        "name": "edward watkins",
        "dob": "blk",
        "age": "33",
        "place_of_birth": "aberystwyth",
        "home_address": "blk",
        "f": "blk",
        "name_of_ship": "battus",
        "ship_port": "aberystwyth",
        "date_leaving": "blk",
        "joined_ship_date": "1864-01-26",
        "joined_at_port": "cardiff",
        "capacity": "master",
        "date_left": "blk",
        "left_port": "aberystwyth",
        "cause_of_leaving": "remains on board",
        "sign_with_mark": "n",
        "notes": "blk"
    },
    {
        "id": "vtls004624962_0_12",
        "type": "sailor",
        "parent": "vtls004624962",
        "name": "john humphreys",
        "dob": "blk",
        "age": "44",
        "place_of_birth": "aberystwyth",
        "home_address": "blk",
        "f": "blk",
        "name_of_ship": "battus",
        "ship_port": "aberystwyth",
        "date_leaving": "blk",
        "joined_ship_date": "1864-01-26",
        "joined_at_port": "cardiff",
        "capacity": "mate",
        "date_left": "1864-09-03",
        "left_port": "aberystwyth",
        "cause_of_leaving": "discharged",
        "sign_with_mark": "n",
        "notes": "blk"
    },
    {
        "id": "vtls004624962_0_14",
        "type": "sailor",
        "parent": "vtls004624962",
        "name": "david williams",
        "dob": "blk",
        "age": "34",
        "place_of_birth": "cardigan",
        "home_address": "blk",
        "f": "blk",
        "name_of_ship": "battus",
        "ship_port": "aberystwyth",
        "date_leaving": "blk",
        "joined_ship_date": "1864-01-26",
        "joined_at_port": "cardiff",
        "capacity": "cook",
        "date_left": "1864-09-03",
        "left_port": "aberystwyth",
        "cause_of_leaving": "discharged",
        "sign_with_mark": "n",
        "notes": "blk"
    },
    {
        "id": "vtls004624957_0_11",
        "type": "sailor",
        "parent": "vtls004624957",
        "name": "edward watkins",
        "dob": "blk",
        "age": "35",
        "place_of_birth": "aberystwyth",
        "home_address": "14, portland street aberystwyth",
        "f": "14, portland street aberystwyth",
        "name_of_ship": "battus",
        "ship_port": "aberystwyth",
        "date_leaving": "blk",
        "joined_ship_date": "blk",
        "joined_at_port": "remains",
        "capacity": "master",
        "date_left": "blk",
        "left_port": "blk",
        "cause_of_leaving": "remains on board",
        "sign_with_mark": "n",
        "notes": "blk"
    },
    {
        "id": "vtls004624962_0_19",
        "type": "sailor",
        "parent": "vtls004624962",
        "name": "john griffiths",
        "dob": "blk",
        "age": "16",
        "place_of_birth": "aberystwyth",
        "home_address": "blk",
        "f": "blk",
        "name_of_ship": "battus",
        "ship_port": "aberystwyth",
        "date_leaving": "blk",
        "joined_ship_date": "1864-01-26",
        "joined_at_port": "cardiff",
        "capacity": "ordinary seaman",
        "date_left": "1864-09-03",
        "left_port": "aberystwyth",
        "cause_of_leaving": "discharged",
        "sign_with_mark": "n",
        "notes": "blk"
    },
    {
        "id": "vtls004624962_0_16",
        "type": "sailor",
        "parent": "vtls004624962",
        "name": "thomas griffiths",
        "dob": "blk",
        "age": "30",
        "place_of_birth": "aberystwyth",
        "home_address": "blk",
        "f": "blk",
        "name_of_ship": "battus",
        "ship_port": "aberystwyth",
        "date_leaving": "blk",
        "joined_ship_date": "1864-01-26",
        "joined_at_port": "cardiff",
        "capacity": "able seaman",
        "date_left": "1864-09-03",
        "left_port": "aberystwyth",
        "cause_of_leaving": "discharged",
        "sign_with_mark": "n",
        "notes": "blk"
    },
    {
        "id": "vtls004624962_0_18",
        "type": "sailor",
        "parent": "vtls004624962",
        "name": "david d davies",
        "dob": "blk",
        "age": "19",
        "place_of_birth": "aberystwyth",
        "home_address": "blk",
        "f": "blk",
        "name_of_ship": "battus",
        "ship_port": "aberystwyth",
        "date_leaving": "blk",
        "joined_ship_date": "1864-01-26",
        "joined_at_port": "cardiff",
        "capacity": "ordinary seaman",
        "date_left": "1864-09-03",
        "left_port": "aberystwyth",
        "cause_of_leaving": "discharged",
        "sign_with_mark": "n",
        "notes": "blk"
    },
    {
        "id": "vtls004624957_0_13",
        "type": "sailor",
        "parent": "vtls004624957",
        "name": "jenkin jones",
        "dob": "blk",
        "age": "43",
        "place_of_birth": "newquay",
        "home_address": "blk",
        "f": "blk",
        "name_of_ship": "battus",
        "ship_port": "aberystwyth",
        "date_leaving": "1866-03-03",
        "joined_ship_date": "1866-03-03",
        "joined_at_port": "cardiff",
        "capacity": "boatswain",
        "date_left": "1866-08-01",
        "left_port": "aberystwyth",
        "cause_of_leaving": "discharged",
        "sign_with_mark": "n",
        "notes": "blk"
    },
    {
        "id": "vtls004624957_0_12",
        "type": "sailor",
        "parent": "vtls004624957",
        "name": "william bowen",
        "dob": "blk",
        "age": "37",
        "place_of_birth": "aberystwyth",
        "home_address": "blk",
        "f": "blk",
        "name_of_ship": "battus",
        "ship_port": "aberystwyth",
        "date_leaving": "1866-03-03",
        "joined_ship_date": "1866-03-03",
        "joined_at_port": "cardiff",
        "capacity": "mate",
        "date_left": "1866-08-01",
        "left_port": "aberystwyth",
        "cause_of_leaving": "discharged",
        "sign_with_mark": "n",
        "notes": "blk"
    },
    {
        "id": "vtls004624962_0_17",
        "type": "sailor",
        "parent": "vtls004624962",
        "name": "evan jones",
        "dob": "blk",
        "age": "24",
        "place_of_birth": "aberystwyth",
        "home_address": "blk",
        "f": "blk",
        "name_of_ship": "battus",
        "ship_port": "aberystwyth",
        "date_leaving": "blk",
        "joined_ship_date": "1864-01-26",
        "joined_at_port": "cardiff",
        "capacity": "able seaman",
        "date_left": "1864-09-03",
        "left_port": "aberystwyth",
        "cause_of_leaving": "discharged",
        "sign_with_mark": "n",
        "notes": "blk"
    },
    {
        "id": "vtls004624957_0_19",
        "type": "sailor",
        "parent": "vtls004624957",
        "name": "david williams",
        "dob": "blk",
        "age": "17",
        "place_of_birth": "aberystwyth",
        "home_address": "blk",
        "f": "blk",
        "name_of_ship": "battus",
        "ship_port": "aberystwyth",
        "date_leaving": "1866-03-03",
        "joined_ship_date": "1866-03-03",
        "joined_at_port": "cardiff",
        "capacity": "ordinary seaman",
        "date_left": "1866-08-01",
        "left_port": "aberystwyth",
        "cause_of_leaving": "discharged",
        "sign_with_mark": "n",
        "notes": "blk"
    },
    {
        "id": "vtls004624957_0_16",
        "type": "sailor",
        "parent": "vtls004624957",
        "name": "william edwards",
        "dob": "blk",
        "age": "37",
        "place_of_birth": "aberystwyth",
        "home_address": "blk",
        "f": "blk",
        "name_of_ship": "battus",
        "ship_port": "aberystwyth",
        "date_leaving": "1866-03-03",
        "joined_ship_date": "1866-03-03",
        "joined_at_port": "cardiff",
        "capacity": "able seaman",
        "date_left": "1866-08-01",
        "left_port": "aberystwyth",
        "cause_of_leaving": "discharged",
        "sign_with_mark": "n",
        "notes": "blk"
    },
    {
        "id": "vtls004624957_0_17",
        "type": "sailor",
        "parent": "vtls004624957",
        "name": "edward rowlands",
        "dob": "blk",
        "age": "20",
        "place_of_birth": "aberystwyth",
        "home_address": "blk",
        "f": "blk",
        "name_of_ship": "battus",
        "ship_port": "aberystwyth",
        "date_leaving": "1866-03-03",
        "joined_ship_date": "1866-03-03",
        "joined_at_port": "cardiff",
        "capacity": "able seaman",
        "date_left": "1866-08-01",
        "left_port": "aberystwyth",
        "cause_of_leaving": "discharged",
        "sign_with_mark": "n",
        "notes": "blk"
    },
    {
        "id": "vtls004624957_0_18",
        "type": "sailor",
        "parent": "vtls004624957",
        "name": "richard jeeb",
        "dob": "blk",
        "age": "17",
        "place_of_birth": "aberystwyth",
        "home_address": "blk",
        "f": "blk",
        "name_of_ship": "battus",
        "ship_port": "aberystwyth",
        "date_leaving": "1866-03-03",
        "joined_ship_date": "1866-03-03",
        "joined_at_port": "cardiff",
        "capacity": "ordinary seaman",
        "date_left": "1866-08-01",
        "left_port": "aberystwyth",
        "cause_of_leaving": "discharged",
        "sign_with_mark": "n",
        "notes": "blk"
    },
    {
        "id": "vtls004624957_0_14",
        "type": "sailor",
        "parent": "vtls004624957",
        "name": "john owens",
        "dob": "blk",
        "age": "33",
        "place_of_birth": "aberystwyth",
        "home_address": "blk",
        "f": "blk",
        "name_of_ship": "battus",
        "ship_port": "aberystwyth",
        "date_leaving": "1866-03-03",
        "joined_ship_date": "1866-03-03",
        "joined_at_port": "cardiff",
        "capacity": "cook & steward",
        "date_left": "1866-08-01",
        "left_port": "aberystwyth",
        "cause_of_leaving": "discharged",
        "sign_with_mark": "n",
        "notes": "blk"
    },
    {
        "id": "vtls004624957_1_13",
        "type": "sailor",
        "parent": "vtls004624957",
        "name": "jenkin jones",
        "dob": "blk",
        "age": "43",
        "place_of_birth": "aberystwyth",
        "home_address": "blk",
        "f": "blk",
        "name_of_ship": "battus",
        "ship_port": "aberystwyth",
        "date_leaving": "1866-07-31",
        "joined_ship_date": "1866-08-11",
        "joined_at_port": "aberystwyth",
        "capacity": "boatswain",
        "date_left": "1866-10-26",
        "left_port": "milford",
        "cause_of_leaving": "discharged",
        "sign_with_mark": "n",
        "notes": "blk"
    },
    {
        "id": "vtls004624957_0_15",
        "type": "sailor",
        "parent": "vtls004624957",
        "name": "john evans",
        "dob": "blk",
        "age": "23",
        "place_of_birth": "aberystwyth",
        "home_address": "blk",
        "f": "blk",
        "name_of_ship": "battus",
        "ship_port": "aberystwyth",
        "date_leaving": "1866-03-03",
        "joined_ship_date": "1866-03-03",
        "joined_at_port": "cardiff",
        "capacity": "able seaman",
        "date_left": "1866-08-01",
        "left_port": "aberystwyth",
        "cause_of_leaving": "discharged",
        "sign_with_mark": "n",
        "notes": "blk"
    },
    {
        "id": "vtls004624957_1_12",
        "type": "sailor",
        "parent": "vtls004624957",
        "name": "william bowen",
        "dob": "blk",
        "age": "37",
        "place_of_birth": "aberystwyth",
        "home_address": "blk",
        "f": "blk",
        "name_of_ship": "battus",
        "ship_port": "aberystwyth",
        "date_leaving": "1866-07-31",
        "joined_ship_date": "1866-08-11",
        "joined_at_port": "aberystwyth",
        "capacity": "mate",
        "date_left": "1866-10-26",
        "left_port": "milford",
        "cause_of_leaving": "discharged",
        "sign_with_mark": "n",
        "notes": "blk"
    },
    {
        "id": "vtls004624957_1_11",
        "type": "sailor",
        "parent": "vtls004624957",
        "name": "edward watkins",
        "dob": "blk",
        "age": "blk",
        "place_of_birth": "blk",
        "home_address": "portland street aberystwyth",
        "f": "portland street aberystwyth",
        "name_of_ship": "battus",
        "ship_port": "aberystwyth",
        "date_leaving": "blk",
        "joined_ship_date": "blk",
        "joined_at_port": "blk",
        "capacity": "master",
        "date_left": "blk",
        "left_port": "blk",
        "cause_of_leaving": "remains on board",
        "sign_with_mark": "n",
        "notes": "blk"
    },
    {
        "id": "vtls004624957_1_14",
        "type": "sailor",
        "parent": "vtls004624957",
        "name": "john owens",
        "dob": "blk",
        "age": "37",
        "place_of_birth": "aberaeron",
        "home_address": "blk",
        "f": "blk",
        "name_of_ship": "battus",
        "ship_port": "aberystwyth",
        "date_leaving": "1866-07-31",
        "joined_ship_date": "blk",
        "joined_at_port": "blk",
        "capacity": "cook & steward",
        "date_left": "blk",
        "left_port": "blk",
        "cause_of_leaving": "blk",
        "sign_with_mark": "blk",
        "notes": "did not join - unwell"
    },
    {
        "id": "vtls004624957_1_18",
        "type": "sailor",
        "parent": "vtls004624957",
        "name": "richard jones",
        "dob": "blk",
        "age": "17",
        "place_of_birth": "aberystwyth",
        "home_address": "blk",
        "f": "blk",
        "name_of_ship": "john & william",
        "ship_port": "aberystwyth",
        "date_leaving": "1866-07-31",
        "joined_ship_date": "1866-08-11",
        "joined_at_port": "aberystwyth",
        "capacity": "ordinary seaman",
        "date_left": "1866-10-26",
        "left_port": "milford",
        "cause_of_leaving": "discharged",
        "sign_with_mark": "n",
        "notes": "blk"
    },
    {
        "id": "vtls004624957_1_19",
        "type": "sailor",
        "parent": "vtls004624957",
        "name": "richard seek",
        "dob": "blk",
        "age": "17",
        "place_of_birth": "aberystwyth",
        "home_address": "blk",
        "f": "blk",
        "name_of_ship": "battus",
        "ship_port": "aberystwyth",
        "date_leaving": "1866-07-31",
        "joined_ship_date": "1866-08-11",
        "joined_at_port": "aberystwyth",
        "capacity": "ordinary seaman",
        "date_left": "1866-10-26",
        "left_port": "milford",
        "cause_of_leaving": "discharged",
        "sign_with_mark": "n",
        "notes": "blk"
    },
    {
        "id": "vtls004624957_1_16",
        "type": "sailor",
        "parent": "vtls004624957",
        "name": "william edwards",
        "dob": "blk",
        "age": "37",
        "place_of_birth": "aberystwyth",
        "home_address": "blk",
        "f": "blk",
        "name_of_ship": "battus",
        "ship_port": "aberystwyth",
        "date_leaving": "1866-07-31",
        "joined_ship_date": "1866-08-11",
        "joined_at_port": "aberystwyth",
        "capacity": "able seaman",
        "date_left": "1866-10-26",
        "left_port": "milford",
        "cause_of_leaving": "discharged",
        "sign_with_mark": "n",
        "notes": "blk"
    },
    {
        "id": "vtls004624957_1_17",
        "type": "sailor",
        "parent": "vtls004624957",
        "name": "edward jenkins",
        "dob": "blk",
        "age": "25",
        "place_of_birth": "aberystwyth",
        "home_address": "blk",
        "f": "blk",
        "name_of_ship": "herald",
        "ship_port": "aberystwyth",
        "date_leaving": "1866-07-31",
        "joined_ship_date": "1866-08-11",
        "joined_at_port": "aberystwyth",
        "capacity": "able seaman",
        "date_left": "1866-10-26",
        "left_port": "milford",
        "cause_of_leaving": "discharged",
        "sign_with_mark": "n",
        "notes": "blk"
    },
    {
        "id": "vtls004624957_1_15",
        "type": "sailor",
        "parent": "vtls004624957",
        "name": "james hugh",
        "dob": "blk",
        "age": "28",
        "place_of_birth": "aberystwyth",
        "home_address": "blk",
        "f": "blk",
        "name_of_ship": "messenger",
        "ship_port": "aberystwyth",
        "date_leaving": "1866-07-31",
        "joined_ship_date": "1866-08-11",
        "joined_at_port": "aberystwyth",
        "capacity": "able seaman",
        "date_left": "1866-10-26",
        "left_port": "milford",
        "cause_of_leaving": "discharged",
        "sign_with_mark": "n",
        "notes": "blk"
    },
    {
        "id": "vtls004624957_1_20",
        "type": "sailor",
        "parent": "vtls004624957",
        "name": "john joseph",
        "dob": "blk",
        "age": "45",
        "place_of_birth": "aberystwyth",
        "home_address": "blk",
        "f": "blk",
        "name_of_ship": "cursader",
        "ship_port": "aberystwyth",
        "date_leaving": "1866-07-31",
        "joined_ship_date": "1866-08-11",
        "joined_at_port": "aberystwyth",
        "capacity": "able seaman",
        "date_left": "1866-10-26",
        "left_port": "milford",
        "cause_of_leaving": "discharged",
        "sign_with_mark": "n",
        "notes": "blk"
    },
    {
        "id": "vtls004624857_0_11",
        "type": "sailor",
        "parent": "vtls004624857",
        "name": "edward watkins",
        "dob": "blk",
        "age": "35",
        "place_of_birth": "aberystwyth",
        "home_address": "portland street aberystwyth",
        "f": "portland street aberystwyth",
        "name_of_ship": "blk",
        "ship_port": "blk",
        "date_leaving": "blk",
        "joined_ship_date": "blk",
        "joined_at_port": "blk",
        "capacity": "master",
        "date_left": "blk",
        "left_port": "blk",
        "cause_of_leaving": "remains on board",
        "sign_with_mark": "n",
        "notes": "blk"
    },
    {
        "id": "vtls004624857_0_20",
        "type": "sailor",
        "parent": "vtls004624857",
        "name": "john hill",
        "dob": "blk",
        "age": "20",
        "place_of_birth": "whitehaven",
        "home_address": "blk",
        "f": "blk",
        "name_of_ship": "gordon a thornporn",
        "ship_port": "truro",
        "date_leaving": "1866-12-05",
        "joined_ship_date": "1866-12-19",
        "joined_at_port": "cardiff",
        "capacity": "ordinary seaman",
        "date_left": "1866-12-26",
        "left_port": "milford",
        "cause_of_leaving": "discharged",
        "sign_with_mark": "n",
        "notes": "by mutual consent"
    },
    {
        "id": "vtls004624857_0_19",
        "type": "sailor",
        "parent": "vtls004624857",
        "name": "john mcmahon",
        "dob": "blk",
        "age": "16",
        "place_of_birth": "london",
        "home_address": "blk",
        "f": "blk",
        "name_of_ship": "harry russell",
        "ship_port": "barrow",
        "date_leaving": "1866-11-11",
        "joined_ship_date": "1866-12-08",
        "joined_at_port": "cardiff",
        "capacity": "ordinary seaman",
        "date_left": "1876-03-26",
        "left_port": "liverpool",
        "cause_of_leaving": "discharged",
        "sign_with_mark": "n",
        "notes": "blk"
    },
    {
        "id": "vtls004624857_0_18",
        "type": "sailor",
        "parent": "vtls004624857",
        "name": "richard leek",
        "dob": "blk",
        "age": "18",
        "place_of_birth": "aberystwyth",
        "home_address": "blk",
        "f": "blk",
        "name_of_ship": "battus",
        "ship_port": "aberystwyth",
        "date_leaving": "blk",
        "joined_ship_date": "1866-12-07",
        "joined_at_port": "cardiff",
        "capacity": "ordinary seaman",
        "date_left": "1876-03-26",
        "left_port": "liverpool",
        "cause_of_leaving": "discharged",
        "sign_with_mark": "y",
        "notes": "blk"
    },
    {
        "id": "vtls004624857_0_13",
        "type": "sailor",
        "parent": "vtls004624857",
        "name": "thomas davies",
        "dob": "blk",
        "age": "27",
        "place_of_birth": "cardigan",
        "home_address": "blk",
        "f": "blk",
        "name_of_ship": "tryphena",
        "ship_port": "newport",
        "date_leaving": "1866-11-27",
        "joined_ship_date": "1866-12-06",
        "joined_at_port": "cardiff",
        "capacity": "boatswain",
        "date_left": "1867-03-26",
        "left_port": "liverpool",
        "cause_of_leaving": "discharged",
        "sign_with_mark": "n",
        "notes": "blk"
    },
    {
        "id": "vtls004624857_0_14",
        "type": "sailor",
        "parent": "vtls004624857",
        "name": "david clayton",
        "dob": "blk",
        "age": "21",
        "place_of_birth": "london",
        "home_address": "blk",
        "f": "blk",
        "name_of_ship": "battus",
        "ship_port": "aberystwyth",
        "date_leaving": "blk",
        "joined_ship_date": "1866-12-07",
        "joined_at_port": "cardiff",
        "capacity": "cook & steward",
        "date_left": "1867-03-26",
        "left_port": "liverpool",
        "cause_of_leaving": "discharged",
        "sign_with_mark": "y",
        "notes": "blk"
    },
    {
        "id": "vtls004624857_0_16",
        "type": "sailor",
        "parent": "vtls004624857",
        "name": "thomas proper",
        "dob": "blk",
        "age": "21",
        "place_of_birth": "cardigan",
        "home_address": "blk",
        "f": "blk",
        "name_of_ship": "charter",
        "ship_port": "london",
        "date_leaving": "1866-11-15",
        "joined_ship_date": "1866-12-06",
        "joined_at_port": "cardiff",
        "capacity": "able seaman",
        "date_left": "1866-12-08",
        "left_port": "cardiff",
        "cause_of_leaving": "deserted",
        "sign_with_mark": "y",
        "notes": "blk"
    },
    {
        "id": "vtls004624857_0_17",
        "type": "sailor",
        "parent": "vtls004624857",
        "name": "john evans",
        "dob": "blk",
        "age": "22",
        "place_of_birth": "aberystwyth",
        "home_address": "blk",
        "f": "blk",
        "name_of_ship": "battus",
        "ship_port": "aberystwyth",
        "date_leaving": "blk",
        "joined_ship_date": "1866-12-07",
        "joined_at_port": "cardiff",
        "capacity": "able seaman",
        "date_left": "1876-03-26",
        "left_port": "liverpool",
        "cause_of_leaving": "discharged",
        "sign_with_mark": "n",
        "notes": "blk"
    },
    {
        "id": "vtls004624857_0_15",
        "type": "sailor",
        "parent": "vtls004624857",
        "name": "john evans",
        "dob": "blk",
        "age": "27",
        "place_of_birth": "cardigan",
        "home_address": "blk",
        "f": "blk",
        "name_of_ship": "ashley",
        "ship_port": "milford",
        "date_leaving": "1866-12",
        "joined_ship_date": "1866-12-06",
        "joined_at_port": "cardiff",
        "capacity": "able seaman",
        "date_left": "1867-03-26",
        "left_port": "liverpool",
        "cause_of_leaving": "discharged",
        "sign_with_mark": "n",
        "notes": "blk"
    },
    {
        "id": "vtls004624857_0_12",
        "type": "sailor",
        "parent": "vtls004624857",
        "name": "william bowen",
        "dob": "blk",
        "age": "38",
        "place_of_birth": "aberystwyth",
        "home_address": "blk",
        "f": "blk",
        "name_of_ship": "battus",
        "ship_port": "aberystwyth",
        "date_leaving": "blk",
        "joined_ship_date": "1866-12-07",
        "joined_at_port": "cardiff",
        "capacity": "mate",
        "date_left": "1867-03-26",
        "left_port": "liverpool",
        "cause_of_leaving": "discharged",
        "sign_with_mark": "n",
        "notes": "blk"
    },
    {
        "id": "vtls004624857_0_21",
        "type": "sailor",
        "parent": "vtls004624857",
        "name": "james bond",
        "dob": "blk",
        "age": "69",
        "place_of_birth": "milford",
        "home_address": "blk",
        "f": "blk",
        "name_of_ship": "lewis",
        "ship_port": "blk",
        "date_leaving": "blk",
        "joined_ship_date": "1866-12-28",
        "joined_at_port": "milford",
        "capacity": "cook & steward",
        "date_left": "1867-03-26",
        "left_port": "liverpool",
        "cause_of_leaving": "discharged",
        "sign_with_mark": "n",
        "notes": "blk"
    },
    {
        "id": "vtls004624857_1_16",
        "type": "sailor",
        "parent": "vtls004624857",
        "name": "joseph price",
        "dob": "blk",
        "age": "24",
        "place_of_birth": "newport",
        "home_address": "blk",
        "f": "blk",
        "name_of_ship": "british envoy",
        "ship_port": "liverpool",
        "date_leaving": "1867-02",
        "joined_ship_date": "1867-08-29",
        "joined_at_port": "liverpool",
        "capacity": "able seaman",
        "date_left": "1867-09-17",
        "left_port": "aberystwyth",
        "cause_of_leaving": "discharged",
        "sign_with_mark": "n",
        "notes": "blk"
    },
    {
        "id": "vtls004624857_1_18",
        "type": "sailor",
        "parent": "vtls004624857",
        "name": "john albert jones",
        "dob": "blk",
        "age": "17",
        "place_of_birth": "liverpool",
        "home_address": "blk",
        "f": "blk",
        "name_of_ship": "lion",
        "ship_port": "liverpool",
        "date_leaving": "1867",
        "joined_ship_date": "1867-08-29",
        "joined_at_port": "liverpool",
        "capacity": "ordinary seaman",
        "date_left": "1867-09-17",
        "left_port": "aberystwyth",
        "cause_of_leaving": "discharged",
        "sign_with_mark": "n",
        "notes": "blk"
    },
    {
        "id": "vtls004624857_1_14",
        "type": "sailor",
        "parent": "vtls004624857",
        "name": "evan james",
        "dob": "blk",
        "age": "45",
        "place_of_birth": "aberystwyth",
        "home_address": "blk",
        "f": "blk",
        "name_of_ship": "[burncoose]",
        "ship_port": "aberystwyth",
        "date_leaving": "1867-04",
        "joined_ship_date": "1867-08-29",
        "joined_at_port": "liverpool",
        "capacity": "boatswain",
        "date_left": "1867-09-17",
        "left_port": "aberystwyth",
        "cause_of_leaving": "discharged",
        "sign_with_mark": "n",
        "notes": "blk"
    },
    {
        "id": "vtls004624857_1_17",
        "type": "sailor",
        "parent": "vtls004624857",
        "name": "james anderson",
        "dob": "blk",
        "age": "23",
        "place_of_birth": "london",
        "home_address": "blk",
        "f": "blk",
        "name_of_ship": "[foster]",
        "ship_port": "falmouth",
        "date_leaving": "1867-04",
        "joined_ship_date": "1867-08-29",
        "joined_at_port": "liverpool",
        "capacity": "able seaman",
        "date_left": "1867-09-17",
        "left_port": "aberystwyth",
        "cause_of_leaving": "discharged",
        "sign_with_mark": "n",
        "notes": "blk"
    },
    {
        "id": "vtls004624857_1_15",
        "type": "sailor",
        "parent": "vtls004624857",
        "name": "james tracey",
        "dob": "blk",
        "age": "25",
        "place_of_birth": "$",
        "home_address": "blk",
        "f": "blk",
        "name_of_ship": "evangeline",
        "ship_port": "[liverpool]",
        "date_leaving": "1867-04",
        "joined_ship_date": "1867-08-29",
        "joined_at_port": "liverpool",
        "capacity": "able seaman",
        "date_left": "1867-09-17",
        "left_port": "aberystwyth",
        "cause_of_leaving": "discharged",
        "sign_with_mark": "n",
        "notes": "blk"
    },
    {
        "id": "vtls004624857_1_12",
        "type": "sailor",
        "parent": "vtls004624857",
        "name": "william bowen",
        "dob": "blk",
        "age": "38",
        "place_of_birth": "aberystwyth",
        "home_address": "blk",
        "f": "blk",
        "name_of_ship": "battus",
        "ship_port": "aberystwyth",
        "date_leaving": "1867-03",
        "joined_ship_date": "1867-04-29",
        "joined_at_port": "liverpool",
        "capacity": "mate",
        "date_left": "1867-09-17",
        "left_port": "aberystwyth",
        "cause_of_leaving": "discharged",
        "sign_with_mark": "n",
        "notes": "blk"
    },
    {
        "id": "vtls004624857_1_19",
        "type": "sailor",
        "parent": "vtls004624857",
        "name": "john ryan",
        "dob": "blk",
        "age": "22",
        "place_of_birth": "cork",
        "home_address": "blk",
        "f": "blk",
        "name_of_ship": "[balcamac]",
        "ship_port": "liverpool",
        "date_leaving": "1867-04",
        "joined_ship_date": "1867-08-29",
        "joined_at_port": "liverpool",
        "capacity": "ordinary seaman",
        "date_left": "blk",
        "left_port": "blk",
        "cause_of_leaving": "not on board",
        "sign_with_mark": "n",
        "notes": "did not join"
    },
    {
        "id": "vtls004624857_1_13",
        "type": "sailor",
        "parent": "vtls004624857",
        "name": "william evans",
        "dob": "blk",
        "age": "23",
        "place_of_birth": "aberystwyth",
        "home_address": "blk",
        "f": "blk",
        "name_of_ship": "first voyage",
        "ship_port": "blk",
        "date_leaving": "blk",
        "joined_ship_date": "1867-04-29",
        "joined_at_port": "liverpool",
        "capacity": "$",
        "date_left": "1867-09-17",
        "left_port": "aberystwyth",
        "cause_of_leaving": "discharged",
        "sign_with_mark": "y",
        "notes": "blk"
    },
    {
        "id": "vtls004624857_1_11",
        "type": "sailor",
        "parent": "vtls004624857",
        "name": "william clayton",
        "dob": "blk",
        "age": "25",
        "place_of_birth": "aberystwyth",
        "home_address": "blk",
        "f": "blk",
        "name_of_ship": "ystwyth",
        "ship_port": "aberystwyth",
        "date_leaving": "1867-02",
        "joined_ship_date": "blk",
        "joined_at_port": "blk",
        "capacity": "master",
        "date_left": "blk",
        "left_port": "blk",
        "cause_of_leaving": "remains on board",
        "sign_with_mark": "n",
        "notes": "blk"
    },
    {
        "id": "vtls004625014_0_15",
        "type": "sailor",
        "parent": "vtls004625014",
        "name": "william botwood",
        "dob": "blk",
        "age": "60",
        "place_of_birth": "aberystwyth",
        "home_address": "blk",
        "f": "blk",
        "name_of_ship": "battus",
        "ship_port": "aberystwyth",
        "date_leaving": "1869-04",
        "joined_ship_date": "1869-04-26",
        "joined_at_port": "liverpool",
        "capacity": "cook & steward",
        "date_left": "1869-07-21",
        "left_port": "grangemouth",
        "cause_of_leaving": "discharged",
        "sign_with_mark": "n",
        "notes": "blk"
    },
    {
        "id": "vtls004625014_0_13",
        "type": "sailor",
        "parent": "vtls004625014",
        "name": "william griffiths",
        "dob": "blk",
        "age": "28",
        "place_of_birth": "aberystwyth",
        "home_address": "blk",
        "f": "blk",
        "name_of_ship": "mary jane",
        "ship_port": "padstow",
        "date_leaving": "1869-10",
        "joined_ship_date": "1869-04-26",
        "joined_at_port": "liverpool",
        "capacity": "boatswain",
        "date_left": "1869-07-21",
        "left_port": "grangemouth",
        "cause_of_leaving": "discharged",
        "sign_with_mark": "n",
        "notes": "blk"
    },
    {
        "id": "vtls004625014_0_16",
        "type": "sailor",
        "parent": "vtls004625014",
        "name": "henry evans",
        "dob": "blk",
        "age": "22",
        "place_of_birth": "aberystwyth",
        "home_address": "blk",
        "f": "blk",
        "name_of_ship": "alice",
        "ship_port": "aberystwyth",
        "date_leaving": "1869-11",
        "joined_ship_date": "1869-04-26",
        "joined_at_port": "liverpool",
        "capacity": "able seaman",
        "date_left": "1869-07-21",
        "left_port": "grangemouth",
        "cause_of_leaving": "discharged",
        "sign_with_mark": "n",
        "notes": "blk"
    },
    {
        "id": "vtls004624857_1_20",
        "type": "sailor",
        "parent": "vtls004624857",
        "name": "harry joseph",
        "dob": "blk",
        "age": "17",
        "place_of_birth": "france",
        "home_address": "blk",
        "f": "blk",
        "name_of_ship": "american ship",
        "ship_port": "blk",
        "date_leaving": "blk",
        "joined_ship_date": "1867-05-03",
        "joined_at_port": "liverpool",
        "capacity": "ordinary seaman",
        "date_left": "1867-09-17",
        "left_port": "aberystwyth",
        "cause_of_leaving": "discharged",
        "sign_with_mark": "n",
        "notes": "blk"
    },
    {
        "id": "vtls004625014_0_14",
        "type": "sailor",
        "parent": "vtls004625014",
        "name": "richard lewis",
        "dob": "blk",
        "age": "29",
        "place_of_birth": "aberystwyth",
        "home_address": "blk",
        "f": "blk",
        "name_of_ship": "first voyage",
        "ship_port": "blk",
        "date_leaving": "blk",
        "joined_ship_date": "1869-04-26",
        "joined_at_port": "liverpool",
        "capacity": "carpenter",
        "date_left": "1869-07-21",
        "left_port": "grangemouth",
        "cause_of_leaving": "discharged",
        "sign_with_mark": "n",
        "notes": "blk"
    },
    {
        "id": "vtls004625014_0_12",
        "type": "sailor",
        "parent": "vtls004625014",
        "name": "lewis davies",
        "dob": "blk",
        "age": "24",
        "place_of_birth": "aberystwyth",
        "home_address": "blk",
        "f": "blk",
        "name_of_ship": "battus",
        "ship_port": "aberystwyth",
        "date_leaving": "1869-04",
        "joined_ship_date": "1869-04-26",
        "joined_at_port": "liverpool",
        "capacity": "mate",
        "date_left": "1869-07-21",
        "left_port": "grangemouth",
        "cause_of_leaving": "discharged",
        "sign_with_mark": "n",
        "notes": "blk"
    },
    {
        "id": "vtls004625014_0_11",
        "type": "sailor",
        "parent": "vtls004625014",
        "name": "evan jones",
        "dob": "blk",
        "age": "33",
        "place_of_birth": "aberystwyth",
        "home_address": "blk",
        "f": "blk",
        "name_of_ship": "battus",
        "ship_port": "aberystwyth",
        "date_leaving": "remains",
        "joined_ship_date": "blk",
        "joined_at_port": "blk",
        "capacity": "master",
        "date_left": "blk",
        "left_port": "blk",
        "cause_of_leaving": "continues",
        "sign_with_mark": "n",
        "notes": "blk"
    },
    {
        "id": "vtls004625014_0_21",
        "type": "sailor",
        "parent": "vtls004625014",
        "name": "carl kraty",
        "dob": "blk",
        "age": "19",
        "place_of_birth": "memel",
        "home_address": "blk",
        "f": "blk",
        "name_of_ship": "anniversary",
        "ship_port": "blk",
        "date_leaving": "1869-04",
        "joined_ship_date": "1869-06-25",
        "joined_at_port": "windsor",
        "capacity": "ordinary seaman",
        "date_left": "1869-07-24",
        "left_port": "grangemouth",
        "cause_of_leaving": "discharged",
        "sign_with_mark": "n",
        "notes": "signed on as a replacement for t. holz"
    },
    {
        "id": "vtls004625014_0_19",
        "type": "sailor",
        "parent": "vtls004625014",
        "name": "david owens",
        "dob": "blk",
        "age": "17",
        "place_of_birth": "aberystwyth",
        "home_address": "blk",
        "f": "blk",
        "name_of_ship": "william & mary",
        "ship_port": "aberystwyth",
        "date_leaving": "1869-02",
        "joined_ship_date": "1869-04-26",
        "joined_at_port": "liverpool",
        "capacity": "ordinary seaman",
        "date_left": "1869-07-21",
        "left_port": "grangemouth",
        "cause_of_leaving": "discharged",
        "sign_with_mark": "n",
        "notes": "blk"
    },
    {
        "id": "vtls004625014_0_18",
        "type": "sailor",
        "parent": "vtls004625014",
        "name": "thomas daniel",
        "dob": "blk",
        "age": "22",
        "place_of_birth": "aberystwyth",
        "home_address": "blk",
        "f": "blk",
        "name_of_ship": "mary jones",
        "ship_port": "aberystwyth",
        "date_leaving": "1869-12",
        "joined_ship_date": "1869-04-26",
        "joined_at_port": "liverpool",
        "capacity": "ordinary seaman",
        "date_left": "1869-07-21",
        "left_port": "grangemouth",
        "cause_of_leaving": "discharged",
        "sign_with_mark": "n",
        "notes": "blk"
    },
    {
        "id": "vtls004625014_1_14",
        "type": "sailor",
        "parent": "vtls004625014",
        "name": "william botwood",
        "dob": "blk",
        "age": "60",
        "place_of_birth": "aberystwyth",
        "home_address": "blk",
        "f": "blk",
        "name_of_ship": "battus",
        "ship_port": "aberystwyth",
        "date_leaving": "1869-07-21",
        "joined_ship_date": "1869-07-29",
        "joined_at_port": "alloa",
        "capacity": "cook & steward",
        "date_left": "1869-11-19",
        "left_port": "aberystwyth",
        "cause_of_leaving": "discharged",
        "sign_with_mark": "n",
        "notes": "blk"
    },
    {
        "id": "vtls004625014_1_13",
        "type": "sailor",
        "parent": "vtls004625014",
        "name": "william griffiths",
        "dob": "blk",
        "age": "28",
        "place_of_birth": "aberystwyth",
        "home_address": "blk",
        "f": "blk",
        "name_of_ship": "battus",
        "ship_port": "aberystwyth",
        "date_leaving": "1869-07-21",
        "joined_ship_date": "1869-07-29",
        "joined_at_port": "alloa",
        "capacity": "boatswain",
        "date_left": "1869-11-19",
        "left_port": "aberystwyth",
        "cause_of_leaving": "discharged",
        "sign_with_mark": "n",
        "notes": "blk"
    },
    {
        "id": "vtls004625014_0_17",
        "type": "sailor",
        "parent": "vtls004625014",
        "name": "benjamin blake",
        "dob": "blk",
        "age": "22",
        "place_of_birth": "rocherford",
        "home_address": "blk",
        "f": "blk",
        "name_of_ship": "rhone",
        "ship_port": "liverpool",
        "date_leaving": "1869-01",
        "joined_ship_date": "1869-04-26",
        "joined_at_port": "liverpool",
        "capacity": "able seaman",
        "date_left": "1869-06-24",
        "left_port": "windsor",
        "cause_of_leaving": "discharged",
        "sign_with_mark": "y",
        "notes": "blk"
    },
    {
        "id": "vtls004625014_1_15",
        "type": "sailor",
        "parent": "vtls004625014",
        "name": "t coplawn",
        "dob": "blk",
        "age": "39",
        "place_of_birth": "aberdeen",
        "home_address": "blk",
        "f": "blk",
        "name_of_ship": "venture",
        "ship_port": "aberdeen",
        "date_leaving": "1869-06-14",
        "joined_ship_date": "1869-07-29",
        "joined_at_port": "alloa",
        "capacity": "able seaman",
        "date_left": "1869-11-19",
        "left_port": "aberystwyth",
        "cause_of_leaving": "discharged",
        "sign_with_mark": "n",
        "notes": "blk"
    },
    {
        "id": "vtls004625014_1_16",
        "type": "sailor",
        "parent": "vtls004625014",
        "name": "k guretsky",
        "dob": "blk",
        "age": "27",
        "place_of_birth": "heligoland",
        "home_address": "blk",
        "f": "blk",
        "name_of_ship": "nave",
        "ship_port": "dundee",
        "date_leaving": "1869-07-15",
        "joined_ship_date": "1869-07-29",
        "joined_at_port": "alloa",
        "capacity": "able seaman",
        "date_left": "1869-11-19",
        "left_port": "aberystwyth",
        "cause_of_leaving": "discharged",
        "sign_with_mark": "n",
        "notes": "blk"
    },
    {
        "id": "vtls004625014_0_20",
        "type": "sailor",
        "parent": "vtls004625014",
        "name": "t holz",
        "dob": "blk",
        "age": "22",
        "place_of_birth": "rostock",
        "home_address": "blk",
        "f": "blk",
        "name_of_ship": "fran sophie",
        "ship_port": "blk",
        "date_leaving": "1869-06-01",
        "joined_ship_date": "1869-06-24",
        "joined_at_port": "windsor",
        "capacity": "ordinary seaman",
        "date_left": "1869-06-25",
        "left_port": "windsor",
        "cause_of_leaving": "deserted",
        "sign_with_mark": "n",
        "notes": "blk"
    },
    {
        "id": "vtls004625014_1_11",
        "type": "sailor",
        "parent": "vtls004625014",
        "name": "evan jones",
        "dob": "blk",
        "age": "33",
        "place_of_birth": "aberystwyth",
        "home_address": "blk",
        "f": "blk",
        "name_of_ship": "battus",
        "ship_port": "aberystwyth",
        "date_leaving": "continued",
        "joined_ship_date": "blk",
        "joined_at_port": "blk",
        "capacity": "master",
        "date_left": "blk",
        "left_port": "blk",
        "cause_of_leaving": "remains on board",
        "sign_with_mark": "n",
        "notes": "blk"
    },
    {
        "id": "vtls004625014_1_18",
        "type": "sailor",
        "parent": "vtls004625014",
        "name": "carles kraty",
        "dob": "blk",
        "age": "17",
        "place_of_birth": "messel",
        "home_address": "blk",
        "f": "blk",
        "name_of_ship": "battus",
        "ship_port": "aberystwyth",
        "date_leaving": "1869-07-21",
        "joined_ship_date": "1869-07-29",
        "joined_at_port": "alloa",
        "capacity": "ordinary seaman",
        "date_left": "1869-11-19",
        "left_port": "aberystwyth",
        "cause_of_leaving": "discharged",
        "sign_with_mark": "n",
        "notes": "blk"
    },
    {
        "id": "vtls004625014_1_17",
        "type": "sailor",
        "parent": "vtls004625014",
        "name": "pete johnson",
        "dob": "blk",
        "age": "31",
        "place_of_birth": "sweden",
        "home_address": "blk",
        "f": "blk",
        "name_of_ship": "vicksburg",
        "ship_port": "glasgow",
        "date_leaving": "1869-10-16",
        "joined_ship_date": "1869-07-29",
        "joined_at_port": "alloa",
        "capacity": "able seaman",
        "date_left": "1869-11-19",
        "left_port": "aberystwyth",
        "cause_of_leaving": "discharged",
        "sign_with_mark": "n",
        "notes": "blk"
    },
    {
        "id": "vtls004625093_0_15",
        "type": "sailor",
        "parent": "vtls004625093",
        "name": "john davies",
        "dob": "blk",
        "age": "20",
        "place_of_birth": "dungarvan",
        "home_address": "blk",
        "f": "blk",
        "name_of_ship": "bridget",
        "ship_port": "dungarvon",
        "date_leaving": "1870-08-28",
        "joined_ship_date": "1870-08-28",
        "joined_at_port": "dungarvon",
        "capacity": "able seaman",
        "date_left": "1870-09-09",
        "left_port": "miford",
        "cause_of_leaving": "discharged",
        "sign_with_mark": "n",
        "notes": "blk"
    },
    {
        "id": "vtls004625093_0_14",
        "type": "sailor",
        "parent": "vtls004625093",
        "name": "patrick hunt",
        "dob": "blk",
        "age": "40",
        "place_of_birth": "dungarvan",
        "home_address": "blk",
        "f": "blk",
        "name_of_ship": "ellen",
        "ship_port": "dungarvon",
        "date_leaving": "1870-08-25",
        "joined_ship_date": "1870-08-28",
        "joined_at_port": "dungarvon",
        "capacity": "able seaman",
        "date_left": "1870-09-09",
        "left_port": "miford",
        "cause_of_leaving": "discharged",
        "sign_with_mark": "n",
        "notes": "blk"
    },
    {
        "id": "vtls004625093_0_13",
        "type": "sailor",
        "parent": "vtls004625093",
        "name": "thomas roberts",
        "dob": "blk",
        "age": "20",
        "place_of_birth": "rhyl",
        "home_address": "blk",
        "f": "blk",
        "name_of_ship": "battus",
        "ship_port": "aberystwyth",
        "date_leaving": "continued",
        "joined_ship_date": "1870-08-28",
        "joined_at_port": "dungarvon",
        "capacity": "able seaman",
        "date_left": "blk",
        "left_port": "blk",
        "cause_of_leaving": "remains on board",
        "sign_with_mark": "n",
        "notes": "blk"
    },
    {
        "id": "vtls004625093_0_16",
        "type": "sailor",
        "parent": "vtls004625093",
        "name": "michael",
        "dob": "blk",
        "age": "19",
        "place_of_birth": "dungarvan",
        "home_address": "blk",
        "f": "blk",
        "name_of_ship": "bridget",
        "ship_port": "dungarvon",
        "date_leaving": "1870-08-28",
        "joined_ship_date": "1870-08-28",
        "joined_at_port": "dungarvon",
        "capacity": "able seaman",
        "date_left": "1870-09-09",
        "left_port": "miford",
        "cause_of_leaving": "discharged",
        "sign_with_mark": "n",
        "notes": "blk"
    },
    {
        "id": "vtls004625093_0_11",
        "type": "sailor",
        "parent": "vtls004625093",
        "name": "evan jones",
        "dob": "blk",
        "age": "34",
        "place_of_birth": "aberystwyth",
        "home_address": "blk",
        "f": "blk",
        "name_of_ship": "battus",
        "ship_port": "aberystwyth",
        "date_leaving": "continued",
        "joined_ship_date": "1868-04-13",
        "joined_at_port": "aberystwyth",
        "capacity": "master",
        "date_left": "blk",
        "left_port": "blk",
        "cause_of_leaving": "remains on board",
        "sign_with_mark": "n",
        "notes": "blk"
    },
    {
        "id": "vtls004625093_1_19",
        "type": "sailor",
        "parent": "vtls004625093",
        "name": "william jones",
        "dob": "blk",
        "age": "29",
        "place_of_birth": "aberystwyth",
        "home_address": "blk",
        "f": "blk",
        "name_of_ship": "prince of wales",
        "ship_port": "portmadoc",
        "date_leaving": "1870",
        "joined_ship_date": "1870-04-28",
        "joined_at_port": "cardiff",
        "capacity": "ordinary seaman",
        "date_left": "1870-08-27",
        "left_port": "dungarvan",
        "cause_of_leaving": "discharged",
        "sign_with_mark": "y",
        "notes": "blk"
    },
    {
        "id": "vtls004625093_1_18",
        "type": "sailor",
        "parent": "vtls004625093",
        "name": "thomas williams",
        "dob": "blk",
        "age": "28",
        "place_of_birth": "aberystwyth",
        "home_address": "blk",
        "f": "blk",
        "name_of_ship": "william & mary",
        "ship_port": "aberystwyth",
        "date_leaving": "1870",
        "joined_ship_date": "1870-04-28",
        "joined_at_port": "cardiff",
        "capacity": "ordinary seaman",
        "date_left": "1870-08-27",
        "left_port": "dungarvan",
        "cause_of_leaving": "discharged",
        "sign_with_mark": "n",
        "notes": "blk"
    },
    {
        "id": "vtls004625093_1_14",
        "type": "sailor",
        "parent": "vtls004625093",
        "name": "john jones",
        "dob": "blk",
        "age": "17",
        "place_of_birth": "aberystwyth",
        "home_address": "blk",
        "f": "blk",
        "name_of_ship": "john william",
        "ship_port": "aberystwyth",
        "date_leaving": "1870",
        "joined_ship_date": "1870-04-29",
        "joined_at_port": "cardiff",
        "capacity": "able seaman",
        "date_left": "blk",
        "left_port": "cardiff",
        "cause_of_leaving": "discharged - not competent",
        "sign_with_mark": "n",
        "notes": "blk"
    },
    {
        "id": "vtls004625093_1_17",
        "type": "sailor",
        "parent": "vtls004625093",
        "name": "george howell",
        "dob": "blk",
        "age": "27",
        "place_of_birth": "carmarthen",
        "home_address": "blk",
        "f": "blk",
        "name_of_ship": "john & ann",
        "ship_port": "aberystwyth",
        "date_leaving": "1870",
        "joined_ship_date": "1870-04-29",
        "joined_at_port": "cardiff",
        "capacity": "able seaman",
        "date_left": "1870-08-27",
        "left_port": "dungarvan",
        "cause_of_leaving": "discharged",
        "sign_with_mark": "n",
        "notes": "blk"
    },
    {
        "id": "vtls004625093_1_16",
        "type": "sailor",
        "parent": "vtls004625093",
        "name": "william botwood",
        "dob": "blk",
        "age": "35",
        "place_of_birth": "aberystwyth",
        "home_address": "blk",
        "f": "blk",
        "name_of_ship": "john & ann",
        "ship_port": "aberystwyth",
        "date_leaving": "1870",
        "joined_ship_date": "1870-04-29",
        "joined_at_port": "cardiff",
        "capacity": "able seaman",
        "date_left": "1870-08-27",
        "left_port": "dungarvan",
        "cause_of_leaving": "discharged",
        "sign_with_mark": "n",
        "notes": "blk"
    },
    {
        "id": "vtls004625093_1_15",
        "type": "sailor",
        "parent": "vtls004625093",
        "name": "thomas daniel",
        "dob": "blk",
        "age": "23",
        "place_of_birth": "aberystwyth",
        "home_address": "blk",
        "f": "blk",
        "name_of_ship": "truant",
        "ship_port": "aberystwyth",
        "date_leaving": "1870",
        "joined_ship_date": "1870-04-28",
        "joined_at_port": "cardiff",
        "capacity": "able seaman",
        "date_left": "1870-08-27",
        "left_port": "dungarvan",
        "cause_of_leaving": "discharged",
        "sign_with_mark": "n",
        "notes": "blk"
    },
    {
        "id": "vtls004625093_1_20",
        "type": "sailor",
        "parent": "vtls004625093",
        "name": "william williams",
        "dob": "blk",
        "age": "34",
        "place_of_birth": "aberystwyth",
        "home_address": "blk",
        "f": "blk",
        "name_of_ship": "[sedulom]",
        "ship_port": "portmadoc",
        "date_leaving": "1870",
        "joined_ship_date": "1870-05-04",
        "joined_at_port": "cardiff",
        "capacity": "cook & steward",
        "date_left": "blk",
        "left_port": "luchee",
        "cause_of_leaving": "deserted",
        "sign_with_mark": "n",
        "notes": "blk"
    },
    {
        "id": "vtls004625093_1_12",
        "type": "sailor",
        "parent": "vtls004625093",
        "name": "william griffiths",
        "dob": "blk",
        "age": "30",
        "place_of_birth": "aberystwyth",
        "home_address": "blk",
        "f": "blk",
        "name_of_ship": "battus",
        "ship_port": "aberystwyth",
        "date_leaving": "1870",
        "joined_ship_date": "1870-04-28",
        "joined_at_port": "cardiff",
        "capacity": "mate",
        "date_left": "1870-08-17",
        "left_port": "dungarvan",
        "cause_of_leaving": "discharged",
        "sign_with_mark": "n",
        "notes": "blk"
    },
    {
        "id": "vtls004625093_0_17",
        "type": "sailor",
        "parent": "vtls004625093",
        "name": "james tevy",
        "dob": "blk",
        "age": "33",
        "place_of_birth": "dungarvan",
        "home_address": "blk",
        "f": "blk",
        "name_of_ship": "victory",
        "ship_port": "blk",
        "date_leaving": "1870-08-28",
        "joined_ship_date": "1870-08-28",
        "joined_at_port": "dungarvon",
        "capacity": "able seaman",
        "date_left": "1870-09-09",
        "left_port": "miford",
        "cause_of_leaving": "discharged",
        "sign_with_mark": "n",
        "notes": "blk"
    },
    {
        "id": "vtls004625093_1_11",
        "type": "sailor",
        "parent": "vtls004625093",
        "name": "evan jones",
        "dob": "blk",
        "age": "35",
        "place_of_birth": "aberystwyth",
        "home_address": "blk",
        "f": "blk",
        "name_of_ship": "battus",
        "ship_port": "aberystwyth",
        "date_leaving": "1870",
        "joined_ship_date": "1870-04-28",
        "joined_at_port": "cardiff",
        "capacity": "master",
        "date_left": "blk",
        "left_port": "blk",
        "cause_of_leaving": "remains on board",
        "sign_with_mark": "n",
        "notes": "blk"
    },
    {
        "id": "vtls004625129_0_17",
        "type": "sailor",
        "parent": "vtls004625129",
        "name": "thomas james",
        "dob": "blk",
        "age": "44",
        "place_of_birth": "haverfordwest",
        "home_address": "blk",
        "f": "blk",
        "name_of_ship": "may queen",
        "ship_port": "london",
        "date_leaving": "1870-",
        "joined_ship_date": "1870-11-08",
        "joined_at_port": "cardiff",
        "capacity": "able seaman",
        "date_left": "1871-03-08",
        "left_port": "london",
        "cause_of_leaving": "discharged",
        "sign_with_mark": "n",
        "notes": "blk"
    },
    {
        "id": "vtls004625129_0_15",
        "type": "sailor",
        "parent": "vtls004625129",
        "name": "jeffory searle",
        "dob": "blk",
        "age": "27",
        "place_of_birth": "bruxham",
        "home_address": "blk",
        "f": "blk",
        "name_of_ship": "spruce bud",
        "ship_port": "london",
        "date_leaving": "1870-",
        "joined_ship_date": "1870-11-08",
        "joined_at_port": "cardiff",
        "capacity": "able seaman",
        "date_left": "1871-03-08",
        "left_port": "london",
        "cause_of_leaving": "discharged",
        "sign_with_mark": "n",
        "notes": "blk"
    },
    {
        "id": "vtls004625093_1_21",
        "type": "sailor",
        "parent": "vtls004625093",
        "name": "thomas roberts",
        "dob": "blk",
        "age": "20",
        "place_of_birth": "rhyl",
        "home_address": "blk",
        "f": "blk",
        "name_of_ship": "messenger",
        "ship_port": "aberystwyth",
        "date_leaving": "1870",
        "joined_ship_date": "1870-07-15",
        "joined_at_port": "luchee",
        "capacity": "seaman",
        "date_left": "1870-08-27",
        "left_port": "dungarvan",
        "cause_of_leaving": "discharged",
        "sign_with_mark": "n",
        "notes": "blk"
    },
    {
        "id": "vtls004625129_0_16",
        "type": "sailor",
        "parent": "vtls004625129",
        "name": "thomas roberts",
        "dob": "blk",
        "age": "19",
        "place_of_birth": "rhyl",
        "home_address": "blk",
        "f": "blk",
        "name_of_ship": "battus",
        "ship_port": "aberystwyth",
        "date_leaving": "1870-",
        "joined_ship_date": "1870-11-08",
        "joined_at_port": "cardiff",
        "capacity": "able seaman",
        "date_left": "1871-03-08",
        "left_port": "london",
        "cause_of_leaving": "discharged",
        "sign_with_mark": "n",
        "notes": "blk"
    },
    {
        "id": "vtls004625129_0_14",
        "type": "sailor",
        "parent": "vtls004625129",
        "name": "john t clayton",
        "dob": "blk",
        "age": "24",
        "place_of_birth": "$",
        "home_address": "blk",
        "f": "blk",
        "name_of_ship": "salmon",
        "ship_port": "scilly",
        "date_leaving": "1870-",
        "joined_ship_date": "1870-11-08",
        "joined_at_port": "cardiff",
        "capacity": "cook & steward",
        "date_left": "1871-03-08",
        "left_port": "london",
        "cause_of_leaving": "discharged",
        "sign_with_mark": "n",
        "notes": "blk"
    },
    {
        "id": "vtls004625129_0_12",
        "type": "sailor",
        "parent": "vtls004625129",
        "name": "timothy davies",
        "dob": "blk",
        "age": "27",
        "place_of_birth": "newquay",
        "home_address": "blk",
        "f": "blk",
        "name_of_ship": "cycla",
        "ship_port": "new castle",
        "date_leaving": "1870-",
        "joined_ship_date": "1870-11-08",
        "joined_at_port": "cardiff",
        "capacity": "mate",
        "date_left": "1871-03-08",
        "left_port": "london",
        "cause_of_leaving": "discharged",
        "sign_with_mark": "n",
        "notes": "blk"
    },
    {
        "id": "vtls004625129_0_11",
        "type": "sailor",
        "parent": "vtls004625129",
        "name": "evan jones",
        "dob": "blk",
        "age": "35",
        "place_of_birth": "aberystwyth",
        "home_address": "blk",
        "f": "blk",
        "name_of_ship": "battus",
        "ship_port": "aberystwyth",
        "date_leaving": "1870-",
        "joined_ship_date": "1870-11-08",
        "joined_at_port": "cardiff",
        "capacity": "master",
        "date_left": "1871-03-08",
        "left_port": "blk",
        "cause_of_leaving": "continues",
        "sign_with_mark": "n",
        "notes": "blk"
    },
    {
        "id": "vtls004625129_0_19",
        "type": "sailor",
        "parent": "vtls004625129",
        "name": "patrick hennesy",
        "dob": "blk",
        "age": "16",
        "place_of_birth": "dungarvan",
        "home_address": "blk",
        "f": "blk",
        "name_of_ship": "battus",
        "ship_port": "aberystwyth",
        "date_leaving": "1870-",
        "joined_ship_date": "1870-11-08",
        "joined_at_port": "cardiff",
        "capacity": "ordinary seaman",
        "date_left": "1871-03-08",
        "left_port": "london",
        "cause_of_leaving": "discharged",
        "sign_with_mark": "n",
        "notes": "blk"
    },
    {
        "id": "vtls004625129_1_14",
        "type": "sailor",
        "parent": "vtls004625129",
        "name": "thomas richard",
        "dob": "blk",
        "age": "60",
        "place_of_birth": "newport",
        "home_address": "blk",
        "f": "blk",
        "name_of_ship": "new $",
        "ship_port": "miramichi ",
        "date_leaving": "1871",
        "joined_ship_date": "1871-04-19",
        "joined_at_port": "swansea",
        "capacity": "cook & steward",
        "date_left": "1871-08-23",
        "left_port": "aberystwyth",
        "cause_of_leaving": "discharged",
        "sign_with_mark": "n",
        "notes": "blk"
    },
    {
        "id": "vtls004625129_1_16",
        "type": "sailor",
        "parent": "vtls004625129",
        "name": "thomas james",
        "dob": "blk",
        "age": "21",
        "place_of_birth": "st dogmaels",
        "home_address": "blk",
        "f": "blk",
        "name_of_ship": "t. g. v.",
        "ship_port": "jersey",
        "date_leaving": "1871",
        "joined_ship_date": "1871-04-19",
        "joined_at_port": "swansea",
        "capacity": "able seaman",
        "date_left": "1871-08-23",
        "left_port": "aberystwyth",
        "cause_of_leaving": "discharged",
        "sign_with_mark": "n",
        "notes": "blk"
    },
    {
        "id": "vtls004625129_1_13",
        "type": "sailor",
        "parent": "vtls004625129",
        "name": "john griffiths",
        "dob": "blk",
        "age": "26",
        "place_of_birth": "cardigan",
        "home_address": "blk",
        "f": "blk",
        "name_of_ship": "xanthus",
        "ship_port": "aberdovey",
        "date_leaving": "1871",
        "joined_ship_date": "1871-04-19",
        "joined_at_port": "swansea",
        "capacity": "boatswain",
        "date_left": "1871-08-23",
        "left_port": "aberystwyth",
        "cause_of_leaving": "discharged",
        "sign_with_mark": "n",
        "notes": "blk"
    },
    {
        "id": "vtls004625129_0_18",
        "type": "sailor",
        "parent": "vtls004625129",
        "name": "john abbott",
        "dob": "blk",
        "age": "20",
        "place_of_birth": "bideford",
        "home_address": "blk",
        "f": "blk",
        "name_of_ship": "crimea",
        "ship_port": "arbroath",
        "date_leaving": "1870-",
        "joined_ship_date": "1870-11-08",
        "joined_at_port": "cardiff",
        "capacity": "ordinary seaman",
        "date_left": "1871-03-08",
        "left_port": "london",
        "cause_of_leaving": "discharged",
        "sign_with_mark": "n",
        "notes": "blk"
    },
    {
        "id": "vtls004625129_1_17",
        "type": "sailor",
        "parent": "vtls004625129",
        "name": "james davies",
        "dob": "blk",
        "age": "22",
        "place_of_birth": "newport",
        "home_address": "blk",
        "f": "blk",
        "name_of_ship": "j. m. j.",
        "ship_port": "swansea",
        "date_leaving": "1871",
        "joined_ship_date": "1871-04-19",
        "joined_at_port": "swansea",
        "capacity": "able seaman",
        "date_left": "1871-08-23",
        "left_port": "aberystwyth",
        "cause_of_leaving": "discharged",
        "sign_with_mark": "n",
        "notes": "blk"
    },
    {
        "id": "vtls004625129_1_15",
        "type": "sailor",
        "parent": "vtls004625129",
        "name": "david wallis",
        "dob": "blk",
        "age": "24",
        "place_of_birth": "dinas",
        "home_address": "blk",
        "f": "blk",
        "name_of_ship": "auburn",
        "ship_port": "sunderland",
        "date_leaving": "1870",
        "joined_ship_date": "1871-04-19",
        "joined_at_port": "swansea",
        "capacity": "able seaman",
        "date_left": "1871-04-24",
        "left_port": "swansea",
        "cause_of_leaving": "did not join",
        "sign_with_mark": "n",
        "notes": "blk"
    },
    {
        "id": "vtls004625129_1_12",
        "type": "sailor",
        "parent": "vtls004625129",
        "name": "thomas harries",
        "dob": "blk",
        "age": "50",
        "place_of_birth": "cardigan",
        "home_address": "blk",
        "f": "blk",
        "name_of_ship": "violet",
        "ship_port": " cardigan",
        "date_leaving": "1871",
        "joined_ship_date": "1871-04-19",
        "joined_at_port": "swansea",
        "capacity": "mate",
        "date_left": "1871-08-23",
        "left_port": "aberystwyth",
        "cause_of_leaving": "discharged",
        "sign_with_mark": "n",
        "notes": "blk"
    },
    {
        "id": "vtls004625129_1_18",
        "type": "sailor",
        "parent": "vtls004625129",
        "name": "john willcocks",
        "dob": "blk",
        "age": "23",
        "place_of_birth": "$",
        "home_address": "blk",
        "f": "blk",
        "name_of_ship": "maud",
        "ship_port": "swansea",
        "date_leaving": "1871",
        "joined_ship_date": "1871-04-19",
        "joined_at_port": "swansea",
        "capacity": "able seaman",
        "date_left": "1871-08-23",
        "left_port": "aberystwyth",
        "cause_of_leaving": "discharged",
        "sign_with_mark": "y",
        "notes": "blk"
    },
    {
        "id": "vtls004625129_1_11",
        "type": "sailor",
        "parent": "vtls004625129",
        "name": "evan jones",
        "dob": "blk",
        "age": "36",
        "place_of_birth": "aberystwyth",
        "home_address": "blk",
        "f": "blk",
        "name_of_ship": "battus",
        "ship_port": "aberystwyth",
        "date_leaving": "1871",
        "joined_ship_date": "1871-04-19",
        "joined_at_port": "swansea",
        "capacity": "master",
        "date_left": "blk",
        "left_port": "blk",
        "cause_of_leaving": "blk",
        "sign_with_mark": "n",
        "notes": "blk"
    },
    {
        "id": "vtls004625129_1_19",
        "type": "sailor",
        "parent": "vtls004625129",
        "name": "joshua griffiths",
        "dob": "blk",
        "age": "26",
        "place_of_birth": "st clears",
        "home_address": "blk",
        "f": "blk",
        "name_of_ship": "robin hood",
        "ship_port": "shoreham",
        "date_leaving": "1871",
        "joined_ship_date": "1871-04-24",
        "joined_at_port": "swansea",
        "capacity": "able seaman",
        "date_left": "1871-08-23",
        "left_port": "aberystwyth",
        "cause_of_leaving": "discharged",
        "sign_with_mark": "n",
        "notes": "blk"
    },
    {
        "id": "vtls004625393_0_14",
        "type": "sailor",
        "parent": "vtls004625393",
        "name": "john davies",
        "dob": "blk",
        "age": "55",
        "place_of_birth": "aberystwyth",
        "home_address": "blk",
        "f": "blk",
        "name_of_ship": "battus",
        "ship_port": "aberystwyth",
        "date_leaving": "continued",
        "joined_ship_date": "1873-01-14",
        "joined_at_port": "runcorn",
        "capacity": "cook & steward",
        "date_left": "1873-04-29",
        "left_port": "llanelli",
        "cause_of_leaving": "discharged",
        "sign_with_mark": "n",
        "notes": "blk"
    },
    {
        "id": "vtls004625393_0_15",
        "type": "sailor",
        "parent": "vtls004625393",
        "name": "john shilton",
        "dob": "blk",
        "age": "24",
        "place_of_birth": "plymouth",
        "home_address": "blk",
        "f": "blk",
        "name_of_ship": "battus",
        "ship_port": "aberystwyth",
        "date_leaving": "continued",
        "joined_ship_date": "1873-01-14",
        "joined_at_port": "runcorn",
        "capacity": "able seaman",
        "date_left": "1873-04-29",
        "left_port": "llanelli",
        "cause_of_leaving": "discharged",
        "sign_with_mark": "n",
        "notes": "blk"
    },
    {
        "id": "vtls004625393_0_17",
        "type": "sailor",
        "parent": "vtls004625393",
        "name": "john davies",
        "dob": "blk",
        "age": "26",
        "place_of_birth": "aberystwyth",
        "home_address": "blk",
        "f": "blk",
        "name_of_ship": "battus",
        "ship_port": "aberystwyth",
        "date_leaving": "continued",
        "joined_ship_date": "1873-01-14",
        "joined_at_port": "runcorn",
        "capacity": "able seaman",
        "date_left": "1873-04-29",
        "left_port": "llanelli",
        "cause_of_leaving": "discharged",
        "sign_with_mark": "n",
        "notes": "blk"
    },
    {
        "id": "vtls004625393_0_16",
        "type": "sailor",
        "parent": "vtls004625393",
        "name": "william pierce",
        "dob": "blk",
        "age": "23",
        "place_of_birth": "borth",
        "home_address": "blk",
        "f": "blk",
        "name_of_ship": "battus",
        "ship_port": "aberystwyth",
        "date_leaving": "continued",
        "joined_ship_date": "1873-01-14",
        "joined_at_port": "runcorn",
        "capacity": "able seaman",
        "date_left": "1873-04-29",
        "left_port": "llanelli",
        "cause_of_leaving": "discharged",
        "sign_with_mark": "n",
        "notes": "blk"
    },
    {
        "id": "vtls004625393_0_13",
        "type": "sailor",
        "parent": "vtls004625393",
        "name": "david d davies",
        "dob": "blk",
        "age": "42",
        "place_of_birth": "borth",
        "home_address": "blk",
        "f": "blk",
        "name_of_ship": "battus",
        "ship_port": "aberystwyth",
        "date_leaving": "continued",
        "joined_ship_date": "1873-01-14",
        "joined_at_port": "runcorn",
        "capacity": "boatswain",
        "date_left": "1873-04-29",
        "left_port": "llanelli",
        "cause_of_leaving": "discharged",
        "sign_with_mark": "n",
        "notes": "blk"
    },
    {
        "id": "vtls004625393_0_11",
        "type": "sailor",
        "parent": "vtls004625393",
        "name": "evan jones",
        "dob": "blk",
        "age": "35",
        "place_of_birth": "aberystwyth",
        "home_address": "blk",
        "f": "blk",
        "name_of_ship": "battus",
        "ship_port": "aberystwyth",
        "date_leaving": "continued",
        "joined_ship_date": "1873-01-14",
        "joined_at_port": "runcorn",
        "capacity": "master",
        "date_left": "blk",
        "left_port": "blk",
        "cause_of_leaving": "remains on board",
        "sign_with_mark": "n",
        "notes": "blk"
    },
    {
        "id": "vtls004625393_1_17",
        "type": "sailor",
        "parent": "vtls004625393",
        "name": "william jenkins",
        "dob": "blk",
        "age": "18",
        "place_of_birth": "borth",
        "home_address": "blk",
        "f": "blk",
        "name_of_ship": "sarah davies",
        "ship_port": "aberystwyth",
        "date_leaving": "1873",
        "joined_ship_date": "1873-05-28",
        "joined_at_port": "llanelly",
        "capacity": "ordinary seaman",
        "date_left": "1873-07-03",
        "left_port": "llanelli",
        "cause_of_leaving": "discharged",
        "sign_with_mark": "n",
        "notes": "blk"
    },
    {
        "id": "vtls004625393_1_16",
        "type": "sailor",
        "parent": "vtls004625393",
        "name": "john roberts",
        "dob": "blk",
        "age": "22",
        "place_of_birth": "aberystwyth",
        "home_address": "blk",
        "f": "blk",
        "name_of_ship": "glenalvon",
        "ship_port": "aberystwyth",
        "date_leaving": "1873",
        "joined_ship_date": "1873-05-27",
        "joined_at_port": "llanelly",
        "capacity": "able seaman",
        "date_left": "1873-07-03",
        "left_port": "llanelli",
        "cause_of_leaving": "discharged",
        "sign_with_mark": "n",
        "notes": "blk"
    },
    {
        "id": "vtls004625393_1_13",
        "type": "sailor",
        "parent": "vtls004625393",
        "name": "john davies",
        "dob": "blk",
        "age": "60",
        "place_of_birth": "aberystwyth",
        "home_address": "blk",
        "f": "blk",
        "name_of_ship": "battus",
        "ship_port": "aberystwyth",
        "date_leaving": "1873",
        "joined_ship_date": "1873-05-27",
        "joined_at_port": "llanelly",
        "capacity": "cook & steward",
        "date_left": "1873-07-03",
        "left_port": "llanelli",
        "cause_of_leaving": "discharged",
        "sign_with_mark": "y",
        "notes": "blk"
    },
    {
        "id": "vtls004625393_2_15",
        "type": "sailor",
        "parent": "vtls004625393",
        "name": "robert davies",
        "dob": "blk",
        "age": "34",
        "place_of_birth": "st clears",
        "home_address": "blk",
        "f": "blk",
        "name_of_ship": "lord rolle",
        "ship_port": "llanelly",
        "date_leaving": "1873",
        "joined_ship_date": "1873-07-19",
        "joined_at_port": "llanelly",
        "capacity": "able seaman",
        "date_left": "1873-11-20",
        "left_port": "appledoe",
        "cause_of_leaving": "paid off",
        "sign_with_mark": "y",
        "notes": "blk"
    },
    {
        "id": "vtls004625393_2_14",
        "type": "sailor",
        "parent": "vtls004625393",
        "name": "james gilmore",
        "dob": "blk",
        "age": "38",
        "place_of_birth": "llanelly",
        "home_address": "blk",
        "f": "blk",
        "name_of_ship": "brothers",
        "ship_port": "llanelly",
        "date_leaving": "1873",
        "joined_ship_date": "1873-07-15",
        "joined_at_port": "llanelly",
        "capacity": "cook & steward",
        "date_left": "1873-11-20",
        "left_port": "appledoe",
        "cause_of_leaving": "paid off",
        "sign_with_mark": "n",
        "notes": "blk"
    },
    {
        "id": "vtls004625393_1_14",
        "type": "sailor",
        "parent": "vtls004625393",
        "name": "john davies",
        "dob": "blk",
        "age": "27",
        "place_of_birth": "aberystwyth",
        "home_address": "blk",
        "f": "blk",
        "name_of_ship": "battus",
        "ship_port": "aberystwyth",
        "date_leaving": "1873",
        "joined_ship_date": "1873-05-27",
        "joined_at_port": "llanelly",
        "capacity": "able seaman",
        "date_left": "1873-07-03",
        "left_port": "llanelli",
        "cause_of_leaving": "discharged",
        "sign_with_mark": "n",
        "notes": "blk"
    },
    {
        "id": "vtls004625393_2_13",
        "type": "sailor",
        "parent": "vtls004625393",
        "name": "john jones",
        "dob": "blk",
        "age": "22",
        "place_of_birth": "carmarthen",
        "home_address": "blk",
        "f": "blk",
        "name_of_ship": "brothers",
        "ship_port": "llanelly",
        "date_leaving": "1873",
        "joined_ship_date": "1873-07-15",
        "joined_at_port": "llanelly",
        "capacity": "boatswain",
        "date_left": "1873-11-20",
        "left_port": "appledoe",
        "cause_of_leaving": "paid off",
        "sign_with_mark": "y",
        "notes": "blk"
    },
    {
        "id": "vtls004625393_2_11",
        "type": "sailor",
        "parent": "vtls004625393",
        "name": "evan lewis",
        "dob": "blk",
        "age": "34",
        "place_of_birth": "cardigan",
        "home_address": "blk",
        "f": "blk",
        "name_of_ship": "elizabeth moss",
        "ship_port": "fowey",
        "date_leaving": "1873",
        "joined_ship_date": "1873-07-15",
        "joined_at_port": "llanelly",
        "capacity": "master",
        "date_left": "blk",
        "left_port": "blk",
        "cause_of_leaving": "remains on board",
        "sign_with_mark": "n",
        "notes": "blk"
    },
    {
        "id": "vtls004625393_1_15",
        "type": "sailor",
        "parent": "vtls004625393",
        "name": "w w williams",
        "dob": "blk",
        "age": "20",
        "place_of_birth": "borth",
        "home_address": "blk",
        "f": "blk",
        "name_of_ship": "nola",
        "ship_port": "glasgow",
        "date_leaving": "1873",
        "joined_ship_date": "1873-05-27",
        "joined_at_port": "llanelly",
        "capacity": "able seaman",
        "date_left": "1873-07-03",
        "left_port": "llanelli",
        "cause_of_leaving": "discharged",
        "sign_with_mark": "n",
        "notes": "blk"
    },
    {
        "id": "vtls004625393_1_11",
        "type": "sailor",
        "parent": "vtls004625393",
        "name": "evan jones",
        "dob": "blk",
        "age": "35",
        "place_of_birth": "aberystwyth",
        "home_address": "blk",
        "f": "blk",
        "name_of_ship": "battus",
        "ship_port": "aberystwyth",
        "date_leaving": "continued",
        "joined_ship_date": "continued",
        "joined_at_port": "blk",
        "capacity": "master",
        "date_left": "blk",
        "left_port": "blk",
        "cause_of_leaving": "continued",
        "sign_with_mark": "n",
        "notes": "blk"
    },
    {
        "id": "vtls004625393_2_18",
        "type": "sailor",
        "parent": "vtls004625393",
        "name": "william george",
        "dob": "blk",
        "age": "18",
        "place_of_birth": "fishguard",
        "home_address": "blk",
        "f": "blk",
        "name_of_ship": "grafton",
        "ship_port": "llanelly",
        "date_leaving": "1873",
        "joined_ship_date": "1873-07-12",
        "joined_at_port": "llanelly",
        "capacity": "ordinary seaman",
        "date_left": "1873-11-20",
        "left_port": "appledoe",
        "cause_of_leaving": "paid off",
        "sign_with_mark": "n",
        "notes": "blk"
    },
    {
        "id": "vtls004625393_2_16",
        "type": "sailor",
        "parent": "vtls004625393",
        "name": "john shilton",
        "dob": "blk",
        "age": "24",
        "place_of_birth": "plymouth",
        "home_address": "blk",
        "f": "blk",
        "name_of_ship": "catherine",
        "ship_port": "llanelly",
        "date_leaving": "1873",
        "joined_ship_date": "1873-07-21",
        "joined_at_port": "llanelly",
        "capacity": "able seaman",
        "date_left": "1873-08-13",
        "left_port": "yarmouth",
        "cause_of_leaving": "deserted",
        "sign_with_mark": "n",
        "notes": "blk"
    },
    {
        "id": "vtls004625421_0_12",
        "type": "sailor",
        "parent": "vtls004625421",
        "name": "john michel",
        "dob": "blk",
        "age": "33",
        "place_of_birth": "aberaeron",
        "home_address": "blk",
        "f": "blk",
        "name_of_ship": "james gaddarn",
        "ship_port": "newport",
        "date_leaving": "1873-",
        "joined_ship_date": "1873-12-15",
        "joined_at_port": "cardiff",
        "capacity": "mate",
        "date_left": "1874-06-17",
        "left_port": "pwllheli",
        "cause_of_leaving": "paid off",
        "sign_with_mark": "n",
        "notes": "blk"
    },
    {
        "id": "vtls004625421_0_13",
        "type": "sailor",
        "parent": "vtls004625421",
        "name": "david james",
        "dob": "blk",
        "age": "29",
        "place_of_birth": "aberaeron",
        "home_address": "blk",
        "f": "blk",
        "name_of_ship": "joshua",
        "ship_port": "barrow",
        "date_leaving": "1873-",
        "joined_ship_date": "1873-12-17",
        "joined_at_port": "cardiff",
        "capacity": "boatswain",
        "date_left": "1874-06-17",
        "left_port": "pwllheli",
        "cause_of_leaving": "paid off",
        "sign_with_mark": "n",
        "notes": "blk"
    },
    {
        "id": "vtls004625393_2_17",
        "type": "sailor",
        "parent": "vtls004625393",
        "name": "daniel rees",
        "dob": "blk",
        "age": "32",
        "place_of_birth": "llanelly",
        "home_address": "blk",
        "f": "blk",
        "name_of_ship": "osprey",
        "ship_port": "llanelly",
        "date_leaving": "1873",
        "joined_ship_date": "1873-07-21",
        "joined_at_port": "llanelly",
        "capacity": "able seaman",
        "date_left": "1873-11-20",
        "left_port": "appledoe",
        "cause_of_leaving": "paid off",
        "sign_with_mark": "n",
        "notes": "blk"
    },
    {
        "id": "vtls004625393_2_19",
        "type": "sailor",
        "parent": "vtls004625393",
        "name": "walter murphy",
        "dob": "blk",
        "age": "21",
        "place_of_birth": "london",
        "home_address": "blk",
        "f": "blk",
        "name_of_ship": "[tris]",
        "ship_port": "sweden",
        "date_leaving": "1873",
        "joined_ship_date": "1873-09-27",
        "joined_at_port": "london",
        "capacity": "able seaman",
        "date_left": "1873-11-20",
        "left_port": "appledoe",
        "cause_of_leaving": "paid off",
        "sign_with_mark": "n",
        "notes": "blk"
    },
    {
        "id": "vtls004625421_0_11",
        "type": "sailor",
        "parent": "vtls004625421",
        "name": "evan lewis",
        "dob": "blk",
        "age": "34",
        "place_of_birth": "cardigan",
        "home_address": "blk",
        "f": "blk",
        "name_of_ship": "battus",
        "ship_port": "aberystwyth",
        "date_leaving": "1873-",
        "joined_ship_date": "1873-12-25",
        "joined_at_port": "cardiff",
        "capacity": "master",
        "date_left": "blk",
        "left_port": "blk",
        "cause_of_leaving": "remains on board",
        "sign_with_mark": "n",
        "notes": "blk"
    },
    {
        "id": "vtls004625421_1_14",
        "type": "sailor",
        "parent": "vtls004625421",
        "name": "evan williams",
        "dob": "blk",
        "age": "21",
        "place_of_birth": "cardiganshire",
        "home_address": "blk",
        "f": "blk",
        "name_of_ship": "heather bell",
        "ship_port": "new quay",
        "date_leaving": "1874",
        "joined_ship_date": "1874-07-01",
        "joined_at_port": "pwllheli",
        "capacity": "able seaman",
        "date_left": "1874-11-10",
        "left_port": "aberystwyth",
        "cause_of_leaving": "discharged",
        "sign_with_mark": "n",
        "notes": "blk"
    },
    {
        "id": "vtls004625421_1_13",
        "type": "sailor",
        "parent": "vtls004625421",
        "name": "john griffith",
        "dob": "blk",
        "age": "17",
        "place_of_birth": "pwllheli",
        "home_address": "blk",
        "f": "blk",
        "name_of_ship": "john davies",
        "ship_port": "portmadoc",
        "date_leaving": "1874",
        "joined_ship_date": "1874-07-01",
        "joined_at_port": "pwllheli",
        "capacity": "cook & steward",
        "date_left": "1874-11-10",
        "left_port": "aberystwyth",
        "cause_of_leaving": "discharged",
        "sign_with_mark": "n",
        "notes": "blk"
    },
    {
        "id": "vtls004625421_0_20",
        "type": "sailor",
        "parent": "vtls004625421",
        "name": "david williams",
        "dob": "blk",
        "age": "20",
        "place_of_birth": "aberaeron",
        "home_address": "blk",
        "f": "blk",
        "name_of_ship": "[nuie]",
        "ship_port": "new quay",
        "date_leaving": "1873-",
        "joined_ship_date": "1874-01-05",
        "joined_at_port": "cardiff",
        "capacity": "ordinary seaman",
        "date_left": "1764-06-17",
        "left_port": "pwllheli",
        "cause_of_leaving": "paid off",
        "sign_with_mark": "n",
        "notes": "blk"
    },
    {
        "id": "vtls004625421_0_18",
        "type": "sailor",
        "parent": "vtls004625421",
        "name": "thomas brignell",
        "dob": "blk",
        "age": "20",
        "place_of_birth": "liverpool",
        "home_address": "blk",
        "f": "blk",
        "name_of_ship": "richard & emily",
        "ship_port": "poole",
        "date_leaving": "1873-",
        "joined_ship_date": "1873-12-15",
        "joined_at_port": "cardiff",
        "capacity": "able seaman",
        "date_left": "1873-12-24",
        "left_port": "cardiff",
        "cause_of_leaving": "deserted",
        "sign_with_mark": "n",
        "notes": "blk"
    },
    {
        "id": "vtls004625421_0_15",
        "type": "sailor",
        "parent": "vtls004625421",
        "name": "daniel kimmery",
        "dob": "blk",
        "age": "24",
        "place_of_birth": "lunereek",
        "home_address": "blk",
        "f": "blk",
        "name_of_ship": "empress",
        "ship_port": "bideford",
        "date_leaving": "1873-",
        "joined_ship_date": "1873-12-13",
        "joined_at_port": "cardiff",
        "capacity": "able seaman",
        "date_left": "1874-06-17",
        "left_port": "pwllheli",
        "cause_of_leaving": "paid off",
        "sign_with_mark": "n",
        "notes": "blk"
    },
    {
        "id": "vtls004625421_0_16",
        "type": "sailor",
        "parent": "vtls004625421",
        "name": "thomas glavein",
        "dob": "blk",
        "age": "27",
        "place_of_birth": "youghal",
        "home_address": "blk",
        "f": "blk",
        "name_of_ship": "st patrick",
        "ship_port": "youghal",
        "date_leaving": "1873-",
        "joined_ship_date": "1873-12-15",
        "joined_at_port": "cardiff",
        "capacity": "able seaman",
        "date_left": "1874-06-17",
        "left_port": "pwllheli",
        "cause_of_leaving": "paid off",
        "sign_with_mark": "n",
        "notes": "blk"
    },
    {
        "id": "vtls004625421_0_19",
        "type": "sailor",
        "parent": "vtls004625421",
        "name": "george torder",
        "dob": "blk",
        "age": "18",
        "place_of_birth": "london",
        "home_address": "blk",
        "f": "blk",
        "name_of_ship": "maria",
        "ship_port": "waterford",
        "date_leaving": "1873-",
        "joined_ship_date": "1873-12-24",
        "joined_at_port": "cardiff",
        "capacity": "ordinary seaman",
        "date_left": "1874-01-05",
        "left_port": "cardiff",
        "cause_of_leaving": "discharged",
        "sign_with_mark": "n",
        "notes": "blk"
    },
    {
        "id": "vtls004625421_0_17",
        "type": "sailor",
        "parent": "vtls004625421",
        "name": "thomas eoghan",
        "dob": "blk",
        "age": "30",
        "place_of_birth": "london",
        "home_address": "blk",
        "f": "blk",
        "name_of_ship": "dalkeith",
        "ship_port": "greenock",
        "date_leaving": "1873-",
        "joined_ship_date": "1873-12-15",
        "joined_at_port": "cardiff",
        "capacity": "able seaman",
        "date_left": "1874-06-17",
        "left_port": "pwllheli",
        "cause_of_leaving": "paid off",
        "sign_with_mark": "n",
        "notes": "blk"
    },
    {
        "id": "vtls004625421_0_14",
        "type": "sailor",
        "parent": "vtls004625421",
        "name": "edward pitt",
        "dob": "blk",
        "age": "22",
        "place_of_birth": "churchaw",
        "home_address": "blk",
        "f": "blk",
        "name_of_ship": "$",
        "ship_port": "london",
        "date_leaving": "1873-",
        "joined_ship_date": "1873-12-17",
        "joined_at_port": "cardiff",
        "capacity": "cook & steward",
        "date_left": "1874-06-17",
        "left_port": "pwllheli",
        "cause_of_leaving": "paid off",
        "sign_with_mark": "n",
        "notes": "blk"
    },
    {
        "id": "vtls004625421_1_11",
        "type": "sailor",
        "parent": "vtls004625421",
        "name": "evan lewis",
        "dob": "blk",
        "age": "34",
        "place_of_birth": "cardiganshire",
        "home_address": "blk",
        "f": "blk",
        "name_of_ship": "battus",
        "ship_port": "aberystwyth",
        "date_leaving": "continued",
        "joined_ship_date": "continued",
        "joined_at_port": "blk",
        "capacity": "master",
        "date_left": "blk",
        "left_port": "blk",
        "cause_of_leaving": "remains on board",
        "sign_with_mark": "n",
        "notes": "blk"
    },
    {
        "id": "vtls004625421_1_18",
        "type": "sailor",
        "parent": "vtls004625421",
        "name": "roland williams",
        "dob": "blk",
        "age": "19",
        "place_of_birth": "carmarthenshire",
        "home_address": "blk",
        "f": "blk",
        "name_of_ship": "great britain",
        "ship_port": "portmadoc",
        "date_leaving": "1874",
        "joined_ship_date": "1874-07-01",
        "joined_at_port": "pwllheli",
        "capacity": "ordinary seaman",
        "date_left": "1874-11-10",
        "left_port": "aberystwyth",
        "cause_of_leaving": "discharged",
        "sign_with_mark": "n",
        "notes": "blk"
    },
    {
        "id": "vtls004625421_1_17",
        "type": "sailor",
        "parent": "vtls004625421",
        "name": "richard griffiths",
        "dob": "blk",
        "age": "24",
        "place_of_birth": "carmarthenshire",
        "home_address": "blk",
        "f": "blk",
        "name_of_ship": "amaranth",
        "ship_port": "liverpool",
        "date_leaving": "1874",
        "joined_ship_date": "1874-07-01",
        "joined_at_port": "pwllheli",
        "capacity": "able seaman",
        "date_left": "1874-11-10",
        "left_port": "aberystwyth",
        "cause_of_leaving": "discharged",
        "sign_with_mark": "n",
        "notes": "blk"
    },
    {
        "id": "vtls004625421_1_15",
        "type": "sailor",
        "parent": "vtls004625421",
        "name": "john jones",
        "dob": "blk",
        "age": "22",
        "place_of_birth": "cardiganshire",
        "home_address": "blk",
        "f": "blk",
        "name_of_ship": "minesota",
        "ship_port": "liverpool",
        "date_leaving": "1874",
        "joined_ship_date": "1874-07-01",
        "joined_at_port": "pwllheli",
        "capacity": "able seaman",
        "date_left": "1874-11-10",
        "left_port": "aberystwyth",
        "cause_of_leaving": "discharged",
        "sign_with_mark": "n",
        "notes": "blk"
    },
    {
        "id": "vtls004625421_1_16",
        "type": "sailor",
        "parent": "vtls004625421",
        "name": "owen roberts",
        "dob": "blk",
        "age": "22",
        "place_of_birth": "carmarthenshire",
        "home_address": "blk",
        "f": "blk",
        "name_of_ship": "[vinedocian]",
        "ship_port": "$",
        "date_leaving": "1874",
        "joined_ship_date": "1874-07-01",
        "joined_at_port": "pwllheli",
        "capacity": "able seaman",
        "date_left": "1874-11-10",
        "left_port": "aberystwyth",
        "cause_of_leaving": "discharged",
        "sign_with_mark": "n",
        "notes": "blk"
    }
]