[
    {
        "id": "vtls004633241_1_11",
        "type": "sailor",
        "parent": "vtls004633241",
        "name": "hugh theophilus",
        "dob": "blk",
        "age": "30",
        "place_of_birth": "aberystwyth",
        "home_address": "queen street aberystwyth",
        "f": "queen street aberystwyth",
        "name_of_ship": "caroline",
        "ship_port": "aberystwyth",
        "date_leaving": "remained on board",
        "joined_ship_date": "remained on board",
        "joined_at_port": "remained on board",
        "capacity": "master",
        "date_left": "1863-09-19",
        "left_port": "blk",
        "cause_of_leaving": "vessel lost",
        "sign_with_mark": "n",
        "notes": "vessel lost at ormes head en route from aberystwyth to bagills (chester river) with lead ore. crew saved."
    },
    {
        "id": "vtls004633241_0_11",
        "type": "sailor",
        "parent": "vtls004633241",
        "name": "hugh theophilus",
        "dob": "blk",
        "age": "30",
        "place_of_birth": "aberystwyth",
        "home_address": "$ aberystwyth",
        "f": "$ aberystwyth",
        "name_of_ship": "caroline",
        "ship_port": "aberystwyth",
        "date_leaving": "remained on board",
        "joined_ship_date": "1862-07-26",
        "joined_at_port": "aberystwyth",
        "capacity": "master",
        "date_left": "remains on board",
        "left_port": "remains on board",
        "cause_of_leaving": "remains on board",
        "sign_with_mark": "n",
        "notes": "from aberystwyth to barrow (ballast), newport (iron ore), aberystwyth (coals), carnarvon (ballast), swansea (slates) to liverpool (coals)"
    },
    {
        "id": "vtls004633241_0_12",
        "type": "sailor",
        "parent": "vtls004633241",
        "name": "thomas griffiths",
        "dob": "blk",
        "age": "19",
        "place_of_birth": "aberystwyth",
        "home_address": "blk",
        "f": "blk",
        "name_of_ship": "caroline",
        "ship_port": "aberystwyth",
        "date_leaving": "remained on board",
        "joined_ship_date": "1862-08-01",
        "joined_at_port": "aberystwyth",
        "capacity": "mate",
        "date_left": "remains on board",
        "left_port": "remains on board",
        "cause_of_leaving": "remains on board",
        "sign_with_mark": "n",
        "notes": "blk"
    },
    {
        "id": "vtls004633241_1_12",
        "type": "sailor",
        "parent": "vtls004633241",
        "name": "thomas griffiths",
        "dob": "blk",
        "age": "25",
        "place_of_birth": "aberystwyth",
        "home_address": "blk",
        "f": "blk",
        "name_of_ship": "caroline",
        "ship_port": "aberystwyth",
        "date_leaving": "remained on board",
        "joined_ship_date": "remained on board",
        "joined_at_port": "remained on board",
        "capacity": "mate",
        "date_left": "1863-09-19",
        "left_port": "blk",
        "cause_of_leaving": "vessel lost",
        "sign_with_mark": "n",
        "notes": "blk"
    },
    {
        "id": "vtls004633241_0_13",
        "type": "sailor",
        "parent": "vtls004633241",
        "name": "hugh jones",
        "dob": "blk",
        "age": "17",
        "place_of_birth": "aberystwyth",
        "home_address": "blk",
        "f": "blk",
        "name_of_ship": "maria",
        "ship_port": "aberystwyth",
        "date_leaving": "1863-[02]-10",
        "joined_ship_date": "1863-[02]-19",
        "joined_at_port": "barrow",
        "capacity": "able seaman",
        "date_left": "remains on board",
        "left_port": "remains on board",
        "cause_of_leaving": "remains on board",
        "sign_with_mark": "n",
        "notes": "blk"
    },
    {
        "id": "vtls004633241_1_13",
        "type": "sailor",
        "parent": "vtls004633241",
        "name": "john jones",
        "dob": "blk",
        "age": "16",
        "place_of_birth": "aberystwyth",
        "home_address": "blk",
        "f": "blk",
        "name_of_ship": "caroline",
        "ship_port": "aberystwyth",
        "date_leaving": "remained on board",
        "joined_ship_date": "remained on board",
        "joined_at_port": "remained on board",
        "capacity": "seaman",
        "date_left": "1863-09-19",
        "left_port": "blk",
        "cause_of_leaving": "vessel lost",
        "sign_with_mark": "n",
        "notes": "blk"
    }
]