[
    {
        "id": "vtls004661069_1_11",
        "type": "sailor",
        "parent": "vtls004661069",
        "name": "morgan jones",
        "dob": "blk",
        "age": "38",
        "place_of_birth": "llanrhystud, cardiganshire",
        "home_address": "blk",
        "f": "blk",
        "name_of_ship": "faithful sister",
        "ship_port": "aberystwyth",
        "date_leaving": "1864-06-30",
        "joined_ship_date": "1864-07-01",
        "joined_at_port": "aberayron",
        "capacity": "master",
        "date_left": "1864-12-31",
        "left_port": "aberaeron",
        "cause_of_leaving": "remains on board",
        "sign_with_mark": "n",
        "notes": "blk"
    },
    {
        "id": "vtls004661069_1_12",
        "type": "sailor",
        "parent": "vtls004661069",
        "name": "daniel richard",
        "dob": "blk",
        "age": "58",
        "place_of_birth": "llansantffraid",
        "home_address": "blk",
        "f": "blk",
        "name_of_ship": "faithful sister",
        "ship_port": "aberystwyth",
        "date_leaving": "1864-06-30",
        "joined_ship_date": "1864-07-01",
        "joined_at_port": "aberayron",
        "capacity": "mate",
        "date_left": "1864-10-29",
        "left_port": "aberaeron",
        "cause_of_leaving": "discharged",
        "sign_with_mark": "n",
        "notes": "blk"
    },
    {
        "id": "vtls004661069_0_11",
        "type": "sailor",
        "parent": "vtls004661069",
        "name": "morgan jones",
        "dob": "blk",
        "age": "37",
        "place_of_birth": "llanrhystud",
        "home_address": "blk",
        "f": "blk",
        "name_of_ship": "faithful sister",
        "ship_port": "aberystwyth",
        "date_leaving": "1863-12-31",
        "joined_ship_date": "1863-01-01",
        "joined_at_port": "aberayron",
        "capacity": "master",
        "date_left": "1863-06-30",
        "left_port": "aberaeron",
        "cause_of_leaving": "remains on board",
        "sign_with_mark": "n",
        "notes": "blk"
    },
    {
        "id": "vtls004661069_0_12",
        "type": "sailor",
        "parent": "vtls004661069",
        "name": "daniel richards",
        "dob": "blk",
        "age": "57",
        "place_of_birth": "llansantffraid",
        "home_address": "blk",
        "f": "blk",
        "name_of_ship": "candor",
        "ship_port": "aberystwyth",
        "date_leaving": "1863-12-02",
        "joined_ship_date": "1863-04-15",
        "joined_at_port": "aberayron",
        "capacity": "mate",
        "date_left": "1863-06-30",
        "left_port": "aberaeron",
        "cause_of_leaving": "remains on board",
        "sign_with_mark": "n",
        "notes": "blk"
    },
    {
        "id": "vtls004661069_0_13",
        "type": "sailor",
        "parent": "vtls004661069",
        "name": "john jones",
        "dob": "blk",
        "age": "14",
        "place_of_birth": "newquay",
        "home_address": "blk",
        "f": "blk",
        "name_of_ship": "eleanor",
        "ship_port": "aberystwyth",
        "date_leaving": "1863-05",
        "joined_ship_date": "1863-06-15",
        "joined_at_port": "newquay",
        "capacity": "boy",
        "date_left": "1863-06-30",
        "left_port": "aberaeron",
        "cause_of_leaving": "remains on board",
        "sign_with_mark": "n",
        "notes": "blk"
    },
    {
        "id": "vtls004661069_1_13",
        "type": "sailor",
        "parent": "vtls004661069",
        "name": "william roberts",
        "dob": "blk",
        "age": "14",
        "place_of_birth": "denbigh",
        "home_address": "blk",
        "f": "blk",
        "name_of_ship": "first ship",
        "ship_port": "blk",
        "date_leaving": "blk",
        "joined_ship_date": "1864-08-15",
        "joined_at_port": "aberystwyth",
        "capacity": "boy",
        "date_left": "1864-10-29",
        "left_port": "aberaeron",
        "cause_of_leaving": "discharged",
        "sign_with_mark": "n",
        "notes": "blk"
    },
    {
        "id": "vtls004661069_0_14",
        "type": "sailor",
        "parent": "vtls004661069",
        "name": "isaac hughes",
        "dob": "blk",
        "age": "12",
        "place_of_birth": "llanrhystud",
        "home_address": "blk",
        "f": "blk",
        "name_of_ship": "first ship",
        "ship_port": "blk",
        "date_leaving": "blk",
        "joined_ship_date": "1863-04-15",
        "joined_at_port": "aberayron",
        "capacity": "boy",
        "date_left": "1863-06-14",
        "left_port": "newquay",
        "cause_of_leaving": "discharged",
        "sign_with_mark": "n",
        "notes": "blk"
    },
    {
        "id": "vtls004661077_1_11",
        "type": "sailor",
        "parent": "vtls004661077",
        "name": "morgan jones",
        "dob": "blk",
        "age": "39",
        "place_of_birth": "llanrhystud, cardiganshire",
        "home_address": "blk",
        "f": "blk",
        "name_of_ship": "faithful sister",
        "ship_port": "aberystwyth",
        "date_leaving": "1865-06-30",
        "joined_ship_date": "1864-07-01",
        "joined_at_port": "aberayron",
        "capacity": "master",
        "date_left": "1865-12-31",
        "left_port": "milford",
        "cause_of_leaving": "remains on board",
        "sign_with_mark": "n",
        "notes": "blk"
    },
    {
        "id": "vtls004661077_0_11",
        "type": "sailor",
        "parent": "vtls004661077",
        "name": "morgan jones",
        "dob": "blk",
        "age": "38",
        "place_of_birth": "llanrhystud, cardiganshire",
        "home_address": "blk",
        "f": "blk",
        "name_of_ship": "faithful sister",
        "ship_port": "aberystwyth",
        "date_leaving": "1864-12-31",
        "joined_ship_date": "1864-01-01",
        "joined_at_port": "aberayron",
        "capacity": "master",
        "date_left": "1864-06-30",
        "left_port": "aberaeron",
        "cause_of_leaving": "remains on board",
        "sign_with_mark": "n",
        "notes": "blk"
    },
    {
        "id": "vtls004661077_1_12",
        "type": "sailor",
        "parent": "vtls004661077",
        "name": "evan davies",
        "dob": "blk",
        "age": "55",
        "place_of_birth": "llanddewi, cardiganshire",
        "home_address": "blk",
        "f": "blk",
        "name_of_ship": "faithful sister",
        "ship_port": "aberystwyth",
        "date_leaving": "1865-06-30",
        "joined_ship_date": "1864-07-01",
        "joined_at_port": "aberayron",
        "capacity": "mate",
        "date_left": "1865-11-21",
        "left_port": "milford",
        "cause_of_leaving": "discharged",
        "sign_with_mark": "n",
        "notes": "blk"
    },
    {
        "id": "vtls004661069_1_14",
        "type": "sailor",
        "parent": "vtls004661069",
        "name": "isaac hughes",
        "dob": "blk",
        "age": "12",
        "place_of_birth": "llanrhystud, cardiganshire",
        "home_address": "blk",
        "f": "blk",
        "name_of_ship": "faithful sister",
        "ship_port": "aberystwyth",
        "date_leaving": "1864-06-30",
        "joined_ship_date": "1864-07-01",
        "joined_at_port": "aberayron",
        "capacity": "boy",
        "date_left": "1864-08-14",
        "left_port": "aberystwyth",
        "cause_of_leaving": "discharged",
        "sign_with_mark": "n",
        "notes": "blk"
    },
    {
        "id": "vtls004661077_0_12",
        "type": "sailor",
        "parent": "vtls004661077",
        "name": "thomas morgans",
        "dob": "blk",
        "age": "51",
        "place_of_birth": "llanddewi, cardiganshire",
        "home_address": "blk",
        "f": "blk",
        "name_of_ship": "andes",
        "ship_port": "cardigan",
        "date_leaving": "1864-12-31",
        "joined_ship_date": "1864-04-20",
        "joined_at_port": "aberayron",
        "capacity": "mate",
        "date_left": "1864-06-30",
        "left_port": "aberaeron",
        "cause_of_leaving": "discharged",
        "sign_with_mark": "n",
        "notes": "blk"
    },
    {
        "id": "vtls004661077_0_13",
        "type": "sailor",
        "parent": "vtls004661077",
        "name": "david morgans",
        "dob": "blk",
        "age": "12",
        "place_of_birth": "aberaeron",
        "home_address": "blk",
        "f": "blk",
        "name_of_ship": "andes",
        "ship_port": "cardigan",
        "date_leaving": "1864-12-31",
        "joined_ship_date": "1864-04-20",
        "joined_at_port": "aberayron",
        "capacity": "boy",
        "date_left": "1864-06-30",
        "left_port": "aberaeron",
        "cause_of_leaving": "discharged",
        "sign_with_mark": "n",
        "notes": "blk"
    },
    {
        "id": "vtls004661077_1_13",
        "type": "sailor",
        "parent": "vtls004661077",
        "name": "john jones",
        "dob": "blk",
        "age": "13",
        "place_of_birth": "aberaeron",
        "home_address": "blk",
        "f": "blk",
        "name_of_ship": "first ship",
        "ship_port": "blk",
        "date_leaving": "blk",
        "joined_ship_date": "1864-07-01",
        "joined_at_port": "blk",
        "capacity": "boy",
        "date_left": "1865-11-21",
        "left_port": "milford",
        "cause_of_leaving": "discharged",
        "sign_with_mark": "n",
        "notes": "blk"
    }
]