[
    {
        "id": "vtls004924926_0_12",
        "type": "sailor",
        "parent": "vtls004924926",
        "name": "lewis price",
        "dob": "blk",
        "age": "59",
        "place_of_birth": "borth",
        "home_address": "blk",
        "f": "blk",
        "name_of_ship": "mary rees",
        "ship_port": "aberystwyth",
        "date_leaving": "blk",
        "joined_ship_date": "1864-03-10",
        "joined_at_port": "aberdovey",
        "capacity": "mate",
        "date_left": "1864-11-04",
        "left_port": "aberdovey",
        "cause_of_leaving": "discharged",
        "sign_with_mark": "n",
        "notes": "blk"
    },
    {
        "id": "vtls004924926_0_11",
        "type": "sailor",
        "parent": "vtls004924926",
        "name": "john reece",
        "dob": "blk",
        "age": "21",
        "place_of_birth": "borth",
        "home_address": "blk",
        "f": "blk",
        "name_of_ship": "mary rees",
        "ship_port": "aberystwyth",
        "date_leaving": "blk",
        "joined_ship_date": "1864-01-02",
        "joined_at_port": "aberdovey",
        "capacity": "master",
        "date_left": "blk",
        "left_port": "blk",
        "cause_of_leaving": "remains on board",
        "sign_with_mark": "n",
        "notes": "blk"
    },
    {
        "id": "vtls004924947_0_11",
        "type": "sailor",
        "parent": "vtls004924947",
        "name": "john rees younger",
        "dob": "blk",
        "age": "23",
        "place_of_birth": "borth",
        "home_address": "blk",
        "f": "blk",
        "name_of_ship": "mary rees",
        "ship_port": "aberystwyth, coasting",
        "date_leaving": "1866",
        "joined_ship_date": "1866-01",
        "joined_at_port": "aberdovey",
        "capacity": "master",
        "date_left": "1866-06",
        "left_port": "at sea",
        "cause_of_leaving": "drowned",
        "sign_with_mark": "n",
        "notes": "blk"
    },
    {
        "id": "vtls004924926_0_13",
        "type": "sailor",
        "parent": "vtls004924926",
        "name": "john davis",
        "dob": "blk",
        "age": "13",
        "place_of_birth": "borth",
        "home_address": "blk",
        "f": "blk",
        "name_of_ship": "mary rees",
        "ship_port": "aberystwyth",
        "date_leaving": "blk",
        "joined_ship_date": "1864-03-10",
        "joined_at_port": "aberdovey",
        "capacity": "boy",
        "date_left": "1864-11-04",
        "left_port": "aberdovey",
        "cause_of_leaving": "discharged",
        "sign_with_mark": "n",
        "notes": "blk"
    },
    {
        "id": "vtls004924947_0_12",
        "type": "sailor",
        "parent": "vtls004924947",
        "name": "john rees",
        "dob": "blk",
        "age": "70",
        "place_of_birth": "borth",
        "home_address": "blk",
        "f": "blk",
        "name_of_ship": "mary rees",
        "ship_port": "aberystwyth, coasting",
        "date_leaving": "blk",
        "joined_ship_date": "1866-06-02",
        "joined_at_port": "aberdovey",
        "capacity": "mate",
        "date_left": "1866-06",
        "left_port": "at sea",
        "cause_of_leaving": "drowned",
        "sign_with_mark": "n",
        "notes": "blk"
    },
    {
        "id": "vtls004924947_0_13",
        "type": "sailor",
        "parent": "vtls004924947",
        "name": "john jones",
        "dob": "blk",
        "age": "14",
        "place_of_birth": "machynlleth, montgomery",
        "home_address": "blk",
        "f": "blk",
        "name_of_ship": "first voyage",
        "ship_port": "blk",
        "date_leaving": "blk",
        "joined_ship_date": "1866-06-02",
        "joined_at_port": "aberdovey",
        "capacity": "boy",
        "date_left": "1866-06",
        "left_port": "at sea",
        "cause_of_leaving": "drowned",
        "sign_with_mark": "n",
        "notes": "blk"
    }
]