[
    {
        "id": "vtls004690052_1_13",
        "type": "sailor",
        "parent": "vtls004690052",
        "name": "thomas jones",
        "dob": "1868",
        "age": "blk",
        "place_of_birth": "mostyn",
        "home_address": "blk",
        "f": "blk",
        "name_of_ship": "jane morgan",
        "ship_port": "aberystwyth",
        "date_leaving": "blk",
        "joined_ship_date": "1885-07-01",
        "joined_at_port": "ipswich",
        "capacity": "ordinary seaman",
        "date_left": "1885-01-14",
        "left_port": "plymouth",
        "cause_of_leaving": "discharged",
        "sign_with_mark": "n",
        "notes": "blk"
    },
    {
        "id": "vtls004690052_1_11",
        "type": "sailor",
        "parent": "vtls004690052",
        "name": "david morgans",
        "dob": "1852",
        "age": "blk",
        "place_of_birth": "aberystwyth",
        "home_address": "blk",
        "f": "blk",
        "name_of_ship": "jane morgan",
        "ship_port": "aberystwyth",
        "date_leaving": "blk",
        "joined_ship_date": "1885-07-01",
        "joined_at_port": "ipswich",
        "capacity": "master",
        "date_left": "1885-01-14",
        "left_port": "plymouth",
        "cause_of_leaving": "remains on board",
        "sign_with_mark": "n",
        "notes": "blk"
    },
    {
        "id": "vtls004690052_1_12",
        "type": "sailor",
        "parent": "vtls004690052",
        "name": "john morgans",
        "dob": "1850",
        "age": "blk",
        "place_of_birth": "aberystwyth",
        "home_address": "blk",
        "f": "blk",
        "name_of_ship": "jane morgan",
        "ship_port": "aberystwyth",
        "date_leaving": "blk",
        "joined_ship_date": "1885-07-01",
        "joined_at_port": "ipswich",
        "capacity": "mate",
        "date_left": "1885-01-14",
        "left_port": "plymouth",
        "cause_of_leaving": "remains on board",
        "sign_with_mark": "n",
        "notes": "blk"
    },
    {
        "id": "vtls004690052_1_14",
        "type": "sailor",
        "parent": "vtls004690052",
        "name": "charles clifton",
        "dob": "1865",
        "age": "blk",
        "place_of_birth": "jersey",
        "home_address": "blk",
        "f": "blk",
        "name_of_ship": "rhoda",
        "ship_port": "guernsey",
        "date_leaving": "blk",
        "joined_ship_date": "1885-08-14",
        "joined_at_port": "plymouth",
        "capacity": "able seaman",
        "date_left": "1885-01-14",
        "left_port": "plymouth",
        "cause_of_leaving": "remains on board",
        "sign_with_mark": "n",
        "notes": "blk"
    },
    {
        "id": "vtls004690052_0_13",
        "type": "sailor",
        "parent": "vtls004690052",
        "name": "thomas jones",
        "dob": "1866",
        "age": "blk",
        "place_of_birth": "mostyn",
        "home_address": "blk",
        "f": "blk",
        "name_of_ship": "jane morgans",
        "ship_port": "aberystwyth",
        "date_leaving": "blk",
        "joined_ship_date": "blk",
        "joined_at_port": "blk",
        "capacity": "able seaman",
        "date_left": "blk",
        "left_port": "blk",
        "cause_of_leaving": "remains on board",
        "sign_with_mark": "n",
        "notes": "blk"
    },
    {
        "id": "vtls004690052_0_11",
        "type": "sailor",
        "parent": "vtls004690052",
        "name": "david morgans",
        "dob": "1852",
        "age": "blk",
        "place_of_birth": "aberystwyth",
        "home_address": "blk",
        "f": "blk",
        "name_of_ship": "jane morgans",
        "ship_port": "aberystwyth",
        "date_leaving": "blk",
        "joined_ship_date": "blk",
        "joined_at_port": "blk",
        "capacity": "master",
        "date_left": "blk",
        "left_port": "blk",
        "cause_of_leaving": "remains on board",
        "sign_with_mark": "n",
        "notes": "blk"
    },
    {
        "id": "vtls004690052_0_12",
        "type": "sailor",
        "parent": "vtls004690052",
        "name": "john morgans",
        "dob": "1850",
        "age": "blk",
        "place_of_birth": "aberystwyth",
        "home_address": "blk",
        "f": "blk",
        "name_of_ship": "jane morgans",
        "ship_port": "aberystwyth",
        "date_leaving": "blk",
        "joined_ship_date": "blk",
        "joined_at_port": "blk",
        "capacity": "mate",
        "date_left": "blk",
        "left_port": "blk",
        "cause_of_leaving": "remains on board",
        "sign_with_mark": "n",
        "notes": "blk"
    },
    {
        "id": "vtls004690052_1_15",
        "type": "sailor",
        "parent": "vtls004690052",
        "name": "john jones",
        "dob": "1871",
        "age": "blk",
        "place_of_birth": "beaumaris",
        "home_address": "blk",
        "f": "blk",
        "name_of_ship": "first ship",
        "ship_port": "blk",
        "date_leaving": "blk",
        "joined_ship_date": "1885-07-01",
        "joined_at_port": "ipswich",
        "capacity": "cook",
        "date_left": "1885-01-14",
        "left_port": "plymouth",
        "cause_of_leaving": "remains on board",
        "sign_with_mark": "n",
        "notes": "blk"
    }
]