[
    {
        "id": "vtls004919374_0_13",
        "type": "sailor",
        "parent": "vtls004919374",
        "name": "thomas davies",
        "dob": "blk",
        "age": "18",
        "place_of_birth": "newquay",
        "home_address": "blk",
        "f": "blk",
        "name_of_ship": "maria & ann",
        "ship_port": "aberystwyth",
        "date_leaving": "1863-01-20",
        "joined_ship_date": "1863-01-20",
        "joined_at_port": "cardiff",
        "capacity": "ordinary seaman",
        "date_left": "1863-06-30",
        "left_port": "belfast",
        "cause_of_leaving": "discharged",
        "sign_with_mark": "n",
        "notes": "blk"
    },
    {
        "id": "vtls004919374_1_13",
        "type": "sailor",
        "parent": "vtls004919374",
        "name": "thomas davies",
        "dob": "blk",
        "age": "19",
        "place_of_birth": "newquay",
        "home_address": "blk",
        "f": "blk",
        "name_of_ship": "maria & ann",
        "ship_port": "[pwllheli]",
        "date_leaving": "blk",
        "joined_ship_date": "1863-07-01",
        "joined_at_port": "whitehaven",
        "capacity": "ordinary seaman",
        "date_left": "1863-12-31",
        "left_port": "poole",
        "cause_of_leaving": "remains on board",
        "sign_with_mark": "n",
        "notes": "blk"
    },
    {
        "id": "vtls004919374_1_11",
        "type": "sailor",
        "parent": "vtls004919374",
        "name": "thomas timothy",
        "dob": "blk",
        "age": "26",
        "place_of_birth": "newquay",
        "home_address": "blk",
        "f": "blk",
        "name_of_ship": "maria & ann",
        "ship_port": "[pwllheli]",
        "date_leaving": "blk",
        "joined_ship_date": "1863-07-01",
        "joined_at_port": "whitehaven",
        "capacity": "master",
        "date_left": "1863-12-31",
        "left_port": "poole",
        "cause_of_leaving": "remains on board",
        "sign_with_mark": "n",
        "notes": "blk"
    },
    {
        "id": "vtls004919374_0_12",
        "type": "sailor",
        "parent": "vtls004919374",
        "name": "evan davies",
        "dob": "blk",
        "age": "35",
        "place_of_birth": "newquay",
        "home_address": "blk",
        "f": "blk",
        "name_of_ship": "maria & ann",
        "ship_port": "aberystwyth",
        "date_leaving": "1863-01-20",
        "joined_ship_date": "1863-01-20",
        "joined_at_port": "cardiff",
        "capacity": "mate",
        "date_left": "1863-06-30",
        "left_port": "belfast",
        "cause_of_leaving": "discharged",
        "sign_with_mark": "n",
        "notes": "blk"
    },
    {
        "id": "vtls004919374_0_14",
        "type": "sailor",
        "parent": "vtls004919374",
        "name": "david evans",
        "dob": "blk",
        "age": "16",
        "place_of_birth": "newquay",
        "home_address": "blk",
        "f": "blk",
        "name_of_ship": "maria & ann",
        "ship_port": "aberystwyth",
        "date_leaving": "1863-01-20",
        "joined_ship_date": "1863-01-20",
        "joined_at_port": "cardiff",
        "capacity": "boy",
        "date_left": "1863-06-30",
        "left_port": "belfast",
        "cause_of_leaving": "discharged",
        "sign_with_mark": "n",
        "notes": "blk"
    },
    {
        "id": "vtls004919374_1_12",
        "type": "sailor",
        "parent": "vtls004919374",
        "name": "evan davies",
        "dob": "blk",
        "age": "34",
        "place_of_birth": "newquay",
        "home_address": "blk",
        "f": "blk",
        "name_of_ship": "maria & ann",
        "ship_port": "[pwllheli]",
        "date_leaving": "blk",
        "joined_ship_date": "1863-07-01",
        "joined_at_port": "whitehaven",
        "capacity": "mate",
        "date_left": "1863-12-31",
        "left_port": "poole",
        "cause_of_leaving": "remains on board",
        "sign_with_mark": "n",
        "notes": "blk"
    },
    {
        "id": "vtls004919374_0_11",
        "type": "sailor",
        "parent": "vtls004919374",
        "name": "thomas timothy",
        "dob": "blk",
        "age": "25",
        "place_of_birth": "newquay",
        "home_address": "blk",
        "f": "blk",
        "name_of_ship": "maria & ann",
        "ship_port": "aberystwyth",
        "date_leaving": "blk",
        "joined_ship_date": "blk",
        "joined_at_port": "blk",
        "capacity": "master",
        "date_left": "blk",
        "left_port": "blk",
        "cause_of_leaving": "remains on board",
        "sign_with_mark": "n",
        "notes": "blk"
    },
    {
        "id": "vtls004919378_0_13",
        "type": "sailor",
        "parent": "vtls004919378",
        "name": "timothy jenkins",
        "dob": "blk",
        "age": "18",
        "place_of_birth": "newquay",
        "home_address": "blk",
        "f": "blk",
        "name_of_ship": "maria & ann",
        "ship_port": "aberystwyth",
        "date_leaving": "blk",
        "joined_ship_date": "1863-12",
        "joined_at_port": "newquay",
        "capacity": "able seaman",
        "date_left": "1864-07-20",
        "left_port": "swansea",
        "cause_of_leaving": "continues on board",
        "sign_with_mark": "n",
        "notes": "blk"
    },
    {
        "id": "vtls004919378_1_14",
        "type": "sailor",
        "parent": "vtls004919378",
        "name": "timothy jenkins",
        "dob": "blk",
        "age": "20",
        "place_of_birth": "newquay",
        "home_address": "blk",
        "f": "blk",
        "name_of_ship": "maria & ann",
        "ship_port": "[newquay]",
        "date_leaving": "not discharged",
        "joined_ship_date": "blk",
        "joined_at_port": "blk",
        "capacity": "ordinary seaman",
        "date_left": "blk",
        "left_port": "blk",
        "cause_of_leaving": "continues on board",
        "sign_with_mark": "n",
        "notes": "blk"
    },
    {
        "id": "vtls004919374_1_14",
        "type": "sailor",
        "parent": "vtls004919374",
        "name": "david evans",
        "dob": "blk",
        "age": "16",
        "place_of_birth": "newquay",
        "home_address": "blk",
        "f": "blk",
        "name_of_ship": "maria & ann",
        "ship_port": "[pwllheli]",
        "date_leaving": "blk",
        "joined_ship_date": "1863-07-01",
        "joined_at_port": "whitehaven",
        "capacity": "boy",
        "date_left": "1863-12-31",
        "left_port": "poole",
        "cause_of_leaving": "remains on board",
        "sign_with_mark": "n",
        "notes": "blk"
    },
    {
        "id": "vtls004919378_0_11",
        "type": "sailor",
        "parent": "vtls004919378",
        "name": "henry davies",
        "dob": "blk",
        "age": "33",
        "place_of_birth": "newquay",
        "home_address": "blk",
        "f": "blk",
        "name_of_ship": "maria & ann",
        "ship_port": "aberystwyth",
        "date_leaving": "blk",
        "joined_ship_date": "1863-12",
        "joined_at_port": "newquay",
        "capacity": "master",
        "date_left": "1864-07-20",
        "left_port": "swansea",
        "cause_of_leaving": "continues on board",
        "sign_with_mark": "n",
        "notes": "blk"
    },
    {
        "id": "vtls004919378_0_14",
        "type": "sailor",
        "parent": "vtls004919378",
        "name": "thomas davies",
        "dob": "blk",
        "age": "13",
        "place_of_birth": "newquay",
        "home_address": "blk",
        "f": "blk",
        "name_of_ship": "maria & ann",
        "ship_port": "aberystwyth",
        "date_leaving": "blk",
        "joined_ship_date": "1863-12",
        "joined_at_port": "newquay",
        "capacity": "boy",
        "date_left": "1864-07-20",
        "left_port": "swansea",
        "cause_of_leaving": "continues on board",
        "sign_with_mark": "n",
        "notes": "blk"
    },
    {
        "id": "vtls004919378_1_11",
        "type": "sailor",
        "parent": "vtls004919378",
        "name": "henry davies",
        "dob": "blk",
        "age": "35",
        "place_of_birth": "newquay",
        "home_address": "blk",
        "f": "blk",
        "name_of_ship": "maria & ann",
        "ship_port": "aberystwyth",
        "date_leaving": "not discharged",
        "joined_ship_date": "blk",
        "joined_at_port": "blk",
        "capacity": "master",
        "date_left": "blk",
        "left_port": "blk",
        "cause_of_leaving": "continued on board",
        "sign_with_mark": "n",
        "notes": "blk"
    },
    {
        "id": "vtls004919378_0_12",
        "type": "sailor",
        "parent": "vtls004919378",
        "name": "john evans",
        "dob": "blk",
        "age": "22",
        "place_of_birth": "newquay",
        "home_address": "blk",
        "f": "blk",
        "name_of_ship": "maria & ann",
        "ship_port": "aberystwyth",
        "date_leaving": "blk",
        "joined_ship_date": "1863-12",
        "joined_at_port": "newquay",
        "capacity": "mate",
        "date_left": "1864-07-20",
        "left_port": "swansea",
        "cause_of_leaving": "continues on board",
        "sign_with_mark": "n",
        "notes": "blk"
    },
    {
        "id": "vtls004919378_1_12",
        "type": "sailor",
        "parent": "vtls004919378",
        "name": "john evans",
        "dob": "blk",
        "age": "25",
        "place_of_birth": "newquay",
        "home_address": "blk",
        "f": "blk",
        "name_of_ship": "maria & ann",
        "ship_port": "aberystwyth",
        "date_leaving": "not discharged",
        "joined_ship_date": "blk",
        "joined_at_port": "blk",
        "capacity": "mate",
        "date_left": "1864-11-13",
        "left_port": "newquay",
        "cause_of_leaving": "discharged",
        "sign_with_mark": "n",
        "notes": "blk"
    },
    {
        "id": "vtls004919378_1_13",
        "type": "sailor",
        "parent": "vtls004919378",
        "name": "john davies",
        "dob": "blk",
        "age": "20",
        "place_of_birth": "newquay",
        "home_address": "blk",
        "f": "blk",
        "name_of_ship": "eagle",
        "ship_port": "newquay",
        "date_leaving": "1864-11-02",
        "joined_ship_date": "1864-11-13",
        "joined_at_port": "newquay",
        "capacity": "mate",
        "date_left": "blk",
        "left_port": "blk",
        "cause_of_leaving": "continues on board",
        "sign_with_mark": "n",
        "notes": "blk"
    },
    {
        "id": "vtls004919381_1_11",
        "type": "sailor",
        "parent": "vtls004919381",
        "name": "henry davies",
        "dob": "blk",
        "age": "38",
        "place_of_birth": "llanon",
        "home_address": "blk",
        "f": "blk",
        "name_of_ship": "maria & ann",
        "ship_port": "aberystwyth",
        "date_leaving": "1866-06-30",
        "joined_ship_date": "1866-07-01",
        "joined_at_port": "swansea",
        "capacity": "master",
        "date_left": "1866-07-30",
        "left_port": "newquay",
        "cause_of_leaving": "discharged",
        "sign_with_mark": "n",
        "notes": "blk"
    },
    {
        "id": "vtls004919381_1_12",
        "type": "sailor",
        "parent": "vtls004919381",
        "name": "evan davies",
        "dob": "blk",
        "age": "32",
        "place_of_birth": "newquay",
        "home_address": "blk",
        "f": "blk",
        "name_of_ship": "maria & ann",
        "ship_port": "aberystwyth",
        "date_leaving": "1866-06-30",
        "joined_ship_date": "1866-07-01",
        "joined_at_port": "swansea",
        "capacity": "mate",
        "date_left": "1866-07-30",
        "left_port": "newquay",
        "cause_of_leaving": "discharged",
        "sign_with_mark": "n",
        "notes": "blk"
    },
    {
        "id": "vtls004919381_1_13",
        "type": "sailor",
        "parent": "vtls004919381",
        "name": "thomas young",
        "dob": "blk",
        "age": "20",
        "place_of_birth": "london",
        "home_address": "blk",
        "f": "blk",
        "name_of_ship": "maria & ann",
        "ship_port": "aberystwyth",
        "date_leaving": "1866-06-30",
        "joined_ship_date": "1866-07-01",
        "joined_at_port": "swansea",
        "capacity": "able seaman",
        "date_left": "1866-07-30",
        "left_port": "newquay",
        "cause_of_leaving": "discharged",
        "sign_with_mark": "n",
        "notes": "blk"
    },
    {
        "id": "vtls004919381_0_13",
        "type": "sailor",
        "parent": "vtls004919381",
        "name": "alexander adams",
        "dob": "blk",
        "age": "20",
        "place_of_birth": "london",
        "home_address": "blk",
        "f": "blk",
        "name_of_ship": "not known",
        "ship_port": "blk",
        "date_leaving": "1866-02-10",
        "joined_ship_date": "1866-02-12",
        "joined_at_port": "portmadoc",
        "capacity": "ordinary seaman",
        "date_left": "1866-07-14",
        "left_port": "swansea",
        "cause_of_leaving": "discharged",
        "sign_with_mark": "n",
        "notes": "blk"
    },
    {
        "id": "vtls004919378_1_15",
        "type": "sailor",
        "parent": "vtls004919378",
        "name": "thomas thomas",
        "dob": "blk",
        "age": "16",
        "place_of_birth": "newquay",
        "home_address": "blk",
        "f": "blk",
        "name_of_ship": "maria & ann",
        "ship_port": "[newquay]",
        "date_leaving": "not discharged",
        "joined_ship_date": "blk",
        "joined_at_port": "blk",
        "capacity": "boy",
        "date_left": "blk",
        "left_port": "blk",
        "cause_of_leaving": "continues on board",
        "sign_with_mark": "n",
        "notes": "blk"
    },
    {
        "id": "vtls004919381_0_12",
        "type": "sailor",
        "parent": "vtls004919381",
        "name": "evan davies",
        "dob": "blk",
        "age": "32",
        "place_of_birth": "newquay",
        "home_address": "blk",
        "f": "blk",
        "name_of_ship": "favourite",
        "ship_port": "newquay",
        "date_leaving": "1866-02-10",
        "joined_ship_date": "1866-02-12",
        "joined_at_port": "portmadoc",
        "capacity": "mate",
        "date_left": "blk",
        "left_port": "blk",
        "cause_of_leaving": "remains on board",
        "sign_with_mark": "n",
        "notes": "blk"
    },
    {
        "id": "vtls004919381_0_11",
        "type": "sailor",
        "parent": "vtls004919381",
        "name": "henry davies",
        "dob": "blk",
        "age": "36",
        "place_of_birth": "newquay",
        "home_address": "blk",
        "f": "blk",
        "name_of_ship": "maria & ann",
        "ship_port": "aberystwyth",
        "date_leaving": "continued",
        "joined_ship_date": "blk",
        "joined_at_port": "blk",
        "capacity": "master",
        "date_left": "blk",
        "left_port": "blk",
        "cause_of_leaving": "remains on board",
        "sign_with_mark": "n",
        "notes": "blk"
    },
    {
        "id": "vtls004919397_0_11",
        "type": "sailor",
        "parent": "vtls004919397",
        "name": "john evans",
        "dob": "blk",
        "age": "35",
        "place_of_birth": "aberaeron",
        "home_address": "blk",
        "f": "blk",
        "name_of_ship": "maria & ann",
        "ship_port": "aberystwyth",
        "date_leaving": "1867-12-31",
        "joined_ship_date": "1868-01-01",
        "joined_at_port": "swansea",
        "capacity": "master",
        "date_left": "1868-06-30",
        "left_port": "runcorn",
        "cause_of_leaving": "remains on board",
        "sign_with_mark": "n",
        "notes": "blk"
    },
    {
        "id": "vtls004919387_0_13",
        "type": "sailor",
        "parent": "vtls004919387",
        "name": "francis holsow",
        "dob": "blk",
        "age": "25",
        "place_of_birth": "hayle",
        "home_address": "blk",
        "f": "blk",
        "name_of_ship": "maria & ann",
        "ship_port": "aberystwyth",
        "date_leaving": "1866-12-31",
        "joined_ship_date": "1867-04-05",
        "joined_at_port": "aberayron",
        "capacity": "able seaman",
        "date_left": "blk",
        "left_port": "blk",
        "cause_of_leaving": "remains on board",
        "sign_with_mark": "n",
        "notes": "blk"
    },
    {
        "id": "vtls004919387_1_13",
        "type": "sailor",
        "parent": "vtls004919387",
        "name": "john morgans",
        "dob": "blk",
        "age": "21",
        "place_of_birth": "cardigan",
        "home_address": "blk",
        "f": "blk",
        "name_of_ship": "maria & ann",
        "ship_port": "aberystwyth",
        "date_leaving": "1867-06-30",
        "joined_ship_date": "1867-07-01",
        "joined_at_port": "aberayron",
        "capacity": "able seaman",
        "date_left": "blk",
        "left_port": "blk",
        "cause_of_leaving": "remains on board",
        "sign_with_mark": "n",
        "notes": "blk"
    },
    {
        "id": "vtls004919387_0_12",
        "type": "sailor",
        "parent": "vtls004919387",
        "name": "morgan morgans",
        "dob": "blk",
        "age": "48",
        "place_of_birth": "aberaeron",
        "home_address": "blk",
        "f": "blk",
        "name_of_ship": "maria & ann",
        "ship_port": "aberystwyth",
        "date_leaving": "1866-12-31",
        "joined_ship_date": "1867-04-05",
        "joined_at_port": "aberayron",
        "capacity": "mate",
        "date_left": "blk",
        "left_port": "blk",
        "cause_of_leaving": "remains on board",
        "sign_with_mark": "n",
        "notes": "blk"
    },
    {
        "id": "vtls004919387_1_12",
        "type": "sailor",
        "parent": "vtls004919387",
        "name": "morgan morgans",
        "dob": "blk",
        "age": "45",
        "place_of_birth": "cardigan",
        "home_address": "blk",
        "f": "blk",
        "name_of_ship": "maria & ann",
        "ship_port": "aberystwyth",
        "date_leaving": "1867-06-30",
        "joined_ship_date": "1867-07-01",
        "joined_at_port": "aberayron",
        "capacity": "mate",
        "date_left": "blk",
        "left_port": "blk",
        "cause_of_leaving": "remains on board",
        "sign_with_mark": "n",
        "notes": "blk"
    },
    {
        "id": "vtls004919387_0_11",
        "type": "sailor",
        "parent": "vtls004919387",
        "name": "john evans",
        "dob": "blk",
        "age": "30",
        "place_of_birth": "aberaeron",
        "home_address": "blk",
        "f": "blk",
        "name_of_ship": "maria & ann",
        "ship_port": "aberystwyth",
        "date_leaving": "1866-12-31",
        "joined_ship_date": "1867-04-05",
        "joined_at_port": "aberayron",
        "capacity": "master",
        "date_left": "blk",
        "left_port": "blk",
        "cause_of_leaving": "remains on board",
        "sign_with_mark": "n",
        "notes": "blk"
    },
    {
        "id": "vtls004919387_1_11",
        "type": "sailor",
        "parent": "vtls004919387",
        "name": "john evans",
        "dob": "blk",
        "age": "35",
        "place_of_birth": "cardigan",
        "home_address": "blk",
        "f": "blk",
        "name_of_ship": "maria & ann",
        "ship_port": "aberystwyth",
        "date_leaving": "blk",
        "joined_ship_date": "1867-07-01",
        "joined_at_port": "aberayron",
        "capacity": "master",
        "date_left": "blk",
        "left_port": "blk",
        "cause_of_leaving": "remains on board",
        "sign_with_mark": "n",
        "notes": "blk"
    },
    {
        "id": "vtls004919397_0_12",
        "type": "sailor",
        "parent": "vtls004919397",
        "name": "stephen davies",
        "dob": "blk",
        "age": "40",
        "place_of_birth": "llanon, cardigan",
        "home_address": "blk",
        "f": "blk",
        "name_of_ship": "maria & ann",
        "ship_port": "aberystwyth",
        "date_leaving": "1867-12-31",
        "joined_ship_date": "1868-01-01",
        "joined_at_port": "swansea",
        "capacity": "mate",
        "date_left": "1868-06-30",
        "left_port": "runcorn",
        "cause_of_leaving": "remains on board",
        "sign_with_mark": "n",
        "notes": "blk"
    },
    {
        "id": "vtls004919397_0_13",
        "type": "sailor",
        "parent": "vtls004919397",
        "name": "evan evans",
        "dob": "blk",
        "age": "19",
        "place_of_birth": "aberaeron",
        "home_address": "blk",
        "f": "blk",
        "name_of_ship": "maria & ann",
        "ship_port": "aberystwyth",
        "date_leaving": "1867-12-31",
        "joined_ship_date": "1868-01-01",
        "joined_at_port": "swansea",
        "capacity": "seaman",
        "date_left": "1868-06-30",
        "left_port": "runcorn",
        "cause_of_leaving": "remains on board",
        "sign_with_mark": "n",
        "notes": "blk"
    },
    {
        "id": "vtls004919397_0_14",
        "type": "sailor",
        "parent": "vtls004919397",
        "name": "david jones",
        "dob": "blk",
        "age": "15",
        "place_of_birth": "llanon, cardigan",
        "home_address": "blk",
        "f": "blk",
        "name_of_ship": "maria & ann",
        "ship_port": "aberystwyth",
        "date_leaving": "1867-12-31",
        "joined_ship_date": "1868-01-01",
        "joined_at_port": "swansea",
        "capacity": "cook",
        "date_left": "1868-06-30",
        "left_port": "runcorn",
        "cause_of_leaving": "remains on board",
        "sign_with_mark": "n",
        "notes": "blk"
    }
]