[
    {
        "id": "vtls004920668_1_13",
        "type": "sailor",
        "parent": "vtls004920668",
        "name": "owen hughes",
        "dob": "blk",
        "age": "30",
        "place_of_birth": "cemaes",
        "home_address": "blk",
        "f": "blk",
        "name_of_ship": "marmion",
        "ship_port": "aberystwyth",
        "date_leaving": "blk",
        "joined_ship_date": "blk",
        "joined_at_port": "blk",
        "capacity": "ordinary seaman",
        "date_left": "1874-12-31",
        "left_port": "cemaes",
        "cause_of_leaving": "discharged",
        "sign_with_mark": "n",
        "notes": "blk"
    },
    {
        "id": "vtls004920668_0_13",
        "type": "sailor",
        "parent": "vtls004920668",
        "name": "owen hughes",
        "dob": "blk",
        "age": "20",
        "place_of_birth": "cemaes",
        "home_address": "blk",
        "f": "blk",
        "name_of_ship": "marmion",
        "ship_port": "aberystwyth",
        "date_leaving": "blk",
        "joined_ship_date": "blk",
        "joined_at_port": "blk",
        "capacity": "able seaman",
        "date_left": "blk",
        "left_port": "blk",
        "cause_of_leaving": "remains on board",
        "sign_with_mark": "n",
        "notes": "blk"
    },
    {
        "id": "vtls004920668_0_14",
        "type": "sailor",
        "parent": "vtls004920668",
        "name": "hugh hughes",
        "dob": "blk",
        "age": "20",
        "place_of_birth": "amlwch",
        "home_address": "blk",
        "f": "blk",
        "name_of_ship": "marmion",
        "ship_port": "aberystwyth",
        "date_leaving": "blk",
        "joined_ship_date": "blk",
        "joined_at_port": "blk",
        "capacity": "able seaman",
        "date_left": "blk",
        "left_port": "blk",
        "cause_of_leaving": "remains on board",
        "sign_with_mark": "n",
        "notes": "blk"
    },
    {
        "id": "vtls004920668_1_14",
        "type": "sailor",
        "parent": "vtls004920668",
        "name": "hugh hughes",
        "dob": "blk",
        "age": "18",
        "place_of_birth": "cemaes",
        "home_address": "blk",
        "f": "blk",
        "name_of_ship": "marmion",
        "ship_port": "aberystwyth",
        "date_leaving": "blk",
        "joined_ship_date": "blk",
        "joined_at_port": "blk",
        "capacity": "boy",
        "date_left": "1874-12-31",
        "left_port": "cemaes",
        "cause_of_leaving": "discharged",
        "sign_with_mark": "n",
        "notes": "blk"
    },
    {
        "id": "vtls004920694_0_11",
        "type": "sailor",
        "parent": "vtls004920694",
        "name": "blk",
        "dob": "blk",
        "age": "blk",
        "place_of_birth": "blk",
        "home_address": "blk",
        "f": "blk",
        "name_of_ship": "blk",
        "ship_port": "blk",
        "date_leaving": "blk",
        "joined_ship_date": "blk",
        "joined_at_port": "blk",
        "capacity": "blk",
        "date_left": "blk",
        "left_port": "blk",
        "cause_of_leaving": "blk",
        "sign_with_mark": "blk",
        "notes": "no master or crew employed.  the marmion was lying up at amlwch from january to june 1877.  now converted into a lighter and employed to discharge the wreck \"dakota\" s.s."
    },
    {
        "id": "vtls004919492_1_13",
        "type": "sailor",
        "parent": "vtls004919492",
        "name": "john roberts",
        "dob": "blk",
        "age": "20",
        "place_of_birth": "amlwch",
        "home_address": "blk",
        "f": "blk",
        "name_of_ship": "enterprize",
        "ship_port": "amlwch",
        "date_leaving": "1862-12-30",
        "joined_ship_date": "1863-02-11",
        "joined_at_port": "amlwch",
        "capacity": "ordinary seaman",
        "date_left": "1863-06-30",
        "left_port": "belfast",
        "cause_of_leaving": "discharged",
        "sign_with_mark": "n",
        "notes": "blk"
    },
    {
        "id": "vtls004919492_0_14",
        "type": "sailor",
        "parent": "vtls004919492",
        "name": "edward hughes",
        "dob": "blk",
        "age": "19",
        "place_of_birth": "amlwch",
        "home_address": "blk",
        "f": "blk",
        "name_of_ship": "marmion",
        "ship_port": "aberystwyth",
        "date_leaving": "blk",
        "joined_ship_date": "1862-09-07",
        "joined_at_port": "liverpool",
        "capacity": "ordinary seaman",
        "date_left": "blk",
        "left_port": "blk",
        "cause_of_leaving": "remains on board",
        "sign_with_mark": "n",
        "notes": "blk"
    },
    {
        "id": "vtls004919492_0_13",
        "type": "sailor",
        "parent": "vtls004919492",
        "name": "william jones",
        "dob": "blk",
        "age": "21",
        "place_of_birth": "amlwch",
        "home_address": "blk",
        "f": "blk",
        "name_of_ship": "marmion",
        "ship_port": "aberystwyth",
        "date_leaving": "blk",
        "joined_ship_date": "1862-09-07",
        "joined_at_port": "liverpool",
        "capacity": "able seaman",
        "date_left": "blk",
        "left_port": "blk",
        "cause_of_leaving": "remains on board",
        "sign_with_mark": "n",
        "notes": "blk"
    },
    {
        "id": "vtls004919492_1_12",
        "type": "sailor",
        "parent": "vtls004919492",
        "name": "thomas cross",
        "dob": "blk",
        "age": "25",
        "place_of_birth": "bridgenorth",
        "home_address": "blk",
        "f": "blk",
        "name_of_ship": "unity",
        "ship_port": "amlwch",
        "date_leaving": "1862-12-27",
        "joined_ship_date": "1863-02-11",
        "joined_at_port": "amlwch",
        "capacity": "mate",
        "date_left": "1863-06-30",
        "left_port": "belfast",
        "cause_of_leaving": "discharged",
        "sign_with_mark": "n",
        "notes": "blk"
    },
    {
        "id": "vtls004919492_0_12",
        "type": "sailor",
        "parent": "vtls004919492",
        "name": "griffith jones",
        "dob": "blk",
        "age": "32",
        "place_of_birth": "amlwch",
        "home_address": "blk",
        "f": "blk",
        "name_of_ship": "marmion",
        "ship_port": "aberystwyth",
        "date_leaving": "blk",
        "joined_ship_date": "1862-09-07",
        "joined_at_port": "liverpool",
        "capacity": "mate",
        "date_left": "blk",
        "left_port": "blk",
        "cause_of_leaving": "remains on board",
        "sign_with_mark": "n",
        "notes": "blk"
    },
    {
        "id": "vtls004919492_0_11",
        "type": "sailor",
        "parent": "vtls004919492",
        "name": "john thomas",
        "dob": "blk",
        "age": "29",
        "place_of_birth": "amlwch",
        "home_address": "blk",
        "f": "blk",
        "name_of_ship": "marmion",
        "ship_port": "aberystwyth",
        "date_leaving": "blk",
        "joined_ship_date": "1862-09-07",
        "joined_at_port": "liverpool",
        "capacity": "master",
        "date_left": "blk",
        "left_port": "blk",
        "cause_of_leaving": "remains on board",
        "sign_with_mark": "n",
        "notes": "blk"
    },
    {
        "id": "vtls004919492_1_11",
        "type": "sailor",
        "parent": "vtls004919492",
        "name": "john thomas",
        "dob": "blk",
        "age": "27",
        "place_of_birth": "amlwch",
        "home_address": "blk",
        "f": "blk",
        "name_of_ship": "marmion",
        "ship_port": "aberystwyth",
        "date_leaving": "remained on board",
        "joined_ship_date": "blk",
        "joined_at_port": "blk",
        "capacity": "master",
        "date_left": "blk",
        "left_port": "blk",
        "cause_of_leaving": "remains on board",
        "sign_with_mark": "n",
        "notes": "blk"
    },
    {
        "id": "vtls004920586_1_14",
        "type": "sailor",
        "parent": "vtls004920586",
        "name": "thomas jones",
        "dob": "blk",
        "age": "blk",
        "place_of_birth": "amlwch, anglesea",
        "home_address": "blk",
        "f": "blk",
        "name_of_ship": "marmion",
        "ship_port": "aberystwyth",
        "date_leaving": "blk",
        "joined_ship_date": "blk",
        "joined_at_port": "blk",
        "capacity": "ordinary seaman",
        "date_left": "1864-12-14",
        "left_port": "cemaes",
        "cause_of_leaving": "discharged",
        "sign_with_mark": "n",
        "notes": "blk"
    },
    {
        "id": "vtls004920586_1_13",
        "type": "sailor",
        "parent": "vtls004920586",
        "name": "griffith jones",
        "dob": "blk",
        "age": "26",
        "place_of_birth": "amlwch, anglesea",
        "home_address": "blk",
        "f": "blk",
        "name_of_ship": "marmion",
        "ship_port": "aberystwyth",
        "date_leaving": "blk",
        "joined_ship_date": "blk",
        "joined_at_port": "blk",
        "capacity": "able seaman",
        "date_left": "1864-12-14",
        "left_port": "cemaes",
        "cause_of_leaving": "discharged",
        "sign_with_mark": "n",
        "notes": "blk"
    },
    {
        "id": "vtls004919492_1_14",
        "type": "sailor",
        "parent": "vtls004919492",
        "name": "david owens",
        "dob": "blk",
        "age": "20",
        "place_of_birth": "amlwch",
        "home_address": "blk",
        "f": "blk",
        "name_of_ship": "gwen",
        "ship_port": "amlwch",
        "date_leaving": "1862-12-31",
        "joined_ship_date": "1863-02-11",
        "joined_at_port": "amlwch",
        "capacity": "ordinary seaman",
        "date_left": "1863-06-30",
        "left_port": "belfast",
        "cause_of_leaving": "discharged",
        "sign_with_mark": "n",
        "notes": "blk"
    },
    {
        "id": "vtls004920586_1_11",
        "type": "sailor",
        "parent": "vtls004920586",
        "name": "john thomas",
        "dob": "blk",
        "age": "36",
        "place_of_birth": "amlwch, anglesea",
        "home_address": "blk",
        "f": "blk",
        "name_of_ship": "marmion",
        "ship_port": "aberystwyth",
        "date_leaving": "blk",
        "joined_ship_date": "blk",
        "joined_at_port": "blk",
        "capacity": "master",
        "date_left": "1864-12-17",
        "left_port": "cemaes",
        "cause_of_leaving": "discharged",
        "sign_with_mark": "n",
        "notes": "blk"
    },
    {
        "id": "vtls004920586_0_13",
        "type": "sailor",
        "parent": "vtls004920586",
        "name": "john jones",
        "dob": "blk",
        "age": "22",
        "place_of_birth": "rhyle",
        "home_address": "blk",
        "f": "blk",
        "name_of_ship": "marmion",
        "ship_port": "aberystwyth",
        "date_leaving": "blk",
        "joined_ship_date": "1863",
        "joined_at_port": "amlwch",
        "capacity": "ordinary seaman",
        "date_left": "blk",
        "left_port": "blk",
        "cause_of_leaving": "remains on board",
        "sign_with_mark": "n",
        "notes": "blk"
    },
    {
        "id": "vtls004920586_1_12",
        "type": "sailor",
        "parent": "vtls004920586",
        "name": "owen owens",
        "dob": "blk",
        "age": "34",
        "place_of_birth": "amlwch, anglesea",
        "home_address": "blk",
        "f": "blk",
        "name_of_ship": "marmion",
        "ship_port": "aberystwyth",
        "date_leaving": "blk",
        "joined_ship_date": "blk",
        "joined_at_port": "blk",
        "capacity": "mate",
        "date_left": "1864-12-14",
        "left_port": "cemaes",
        "cause_of_leaving": "discharged",
        "sign_with_mark": "n",
        "notes": "blk"
    },
    {
        "id": "vtls004920586_0_11",
        "type": "sailor",
        "parent": "vtls004920586",
        "name": "john thomas",
        "dob": "blk",
        "age": "28",
        "place_of_birth": "amlwch",
        "home_address": "blk",
        "f": "blk",
        "name_of_ship": "marmion",
        "ship_port": "aberystwyth",
        "date_leaving": "blk",
        "joined_ship_date": "1862",
        "joined_at_port": "amlwch",
        "capacity": "master",
        "date_left": "blk",
        "left_port": "blk",
        "cause_of_leaving": "remains on board",
        "sign_with_mark": "n",
        "notes": "blk"
    },
    {
        "id": "vtls004920586_0_12",
        "type": "sailor",
        "parent": "vtls004920586",
        "name": "mathew thomas",
        "dob": "blk",
        "age": "26",
        "place_of_birth": "amlwch",
        "home_address": "blk",
        "f": "blk",
        "name_of_ship": "marmion",
        "ship_port": "aberystwyth",
        "date_leaving": "blk",
        "joined_ship_date": "1863",
        "joined_at_port": "amlwch",
        "capacity": "mate",
        "date_left": "blk",
        "left_port": "blk",
        "cause_of_leaving": "remains on board",
        "sign_with_mark": "n",
        "notes": "blk"
    },
    {
        "id": "vtls004920586_0_14",
        "type": "sailor",
        "parent": "vtls004920586",
        "name": "john jones",
        "dob": "blk",
        "age": "18",
        "place_of_birth": "bangor",
        "home_address": "blk",
        "f": "blk",
        "name_of_ship": "marmion",
        "ship_port": "aberystwyth",
        "date_leaving": "blk",
        "joined_ship_date": "1863",
        "joined_at_port": "amlwch",
        "capacity": "boy",
        "date_left": "blk",
        "left_port": "blk",
        "cause_of_leaving": "remains on board",
        "sign_with_mark": "n",
        "notes": "blk"
    },
    {
        "id": "vtls004920594_0_13",
        "type": "sailor",
        "parent": "vtls004920594",
        "name": "william evans",
        "dob": "blk",
        "age": "20",
        "place_of_birth": "amlwch",
        "home_address": "blk",
        "f": "blk",
        "name_of_ship": "marmion",
        "ship_port": "aberystwyth",
        "date_leaving": "blk",
        "joined_ship_date": "blk",
        "joined_at_port": "blk",
        "capacity": "able seaman",
        "date_left": "1866-06-30",
        "left_port": "blk",
        "cause_of_leaving": "remains on board",
        "sign_with_mark": "n",
        "notes": "2 crew list documents for january to june 1866"
    },
    {
        "id": "vtls004920594_0_11",
        "type": "sailor",
        "parent": "vtls004920594",
        "name": "john thomas",
        "dob": "blk",
        "age": "32",
        "place_of_birth": "amlwch",
        "home_address": "blk",
        "f": "blk",
        "name_of_ship": "marmion",
        "ship_port": "aberystwyth",
        "date_leaving": "blk",
        "joined_ship_date": "blk",
        "joined_at_port": "blk",
        "capacity": "master",
        "date_left": "1866-06-30",
        "left_port": "blk",
        "cause_of_leaving": "remains on board",
        "sign_with_mark": "n",
        "notes": "2 crew list documents for january to june 1866"
    },
    {
        "id": "vtls004920594_0_12",
        "type": "sailor",
        "parent": "vtls004920594",
        "name": "richard jones",
        "dob": "blk",
        "age": "33",
        "place_of_birth": "amlwch",
        "home_address": "blk",
        "f": "blk",
        "name_of_ship": "marmion",
        "ship_port": "aberystwyth",
        "date_leaving": "blk",
        "joined_ship_date": "blk",
        "joined_at_port": "blk",
        "capacity": "mate",
        "date_left": "1866-06-30",
        "left_port": "blk",
        "cause_of_leaving": "remains on board",
        "sign_with_mark": "n",
        "notes": "2 crew list documents for january to june 1866"
    },
    {
        "id": "vtls004920594_0_14",
        "type": "sailor",
        "parent": "vtls004920594",
        "name": "john thomas",
        "dob": "blk",
        "age": "16",
        "place_of_birth": "amlwch",
        "home_address": "blk",
        "f": "blk",
        "name_of_ship": "marmion",
        "ship_port": "aberystwyth",
        "date_leaving": "blk",
        "joined_ship_date": "blk",
        "joined_at_port": "blk",
        "capacity": "boy",
        "date_left": "1866-06-30",
        "left_port": "blk",
        "cause_of_leaving": "remains on board",
        "sign_with_mark": "n",
        "notes": "2 crew list documents for january to june 1866"
    },
    {
        "id": "vtls004920594_0_15",
        "type": "sailor",
        "parent": "vtls004920594",
        "name": "richard shaw",
        "dob": "blk",
        "age": "32",
        "place_of_birth": "whitstable",
        "home_address": "blk",
        "f": "blk",
        "name_of_ship": "marmion",
        "ship_port": "aberystwyth",
        "date_leaving": "blk",
        "joined_ship_date": "blk",
        "joined_at_port": "blk",
        "capacity": "mate",
        "date_left": "blk",
        "left_port": "blk",
        "cause_of_leaving": "remains on board",
        "sign_with_mark": "n",
        "notes": "2 crew list documents for january to june 1866"
    },
    {
        "id": "vtls004920594_1_11",
        "type": "sailor",
        "parent": "vtls004920594",
        "name": "john thomas",
        "dob": "blk",
        "age": "32",
        "place_of_birth": "amlwch",
        "home_address": "blk",
        "f": "blk",
        "name_of_ship": "marmion",
        "ship_port": "[amlwch]",
        "date_leaving": "blk",
        "joined_ship_date": "1862",
        "joined_at_port": "amlwch",
        "capacity": "master",
        "date_left": "blk",
        "left_port": "blk",
        "cause_of_leaving": "remains on board",
        "sign_with_mark": "n",
        "notes": "marmion is registered to the port of aberystwyth."
    },
    {
        "id": "vtls004920594_1_12",
        "type": "sailor",
        "parent": "vtls004920594",
        "name": "john thomas",
        "dob": "blk",
        "age": "42",
        "place_of_birth": "amlwch",
        "home_address": "blk",
        "f": "blk",
        "name_of_ship": "george fourth",
        "ship_port": "amlwch",
        "date_leaving": "1866-06-00",
        "joined_ship_date": "1866-07-00",
        "joined_at_port": "amlwch",
        "capacity": "mate",
        "date_left": "blk",
        "left_port": "blk",
        "cause_of_leaving": "remains on board",
        "sign_with_mark": "n",
        "notes": "blk"
    },
    {
        "id": "vtls004920604_0_14",
        "type": "sailor",
        "parent": "vtls004920604",
        "name": "william roberts",
        "dob": "blk",
        "age": "18",
        "place_of_birth": "amlwch",
        "home_address": "blk",
        "f": "blk",
        "name_of_ship": "marmion",
        "ship_port": "aberystwyth",
        "date_leaving": "1866-12-31",
        "joined_ship_date": "1867-01-01",
        "joined_at_port": "newry",
        "capacity": "ordinary seaman",
        "date_left": "1867-06-30",
        "left_port": "liverpool",
        "cause_of_leaving": "remains on board",
        "sign_with_mark": "n",
        "notes": "blk"
    },
    {
        "id": "vtls004920604_0_13",
        "type": "sailor",
        "parent": "vtls004920604",
        "name": "hugh hughes",
        "dob": "blk",
        "age": "25",
        "place_of_birth": "amlwch",
        "home_address": "blk",
        "f": "blk",
        "name_of_ship": "marmion",
        "ship_port": "aberystwyth",
        "date_leaving": "1866-12-31",
        "joined_ship_date": "1867-01-01",
        "joined_at_port": "newry",
        "capacity": "able seaman",
        "date_left": "1867-06-30",
        "left_port": "liverpool",
        "cause_of_leaving": "remains on board",
        "sign_with_mark": "n",
        "notes": "blk"
    },
    {
        "id": "vtls004920604_0_12",
        "type": "sailor",
        "parent": "vtls004920604",
        "name": "douglass hughes",
        "dob": "blk",
        "age": "40",
        "place_of_birth": "amlwch",
        "home_address": "blk",
        "f": "blk",
        "name_of_ship": "marmion",
        "ship_port": "aberystwyth",
        "date_leaving": "1866-12-31",
        "joined_ship_date": "1867-01-01",
        "joined_at_port": "newry",
        "capacity": "mate",
        "date_left": "1867-06-30",
        "left_port": "liverpool",
        "cause_of_leaving": "remains on board",
        "sign_with_mark": "n",
        "notes": "blk"
    },
    {
        "id": "vtls004920604_0_11",
        "type": "sailor",
        "parent": "vtls004920604",
        "name": "john thomas",
        "dob": "blk",
        "age": "32",
        "place_of_birth": "amlwch",
        "home_address": "blk",
        "f": "blk",
        "name_of_ship": "marmion",
        "ship_port": "aberystwyth",
        "date_leaving": "1866-12-31",
        "joined_ship_date": "1867-01-01",
        "joined_at_port": "newry",
        "capacity": "master",
        "date_left": "1867-06-30",
        "left_port": "liverpool",
        "cause_of_leaving": "remains on board",
        "sign_with_mark": "n",
        "notes": "blk"
    },
    {
        "id": "vtls004920604_1_13",
        "type": "sailor",
        "parent": "vtls004920604",
        "name": "john jones",
        "dob": "blk",
        "age": "26",
        "place_of_birth": "bangor",
        "home_address": "blk",
        "f": "blk",
        "name_of_ship": "marmion",
        "ship_port": "aberystwyth",
        "date_leaving": "1867-07-12",
        "joined_ship_date": "1867-07-12",
        "joined_at_port": "garston",
        "capacity": "able seaman",
        "date_left": "1868-01-07",
        "left_port": "belfast",
        "cause_of_leaving": "discharged",
        "sign_with_mark": "n",
        "notes": "blk"
    },
    {
        "id": "vtls004920604_1_12",
        "type": "sailor",
        "parent": "vtls004920604",
        "name": "richard williams",
        "dob": "blk",
        "age": "24",
        "place_of_birth": "bangor",
        "home_address": "blk",
        "f": "blk",
        "name_of_ship": "marmion",
        "ship_port": "aberystwyth",
        "date_leaving": "1867-07-12",
        "joined_ship_date": "1867-07-12",
        "joined_at_port": "garston",
        "capacity": "mate",
        "date_left": "1868-01-07",
        "left_port": "belfast",
        "cause_of_leaving": "discharged",
        "sign_with_mark": "n",
        "notes": "blk"
    },
    {
        "id": "vtls004920594_1_13",
        "type": "sailor",
        "parent": "vtls004920594",
        "name": "william jones",
        "dob": "blk",
        "age": "26",
        "place_of_birth": "amlwch",
        "home_address": "blk",
        "f": "blk",
        "name_of_ship": "cyprus",
        "ship_port": "bangor",
        "date_leaving": "1866-06-00",
        "joined_ship_date": "1866-07-00",
        "joined_at_port": "amlwch",
        "capacity": "able seaman",
        "date_left": "blk",
        "left_port": "blk",
        "cause_of_leaving": "remains on board",
        "sign_with_mark": "n",
        "notes": "blk"
    },
    {
        "id": "vtls004920604_1_11",
        "type": "sailor",
        "parent": "vtls004920604",
        "name": "john thomas",
        "dob": "blk",
        "age": "32",
        "place_of_birth": "amlwch",
        "home_address": "blk",
        "f": "blk",
        "name_of_ship": "marmion",
        "ship_port": "aberystwyth",
        "date_leaving": "remained on board",
        "joined_ship_date": "blk",
        "joined_at_port": "blk",
        "capacity": "master",
        "date_left": "blk",
        "left_port": "blk",
        "cause_of_leaving": "remains on board",
        "sign_with_mark": "n",
        "notes": "blk"
    },
    {
        "id": "vtls004920594_1_14",
        "type": "sailor",
        "parent": "vtls004920594",
        "name": "owen roberts",
        "dob": "blk",
        "age": "17",
        "place_of_birth": "amlwch",
        "home_address": "blk",
        "f": "blk",
        "name_of_ship": "dalton",
        "ship_port": "amlwch",
        "date_leaving": "1866-07-00",
        "joined_ship_date": "1866-07-00",
        "joined_at_port": "amlwch",
        "capacity": "boy",
        "date_left": "blk",
        "left_port": "blk",
        "cause_of_leaving": "remains on board",
        "sign_with_mark": "n",
        "notes": "blk"
    },
    {
        "id": "vtls004920604_1_14",
        "type": "sailor",
        "parent": "vtls004920604",
        "name": "henry jones",
        "dob": "blk",
        "age": "17",
        "place_of_birth": "bangor",
        "home_address": "blk",
        "f": "blk",
        "name_of_ship": "marmion",
        "ship_port": "aberystwyth",
        "date_leaving": "1867-07-12",
        "joined_ship_date": "1867-07-12",
        "joined_at_port": "garston",
        "capacity": "ordinary seaman",
        "date_left": "1868-01-01",
        "left_port": "belfast",
        "cause_of_leaving": "discharged",
        "sign_with_mark": "n",
        "notes": "blk"
    },
    {
        "id": "vtls004920608_0_14",
        "type": "sailor",
        "parent": "vtls004920608",
        "name": "john gilman",
        "dob": "blk",
        "age": "22",
        "place_of_birth": "milford",
        "home_address": "blk",
        "f": "blk",
        "name_of_ship": "marmion",
        "ship_port": "aberystwyth",
        "date_leaving": "continued",
        "joined_ship_date": "blk",
        "joined_at_port": "blk",
        "capacity": "able seaman",
        "date_left": "1869-05-18",
        "left_port": "bangor",
        "cause_of_leaving": "discharged",
        "sign_with_mark": "n",
        "notes": "blk"
    },
    {
        "id": "vtls004920608_0_15",
        "type": "sailor",
        "parent": "vtls004920608",
        "name": "niclos peterson",
        "dob": "blk",
        "age": "25",
        "place_of_birth": "amlwch",
        "home_address": "blk",
        "f": "blk",
        "name_of_ship": "martha",
        "ship_port": "blk",
        "date_leaving": "1869-06-02",
        "joined_ship_date": "1869-06-18",
        "joined_at_port": "bangor",
        "capacity": "able seaman",
        "date_left": "blk",
        "left_port": "blk",
        "cause_of_leaving": "remains on board",
        "sign_with_mark": "n",
        "notes": "blk"
    },
    {
        "id": "vtls004920608_0_13",
        "type": "sailor",
        "parent": "vtls004920608",
        "name": "owen thomas",
        "dob": "blk",
        "age": "49",
        "place_of_birth": "amlwch",
        "home_address": "blk",
        "f": "blk",
        "name_of_ship": "william & henry",
        "ship_port": "blk",
        "date_leaving": "1869-06-06",
        "joined_ship_date": "1869-06-14",
        "joined_at_port": "bangor",
        "capacity": "mate",
        "date_left": "blk",
        "left_port": "blk",
        "cause_of_leaving": "remains on board",
        "sign_with_mark": "n",
        "notes": "blk"
    },
    {
        "id": "vtls004920608_0_16",
        "type": "sailor",
        "parent": "vtls004920608",
        "name": "william jones",
        "dob": "blk",
        "age": "17",
        "place_of_birth": "amlwch",
        "home_address": "blk",
        "f": "blk",
        "name_of_ship": "marmion",
        "ship_port": "aberystwyth",
        "date_leaving": "continued",
        "joined_ship_date": "blk",
        "joined_at_port": "blk",
        "capacity": "boy",
        "date_left": "1869-05-17",
        "left_port": "bangor",
        "cause_of_leaving": "discharged",
        "sign_with_mark": "n",
        "notes": "blk"
    },
    {
        "id": "vtls004920608_0_12",
        "type": "sailor",
        "parent": "vtls004920608",
        "name": "john thomas",
        "dob": "blk",
        "age": "46",
        "place_of_birth": "amlwch",
        "home_address": "blk",
        "f": "blk",
        "name_of_ship": "marmion",
        "ship_port": "aberystwyth",
        "date_leaving": "continued",
        "joined_ship_date": "blk",
        "joined_at_port": "blk",
        "capacity": "mate",
        "date_left": "1869-05-17",
        "left_port": "bangor",
        "cause_of_leaving": "discharged",
        "sign_with_mark": "n",
        "notes": "blk"
    },
    {
        "id": "vtls004920608_0_11",
        "type": "sailor",
        "parent": "vtls004920608",
        "name": "owen owens",
        "dob": "blk",
        "age": "43",
        "place_of_birth": "amlwch",
        "home_address": "blk",
        "f": "blk",
        "name_of_ship": "marmion",
        "ship_port": "aberystwyth",
        "date_leaving": "continued",
        "joined_ship_date": "blk",
        "joined_at_port": "blk",
        "capacity": "master",
        "date_left": "blk",
        "left_port": "blk",
        "cause_of_leaving": "remains on board",
        "sign_with_mark": "n",
        "notes": "blk"
    },
    {
        "id": "vtls004920608_1_13",
        "type": "sailor",
        "parent": "vtls004920608",
        "name": "nicholas peters",
        "dob": "blk",
        "age": "23",
        "place_of_birth": "amlwch",
        "home_address": "blk",
        "f": "blk",
        "name_of_ship": "marmion",
        "ship_port": "aberystwyth",
        "date_leaving": "continues",
        "joined_ship_date": "blk",
        "joined_at_port": "blk",
        "capacity": "able seaman",
        "date_left": "1869-12-24",
        "left_port": "bangor",
        "cause_of_leaving": "discharged",
        "sign_with_mark": "n",
        "notes": "blk"
    },
    {
        "id": "vtls004920611_0_13",
        "type": "sailor",
        "parent": "vtls004920611",
        "name": "william roberts",
        "dob": "blk",
        "age": "24",
        "place_of_birth": "amlwch",
        "home_address": "blk",
        "f": "blk",
        "name_of_ship": "marmion",
        "ship_port": "aberystwyth",
        "date_leaving": "continued",
        "joined_ship_date": "blk",
        "joined_at_port": "blk",
        "capacity": "able seaman",
        "date_left": "1870-02-12",
        "left_port": "bangor",
        "cause_of_leaving": "discharged",
        "sign_with_mark": "n",
        "notes": "blk"
    },
    {
        "id": "vtls004920608_0_17",
        "type": "sailor",
        "parent": "vtls004920608",
        "name": "richard davies",
        "dob": "blk",
        "age": "18",
        "place_of_birth": "amlwch",
        "home_address": "blk",
        "f": "blk",
        "name_of_ship": "ann [murvey]",
        "ship_port": "blk",
        "date_leaving": "1869-06-08",
        "joined_ship_date": "1869-06-19",
        "joined_at_port": "bangor",
        "capacity": "boy",
        "date_left": "blk",
        "left_port": "blk",
        "cause_of_leaving": "remains on board",
        "sign_with_mark": "n",
        "notes": "blk"
    },
    {
        "id": "vtls004920608_1_14",
        "type": "sailor",
        "parent": "vtls004920608",
        "name": "richard davies",
        "dob": "blk",
        "age": "17",
        "place_of_birth": "amlwch",
        "home_address": "blk",
        "f": "blk",
        "name_of_ship": "marmion",
        "ship_port": "aberystwyth",
        "date_leaving": "continues",
        "joined_ship_date": "blk",
        "joined_at_port": "blk",
        "capacity": "boy",
        "date_left": "1869-12-24",
        "left_port": "bangor",
        "cause_of_leaving": "discharged",
        "sign_with_mark": "n",
        "notes": "blk"
    },
    {
        "id": "vtls004920608_1_12",
        "type": "sailor",
        "parent": "vtls004920608",
        "name": "owen thomas",
        "dob": "blk",
        "age": "53",
        "place_of_birth": "amlwch",
        "home_address": "blk",
        "f": "blk",
        "name_of_ship": "marmion",
        "ship_port": "aberystwyth",
        "date_leaving": "continues",
        "joined_ship_date": "blk",
        "joined_at_port": "blk",
        "capacity": "mate",
        "date_left": "1869-12-24",
        "left_port": "bangor",
        "cause_of_leaving": "discharged",
        "sign_with_mark": "n",
        "notes": "blk"
    },
    {
        "id": "vtls004920611_0_12",
        "type": "sailor",
        "parent": "vtls004920611",
        "name": "john davies",
        "dob": "blk",
        "age": "41",
        "place_of_birth": "amlwch",
        "home_address": "blk",
        "f": "blk",
        "name_of_ship": "marmion",
        "ship_port": "aberystwyth",
        "date_leaving": "continued",
        "joined_ship_date": "blk",
        "joined_at_port": "blk",
        "capacity": "mate",
        "date_left": "1870-02-12",
        "left_port": "bangor",
        "cause_of_leaving": "discharged",
        "sign_with_mark": "n",
        "notes": "blk"
    },
    {
        "id": "vtls004920611_0_14",
        "type": "sailor",
        "parent": "vtls004920611",
        "name": "richard morgan",
        "dob": "blk",
        "age": "12",
        "place_of_birth": "amlwch",
        "home_address": "blk",
        "f": "blk",
        "name_of_ship": "marmion",
        "ship_port": "aberystwyth",
        "date_leaving": "continued",
        "joined_ship_date": "blk",
        "joined_at_port": "blk",
        "capacity": "boy",
        "date_left": "blk",
        "left_port": "blk",
        "cause_of_leaving": "remains on board",
        "sign_with_mark": "n",
        "notes": "blk"
    },
    {
        "id": "vtls004920608_1_11",
        "type": "sailor",
        "parent": "vtls004920608",
        "name": "owen owens",
        "dob": "blk",
        "age": "45",
        "place_of_birth": "amlwch",
        "home_address": "blk",
        "f": "blk",
        "name_of_ship": "marmion",
        "ship_port": "aberystwyth",
        "date_leaving": "continues",
        "joined_ship_date": "blk",
        "joined_at_port": "blk",
        "capacity": "master",
        "date_left": "blk",
        "left_port": "blk",
        "cause_of_leaving": "remains on board",
        "sign_with_mark": "n",
        "notes": "blk"
    },
    {
        "id": "vtls004920611_0_11",
        "type": "sailor",
        "parent": "vtls004920611",
        "name": "owen owens",
        "dob": "blk",
        "age": "44",
        "place_of_birth": "amlwch",
        "home_address": "blk",
        "f": "blk",
        "name_of_ship": "marmion",
        "ship_port": "aberystwyth",
        "date_leaving": "continued",
        "joined_ship_date": "blk",
        "joined_at_port": "blk",
        "capacity": "master",
        "date_left": "blk",
        "left_port": "blk",
        "cause_of_leaving": "remains on board",
        "sign_with_mark": "n",
        "notes": "blk"
    },
    {
        "id": "vtls004920611_0_16",
        "type": "sailor",
        "parent": "vtls004920611",
        "name": "william jones",
        "dob": "blk",
        "age": "25",
        "place_of_birth": "amlwch",
        "home_address": "blk",
        "f": "blk",
        "name_of_ship": "earl of shetland",
        "ship_port": "blk",
        "date_leaving": "1870-03-02",
        "joined_ship_date": "1870-03-09",
        "joined_at_port": "bangor",
        "capacity": "able seaman",
        "date_left": "1870-06-11",
        "left_port": "bangor",
        "cause_of_leaving": "discharged",
        "sign_with_mark": "n",
        "notes": "blk"
    },
    {
        "id": "vtls004920611_1_13",
        "type": "sailor",
        "parent": "vtls004920611",
        "name": "george peterson",
        "dob": "blk",
        "age": "25",
        "place_of_birth": "amlwch",
        "home_address": "blk",
        "f": "blk",
        "name_of_ship": "mary grace",
        "ship_port": "amlwch",
        "date_leaving": "1870-07-01",
        "joined_ship_date": "1870-07-10",
        "joined_at_port": "bangor",
        "capacity": "able seaman",
        "date_left": "1870-09-30",
        "left_port": "bangor",
        "cause_of_leaving": "discharged",
        "sign_with_mark": "n",
        "notes": "blk"
    },
    {
        "id": "vtls004920611_0_15",
        "type": "sailor",
        "parent": "vtls004920611",
        "name": "nicholas peters",
        "dob": "blk",
        "age": "52",
        "place_of_birth": "russia",
        "home_address": "blk",
        "f": "blk",
        "name_of_ship": "mary grace",
        "ship_port": "beaumaris",
        "date_leaving": "1870-03-05",
        "joined_ship_date": "1870-03-12",
        "joined_at_port": "bangor",
        "capacity": "mate",
        "date_left": "1870-06-11",
        "left_port": "bangor",
        "cause_of_leaving": "discharged",
        "sign_with_mark": "n",
        "notes": "blk"
    },
    {
        "id": "vtls004920611_1_14",
        "type": "sailor",
        "parent": "vtls004920611",
        "name": "richard morgan",
        "dob": "blk",
        "age": "15",
        "place_of_birth": "amlwch",
        "home_address": "blk",
        "f": "blk",
        "name_of_ship": "marmion",
        "ship_port": "aberystwyth",
        "date_leaving": "continued",
        "joined_ship_date": "continued",
        "joined_at_port": "continued",
        "capacity": "cook",
        "date_left": "1870-09-30",
        "left_port": "bangor",
        "cause_of_leaving": "discharged",
        "sign_with_mark": "n",
        "notes": "blk"
    },
    {
        "id": "vtls004920611_1_11",
        "type": "sailor",
        "parent": "vtls004920611",
        "name": "owen owens",
        "dob": "blk",
        "age": "45",
        "place_of_birth": "amlwch",
        "home_address": "blk",
        "f": "blk",
        "name_of_ship": "marmion",
        "ship_port": "aberystwyth",
        "date_leaving": "continued",
        "joined_ship_date": "continued",
        "joined_at_port": "continued",
        "capacity": "master",
        "date_left": "blk",
        "left_port": "blk",
        "cause_of_leaving": "remains on board",
        "sign_with_mark": "n",
        "notes": "blk"
    },
    {
        "id": "vtls004920611_1_16",
        "type": "sailor",
        "parent": "vtls004920611",
        "name": "owen owens",
        "dob": "blk",
        "age": "26",
        "place_of_birth": "amlwch",
        "home_address": "blk",
        "f": "blk",
        "name_of_ship": "martha",
        "ship_port": "amlwch",
        "date_leaving": "1870-10-11",
        "joined_ship_date": "1870-11-11",
        "joined_at_port": "bangor",
        "capacity": "able seaman",
        "date_left": "blk",
        "left_port": "blk",
        "cause_of_leaving": "remains on board",
        "sign_with_mark": "n",
        "notes": "blk"
    },
    {
        "id": "vtls004920611_1_12",
        "type": "sailor",
        "parent": "vtls004920611",
        "name": "evan evans",
        "dob": "blk",
        "age": "52",
        "place_of_birth": "amlwch",
        "home_address": "blk",
        "f": "blk",
        "name_of_ship": "dalton",
        "ship_port": "amlwch",
        "date_leaving": "1870-07-04",
        "joined_ship_date": "1870-07-10",
        "joined_at_port": "bangor",
        "capacity": "mate",
        "date_left": "1870-09-30",
        "left_port": "bangor",
        "cause_of_leaving": "discharged",
        "sign_with_mark": "n",
        "notes": "blk"
    },
    {
        "id": "vtls004920611_1_15",
        "type": "sailor",
        "parent": "vtls004920611",
        "name": "john davies",
        "dob": "blk",
        "age": "43",
        "place_of_birth": "amlwch",
        "home_address": "blk",
        "f": "blk",
        "name_of_ship": "red",
        "ship_port": "holyhead",
        "date_leaving": "1870-10-20",
        "joined_ship_date": "1870-11-11",
        "joined_at_port": "bangor",
        "capacity": "mate",
        "date_left": "blk",
        "left_port": "blk",
        "cause_of_leaving": "remains on board",
        "sign_with_mark": "n",
        "notes": "blk"
    },
    {
        "id": "vtls004920657_0_12",
        "type": "sailor",
        "parent": "vtls004920657",
        "name": "william hughes",
        "dob": "blk",
        "age": "40",
        "place_of_birth": "amlwch, anglesea",
        "home_address": "blk",
        "f": "blk",
        "name_of_ship": "eagle of ireland",
        "ship_port": "beaumaris",
        "date_leaving": "1872-02-05",
        "joined_ship_date": "1872-03-03",
        "joined_at_port": "cemaes",
        "capacity": "mate",
        "date_left": "1872-06-20",
        "left_port": "amlwch",
        "cause_of_leaving": "discharged",
        "sign_with_mark": "n",
        "notes": "record also states that william hughes was the mate on his previous ship as well."
    },
    {
        "id": "vtls004920657_0_11",
        "type": "sailor",
        "parent": "vtls004920657",
        "name": "henry parry",
        "dob": "blk",
        "age": "22",
        "place_of_birth": "amlwch, anglesea",
        "home_address": "blk",
        "f": "blk",
        "name_of_ship": "little gem",
        "ship_port": "arundel",
        "date_leaving": "1872-03-02",
        "joined_ship_date": "1872-03-03",
        "joined_at_port": "cemaes",
        "capacity": "master",
        "date_left": "blk",
        "left_port": "blk",
        "cause_of_leaving": "remains on board",
        "sign_with_mark": "n",
        "notes": "record also states that henry parry was the master on his previous ship as well."
    },
    {
        "id": "vtls004920649_0_14",
        "type": "sailor",
        "parent": "vtls004920649",
        "name": "william williams",
        "dob": "blk",
        "age": "15",
        "place_of_birth": "amlwch",
        "home_address": "blk",
        "f": "blk",
        "name_of_ship": "marmion",
        "ship_port": "aberystwyth",
        "date_leaving": "continued",
        "joined_ship_date": "1871-01-01",
        "joined_at_port": "amlwch",
        "capacity": "ordinary seaman",
        "date_left": "1871-06-30",
        "left_port": "liverpool",
        "cause_of_leaving": "remains on board",
        "sign_with_mark": "n",
        "notes": "blk"
    },
    {
        "id": "vtls004920657_0_14",
        "type": "sailor",
        "parent": "vtls004920657",
        "name": "richard jones",
        "dob": "blk",
        "age": "18",
        "place_of_birth": "penrhos, anglesea",
        "home_address": "blk",
        "f": "blk",
        "name_of_ship": "maggie woodburne",
        "ship_port": "whitehaven",
        "date_leaving": "1872-03-10",
        "joined_ship_date": "1872-03-03",
        "joined_at_port": "cemaes",
        "capacity": "cook",
        "date_left": "blk",
        "left_port": "blk",
        "cause_of_leaving": "remains on board",
        "sign_with_mark": "n",
        "notes": "blk"
    },
    {
        "id": "vtls004920657_0_13",
        "type": "sailor",
        "parent": "vtls004920657",
        "name": "owen owen",
        "dob": "blk",
        "age": "22",
        "place_of_birth": "penrhos, anglesea",
        "home_address": "blk",
        "f": "blk",
        "name_of_ship": "mary catherine",
        "ship_port": "beaumaris",
        "date_leaving": "1872-03-11",
        "joined_ship_date": "1872-03-03",
        "joined_at_port": "cemaes",
        "capacity": "seaman",
        "date_left": "1872-06-20",
        "left_port": "amlwch",
        "cause_of_leaving": "discharged",
        "sign_with_mark": "n",
        "notes": "blk"
    },
    {
        "id": "vtls004920649_0_13",
        "type": "sailor",
        "parent": "vtls004920649",
        "name": "owen owens",
        "dob": "blk",
        "age": "24",
        "place_of_birth": "amlwch",
        "home_address": "blk",
        "f": "blk",
        "name_of_ship": "marmion",
        "ship_port": "aberystwyth",
        "date_leaving": "continued",
        "joined_ship_date": "1871-01-01",
        "joined_at_port": "amlwch",
        "capacity": "able seaman",
        "date_left": "1871-06-30",
        "left_port": "liverpool",
        "cause_of_leaving": "remains on board",
        "sign_with_mark": "n",
        "notes": "blk"
    },
    {
        "id": "vtls004920649_0_11",
        "type": "sailor",
        "parent": "vtls004920649",
        "name": "owen owens",
        "dob": "blk",
        "age": "45",
        "place_of_birth": "amlwch",
        "home_address": "blk",
        "f": "blk",
        "name_of_ship": "marmion",
        "ship_port": "aberystwyth",
        "date_leaving": "continued",
        "joined_ship_date": "1871-01-01",
        "joined_at_port": "amlwch",
        "capacity": "master",
        "date_left": "1871-06-30",
        "left_port": "liverpool",
        "cause_of_leaving": "remains on board",
        "sign_with_mark": "n",
        "notes": "blk"
    },
    {
        "id": "vtls004920657_1_16",
        "type": "sailor",
        "parent": "vtls004920657",
        "name": "william pritchard",
        "dob": "blk",
        "age": "27",
        "place_of_birth": "cemaes, anglesea",
        "home_address": "blk",
        "f": "blk",
        "name_of_ship": "little jim",
        "ship_port": "liverpool",
        "date_leaving": "1872-07-00",
        "joined_ship_date": "1872-12-16",
        "joined_at_port": "amlwch",
        "capacity": "able seaman",
        "date_left": "blk",
        "left_port": "blk",
        "cause_of_leaving": "remains on board",
        "sign_with_mark": "n",
        "notes": "blk"
    },
    {
        "id": "vtls004920657_1_13",
        "type": "sailor",
        "parent": "vtls004920657",
        "name": "william hughes",
        "dob": "blk",
        "age": "17",
        "place_of_birth": "cemaes, anglesea",
        "home_address": "blk",
        "f": "blk",
        "name_of_ship": "marmion",
        "ship_port": "aberystwyth",
        "date_leaving": "1872-06-30",
        "joined_ship_date": "1872-07-01",
        "joined_at_port": "amlwch",
        "capacity": "cook",
        "date_left": "1872-08-26",
        "left_port": "cemaes",
        "cause_of_leaving": "paid off",
        "sign_with_mark": "n",
        "notes": "blk"
    },
    {
        "id": "vtls004920662_0_14",
        "type": "sailor",
        "parent": "vtls004920662",
        "name": "john hughes",
        "dob": "blk",
        "age": "16",
        "place_of_birth": "cemaes, anglesea",
        "home_address": "blk",
        "f": "blk",
        "name_of_ship": "marmion",
        "ship_port": "aberystwyth",
        "date_leaving": "blk",
        "joined_ship_date": "blk",
        "joined_at_port": "blk",
        "capacity": "ordinary seaman",
        "date_left": "blk",
        "left_port": "blk",
        "cause_of_leaving": "remains on board",
        "sign_with_mark": "n",
        "notes": "blk"
    },
    {
        "id": "vtls004920662_1_14",
        "type": "sailor",
        "parent": "vtls004920662",
        "name": "john hughes",
        "dob": "blk",
        "age": "16",
        "place_of_birth": "cemaes, anglesea",
        "home_address": "blk",
        "f": "blk",
        "name_of_ship": "marmion",
        "ship_port": "aberystwyth",
        "date_leaving": "blk",
        "joined_ship_date": "blk",
        "joined_at_port": "blk",
        "capacity": "ordinary seaman",
        "date_left": "blk",
        "left_port": "blk",
        "cause_of_leaving": "remains on board",
        "sign_with_mark": "n",
        "notes": "blk"
    },
    {
        "id": "vtls004920657_1_12",
        "type": "sailor",
        "parent": "vtls004920657",
        "name": "william hughes",
        "dob": "blk",
        "age": "35",
        "place_of_birth": "amlwch",
        "home_address": "blk",
        "f": "blk",
        "name_of_ship": "marmion",
        "ship_port": "aberystwyth",
        "date_leaving": "1872-06-30",
        "joined_ship_date": "1872-07-01",
        "joined_at_port": "amlwch",
        "capacity": "mate",
        "date_left": "1872-08-26",
        "left_port": "cemaes",
        "cause_of_leaving": "paid off",
        "sign_with_mark": "n",
        "notes": "blk"
    },
    {
        "id": "vtls004920662_1_13",
        "type": "sailor",
        "parent": "vtls004920662",
        "name": "william hughes",
        "dob": "blk",
        "age": "19",
        "place_of_birth": "cemaes, anglesea",
        "home_address": "blk",
        "f": "blk",
        "name_of_ship": "marmion",
        "ship_port": "aberystwyth",
        "date_leaving": "blk",
        "joined_ship_date": "blk",
        "joined_at_port": "blk",
        "capacity": "able seaman",
        "date_left": "blk",
        "left_port": "blk",
        "cause_of_leaving": "remains on board",
        "sign_with_mark": "n",
        "notes": "blk"
    },
    {
        "id": "vtls004920657_1_11",
        "type": "sailor",
        "parent": "vtls004920657",
        "name": "henry parry",
        "dob": "blk",
        "age": "24",
        "place_of_birth": "amlwch",
        "home_address": "blk",
        "f": "blk",
        "name_of_ship": "marmion",
        "ship_port": "aberystwyth",
        "date_leaving": "continues",
        "joined_ship_date": "1872-01-00",
        "joined_at_port": "amlwch",
        "capacity": "master",
        "date_left": "1872-08-26",
        "left_port": "cemaes",
        "cause_of_leaving": "paid off",
        "sign_with_mark": "n",
        "notes": "blk"
    },
    {
        "id": "vtls004920662_0_13",
        "type": "sailor",
        "parent": "vtls004920662",
        "name": "owen williams",
        "dob": "blk",
        "age": "23",
        "place_of_birth": "liverpool",
        "home_address": "blk",
        "f": "blk",
        "name_of_ship": "marmion",
        "ship_port": "aberystwyth",
        "date_leaving": "blk",
        "joined_ship_date": "blk",
        "joined_at_port": "blk",
        "capacity": "able seaman",
        "date_left": "blk",
        "left_port": "blk",
        "cause_of_leaving": "remains on board",
        "sign_with_mark": "n",
        "notes": "blk"
    }
]