[
    {
        "id": "vtls004907008_0_11",
        "type": "sailor",
        "parent": "vtls004907008",
        "name": "stephen jones",
        "dob": "blk",
        "age": "55",
        "place_of_birth": "llanon",
        "home_address": "llanon",
        "f": "llanon",
        "name_of_ship": "leander",
        "ship_port": "aberystwyth",
        "date_leaving": "continues from last 6 months'",
        "joined_ship_date": "blk",
        "joined_at_port": "blk",
        "capacity": "master",
        "date_left": "blk",
        "left_port": "blk",
        "cause_of_leaving": "remains on board",
        "sign_with_mark": "n",
        "notes": "blk"
    },
    {
        "id": "vtls004907008_0_14",
        "type": "sailor",
        "parent": "vtls004907008",
        "name": "robert dominic",
        "dob": "blk",
        "age": "18",
        "place_of_birth": "amlwch",
        "home_address": "blk",
        "f": "blk",
        "name_of_ship": "kate",
        "ship_port": "blk",
        "date_leaving": "1878-02-",
        "joined_ship_date": "1878-03-22",
        "joined_at_port": "port dinorwic",
        "capacity": "ordinary seaman",
        "date_left": "blk",
        "left_port": "blk",
        "cause_of_leaving": "remains on board",
        "sign_with_mark": "n",
        "notes": "blk"
    },
    {
        "id": "vtls004907008_0_13",
        "type": "sailor",
        "parent": "vtls004907008",
        "name": "john roberts",
        "dob": "blk",
        "age": "25",
        "place_of_birth": "holyhead",
        "home_address": "blk",
        "f": "blk",
        "name_of_ship": "planet",
        "ship_port": "blk",
        "date_leaving": "1878-03-",
        "joined_ship_date": "1878-03-22",
        "joined_at_port": "port dinorwic",
        "capacity": "able seaman",
        "date_left": "blk",
        "left_port": "blk",
        "cause_of_leaving": "remains on board",
        "sign_with_mark": "n",
        "notes": "blk"
    },
    {
        "id": "vtls004907008_0_12",
        "type": "sailor",
        "parent": "vtls004907008",
        "name": "owen williams",
        "dob": "blk",
        "age": "32",
        "place_of_birth": "amloch",
        "home_address": "blk",
        "f": "blk",
        "name_of_ship": "amiable",
        "ship_port": "blk",
        "date_leaving": "1878-03-",
        "joined_ship_date": "1878-03-22",
        "joined_at_port": "port dinorwic",
        "capacity": "mate",
        "date_left": "blk",
        "left_port": "blk",
        "cause_of_leaving": "remains on board",
        "sign_with_mark": "n",
        "notes": "blk"
    },
    {
        "id": "vtls004907013_0_11",
        "type": "sailor",
        "parent": "vtls004907013",
        "name": "stephen jones",
        "dob": "blk",
        "age": "56",
        "place_of_birth": "llansantffraid",
        "home_address": "llanon, cardiganshire",
        "f": "llanon, cardiganshire",
        "name_of_ship": "leander",
        "ship_port": "aberystwyth",
        "date_leaving": "1878-12-31",
        "joined_ship_date": "1879-01-01",
        "joined_at_port": "crookhaven",
        "capacity": "master",
        "date_left": "1879-06-30",
        "left_port": "aberaeron",
        "cause_of_leaving": "remains on board",
        "sign_with_mark": "n",
        "notes": "blk"
    },
    {
        "id": "vtls004907013_1_11",
        "type": "sailor",
        "parent": "vtls004907013",
        "name": "stephen jones",
        "dob": "blk",
        "age": "blk",
        "place_of_birth": "blk",
        "home_address": "llanon, cardiganshire",
        "f": "llanon, cardiganshire",
        "name_of_ship": "blk",
        "ship_port": "blk",
        "date_leaving": "blk",
        "joined_ship_date": "blk",
        "joined_at_port": "master",
        "capacity": "blk",
        "date_left": "blk",
        "left_port": "blk",
        "cause_of_leaving": "blk",
        "sign_with_mark": "blk",
        "notes": "this vessel has been lying up at aberayron harbour having no crew employed'"
    },
    {
        "id": "vtls004907013_0_12",
        "type": "sailor",
        "parent": "vtls004907013",
        "name": "william jones",
        "dob": "blk",
        "age": "40",
        "place_of_birth": "llansantffraid",
        "home_address": "blk",
        "f": "blk",
        "name_of_ship": "leander",
        "ship_port": "aberystwyth",
        "date_leaving": "1878-12-31",
        "joined_ship_date": "1879-01-01",
        "joined_at_port": "crookhaven",
        "capacity": "mate",
        "date_left": "1879-05-24",
        "left_port": "aberaeron",
        "cause_of_leaving": "discharged",
        "sign_with_mark": "n",
        "notes": "blk"
    },
    {
        "id": "vtls004907013_0_13",
        "type": "sailor",
        "parent": "vtls004907013",
        "name": "thomas hughes",
        "dob": "blk",
        "age": "16",
        "place_of_birth": "carmarthen",
        "home_address": "blk",
        "f": "blk",
        "name_of_ship": "leander",
        "ship_port": "aberystwyth",
        "date_leaving": "1878-12-31",
        "joined_ship_date": "1879-01-01",
        "joined_at_port": "crookhaven",
        "capacity": "ordinary seaman",
        "date_left": "1879-05-24",
        "left_port": "aberaeron",
        "cause_of_leaving": "discharged",
        "sign_with_mark": "n",
        "notes": "blk"
    },
    {
        "id": "vtls004907008_1_11",
        "type": "sailor",
        "parent": "vtls004907008",
        "name": "stephen jones",
        "dob": "blk",
        "age": "55",
        "place_of_birth": "llanon",
        "home_address": "llanon, nr aberystwyth",
        "f": "llanon, nr aberystwyth",
        "name_of_ship": "leander",
        "ship_port": "abertystwyth",
        "date_leaving": "blk",
        "joined_ship_date": "blk",
        "joined_at_port": "blk",
        "capacity": "master",
        "date_left": "blk",
        "left_port": "blk",
        "cause_of_leaving": "remains on board",
        "sign_with_mark": "n",
        "notes": "blk"
    },
    {
        "id": "vtls004907008_1_14",
        "type": "sailor",
        "parent": "vtls004907008",
        "name": "thomas hughes",
        "dob": "blk",
        "age": "17",
        "place_of_birth": "carmarthen",
        "home_address": "blk",
        "f": "blk",
        "name_of_ship": "leander",
        "ship_port": "abertystwyth",
        "date_leaving": "blk",
        "joined_ship_date": "blk",
        "joined_at_port": "blk",
        "capacity": "ordinary seaman",
        "date_left": "blk",
        "left_port": "blk",
        "cause_of_leaving": "remains on board",
        "sign_with_mark": "n",
        "notes": "blk"
    },
    {
        "id": "vtls004907008_1_13",
        "type": "sailor",
        "parent": "vtls004907008",
        "name": "evan evans",
        "dob": "blk",
        "age": "20",
        "place_of_birth": "cardigan",
        "home_address": "blk",
        "f": "blk",
        "name_of_ship": "leander",
        "ship_port": "abertystwyth",
        "date_leaving": "blk",
        "joined_ship_date": "blk",
        "joined_at_port": "blk",
        "capacity": "ordinary seaman",
        "date_left": "blk",
        "left_port": "blk",
        "cause_of_leaving": "remains on board",
        "sign_with_mark": "n",
        "notes": "blk"
    },
    {
        "id": "vtls004907008_1_12",
        "type": "sailor",
        "parent": "vtls004907008",
        "name": "william jones",
        "dob": "blk",
        "age": "35",
        "place_of_birth": "llanon",
        "home_address": "blk",
        "f": "blk",
        "name_of_ship": "leander",
        "ship_port": "abertystwyth",
        "date_leaving": "blk",
        "joined_ship_date": "blk",
        "joined_at_port": "blk",
        "capacity": "mate",
        "date_left": "blk",
        "left_port": "blk",
        "cause_of_leaving": "remains on board",
        "sign_with_mark": "n",
        "notes": "blk"
    },
    {
        "id": "vtls004907028_1_11",
        "type": "sailor",
        "parent": "vtls004907028",
        "name": "john jones",
        "dob": "blk",
        "age": "43",
        "place_of_birth": "cardigan",
        "home_address": "fynon wen, penbryn, cardigan",
        "f": "fynon wen, penbryn, cardigan",
        "name_of_ship": "leander",
        "ship_port": "aberystwyth",
        "date_leaving": "1880-",
        "joined_ship_date": "1880-09-15",
        "joined_at_port": "glasgow",
        "capacity": "master",
        "date_left": "blk",
        "left_port": "blk",
        "cause_of_leaving": "remains on board",
        "sign_with_mark": "n",
        "notes": "blk"
    },
    {
        "id": "vtls004907028_1_13",
        "type": "sailor",
        "parent": "vtls004907028",
        "name": "john griffiths",
        "dob": "blk",
        "age": "35",
        "place_of_birth": "cardigan",
        "home_address": "blk",
        "f": "blk",
        "name_of_ship": "leander",
        "ship_port": "aberystwyth",
        "date_leaving": "1880-",
        "joined_ship_date": "1880-09-15",
        "joined_at_port": "glasgow",
        "capacity": "able seaman",
        "date_left": "1880-11-25",
        "left_port": "at sea",
        "cause_of_leaving": "drowned",
        "sign_with_mark": "y",
        "notes": "knocked overboard by main sheet'"
    },
    {
        "id": "vtls004907028_2_11",
        "type": "sailor",
        "parent": "vtls004907028",
        "name": "john jones",
        "dob": "blk",
        "age": "45",
        "place_of_birth": "cardiganshire",
        "home_address": "cardigan, s wales",
        "f": "cardigan, s wales",
        "name_of_ship": "leander",
        "ship_port": "aberystwyth",
        "date_leaving": "1881-",
        "joined_ship_date": "1881-01-01",
        "joined_at_port": "london",
        "capacity": "master",
        "date_left": "1881-06-30",
        "left_port": "dublin",
        "cause_of_leaving": "remains on board",
        "sign_with_mark": "n",
        "notes": "blk"
    },
    {
        "id": "vtls004907028_0_13",
        "type": "sailor",
        "parent": "vtls004907028",
        "name": "james griffiths",
        "dob": "1863",
        "age": "blk",
        "place_of_birth": "cardigan",
        "home_address": "blk",
        "f": "blk",
        "name_of_ship": "leander",
        "ship_port": "aberystwyth",
        "date_leaving": "1881-",
        "joined_ship_date": "1881-07-07",
        "joined_at_port": "dublin",
        "capacity": "ordinary seaman",
        "date_left": "1881-09-03",
        "left_port": "folkestone",
        "cause_of_leaving": "discharged",
        "sign_with_mark": "n",
        "notes": "blk"
    },
    {
        "id": "vtls004907028_0_12",
        "type": "sailor",
        "parent": "vtls004907028",
        "name": "john griffiths",
        "dob": "1819",
        "age": "blk",
        "place_of_birth": "cardigan",
        "home_address": "blk",
        "f": "blk",
        "name_of_ship": "leander",
        "ship_port": "aberystwyth",
        "date_leaving": "1881-",
        "joined_ship_date": "1881-07-07",
        "joined_at_port": "dublin",
        "capacity": "bosun",
        "date_left": "1881-09-03",
        "left_port": "folkestone",
        "cause_of_leaving": "discharged",
        "sign_with_mark": "n",
        "notes": "blk"
    },
    {
        "id": "vtls004907028_1_12",
        "type": "sailor",
        "parent": "vtls004907028",
        "name": "benjamin davies",
        "dob": "blk",
        "age": "36",
        "place_of_birth": "cardigan",
        "home_address": "blk",
        "f": "blk",
        "name_of_ship": "leander",
        "ship_port": "aberystwyth",
        "date_leaving": "1880-",
        "joined_ship_date": "1880-09-15",
        "joined_at_port": "glasgow",
        "capacity": "bosun",
        "date_left": "1881-01-18",
        "left_port": "london",
        "cause_of_leaving": "discharged",
        "sign_with_mark": "n",
        "notes": "blk"
    },
    {
        "id": "vtls004907028_1_14",
        "type": "sailor",
        "parent": "vtls004907028",
        "name": "joseph $$herry",
        "dob": "blk",
        "age": "30",
        "place_of_birth": "jersey",
        "home_address": "blk",
        "f": "blk",
        "name_of_ship": "spey",
        "ship_port": "jersey",
        "date_leaving": "1880-",
        "joined_ship_date": "1880-09-15",
        "joined_at_port": "glasgow",
        "capacity": "able seaman",
        "date_left": "1881-01-18",
        "left_port": "london",
        "cause_of_leaving": "discharged",
        "sign_with_mark": "n",
        "notes": "blk"
    },
    {
        "id": "vtls004907028_0_11",
        "type": "sailor",
        "parent": "vtls004907028",
        "name": "john jones",
        "dob": "1836",
        "age": "blk",
        "place_of_birth": "cardigan",
        "home_address": "blk",
        "f": "blk",
        "name_of_ship": "leander",
        "ship_port": "aberystwyth",
        "date_leaving": "1881-",
        "joined_ship_date": "1881-07-07",
        "joined_at_port": "dublin",
        "capacity": "master",
        "date_left": "1881-",
        "left_port": "blk",
        "cause_of_leaving": "blk",
        "sign_with_mark": "n",
        "notes": "blk"
    },
    {
        "id": "vtls004907028_2_14",
        "type": "sailor",
        "parent": "vtls004907028",
        "name": "john griffiths",
        "dob": "blk",
        "age": "62",
        "place_of_birth": "cardiganshire",
        "home_address": "blk",
        "f": "blk",
        "name_of_ship": "hetty mary",
        "ship_port": "aberystwyth",
        "date_leaving": "1881-",
        "joined_ship_date": "1881-04-02",
        "joined_at_port": "milford",
        "capacity": "boatswain",
        "date_left": "1881-06-30",
        "left_port": "dublin",
        "cause_of_leaving": "remains on board",
        "sign_with_mark": "n",
        "notes": "blk"
    },
    {
        "id": "vtls004907028_2_13",
        "type": "sailor",
        "parent": "vtls004907028",
        "name": "daniel rees",
        "dob": "blk",
        "age": "18",
        "place_of_birth": "cardiganshire",
        "home_address": "blk",
        "f": "blk",
        "name_of_ship": "leander",
        "ship_port": "aberystwyth",
        "date_leaving": "1881-",
        "joined_ship_date": "1881-01-01",
        "joined_at_port": "london",
        "capacity": "ordinary seaman",
        "date_left": "1881-06-30",
        "left_port": "dublin",
        "cause_of_leaving": "remains on board",
        "sign_with_mark": "n",
        "notes": "blk"
    },
    {
        "id": "vtls004907028_3_11",
        "type": "sailor",
        "parent": "vtls004907028",
        "name": "john jones",
        "dob": "1837",
        "age": "blk",
        "place_of_birth": "aberporth",
        "home_address": "fynonwen, penbryn, cardiganshire",
        "f": "fynonwen, penbryn, cardiganshire",
        "name_of_ship": "leander",
        "ship_port": "aberystwyth",
        "date_leaving": "blk",
        "joined_ship_date": "blk",
        "joined_at_port": "blk",
        "capacity": "master",
        "date_left": "blk",
        "left_port": "blk",
        "cause_of_leaving": "remains on board",
        "sign_with_mark": "n",
        "notes": "blk"
    },
    {
        "id": "vtls004907028_2_12",
        "type": "sailor",
        "parent": "vtls004907028",
        "name": "benjamin davies",
        "dob": "blk",
        "age": "38",
        "place_of_birth": "cardiganshire",
        "home_address": "blk",
        "f": "blk",
        "name_of_ship": "leander",
        "ship_port": "aberystwyth",
        "date_leaving": "1881-",
        "joined_ship_date": "1881-01-01",
        "joined_at_port": "london",
        "capacity": "boatswain",
        "date_left": "1881-03-03",
        "left_port": "milford",
        "cause_of_leaving": "discharged",
        "sign_with_mark": "n",
        "notes": "blk"
    },
    {
        "id": "vtls004906960_0_11",
        "type": "sailor",
        "parent": "vtls004906960",
        "name": "daniel davies",
        "dob": "blk",
        "age": "38",
        "place_of_birth": "cardigan",
        "home_address": "llanon",
        "f": "llanon",
        "name_of_ship": "leander",
        "ship_port": "aberystwyth",
        "date_leaving": "blk",
        "joined_ship_date": "continued",
        "joined_at_port": "blk",
        "capacity": "master",
        "date_left": "1866-06-30",
        "left_port": "amsterdam",
        "cause_of_leaving": "remains on board",
        "sign_with_mark": "n",
        "notes": "blk"
    },
    {
        "id": "vtls004907028_2_15",
        "type": "sailor",
        "parent": "vtls004907028",
        "name": "james griffiths",
        "dob": "blk",
        "age": "18",
        "place_of_birth": "cardiganshire",
        "home_address": "blk",
        "f": "blk",
        "name_of_ship": "first ship",
        "ship_port": "blk",
        "date_leaving": "blk",
        "joined_ship_date": "1881-04-03",
        "joined_at_port": "milford",
        "capacity": "boy",
        "date_left": "1881-06-30",
        "left_port": "dublin",
        "cause_of_leaving": "remains on board",
        "sign_with_mark": "n",
        "notes": "blk"
    },
    {
        "id": "vtls004907028_3_13",
        "type": "sailor",
        "parent": "vtls004907028",
        "name": "daniel rees",
        "dob": "1862",
        "age": "blk",
        "place_of_birth": "cardigan",
        "home_address": "blk",
        "f": "blk",
        "name_of_ship": "leander",
        "ship_port": "aberystwyth",
        "date_leaving": "1881-12-15",
        "joined_ship_date": "blk",
        "joined_at_port": "blk",
        "capacity": "able seaman",
        "date_left": "1881-12-20",
        "left_port": "carmarthen",
        "cause_of_leaving": "discharged",
        "sign_with_mark": "n",
        "notes": "blk"
    },
    {
        "id": "vtls004907028_3_12",
        "type": "sailor",
        "parent": "vtls004907028",
        "name": "john griffiths",
        "dob": "1819",
        "age": "blk",
        "place_of_birth": "aberporth",
        "home_address": "blk",
        "f": "blk",
        "name_of_ship": "leander",
        "ship_port": "aberystwyth",
        "date_leaving": "blk",
        "joined_ship_date": "blk",
        "joined_at_port": "blk",
        "capacity": "mate",
        "date_left": "1881-12-20",
        "left_port": "carmarthen",
        "cause_of_leaving": "discharged",
        "sign_with_mark": "n",
        "notes": "blk"
    },
    {
        "id": "vtls004907028_3_14",
        "type": "sailor",
        "parent": "vtls004907028",
        "name": "james griffiths",
        "dob": "1864",
        "age": "blk",
        "place_of_birth": "cardigan",
        "home_address": "blk",
        "f": "blk",
        "name_of_ship": "leander",
        "ship_port": "aberystwyth",
        "date_leaving": "blk",
        "joined_ship_date": "blk",
        "joined_at_port": "blk",
        "capacity": "boy",
        "date_left": "1881-12-20",
        "left_port": "carmarthen",
        "cause_of_leaving": "discharged",
        "sign_with_mark": "n",
        "notes": "blk"
    },
    {
        "id": "vtls004906960_0_13",
        "type": "sailor",
        "parent": "vtls004906960",
        "name": "john jones",
        "dob": "blk",
        "age": "26",
        "place_of_birth": "cardigan",
        "home_address": "blk",
        "f": "blk",
        "name_of_ship": "leander",
        "ship_port": "aberystwyth",
        "date_leaving": "1865-12-31",
        "joined_ship_date": "1866-01-01",
        "joined_at_port": "barrow",
        "capacity": "able seaman",
        "date_left": "1866-06-30",
        "left_port": "amsterdam",
        "cause_of_leaving": "remains on board",
        "sign_with_mark": "n",
        "notes": "blk"
    },
    {
        "id": "vtls004906960_1_11",
        "type": "sailor",
        "parent": "vtls004906960",
        "name": "daniel davies",
        "dob": "blk",
        "age": "38",
        "place_of_birth": "cardiganshire",
        "home_address": "llanon, cardiganshire",
        "f": "llanon, cardiganshire",
        "name_of_ship": "leander",
        "ship_port": "aberystwyth",
        "date_leaving": "not discharged",
        "joined_ship_date": "blk",
        "joined_at_port": "blk",
        "capacity": "master",
        "date_left": "blk",
        "left_port": "blk",
        "cause_of_leaving": "remains on board",
        "sign_with_mark": "n",
        "notes": "blk"
    },
    {
        "id": "vtls004906960_0_12",
        "type": "sailor",
        "parent": "vtls004906960",
        "name": "john griffith",
        "dob": "blk",
        "age": "30",
        "place_of_birth": "cardigan",
        "home_address": "blk",
        "f": "blk",
        "name_of_ship": "leander",
        "ship_port": "aberystwyth",
        "date_leaving": "1865-12-31",
        "joined_ship_date": "1866-01-01",
        "joined_at_port": "barrow",
        "capacity": "mate",
        "date_left": "1866-06-30",
        "left_port": "amsterdam",
        "cause_of_leaving": "remains on board",
        "sign_with_mark": "n",
        "notes": "blk"
    },
    {
        "id": "vtls004906960_1_13",
        "type": "sailor",
        "parent": "vtls004906960",
        "name": "john jones",
        "dob": "blk",
        "age": "26",
        "place_of_birth": "cardiganshire",
        "home_address": "blk",
        "f": "blk",
        "name_of_ship": "leander",
        "ship_port": "aberystwyth",
        "date_leaving": "not discharged",
        "joined_ship_date": "blk",
        "joined_at_port": "blk",
        "capacity": "able seaman",
        "date_left": "blk",
        "left_port": "blk",
        "cause_of_leaving": "remains on board",
        "sign_with_mark": "n",
        "notes": "blk"
    },
    {
        "id": "vtls004906964_0_11",
        "type": "sailor",
        "parent": "vtls004906964",
        "name": "stephen jones",
        "dob": "blk",
        "age": "43",
        "place_of_birth": "aberystwyth",
        "home_address": "aberystwyth",
        "f": "aberystwyth",
        "name_of_ship": "leander",
        "ship_port": "aberystwyth",
        "date_leaving": "continued",
        "joined_ship_date": "continued",
        "joined_at_port": "blk",
        "capacity": "master",
        "date_left": "blk",
        "left_port": "blk",
        "cause_of_leaving": "still on board",
        "sign_with_mark": "n",
        "notes": "blk"
    },
    {
        "id": "vtls004906960_1_12",
        "type": "sailor",
        "parent": "vtls004906960",
        "name": "john griffiths",
        "dob": "blk",
        "age": "30",
        "place_of_birth": "cardiganshire",
        "home_address": "blk",
        "f": "blk",
        "name_of_ship": "leander",
        "ship_port": "aberystwyth",
        "date_leaving": "not discharged",
        "joined_ship_date": "blk",
        "joined_at_port": "blk",
        "capacity": "mate",
        "date_left": "blk",
        "left_port": "blk",
        "cause_of_leaving": "remains on board",
        "sign_with_mark": "n",
        "notes": "blk"
    },
    {
        "id": "vtls004906964_0_12",
        "type": "sailor",
        "parent": "vtls004906964",
        "name": "john thomas",
        "dob": "blk",
        "age": "24",
        "place_of_birth": "aberystwyth",
        "home_address": "blk",
        "f": "blk",
        "name_of_ship": "leander",
        "ship_port": "aberystwyth",
        "date_leaving": "continued",
        "joined_ship_date": "continued",
        "joined_at_port": "blk",
        "capacity": "mate",
        "date_left": "blk",
        "left_port": "blk",
        "cause_of_leaving": "still on board",
        "sign_with_mark": "n",
        "notes": "blk"
    },
    {
        "id": "vtls004906964_1_11",
        "type": "sailor",
        "parent": "vtls004906964",
        "name": "stephen jones",
        "dob": "blk",
        "age": "45",
        "place_of_birth": "aberystwyth",
        "home_address": "llanon, cardiganshire",
        "f": "llanon, cardiganshire",
        "name_of_ship": "leander",
        "ship_port": "aberystwyth",
        "date_leaving": "1868-01-30",
        "joined_ship_date": "1868-07-01",
        "joined_at_port": "londonderry",
        "capacity": "master",
        "date_left": "1868-12-30",
        "left_port": "blk",
        "cause_of_leaving": "remains on board",
        "sign_with_mark": "n",
        "notes": "blk"
    },
    {
        "id": "vtls004906964_1_13",
        "type": "sailor",
        "parent": "vtls004906964",
        "name": "evan hughes",
        "dob": "blk",
        "age": "49",
        "place_of_birth": "aberystwyth",
        "home_address": "blk",
        "f": "blk",
        "name_of_ship": "leander",
        "ship_port": "aberystwyth",
        "date_leaving": "1868-01-30",
        "joined_ship_date": "1868-07-01",
        "joined_at_port": "londonderry",
        "capacity": "able seaman",
        "date_left": "1868-12-30",
        "left_port": "blk",
        "cause_of_leaving": "remains on board",
        "sign_with_mark": "n",
        "notes": "blk"
    },
    {
        "id": "vtls004906964_1_12",
        "type": "sailor",
        "parent": "vtls004906964",
        "name": "james thomas",
        "dob": "blk",
        "age": "29",
        "place_of_birth": "newquay",
        "home_address": "blk",
        "f": "blk",
        "name_of_ship": "leander",
        "ship_port": "aberystwyth",
        "date_leaving": "1868-01-30",
        "joined_ship_date": "1868-07-01",
        "joined_at_port": "londonderry",
        "capacity": "mate",
        "date_left": "1868-12-30",
        "left_port": "blk",
        "cause_of_leaving": "remains on board",
        "sign_with_mark": "n",
        "notes": "blk"
    },
    {
        "id": "vtls004906964_1_14",
        "type": "sailor",
        "parent": "vtls004906964",
        "name": "albert newton",
        "dob": "blk",
        "age": "15",
        "place_of_birth": "bristol",
        "home_address": "blk",
        "f": "blk",
        "name_of_ship": "leander",
        "ship_port": "aberystwyth",
        "date_leaving": "1868-01-30",
        "joined_ship_date": "1868-07-01",
        "joined_at_port": "londonderry",
        "capacity": "boy",
        "date_left": "1868-12-30",
        "left_port": "blk",
        "cause_of_leaving": "remains on board",
        "sign_with_mark": "n",
        "notes": "blk"
    },
    {
        "id": "vtls004906965_0_11",
        "type": "sailor",
        "parent": "vtls004906965",
        "name": "stephen jones",
        "dob": "blk",
        "age": "46",
        "place_of_birth": "llanon",
        "home_address": "llannon, aberystwyth",
        "f": "llannon, aberystwyth",
        "name_of_ship": "leander",
        "ship_port": "aberystwyth",
        "date_leaving": "continued",
        "joined_ship_date": "continued",
        "joined_at_port": "blk",
        "capacity": "master",
        "date_left": "blk",
        "left_port": "blk",
        "cause_of_leaving": "remains on board",
        "sign_with_mark": "n",
        "notes": "blk"
    },
    {
        "id": "vtls004906965_0_13",
        "type": "sailor",
        "parent": "vtls004906965",
        "name": "william williams",
        "dob": "blk",
        "age": "28",
        "place_of_birth": "beaumaris",
        "home_address": "blk",
        "f": "blk",
        "name_of_ship": "leander",
        "ship_port": "aberystwyth",
        "date_leaving": "continued",
        "joined_ship_date": "continued",
        "joined_at_port": "blk",
        "capacity": "able seaman",
        "date_left": "blk",
        "left_port": "blk",
        "cause_of_leaving": "remains on board",
        "sign_with_mark": "n",
        "notes": "blk"
    },
    {
        "id": "vtls004906964_0_13",
        "type": "sailor",
        "parent": "vtls004906964",
        "name": "john jones",
        "dob": "blk",
        "age": "22",
        "place_of_birth": "cardigan",
        "home_address": "blk",
        "f": "blk",
        "name_of_ship": "leander",
        "ship_port": "aberystwyth",
        "date_leaving": "continued",
        "joined_ship_date": "continued",
        "joined_at_port": "blk",
        "capacity": "able seaman",
        "date_left": "blk",
        "left_port": "blk",
        "cause_of_leaving": "still on board",
        "sign_with_mark": "n",
        "notes": "blk"
    },
    {
        "id": "vtls004906965_0_12",
        "type": "sailor",
        "parent": "vtls004906965",
        "name": "george banner",
        "dob": "blk",
        "age": "57",
        "place_of_birth": "pembroke",
        "home_address": "blk",
        "f": "blk",
        "name_of_ship": "leander",
        "ship_port": "aberystwyth",
        "date_leaving": "continued",
        "joined_ship_date": "continued",
        "joined_at_port": "blk",
        "capacity": "mate",
        "date_left": "blk",
        "left_port": "blk",
        "cause_of_leaving": "remains on board",
        "sign_with_mark": "n",
        "notes": "blk"
    },
    {
        "id": "vtls004906964_0_14",
        "type": "sailor",
        "parent": "vtls004906964",
        "name": "thomas jones",
        "dob": "blk",
        "age": "15",
        "place_of_birth": "aberystwyth",
        "home_address": "blk",
        "f": "blk",
        "name_of_ship": "leander",
        "ship_port": "aberystwyth",
        "date_leaving": "continued",
        "joined_ship_date": "continued",
        "joined_at_port": "blk",
        "capacity": "boy",
        "date_left": "blk",
        "left_port": "blk",
        "cause_of_leaving": "still on board",
        "sign_with_mark": "n",
        "notes": "blk"
    },
    {
        "id": "vtls004906965_1_13",
        "type": "sailor",
        "parent": "vtls004906965",
        "name": "george musselwhite",
        "dob": "blk",
        "age": "19",
        "place_of_birth": "poole",
        "home_address": "blk",
        "f": "blk",
        "name_of_ship": "leander",
        "ship_port": "aberystwyth",
        "date_leaving": "continued",
        "joined_ship_date": "1870-07-01",
        "joined_at_port": "greenock",
        "capacity": "ordinary seaman",
        "date_left": "1870-12-31",
        "left_port": "liverpool",
        "cause_of_leaving": "remains on board",
        "sign_with_mark": "n",
        "notes": "blk"
    },
    {
        "id": "vtls004906965_1_11",
        "type": "sailor",
        "parent": "vtls004906965",
        "name": "stephen jones",
        "dob": "blk",
        "age": "47",
        "place_of_birth": "llanon",
        "home_address": "llanon, cardigan",
        "f": "llanon, cardigan",
        "name_of_ship": "leander",
        "ship_port": "aberystwyth",
        "date_leaving": "continued",
        "joined_ship_date": "1870-07-01",
        "joined_at_port": "greenock",
        "capacity": "master",
        "date_left": "1870-12-31",
        "left_port": "liverpool",
        "cause_of_leaving": "remains on board",
        "sign_with_mark": "n",
        "notes": "blk"
    },
    {
        "id": "vtls004906965_1_14",
        "type": "sailor",
        "parent": "vtls004906965",
        "name": "john butler",
        "dob": "blk",
        "age": "19",
        "place_of_birth": "poole",
        "home_address": "blk",
        "f": "blk",
        "name_of_ship": "leander",
        "ship_port": "aberystwyth",
        "date_leaving": "continued",
        "joined_ship_date": "1870-07-01",
        "joined_at_port": "greenock",
        "capacity": "ordinary seaman",
        "date_left": "1870-12-31",
        "left_port": "liverpool",
        "cause_of_leaving": "remains on board",
        "sign_with_mark": "n",
        "notes": "blk"
    },
    {
        "id": "vtls004906965_1_12",
        "type": "sailor",
        "parent": "vtls004906965",
        "name": "george crocker",
        "dob": "blk",
        "age": "41",
        "place_of_birth": "bridport",
        "home_address": "blk",
        "f": "blk",
        "name_of_ship": "leander",
        "ship_port": "aberystwyth",
        "date_leaving": "continued",
        "joined_ship_date": "1870-07-01",
        "joined_at_port": "greenock",
        "capacity": "mate",
        "date_left": "1870-12-31",
        "left_port": "liverpool",
        "cause_of_leaving": "remains on board",
        "sign_with_mark": "n",
        "notes": "blk"
    },
    {
        "id": "vtls004906969_0_12",
        "type": "sailor",
        "parent": "vtls004906969",
        "name": "john davies",
        "dob": "blk",
        "age": "32",
        "place_of_birth": "cardigan",
        "home_address": "blk",
        "f": "blk",
        "name_of_ship": "leander",
        "ship_port": "aberystwyth",
        "date_leaving": "continued",
        "joined_ship_date": "continued",
        "joined_at_port": "blk",
        "capacity": "mate",
        "date_left": "1871-06-30",
        "left_port": "at sea",
        "cause_of_leaving": "remains on board",
        "sign_with_mark": "n",
        "notes": "blk"
    },
    {
        "id": "vtls004906969_0_11",
        "type": "sailor",
        "parent": "vtls004906969",
        "name": "stephen jones",
        "dob": "blk",
        "age": "48",
        "place_of_birth": "aberystwyth",
        "home_address": "aberystwyth",
        "f": "aberystwyth",
        "name_of_ship": "leander",
        "ship_port": "aberystwyth",
        "date_leaving": "continued",
        "joined_ship_date": "continued",
        "joined_at_port": "blk",
        "capacity": "master",
        "date_left": "blk",
        "left_port": "blk",
        "cause_of_leaving": "remains on board",
        "sign_with_mark": "n",
        "notes": "blk"
    },
    {
        "id": "vtls004906965_0_14",
        "type": "sailor",
        "parent": "vtls004906965",
        "name": "george cooper",
        "dob": "blk",
        "age": "16",
        "place_of_birth": "guernsey",
        "home_address": "blk",
        "f": "blk",
        "name_of_ship": "leander",
        "ship_port": "aberystwyth",
        "date_leaving": "continued",
        "joined_ship_date": "continued",
        "joined_at_port": "blk",
        "capacity": "boy",
        "date_left": "blk",
        "left_port": "blk",
        "cause_of_leaving": "remains on board",
        "sign_with_mark": "n",
        "notes": "blk"
    },
    {
        "id": "vtls004906969_0_13",
        "type": "sailor",
        "parent": "vtls004906969",
        "name": "james cullicott",
        "dob": "blk",
        "age": "24",
        "place_of_birth": "teignmouth",
        "home_address": "blk",
        "f": "blk",
        "name_of_ship": "leander",
        "ship_port": "aberystwyth",
        "date_leaving": "continued",
        "joined_ship_date": "continued",
        "joined_at_port": "blk",
        "capacity": "able seaman",
        "date_left": "1871-06-30",
        "left_port": "at sea",
        "cause_of_leaving": "remains on board",
        "sign_with_mark": "n",
        "notes": "blk"
    },
    {
        "id": "vtls004906969_1_12",
        "type": "sailor",
        "parent": "vtls004906969",
        "name": "john jones",
        "dob": "blk",
        "age": "49",
        "place_of_birth": "aberystwyth",
        "home_address": "blk",
        "f": "blk",
        "name_of_ship": "catherine morgan",
        "ship_port": "aberystwyth",
        "date_leaving": "1871-03-22",
        "joined_ship_date": "1871-07-10",
        "joined_at_port": "runcorn",
        "capacity": "mate",
        "date_left": "1871-12-31",
        "left_port": "blk",
        "cause_of_leaving": "remains on board",
        "sign_with_mark": "n",
        "notes": "blk"
    },
    {
        "id": "vtls004906969_1_11",
        "type": "sailor",
        "parent": "vtls004906969",
        "name": "stephen jones",
        "dob": "blk",
        "age": "48",
        "place_of_birth": "aberystwyth",
        "home_address": "aberystwyth",
        "f": "aberystwyth",
        "name_of_ship": "leander",
        "ship_port": "aberystwyth",
        "date_leaving": "continued",
        "joined_ship_date": "continued",
        "joined_at_port": "blk",
        "capacity": "master",
        "date_left": "1871-12-31",
        "left_port": "blk",
        "cause_of_leaving": "remains on board",
        "sign_with_mark": "n",
        "notes": "blk"
    },
    {
        "id": "vtls004906972_0_13",
        "type": "sailor",
        "parent": "vtls004906972",
        "name": "david berrymen",
        "dob": "blk",
        "age": "42",
        "place_of_birth": "neath",
        "home_address": "blk",
        "f": "blk",
        "name_of_ship": "leander",
        "ship_port": "aberystwyth",
        "date_leaving": "continued",
        "joined_ship_date": "blk",
        "joined_at_port": "blk",
        "capacity": "able seaman",
        "date_left": "1872-06-01",
        "left_port": "port dinorwic",
        "cause_of_leaving": "discharged",
        "sign_with_mark": "n",
        "notes": "blk"
    },
    {
        "id": "vtls004906972_0_12",
        "type": "sailor",
        "parent": "vtls004906972",
        "name": "john jones",
        "dob": "blk",
        "age": "49",
        "place_of_birth": "borth",
        "home_address": "blk",
        "f": "blk",
        "name_of_ship": "leander",
        "ship_port": "aberystwyth",
        "date_leaving": "continued",
        "joined_ship_date": "blk",
        "joined_at_port": "blk",
        "capacity": "mate",
        "date_left": "1872-06-01",
        "left_port": "port dinorwic",
        "cause_of_leaving": "discharged",
        "sign_with_mark": "n",
        "notes": "blk"
    },
    {
        "id": "vtls004906969_1_13",
        "type": "sailor",
        "parent": "vtls004906969",
        "name": "john jeremiah",
        "dob": "blk",
        "age": "27",
        "place_of_birth": "cardigan",
        "home_address": "blk",
        "f": "blk",
        "name_of_ship": "leander",
        "ship_port": "aberystwyth",
        "date_leaving": "continued",
        "joined_ship_date": "continued",
        "joined_at_port": "blk",
        "capacity": "able seaman",
        "date_left": "continued",
        "left_port": "blk",
        "cause_of_leaving": "remains on board",
        "sign_with_mark": "n",
        "notes": "blk"
    },
    {
        "id": "vtls004906972_0_11",
        "type": "sailor",
        "parent": "vtls004906972",
        "name": "stephen jones",
        "dob": "blk",
        "age": "48",
        "place_of_birth": "llanon",
        "home_address": "llanon, aberystwyth",
        "f": "llanon, aberystwyth",
        "name_of_ship": "leander",
        "ship_port": "aberystwyth",
        "date_leaving": "continued",
        "joined_ship_date": "blk",
        "joined_at_port": "blk",
        "capacity": "master",
        "date_left": "blk",
        "left_port": "blk",
        "cause_of_leaving": "remains on board",
        "sign_with_mark": "n",
        "notes": "blk"
    },
    {
        "id": "vtls004906969_0_14",
        "type": "sailor",
        "parent": "vtls004906969",
        "name": "james crowhurst",
        "dob": "blk",
        "age": "16",
        "place_of_birth": "rye",
        "home_address": "blk",
        "f": "blk",
        "name_of_ship": "leander",
        "ship_port": "aberystwyth",
        "date_leaving": "continued",
        "joined_ship_date": "continued",
        "joined_at_port": "blk",
        "capacity": "boy",
        "date_left": "1871-06-30",
        "left_port": "at sea",
        "cause_of_leaving": "remains on board",
        "sign_with_mark": "n",
        "notes": "blk"
    },
    {
        "id": "vtls004906969_1_14",
        "type": "sailor",
        "parent": "vtls004906969",
        "name": "joseph lewis",
        "dob": "blk",
        "age": "17",
        "place_of_birth": "swansea",
        "home_address": "blk",
        "f": "blk",
        "name_of_ship": "leander",
        "ship_port": "aberystwyth",
        "date_leaving": "continued",
        "joined_ship_date": "continued",
        "joined_at_port": "blk",
        "capacity": "boy",
        "date_left": "continued",
        "left_port": "blk",
        "cause_of_leaving": "remains on board",
        "sign_with_mark": "n",
        "notes": "blk"
    },
    {
        "id": "vtls004906972_1_11",
        "type": "sailor",
        "parent": "vtls004906972",
        "name": "stephen jones",
        "dob": "blk",
        "age": "49",
        "place_of_birth": "llanon",
        "home_address": "llanon, cardigan",
        "f": "llanon, cardigan",
        "name_of_ship": "leander",
        "ship_port": "aberystwyth",
        "date_leaving": "continuous",
        "joined_ship_date": "blk",
        "joined_at_port": "blk",
        "capacity": "master",
        "date_left": "blk",
        "left_port": "blk",
        "cause_of_leaving": "remains on board",
        "sign_with_mark": "n",
        "notes": "there's an attached letter from the master to the collector of h.m. customs, dated jan. 25th.1873, carnarvon, apologising for the late delivery of the half yearly return. he had had to return home to aberystwyth from dublin on dec. 23rd. 1872 on 'particular business'.  the mate, who had been left in charge of the vessel, forgot to do so."
    },
    {
        "id": "vtls004906977_0_13",
        "type": "sailor",
        "parent": "vtls004906977",
        "name": "griffith griffiths",
        "dob": "blk",
        "age": "26",
        "place_of_birth": "portmadoc",
        "home_address": "blk",
        "f": "blk",
        "name_of_ship": "ward jackson",
        "ship_port": "blk",
        "date_leaving": "1873-02-30",
        "joined_ship_date": "1873-05-05",
        "joined_at_port": "port dinorwic",
        "capacity": "able seaman",
        "date_left": "blk",
        "left_port": "blk",
        "cause_of_leaving": "remains on board",
        "sign_with_mark": "n",
        "notes": "blk"
    },
    {
        "id": "vtls004906972_1_13",
        "type": "sailor",
        "parent": "vtls004906972",
        "name": "evan roberts",
        "dob": "blk",
        "age": "18",
        "place_of_birth": "caernarfon",
        "home_address": "blk",
        "f": "blk",
        "name_of_ship": "[tern]",
        "ship_port": "liverpool",
        "date_leaving": "1872-07-03",
        "joined_ship_date": "1872-07-13",
        "joined_at_port": "port dinorwic",
        "capacity": "ordinary seaman",
        "date_left": "blk",
        "left_port": "blk",
        "cause_of_leaving": "remains on board",
        "sign_with_mark": "n",
        "notes": "blk"
    },
    {
        "id": "vtls004906972_1_12",
        "type": "sailor",
        "parent": "vtls004906972",
        "name": "william humphreys",
        "dob": "blk",
        "age": "24",
        "place_of_birth": "bangor",
        "home_address": "blk",
        "f": "blk",
        "name_of_ship": "alfred",
        "ship_port": "beaumaris",
        "date_leaving": "1872-07-06",
        "joined_ship_date": "1872-07-13",
        "joined_at_port": "port dinorwic",
        "capacity": "mate",
        "date_left": "blk",
        "left_port": "blk",
        "cause_of_leaving": "remains on board",
        "sign_with_mark": "n",
        "notes": "blk"
    },
    {
        "id": "vtls004906977_0_12",
        "type": "sailor",
        "parent": "vtls004906977",
        "name": "william jones",
        "dob": "blk",
        "age": "35",
        "place_of_birth": "beaumaris",
        "home_address": "blk",
        "f": "blk",
        "name_of_ship": "eliza",
        "ship_port": "carnarvon",
        "date_leaving": "1873-04-12",
        "joined_ship_date": "1873-05-05",
        "joined_at_port": "port dinorwic",
        "capacity": "mate",
        "date_left": "blk",
        "left_port": "blk",
        "cause_of_leaving": "remains on board",
        "sign_with_mark": "n",
        "notes": "blk"
    },
    {
        "id": "vtls004906972_1_14",
        "type": "sailor",
        "parent": "vtls004906972",
        "name": "william hughes",
        "dob": "blk",
        "age": "16",
        "place_of_birth": "beaumaris",
        "home_address": "blk",
        "f": "blk",
        "name_of_ship": "first voyage",
        "ship_port": "blk",
        "date_leaving": "blk",
        "joined_ship_date": "1872-07-12",
        "joined_at_port": "port dinorwic",
        "capacity": "cook",
        "date_left": "blk",
        "left_port": "blk",
        "cause_of_leaving": "remains on board",
        "sign_with_mark": "n",
        "notes": "blk"
    },
    {
        "id": "vtls004906977_0_11",
        "type": "sailor",
        "parent": "vtls004906977",
        "name": "stephen jones",
        "dob": "blk",
        "age": "49",
        "place_of_birth": "aberystwyth",
        "home_address": "aberystwyth",
        "f": "aberystwyth",
        "name_of_ship": "leander",
        "ship_port": "aberystwyth",
        "date_leaving": "remains",
        "joined_ship_date": "remains",
        "joined_at_port": "blk",
        "capacity": "master",
        "date_left": "blk",
        "left_port": "blk",
        "cause_of_leaving": "remains on board",
        "sign_with_mark": "n",
        "notes": "blk"
    },
    {
        "id": "vtls004906972_0_14",
        "type": "sailor",
        "parent": "vtls004906972",
        "name": "william hughes",
        "dob": "blk",
        "age": "16",
        "place_of_birth": "traeth coch",
        "home_address": "blk",
        "f": "blk",
        "name_of_ship": "leander",
        "ship_port": "aberystwyth",
        "date_leaving": "continued",
        "joined_ship_date": "blk",
        "joined_at_port": "blk",
        "capacity": "boy",
        "date_left": "blk",
        "left_port": "blk",
        "cause_of_leaving": "remains on board",
        "sign_with_mark": "n",
        "notes": "blk"
    },
    {
        "id": "vtls004906977_1_11",
        "type": "sailor",
        "parent": "vtls004906977",
        "name": "stephen jones",
        "dob": "blk",
        "age": "50",
        "place_of_birth": "llanon",
        "home_address": "llannon, cardigan",
        "f": "llannon, cardigan",
        "name_of_ship": "leander",
        "ship_port": "aberystwyth",
        "date_leaving": "continuous",
        "joined_ship_date": "continuous",
        "joined_at_port": "blk",
        "capacity": "master",
        "date_left": "1873-08-03",
        "left_port": "runcorn",
        "cause_of_leaving": "sick",
        "sign_with_mark": "n",
        "notes": "the master apologises for the late delivery of the half yearly return until his arrival at carnarvon, feb. 6th. 1874. the ship sailed from tralee on the 19th. dec. 1873 in ballast and was blown out to sea and could not reach a place of safety. letter declared before the mayor of carnarvon."
    },
    {
        "id": "vtls004906977_0_14",
        "type": "sailor",
        "parent": "vtls004906977",
        "name": "william lewis",
        "dob": "blk",
        "age": "18",
        "place_of_birth": "aberystwyth",
        "home_address": "blk",
        "f": "blk",
        "name_of_ship": "hope",
        "ship_port": "aberystwyth",
        "date_leaving": "1873-05-04",
        "joined_ship_date": "1873-05-05",
        "joined_at_port": "port dinorwic",
        "capacity": "ordinary seaman",
        "date_left": "blk",
        "left_port": "blk",
        "cause_of_leaving": "remains on board",
        "sign_with_mark": "n",
        "notes": "blk"
    },
    {
        "id": "vtls004906977_1_14",
        "type": "sailor",
        "parent": "vtls004906977",
        "name": "samuel townsend",
        "dob": "blk",
        "age": "21",
        "place_of_birth": "guernsey",
        "home_address": "blk",
        "f": "blk",
        "name_of_ship": "leander",
        "ship_port": "aberystwyth",
        "date_leaving": "continuous",
        "joined_ship_date": "continuous",
        "joined_at_port": "blk",
        "capacity": "ordinary seaman",
        "date_left": "1874-02-07",
        "left_port": "caernarfon",
        "cause_of_leaving": "paid off",
        "sign_with_mark": "n",
        "notes": "blk"
    },
    {
        "id": "vtls004906977_1_16",
        "type": "sailor",
        "parent": "vtls004906977",
        "name": "stephen jones",
        "dob": "blk",
        "age": "50",
        "place_of_birth": "llanon",
        "home_address": "blk",
        "f": "blk",
        "name_of_ship": "leander",
        "ship_port": "aberystwyth",
        "date_leaving": "1873-08-03",
        "joined_ship_date": "1873-10-26",
        "joined_at_port": "gloucester",
        "capacity": "master",
        "date_left": "blk",
        "left_port": "blk",
        "cause_of_leaving": "remains on board",
        "sign_with_mark": "n",
        "notes": "blk"
    },
    {
        "id": "vtls004906977_1_13",
        "type": "sailor",
        "parent": "vtls004906977",
        "name": "william penney",
        "dob": "blk",
        "age": "23",
        "place_of_birth": "penzance",
        "home_address": "blk",
        "f": "blk",
        "name_of_ship": "leander",
        "ship_port": "aberystwyth",
        "date_leaving": "continuous",
        "joined_ship_date": "continuous",
        "joined_at_port": "blk",
        "capacity": "able seaman",
        "date_left": "1874-02-07",
        "left_port": "caernarfon",
        "cause_of_leaving": "paid off",
        "sign_with_mark": "n",
        "notes": "blk"
    },
    {
        "id": "vtls004906977_1_15",
        "type": "sailor",
        "parent": "vtls004906977",
        "name": "abraham jones",
        "dob": "blk",
        "age": "35",
        "place_of_birth": "llanon",
        "home_address": "blk",
        "f": "blk",
        "name_of_ship": "retina",
        "ship_port": "aberystwyth",
        "date_leaving": "187[2]-08-06",
        "joined_ship_date": "1873-08-04",
        "joined_at_port": "runcorn",
        "capacity": "blk",
        "date_left": "1873-10-25",
        "left_port": "gloucestershire",
        "cause_of_leaving": "discharged",
        "sign_with_mark": "n",
        "notes": "blk"
    },
    {
        "id": "vtls004906977_1_12",
        "type": "sailor",
        "parent": "vtls004906977",
        "name": "handy bar",
        "dob": "blk",
        "age": "44",
        "place_of_birth": "newry",
        "home_address": "blk",
        "f": "blk",
        "name_of_ship": "leander",
        "ship_port": "aberystwyth",
        "date_leaving": "continuous",
        "joined_ship_date": "continuous",
        "joined_at_port": "blk",
        "capacity": "mate",
        "date_left": "1874-02-07",
        "left_port": "caernarfon",
        "cause_of_leaving": "paid off",
        "sign_with_mark": "n",
        "notes": "blk"
    },
    {
        "id": "vtls004906992_0_11",
        "type": "sailor",
        "parent": "vtls004906992",
        "name": "stephen jones",
        "dob": "blk",
        "age": "50",
        "place_of_birth": "llanon",
        "home_address": "llanon, cardiganshire",
        "f": "llanon, cardiganshire",
        "name_of_ship": "leander",
        "ship_port": "aberystwyth",
        "date_leaving": "previous to 30th dec. 1873",
        "joined_ship_date": "1873-12-30",
        "joined_at_port": "blk",
        "capacity": "master",
        "date_left": "blk",
        "left_port": "blk",
        "cause_of_leaving": "remains on board",
        "sign_with_mark": "n",
        "notes": "blk"
    },
    {
        "id": "vtls004906992_0_13",
        "type": "sailor",
        "parent": "vtls004906992",
        "name": "richard christopher",
        "dob": "blk",
        "age": "18",
        "place_of_birth": "pembury",
        "home_address": "blk",
        "f": "blk",
        "name_of_ship": "mary and jane",
        "ship_port": "carnarvon",
        "date_leaving": "1874-02-08",
        "joined_ship_date": "1874-02-26",
        "joined_at_port": "carnarvon",
        "capacity": "able seaman",
        "date_left": "1874-05-08",
        "left_port": "aberystwyth",
        "cause_of_leaving": "discharged",
        "sign_with_mark": "n",
        "notes": "blk"
    },
    {
        "id": "vtls004906994_0_11",
        "type": "sailor",
        "parent": "vtls004906994",
        "name": "stephen jones",
        "dob": "blk",
        "age": "52",
        "place_of_birth": "cardiganshire",
        "home_address": "llanon, cardiganshire",
        "f": "llanon, cardiganshire",
        "name_of_ship": "leander",
        "ship_port": "aberystwyth",
        "date_leaving": "1875-12-31",
        "joined_ship_date": "1876-01-01",
        "joined_at_port": "portmadoc",
        "capacity": "master",
        "date_left": "blk",
        "left_port": "blk",
        "cause_of_leaving": "remains on board",
        "sign_with_mark": "n",
        "notes": "blk"
    },
    {
        "id": "vtls004906994_1_11",
        "type": "sailor",
        "parent": "vtls004906994",
        "name": "stephen jones",
        "dob": "blk",
        "age": "53",
        "place_of_birth": "llanon, cardigan",
        "home_address": "llanon, nr aberystwyth",
        "f": "llanon, nr aberystwyth",
        "name_of_ship": "leander",
        "ship_port": "aberystwyth",
        "date_leaving": "blk",
        "joined_ship_date": "blk",
        "joined_at_port": "blk",
        "capacity": "master",
        "date_left": "1876-12-31",
        "left_port": "porthmadog",
        "cause_of_leaving": "remains on board",
        "sign_with_mark": "n",
        "notes": "blk"
    },
    {
        "id": "vtls004906992_0_12",
        "type": "sailor",
        "parent": "vtls004906992",
        "name": "evan davies",
        "dob": "blk",
        "age": "45",
        "place_of_birth": "newquay",
        "home_address": "blk",
        "f": "blk",
        "name_of_ship": "[ellie]",
        "ship_port": "newquay",
        "date_leaving": "1874-02-08",
        "joined_ship_date": "1874-02-10",
        "joined_at_port": "carnarvon",
        "capacity": "mate",
        "date_left": "1874-05-08",
        "left_port": "aberystwyth",
        "cause_of_leaving": "discharged",
        "sign_with_mark": "n",
        "notes": "blk"
    },
    {
        "id": "vtls004906994_0_12",
        "type": "sailor",
        "parent": "vtls004906994",
        "name": "bevan williams",
        "dob": "blk",
        "age": "48",
        "place_of_birth": "caernarfonshire",
        "home_address": "blk",
        "f": "blk",
        "name_of_ship": "leander",
        "ship_port": "aberystwyth",
        "date_leaving": "1875-12-31",
        "joined_ship_date": "1876-01-01",
        "joined_at_port": "portmadoc",
        "capacity": "mate",
        "date_left": "1876-05-12",
        "left_port": "porthmadog",
        "cause_of_leaving": "paid off",
        "sign_with_mark": "n",
        "notes": "blk"
    },
    {
        "id": "vtls004906994_0_13",
        "type": "sailor",
        "parent": "vtls004906994",
        "name": "michael m mc carthy",
        "dob": "blk",
        "age": "27",
        "place_of_birth": "cork",
        "home_address": "blk",
        "f": "blk",
        "name_of_ship": "josephine",
        "ship_port": "carnarvon",
        "date_leaving": "1875-12-",
        "joined_ship_date": "1876-02-08",
        "joined_at_port": "portmadoc",
        "capacity": "able seaman",
        "date_left": "1876-05-12",
        "left_port": "porthmadog",
        "cause_of_leaving": "paid off",
        "sign_with_mark": "n",
        "notes": "blk"
    },
    {
        "id": "vtls004906992_0_14",
        "type": "sailor",
        "parent": "vtls004906992",
        "name": "william williamson",
        "dob": "blk",
        "age": "16",
        "place_of_birth": "caernarfon",
        "home_address": "blk",
        "f": "blk",
        "name_of_ship": "first gone to sea",
        "ship_port": "blk",
        "date_leaving": "blk",
        "joined_ship_date": "1874-02-26",
        "joined_at_port": "carnarvon",
        "capacity": "boy",
        "date_left": "1874-05-08",
        "left_port": "aberystwyth",
        "cause_of_leaving": "discharged",
        "sign_with_mark": "n",
        "notes": "blk"
    },
    {
        "id": "vtls004906992_1_11",
        "type": "sailor",
        "parent": "vtls004906992",
        "name": "stephen jones",
        "dob": "blk",
        "age": "51",
        "place_of_birth": "llanon",
        "home_address": "llanon, parish of llansantffraid",
        "f": "llanon, parish of llansantffraid",
        "name_of_ship": "leander",
        "ship_port": "aberystwyth",
        "date_leaving": "blk",
        "joined_ship_date": "blk",
        "joined_at_port": "blk",
        "capacity": "master",
        "date_left": "blk",
        "left_port": "blk",
        "cause_of_leaving": "remains on board",
        "sign_with_mark": "n",
        "notes": "`"
    },
    {
        "id": "vtls004907001_0_14",
        "type": "sailor",
        "parent": "vtls004907001",
        "name": "john owens",
        "dob": "blk",
        "age": "15",
        "place_of_birth": "dolgelly, merionethshire",
        "home_address": "blk",
        "f": "blk",
        "name_of_ship": "isabella",
        "ship_port": "carnarvon",
        "date_leaving": "1877-04-",
        "joined_ship_date": "drogheda 'vessel lost'",
        "joined_at_port": "portmadoc",
        "capacity": "cook",
        "date_left": "1877-06-11",
        "left_port": "port dinorwic",
        "cause_of_leaving": "paid off",
        "sign_with_mark": "n",
        "notes": "blk"
    },
    {
        "id": "vtls004906994_1_14",
        "type": "sailor",
        "parent": "vtls004906994",
        "name": "william masters",
        "dob": "blk",
        "age": "18",
        "place_of_birth": "st austell, cornwall",
        "home_address": "blk",
        "f": "blk",
        "name_of_ship": "first voyage",
        "ship_port": "blk",
        "date_leaving": "blk",
        "joined_ship_date": "1876-07-19",
        "joined_at_port": "portmadoc",
        "capacity": "ordinary seaman",
        "date_left": "1876-12-25",
        "left_port": "porthmadog",
        "cause_of_leaving": "discharged",
        "sign_with_mark": "n",
        "notes": "blk"
    },
    {
        "id": "vtls004907001_0_13",
        "type": "sailor",
        "parent": "vtls004907001",
        "name": "michael gull",
        "dob": "blk",
        "age": "18",
        "place_of_birth": "newcastle",
        "home_address": "blk",
        "f": "blk",
        "name_of_ship": "priscilla",
        "ship_port": "aberystwyth",
        "date_leaving": "1877-05-04",
        "joined_ship_date": "portmadoc",
        "joined_at_port": "portmadoc",
        "capacity": "able seaman",
        "date_left": "1877-06-11",
        "left_port": "port dinorwic",
        "cause_of_leaving": "paid off",
        "sign_with_mark": "n",
        "notes": "blk"
    },
    {
        "id": "vtls004906994_1_12",
        "type": "sailor",
        "parent": "vtls004906994",
        "name": "hugh roberts",
        "dob": "blk",
        "age": "30",
        "place_of_birth": "dolgelly, merionethshire",
        "home_address": "blk",
        "f": "blk",
        "name_of_ship": "mary and jane",
        "ship_port": "carnarvon",
        "date_leaving": "1876",
        "joined_ship_date": "1876-07-19",
        "joined_at_port": "portmadoc",
        "capacity": "mate",
        "date_left": "1876-12-25",
        "left_port": "porthmadog",
        "cause_of_leaving": "discharged",
        "sign_with_mark": "n",
        "notes": "blk"
    },
    {
        "id": "vtls004906994_1_13",
        "type": "sailor",
        "parent": "vtls004906994",
        "name": "frank matthew",
        "dob": "blk",
        "age": "20",
        "place_of_birth": "boston us",
        "home_address": "blk",
        "f": "blk",
        "name_of_ship": "berlin",
        "ship_port": "aberystwyth",
        "date_leaving": "1876",
        "joined_ship_date": "1876-07-19",
        "joined_at_port": "portmadoc",
        "capacity": "able seaman",
        "date_left": "1876-12-25",
        "left_port": "porthmadog",
        "cause_of_leaving": "discharged",
        "sign_with_mark": "n",
        "notes": "blk"
    },
    {
        "id": "vtls004907001_0_12",
        "type": "sailor",
        "parent": "vtls004907001",
        "name": "william jones",
        "dob": "blk",
        "age": "25",
        "place_of_birth": "pwllheli",
        "home_address": "blk",
        "f": "blk",
        "name_of_ship": "agnes",
        "ship_port": "carnarvon",
        "date_leaving": "1877-05-10",
        "joined_ship_date": "portmadoc",
        "joined_at_port": "portmadoc",
        "capacity": "mate",
        "date_left": "1877-06-11",
        "left_port": "port dinorwic",
        "cause_of_leaving": "paid off",
        "sign_with_mark": "n",
        "notes": "blk"
    },
    {
        "id": "vtls004907001_0_11",
        "type": "sailor",
        "parent": "vtls004907001",
        "name": "stephen jones",
        "dob": "blk",
        "age": "53",
        "place_of_birth": "llanon, cardigan",
        "home_address": "llanon, cardigan",
        "f": "llanon, cardigan",
        "name_of_ship": "leander",
        "ship_port": "aberystwyth",
        "date_leaving": "blk",
        "joined_ship_date": "blk",
        "joined_at_port": "blk",
        "capacity": "master",
        "date_left": "blk",
        "left_port": "blk",
        "cause_of_leaving": "remains on board",
        "sign_with_mark": "n",
        "notes": "blk"
    },
    {
        "id": "vtls004907001_1_12",
        "type": "sailor",
        "parent": "vtls004907001",
        "name": "john davies",
        "dob": "blk",
        "age": "52",
        "place_of_birth": "llanon, cardigan",
        "home_address": "blk",
        "f": "blk",
        "name_of_ship": "messenger",
        "ship_port": "aberystwyth",
        "date_leaving": "1877-08-16",
        "joined_ship_date": "1877-08-13",
        "joined_at_port": "port dinorwic",
        "capacity": "mate",
        "date_left": "1877-01-03",
        "left_port": "port dinorwic",
        "cause_of_leaving": "paid off",
        "sign_with_mark": "n",
        "notes": "blk"
    },
    {
        "id": "vtls004907001_1_13",
        "type": "sailor",
        "parent": "vtls004907001",
        "name": "john mosch",
        "dob": "blk",
        "age": "60",
        "place_of_birth": "jersey",
        "home_address": "blk",
        "f": "blk",
        "name_of_ship": "edward beck",
        "ship_port": "carnarvon",
        "date_leaving": "1877-08-16",
        "joined_ship_date": "1877-08-13",
        "joined_at_port": "port dinorwic",
        "capacity": "able seaman",
        "date_left": "1877-01-03",
        "left_port": "port dinorwic",
        "cause_of_leaving": "paid off",
        "sign_with_mark": "n",
        "notes": "blk"
    },
    {
        "id": "vtls004907001_1_11",
        "type": "sailor",
        "parent": "vtls004907001",
        "name": "stephen jones",
        "dob": "blk",
        "age": "54",
        "place_of_birth": "llanon, cardigan",
        "home_address": "pencwm, llanon, aberystwyth",
        "f": "pencwm, llanon, aberystwyth",
        "name_of_ship": "leander",
        "ship_port": "aberystwyth",
        "date_leaving": "blk",
        "joined_ship_date": "blk",
        "joined_at_port": "blk",
        "capacity": "master",
        "date_left": "blk",
        "left_port": "blk",
        "cause_of_leaving": "remains on board",
        "sign_with_mark": "n",
        "notes": "blk"
    },
    {
        "id": "vtls004907001_1_14",
        "type": "sailor",
        "parent": "vtls004907001",
        "name": "obediah stills",
        "dob": "blk",
        "age": "16",
        "place_of_birth": "manchester",
        "home_address": "blk",
        "f": "blk",
        "name_of_ship": "first voyage",
        "ship_port": "blk",
        "date_leaving": "blk",
        "joined_ship_date": "1877-08-13",
        "joined_at_port": "port dinorwic",
        "capacity": "cook",
        "date_left": "1877-01-03",
        "left_port": "port dinorwic",
        "cause_of_leaving": "paid off",
        "sign_with_mark": "n",
        "notes": "blk"
    }
]