[
    {
        "id": "vtls004940684_0_11",
        "type": "sailor",
        "parent": "vtls004940684",
        "name": "john thomas",
        "dob": "blk",
        "age": "54",
        "place_of_birth": "newquay",
        "home_address": "blk",
        "f": "blk",
        "name_of_ship": "prima donia",
        "ship_port": "aberystwyth",
        "date_leaving": "blk",
        "joined_ship_date": "blk",
        "joined_at_port": "blk",
        "capacity": "master",
        "date_left": "blk",
        "left_port": "blk",
        "cause_of_leaving": "remains on board",
        "sign_with_mark": "n",
        "notes": "date left on 1863-04-15"
    },
    {
        "id": "vtls004940684_0_12",
        "type": "sailor",
        "parent": "vtls004940684",
        "name": "david jones",
        "dob": "blk",
        "age": "22",
        "place_of_birth": "llanon",
        "home_address": "blk",
        "f": "blk",
        "name_of_ship": "prima donia",
        "ship_port": "aberystwyth",
        "date_leaving": "blk",
        "joined_ship_date": "1863-04-15",
        "joined_at_port": "cardiff",
        "capacity": "mate",
        "date_left": "1863-07-23",
        "left_port": "gloucestershire",
        "cause_of_leaving": "discharged",
        "sign_with_mark": "n",
        "notes": "blk"
    },
    {
        "id": "vtls004940684_1_11",
        "type": "sailor",
        "parent": "vtls004940684",
        "name": "david james",
        "dob": "blk",
        "age": "22",
        "place_of_birth": "llanon, cardigan",
        "home_address": "blk",
        "f": "blk",
        "name_of_ship": "prima donia",
        "ship_port": "aberystwyth",
        "date_leaving": "1864-02-19",
        "joined_ship_date": "1864-02-19",
        "joined_at_port": "newcastle",
        "capacity": "master",
        "date_left": "blk",
        "left_port": "blk",
        "cause_of_leaving": "remains on board",
        "sign_with_mark": "n",
        "notes": "date left on 1864-02-19"
    },
    {
        "id": "vtls004940684_0_15",
        "type": "sailor",
        "parent": "vtls004940684",
        "name": "william thomson",
        "dob": "blk",
        "age": "19",
        "place_of_birth": "sunderland",
        "home_address": "blk",
        "f": "blk",
        "name_of_ship": "prima donia",
        "ship_port": "aberystwyth",
        "date_leaving": "blk",
        "joined_ship_date": "1863-04-15",
        "joined_at_port": "cardiff",
        "capacity": "ordinary seaman",
        "date_left": "1863-07-23",
        "left_port": "gloucestershire",
        "cause_of_leaving": "discharged",
        "sign_with_mark": "y",
        "notes": "blk"
    },
    {
        "id": "vtls004940684_0_16",
        "type": "sailor",
        "parent": "vtls004940684",
        "name": "william wilson",
        "dob": "blk",
        "age": "18",
        "place_of_birth": "liverpool",
        "home_address": "blk",
        "f": "blk",
        "name_of_ship": "savannah la mar",
        "ship_port": "blk",
        "date_leaving": "blk",
        "joined_ship_date": "1863-04-15",
        "joined_at_port": "cardiff",
        "capacity": "ordinary seaman",
        "date_left": "1863-07-23",
        "left_port": "gloucestershire",
        "cause_of_leaving": "discharged",
        "sign_with_mark": "n",
        "notes": "blk"
    },
    {
        "id": "vtls004940684_1_13",
        "type": "sailor",
        "parent": "vtls004940684",
        "name": "amos clough",
        "dob": "blk",
        "age": "21",
        "place_of_birth": "newport",
        "home_address": "blk",
        "f": "blk",
        "name_of_ship": "prima donia",
        "ship_port": "aberystwyth",
        "date_leaving": "1864-02-19",
        "joined_ship_date": "1864-02-19",
        "joined_at_port": "newcastle",
        "capacity": "able seaman",
        "date_left": "1864-02-16",
        "left_port": "london",
        "cause_of_leaving": "discharged",
        "sign_with_mark": "y",
        "notes": "blk"
    },
    {
        "id": "vtls004940684_0_14",
        "type": "sailor",
        "parent": "vtls004940684",
        "name": "james magnet",
        "dob": "blk",
        "age": "22",
        "place_of_birth": "lynn",
        "home_address": "blk",
        "f": "blk",
        "name_of_ship": "prima donia",
        "ship_port": "aberystwyth",
        "date_leaving": "blk",
        "joined_ship_date": "1863-04-15",
        "joined_at_port": "cardiff",
        "capacity": "able seaman",
        "date_left": "1863-07-23",
        "left_port": "gloucestershire",
        "cause_of_leaving": "discharged",
        "sign_with_mark": "n",
        "notes": "blk"
    },
    {
        "id": "vtls004940684_1_12",
        "type": "sailor",
        "parent": "vtls004940684",
        "name": "john thomas",
        "dob": "blk",
        "age": "54",
        "place_of_birth": "newquay",
        "home_address": "blk",
        "f": "blk",
        "name_of_ship": "prima donia",
        "ship_port": "aberystwyth",
        "date_leaving": "1864-02-19",
        "joined_ship_date": "1864-02-19",
        "joined_at_port": "newcastle",
        "capacity": "mate",
        "date_left": "1864-02-16",
        "left_port": "london",
        "cause_of_leaving": "discharged",
        "sign_with_mark": "n",
        "notes": "blk"
    },
    {
        "id": "vtls004940684_0_13",
        "type": "sailor",
        "parent": "vtls004940684",
        "name": "john thomas",
        "dob": "blk",
        "age": "22",
        "place_of_birth": "cardigan",
        "home_address": "blk",
        "f": "blk",
        "name_of_ship": "$",
        "ship_port": "milford",
        "date_leaving": "blk",
        "joined_ship_date": "1863-04-15",
        "joined_at_port": "cardiff",
        "capacity": "able seaman",
        "date_left": "1863-07-23",
        "left_port": "gloucestershire",
        "cause_of_leaving": "discharged",
        "sign_with_mark": "n",
        "notes": "blk"
    },
    {
        "id": "vtls004940684_0_17",
        "type": "sailor",
        "parent": "vtls004940684",
        "name": "$ durstal",
        "dob": "blk",
        "age": "18",
        "place_of_birth": "bayswater",
        "home_address": "blk",
        "f": "blk",
        "name_of_ship": "first ship",
        "ship_port": "blk",
        "date_leaving": "blk",
        "joined_ship_date": "1863-04-15",
        "joined_at_port": "cardiff",
        "capacity": "boy",
        "date_left": "1863-07-23",
        "left_port": "gloucestershire",
        "cause_of_leaving": "discharged",
        "sign_with_mark": "y",
        "notes": "blk"
    },
    {
        "id": "vtls004940684_1_17",
        "type": "sailor",
        "parent": "vtls004940684",
        "name": "john heebink",
        "dob": "blk",
        "age": "18",
        "place_of_birth": "amsterdam",
        "home_address": "blk",
        "f": "blk",
        "name_of_ship": "john & elizabeth",
        "ship_port": "whitby",
        "date_leaving": "1864-02-19",
        "joined_ship_date": "1864-02-22",
        "joined_at_port": "newcastle",
        "capacity": "cook & seaman",
        "date_left": "1864-02-16",
        "left_port": "london",
        "cause_of_leaving": "discharged",
        "sign_with_mark": "n",
        "notes": "blk"
    },
    {
        "id": "vtls004940684_2_15",
        "type": "sailor",
        "parent": "vtls004940684",
        "name": "david d davies",
        "dob": "blk",
        "age": "18",
        "place_of_birth": "cardigan",
        "home_address": "blk",
        "f": "blk",
        "name_of_ship": "margaret jane",
        "ship_port": "milford",
        "date_leaving": "1865-08-19",
        "joined_ship_date": "1865-08-26",
        "joined_at_port": "gloucester",
        "capacity": "ordinary seaman",
        "date_left": "blk",
        "left_port": "blk",
        "cause_of_leaving": "remains on board",
        "sign_with_mark": "y",
        "notes": "blk"
    },
    {
        "id": "vtls004940684_2_12",
        "type": "sailor",
        "parent": "vtls004940684",
        "name": "john thomas",
        "dob": "blk",
        "age": "54",
        "place_of_birth": "newquay",
        "home_address": "blk",
        "f": "blk",
        "name_of_ship": "prima donia",
        "ship_port": "aberystwyth",
        "date_leaving": "1865-08-23",
        "joined_ship_date": "1865-08-26",
        "joined_at_port": "gloucester",
        "capacity": "mate",
        "date_left": "blk",
        "left_port": "blk",
        "cause_of_leaving": "remains on board",
        "sign_with_mark": "n",
        "notes": "blk"
    },
    {
        "id": "vtls004940684_2_11",
        "type": "sailor",
        "parent": "vtls004940684",
        "name": "david james",
        "dob": "blk",
        "age": "22",
        "place_of_birth": "llanon",
        "home_address": "blk",
        "f": "blk",
        "name_of_ship": "prima donia",
        "ship_port": "aberystwyth",
        "date_leaving": "blk",
        "joined_ship_date": "1865-08-26",
        "joined_at_port": "gloucester",
        "capacity": "master",
        "date_left": "1864-01-22",
        "left_port": "newcastle",
        "cause_of_leaving": "remains on board",
        "sign_with_mark": "n",
        "notes": "blk"
    },
    {
        "id": "vtls004940684_2_16",
        "type": "sailor",
        "parent": "vtls004940684",
        "name": "mathew dugan",
        "dob": "blk",
        "age": "17",
        "place_of_birth": "wexford",
        "home_address": "blk",
        "f": "blk",
        "name_of_ship": "rover",
        "ship_port": "wexford",
        "date_leaving": "1890-08-25",
        "joined_ship_date": "1865-08-26",
        "joined_at_port": "gloucester",
        "capacity": "ordinary seaman",
        "date_left": "1865-01-22",
        "left_port": "newcastle",
        "cause_of_leaving": "discharged",
        "sign_with_mark": "y",
        "notes": "blk"
    },
    {
        "id": "vtls004940684_1_16",
        "type": "sailor",
        "parent": "vtls004940684",
        "name": "alfred james",
        "dob": "blk",
        "age": "17",
        "place_of_birth": "gloucester",
        "home_address": "blk",
        "f": "blk",
        "name_of_ship": "prima donia",
        "ship_port": "aberystwyth",
        "date_leaving": "1864-02-19",
        "joined_ship_date": "1864-02-19",
        "joined_at_port": "newcastle",
        "capacity": "boy",
        "date_left": "1864-02-16",
        "left_port": "london",
        "cause_of_leaving": "discharged",
        "sign_with_mark": "n",
        "notes": "blk"
    },
    {
        "id": "vtls004940684_1_14",
        "type": "sailor",
        "parent": "vtls004940684",
        "name": "james richardson",
        "dob": "blk",
        "age": "38",
        "place_of_birth": "hull",
        "home_address": "blk",
        "f": "blk",
        "name_of_ship": "john george",
        "ship_port": "shields",
        "date_leaving": "1864-02",
        "joined_ship_date": "1864-02-19",
        "joined_at_port": "newcastle",
        "capacity": "able seaman",
        "date_left": "1864-02-16",
        "left_port": "london",
        "cause_of_leaving": "discharged",
        "sign_with_mark": "y",
        "notes": "blk"
    },
    {
        "id": "vtls004940684_2_14",
        "type": "sailor",
        "parent": "vtls004940684",
        "name": "arnos clough",
        "dob": "blk",
        "age": "23",
        "place_of_birth": "newport dock",
        "home_address": "blk",
        "f": "blk",
        "name_of_ship": "uhla",
        "ship_port": "whitby",
        "date_leaving": "1865-08-21",
        "joined_ship_date": "1865-08-26",
        "joined_at_port": "gloucester",
        "capacity": "able seaman",
        "date_left": "blk",
        "left_port": "blk",
        "cause_of_leaving": "remains on board",
        "sign_with_mark": "y",
        "notes": "blk"
    },
    {
        "id": "vtls004940684_1_15",
        "type": "sailor",
        "parent": "vtls004940684",
        "name": "thomas liddle",
        "dob": "blk",
        "age": "21",
        "place_of_birth": "kinsail",
        "home_address": "blk",
        "f": "blk",
        "name_of_ship": "john",
        "ship_port": "kikurall",
        "date_leaving": "1863-12",
        "joined_ship_date": "1864-02-19",
        "joined_at_port": "newcastle",
        "capacity": "cook & seaman",
        "date_left": "1864-02-16",
        "left_port": "london",
        "cause_of_leaving": "discharged",
        "sign_with_mark": "n",
        "notes": "blk"
    },
    {
        "id": "vtls004940684_2_13",
        "type": "sailor",
        "parent": "vtls004940684",
        "name": "john etheridge",
        "dob": "blk",
        "age": "23",
        "place_of_birth": "portmadoc",
        "home_address": "blk",
        "f": "blk",
        "name_of_ship": "annie",
        "ship_port": "fowey",
        "date_leaving": "1865-08-23",
        "joined_ship_date": "1865-08-26",
        "joined_at_port": "gloucester",
        "capacity": "able seaman",
        "date_left": "blk",
        "left_port": "blk",
        "cause_of_leaving": "remains on board",
        "sign_with_mark": "y",
        "notes": "blk"
    },
    {
        "id": "vtls004940689_0_15",
        "type": "sailor",
        "parent": "vtls004940689",
        "name": "frank richards",
        "dob": "blk",
        "age": "14",
        "place_of_birth": "st. kitt, west indies",
        "home_address": "blk",
        "f": "blk",
        "name_of_ship": "prima donia",
        "ship_port": "aberystwyth",
        "date_leaving": "1865-09-29",
        "joined_ship_date": "1865-09-29",
        "joined_at_port": "newcastle",
        "capacity": "boy",
        "date_left": "1866-02-01",
        "left_port": "hull",
        "cause_of_leaving": "discharged",
        "sign_with_mark": "n",
        "notes": "blk"
    },
    {
        "id": "vtls004940689_0_13",
        "type": "sailor",
        "parent": "vtls004940689",
        "name": "george mitchell",
        "dob": "blk",
        "age": "19",
        "place_of_birth": "banff",
        "home_address": "blk",
        "f": "blk",
        "name_of_ship": "jane smith",
        "ship_port": "[portsoy]",
        "date_leaving": "1865-09-23",
        "joined_ship_date": "1865-09-29",
        "joined_at_port": "newcastle",
        "capacity": "ordinary seaman",
        "date_left": "1866-02-01",
        "left_port": "hull",
        "cause_of_leaving": "discharged",
        "sign_with_mark": "n",
        "notes": "blk"
    },
    {
        "id": "vtls004940689_0_14",
        "type": "sailor",
        "parent": "vtls004940689",
        "name": "john richards",
        "dob": "blk",
        "age": "19",
        "place_of_birth": "llanon",
        "home_address": "blk",
        "f": "blk",
        "name_of_ship": "prima donia",
        "ship_port": "aberystwyth",
        "date_leaving": "1865-09-29",
        "joined_ship_date": "1865-09-29",
        "joined_at_port": "newcastle",
        "capacity": "ordinary seaman",
        "date_left": "1866-02-01",
        "left_port": "hull",
        "cause_of_leaving": "discharged",
        "sign_with_mark": "n",
        "notes": "blk"
    },
    {
        "id": "vtls004940689_0_11",
        "type": "sailor",
        "parent": "vtls004940689",
        "name": "david jones",
        "dob": "blk",
        "age": "24",
        "place_of_birth": "llanon, cardigan",
        "home_address": "blk",
        "f": "blk",
        "name_of_ship": "prima donia",
        "ship_port": "aberystwyth",
        "date_leaving": "1865-09-29",
        "joined_ship_date": "1865-09-29",
        "joined_at_port": "newcastle",
        "capacity": "master",
        "date_left": "blk",
        "left_port": "blk",
        "cause_of_leaving": "remains on board",
        "sign_with_mark": "n",
        "notes": "blk"
    },
    {
        "id": "vtls004940689_0_16",
        "type": "sailor",
        "parent": "vtls004940689",
        "name": "nicholas small",
        "dob": "blk",
        "age": "39",
        "place_of_birth": "sheffield",
        "home_address": "blk",
        "f": "blk",
        "name_of_ship": "golden city",
        "ship_port": "liverpool",
        "date_leaving": "1865-08",
        "joined_ship_date": "1865-09-30",
        "joined_at_port": "newcastle",
        "capacity": "able seaman",
        "date_left": "1866-02-01",
        "left_port": "hull",
        "cause_of_leaving": "discharged",
        "sign_with_mark": "y",
        "notes": "blk"
    },
    {
        "id": "vtls004940689_0_17",
        "type": "sailor",
        "parent": "vtls004940689",
        "name": "evan davies",
        "dob": "blk",
        "age": "27",
        "place_of_birth": "cardigan",
        "home_address": "blk",
        "f": "blk",
        "name_of_ship": "prima donia",
        "ship_port": "aberystwyth",
        "date_leaving": "1865-09-30",
        "joined_ship_date": "1865-09-30",
        "joined_at_port": "newcastle",
        "capacity": "able seaman",
        "date_left": "1866-02-01",
        "left_port": "hull",
        "cause_of_leaving": "discharged",
        "sign_with_mark": "n",
        "notes": "blk"
    },
    {
        "id": "vtls004940689_0_12",
        "type": "sailor",
        "parent": "vtls004940689",
        "name": "robert young",
        "dob": "blk",
        "age": "28",
        "place_of_birth": "lever, fife",
        "home_address": "blk",
        "f": "blk",
        "name_of_ship": "denmark",
        "ship_port": "london",
        "date_leaving": "1865-08-26",
        "joined_ship_date": "1865-09-30",
        "joined_at_port": "newcastle",
        "capacity": "mate",
        "date_left": "1866-02-01",
        "left_port": "hull",
        "cause_of_leaving": "discharged",
        "sign_with_mark": "n",
        "notes": "blk"
    },
    {
        "id": "vtls004940684_2_17",
        "type": "sailor",
        "parent": "vtls004940684",
        "name": "alfred james",
        "dob": "blk",
        "age": "17",
        "place_of_birth": "gloucester",
        "home_address": "blk",
        "f": "blk",
        "name_of_ship": "nicarague",
        "ship_port": "gloucester",
        "date_leaving": "1890-11-24",
        "joined_ship_date": "1865-08-26",
        "joined_at_port": "gloucester",
        "capacity": "boy",
        "date_left": "blk",
        "left_port": "blk",
        "cause_of_leaving": "remains on board",
        "sign_with_mark": "n",
        "notes": "blk"
    },
    {
        "id": "vtls004940689_2_11",
        "type": "sailor",
        "parent": "vtls004940689",
        "name": "david jones",
        "dob": "blk",
        "age": "24",
        "place_of_birth": "llanon",
        "home_address": "blk",
        "f": "blk",
        "name_of_ship": "prima donia",
        "ship_port": "aberystwyth",
        "date_leaving": "1866-06-14",
        "joined_ship_date": "1866-06-14",
        "joined_at_port": "newcastle",
        "capacity": "master",
        "date_left": "blk",
        "left_port": "blk",
        "cause_of_leaving": "remains on board",
        "sign_with_mark": "n",
        "notes": "blk"
    },
    {
        "id": "vtls004940689_1_15",
        "type": "sailor",
        "parent": "vtls004940689",
        "name": "george mitchell",
        "dob": "blk",
        "age": "19",
        "place_of_birth": "banff",
        "home_address": "blk",
        "f": "blk",
        "name_of_ship": "prima donia",
        "ship_port": "aberystwyth",
        "date_leaving": "continued",
        "joined_ship_date": "1866-02-21",
        "joined_at_port": "hull",
        "capacity": "ordinary seaman",
        "date_left": "1866-05-22",
        "left_port": "lynn",
        "cause_of_leaving": "discharged",
        "sign_with_mark": "n",
        "notes": "blk"
    },
    {
        "id": "vtls004940689_1_17",
        "type": "sailor",
        "parent": "vtls004940689",
        "name": "john richard",
        "dob": "blk",
        "age": "19",
        "place_of_birth": "llanon",
        "home_address": "blk",
        "f": "blk",
        "name_of_ship": "prima donia",
        "ship_port": "aberystwyth",
        "date_leaving": "continued",
        "joined_ship_date": "1866-02-22",
        "joined_at_port": "hull",
        "capacity": "ordinary seaman",
        "date_left": "1866-05-21",
        "left_port": "lynn",
        "cause_of_leaving": "discharged",
        "sign_with_mark": "n",
        "notes": "blk"
    },
    {
        "id": "vtls004940689_1_14",
        "type": "sailor",
        "parent": "vtls004940689",
        "name": "james davis",
        "dob": "blk",
        "age": "34",
        "place_of_birth": "newport",
        "home_address": "blk",
        "f": "blk",
        "name_of_ship": "sylvanus blanchard",
        "ship_port": "yarmouth",
        "date_leaving": "1866-02-01",
        "joined_ship_date": "1866-02-21",
        "joined_at_port": "hull",
        "capacity": "able seaman",
        "date_left": "1866-05-22",
        "left_port": "lynn",
        "cause_of_leaving": "discharged",
        "sign_with_mark": "n",
        "notes": "blk"
    },
    {
        "id": "vtls004940689_1_13",
        "type": "sailor",
        "parent": "vtls004940689",
        "name": "nicholas small",
        "dob": "blk",
        "age": "39",
        "place_of_birth": "chathan",
        "home_address": "blk",
        "f": "blk",
        "name_of_ship": "prima donia",
        "ship_port": "aberystwyth",
        "date_leaving": "continued",
        "joined_ship_date": "1866-02-21",
        "joined_at_port": "hull",
        "capacity": "able seaman",
        "date_left": "1866-05-22",
        "left_port": "lynn",
        "cause_of_leaving": "discharged",
        "sign_with_mark": "y",
        "notes": "blk"
    },
    {
        "id": "vtls004940689_1_16",
        "type": "sailor",
        "parent": "vtls004940689",
        "name": "frances richard",
        "dob": "blk",
        "age": "14",
        "place_of_birth": "st kitts",
        "home_address": "blk",
        "f": "blk",
        "name_of_ship": "prima donia",
        "ship_port": "aberystwyth",
        "date_leaving": "continued",
        "joined_ship_date": "1866-02-21",
        "joined_at_port": "hull",
        "capacity": "boy",
        "date_left": "1866-05-21",
        "left_port": "lynn",
        "cause_of_leaving": "discharged",
        "sign_with_mark": "n",
        "notes": "blk"
    },
    {
        "id": "vtls004940689_1_11",
        "type": "sailor",
        "parent": "vtls004940689",
        "name": "david jones",
        "dob": "blk",
        "age": "24",
        "place_of_birth": "llanon",
        "home_address": "blk",
        "f": "blk",
        "name_of_ship": "prima donia",
        "ship_port": "aberystwyth",
        "date_leaving": "continued",
        "joined_ship_date": "1866-02-21",
        "joined_at_port": "hull",
        "capacity": "master",
        "date_left": "blk",
        "left_port": "blk",
        "cause_of_leaving": "remains on board",
        "sign_with_mark": "n",
        "notes": "blk"
    },
    {
        "id": "vtls004940689_1_12",
        "type": "sailor",
        "parent": "vtls004940689",
        "name": "john thomas",
        "dob": "blk",
        "age": "58",
        "place_of_birth": "newquay",
        "home_address": "blk",
        "f": "blk",
        "name_of_ship": "louisa ann",
        "ship_port": "newquay",
        "date_leaving": "1865-12-20",
        "joined_ship_date": "1866-02-21",
        "joined_at_port": "hull",
        "capacity": "mate",
        "date_left": "1866-05-31",
        "left_port": "lynn",
        "cause_of_leaving": "discharged",
        "sign_with_mark": "n",
        "notes": "blk"
    },
    {
        "id": "vtls004940728_0_13",
        "type": "sailor",
        "parent": "vtls004940728",
        "name": "charles green",
        "dob": "blk",
        "age": "29",
        "place_of_birth": "wells",
        "home_address": "blk",
        "f": "blk",
        "name_of_ship": "prima donia",
        "ship_port": "aberystwyth",
        "date_leaving": "coninues",
        "joined_ship_date": "1866-12-20",
        "joined_at_port": "swansea",
        "capacity": "able seaman",
        "date_left": "1866-05-29",
        "left_port": "lymn",
        "cause_of_leaving": "discharged",
        "sign_with_mark": "y",
        "notes": "further information on ship's log book"
    },
    {
        "id": "vtls004940728_0_11",
        "type": "sailor",
        "parent": "vtls004940728",
        "name": "david jones",
        "dob": "blk",
        "age": "25",
        "place_of_birth": "llanon",
        "home_address": "llanon, cardiganshire",
        "f": "llanon, cardiganshire",
        "name_of_ship": "prima donia",
        "ship_port": "aberystwyth",
        "date_leaving": "coninues",
        "joined_ship_date": "1866-12-20",
        "joined_at_port": "swansea",
        "capacity": "master",
        "date_left": "blk",
        "left_port": "blk",
        "cause_of_leaving": "remains on board",
        "sign_with_mark": "n",
        "notes": "blk"
    },
    {
        "id": "vtls004940689_2_16",
        "type": "sailor",
        "parent": "vtls004940689",
        "name": "frank richards",
        "dob": "blk",
        "age": "15",
        "place_of_birth": "st. kitt, west indies",
        "home_address": "blk",
        "f": "blk",
        "name_of_ship": "prima donia",
        "ship_port": "aberystwyth",
        "date_leaving": "1866-06-18",
        "joined_ship_date": "1866-06-18",
        "joined_at_port": "newcastle",
        "capacity": "boy",
        "date_left": "1866-10-27",
        "left_port": "hull",
        "cause_of_leaving": "discharged",
        "sign_with_mark": "n",
        "notes": "blk"
    },
    {
        "id": "vtls004940728_0_12",
        "type": "sailor",
        "parent": "vtls004940728",
        "name": "john thomas",
        "dob": "blk",
        "age": "39",
        "place_of_birth": "newquay",
        "home_address": "blk",
        "f": "blk",
        "name_of_ship": "prima donia",
        "ship_port": "aberystwyth",
        "date_leaving": "coninues",
        "joined_ship_date": "1866-12-20",
        "joined_at_port": "swansea",
        "capacity": "mate",
        "date_left": "18[66]-05-31",
        "left_port": "lymn",
        "cause_of_leaving": "[discharged]",
        "sign_with_mark": "n",
        "notes": "blk"
    },
    {
        "id": "vtls004940689_2_12",
        "type": "sailor",
        "parent": "vtls004940689",
        "name": "john thomas",
        "dob": "blk",
        "age": "57",
        "place_of_birth": "newquay",
        "home_address": "blk",
        "f": "blk",
        "name_of_ship": "prima donia",
        "ship_port": "aberystwyth",
        "date_leaving": "1866-06-14",
        "joined_ship_date": "1866-06-14",
        "joined_at_port": "newcatle",
        "capacity": "mate",
        "date_left": "1866-10-27",
        "left_port": "hull",
        "cause_of_leaving": "discharged",
        "sign_with_mark": "n",
        "notes": "blk"
    },
    {
        "id": "vtls004940689_2_14",
        "type": "sailor",
        "parent": "vtls004940689",
        "name": "charles green",
        "dob": "blk",
        "age": "26",
        "place_of_birth": "wells, norfolk",
        "home_address": "blk",
        "f": "blk",
        "name_of_ship": "speedaway",
        "ship_port": "london",
        "date_leaving": "1866-04-15",
        "joined_ship_date": "1866-06-16",
        "joined_at_port": "newcastle",
        "capacity": "able seaman",
        "date_left": "1866-10-27",
        "left_port": "hull",
        "cause_of_leaving": "discharged",
        "sign_with_mark": "n",
        "notes": "blk"
    },
    {
        "id": "vtls004940689_2_15",
        "type": "sailor",
        "parent": "vtls004940689",
        "name": "thomas wellard",
        "dob": "blk",
        "age": "18",
        "place_of_birth": "deal",
        "home_address": "blk",
        "f": "blk",
        "name_of_ship": "providence",
        "ship_port": "[london]",
        "date_leaving": "1866-03-15",
        "joined_ship_date": "1866-06-18",
        "joined_at_port": "newcastle",
        "capacity": "ordinary seaman",
        "date_left": "1866-10-27",
        "left_port": "hull",
        "cause_of_leaving": "discharged",
        "sign_with_mark": "n",
        "notes": "blk"
    },
    {
        "id": "vtls004940689_2_17",
        "type": "sailor",
        "parent": "vtls004940689",
        "name": "william howes",
        "dob": "blk",
        "age": "18",
        "place_of_birth": "yarmouth",
        "home_address": "blk",
        "f": "blk",
        "name_of_ship": "agenora",
        "ship_port": "$",
        "date_leaving": "1866-06-13",
        "joined_ship_date": "1866-06-22",
        "joined_at_port": "south shields",
        "capacity": "ordinary seaman",
        "date_left": "1866-10-27",
        "left_port": "hull",
        "cause_of_leaving": "discharged",
        "sign_with_mark": "n",
        "notes": "blk"
    },
    {
        "id": "vtls004940689_2_13",
        "type": "sailor",
        "parent": "vtls004940689",
        "name": "samuel allen",
        "dob": "blk",
        "age": "25",
        "place_of_birth": "londonderry",
        "home_address": "blk",
        "f": "blk",
        "name_of_ship": "tyro",
        "ship_port": "yarmouth",
        "date_leaving": "1866-06-12",
        "joined_ship_date": "1866-06-16",
        "joined_at_port": "newcastle",
        "capacity": "able seaman",
        "date_left": "1866-10-27",
        "left_port": "hull",
        "cause_of_leaving": "discharged",
        "sign_with_mark": "n",
        "notes": "blk"
    },
    {
        "id": "vtls004940728_0_14",
        "type": "sailor",
        "parent": "vtls004940728",
        "name": "john edwards",
        "dob": "blk",
        "age": "25",
        "place_of_birth": "wells",
        "home_address": "blk",
        "f": "blk",
        "name_of_ship": "prima donia",
        "ship_port": "aberystwyth",
        "date_leaving": "coninues",
        "joined_ship_date": "1866-12-20",
        "joined_at_port": "swansea",
        "capacity": "able seaman",
        "date_left": "1866-05-29",
        "left_port": "lymn",
        "cause_of_leaving": "discharged",
        "sign_with_mark": "n",
        "notes": "further information on ship's log book"
    },
    {
        "id": "vtls004940728_0_15",
        "type": "sailor",
        "parent": "vtls004940728",
        "name": "frank richards",
        "dob": "blk",
        "age": "14",
        "place_of_birth": "st kitts",
        "home_address": "blk",
        "f": "blk",
        "name_of_ship": "prima donia",
        "ship_port": "aberystwyth",
        "date_leaving": "coninues",
        "joined_ship_date": "1866-12-20",
        "joined_at_port": "swansea",
        "capacity": "boy",
        "date_left": "1866-04-11",
        "left_port": "marseilles, france",
        "cause_of_leaving": "deserted",
        "sign_with_mark": "n",
        "notes": "further details on ship's log book"
    },
    {
        "id": "vtls004940728_0_17",
        "type": "sailor",
        "parent": "vtls004940728",
        "name": "abraham frisfel",
        "dob": "blk",
        "age": "20",
        "place_of_birth": "rotterdam",
        "home_address": "blk",
        "f": "blk",
        "name_of_ship": "american ship",
        "ship_port": "blk",
        "date_leaving": "blk",
        "joined_ship_date": "1866-12-21",
        "joined_at_port": "swansea",
        "capacity": "ordinary seaman",
        "date_left": "1866-12-31",
        "left_port": "swansea",
        "cause_of_leaving": "imprisoned",
        "sign_with_mark": "n",
        "notes": "further details on ship's log book"
    },
    {
        "id": "vtls004940728_0_18",
        "type": "sailor",
        "parent": "vtls004940728",
        "name": "david roberts",
        "dob": "blk",
        "age": "16",
        "place_of_birth": "amlwch",
        "home_address": "blk",
        "f": "blk",
        "name_of_ship": "ottawa",
        "ship_port": "swansea",
        "date_leaving": "1866-11-18",
        "joined_ship_date": "1866-12-24",
        "joined_at_port": "swansea",
        "capacity": "ordinary seaman",
        "date_left": "1876-01-12",
        "left_port": "swansea",
        "cause_of_leaving": "deserted",
        "sign_with_mark": "y",
        "notes": "further information on ship's log book"
    },
    {
        "id": "vtls004940728_0_16",
        "type": "sailor",
        "parent": "vtls004940728",
        "name": "william howes",
        "dob": "blk",
        "age": "18",
        "place_of_birth": "yarmouth",
        "home_address": "blk",
        "f": "blk",
        "name_of_ship": "prima donia",
        "ship_port": "aberystwyth",
        "date_leaving": "coninues",
        "joined_ship_date": "1866-12-20",
        "joined_at_port": "swansea",
        "capacity": "ordinary seaman",
        "date_left": "1866-12-31",
        "left_port": "swansea",
        "cause_of_leaving": "did not join",
        "sign_with_mark": "n",
        "notes": "blk"
    },
    {
        "id": "vtls004940728_0_19",
        "type": "sailor",
        "parent": "vtls004940728",
        "name": "william evans",
        "dob": "blk",
        "age": "20",
        "place_of_birth": "monmouth",
        "home_address": "blk",
        "f": "blk",
        "name_of_ship": "minelli",
        "ship_port": "whitehaven",
        "date_leaving": "1866-12-12",
        "joined_ship_date": "1866-12-31",
        "joined_at_port": "swansea",
        "capacity": "ordinary seaman",
        "date_left": "1867-01-03",
        "left_port": "swansea",
        "cause_of_leaving": "did not join",
        "sign_with_mark": "y",
        "notes": "blk"
    },
    {
        "id": "vtls004940728_0_20",
        "type": "sailor",
        "parent": "vtls004940728",
        "name": "august schmidt",
        "dob": "blk",
        "age": "16",
        "place_of_birth": "germany",
        "home_address": "blk",
        "f": "blk",
        "name_of_ship": "grace",
        "ship_port": "st ives",
        "date_leaving": "1866-12-30",
        "joined_ship_date": "1867-01-03",
        "joined_at_port": "swansea",
        "capacity": "ordinary seaman",
        "date_left": "1866-05-29",
        "left_port": "lymn",
        "cause_of_leaving": "discharged",
        "sign_with_mark": "n",
        "notes": "blk"
    },
    {
        "id": "vtls004940728_0_21",
        "type": "sailor",
        "parent": "vtls004940728",
        "name": "evan jones",
        "dob": "blk",
        "age": "16",
        "place_of_birth": "newquay",
        "home_address": "blk",
        "f": "blk",
        "name_of_ship": "martin",
        "ship_port": "newquay",
        "date_leaving": "1867-01-16",
        "joined_ship_date": "1867-01-17",
        "joined_at_port": "swansea",
        "capacity": "ordinary seaman",
        "date_left": "1866-05-29",
        "left_port": "lymn",
        "cause_of_leaving": "discharged",
        "sign_with_mark": "n",
        "notes": "blk"
    },
    {
        "id": "vtls004940728_1_13",
        "type": "sailor",
        "parent": "vtls004940728",
        "name": "charles green",
        "dob": "blk",
        "age": "27",
        "place_of_birth": "norfolk",
        "home_address": "blk",
        "f": "blk",
        "name_of_ship": "prima donia",
        "ship_port": "aberystwyth",
        "date_leaving": "continued",
        "joined_ship_date": "1867-07-18",
        "joined_at_port": "swansea",
        "capacity": "able seaman",
        "date_left": "1868-02-01",
        "left_port": "hayle",
        "cause_of_leaving": "discharged",
        "sign_with_mark": "y",
        "notes": "further information on ship's log book"
    },
    {
        "id": "vtls004940728_1_14",
        "type": "sailor",
        "parent": "vtls004940728",
        "name": "john edwards",
        "dob": "blk",
        "age": "23",
        "place_of_birth": "wells",
        "home_address": "blk",
        "f": "blk",
        "name_of_ship": "prima donia",
        "ship_port": "aberystwyth",
        "date_leaving": "continued",
        "joined_ship_date": "1867-07-18",
        "joined_at_port": "swansea",
        "capacity": "able seaman",
        "date_left": "1868-02-14",
        "left_port": "falmouth",
        "cause_of_leaving": "ill",
        "sign_with_mark": "n",
        "notes": "further information on ship's log book"
    },
    {
        "id": "vtls004940728_1_16",
        "type": "sailor",
        "parent": "vtls004940728",
        "name": "david benjamin",
        "dob": "blk",
        "age": "17",
        "place_of_birth": "llanon",
        "home_address": "blk",
        "f": "blk",
        "name_of_ship": "[araan] mail",
        "ship_port": "aberystwyth",
        "date_leaving": "1867-05-12",
        "joined_ship_date": "1867-07-18",
        "joined_at_port": "swansea",
        "capacity": "ordinary seaman",
        "date_left": "1868-02-01",
        "left_port": "hayle",
        "cause_of_leaving": "discharged",
        "sign_with_mark": "n",
        "notes": "blk"
    },
    {
        "id": "vtls004940728_1_11",
        "type": "sailor",
        "parent": "vtls004940728",
        "name": "david jones",
        "dob": "blk",
        "age": "26",
        "place_of_birth": "llanon",
        "home_address": "llanon, cardiganshire",
        "f": "llanon, cardiganshire",
        "name_of_ship": "prima donia",
        "ship_port": "aberystwyth",
        "date_leaving": "continued",
        "joined_ship_date": "1867-07-18",
        "joined_at_port": "swansea",
        "capacity": "master",
        "date_left": "blk",
        "left_port": "blk",
        "cause_of_leaving": "continued",
        "sign_with_mark": "n",
        "notes": "blk"
    },
    {
        "id": "vtls004940728_1_15",
        "type": "sailor",
        "parent": "vtls004940728",
        "name": "evan jones",
        "dob": "blk",
        "age": "16",
        "place_of_birth": "newquay",
        "home_address": "blk",
        "f": "blk",
        "name_of_ship": "prima donia",
        "ship_port": "aberystwyth",
        "date_leaving": "continued",
        "joined_ship_date": "1867-07-18",
        "joined_at_port": "swansea",
        "capacity": "ordinary seaman",
        "date_left": "1868-02-01",
        "left_port": "hayle",
        "cause_of_leaving": "discharged",
        "sign_with_mark": "n",
        "notes": "blk"
    },
    {
        "id": "vtls004940728_1_12",
        "type": "sailor",
        "parent": "vtls004940728",
        "name": "john thomas",
        "dob": "blk",
        "age": "60",
        "place_of_birth": "newquay",
        "home_address": "blk",
        "f": "blk",
        "name_of_ship": "prima donia",
        "ship_port": "aberystwyth",
        "date_leaving": "continued",
        "joined_ship_date": "1867-07-18",
        "joined_at_port": "swansea",
        "capacity": "mate",
        "date_left": "1868-02-01",
        "left_port": "hayle",
        "cause_of_leaving": "discharged",
        "sign_with_mark": "n",
        "notes": "blk"
    },
    {
        "id": "vtls004940762_0_12",
        "type": "sailor",
        "parent": "vtls004940762",
        "name": "john thomas",
        "dob": "blk",
        "age": "60",
        "place_of_birth": "newquay",
        "home_address": "blk",
        "f": "blk",
        "name_of_ship": "prima donia",
        "ship_port": "aberystwyth",
        "date_leaving": "blk",
        "joined_ship_date": "1868-03-05",
        "joined_at_port": "cardiff",
        "capacity": "mate",
        "date_left": "1868-08-18",
        "left_port": "falmouth",
        "cause_of_leaving": "discharged",
        "sign_with_mark": "n",
        "notes": "blk"
    },
    {
        "id": "vtls004940762_0_11",
        "type": "sailor",
        "parent": "vtls004940762",
        "name": "david jones",
        "dob": "blk",
        "age": "27",
        "place_of_birth": "llanon",
        "home_address": "llanon, cardiganshire",
        "f": "llanon, cardiganshire",
        "name_of_ship": "prima donia",
        "ship_port": "aberystwyth",
        "date_leaving": "blk",
        "joined_ship_date": "blk",
        "joined_at_port": "blk",
        "capacity": "master",
        "date_left": "blk",
        "left_port": "blk",
        "cause_of_leaving": "remains on board",
        "sign_with_mark": "n",
        "notes": "blk"
    },
    {
        "id": "vtls004940728_1_17",
        "type": "sailor",
        "parent": "vtls004940728",
        "name": "morris james",
        "dob": "blk",
        "age": "16",
        "place_of_birth": "cardigan",
        "home_address": "blk",
        "f": "blk",
        "name_of_ship": "lily",
        "ship_port": "chester",
        "date_leaving": "1867-07-12",
        "joined_ship_date": "1867-07-18",
        "joined_at_port": "swansea",
        "capacity": "boy",
        "date_left": "1868-02-01",
        "left_port": "hayle",
        "cause_of_leaving": "discharged",
        "sign_with_mark": "n",
        "notes": "blk"
    },
    {
        "id": "vtls004940762_1_11",
        "type": "sailor",
        "parent": "vtls004940762",
        "name": "david jones",
        "dob": "blk",
        "age": "27",
        "place_of_birth": "llanon",
        "home_address": "llanon, cardigan",
        "f": "llanon, cardigan",
        "name_of_ship": "prima donia",
        "ship_port": "aberystwyth",
        "date_leaving": "blk",
        "joined_ship_date": "1868-09-21",
        "joined_at_port": "cardiff",
        "capacity": "master",
        "date_left": "blk",
        "left_port": "blk",
        "cause_of_leaving": "remains on board",
        "sign_with_mark": "n",
        "notes": "blk"
    },
    {
        "id": "vtls004940762_0_16",
        "type": "sailor",
        "parent": "vtls004940762",
        "name": "david benjamin",
        "dob": "blk",
        "age": "17",
        "place_of_birth": "llanon",
        "home_address": "blk",
        "f": "blk",
        "name_of_ship": "prima donia",
        "ship_port": "aberystwyth",
        "date_leaving": "blk",
        "joined_ship_date": "1868-03-05",
        "joined_at_port": "cardiff",
        "capacity": "ordinary seaman",
        "date_left": "1868-08-29",
        "left_port": "cardiff",
        "cause_of_leaving": "discharged",
        "sign_with_mark": "n",
        "notes": "blk"
    },
    {
        "id": "vtls004940762_0_14",
        "type": "sailor",
        "parent": "vtls004940762",
        "name": "evan davies",
        "dob": "blk",
        "age": "28",
        "place_of_birth": "llanon",
        "home_address": "blk",
        "f": "blk",
        "name_of_ship": "aeron vale",
        "ship_port": "aberystwyth",
        "date_leaving": "1867-12-21",
        "joined_ship_date": "1868-03-05",
        "joined_at_port": "cardiff",
        "capacity": "able seaman",
        "date_left": "1868-08-29",
        "left_port": "cardiff",
        "cause_of_leaving": "discharged",
        "sign_with_mark": "n",
        "notes": "blk"
    },
    {
        "id": "vtls004940762_1_12",
        "type": "sailor",
        "parent": "vtls004940762",
        "name": "lewis jones",
        "dob": "blk",
        "age": "28",
        "place_of_birth": "llanon",
        "home_address": "blk",
        "f": "blk",
        "name_of_ship": "life brigade",
        "ship_port": "n shields",
        "date_leaving": "1868-04-15",
        "joined_ship_date": "1868-09-28",
        "joined_at_port": "cardiff",
        "capacity": "mate",
        "date_left": "1868-02-22",
        "left_port": "london",
        "cause_of_leaving": "discharged",
        "sign_with_mark": "n",
        "notes": "blk"
    },
    {
        "id": "vtls004940762_1_13",
        "type": "sailor",
        "parent": "vtls004940762",
        "name": "evan davies",
        "dob": "blk",
        "age": "29",
        "place_of_birth": "llanon",
        "home_address": "blk",
        "f": "blk",
        "name_of_ship": "prima donia",
        "ship_port": "aberystwyth",
        "date_leaving": "blk",
        "joined_ship_date": "1868-09-21",
        "joined_at_port": "cardiff",
        "capacity": "able seaman",
        "date_left": "1868-02-22",
        "left_port": "london",
        "cause_of_leaving": "discharged",
        "sign_with_mark": "n",
        "notes": "blk"
    },
    {
        "id": "vtls004940762_0_13",
        "type": "sailor",
        "parent": "vtls004940762",
        "name": "charles green",
        "dob": "blk",
        "age": "28",
        "place_of_birth": "wells",
        "home_address": "blk",
        "f": "blk",
        "name_of_ship": "prima donia",
        "ship_port": "aberystwyth",
        "date_leaving": "blk",
        "joined_ship_date": "1868-03-05",
        "joined_at_port": "cardiff",
        "capacity": "boatswain",
        "date_left": "1868-08-29",
        "left_port": "cardiff",
        "cause_of_leaving": "discharged",
        "sign_with_mark": "y",
        "notes": "blk"
    },
    {
        "id": "vtls004940762_0_15",
        "type": "sailor",
        "parent": "vtls004940762",
        "name": "w h cook",
        "dob": "blk",
        "age": "19",
        "place_of_birth": "bristol",
        "home_address": "blk",
        "f": "blk",
        "name_of_ship": "[inda]",
        "ship_port": "bristol",
        "date_leaving": "1868-02-15",
        "joined_ship_date": "1868-03-05",
        "joined_at_port": "cardiff",
        "capacity": "ordinary seaman",
        "date_left": "1868-08-29",
        "left_port": "cardiff",
        "cause_of_leaving": "discharged",
        "sign_with_mark": "n",
        "notes": "blk"
    },
    {
        "id": "vtls004940762_0_17",
        "type": "sailor",
        "parent": "vtls004940762",
        "name": "thomas morris",
        "dob": "blk",
        "age": "14",
        "place_of_birth": "llanon",
        "home_address": "blk",
        "f": "blk",
        "name_of_ship": "first voyage",
        "ship_port": "blk",
        "date_leaving": "blk",
        "joined_ship_date": "1868-03-05",
        "joined_at_port": "cardiff",
        "capacity": "boy",
        "date_left": "1868-08-29",
        "left_port": "cardiff",
        "cause_of_leaving": "discharged",
        "sign_with_mark": "n",
        "notes": "blk"
    },
    {
        "id": "vtls004940771_0_11",
        "type": "sailor",
        "parent": "vtls004940771",
        "name": "david jones",
        "dob": "blk",
        "age": "28",
        "place_of_birth": "llanon",
        "home_address": "llanon, cardigan",
        "f": "llanon, cardigan",
        "name_of_ship": "prima donia",
        "ship_port": "aberystwyth",
        "date_leaving": "blk",
        "joined_ship_date": "blk",
        "joined_at_port": "blk",
        "capacity": "master",
        "date_left": "1869-11-20",
        "left_port": "glasgow",
        "cause_of_leaving": "remains on board",
        "sign_with_mark": "n",
        "notes": "blk"
    },
    {
        "id": "vtls004940762_1_16",
        "type": "sailor",
        "parent": "vtls004940762",
        "name": "david benjamin",
        "dob": "blk",
        "age": "17",
        "place_of_birth": "llanon",
        "home_address": "blk",
        "f": "blk",
        "name_of_ship": "prima donia",
        "ship_port": "aberystwyth",
        "date_leaving": "blk",
        "joined_ship_date": "1868-09-21",
        "joined_at_port": "cardiff",
        "capacity": "ordinary seaman",
        "date_left": "1868-02-22",
        "left_port": "london",
        "cause_of_leaving": "discharged",
        "sign_with_mark": "n",
        "notes": "blk"
    },
    {
        "id": "vtls004940771_0_15",
        "type": "sailor",
        "parent": "vtls004940771",
        "name": "thomas thomas",
        "dob": "blk",
        "age": "20",
        "place_of_birth": "newquay",
        "home_address": "blk",
        "f": "blk",
        "name_of_ship": "mackay",
        "ship_port": "liverpool",
        "date_leaving": "1869-04-16",
        "joined_ship_date": "1869-06-24",
        "joined_at_port": "cardiff",
        "capacity": "ordinary seaman",
        "date_left": "1869-11-20",
        "left_port": "glasgow",
        "cause_of_leaving": "discharged",
        "sign_with_mark": "n",
        "notes": "blk"
    },
    {
        "id": "vtls004940771_0_13",
        "type": "sailor",
        "parent": "vtls004940771",
        "name": "david jones",
        "dob": "blk",
        "age": "27",
        "place_of_birth": "llanon",
        "home_address": "blk",
        "f": "blk",
        "name_of_ship": "prima donia",
        "ship_port": "aberystwyth",
        "date_leaving": "blk",
        "joined_ship_date": "1869-06-24",
        "joined_at_port": "cardiff",
        "capacity": "able seaman",
        "date_left": "1869-11-20",
        "left_port": "glasgow",
        "cause_of_leaving": "discharged",
        "sign_with_mark": "n",
        "notes": "blk"
    },
    {
        "id": "vtls004940762_1_17",
        "type": "sailor",
        "parent": "vtls004940762",
        "name": "michael thompson",
        "dob": "blk",
        "age": "16",
        "place_of_birth": "limerick",
        "home_address": "blk",
        "f": "blk",
        "name_of_ship": "vivacious",
        "ship_port": "beaumaris",
        "date_leaving": "1868-09-12",
        "joined_ship_date": "1868-09-28",
        "joined_at_port": "cardiff",
        "capacity": "boy",
        "date_left": "1868-02-22",
        "left_port": "london",
        "cause_of_leaving": "discharged",
        "sign_with_mark": "n",
        "notes": "blk"
    },
    {
        "id": "vtls004940771_0_14",
        "type": "sailor",
        "parent": "vtls004940771",
        "name": "john thomas",
        "dob": "blk",
        "age": "33",
        "place_of_birth": "newquay",
        "home_address": "blk",
        "f": "blk",
        "name_of_ship": "crusader",
        "ship_port": "london",
        "date_leaving": "1869-04-16",
        "joined_ship_date": "1869-06-24",
        "joined_at_port": "cardiff",
        "capacity": "able seaman",
        "date_left": "1869-11-20",
        "left_port": "glasgow",
        "cause_of_leaving": "discharged",
        "sign_with_mark": "n",
        "notes": "blk"
    },
    {
        "id": "vtls004940771_0_12",
        "type": "sailor",
        "parent": "vtls004940771",
        "name": "j thomas",
        "dob": "blk",
        "age": "60",
        "place_of_birth": "newquay",
        "home_address": "blk",
        "f": "blk",
        "name_of_ship": "prima donia",
        "ship_port": "aberystwyth",
        "date_leaving": "blk",
        "joined_ship_date": "1869-06-25",
        "joined_at_port": "cardiff",
        "capacity": "mate",
        "date_left": "1869-11-20",
        "left_port": "glasgow",
        "cause_of_leaving": "discharged",
        "sign_with_mark": "n",
        "notes": "blk"
    },
    {
        "id": "vtls004940762_1_14",
        "type": "sailor",
        "parent": "vtls004940762",
        "name": "william gould",
        "dob": "blk",
        "age": "42",
        "place_of_birth": "newport",
        "home_address": "blk",
        "f": "blk",
        "name_of_ship": "kaffirland",
        "ship_port": "aberdeen",
        "date_leaving": "blk",
        "joined_ship_date": "1868-09-28",
        "joined_at_port": "cardiff",
        "capacity": "able seaman",
        "date_left": "1868-02-22",
        "left_port": "london",
        "cause_of_leaving": "discharged",
        "sign_with_mark": "n",
        "notes": "blk"
    },
    {
        "id": "vtls004940762_1_15",
        "type": "sailor",
        "parent": "vtls004940762",
        "name": "john gough",
        "dob": "blk",
        "age": "18",
        "place_of_birth": "london",
        "home_address": "blk",
        "f": "blk",
        "name_of_ship": "[choin]",
        "ship_port": "blakeney",
        "date_leaving": "1867-12-",
        "joined_ship_date": "1868-09-21",
        "joined_at_port": "cardiff",
        "capacity": "ordinary seaman",
        "date_left": "1868-02-22",
        "left_port": "london",
        "cause_of_leaving": "discharged",
        "sign_with_mark": "n",
        "notes": "2"
    },
    {
        "id": "vtls004940786_0_11",
        "type": "sailor",
        "parent": "vtls004940786",
        "name": "david jones",
        "dob": "blk",
        "age": "blk",
        "place_of_birth": "llanon",
        "home_address": "llanon, cardiganshire",
        "f": "llanon, cardiganshire",
        "name_of_ship": "prima donia",
        "ship_port": "aberystwyth",
        "date_leaving": "blk",
        "joined_ship_date": "blk",
        "joined_at_port": "blk",
        "capacity": "master",
        "date_left": "blk",
        "left_port": "blk",
        "cause_of_leaving": "blk",
        "sign_with_mark": "n",
        "notes": "sailed from swansea and 'not heard of afterwards'"
    },
    {
        "id": "vtls004940786_0_14",
        "type": "sailor",
        "parent": "vtls004940786",
        "name": "thomas clark",
        "dob": "blk",
        "age": "39",
        "place_of_birth": "somerset",
        "home_address": "blk",
        "f": "blk",
        "name_of_ship": "william leckie",
        "ship_port": "sunderland",
        "date_leaving": "1870-01-15",
        "joined_ship_date": "1870-01-25",
        "joined_at_port": "swansea",
        "capacity": "able seaman",
        "date_left": "1870-01-27",
        "left_port": "at sea",
        "cause_of_leaving": "supposed drowned",
        "sign_with_mark": "n",
        "notes": "blk"
    },
    {
        "id": "vtls004940786_0_15",
        "type": "sailor",
        "parent": "vtls004940786",
        "name": "john kifsack",
        "dob": "blk",
        "age": "20",
        "place_of_birth": "isle of man",
        "home_address": "blk",
        "f": "blk",
        "name_of_ship": "emrys",
        "ship_port": "newquay",
        "date_leaving": "1870-01-24",
        "joined_ship_date": "1870-01-25",
        "joined_at_port": "swansea",
        "capacity": "ordinary seaman",
        "date_left": "1870-01-27",
        "left_port": "at sea",
        "cause_of_leaving": "supposed drowned",
        "sign_with_mark": "n",
        "notes": "blk"
    },
    {
        "id": "vtls004940771_0_17",
        "type": "sailor",
        "parent": "vtls004940771",
        "name": "thomas morris",
        "dob": "blk",
        "age": "16",
        "place_of_birth": "llanon",
        "home_address": "blk",
        "f": "blk",
        "name_of_ship": "prima donia",
        "ship_port": "aberystwyth",
        "date_leaving": "blk",
        "joined_ship_date": "1869-06-24",
        "joined_at_port": "cardiff",
        "capacity": "ordinary seaman",
        "date_left": "1869-11-20",
        "left_port": "glasgow",
        "cause_of_leaving": "discharged",
        "sign_with_mark": "n",
        "notes": "blk"
    },
    {
        "id": "vtls004940786_0_12",
        "type": "sailor",
        "parent": "vtls004940786",
        "name": "henry morgan",
        "dob": "blk",
        "age": "53",
        "place_of_birth": "solva",
        "home_address": "blk",
        "f": "blk",
        "name_of_ship": "st ca$h$$$$$",
        "ship_port": "cork",
        "date_leaving": "1869-11-29",
        "joined_ship_date": "1870-01-25",
        "joined_at_port": "swansea",
        "capacity": "mate",
        "date_left": "1870-01-27",
        "left_port": "at sea",
        "cause_of_leaving": "supposed drowned",
        "sign_with_mark": "n",
        "notes": "blk"
    },
    {
        "id": "vtls004940786_0_13",
        "type": "sailor",
        "parent": "vtls004940786",
        "name": "john hawes",
        "dob": "blk",
        "age": "34",
        "place_of_birth": "newquay",
        "home_address": "blk",
        "f": "blk",
        "name_of_ship": "prima donia",
        "ship_port": "aberystwyth",
        "date_leaving": "blk",
        "joined_ship_date": "1870-01-25",
        "joined_at_port": "swansea",
        "capacity": "able seaman",
        "date_left": "1870-01-27",
        "left_port": "at sea",
        "cause_of_leaving": "supposed drowned",
        "sign_with_mark": "y",
        "notes": "blk"
    },
    {
        "id": "vtls004940771_0_16",
        "type": "sailor",
        "parent": "vtls004940771",
        "name": "james john",
        "dob": "blk",
        "age": "18",
        "place_of_birth": "haverford",
        "home_address": "blk",
        "f": "blk",
        "name_of_ship": "pearl",
        "ship_port": "new quay",
        "date_leaving": "1869-05-31",
        "joined_ship_date": "1869-06-24",
        "joined_at_port": "cardiff",
        "capacity": "ordinary seaman",
        "date_left": "1869-11-20",
        "left_port": "glasgow",
        "cause_of_leaving": "discharged",
        "sign_with_mark": "n",
        "notes": "blk"
    },
    {
        "id": "vtls004940786_0_16",
        "type": "sailor",
        "parent": "vtls004940786",
        "name": "thomas morris",
        "dob": "blk",
        "age": "16",
        "place_of_birth": "llanon",
        "home_address": "blk",
        "f": "blk",
        "name_of_ship": "prima donia",
        "ship_port": "aberystwyth",
        "date_leaving": "continued",
        "joined_ship_date": "1870-01-25",
        "joined_at_port": "swansea",
        "capacity": "ordinary seaman",
        "date_left": "1870-01-27",
        "left_port": "at sea",
        "cause_of_leaving": "supposed drowned",
        "sign_with_mark": "n",
        "notes": "blk"
    },
    {
        "id": "vtls004940786_0_17",
        "type": "sailor",
        "parent": "vtls004940786",
        "name": "caleb john",
        "dob": "blk",
        "age": "16",
        "place_of_birth": "abercastle",
        "home_address": "blk",
        "f": "blk",
        "name_of_ship": "first ship",
        "ship_port": "blk",
        "date_leaving": "blk",
        "joined_ship_date": "1870-01-25",
        "joined_at_port": "swansea",
        "capacity": "boy",
        "date_left": "1870-01-27",
        "left_port": "at sea",
        "cause_of_leaving": "supposed drowned",
        "sign_with_mark": "n",
        "notes": "blk"
    }
]