[
    {
        "id": "vtls004612504_0_13",
        "type": "sailor",
        "parent": "vtls004612504",
        "name": "roland humphries",
        "dob": "blk",
        "age": "25",
        "place_of_birth": "merionethshire",
        "home_address": "blk",
        "f": "blk",
        "name_of_ship": "great brittain",
        "ship_port": "blk",
        "date_leaving": "1876",
        "joined_ship_date": "1876-07-24",
        "joined_at_port": "bermuda",
        "capacity": "able seaman",
        "date_left": "1876-04-30",
        "left_port": "porthmadog",
        "cause_of_leaving": "discharged",
        "sign_with_mark": "y",
        "notes": "blk"
    },
    {
        "id": "vtls004612504_0_16",
        "type": "sailor",
        "parent": "vtls004612504",
        "name": "robert lewis",
        "dob": "blk",
        "age": "29",
        "place_of_birth": "pwllheli",
        "home_address": "blk",
        "f": "blk",
        "name_of_ship": "ocean child of",
        "ship_port": "pwllheli",
        "date_leaving": "1876",
        "joined_ship_date": "1876-08-12",
        "joined_at_port": "bermuda",
        "capacity": "boatswain",
        "date_left": "1876-08-11",
        "left_port": "dublin",
        "cause_of_leaving": "remains on board",
        "sign_with_mark": "y",
        "notes": "blk"
    },
    {
        "id": "vtls004612504_0_14",
        "type": "sailor",
        "parent": "vtls004612504",
        "name": "robert owen lewis",
        "dob": "blk",
        "age": "16",
        "place_of_birth": "aberdovey",
        "home_address": "blk",
        "f": "blk",
        "name_of_ship": "glen cable",
        "ship_port": "blk",
        "date_leaving": "1875",
        "joined_ship_date": "1876-08-12",
        "joined_at_port": "bermuda",
        "capacity": "able seaman",
        "date_left": "1876-04-31",
        "left_port": "porthmadog",
        "cause_of_leaving": "discharged",
        "sign_with_mark": "n",
        "notes": "blk"
    },
    {
        "id": "vtls004612504_0_12",
        "type": "sailor",
        "parent": "vtls004612504",
        "name": "john evans",
        "dob": "blk",
        "age": "45",
        "place_of_birth": "caernarfonshire",
        "home_address": "blk",
        "f": "blk",
        "name_of_ship": "charlote ann",
        "ship_port": "blk",
        "date_leaving": "1876",
        "joined_ship_date": "1876-07-24",
        "joined_at_port": "bermuda",
        "capacity": "boatswain",
        "date_left": "1876-04-29",
        "left_port": "porthmadog",
        "cause_of_leaving": "discharged",
        "sign_with_mark": "y",
        "notes": "blk"
    },
    {
        "id": "vtls004612504_0_11",
        "type": "sailor",
        "parent": "vtls004612504",
        "name": "john davis",
        "dob": "blk",
        "age": "54",
        "place_of_birth": "merionethshire",
        "home_address": "blk",
        "f": "blk",
        "name_of_ship": "ann davies",
        "ship_port": "blk",
        "date_leaving": "1875",
        "joined_ship_date": "1876-07-24",
        "joined_at_port": "bermuda",
        "capacity": "master",
        "date_left": "1876-08-11",
        "left_port": "dublin",
        "cause_of_leaving": "remains on board",
        "sign_with_mark": "n",
        "notes": "blk"
    },
    {
        "id": "vtls004612504_0_15",
        "type": "sailor",
        "parent": "vtls004612504",
        "name": "william williams",
        "dob": "blk",
        "age": "15",
        "place_of_birth": "pwllheli",
        "home_address": "blk",
        "f": "blk",
        "name_of_ship": "elizabeth richard",
        "ship_port": "blk",
        "date_leaving": "1876",
        "joined_ship_date": "blk",
        "joined_at_port": "bermuda",
        "capacity": "boy",
        "date_left": "1876-04-32",
        "left_port": "porthmadog",
        "cause_of_leaving": "discharged",
        "sign_with_mark": "n",
        "notes": "blk"
    },
    {
        "id": "vtls004612504_0_18",
        "type": "sailor",
        "parent": "vtls004612504",
        "name": "hugh hughes",
        "dob": "blk",
        "age": "19",
        "place_of_birth": "caernarfonshire",
        "home_address": "blk",
        "f": "blk",
        "name_of_ship": "westminster",
        "ship_port": "aberystwyth",
        "date_leaving": "1876",
        "joined_ship_date": "1876-08-12",
        "joined_at_port": "bermuda",
        "capacity": "able seaman",
        "date_left": "1876-08-11",
        "left_port": "dublin",
        "cause_of_leaving": "remains on board",
        "sign_with_mark": "n",
        "notes": "blk"
    },
    {
        "id": "vtls004612504_0_17",
        "type": "sailor",
        "parent": "vtls004612504",
        "name": "john jones",
        "dob": "blk",
        "age": "26",
        "place_of_birth": "cardiganshire",
        "home_address": "blk",
        "f": "blk",
        "name_of_ship": "wellington",
        "ship_port": "aberystwyth",
        "date_leaving": "1876",
        "joined_ship_date": "1876-08-12",
        "joined_at_port": "bermuda",
        "capacity": "able seaman",
        "date_left": "1876-08-11",
        "left_port": "dublin",
        "cause_of_leaving": "remains on board",
        "sign_with_mark": "n",
        "notes": "blk"
    },
    {
        "id": "vtls004612504_1_14",
        "type": "sailor",
        "parent": "vtls004612504",
        "name": "william griffith",
        "dob": "blk",
        "age": "22",
        "place_of_birth": "merionethshire",
        "home_address": "blk",
        "f": "blk",
        "name_of_ship": "mary lester",
        "ship_port": "blk",
        "date_leaving": "1876",
        "joined_ship_date": "1876-09-29",
        "joined_at_port": "portmadog",
        "capacity": "able seaman",
        "date_left": "blk",
        "left_port": "blk",
        "cause_of_leaving": "remains on board",
        "sign_with_mark": "n",
        "notes": "blk"
    },
    {
        "id": "vtls004612504_0_20",
        "type": "sailor",
        "parent": "vtls004612504",
        "name": "henrik jo$ansir",
        "dob": "blk",
        "age": "21",
        "place_of_birth": "denmark",
        "home_address": "blk",
        "f": "blk",
        "name_of_ship": "james denmark",
        "ship_port": "blk",
        "date_leaving": "1876",
        "joined_ship_date": "1876-07-22",
        "joined_at_port": "brake",
        "capacity": "able seaman",
        "date_left": "1876-08-10",
        "left_port": "dublin",
        "cause_of_leaving": "discharged",
        "sign_with_mark": "n",
        "notes": "blk"
    },
    {
        "id": "vtls004612504_1_13",
        "type": "sailor",
        "parent": "vtls004612504",
        "name": "william macgiver",
        "dob": "blk",
        "age": "28",
        "place_of_birth": "ireland",
        "home_address": "blk",
        "f": "blk",
        "name_of_ship": "same ship",
        "ship_port": "blk",
        "date_leaving": "1876",
        "joined_ship_date": "1876-09-29",
        "joined_at_port": "portmadog",
        "capacity": "able seaman",
        "date_left": "blk",
        "left_port": "blk",
        "cause_of_leaving": "remains on board",
        "sign_with_mark": "n",
        "notes": "blk"
    },
    {
        "id": "vtls004612504_1_11",
        "type": "sailor",
        "parent": "vtls004612504",
        "name": "john davies",
        "dob": "blk",
        "age": "54",
        "place_of_birth": "merionethshire",
        "home_address": "blk",
        "f": "blk",
        "name_of_ship": "same ship",
        "ship_port": "blk",
        "date_leaving": "1876",
        "joined_ship_date": "1876-09-29",
        "joined_at_port": "portmadog",
        "capacity": "master",
        "date_left": "blk",
        "left_port": "blk",
        "cause_of_leaving": "remains on board",
        "sign_with_mark": "n",
        "notes": "blk"
    },
    {
        "id": "vtls004612504_1_12",
        "type": "sailor",
        "parent": "vtls004612504",
        "name": "owen roberts",
        "dob": "blk",
        "age": "26",
        "place_of_birth": "merionethshire",
        "home_address": "blk",
        "f": "blk",
        "name_of_ship": "same ship",
        "ship_port": "blk",
        "date_leaving": "1876",
        "joined_ship_date": "1876-09-29",
        "joined_at_port": "portmadog",
        "capacity": "mate",
        "date_left": "blk",
        "left_port": "blk",
        "cause_of_leaving": "remains on board",
        "sign_with_mark": "n",
        "notes": "blk"
    },
    {
        "id": "vtls004612504_0_19",
        "type": "sailor",
        "parent": "vtls004612504",
        "name": "james j$$$k",
        "dob": "blk",
        "age": "21",
        "place_of_birth": "$iffin",
        "home_address": "blk",
        "f": "blk",
        "name_of_ship": "nathaniel",
        "ship_port": "blk",
        "date_leaving": "1876",
        "joined_ship_date": "1877-01-13",
        "joined_at_port": "portmadog",
        "capacity": "able seaman",
        "date_left": "1876-07-19",
        "left_port": "brake",
        "cause_of_leaving": "$",
        "sign_with_mark": "n",
        "notes": "blk"
    },
    {
        "id": "vtls004612573_0_14",
        "type": "sailor",
        "parent": "vtls004612573",
        "name": "thomas byth$$$",
        "dob": "blk",
        "age": "21",
        "place_of_birth": "amlwch",
        "home_address": "blk",
        "f": "blk",
        "name_of_ship": "$$pation",
        "ship_port": "caenarvon",
        "date_leaving": "1879",
        "joined_ship_date": "1880-01-16",
        "joined_at_port": "porthmeirion",
        "capacity": "able seaman",
        "date_left": "1880-03-08",
        "left_port": "newcastle",
        "cause_of_leaving": "discharged",
        "sign_with_mark": "y",
        "notes": "blk"
    },
    {
        "id": "vtls004612573_0_15",
        "type": "sailor",
        "parent": "vtls004612573",
        "name": "owen williams",
        "dob": "blk",
        "age": "17",
        "place_of_birth": "amlwch",
        "home_address": "blk",
        "f": "blk",
        "name_of_ship": "mary & alice",
        "ship_port": "caenarvon",
        "date_leaving": "1879",
        "joined_ship_date": "1880-01-16",
        "joined_at_port": "porthmeirion",
        "capacity": "cook",
        "date_left": "1880-03-01",
        "left_port": "south shields",
        "cause_of_leaving": "discharged",
        "sign_with_mark": "n",
        "notes": "blk"
    },
    {
        "id": "vtls004612573_0_13",
        "type": "sailor",
        "parent": "vtls004612573",
        "name": "owen hughes",
        "dob": "blk",
        "age": "34",
        "place_of_birth": "beaumaris",
        "home_address": "blk",
        "f": "blk",
        "name_of_ship": "$ curry",
        "ship_port": "caenarvon",
        "date_leaving": "1879",
        "joined_ship_date": "1880-01-16",
        "joined_at_port": "porthmeirion",
        "capacity": "able seaman",
        "date_left": "1880-07-03",
        "left_port": "caernafon",
        "cause_of_leaving": "paid off",
        "sign_with_mark": "n",
        "notes": "blk"
    },
    {
        "id": "vtls004612504_1_15",
        "type": "sailor",
        "parent": "vtls004612504",
        "name": "john thomas",
        "dob": "blk",
        "age": "16",
        "place_of_birth": "merionethshire",
        "home_address": "blk",
        "f": "blk",
        "name_of_ship": "margaret owen",
        "ship_port": "blk",
        "date_leaving": "1876",
        "joined_ship_date": "1876-09-29",
        "joined_at_port": "portmadog",
        "capacity": "able seaman",
        "date_left": "blk",
        "left_port": "blk",
        "cause_of_leaving": "remains on board",
        "sign_with_mark": "n",
        "notes": "blk"
    },
    {
        "id": "vtls004612573_0_11",
        "type": "sailor",
        "parent": "vtls004612573",
        "name": "henry parry",
        "dob": "blk",
        "age": "39",
        "place_of_birth": "nevin",
        "home_address": "blk",
        "f": "blk",
        "name_of_ship": "anne davies",
        "ship_port": "blk",
        "date_leaving": "1879\/1880",
        "joined_ship_date": "1880-01-16",
        "joined_at_port": "porthmeirion",
        "capacity": "master",
        "date_left": "blk",
        "left_port": "blk",
        "cause_of_leaving": "remains on board",
        "sign_with_mark": "n",
        "notes": "blk"
    },
    {
        "id": "vtls004612573_0_18",
        "type": "sailor",
        "parent": "vtls004612573",
        "name": "john reeves",
        "dob": "blk",
        "age": "15",
        "place_of_birth": "aberdovey",
        "home_address": "blk",
        "f": "blk",
        "name_of_ship": "lightning",
        "ship_port": "liverpool",
        "date_leaving": "1880",
        "joined_ship_date": "1880-05-04",
        "joined_at_port": "cardiff",
        "capacity": "boy",
        "date_left": "1880-07-02",
        "left_port": "caernafon",
        "cause_of_leaving": "paid off",
        "sign_with_mark": "n",
        "notes": "blk"
    },
    {
        "id": "vtls004612573_0_12",
        "type": "sailor",
        "parent": "vtls004612573",
        "name": "henry owens",
        "dob": "blk",
        "age": "45",
        "place_of_birth": "pwllheli",
        "home_address": "blk",
        "f": "blk",
        "name_of_ship": "$$lustra",
        "ship_port": "1879",
        "date_leaving": "1879",
        "joined_ship_date": "1880-01-16",
        "joined_at_port": "porthmeirion",
        "capacity": "mate",
        "date_left": "1880-07-05",
        "left_port": "caernafon",
        "cause_of_leaving": "paid off",
        "sign_with_mark": "n",
        "notes": "blk"
    },
    {
        "id": "vtls004612573_0_16",
        "type": "sailor",
        "parent": "vtls004612573",
        "name": "james humphries",
        "dob": "blk",
        "age": "29",
        "place_of_birth": "$",
        "home_address": "blk",
        "f": "blk",
        "name_of_ship": "monarch",
        "ship_port": "blk",
        "date_leaving": "1880",
        "joined_ship_date": "1880-03-14",
        "joined_at_port": "newcastle",
        "capacity": "able seaman",
        "date_left": "1880-04-20",
        "left_port": "bristol",
        "cause_of_leaving": "discharged",
        "sign_with_mark": "n",
        "notes": "blk"
    },
    {
        "id": "vtls004612573_0_17",
        "type": "sailor",
        "parent": "vtls004612573",
        "name": "george jeanbrough",
        "dob": "blk",
        "age": "18",
        "place_of_birth": "afrca",
        "home_address": "blk",
        "f": "blk",
        "name_of_ship": "$",
        "ship_port": "blk",
        "date_leaving": "1880",
        "joined_ship_date": "1880-03-10",
        "joined_at_port": "south shields",
        "capacity": "cook",
        "date_left": "1880-07-27",
        "left_port": "cardiff",
        "cause_of_leaving": "discharged",
        "sign_with_mark": "n",
        "notes": "blk"
    },
    {
        "id": "vtls004612573_1_14",
        "type": "sailor",
        "parent": "vtls004612573",
        "name": "robert williams",
        "dob": "blk",
        "age": "27",
        "place_of_birth": "menai bridge",
        "home_address": "blk",
        "f": "blk",
        "name_of_ship": "revival",
        "ship_port": "caernavon",
        "date_leaving": "1880",
        "joined_ship_date": "1880-08-11",
        "joined_at_port": "porthmeirion",
        "capacity": "able seaman",
        "date_left": "1880-09-20",
        "left_port": "hamburg, germany",
        "cause_of_leaving": "discharged",
        "sign_with_mark": "n",
        "notes": "blk"
    },
    {
        "id": "vtls004612573_1_13",
        "type": "sailor",
        "parent": "vtls004612573",
        "name": "griffith roberts",
        "dob": "blk",
        "age": "53",
        "place_of_birth": "caernarfon",
        "home_address": "blk",
        "f": "blk",
        "name_of_ship": "francess",
        "ship_port": "caernavon",
        "date_leaving": "1880",
        "joined_ship_date": "1880-08-11",
        "joined_at_port": "porthmeirion",
        "capacity": "able seaman",
        "date_left": "1880-09-20",
        "left_port": "hamburg, germany",
        "cause_of_leaving": "discharged",
        "sign_with_mark": "y",
        "notes": "blk"
    },
    {
        "id": "vtls004612573_1_15",
        "type": "sailor",
        "parent": "vtls004612573",
        "name": "william roberts",
        "dob": "blk",
        "age": "18",
        "place_of_birth": "menai bridge",
        "home_address": "blk",
        "f": "blk",
        "name_of_ship": "gleaner",
        "ship_port": "montrose",
        "date_leaving": "1880",
        "joined_ship_date": "1880-08-11",
        "joined_at_port": "porthmeirion",
        "capacity": "cook",
        "date_left": "1880-09-20",
        "left_port": "hamburg, germany",
        "cause_of_leaving": "discharged",
        "sign_with_mark": "n",
        "notes": "blk"
    },
    {
        "id": "vtls004612573_1_12",
        "type": "sailor",
        "parent": "vtls004612573",
        "name": "henry owens",
        "dob": "blk",
        "age": "46",
        "place_of_birth": "pwllheli",
        "home_address": "blk",
        "f": "blk",
        "name_of_ship": "anne davies",
        "ship_port": "aberystwyth",
        "date_leaving": "1880",
        "joined_ship_date": "1880-08-11",
        "joined_at_port": "porthmeirion",
        "capacity": "mate",
        "date_left": "1880-09-20",
        "left_port": "hamburg, germany",
        "cause_of_leaving": "discharged",
        "sign_with_mark": "n",
        "notes": "blk"
    },
    {
        "id": "vtls004612573_0_19",
        "type": "sailor",
        "parent": "vtls004612573",
        "name": "daniel $",
        "dob": "blk",
        "age": "29",
        "place_of_birth": "dartmouth",
        "home_address": "blk",
        "f": "blk",
        "name_of_ship": "llandulas",
        "ship_port": "liverpool",
        "date_leaving": "1880",
        "joined_ship_date": "1880-05-04",
        "joined_at_port": "cardiff",
        "capacity": "able seaman",
        "date_left": "1889-07-01",
        "left_port": "caernafon",
        "cause_of_leaving": "paid off",
        "sign_with_mark": "n",
        "notes": "blk"
    },
    {
        "id": "vtls004612573_1_11",
        "type": "sailor",
        "parent": "vtls004612573",
        "name": "henry parry",
        "dob": "blk",
        "age": "41",
        "place_of_birth": "nevin",
        "home_address": "blk",
        "f": "blk",
        "name_of_ship": "anne davies",
        "ship_port": "aberystwyth",
        "date_leaving": "1880",
        "joined_ship_date": "1880-08-11",
        "joined_at_port": "porthmeirion",
        "capacity": "master",
        "date_left": "blk",
        "left_port": "blk",
        "cause_of_leaving": "remains on board",
        "sign_with_mark": "n",
        "notes": "blk"
    },
    {
        "id": "vtls004612573_2_12",
        "type": "sailor",
        "parent": "vtls004612573",
        "name": "henry owens",
        "dob": "1834",
        "age": "blk",
        "place_of_birth": "pwllheli",
        "home_address": "blk",
        "f": "blk",
        "name_of_ship": "anne davies",
        "ship_port": "aberystwyth",
        "date_leaving": "1880",
        "joined_ship_date": "1880-10-16",
        "joined_at_port": "london",
        "capacity": "mate",
        "date_left": "1880-10-16",
        "left_port": "london",
        "cause_of_leaving": "paid off",
        "sign_with_mark": "n",
        "notes": "blk"
    },
    {
        "id": "vtls004612573_2_11",
        "type": "sailor",
        "parent": "vtls004612573",
        "name": "henry pary",
        "dob": "1839",
        "age": "blk",
        "place_of_birth": "nevin",
        "home_address": "blk",
        "f": "blk",
        "name_of_ship": "anne davies",
        "ship_port": "aberystwyth",
        "date_leaving": "1880",
        "joined_ship_date": "1880-10-16",
        "joined_at_port": "london",
        "capacity": "master",
        "date_left": "blk",
        "left_port": "blk",
        "cause_of_leaving": "remains on board",
        "sign_with_mark": "n",
        "notes": "blk"
    },
    {
        "id": "vtls004612573_3_13",
        "type": "sailor",
        "parent": "vtls004612573",
        "name": "griffith roberts",
        "dob": "blk",
        "age": "27",
        "place_of_birth": "caernarfon",
        "home_address": "blk",
        "f": "blk",
        "name_of_ship": "anne davies",
        "ship_port": "aberystwyth",
        "date_leaving": "1880",
        "joined_ship_date": "1880-09-18",
        "joined_at_port": "hamburg",
        "capacity": "able seaman",
        "date_left": "1880-10-11",
        "left_port": "london",
        "cause_of_leaving": "paid off",
        "sign_with_mark": "n",
        "notes": "blk"
    },
    {
        "id": "vtls004612573_2_14",
        "type": "sailor",
        "parent": "vtls004612573",
        "name": "robert williams",
        "dob": "1853",
        "age": "blk",
        "place_of_birth": "menai bridge",
        "home_address": "blk",
        "f": "blk",
        "name_of_ship": "anne davies",
        "ship_port": "aberystwyth",
        "date_leaving": "1880",
        "joined_ship_date": "1880-10-16",
        "joined_at_port": "london",
        "capacity": "able seaman",
        "date_left": "1880-10-16",
        "left_port": "london",
        "cause_of_leaving": "paid off",
        "sign_with_mark": "n",
        "notes": "blk"
    },
    {
        "id": "vtls004612573_3_14",
        "type": "sailor",
        "parent": "vtls004612573",
        "name": "robert williams",
        "dob": "blk",
        "age": "52",
        "place_of_birth": "caernarfon",
        "home_address": "blk",
        "f": "blk",
        "name_of_ship": "anne davies",
        "ship_port": "aberystwyth",
        "date_leaving": "1880",
        "joined_ship_date": "1880-09-18",
        "joined_at_port": "hamburg",
        "capacity": "able seaman",
        "date_left": "1880-10-11",
        "left_port": "london",
        "cause_of_leaving": "paid off",
        "sign_with_mark": "n",
        "notes": "blk"
    },
    {
        "id": "vtls004612573_2_13",
        "type": "sailor",
        "parent": "vtls004612573",
        "name": "griffith roberts",
        "dob": "1828",
        "age": "blk",
        "place_of_birth": "caernarfon",
        "home_address": "blk",
        "f": "blk",
        "name_of_ship": "anne davies",
        "ship_port": "aberystwyth",
        "date_leaving": "1880",
        "joined_ship_date": "1880-10-16",
        "joined_at_port": "london",
        "capacity": "able seaman",
        "date_left": "1880-10-16",
        "left_port": "london",
        "cause_of_leaving": "paid off",
        "sign_with_mark": "y",
        "notes": "blk"
    },
    {
        "id": "vtls004612573_2_15",
        "type": "sailor",
        "parent": "vtls004612573",
        "name": "william roberts",
        "dob": "1862",
        "age": "blk",
        "place_of_birth": "menai bridge",
        "home_address": "blk",
        "f": "blk",
        "name_of_ship": "anne davies",
        "ship_port": "aberystwyth",
        "date_leaving": "1880",
        "joined_ship_date": "1880-10-16",
        "joined_at_port": "london",
        "capacity": "cook",
        "date_left": "1880-10-16",
        "left_port": "london",
        "cause_of_leaving": "paid off",
        "sign_with_mark": "n",
        "notes": "blk"
    },
    {
        "id": "vtls004612573_3_15",
        "type": "sailor",
        "parent": "vtls004612573",
        "name": "william roberts",
        "dob": "blk",
        "age": "28",
        "place_of_birth": "caernarfon",
        "home_address": "blk",
        "f": "blk",
        "name_of_ship": "anne davies",
        "ship_port": "aberystwyth",
        "date_leaving": "1880",
        "joined_ship_date": "1880-09-18",
        "joined_at_port": "hamburg",
        "capacity": "cook",
        "date_left": "1880-10-11",
        "left_port": "london",
        "cause_of_leaving": "paid off",
        "sign_with_mark": "n",
        "notes": "blk"
    },
    {
        "id": "vtls004612573_3_12",
        "type": "sailor",
        "parent": "vtls004612573",
        "name": "henry owens",
        "dob": "blk",
        "age": "46",
        "place_of_birth": "caernarfon",
        "home_address": "blk",
        "f": "blk",
        "name_of_ship": "anne davies",
        "ship_port": "aberystwyth",
        "date_leaving": "1880",
        "joined_ship_date": "1880-09-18",
        "joined_at_port": "hamburg",
        "capacity": "mate",
        "date_left": "1880-10-11",
        "left_port": "london",
        "cause_of_leaving": "paid off",
        "sign_with_mark": "n",
        "notes": "blk"
    },
    {
        "id": "vtls004612578_0_11",
        "type": "sailor",
        "parent": "vtls004612578",
        "name": "henry parry",
        "dob": "1839",
        "age": "blk",
        "place_of_birth": "nevin",
        "home_address": "blk",
        "f": "blk",
        "name_of_ship": "anne davies",
        "ship_port": "blk",
        "date_leaving": "blk",
        "joined_ship_date": "blk",
        "joined_at_port": "blk",
        "capacity": "master",
        "date_left": "1885-07-08",
        "left_port": "grimsby",
        "cause_of_leaving": "remains on board",
        "sign_with_mark": "n",
        "notes": "blk"
    },
    {
        "id": "vtls004612573_3_11",
        "type": "sailor",
        "parent": "vtls004612573",
        "name": "henry pary",
        "dob": "blk",
        "age": "41",
        "place_of_birth": "nevin",
        "home_address": "blk",
        "f": "blk",
        "name_of_ship": "anne davies",
        "ship_port": "aberystwyth",
        "date_leaving": "blk",
        "joined_ship_date": "blk",
        "joined_at_port": "blk",
        "capacity": "master",
        "date_left": "blk",
        "left_port": "blk",
        "cause_of_leaving": "remains on board",
        "sign_with_mark": "n",
        "notes": "blk"
    },
    {
        "id": "vtls004612578_0_19",
        "type": "sailor",
        "parent": "vtls004612578",
        "name": "thomas g williams",
        "dob": "1867",
        "age": "blk",
        "place_of_birth": "caernarfon",
        "home_address": "blk",
        "f": "blk",
        "name_of_ship": "lewis",
        "ship_port": "caernarvon",
        "date_leaving": "1885",
        "joined_ship_date": "1885-06-11",
        "joined_at_port": "caernarvon",
        "capacity": "able seaman",
        "date_left": "1885-09-08",
        "left_port": "grimsby",
        "cause_of_leaving": "remains on board",
        "sign_with_mark": "n",
        "notes": "blk"
    },
    {
        "id": "vtls004612578_0_18",
        "type": "sailor",
        "parent": "vtls004612578",
        "name": "thomas pritcharde",
        "dob": "1862",
        "age": "blk",
        "place_of_birth": "caernarfon",
        "home_address": "blk",
        "f": "blk",
        "name_of_ship": "$",
        "ship_port": "caernarvon",
        "date_leaving": "1885",
        "joined_ship_date": "1885-06-11",
        "joined_at_port": "caernarvon",
        "capacity": "able seaman",
        "date_left": "1885-09-08",
        "left_port": "grimsby",
        "cause_of_leaving": "remains on board",
        "sign_with_mark": "n",
        "notes": "blk"
    },
    {
        "id": "vtls004612578_0_14",
        "type": "sailor",
        "parent": "vtls004612578",
        "name": "owen williams",
        "dob": "1860",
        "age": "blk",
        "place_of_birth": "caernarfon",
        "home_address": "blk",
        "f": "blk",
        "name_of_ship": "progress",
        "ship_port": "aberystwyth",
        "date_leaving": "1885",
        "joined_ship_date": "1885-02-18",
        "joined_at_port": "caernarvon",
        "capacity": "able seaman",
        "date_left": "1885-04-14",
        "left_port": "caernarfon",
        "cause_of_leaving": "paid off",
        "sign_with_mark": "n",
        "notes": "blk"
    },
    {
        "id": "vtls004612578_0_17",
        "type": "sailor",
        "parent": "vtls004612578",
        "name": "g griffiths",
        "dob": "1833",
        "age": "blk",
        "place_of_birth": "caernarfon",
        "home_address": "blk",
        "f": "blk",
        "name_of_ship": "napolean",
        "ship_port": "caernarvon",
        "date_leaving": "1885",
        "joined_ship_date": "1885-06-11",
        "joined_at_port": "caernarvon",
        "capacity": "mate",
        "date_left": "1885-09-08",
        "left_port": "grimsby",
        "cause_of_leaving": "remains on board",
        "sign_with_mark": "n",
        "notes": "blk"
    },
    {
        "id": "vtls004612578_0_16",
        "type": "sailor",
        "parent": "vtls004612578",
        "name": "john patterson",
        "dob": "1865",
        "age": "blk",
        "place_of_birth": "london",
        "home_address": "blk",
        "f": "blk",
        "name_of_ship": "mayflower",
        "ship_port": "grimsby",
        "date_leaving": "1885",
        "joined_ship_date": "1885-04-13",
        "joined_at_port": "caernarvon",
        "capacity": "able seaman",
        "date_left": "1885-04-14",
        "left_port": "london",
        "cause_of_leaving": "paid off",
        "sign_with_mark": "n",
        "notes": "blk"
    },
    {
        "id": "vtls004612578_0_13",
        "type": "sailor",
        "parent": "vtls004612578",
        "name": "hugh jones",
        "dob": "1857",
        "age": "blk",
        "place_of_birth": "caernarfon",
        "home_address": "blk",
        "f": "blk",
        "name_of_ship": "virgin",
        "ship_port": "caernarvon",
        "date_leaving": "1885",
        "joined_ship_date": "1885-02-10",
        "joined_at_port": "caernarvon",
        "capacity": "able seaman",
        "date_left": "1885-04-11",
        "left_port": "london",
        "cause_of_leaving": "paid off",
        "sign_with_mark": "n",
        "notes": "blk"
    },
    {
        "id": "vtls004612578_0_12",
        "type": "sailor",
        "parent": "vtls004612578",
        "name": "hugh jones",
        "dob": "1859",
        "age": "blk",
        "place_of_birth": "caernarfon",
        "home_address": "blk",
        "f": "blk",
        "name_of_ship": "peggy",
        "ship_port": "caernarvon",
        "date_leaving": "1885",
        "joined_ship_date": "1885-02-09",
        "joined_at_port": "caernarvon",
        "capacity": "mate",
        "date_left": "1885-05-14",
        "left_port": "caernarfon",
        "cause_of_leaving": "paid off",
        "sign_with_mark": "n",
        "notes": "blk"
    },
    {
        "id": "vtls004612578_0_15",
        "type": "sailor",
        "parent": "vtls004612578",
        "name": "henry jones",
        "dob": "1868",
        "age": "blk",
        "place_of_birth": "nevin",
        "home_address": "blk",
        "f": "blk",
        "name_of_ship": "mable",
        "ship_port": "caernarvon",
        "date_leaving": "1885",
        "joined_ship_date": "1886-02-16",
        "joined_at_port": "caernarvon",
        "capacity": "cook",
        "date_left": "1885-04-14",
        "left_port": "caernarfon",
        "cause_of_leaving": "paid off",
        "sign_with_mark": "n",
        "notes": "blk"
    },
    {
        "id": "vtls004612578_1_18",
        "type": "sailor",
        "parent": "vtls004612578",
        "name": "thomas g williams",
        "dob": "1867",
        "age": "blk",
        "place_of_birth": "bethel",
        "home_address": "blk",
        "f": "blk",
        "name_of_ship": "anne davies",
        "ship_port": "blk",
        "date_leaving": "1885",
        "joined_ship_date": "1885-09-14",
        "joined_at_port": "caernarvon",
        "capacity": "able seaman",
        "date_left": "1885-12-28",
        "left_port": "caernarfon",
        "cause_of_leaving": "discharged",
        "sign_with_mark": "n",
        "notes": "blk"
    },
    {
        "id": "vtls004612578_1_13",
        "type": "sailor",
        "parent": "vtls004612578",
        "name": "thomas pritchard",
        "dob": "1863",
        "age": "blk",
        "place_of_birth": "caernarfon",
        "home_address": "blk",
        "f": "blk",
        "name_of_ship": "anne davies",
        "ship_port": "blk",
        "date_leaving": "1885",
        "joined_ship_date": "1885-07-16",
        "joined_at_port": "grimsby",
        "capacity": "able seaman",
        "date_left": "1885-08-09",
        "left_port": "caernarfon",
        "cause_of_leaving": "discharged",
        "sign_with_mark": "n",
        "notes": "blk"
    },
    {
        "id": "vtls004612578_1_14",
        "type": "sailor",
        "parent": "vtls004612578",
        "name": "thomas g williams",
        "dob": "1867",
        "age": "blk",
        "place_of_birth": "bethel",
        "home_address": "blk",
        "f": "blk",
        "name_of_ship": "anne davies",
        "ship_port": "blk",
        "date_leaving": "1885",
        "joined_ship_date": "1885-07-16",
        "joined_at_port": "grimsby",
        "capacity": "able seaman",
        "date_left": "1885-08-09",
        "left_port": "caernarfon",
        "cause_of_leaving": "discharged",
        "sign_with_mark": "n",
        "notes": "blk"
    },
    {
        "id": "vtls004612578_1_17",
        "type": "sailor",
        "parent": "vtls004612578",
        "name": "john evans",
        "dob": "1831",
        "age": "blk",
        "place_of_birth": "caernarfon",
        "home_address": "blk",
        "f": "blk",
        "name_of_ship": "anne davies",
        "ship_port": "blk",
        "date_leaving": "1885",
        "joined_ship_date": "1885-09-28",
        "joined_at_port": "caernarvon",
        "capacity": "able seaman",
        "date_left": "1885-12-28",
        "left_port": "caernarfon",
        "cause_of_leaving": "discharged",
        "sign_with_mark": "n",
        "notes": "blk"
    },
    {
        "id": "vtls004612578_1_16",
        "type": "sailor",
        "parent": "vtls004612578",
        "name": "griffith griffith",
        "dob": "1833",
        "age": "blk",
        "place_of_birth": "caernarfon",
        "home_address": "blk",
        "f": "blk",
        "name_of_ship": "anne davies",
        "ship_port": "blk",
        "date_leaving": "1885",
        "joined_ship_date": "1885-09-14",
        "joined_at_port": "caernarvon",
        "capacity": "mate",
        "date_left": "1885-12-28",
        "left_port": "caernarfon",
        "cause_of_leaving": "discharged",
        "sign_with_mark": "n",
        "notes": "blk"
    },
    {
        "id": "vtls004612578_1_19",
        "type": "sailor",
        "parent": "vtls004612578",
        "name": "richard e parry",
        "dob": "1868",
        "age": "blk",
        "place_of_birth": "totnes",
        "home_address": "blk",
        "f": "blk",
        "name_of_ship": "anne davies",
        "ship_port": "blk",
        "date_leaving": "1885",
        "joined_ship_date": "18885-09-08",
        "joined_at_port": "caernarvon",
        "capacity": "boy",
        "date_left": "1885-12-28",
        "left_port": "caernarfon",
        "cause_of_leaving": "discharged",
        "sign_with_mark": "n",
        "notes": "blk"
    },
    {
        "id": "vtls004612578_1_12",
        "type": "sailor",
        "parent": "vtls004612578",
        "name": "griffith griffith",
        "dob": "1833",
        "age": "blk",
        "place_of_birth": "caernarfon",
        "home_address": "blk",
        "f": "blk",
        "name_of_ship": "anne davies",
        "ship_port": "blk",
        "date_leaving": "1885",
        "joined_ship_date": "1885-07-16",
        "joined_at_port": "grimsby",
        "capacity": "mate",
        "date_left": "1885-08-09",
        "left_port": "caernarfon",
        "cause_of_leaving": "discharged",
        "sign_with_mark": "n",
        "notes": "blk"
    },
    {
        "id": "vtls004612578_0_20",
        "type": "sailor",
        "parent": "vtls004612578",
        "name": "henry jones",
        "dob": "1868",
        "age": "blk",
        "place_of_birth": "nevin",
        "home_address": "blk",
        "f": "blk",
        "name_of_ship": "anne davies",
        "ship_port": "blk",
        "date_leaving": "1885",
        "joined_ship_date": "1885-06-11",
        "joined_at_port": "caernarvon",
        "capacity": "cook",
        "date_left": "1885-09-08",
        "left_port": "grimsby",
        "cause_of_leaving": "remains on board",
        "sign_with_mark": "n",
        "notes": "blk"
    },
    {
        "id": "vtls004612578_1_15",
        "type": "sailor",
        "parent": "vtls004612578",
        "name": "henry jones",
        "dob": "1869",
        "age": "blk",
        "place_of_birth": "nevin",
        "home_address": "blk",
        "f": "blk",
        "name_of_ship": "anne davies",
        "ship_port": "blk",
        "date_leaving": "1885",
        "joined_ship_date": "1885-07-16",
        "joined_at_port": "grimsby",
        "capacity": "boy",
        "date_left": "1885-08-09",
        "left_port": "caernarfon",
        "cause_of_leaving": "discharged",
        "sign_with_mark": "n",
        "notes": "blk"
    },
    {
        "id": "vtls004612578_1_11",
        "type": "sailor",
        "parent": "vtls004612578",
        "name": "henry parry",
        "dob": "1840",
        "age": "blk",
        "place_of_birth": "nevin",
        "home_address": "blk",
        "f": "blk",
        "name_of_ship": "anne davies",
        "ship_port": "blk",
        "date_leaving": "1885",
        "joined_ship_date": "1885-07-16",
        "joined_at_port": "grimsby",
        "capacity": "master",
        "date_left": "blk",
        "left_port": "blk",
        "cause_of_leaving": "remains on board",
        "sign_with_mark": "n",
        "notes": "blk"
    }
]