[
    {
        "id": "vtls004653464_0_11",
        "type": "sailor",
        "parent": "vtls004653464",
        "name": "john francis",
        "dob": "blk",
        "age": "blk",
        "place_of_birth": "blk",
        "home_address": "aberystwyth",
        "f": "aberystwyth",
        "name_of_ship": "eleanor francis",
        "ship_port": "aberystwyth",
        "date_leaving": "continued from last port",
        "joined_ship_date": "blk",
        "joined_at_port": "blk",
        "capacity": "master",
        "date_left": "still on board",
        "left_port": "still on board",
        "cause_of_leaving": "remains on board",
        "sign_with_mark": "n",
        "notes": "note 1 - cet no 14646"
    },
    {
        "id": "vtls004653464_0_12",
        "type": "sailor",
        "parent": "vtls004653464",
        "name": "william lewis",
        "dob": "blk",
        "age": "35",
        "place_of_birth": "cardigan",
        "home_address": "blk",
        "f": "blk",
        "name_of_ship": "eleanor francis",
        "ship_port": "aberystwyth",
        "date_leaving": "continued ",
        "joined_ship_date": "1863-04-14",
        "joined_at_port": "cardiff",
        "capacity": "mate",
        "date_left": "1863-08-04",
        "left_port": "leith",
        "cause_of_leaving": "discharged",
        "sign_with_mark": "n",
        "notes": "note 1  -cert no. = 63414"
    },
    {
        "id": "vtls004653464_0_14",
        "type": "sailor",
        "parent": "vtls004653464",
        "name": "abraham davis",
        "dob": "blk",
        "age": "20",
        "place_of_birth": "borth",
        "home_address": "blk",
        "f": "blk",
        "name_of_ship": "eleanor francis",
        "ship_port": "aberystwyth",
        "date_leaving": "continued",
        "joined_ship_date": "1863-04-13",
        "joined_at_port": "cardiff",
        "capacity": "able seaman",
        "date_left": "1863-08-04",
        "left_port": "leith",
        "cause_of_leaving": "discharged",
        "sign_with_mark": "n",
        "notes": "blk"
    },
    {
        "id": "vtls004653464_0_13",
        "type": "sailor",
        "parent": "vtls004653464",
        "name": "william bowen",
        "dob": "blk",
        "age": "29",
        "place_of_birth": "pembroke",
        "home_address": "blk",
        "f": "blk",
        "name_of_ship": "monarch",
        "ship_port": "bristol",
        "date_leaving": "1863",
        "joined_ship_date": "1863-04-13",
        "joined_at_port": "cardiff",
        "capacity": "able seaman",
        "date_left": "1863-08-04",
        "left_port": "leith",
        "cause_of_leaving": "discharged",
        "sign_with_mark": "n",
        "notes": "blk"
    },
    {
        "id": "vtls004653464_0_15",
        "type": "sailor",
        "parent": "vtls004653464",
        "name": "david isaac",
        "dob": "blk",
        "age": "20",
        "place_of_birth": "newport",
        "home_address": "blk",
        "f": "blk",
        "name_of_ship": "fanny",
        "ship_port": "llanelly",
        "date_leaving": "1863",
        "joined_ship_date": "1863-04-13",
        "joined_at_port": "cardiff",
        "capacity": "able seaman",
        "date_left": "1863-08-04",
        "left_port": "leith",
        "cause_of_leaving": "discharged",
        "sign_with_mark": "n",
        "notes": "blk"
    },
    {
        "id": "vtls004653464_1_14",
        "type": "sailor",
        "parent": "vtls004653464",
        "name": "abraham davies",
        "dob": "blk",
        "age": "20",
        "place_of_birth": "borth, cardigan",
        "home_address": "blk",
        "f": "blk",
        "name_of_ship": "eleanor francis",
        "ship_port": "aberystwyth",
        "date_leaving": "blk",
        "joined_ship_date": "blk",
        "joined_at_port": "blk",
        "capacity": "seaman",
        "date_left": "blk",
        "left_port": "blk",
        "cause_of_leaving": "remains on board",
        "sign_with_mark": "n",
        "notes": "note 1 - variation in spelling of surname from previous crew list"
    },
    {
        "id": "vtls004653464_1_11",
        "type": "sailor",
        "parent": "vtls004653464",
        "name": "john francis",
        "dob": "blk",
        "age": "33",
        "place_of_birth": "borth, cardigan",
        "home_address": "borth, aberystwith",
        "f": "borth, aberystwith",
        "name_of_ship": "eleanor francis",
        "ship_port": "aberystwyth",
        "date_leaving": "blk",
        "joined_ship_date": "blk",
        "joined_at_port": "blk",
        "capacity": "master",
        "date_left": "blk",
        "left_port": "blk",
        "cause_of_leaving": "remains on board",
        "sign_with_mark": "n",
        "notes": "note 1 - cet no 14646"
    },
    {
        "id": "vtls004653464_1_13",
        "type": "sailor",
        "parent": "vtls004653464",
        "name": "william bowen",
        "dob": "blk",
        "age": "27",
        "place_of_birth": "solva, pembrokeshire",
        "home_address": "blk",
        "f": "blk",
        "name_of_ship": "eleanor francis",
        "ship_port": "aberystwyth",
        "date_leaving": "blk",
        "joined_ship_date": "blk",
        "joined_at_port": "blk",
        "capacity": "seaman",
        "date_left": "1863-09-30",
        "left_port": "runcorn",
        "cause_of_leaving": "discharged",
        "sign_with_mark": "n",
        "notes": "blk"
    },
    {
        "id": "vtls004653464_1_15",
        "type": "sailor",
        "parent": "vtls004653464",
        "name": "david isaac",
        "dob": "blk",
        "age": "31",
        "place_of_birth": "newport, mons.",
        "home_address": "blk",
        "f": "blk",
        "name_of_ship": "eleanor francis",
        "ship_port": "aberystwyth",
        "date_leaving": "blk",
        "joined_ship_date": "blk",
        "joined_at_port": "blk",
        "capacity": "seaman",
        "date_left": "1863-09-30",
        "left_port": "runcorn",
        "cause_of_leaving": "discharged",
        "sign_with_mark": "n",
        "notes": "blk"
    },
    {
        "id": "vtls004653464_0_16",
        "type": "sailor",
        "parent": "vtls004653464",
        "name": "thomas edwards",
        "dob": "blk",
        "age": "19",
        "place_of_birth": "borth",
        "home_address": "blk",
        "f": "blk",
        "name_of_ship": "fanny",
        "ship_port": "llanelly",
        "date_leaving": "1863",
        "joined_ship_date": "1863-04-13",
        "joined_at_port": "cardiff",
        "capacity": "ordinary seaman",
        "date_left": "1863-08-04",
        "left_port": "leith",
        "cause_of_leaving": "discharged",
        "sign_with_mark": "n",
        "notes": "blk"
    },
    {
        "id": "vtls004653464_1_12",
        "type": "sailor",
        "parent": "vtls004653464",
        "name": "richard davies",
        "dob": "blk",
        "age": "26",
        "place_of_birth": "borth, cardigan",
        "home_address": "blk",
        "f": "blk",
        "name_of_ship": "eleanor francis",
        "ship_port": "aberystwyth",
        "date_leaving": "blk",
        "joined_ship_date": "blk",
        "joined_at_port": "blk",
        "capacity": "mate",
        "date_left": "blk",
        "left_port": "blk",
        "cause_of_leaving": "remains on board",
        "sign_with_mark": "n",
        "notes": "blk"
    },
    {
        "id": "vtls004653464_1_16",
        "type": "sailor",
        "parent": "vtls004653464",
        "name": "thomas edwards",
        "dob": "blk",
        "age": "17",
        "place_of_birth": "borth, cardigan",
        "home_address": "blk",
        "f": "blk",
        "name_of_ship": "eleanor francis",
        "ship_port": "aberystwyth",
        "date_leaving": "blk",
        "joined_ship_date": "blk",
        "joined_at_port": "blk",
        "capacity": "ordinary steward",
        "date_left": "blk",
        "left_port": "blk",
        "cause_of_leaving": "remains on board",
        "sign_with_mark": "n",
        "notes": "blk"
    },
    {
        "id": "vtls004653464_1_17",
        "type": "sailor",
        "parent": "vtls004653464",
        "name": "william jones",
        "dob": "blk",
        "age": "15",
        "place_of_birth": "borth, cardigan",
        "home_address": "blk",
        "f": "blk",
        "name_of_ship": "eleanor francis",
        "ship_port": "aberystwyth",
        "date_leaving": "blk",
        "joined_ship_date": "blk",
        "joined_at_port": "blk",
        "capacity": "boy",
        "date_left": "blk",
        "left_port": "blk",
        "cause_of_leaving": "remains on board",
        "sign_with_mark": "n",
        "notes": "blk"
    },
    {
        "id": "vtls004653464_0_17",
        "type": "sailor",
        "parent": "vtls004653464",
        "name": "william jones",
        "dob": "blk",
        "age": "15",
        "place_of_birth": "borth",
        "home_address": "blk",
        "f": "blk",
        "name_of_ship": "fanny",
        "ship_port": "llanelly",
        "date_leaving": "1863",
        "joined_ship_date": "1863-04-13",
        "joined_at_port": "cardiff",
        "capacity": "boy",
        "date_left": "1863-08-04",
        "left_port": "leith",
        "cause_of_leaving": "discharged",
        "sign_with_mark": "n",
        "notes": "blk"
    },
    {
        "id": "vtls004653470_0_14",
        "type": "sailor",
        "parent": "vtls004653470",
        "name": "benjamin davies",
        "dob": "blk",
        "age": "20",
        "place_of_birth": "cardigan",
        "home_address": "blk",
        "f": "blk",
        "name_of_ship": "eleanor francis",
        "ship_port": "aberystwyth",
        "date_leaving": "remains",
        "joined_ship_date": "1864-04-25",
        "joined_at_port": "cardiff",
        "capacity": "able seaman",
        "date_left": "1864-08-31",
        "left_port": "liverpool",
        "cause_of_leaving": "discharged",
        "sign_with_mark": "n",
        "notes": "note 1 - not on previous crew list"
    },
    {
        "id": "vtls004653470_0_13",
        "type": "sailor",
        "parent": "vtls004653470",
        "name": "william evans",
        "dob": "blk",
        "age": "27",
        "place_of_birth": "trevine",
        "home_address": "blk",
        "f": "blk",
        "name_of_ship": "eleanor francis",
        "ship_port": "aberystwyth",
        "date_leaving": "remains",
        "joined_ship_date": "1864-04-25",
        "joined_at_port": "cardiff",
        "capacity": "able seaman",
        "date_left": "1864-08-31",
        "left_port": "liverpool",
        "cause_of_leaving": "discharged",
        "sign_with_mark": "n",
        "notes": "note 1 - not on previous crew list"
    },
    {
        "id": "vtls004653470_0_15",
        "type": "sailor",
        "parent": "vtls004653470",
        "name": "thomas edwards",
        "dob": "blk",
        "age": "19",
        "place_of_birth": "borth",
        "home_address": "blk",
        "f": "blk",
        "name_of_ship": "eleanor francis",
        "ship_port": "aberystwyth",
        "date_leaving": "remains",
        "joined_ship_date": "1864-04-25",
        "joined_at_port": "cardiff",
        "capacity": "ordinary seaman",
        "date_left": "1864-08-31",
        "left_port": "liverpool",
        "cause_of_leaving": "discharged",
        "sign_with_mark": "n",
        "notes": "blk"
    },
    {
        "id": "vtls004653470_0_16",
        "type": "sailor",
        "parent": "vtls004653470",
        "name": "william jones",
        "dob": "blk",
        "age": "16",
        "place_of_birth": "borth",
        "home_address": "blk",
        "f": "blk",
        "name_of_ship": "eleanor francis",
        "ship_port": "aberystwyth",
        "date_leaving": "remains",
        "joined_ship_date": "1864-04-25",
        "joined_at_port": "cardiff",
        "capacity": "ordinary seaman",
        "date_left": "1864-08-31",
        "left_port": "liverpool",
        "cause_of_leaving": "discharged",
        "sign_with_mark": "n",
        "notes": "blk"
    },
    {
        "id": "vtls004653470_0_11",
        "type": "sailor",
        "parent": "vtls004653470",
        "name": "john francis",
        "dob": "blk",
        "age": "34",
        "place_of_birth": "borth",
        "home_address": "borth",
        "f": "borth",
        "name_of_ship": "eleanor francis",
        "ship_port": "aberystwyth",
        "date_leaving": "remains",
        "joined_ship_date": "blk",
        "joined_at_port": "blk",
        "capacity": "master",
        "date_left": "1864-08-31",
        "left_port": "liverpool",
        "cause_of_leaving": "discharged",
        "sign_with_mark": "n",
        "notes": "note 1 - cet no 14646"
    },
    {
        "id": "vtls004653470_1_12",
        "type": "sailor",
        "parent": "vtls004653470",
        "name": "william evans",
        "dob": "blk",
        "age": "28",
        "place_of_birth": "aberystwyth",
        "home_address": "blk",
        "f": "blk",
        "name_of_ship": "eleanor francis",
        "ship_port": "aberystwyth",
        "date_leaving": "remained",
        "joined_ship_date": "1864-09-24",
        "joined_at_port": "whitehaven",
        "capacity": "mate",
        "date_left": "blk",
        "left_port": "blk",
        "cause_of_leaving": "remains on board",
        "sign_with_mark": "n",
        "notes": "blk"
    },
    {
        "id": "vtls004653470_0_12",
        "type": "sailor",
        "parent": "vtls004653470",
        "name": "wm thomas",
        "dob": "blk",
        "age": "22",
        "place_of_birth": "fishguard",
        "home_address": "blk",
        "f": "blk",
        "name_of_ship": "chester",
        "ship_port": "london",
        "date_leaving": "1863",
        "joined_ship_date": "1864-04-21",
        "joined_at_port": "cardiff",
        "capacity": "mate",
        "date_left": "1864-08-31",
        "left_port": "liverpool",
        "cause_of_leaving": "discharged",
        "sign_with_mark": "n",
        "notes": "note 1 - cet no 30459"
    },
    {
        "id": "vtls004653470_1_11",
        "type": "sailor",
        "parent": "vtls004653470",
        "name": "john francis",
        "dob": "blk",
        "age": "34",
        "place_of_birth": "borth",
        "home_address": "blk",
        "f": "blk",
        "name_of_ship": "eleanor francis",
        "ship_port": "aberystwyth",
        "date_leaving": "remained",
        "joined_ship_date": "1860-04-19",
        "joined_at_port": "aberystwyth",
        "capacity": "master",
        "date_left": "blk",
        "left_port": "blk",
        "cause_of_leaving": "remains on board",
        "sign_with_mark": "n",
        "notes": "blk"
    },
    {
        "id": "vtls004653470_1_13",
        "type": "sailor",
        "parent": "vtls004653470",
        "name": "william parry",
        "dob": "blk",
        "age": "27",
        "place_of_birth": "aberystwyth",
        "home_address": "blk",
        "f": "blk",
        "name_of_ship": "eleanor francis",
        "ship_port": "aberystwyth",
        "date_leaving": "remained",
        "joined_ship_date": "1864-09-24",
        "joined_at_port": "whitehaven",
        "capacity": "seaman",
        "date_left": "blk",
        "left_port": "blk",
        "cause_of_leaving": "remains on board",
        "sign_with_mark": "n",
        "notes": "note 1 - not on previous crew list."
    },
    {
        "id": "vtls004653476_1_11",
        "type": "sailor",
        "parent": "vtls004653476",
        "name": "john francis",
        "dob": "blk",
        "age": "38",
        "place_of_birth": "borth",
        "home_address": "borth, cardigan",
        "f": "borth, cardigan",
        "name_of_ship": "eleanor francis",
        "ship_port": "aberystwyth",
        "date_leaving": "continued",
        "joined_ship_date": "continued",
        "joined_at_port": "continued",
        "capacity": "master",
        "date_left": "1867-12-31",
        "left_port": "dieppe",
        "cause_of_leaving": "remains on board",
        "sign_with_mark": "n",
        "notes": "cert no. = c14646"
    },
    {
        "id": "vtls004653476_0_16",
        "type": "sailor",
        "parent": "vtls004653476",
        "name": "william roberts",
        "dob": "blk",
        "age": "22",
        "place_of_birth": "conway",
        "home_address": "blk",
        "f": "blk",
        "name_of_ship": "squando",
        "ship_port": "blk",
        "date_leaving": "1867",
        "joined_ship_date": "1867-05-08",
        "joined_at_port": "runcorn",
        "capacity": "able seaman",
        "date_left": "1867-05-01",
        "left_port": "runcorn",
        "cause_of_leaving": "paid off",
        "sign_with_mark": "n",
        "notes": "note 1  - \"squando\" registered with the port of liverpool."
    },
    {
        "id": "vtls004653470_1_15",
        "type": "sailor",
        "parent": "vtls004653470",
        "name": "william jones",
        "dob": "blk",
        "age": "16",
        "place_of_birth": "aberystwyth",
        "home_address": "blk",
        "f": "blk",
        "name_of_ship": "eleanor francis",
        "ship_port": "aberystwyth",
        "date_leaving": "remained",
        "joined_ship_date": "1864-09-24",
        "joined_at_port": "whitehaven",
        "capacity": "ordinary seaman",
        "date_left": "blk",
        "left_port": "blk",
        "cause_of_leaving": "remains on board",
        "sign_with_mark": "n",
        "notes": "blk"
    },
    {
        "id": "vtls004653476_0_11",
        "type": "sailor",
        "parent": "vtls004653476",
        "name": "john francis",
        "dob": "blk",
        "age": "37",
        "place_of_birth": "borth",
        "home_address": "borth, cardigan",
        "f": "borth, cardigan",
        "name_of_ship": "eleanor francis",
        "ship_port": "aberystwyth",
        "date_leaving": "continued",
        "joined_ship_date": "blk",
        "joined_at_port": "blk",
        "capacity": "master",
        "date_left": "remains",
        "left_port": "remains",
        "cause_of_leaving": "remains on board",
        "sign_with_mark": "n",
        "notes": "cert no. 14646"
    },
    {
        "id": "vtls004653470_1_14",
        "type": "sailor",
        "parent": "vtls004653470",
        "name": "thomas edwards",
        "dob": "blk",
        "age": "18",
        "place_of_birth": "aberystwyth",
        "home_address": "blk",
        "f": "blk",
        "name_of_ship": "eleanor francis",
        "ship_port": "aberystwyth",
        "date_leaving": "remained",
        "joined_ship_date": "1864-09-24",
        "joined_at_port": "whitehaven",
        "capacity": "seaman",
        "date_left": "blk",
        "left_port": "blk",
        "cause_of_leaving": "remains on board",
        "sign_with_mark": "n",
        "notes": "blk"
    },
    {
        "id": "vtls004653476_0_12",
        "type": "sailor",
        "parent": "vtls004653476",
        "name": "william edwards",
        "dob": "blk",
        "age": "49",
        "place_of_birth": "borth",
        "home_address": "blk",
        "f": "blk",
        "name_of_ship": "eleanor francis",
        "ship_port": "aberystwyth",
        "date_leaving": "continued",
        "joined_ship_date": "1867-05-08",
        "joined_at_port": "runcorn",
        "capacity": "mate",
        "date_left": "1867-08-01",
        "left_port": "runcorn",
        "cause_of_leaving": "paid off",
        "sign_with_mark": "n",
        "notes": "blk"
    },
    {
        "id": "vtls004653476_0_15",
        "type": "sailor",
        "parent": "vtls004653476",
        "name": "william francis",
        "dob": "blk",
        "age": "12",
        "place_of_birth": "borth",
        "home_address": "blk",
        "f": "blk",
        "name_of_ship": "eleanor francis",
        "ship_port": "aberystwyth",
        "date_leaving": "continued",
        "joined_ship_date": "1867-05-11",
        "joined_at_port": "runcorn",
        "capacity": "boy",
        "date_left": "1867-05-01",
        "left_port": "runcorn",
        "cause_of_leaving": "paid off",
        "sign_with_mark": "n",
        "notes": "blk"
    },
    {
        "id": "vtls004653476_0_13",
        "type": "sailor",
        "parent": "vtls004653476",
        "name": "robert jones",
        "dob": "blk",
        "age": "23",
        "place_of_birth": "nevin",
        "home_address": "blk",
        "f": "blk",
        "name_of_ship": "john hughes",
        "ship_port": "nevin",
        "date_leaving": "1867",
        "joined_ship_date": "1867-05-08",
        "joined_at_port": "runcorn",
        "capacity": "able seaman",
        "date_left": "1867-08-01",
        "left_port": "runcorn",
        "cause_of_leaving": "paid off",
        "sign_with_mark": "n",
        "notes": "blk"
    },
    {
        "id": "vtls004653486_0_12",
        "type": "sailor",
        "parent": "vtls004653486",
        "name": "william edwards",
        "dob": "blk",
        "age": "50",
        "place_of_birth": "borth",
        "home_address": "blk",
        "f": "blk",
        "name_of_ship": "eleanor francis",
        "ship_port": "aberystwyth",
        "date_leaving": "blk",
        "joined_ship_date": "1868-05-28",
        "joined_at_port": "cardiff",
        "capacity": "mate",
        "date_left": "1868-09-07",
        "left_port": "weymouth",
        "cause_of_leaving": "discharged",
        "sign_with_mark": "n",
        "notes": "note 1 - record in ships official log to the effect that william edwards was turned over to the shipping master at weymouth as he was considered to be unfit for the job."
    },
    {
        "id": "vtls004653476_1_14",
        "type": "sailor",
        "parent": "vtls004653476",
        "name": "charles anderson",
        "dob": "blk",
        "age": "21",
        "place_of_birth": "elsinore, denmark",
        "home_address": "blk",
        "f": "blk",
        "name_of_ship": "mary jane",
        "ship_port": "liverpool",
        "date_leaving": "1867",
        "joined_ship_date": "1867-08-24",
        "joined_at_port": "liverpool",
        "capacity": "able seaman",
        "date_left": "1867-12-31",
        "left_port": "dieppe",
        "cause_of_leaving": "remains on board",
        "sign_with_mark": "n",
        "notes": "blk"
    },
    {
        "id": "vtls004653486_0_11",
        "type": "sailor",
        "parent": "vtls004653486",
        "name": "john francis",
        "dob": "blk",
        "age": "38",
        "place_of_birth": "borth",
        "home_address": "borth, cardigan",
        "f": "borth, cardigan",
        "name_of_ship": "eleanor francis",
        "ship_port": "aberystwyth",
        "date_leaving": "remained",
        "joined_ship_date": "blk",
        "joined_at_port": "blk",
        "capacity": "master",
        "date_left": "remains",
        "left_port": "remains",
        "cause_of_leaving": "remains on board",
        "sign_with_mark": "n",
        "notes": "cert no. =14646"
    },
    {
        "id": "vtls004653476_1_13",
        "type": "sailor",
        "parent": "vtls004653476",
        "name": "evan davies",
        "dob": "blk",
        "age": "28",
        "place_of_birth": "aberystwyth",
        "home_address": "blk",
        "f": "blk",
        "name_of_ship": "rachel lewis",
        "ship_port": "aberystwyth",
        "date_leaving": "1867",
        "joined_ship_date": "1867-08-24",
        "joined_at_port": "liverpool",
        "capacity": "able seaman",
        "date_left": "1867-12-31",
        "left_port": "dieppe",
        "cause_of_leaving": "remains on board",
        "sign_with_mark": "n",
        "notes": "blk"
    },
    {
        "id": "vtls004653476_1_12",
        "type": "sailor",
        "parent": "vtls004653476",
        "name": "william edwards",
        "dob": "blk",
        "age": "50",
        "place_of_birth": "borth",
        "home_address": "blk",
        "f": "blk",
        "name_of_ship": "eleanor francis",
        "ship_port": "aberystwyth",
        "date_leaving": "1867",
        "joined_ship_date": "1867-08-20",
        "joined_at_port": "runcorn",
        "capacity": "mate",
        "date_left": "1867-12-31",
        "left_port": "dieppe",
        "cause_of_leaving": "remains on board",
        "sign_with_mark": "n",
        "notes": "blk"
    },
    {
        "id": "vtls004653476_1_15",
        "type": "sailor",
        "parent": "vtls004653476",
        "name": "william williams",
        "dob": "blk",
        "age": "20",
        "place_of_birth": "amlwch",
        "home_address": "blk",
        "f": "blk",
        "name_of_ship": "maria",
        "ship_port": "amlwch",
        "date_leaving": "1867",
        "joined_ship_date": "1867-08-24",
        "joined_at_port": "liverpool",
        "capacity": "ordinary seaman",
        "date_left": "1867-12-31",
        "left_port": "dieppe",
        "cause_of_leaving": "remains on board",
        "sign_with_mark": "n",
        "notes": "blk"
    },
    {
        "id": "vtls004653476_1_16",
        "type": "sailor",
        "parent": "vtls004653476",
        "name": "william mclean",
        "dob": "blk",
        "age": "14",
        "place_of_birth": "glasgow",
        "home_address": "blk",
        "f": "blk",
        "name_of_ship": "onward",
        "ship_port": "liverpool",
        "date_leaving": "1867",
        "joined_ship_date": "1867-08-24",
        "joined_at_port": "liverpool",
        "capacity": "boy",
        "date_left": "1867-12-31",
        "left_port": "dieppe",
        "cause_of_leaving": "remains on board",
        "sign_with_mark": "n",
        "notes": "blk"
    },
    {
        "id": "vtls004653592_0_11",
        "type": "sailor",
        "parent": "vtls004653592",
        "name": "david d davies",
        "dob": "blk",
        "age": "30",
        "place_of_birth": "borth",
        "home_address": "borth near aberystwith",
        "f": "borth near aberystwith",
        "name_of_ship": "christabel",
        "ship_port": "liverpool",
        "date_leaving": "1866",
        "joined_ship_date": "blk",
        "joined_at_port": "south shields",
        "capacity": "master",
        "date_left": "remains",
        "left_port": "remains",
        "cause_of_leaving": "remains on board",
        "sign_with_mark": "n",
        "notes": "cert no.=25426"
    },
    {
        "id": "vtls004653592_0_13",
        "type": "sailor",
        "parent": "vtls004653592",
        "name": "edward richards",
        "dob": "blk",
        "age": "30",
        "place_of_birth": "borth",
        "home_address": "blk",
        "f": "blk",
        "name_of_ship": "eleanor francis",
        "ship_port": "aberystwyth",
        "date_leaving": "1868",
        "joined_ship_date": "1868-10-23",
        "joined_at_port": "south shields",
        "capacity": "able seaman",
        "date_left": "1869-03-01",
        "left_port": "london",
        "cause_of_leaving": "discharged",
        "sign_with_mark": "n",
        "notes": "blk"
    },
    {
        "id": "vtls004653592_0_14",
        "type": "sailor",
        "parent": "vtls004653592",
        "name": "david james",
        "dob": "blk",
        "age": "23",
        "place_of_birth": "aberystwyth",
        "home_address": "blk",
        "f": "blk",
        "name_of_ship": "minnie coles",
        "ship_port": "southampton",
        "date_leaving": "1868",
        "joined_ship_date": "1868-10-23",
        "joined_at_port": "south shields",
        "capacity": "able seaman",
        "date_left": "1869-03-01",
        "left_port": "london",
        "cause_of_leaving": "discharged",
        "sign_with_mark": "n",
        "notes": "blk"
    },
    {
        "id": "vtls004653486_0_14",
        "type": "sailor",
        "parent": "vtls004653486",
        "name": "edward richards",
        "dob": "blk",
        "age": "30",
        "place_of_birth": "borth",
        "home_address": "blk",
        "f": "blk",
        "name_of_ship": "eleanor francis",
        "ship_port": "aberystwyth",
        "date_leaving": "1868",
        "joined_ship_date": "1868-05-27",
        "joined_at_port": "cardiff",
        "capacity": "able seaman",
        "date_left": "1868-10-13",
        "left_port": "wells",
        "cause_of_leaving": "end of voyage",
        "sign_with_mark": "n",
        "notes": "blk"
    },
    {
        "id": "vtls004653592_0_12",
        "type": "sailor",
        "parent": "vtls004653592",
        "name": "david d davies",
        "dob": "blk",
        "age": "30",
        "place_of_birth": "borth",
        "home_address": "blk",
        "f": "blk",
        "name_of_ship": "mary ann",
        "ship_port": "aberystwyth",
        "date_leaving": "1868",
        "joined_ship_date": "1868-10-23",
        "joined_at_port": "south shields",
        "capacity": "mate",
        "date_left": "1869-03-01",
        "left_port": "london",
        "cause_of_leaving": "discharged",
        "sign_with_mark": "n",
        "notes": "cert no.=87648"
    },
    {
        "id": "vtls004653486_0_13",
        "type": "sailor",
        "parent": "vtls004653486",
        "name": "wm thomas",
        "dob": "blk",
        "age": "24",
        "place_of_birth": "st davids",
        "home_address": "blk",
        "f": "blk",
        "name_of_ship": "aquilla",
        "ship_port": "liverpool",
        "date_leaving": "1868",
        "joined_ship_date": "1868-05-27",
        "joined_at_port": "cardiff",
        "capacity": "able seaman",
        "date_left": "1868-10-13",
        "left_port": "wells",
        "cause_of_leaving": "end of voyage",
        "sign_with_mark": "y",
        "notes": "blk"
    },
    {
        "id": "vtls004653592_0_15",
        "type": "sailor",
        "parent": "vtls004653592",
        "name": "james johnson",
        "dob": "blk",
        "age": "29",
        "place_of_birth": "newry",
        "home_address": "blk",
        "f": "blk",
        "name_of_ship": "golden dream",
        "ship_port": "london",
        "date_leaving": "1868",
        "joined_ship_date": "1868-10-23",
        "joined_at_port": "south shields",
        "capacity": "able seaman",
        "date_left": "blk",
        "left_port": "newcastle",
        "cause_of_leaving": "not joined",
        "sign_with_mark": "n",
        "notes": "blk"
    },
    {
        "id": "vtls004653486_0_15",
        "type": "sailor",
        "parent": "vtls004653486",
        "name": "patrick carey",
        "dob": "blk",
        "age": "21",
        "place_of_birth": "youghal",
        "home_address": "blk",
        "f": "blk",
        "name_of_ship": "isabella",
        "ship_port": "cardiff",
        "date_leaving": "1868",
        "joined_ship_date": "1868-05-28",
        "joined_at_port": "cardiff",
        "capacity": "able seaman",
        "date_left": "1868-10-13",
        "left_port": "wells",
        "cause_of_leaving": "end of voyage",
        "sign_with_mark": "n",
        "notes": "blk"
    },
    {
        "id": "vtls004653486_0_16",
        "type": "sailor",
        "parent": "vtls004653486",
        "name": "william francis",
        "dob": "blk",
        "age": "13",
        "place_of_birth": "borth",
        "home_address": "blk",
        "f": "blk",
        "name_of_ship": "eleanor francis",
        "ship_port": "aberystwyth",
        "date_leaving": "1868",
        "joined_ship_date": "1868-05-27",
        "joined_at_port": "cardiff",
        "capacity": "boy",
        "date_left": "1868-10-13",
        "left_port": "we",
        "cause_of_leaving": "end of voyage",
        "sign_with_mark": "n",
        "notes": "blk"
    },
    {
        "id": "vtls004653592_1_15",
        "type": "sailor",
        "parent": "vtls004653592",
        "name": "evan davies",
        "dob": "blk",
        "age": "19",
        "place_of_birth": "aberaeron",
        "home_address": "blk",
        "f": "blk",
        "name_of_ship": "florence",
        "ship_port": "newport",
        "date_leaving": "1869",
        "joined_ship_date": "1869-04-23",
        "joined_at_port": "newport",
        "capacity": "ordinary seaman",
        "date_left": "1869-04-31",
        "left_port": "tarragona",
        "cause_of_leaving": "supposed to be drowned",
        "sign_with_mark": "n",
        "notes": "note 1 - orinially the reason for leaving the ship was given as \"deserted\" but this was changed. there is a ships report which was delivered to the port of bristol explaining that evan davies was left behind at tarragona and was eventually report to have drowned."
    },
    {
        "id": "vtls004653592_0_17",
        "type": "sailor",
        "parent": "vtls004653592",
        "name": "michael tinty",
        "dob": "blk",
        "age": "33",
        "place_of_birth": "leghorn",
        "home_address": "blk",
        "f": "blk",
        "name_of_ship": "lawrenso",
        "ship_port": "leghorn",
        "date_leaving": "1869",
        "joined_ship_date": "1869-01-27",
        "joined_at_port": "leghorn",
        "capacity": "able seaman",
        "date_left": "1869-03-01",
        "left_port": "london",
        "cause_of_leaving": "discharged",
        "sign_with_mark": "n",
        "notes": "note 1 - leghorn could be livorno.  spelling of previous ship is as recorded"
    },
    {
        "id": "vtls004653592_1_13",
        "type": "sailor",
        "parent": "vtls004653592",
        "name": "joseph leek",
        "dob": "blk",
        "age": "22",
        "place_of_birth": "bideford",
        "home_address": "blk",
        "f": "blk",
        "name_of_ship": "eleanor francis",
        "ship_port": "aberystwyth",
        "date_leaving": "remains",
        "joined_ship_date": "1869-04-22",
        "joined_at_port": "newport",
        "capacity": "able seaman",
        "date_left": "1869-07-29",
        "left_port": "bristol",
        "cause_of_leaving": "discharged",
        "sign_with_mark": "n",
        "notes": "note 1 - was not a member of previous crew"
    },
    {
        "id": "vtls004653592_1_12",
        "type": "sailor",
        "parent": "vtls004653592",
        "name": "david d davies",
        "dob": "blk",
        "age": "20",
        "place_of_birth": "borth",
        "home_address": "blk",
        "f": "blk",
        "name_of_ship": "eleanor francis",
        "ship_port": "aberystwyth",
        "date_leaving": "remains",
        "joined_ship_date": "1869-04-22",
        "joined_at_port": "newport",
        "capacity": "mate",
        "date_left": "1869-07-29",
        "left_port": "bristol",
        "cause_of_leaving": "discharged",
        "sign_with_mark": "n",
        "notes": "cert no. =87648\njust made mate"
    },
    {
        "id": "vtls004653592_0_16",
        "type": "sailor",
        "parent": "vtls004653592",
        "name": "william francis",
        "dob": "blk",
        "age": "13",
        "place_of_birth": "borth",
        "home_address": "blk",
        "f": "blk",
        "name_of_ship": "eleanor francis",
        "ship_port": "aberystwyth",
        "date_leaving": "1868",
        "joined_ship_date": "1868-10-23",
        "joined_at_port": "south shields",
        "capacity": "boy",
        "date_left": "1869-03-01",
        "left_port": "london",
        "cause_of_leaving": "discharged",
        "sign_with_mark": "n",
        "notes": "blk"
    },
    {
        "id": "vtls004653592_1_16",
        "type": "sailor",
        "parent": "vtls004653592",
        "name": "william francis",
        "dob": "blk",
        "age": "15",
        "place_of_birth": "borth",
        "home_address": "borth",
        "f": "borth",
        "name_of_ship": "eleanor francis",
        "ship_port": "aberystwyth",
        "date_leaving": "1869",
        "joined_ship_date": "1869-04-23",
        "joined_at_port": "newport",
        "capacity": "boy",
        "date_left": "1869-07-29",
        "left_port": "bristol",
        "cause_of_leaving": "discharged",
        "sign_with_mark": "n",
        "notes": "blk"
    },
    {
        "id": "vtls004653592_1_11",
        "type": "sailor",
        "parent": "vtls004653592",
        "name": "john francis",
        "dob": "blk",
        "age": "39",
        "place_of_birth": "borth",
        "home_address": "borth",
        "f": "borth",
        "name_of_ship": "eleanor francis",
        "ship_port": "aberystwyth",
        "date_leaving": "remains",
        "joined_ship_date": "blk",
        "joined_at_port": "blk",
        "capacity": "master",
        "date_left": "remains",
        "left_port": "remains",
        "cause_of_leaving": "remains on board",
        "sign_with_mark": "n",
        "notes": "cert no. =14646"
    },
    {
        "id": "vtls004653592_1_14",
        "type": "sailor",
        "parent": "vtls004653592",
        "name": "david jenkins",
        "dob": "blk",
        "age": "42",
        "place_of_birth": "aberystwyth",
        "home_address": "blk",
        "f": "blk",
        "name_of_ship": "florence",
        "ship_port": "newport",
        "date_leaving": "1869",
        "joined_ship_date": "1869-04-23",
        "joined_at_port": "newport",
        "capacity": "able seaman",
        "date_left": "1869-07-29",
        "left_port": "bristol",
        "cause_of_leaving": "discharged",
        "sign_with_mark": "y",
        "notes": "blk"
    },
    {
        "id": "vtls004653592_2_12",
        "type": "sailor",
        "parent": "vtls004653592",
        "name": "david d davies",
        "dob": "blk",
        "age": "31",
        "place_of_birth": "borth",
        "home_address": "blk",
        "f": "blk",
        "name_of_ship": "eleanor francis",
        "ship_port": "aberystwyth",
        "date_leaving": "1869",
        "joined_ship_date": "1869-09-11",
        "joined_at_port": "liverpool",
        "capacity": "mate",
        "date_left": "1869-12-31",
        "left_port": "plymouth",
        "cause_of_leaving": "remains on board",
        "sign_with_mark": "n",
        "notes": "note 1  - discrepancy in age from the previous crew member and mate by the name of david davies"
    },
    {
        "id": "vtls004653592_2_11",
        "type": "sailor",
        "parent": "vtls004653592",
        "name": "john francis",
        "dob": "blk",
        "age": "40",
        "place_of_birth": "borth",
        "home_address": "borth, wales",
        "f": "borth, wales",
        "name_of_ship": "eleanor francis",
        "ship_port": "aberystwyth",
        "date_leaving": "1869",
        "joined_ship_date": "1869-08-07",
        "joined_at_port": "bristol",
        "capacity": "master",
        "date_left": "1869-12-31",
        "left_port": "plymouth",
        "cause_of_leaving": "remains on board",
        "sign_with_mark": "n",
        "notes": "cert no. =14646"
    },
    {
        "id": "vtls004653612_0_11",
        "type": "sailor",
        "parent": "vtls004653612",
        "name": "john francis",
        "dob": "blk",
        "age": "41",
        "place_of_birth": "borth",
        "home_address": "borth",
        "f": "borth",
        "name_of_ship": "eleanor francis",
        "ship_port": "aberystwyth",
        "date_leaving": "blk",
        "joined_ship_date": "1870-06-27",
        "joined_at_port": "cardiff",
        "capacity": "master",
        "date_left": "remaining",
        "left_port": "remaining",
        "cause_of_leaving": "remains on board",
        "sign_with_mark": "n",
        "notes": "cert no. = 14646"
    },
    {
        "id": "vtls004653592_2_13",
        "type": "sailor",
        "parent": "vtls004653592",
        "name": "thomas s rowland",
        "dob": "blk",
        "age": "27",
        "place_of_birth": "aberystwyth",
        "home_address": "blk",
        "f": "blk",
        "name_of_ship": "white crest",
        "ship_port": "blk",
        "date_leaving": "1869",
        "joined_ship_date": "1869-09-11",
        "joined_at_port": "liverpool",
        "capacity": "able seaman",
        "date_left": "1869-12-31",
        "left_port": "plymouth",
        "cause_of_leaving": "remains on board",
        "sign_with_mark": "n",
        "notes": "blk"
    },
    {
        "id": "vtls004653592_2_15",
        "type": "sailor",
        "parent": "vtls004653592",
        "name": "ambrose dodd",
        "dob": "blk",
        "age": "22",
        "place_of_birth": "beeston castle",
        "home_address": "blk",
        "f": "blk",
        "name_of_ship": "mary jane",
        "ship_port": "blk",
        "date_leaving": "1869",
        "joined_ship_date": "1869-09-13",
        "joined_at_port": "liverpool",
        "capacity": "ordinary seaman",
        "date_left": "1869-12-31",
        "left_port": "plymouth",
        "cause_of_leaving": "remains on board",
        "sign_with_mark": "n",
        "notes": "blk"
    },
    {
        "id": "vtls004653612_0_12",
        "type": "sailor",
        "parent": "vtls004653612",
        "name": "william lewis",
        "dob": "blk",
        "age": "40",
        "place_of_birth": "borth",
        "home_address": "blk",
        "f": "blk",
        "name_of_ship": "eleanor francis",
        "ship_port": "aberystwyth",
        "date_leaving": "blk",
        "joined_ship_date": "1870-06-28",
        "joined_at_port": "cardiff",
        "capacity": "mate",
        "date_left": "1870-10-14",
        "left_port": "hull",
        "cause_of_leaving": "discharged",
        "sign_with_mark": "n",
        "notes": "cert no. = 63414"
    },
    {
        "id": "vtls004653592_2_14",
        "type": "sailor",
        "parent": "vtls004653592",
        "name": "davvid jones",
        "dob": "blk",
        "age": "22",
        "place_of_birth": "holyhead",
        "home_address": "blk",
        "f": "blk",
        "name_of_ship": "george reynolds",
        "ship_port": "blk",
        "date_leaving": "1869",
        "joined_ship_date": "1869-09-11",
        "joined_at_port": "liverpool",
        "capacity": "able seaman",
        "date_left": "1869-12-31",
        "left_port": "plymouth",
        "cause_of_leaving": "discharged",
        "sign_with_mark": "n",
        "notes": "blk"
    },
    {
        "id": "vtls004653592_2_16",
        "type": "sailor",
        "parent": "vtls004653592",
        "name": "wm francis",
        "dob": "blk",
        "age": "15",
        "place_of_birth": "borth",
        "home_address": "blk",
        "f": "blk",
        "name_of_ship": "eleanor francis",
        "ship_port": "aberystwyth",
        "date_leaving": "1869",
        "joined_ship_date": "1869-08-07",
        "joined_at_port": "bristol",
        "capacity": "boy",
        "date_left": "1869-12-31",
        "left_port": "plymouth",
        "cause_of_leaving": "remains on board",
        "sign_with_mark": "n",
        "notes": "blk"
    },
    {
        "id": "vtls004653592_1_17",
        "type": "sailor",
        "parent": "vtls004653592",
        "name": "david reardon",
        "dob": "blk",
        "age": "40",
        "place_of_birth": "queenstown",
        "home_address": "blk",
        "f": "blk",
        "name_of_ship": "seaman ship",
        "ship_port": "blk",
        "date_leaving": "1869",
        "joined_ship_date": "1869-05-05",
        "joined_at_port": "tarragona",
        "capacity": "able seaman",
        "date_left": "1869-07-29",
        "left_port": "bristol",
        "cause_of_leaving": "discharged",
        "sign_with_mark": "n",
        "notes": "blk"
    },
    {
        "id": "vtls004653612_1_11",
        "type": "sailor",
        "parent": "vtls004653612",
        "name": "john francis",
        "dob": "blk",
        "age": "blk",
        "place_of_birth": "blk",
        "home_address": "borth cardigan",
        "f": "borth cardigan",
        "name_of_ship": "eleanor francis",
        "ship_port": "aberystwyth",
        "date_leaving": "remains",
        "joined_ship_date": "remains",
        "joined_at_port": "remains",
        "capacity": "master",
        "date_left": "remains",
        "left_port": "remains",
        "cause_of_leaving": "remains on board",
        "sign_with_mark": "n",
        "notes": "cert no. = 14646"
    },
    {
        "id": "vtls004653612_0_15",
        "type": "sailor",
        "parent": "vtls004653612",
        "name": "john jones",
        "dob": "blk",
        "age": "20",
        "place_of_birth": "aberdovey",
        "home_address": "blk",
        "f": "blk",
        "name_of_ship": "eleanor francis",
        "ship_port": "aberystwyth",
        "date_leaving": "blk",
        "joined_ship_date": "1870-06-27",
        "joined_at_port": "cardiff",
        "capacity": "ordinary seaman",
        "date_left": "1870-10-14",
        "left_port": "hull",
        "cause_of_leaving": "discharged",
        "sign_with_mark": "n",
        "notes": "blk"
    },
    {
        "id": "vtls004653612_0_13",
        "type": "sailor",
        "parent": "vtls004653612",
        "name": "owen griffith",
        "dob": "blk",
        "age": "40",
        "place_of_birth": "aberdovey",
        "home_address": "blk",
        "f": "blk",
        "name_of_ship": "eleanor francis",
        "ship_port": "aberystwyth",
        "date_leaving": "blk",
        "joined_ship_date": "1870-06-27",
        "joined_at_port": "cardiff",
        "capacity": "able seaman",
        "date_left": "1870-10-14",
        "left_port": "hull",
        "cause_of_leaving": "discharged",
        "sign_with_mark": "n",
        "notes": "blk"
    },
    {
        "id": "vtls004653612_0_14",
        "type": "sailor",
        "parent": "vtls004653612",
        "name": "thomas edwards",
        "dob": "blk",
        "age": "24",
        "place_of_birth": "borth",
        "home_address": "blk",
        "f": "blk",
        "name_of_ship": "witch of the wave",
        "ship_port": "liverpool",
        "date_leaving": "1870",
        "joined_ship_date": "1870-06-27",
        "joined_at_port": "cardiff",
        "capacity": "able seaman",
        "date_left": "1870-10-14",
        "left_port": "hull",
        "cause_of_leaving": "discharged",
        "sign_with_mark": "n",
        "notes": "blk"
    },
    {
        "id": "vtls004653612_1_13",
        "type": "sailor",
        "parent": "vtls004653612",
        "name": "john jones",
        "dob": "blk",
        "age": "21",
        "place_of_birth": "merioneth",
        "home_address": "blk",
        "f": "blk",
        "name_of_ship": "eleanor francis",
        "ship_port": "aberystwyth",
        "date_leaving": "1870",
        "joined_ship_date": "1870-10-26",
        "joined_at_port": "hull",
        "capacity": "able seaman",
        "date_left": "1871-01-18",
        "left_port": "porthmadog",
        "cause_of_leaving": "paid off",
        "sign_with_mark": "n",
        "notes": "blk"
    },
    {
        "id": "vtls004653612_1_14",
        "type": "sailor",
        "parent": "vtls004653612",
        "name": "william francis",
        "dob": "blk",
        "age": "16",
        "place_of_birth": "cardigan",
        "home_address": "blk",
        "f": "blk",
        "name_of_ship": "eleanor francis",
        "ship_port": "aberystwyth",
        "date_leaving": "1870",
        "joined_ship_date": "1870-10-26",
        "joined_at_port": "hull",
        "capacity": "cook",
        "date_left": "1871-01-18",
        "left_port": "porthmadog",
        "cause_of_leaving": "paid off",
        "sign_with_mark": "n",
        "notes": "blk"
    },
    {
        "id": "vtls004653612_1_12",
        "type": "sailor",
        "parent": "vtls004653612",
        "name": "james james",
        "dob": "blk",
        "age": "40",
        "place_of_birth": "cardigan",
        "home_address": "blk",
        "f": "blk",
        "name_of_ship": "eleanor francis",
        "ship_port": "aberystwyth",
        "date_leaving": "1870",
        "joined_ship_date": "1870-10-26",
        "joined_at_port": "hull",
        "capacity": "mate",
        "date_left": "1871-01-18",
        "left_port": "porthmadog",
        "cause_of_leaving": "paid off",
        "sign_with_mark": "n",
        "notes": "blk"
    },
    {
        "id": "vtls004653612_0_16",
        "type": "sailor",
        "parent": "vtls004653612",
        "name": "william francis",
        "dob": "blk",
        "age": "15",
        "place_of_birth": "borth",
        "home_address": "blk",
        "f": "blk",
        "name_of_ship": "eleanor francis",
        "ship_port": "aberystwyth",
        "date_leaving": "blk",
        "joined_ship_date": "1870-06-27",
        "joined_at_port": "cardiff",
        "capacity": "cook",
        "date_left": "1870-10-14",
        "left_port": "hull",
        "cause_of_leaving": "discharged",
        "sign_with_mark": "n",
        "notes": "blk"
    },
    {
        "id": "vtls004653632_0_11",
        "type": "sailor",
        "parent": "vtls004653632",
        "name": "john francis",
        "dob": "blk",
        "age": "41",
        "place_of_birth": "borth",
        "home_address": "aberystwyth",
        "f": "aberystwyth",
        "name_of_ship": "eleanor francis",
        "ship_port": "aberystwyth",
        "date_leaving": "1871",
        "joined_ship_date": "1871-05-22",
        "joined_at_port": "newport",
        "capacity": "master",
        "date_left": "1871-07-26",
        "left_port": "lisbon",
        "cause_of_leaving": "discharged",
        "sign_with_mark": "n",
        "notes": "note 1 - all crew were paid off at liverpool on 1871-08-10 rather than at lisbon, the port of discharge following the demasting and abandonment of the vessel.   letters and log book entry covering these incidents."
    },
    {
        "id": "vtls004653632_0_13",
        "type": "sailor",
        "parent": "vtls004653632",
        "name": "thomas l williams",
        "dob": "blk",
        "age": "22",
        "place_of_birth": "pwllheli",
        "home_address": "blk",
        "f": "blk",
        "name_of_ship": "eleanor francis",
        "ship_port": "aberystwyth",
        "date_leaving": "1871",
        "joined_ship_date": "1871-05-22",
        "joined_at_port": "newport",
        "capacity": "able seaman",
        "date_left": "1871-07-26",
        "left_port": "lisbon",
        "cause_of_leaving": "discharged",
        "sign_with_mark": "n",
        "notes": "blk"
    },
    {
        "id": "vtls004653632_0_14",
        "type": "sailor",
        "parent": "vtls004653632",
        "name": "william francis",
        "dob": "blk",
        "age": "17",
        "place_of_birth": "borth",
        "home_address": "blk",
        "f": "blk",
        "name_of_ship": "eleanor francis",
        "ship_port": "aberystwyth",
        "date_leaving": "1871",
        "joined_ship_date": "1871-05-22",
        "joined_at_port": "newport",
        "capacity": "ordinary seaman",
        "date_left": "1871-07-26",
        "left_port": "lisbon",
        "cause_of_leaving": "discharged",
        "sign_with_mark": "n",
        "notes": "blk"
    },
    {
        "id": "vtls004653612_1_15",
        "type": "sailor",
        "parent": "vtls004653612",
        "name": "owen griffith",
        "dob": "blk",
        "age": "40",
        "place_of_birth": "merioneth",
        "home_address": "blk",
        "f": "blk",
        "name_of_ship": "eleanor francis",
        "ship_port": "aberystwyth",
        "date_leaving": "1870",
        "joined_ship_date": "1870-10-26",
        "joined_at_port": "hull",
        "capacity": "able seaman",
        "date_left": "1871-01-18",
        "left_port": "porthmadog",
        "cause_of_leaving": "paid off",
        "sign_with_mark": "n",
        "notes": "blk"
    },
    {
        "id": "vtls004653612_1_16",
        "type": "sailor",
        "parent": "vtls004653612",
        "name": "thomas edwards",
        "dob": "blk",
        "age": "25",
        "place_of_birth": "cardigan",
        "home_address": "blk",
        "f": "blk",
        "name_of_ship": "eleanor francis",
        "ship_port": "aberystwyth",
        "date_leaving": "1870",
        "joined_ship_date": "1870-10-26",
        "joined_at_port": "hull",
        "capacity": "able seaman",
        "date_left": "1871-01-18",
        "left_port": "porthmadog",
        "cause_of_leaving": "paid off",
        "sign_with_mark": "n",
        "notes": "blk"
    },
    {
        "id": "vtls004653632_0_12",
        "type": "sailor",
        "parent": "vtls004653632",
        "name": "james davies",
        "dob": "blk",
        "age": "29",
        "place_of_birth": "cardigan",
        "home_address": "blk",
        "f": "blk",
        "name_of_ship": "forest princess",
        "ship_port": "newport",
        "date_leaving": "1871",
        "joined_ship_date": "1871-05-22",
        "joined_at_port": "newport",
        "capacity": "mate",
        "date_left": "1871-07-26",
        "left_port": "lisbon",
        "cause_of_leaving": "discharged",
        "sign_with_mark": "n",
        "notes": "cert no.= 31578"
    },
    {
        "id": "vtls004653632_0_17",
        "type": "sailor",
        "parent": "vtls004653632",
        "name": "william lloyd",
        "dob": "blk",
        "age": "44",
        "place_of_birth": "st dogmaels",
        "home_address": "blk",
        "f": "blk",
        "name_of_ship": "inde$$",
        "ship_port": "sunderland",
        "date_leaving": "1871",
        "joined_ship_date": "1871-05-26",
        "joined_at_port": "newport",
        "capacity": "able seaman",
        "date_left": "1871-07-26",
        "left_port": "lisbon",
        "cause_of_leaving": "discharged",
        "sign_with_mark": "n",
        "notes": "blk"
    },
    {
        "id": "vtls004653632_0_16",
        "type": "sailor",
        "parent": "vtls004653632",
        "name": "levi davies",
        "dob": "blk",
        "age": "23",
        "place_of_birth": "fishguard",
        "home_address": "blk",
        "f": "blk",
        "name_of_ship": "reform",
        "ship_port": "barrow",
        "date_leaving": "1871",
        "joined_ship_date": "1871-05-22",
        "joined_at_port": "newport",
        "capacity": "able seaman",
        "date_left": "never joined",
        "left_port": "never joined",
        "cause_of_leaving": "never joined",
        "sign_with_mark": "n",
        "notes": "blk"
    },
    {
        "id": "vtls004653632_0_15",
        "type": "sailor",
        "parent": "vtls004653632",
        "name": "john hughes",
        "dob": "blk",
        "age": "16",
        "place_of_birth": "borth",
        "home_address": "blk",
        "f": "blk",
        "name_of_ship": "eleanor francis",
        "ship_port": "aberystwyth",
        "date_leaving": "1871",
        "joined_ship_date": "1871-05-22",
        "joined_at_port": "newport",
        "capacity": "boy",
        "date_left": "1871-07-26",
        "left_port": "lisbon",
        "cause_of_leaving": "discharged",
        "sign_with_mark": "n",
        "notes": "blk"
    }
]