[
    {
        "id": "vtls004610209_0_12",
        "type": "sailor",
        "parent": "vtls004610209",
        "name": "wiliam evans",
        "dob": "blk",
        "age": "21",
        "place_of_birth": "aberystwyth",
        "home_address": "blk",
        "f": "blk",
        "name_of_ship": "dovey belle",
        "ship_port": "aberystwyth",
        "date_leaving": "1873-11-20",
        "joined_ship_date": "1874-02-25",
        "joined_at_port": "aberystwyth",
        "capacity": "mate",
        "date_left": "blk",
        "left_port": "blk",
        "cause_of_leaving": "remains on board",
        "sign_with_mark": "n",
        "notes": "blk"
    },
    {
        "id": "vtls004610209_0_11",
        "type": "sailor",
        "parent": "vtls004610209",
        "name": "david d davies",
        "dob": "blk",
        "age": "29",
        "place_of_birth": "aberystwyth",
        "home_address": "blk",
        "f": "blk",
        "name_of_ship": "anne milford",
        "ship_port": "blk",
        "date_leaving": "1873-11-09",
        "joined_ship_date": "1874-01-01",
        "joined_at_port": "aberystwyth",
        "capacity": "master",
        "date_left": "blk",
        "left_port": "blk",
        "cause_of_leaving": "remains on board",
        "sign_with_mark": "n",
        "notes": "blk"
    },
    {
        "id": "vtls004610209_1_11",
        "type": "sailor",
        "parent": "vtls004610209",
        "name": "david d davies",
        "dob": "blk",
        "age": "29",
        "place_of_birth": "aberystwyth",
        "home_address": "blk",
        "f": "blk",
        "name_of_ship": "blk",
        "ship_port": "blk",
        "date_leaving": "blk",
        "joined_ship_date": "blk",
        "joined_at_port": "blk",
        "capacity": "master",
        "date_left": "1874-08-30",
        "left_port": "aberystwyth",
        "cause_of_leaving": "discharged",
        "sign_with_mark": "n",
        "notes": "continued from last journey"
    },
    {
        "id": "vtls004610217_0_11",
        "type": "sailor",
        "parent": "vtls004610217",
        "name": "david lewes",
        "dob": "blk",
        "age": "48",
        "place_of_birth": "fishguard, pembrokeshire",
        "home_address": "blk",
        "f": "blk",
        "name_of_ship": "ann & betsy",
        "ship_port": "aberystwyth",
        "date_leaving": "blk",
        "joined_ship_date": "blk",
        "joined_at_port": "blk",
        "capacity": "master",
        "date_left": "blk",
        "left_port": "blk",
        "cause_of_leaving": "remains on board",
        "sign_with_mark": "n",
        "notes": "continued from last journey"
    },
    {
        "id": "vtls004610217_0_12",
        "type": "sailor",
        "parent": "vtls004610217",
        "name": "william owen",
        "dob": "blk",
        "age": "40",
        "place_of_birth": "fishguard, pembrokeshire",
        "home_address": "blk",
        "f": "blk",
        "name_of_ship": "ann & betsy",
        "ship_port": "aberystwyth",
        "date_leaving": "blk",
        "joined_ship_date": "blk",
        "joined_at_port": "blk",
        "capacity": "mate",
        "date_left": "blk",
        "left_port": "blk",
        "cause_of_leaving": "remains on board",
        "sign_with_mark": "n",
        "notes": "continued from last journey"
    },
    {
        "id": "vtls004610213_0_11",
        "type": "sailor",
        "parent": "vtls004610213",
        "name": "william owen",
        "dob": "blk",
        "age": "40",
        "place_of_birth": "fishguard, pembrokeshire",
        "home_address": "blk",
        "f": "blk",
        "name_of_ship": "ann & betsy",
        "ship_port": "aberystwyth",
        "date_leaving": "blk",
        "joined_ship_date": "1876-02-05",
        "joined_at_port": "fishguard",
        "capacity": "master",
        "date_left": "blk",
        "left_port": "blk",
        "cause_of_leaving": "remains on board",
        "sign_with_mark": "n",
        "notes": "blk"
    },
    {
        "id": "vtls004610213_0_12",
        "type": "sailor",
        "parent": "vtls004610213",
        "name": "david lewis",
        "dob": "blk",
        "age": "48",
        "place_of_birth": "fishguard, pembrokeshire",
        "home_address": "blk",
        "f": "blk",
        "name_of_ship": "ann & betsy",
        "ship_port": "aberystwyth",
        "date_leaving": "blk",
        "joined_ship_date": "1876-02-05",
        "joined_at_port": "fishguard",
        "capacity": "seaman",
        "date_left": "blk",
        "left_port": "blk",
        "cause_of_leaving": "remains on board",
        "sign_with_mark": "n",
        "notes": "blk"
    },
    {
        "id": "vtls004610209_1_12",
        "type": "sailor",
        "parent": "vtls004610209",
        "name": "jenkin jones",
        "dob": "blk",
        "age": "56",
        "place_of_birth": "newquay",
        "home_address": "blk",
        "f": "blk",
        "name_of_ship": "blk",
        "ship_port": "blk",
        "date_leaving": "blk",
        "joined_ship_date": "blk",
        "joined_at_port": "blk",
        "capacity": "mate",
        "date_left": "1874-08-30",
        "left_port": "aberystwyth",
        "cause_of_leaving": "discharged",
        "sign_with_mark": "n",
        "notes": "continued from last journey"
    },
    {
        "id": "vtls004610213_1_11",
        "type": "sailor",
        "parent": "vtls004610213",
        "name": "wiliam owen",
        "dob": "blk",
        "age": "40",
        "place_of_birth": "fishguard",
        "home_address": "blk",
        "f": "blk",
        "name_of_ship": "ann & betsy",
        "ship_port": "aberystwyth",
        "date_leaving": "blk",
        "joined_ship_date": "blk",
        "joined_at_port": "blk",
        "capacity": "master",
        "date_left": "1876-11-06",
        "left_port": "fishguard",
        "cause_of_leaving": "discharged",
        "sign_with_mark": "n",
        "notes": "blk"
    },
    {
        "id": "vtls004610213_1_12",
        "type": "sailor",
        "parent": "vtls004610213",
        "name": "david lewis",
        "dob": "blk",
        "age": "49",
        "place_of_birth": "fishguard",
        "home_address": "blk",
        "f": "blk",
        "name_of_ship": "ann & betsy",
        "ship_port": "aberystwyth",
        "date_leaving": "blk",
        "joined_ship_date": "blk",
        "joined_at_port": "blk",
        "capacity": "mate",
        "date_left": "1876-11-06",
        "left_port": "fishguard",
        "cause_of_leaving": "discharged",
        "sign_with_mark": "n",
        "notes": "blk"
    },
    {
        "id": "vtls004610227_1_11",
        "type": "sailor",
        "parent": "vtls004610227",
        "name": "william owen",
        "dob": "blk",
        "age": "42",
        "place_of_birth": "fishguard, pembrokeshire",
        "home_address": "blk",
        "f": "blk",
        "name_of_ship": "ann & betsy",
        "ship_port": "aberystwyth",
        "date_leaving": "blk",
        "joined_ship_date": "blk",
        "joined_at_port": "blk",
        "capacity": "master",
        "date_left": "1878-09-30",
        "left_port": "fishguard",
        "cause_of_leaving": "vessel laid up",
        "sign_with_mark": "n",
        "notes": "continued from last journey"
    },
    {
        "id": "vtls004610227_1_12",
        "type": "sailor",
        "parent": "vtls004610227",
        "name": "david lewis",
        "dob": "blk",
        "age": "52",
        "place_of_birth": "fishguard, pembrokeshire",
        "home_address": "blk",
        "f": "blk",
        "name_of_ship": "ann & betsy",
        "ship_port": "aberystwyth",
        "date_leaving": "blk",
        "joined_ship_date": "blk",
        "joined_at_port": "blk",
        "capacity": "able seaman",
        "date_left": "1878-09-30",
        "left_port": "fishguard",
        "cause_of_leaving": "paid off",
        "sign_with_mark": "n",
        "notes": "continued from last journey"
    },
    {
        "id": "vtls004610227_0_12",
        "type": "sailor",
        "parent": "vtls004610227",
        "name": "david lewis",
        "dob": "blk",
        "age": "52",
        "place_of_birth": "fishguard",
        "home_address": "blk",
        "f": "blk",
        "name_of_ship": "ann & betsy",
        "ship_port": "aberystwyth",
        "date_leaving": "blk",
        "joined_ship_date": "blk",
        "joined_at_port": "blk",
        "capacity": "able seaman",
        "date_left": "1878-06-30",
        "left_port": "fishguard",
        "cause_of_leaving": "remains on board",
        "sign_with_mark": "n",
        "notes": "continued from last journey"
    },
    {
        "id": "vtls004610227_0_11",
        "type": "sailor",
        "parent": "vtls004610227",
        "name": "william owen",
        "dob": "blk",
        "age": "41",
        "place_of_birth": "fishguard",
        "home_address": "blk",
        "f": "blk",
        "name_of_ship": "ann & betsy",
        "ship_port": "aberystwyth",
        "date_leaving": "blk",
        "joined_ship_date": "blk",
        "joined_at_port": "blk",
        "capacity": "master",
        "date_left": "1878-06-30",
        "left_port": "fishguard",
        "cause_of_leaving": "remains on board",
        "sign_with_mark": "n",
        "notes": "continued from last journey"
    },
    {
        "id": "vtls004610036_0_13",
        "type": "sailor",
        "parent": "vtls004610036",
        "name": "charles james",
        "dob": "blk",
        "age": "15",
        "place_of_birth": "aberystwyth",
        "home_address": "blk",
        "f": "blk",
        "name_of_ship": "blk",
        "ship_port": "blk",
        "date_leaving": "blk",
        "joined_ship_date": "1864-02",
        "joined_at_port": "aberystwyth",
        "capacity": "ordinary seaman",
        "date_left": "blk",
        "left_port": "blk",
        "cause_of_leaving": "remains on board",
        "sign_with_mark": "n",
        "notes": "first time going to sea"
    },
    {
        "id": "vtls004610036_0_11",
        "type": "sailor",
        "parent": "vtls004610036",
        "name": "thomas edwards",
        "dob": "blk",
        "age": "38",
        "place_of_birth": "aberystwyth",
        "home_address": "blk",
        "f": "blk",
        "name_of_ship": "ann & betsy",
        "ship_port": "aberystwyth",
        "date_leaving": "blk",
        "joined_ship_date": "blk",
        "joined_at_port": "blk",
        "capacity": "master",
        "date_left": "blk",
        "left_port": "blk",
        "cause_of_leaving": "remains on board",
        "sign_with_mark": "n",
        "notes": "continued from last journey"
    },
    {
        "id": "vtls004610036_0_12",
        "type": "sailor",
        "parent": "vtls004610036",
        "name": "william davies",
        "dob": "blk",
        "age": "27",
        "place_of_birth": "aberystwyth",
        "home_address": "blk",
        "f": "blk",
        "name_of_ship": "express",
        "ship_port": "aberystwyth",
        "date_leaving": "1863-02",
        "joined_ship_date": "1864-02",
        "joined_at_port": "aberystwyth",
        "capacity": "mate",
        "date_left": "blk",
        "left_port": "blk",
        "cause_of_leaving": "remains on board",
        "sign_with_mark": "n",
        "notes": "blk"
    },
    {
        "id": "vtls004610036_1_13",
        "type": "sailor",
        "parent": "vtls004610036",
        "name": "lewis jones",
        "dob": "blk",
        "age": "13",
        "place_of_birth": "aberystwyth",
        "home_address": "blk",
        "f": "blk",
        "name_of_ship": "ann & betsy",
        "ship_port": "aberystwyth",
        "date_leaving": "blk",
        "joined_ship_date": "1864",
        "joined_at_port": "aberystwyth",
        "capacity": "ordinary seaman",
        "date_left": "1864-10",
        "left_port": "aberystwyth",
        "cause_of_leaving": "discharged",
        "sign_with_mark": "n",
        "notes": "note: first vessel $"
    },
    {
        "id": "vtls004610046_1_11",
        "type": "sailor",
        "parent": "vtls004610046",
        "name": "thomas edwards",
        "dob": "blk",
        "age": "41",
        "place_of_birth": "aberystwyth",
        "home_address": "blk",
        "f": "blk",
        "name_of_ship": "ann & betsy",
        "ship_port": "aberystwyth",
        "date_leaving": "blk",
        "joined_ship_date": "blk",
        "joined_at_port": "blk",
        "capacity": "master",
        "date_left": "1866-11-29",
        "left_port": "aberystwyth",
        "cause_of_leaving": "discharged",
        "sign_with_mark": "n",
        "notes": "continued from last journey"
    },
    {
        "id": "vtls004610036_1_11",
        "type": "sailor",
        "parent": "vtls004610036",
        "name": "thomas edwards",
        "dob": "blk",
        "age": "38",
        "place_of_birth": "aberystwyth",
        "home_address": "blk",
        "f": "blk",
        "name_of_ship": "ann & betsy",
        "ship_port": "aberystwyth",
        "date_leaving": "blk",
        "joined_ship_date": "blk",
        "joined_at_port": "blk",
        "capacity": "master",
        "date_left": "1864-10",
        "left_port": "aberystwyth",
        "cause_of_leaving": "discharged",
        "sign_with_mark": "n",
        "notes": "continued from last journey"
    },
    {
        "id": "vtls004610046_1_12",
        "type": "sailor",
        "parent": "vtls004610046",
        "name": "david morgan",
        "dob": "blk",
        "age": "57",
        "place_of_birth": "aberystwyth",
        "home_address": "blk",
        "f": "blk",
        "name_of_ship": "ann & betsy",
        "ship_port": "aberystwyth",
        "date_leaving": "blk",
        "joined_ship_date": "blk",
        "joined_at_port": "blk",
        "capacity": "mate",
        "date_left": "1866-11-29",
        "left_port": "aberystwyth",
        "cause_of_leaving": "discharged",
        "sign_with_mark": "n",
        "notes": "continued from last journey"
    },
    {
        "id": "vtls004610036_1_12",
        "type": "sailor",
        "parent": "vtls004610036",
        "name": "william lewis",
        "dob": "blk",
        "age": "30",
        "place_of_birth": "aberystwyth",
        "home_address": "blk",
        "f": "blk",
        "name_of_ship": "ann & betsy",
        "ship_port": "aberystwyth",
        "date_leaving": "blk",
        "joined_ship_date": "blk",
        "joined_at_port": "blk",
        "capacity": "mate",
        "date_left": "1864-10",
        "left_port": "aberystwyth",
        "cause_of_leaving": "discharged",
        "sign_with_mark": "n",
        "notes": "continued from last journey"
    },
    {
        "id": "vtls004610046_0_11",
        "type": "sailor",
        "parent": "vtls004610046",
        "name": "thomas edwards",
        "dob": "blk",
        "age": "40",
        "place_of_birth": "aberystwyth",
        "home_address": "blk",
        "f": "blk",
        "name_of_ship": "ann & betsy",
        "ship_port": "aberystwyth",
        "date_leaving": "1867-12-20",
        "joined_ship_date": "1866-03-18",
        "joined_at_port": "aberystwyth",
        "capacity": "master",
        "date_left": "blk",
        "left_port": "blk",
        "cause_of_leaving": "remains on board",
        "sign_with_mark": "n",
        "notes": "blk"
    },
    {
        "id": "vtls004610046_0_12",
        "type": "sailor",
        "parent": "vtls004610046",
        "name": "david c davis",
        "dob": "blk",
        "age": "32",
        "place_of_birth": "aberystwyth",
        "home_address": "blk",
        "f": "blk",
        "name_of_ship": "victoria",
        "ship_port": "swansea",
        "date_leaving": "1864-$-24",
        "joined_ship_date": "1864-03-18",
        "joined_at_port": "aberystwyth",
        "capacity": "able seaman",
        "date_left": "blk",
        "left_port": "blk",
        "cause_of_leaving": "remains on board",
        "sign_with_mark": "n",
        "notes": "blk"
    },
    {
        "id": "vtls004610078_1_13",
        "type": "sailor",
        "parent": "vtls004610078",
        "name": "david jones",
        "dob": "blk",
        "age": "29",
        "place_of_birth": "aberystwyth",
        "home_address": "blk",
        "f": "blk",
        "name_of_ship": "wellington",
        "ship_port": "aberystwyth",
        "date_leaving": "1867-09-13",
        "joined_ship_date": "1867-09-18",
        "joined_at_port": "aberystwyth",
        "capacity": "master",
        "date_left": "1867-12-30",
        "left_port": "aberystwyth",
        "cause_of_leaving": "discharged",
        "sign_with_mark": "blk",
        "notes": "blk"
    },
    {
        "id": "vtls004610078_0_12",
        "type": "sailor",
        "parent": "vtls004610078",
        "name": "james james",
        "dob": "blk",
        "age": "29",
        "place_of_birth": "aberystwyth",
        "home_address": "blk",
        "f": "blk",
        "name_of_ship": "[glad tidings]",
        "ship_port": "aberystwyth",
        "date_leaving": "[1866-09-20]",
        "joined_ship_date": "1867-04-18",
        "joined_at_port": "aberystwyth",
        "capacity": "mate",
        "date_left": "blk",
        "left_port": "blk",
        "cause_of_leaving": "remains on board",
        "sign_with_mark": "n",
        "notes": "blk"
    },
    {
        "id": "vtls004610088_0_11",
        "type": "sailor",
        "parent": "vtls004610088",
        "name": "john jenkins",
        "dob": "blk",
        "age": "45",
        "place_of_birth": "aberystwyth",
        "home_address": "blk",
        "f": "blk",
        "name_of_ship": "ann & betsy",
        "ship_port": "aberystwyth",
        "date_leaving": "blk",
        "joined_ship_date": "1868-07-01",
        "joined_at_port": "aberystwyth",
        "capacity": "master",
        "date_left": "1868-06-16",
        "left_port": "aberystwyth",
        "cause_of_leaving": "paid off",
        "sign_with_mark": "n",
        "notes": "blk"
    },
    {
        "id": "vtls004610088_1_11",
        "type": "sailor",
        "parent": "vtls004610088",
        "name": "james james",
        "dob": "blk",
        "age": "31",
        "place_of_birth": "aberystwyth",
        "home_address": "blk",
        "f": "blk",
        "name_of_ship": "ann & betsy",
        "ship_port": "aberystwyth",
        "date_leaving": "remains",
        "joined_ship_date": "1868-06-30",
        "joined_at_port": "blk",
        "capacity": "master",
        "date_left": "1868-12-15",
        "left_port": "aberystwyth",
        "cause_of_leaving": "discharged",
        "sign_with_mark": "n",
        "notes": "blk"
    },
    {
        "id": "vtls004610078_0_11",
        "type": "sailor",
        "parent": "vtls004610078",
        "name": "david hughes",
        "dob": "blk",
        "age": "38",
        "place_of_birth": "borth",
        "home_address": "blk",
        "f": "blk",
        "name_of_ship": "cathrin",
        "ship_port": "aberystwyth",
        "date_leaving": "1867-06-11",
        "joined_ship_date": "1867-04-18",
        "joined_at_port": "aberystwyth",
        "capacity": "master",
        "date_left": "blk",
        "left_port": "blk",
        "cause_of_leaving": "remains on board",
        "sign_with_mark": "n",
        "notes": "blk"
    },
    {
        "id": "vtls004610088_0_13",
        "type": "sailor",
        "parent": "vtls004610088",
        "name": "william martin",
        "dob": "blk",
        "age": "29",
        "place_of_birth": "aberystwyth",
        "home_address": "blk",
        "f": "blk",
        "name_of_ship": "agnes porter",
        "ship_port": "barrow",
        "date_leaving": "1868-06-02",
        "joined_ship_date": "1868-06-16",
        "joined_at_port": "aberystwyth",
        "capacity": "master",
        "date_left": "blk",
        "left_port": "blk",
        "cause_of_leaving": "remains",
        "sign_with_mark": "n",
        "notes": "blk"
    },
    {
        "id": "vtls004610078_1_12",
        "type": "sailor",
        "parent": "vtls004610078",
        "name": "james james",
        "dob": "blk",
        "age": "36",
        "place_of_birth": "aberystwyth",
        "home_address": "blk",
        "f": "blk",
        "name_of_ship": "ann & betsy",
        "ship_port": "aberystwyth",
        "date_leaving": "blk",
        "joined_ship_date": "blk",
        "joined_at_port": "blk",
        "capacity": "mate",
        "date_left": "1867-12-24",
        "left_port": "aberystwyth",
        "cause_of_leaving": "discharged",
        "sign_with_mark": "blk",
        "notes": "blk"
    },
    {
        "id": "vtls004610078_1_11",
        "type": "sailor",
        "parent": "vtls004610078",
        "name": "david hughes",
        "dob": "blk",
        "age": "41",
        "place_of_birth": "borth",
        "home_address": "blk",
        "f": "blk",
        "name_of_ship": "ann & betsy",
        "ship_port": "aberystwyth",
        "date_leaving": "blk",
        "joined_ship_date": "blk",
        "joined_at_port": "blk",
        "capacity": "master",
        "date_left": "1867-09-17",
        "left_port": "aberystwyth",
        "cause_of_leaving": "discharged",
        "sign_with_mark": "blk",
        "notes": "blk"
    },
    {
        "id": "vtls004610088_0_12",
        "type": "sailor",
        "parent": "vtls004610088",
        "name": "james james",
        "dob": "blk",
        "age": "45",
        "place_of_birth": "aberystwyth",
        "home_address": "blk",
        "f": "blk",
        "name_of_ship": "hill",
        "ship_port": "aberystwyth",
        "date_leaving": "1868-03-23",
        "joined_ship_date": "1868-03-24",
        "joined_at_port": "aberystwyth",
        "capacity": "mate",
        "date_left": "blk",
        "left_port": "blk",
        "cause_of_leaving": "remains",
        "sign_with_mark": "n",
        "notes": "blk"
    },
    {
        "id": "vtls004610093_0_12",
        "type": "sailor",
        "parent": "vtls004610093",
        "name": "thomas williams",
        "dob": "blk",
        "age": "35",
        "place_of_birth": "aberystwyth",
        "home_address": "blk",
        "f": "blk",
        "name_of_ship": "eliza francis",
        "ship_port": "aberystwyth",
        "date_leaving": "1868-12",
        "joined_ship_date": "1869-03-26",
        "joined_at_port": "aberystwyth",
        "capacity": "mate",
        "date_left": "1869-05-07",
        "left_port": "aberystwyth",
        "cause_of_leaving": "discharged",
        "sign_with_mark": "n",
        "notes": "blk"
    },
    {
        "id": "vtls004610093_1_11",
        "type": "sailor",
        "parent": "vtls004610093",
        "name": "james james",
        "dob": "blk",
        "age": "28",
        "place_of_birth": "aberystwyth",
        "home_address": "blk",
        "f": "blk",
        "name_of_ship": "ann & betsy",
        "ship_port": "aberystwyth",
        "date_leaving": "1868-12-20",
        "joined_ship_date": "1869-03-12",
        "joined_at_port": "aberystwyth",
        "capacity": "master",
        "date_left": "1869-12-20",
        "left_port": "aberystwyth",
        "cause_of_leaving": "discharged",
        "sign_with_mark": "n",
        "notes": "blk"
    },
    {
        "id": "vtls004610093_0_13",
        "type": "sailor",
        "parent": "vtls004610093",
        "name": "james daniel",
        "dob": "blk",
        "age": "27",
        "place_of_birth": "aberystwyth",
        "home_address": "blk",
        "f": "blk",
        "name_of_ship": "confidence",
        "ship_port": "aberystwyth",
        "date_leaving": "1869-04-25",
        "joined_ship_date": "1869-05-08",
        "joined_at_port": "aberystwyth",
        "capacity": "mate",
        "date_left": "1869-06-21",
        "left_port": "aberystwyth",
        "cause_of_leaving": "discharged",
        "sign_with_mark": "n",
        "notes": "blk"
    },
    {
        "id": "vtls004610093_1_12",
        "type": "sailor",
        "parent": "vtls004610093",
        "name": "john evans",
        "dob": "blk",
        "age": "26",
        "place_of_birth": "aberystwyth",
        "home_address": "blk",
        "f": "blk",
        "name_of_ship": "mary jones",
        "ship_port": "aberystwyth",
        "date_leaving": "1869-06",
        "joined_ship_date": "1869-07-12",
        "joined_at_port": "aberystwyth",
        "capacity": "mate",
        "date_left": "1869-12-20",
        "left_port": "aberystwyth",
        "cause_of_leaving": "discharged",
        "sign_with_mark": "n",
        "notes": "blk"
    },
    {
        "id": "vtls004610093_0_11",
        "type": "sailor",
        "parent": "vtls004610093",
        "name": "james james",
        "dob": "blk",
        "age": "32",
        "place_of_birth": "aberystwyth",
        "home_address": "blk",
        "f": "blk",
        "name_of_ship": "ann & betsy",
        "ship_port": "aberystwyth",
        "date_leaving": "1868-11",
        "joined_ship_date": "1869-03-26",
        "joined_at_port": "aberystwyth",
        "capacity": "master",
        "date_left": "blk",
        "left_port": "blk",
        "cause_of_leaving": "remains on board",
        "sign_with_mark": "n",
        "notes": "blk"
    },
    {
        "id": "vtls004610088_1_12",
        "type": "sailor",
        "parent": "vtls004610088",
        "name": "william martin",
        "dob": "blk",
        "age": "44",
        "place_of_birth": "jersey",
        "home_address": "blk",
        "f": "blk",
        "name_of_ship": "ann & betsy",
        "ship_port": "aberystwyth",
        "date_leaving": "remains",
        "joined_ship_date": "1868-06-30",
        "joined_at_port": "blk",
        "capacity": "mate",
        "date_left": "1868-10-10",
        "left_port": "aberystwyth",
        "cause_of_leaving": "discharged",
        "sign_with_mark": "n",
        "notes": "blk"
    },
    {
        "id": "vtls004610088_1_13",
        "type": "sailor",
        "parent": "vtls004610088",
        "name": "thomas davies",
        "dob": "blk",
        "age": "27",
        "place_of_birth": "aberystwyth",
        "home_address": "blk",
        "f": "blk",
        "name_of_ship": "$",
        "ship_port": "blk",
        "date_leaving": "1868-10",
        "joined_ship_date": "1868-10-11",
        "joined_at_port": "aberystwyth",
        "capacity": "mate",
        "date_left": "1868-12-15",
        "left_port": "aberystwyth",
        "cause_of_leaving": "discharged",
        "sign_with_mark": "n",
        "notes": "blk"
    },
    {
        "id": "vtls004610188_0_11",
        "type": "sailor",
        "parent": "vtls004610188",
        "name": "thomas edwards",
        "dob": "blk",
        "age": "44",
        "place_of_birth": "aberystwyth",
        "home_address": "blk",
        "f": "blk",
        "name_of_ship": "ann & betsy",
        "ship_port": "aberystwyth",
        "date_leaving": "1867-12-28",
        "joined_ship_date": "aberystwyth",
        "joined_at_port": "$",
        "capacity": "master",
        "date_left": "blk",
        "left_port": "blk",
        "cause_of_leaving": "remains on board",
        "sign_with_mark": "n",
        "notes": "blk"
    },
    {
        "id": "vtls004610117_0_11",
        "type": "sailor",
        "parent": "vtls004610117",
        "name": "james james",
        "dob": "blk",
        "age": "29",
        "place_of_birth": "aberystwyth",
        "home_address": "blk",
        "f": "blk",
        "name_of_ship": "ann & betsy",
        "ship_port": "aberystwyth",
        "date_leaving": "1869-12-20",
        "joined_ship_date": "1870-01-15",
        "joined_at_port": "aberystwyth",
        "capacity": "master",
        "date_left": "blk",
        "left_port": "blk",
        "cause_of_leaving": "remains on board",
        "sign_with_mark": "n",
        "notes": "blk"
    },
    {
        "id": "vtls004610117_1_13",
        "type": "sailor",
        "parent": "vtls004610117",
        "name": "william thomas",
        "dob": "blk",
        "age": "27",
        "place_of_birth": "trerddol",
        "home_address": "blk",
        "f": "blk",
        "name_of_ship": "eigen",
        "ship_port": "aberystwyth",
        "date_leaving": "1870-07-16",
        "joined_ship_date": "1870-07-20",
        "joined_at_port": "aberystwyth",
        "capacity": "mate",
        "date_left": "1870-09-30",
        "left_port": "aberystwyth",
        "cause_of_leaving": "discharged",
        "sign_with_mark": "n",
        "notes": "blk"
    },
    {
        "id": "vtls004610117_1_11",
        "type": "sailor",
        "parent": "vtls004610117",
        "name": "james james",
        "dob": "blk",
        "age": "29",
        "place_of_birth": "aberystwyth",
        "home_address": "blk",
        "f": "blk",
        "name_of_ship": "ann & betsy",
        "ship_port": "aberystwyth",
        "date_leaving": "remains",
        "joined_ship_date": "1870-06-30",
        "joined_at_port": "blk",
        "capacity": "master",
        "date_left": "1870-09-30",
        "left_port": "aberystwyth",
        "cause_of_leaving": "discharged",
        "sign_with_mark": "n",
        "notes": "blk"
    },
    {
        "id": "vtls004610117_1_12",
        "type": "sailor",
        "parent": "vtls004610117",
        "name": "evan thomas",
        "dob": "blk",
        "age": "30",
        "place_of_birth": "aberaeron",
        "home_address": "blk",
        "f": "blk",
        "name_of_ship": "ann & betsy",
        "ship_port": "aberystwyth",
        "date_leaving": "remains",
        "joined_ship_date": "1870-06-30",
        "joined_at_port": "blk",
        "capacity": "mate",
        "date_left": "1870-07",
        "left_port": "aberystwyth",
        "cause_of_leaving": "discharged",
        "sign_with_mark": "n",
        "notes": "blk"
    },
    {
        "id": "vtls004610188_0_12",
        "type": "sailor",
        "parent": "vtls004610188",
        "name": "thomas edwards",
        "dob": "blk",
        "age": "72",
        "place_of_birth": "aberystwyth",
        "home_address": "blk",
        "f": "blk",
        "name_of_ship": "m a jones",
        "ship_port": "aberystwyth",
        "date_leaving": "1870-06",
        "joined_ship_date": "blk",
        "joined_at_port": "$",
        "capacity": "mate",
        "date_left": "blk",
        "left_port": "blk",
        "cause_of_leaving": "remains on board",
        "sign_with_mark": "n",
        "notes": "blk"
    },
    {
        "id": "vtls004610117_0_12",
        "type": "sailor",
        "parent": "vtls004610117",
        "name": "evan jones",
        "dob": "blk",
        "age": "23",
        "place_of_birth": "aberaeron",
        "home_address": "blk",
        "f": "blk",
        "name_of_ship": "unknown",
        "ship_port": "blk",
        "date_leaving": "blk",
        "joined_ship_date": "1870-01-25",
        "joined_at_port": "aberystwyth",
        "capacity": "mate",
        "date_left": "blk",
        "left_port": "blk",
        "cause_of_leaving": "remains on board",
        "sign_with_mark": "n",
        "notes": "blk"
    },
    {
        "id": "vtls004610188_1_11",
        "type": "sailor",
        "parent": "vtls004610188",
        "name": "thomas edwards",
        "dob": "blk",
        "age": "46",
        "place_of_birth": "aberystwyth",
        "home_address": "blk",
        "f": "blk",
        "name_of_ship": "ann & betsy",
        "ship_port": "aberystwyth",
        "date_leaving": "remains on board",
        "joined_ship_date": "1871-06-30",
        "joined_at_port": "aberystwyth",
        "capacity": "master",
        "date_left": "1871-11-20",
        "left_port": "aberystwyth",
        "cause_of_leaving": "discharged",
        "sign_with_mark": "n",
        "notes": "blk"
    },
    {
        "id": "vtls004610188_1_12",
        "type": "sailor",
        "parent": "vtls004610188",
        "name": "thomas edwards",
        "dob": "blk",
        "age": "72",
        "place_of_birth": "aberystwyth",
        "home_address": "blk",
        "f": "blk",
        "name_of_ship": "ann & betsy",
        "ship_port": "aberystwyth",
        "date_leaving": "remains on board",
        "joined_ship_date": "1871-06-30",
        "joined_at_port": "aberystwyth",
        "capacity": "mate",
        "date_left": "1871-11-20",
        "left_port": "aberystwyth",
        "cause_of_leaving": "discharged",
        "sign_with_mark": "n",
        "notes": "blk"
    },
    {
        "id": "vtls004610200_0_11",
        "type": "sailor",
        "parent": "vtls004610200",
        "name": "thomas hughes",
        "dob": "blk",
        "age": "29",
        "place_of_birth": "aberystwyth",
        "home_address": "blk",
        "f": "blk",
        "name_of_ship": "ann & betsy",
        "ship_port": "aberystwyth",
        "date_leaving": "blk",
        "joined_ship_date": "blk",
        "joined_at_port": "blk",
        "capacity": "master",
        "date_left": "blk",
        "left_port": "blk",
        "cause_of_leaving": "remains on board",
        "sign_with_mark": "n",
        "notes": "continued from last journey"
    },
    {
        "id": "vtls004610192_1_12",
        "type": "sailor",
        "parent": "vtls004610192",
        "name": "william evans",
        "dob": "blk",
        "age": "20",
        "place_of_birth": "aberystwyth",
        "home_address": "blk",
        "f": "blk",
        "name_of_ship": "hope",
        "ship_port": "aberystwyth",
        "date_leaving": "1872-06",
        "joined_ship_date": "1872-07-02",
        "joined_at_port": "aberystwyth",
        "capacity": "mate",
        "date_left": "1872-12-31",
        "left_port": "aberystwyth",
        "cause_of_leaving": "discharged",
        "sign_with_mark": "n",
        "notes": "blk"
    },
    {
        "id": "vtls004610192_0_12",
        "type": "sailor",
        "parent": "vtls004610192",
        "name": "richard rees",
        "dob": "blk",
        "age": "62",
        "place_of_birth": "aberystwyth",
        "home_address": "blk",
        "f": "blk",
        "name_of_ship": "catherine",
        "ship_port": "aberdovey",
        "date_leaving": "[last in]",
        "joined_ship_date": "1872-04",
        "joined_at_port": "aberystwyth",
        "capacity": "mate",
        "date_left": "blk",
        "left_port": "blk",
        "cause_of_leaving": "remains on board",
        "sign_with_mark": "n",
        "notes": "blk"
    },
    {
        "id": "vtls004610192_0_11",
        "type": "sailor",
        "parent": "vtls004610192",
        "name": "thomas hughes",
        "dob": "blk",
        "age": "28",
        "place_of_birth": "aberystwyth",
        "home_address": "blk",
        "f": "blk",
        "name_of_ship": "aberystwyth",
        "ship_port": "aberystwyth",
        "date_leaving": "1872-03",
        "joined_ship_date": "1872-04",
        "joined_at_port": "aberystwyth",
        "capacity": "master",
        "date_left": "blk",
        "left_port": "blk",
        "cause_of_leaving": "remains on board",
        "sign_with_mark": "n",
        "notes": "blk"
    },
    {
        "id": "vtls004610192_1_11",
        "type": "sailor",
        "parent": "vtls004610192",
        "name": "thomas hughes",
        "dob": "blk",
        "age": "28",
        "place_of_birth": "aberystwyth",
        "home_address": "blk",
        "f": "blk",
        "name_of_ship": "ann & betsy",
        "ship_port": "aberystwyth",
        "date_leaving": "remains on board",
        "joined_ship_date": "blk",
        "joined_at_port": "blk",
        "capacity": "master",
        "date_left": "blk",
        "left_port": "blk",
        "cause_of_leaving": "remains on board",
        "sign_with_mark": "n",
        "notes": "blk"
    },
    {
        "id": "vtls004610200_1_12",
        "type": "sailor",
        "parent": "vtls004610200",
        "name": "thomas thomas",
        "dob": "blk",
        "age": "45",
        "place_of_birth": "aberystwyth",
        "home_address": "blk",
        "f": "blk",
        "name_of_ship": "velocity",
        "ship_port": "aberystwyth",
        "date_leaving": "1873-06-20",
        "joined_ship_date": "1873-07-21",
        "joined_at_port": "aberystwyth",
        "capacity": "master",
        "date_left": "1873-12-18",
        "left_port": "aberystwyth",
        "cause_of_leaving": "discharged",
        "sign_with_mark": "n",
        "notes": "blk"
    },
    {
        "id": "vtls004610200_0_12",
        "type": "sailor",
        "parent": "vtls004610200",
        "name": "david morgans",
        "dob": "blk",
        "age": "60",
        "place_of_birth": "aberystwyth",
        "home_address": "blk",
        "f": "blk",
        "name_of_ship": "adoram",
        "ship_port": "aberystwyth",
        "date_leaving": "1873-02-01",
        "joined_ship_date": "1873-02-03",
        "joined_at_port": "aberystwyth",
        "capacity": "mate",
        "date_left": "blk",
        "left_port": "blk",
        "cause_of_leaving": "remains on board",
        "sign_with_mark": "n",
        "notes": "blk"
    },
    {
        "id": "vtls004610200_1_11",
        "type": "sailor",
        "parent": "vtls004610200",
        "name": "thomas hughes",
        "dob": "blk",
        "age": "29",
        "place_of_birth": "aberystwyth",
        "home_address": "blk",
        "f": "blk",
        "name_of_ship": "ann & betsy",
        "ship_port": "aberystwyth",
        "date_leaving": "blk",
        "joined_ship_date": "blk",
        "joined_at_port": "blk",
        "capacity": "master",
        "date_left": "1873-07-19",
        "left_port": "aberystwyth",
        "cause_of_leaving": "discharged",
        "sign_with_mark": "n",
        "notes": "blk"
    },
    {
        "id": "vtls004610200_1_13",
        "type": "sailor",
        "parent": "vtls004610200",
        "name": "david morgan",
        "dob": "blk",
        "age": "60",
        "place_of_birth": "aberystwyth",
        "home_address": "blk",
        "f": "blk",
        "name_of_ship": "ann & betsy",
        "ship_port": "aberystwyth",
        "date_leaving": "blk",
        "joined_ship_date": "blk",
        "joined_at_port": "blk",
        "capacity": "mate",
        "date_left": "1873-12-18",
        "left_port": "aberystwyth",
        "cause_of_leaving": "discharged",
        "sign_with_mark": "n",
        "notes": "blk"
    }
]