[
    {
        "id": "vtls004615329_0_11",
        "type": "sailor",
        "parent": "vtls004615329",
        "name": "thomas lloyd",
        "dob": "blk",
        "age": "43",
        "place_of_birth": "aberaeron",
        "home_address": "alban square, aberaeron",
        "f": "alban square, aberaeron",
        "name_of_ship": "anne jenkins",
        "ship_port": "aberystwyth",
        "date_leaving": "continued",
        "joined_ship_date": "continued",
        "joined_at_port": "continued",
        "capacity": "master",
        "date_left": "1862-09-01",
        "left_port": "monte video",
        "cause_of_leaving": "resigned family health",
        "sign_with_mark": "n",
        "notes": "blk"
    },
    {
        "id": "vtls004615329_0_12",
        "type": "sailor",
        "parent": "vtls004615329",
        "name": "thomas phillips jones",
        "dob": "blk",
        "age": "23",
        "place_of_birth": "aberaeron",
        "home_address": "blk",
        "f": "blk",
        "name_of_ship": "arica",
        "ship_port": "aberystwyth",
        "date_leaving": "1862-05",
        "joined_ship_date": "1862-06-03",
        "joined_at_port": "cardiff",
        "capacity": "mate",
        "date_left": "1863-08-15",
        "left_port": "london",
        "cause_of_leaving": "discharged",
        "sign_with_mark": "n",
        "notes": "mate number 24793"
    },
    {
        "id": "vtls004615329_0_13",
        "type": "sailor",
        "parent": "vtls004615329",
        "name": "thomas davies",
        "dob": "blk",
        "age": "23",
        "place_of_birth": "newquay",
        "home_address": "blk",
        "f": "blk",
        "name_of_ship": "anne jenkins",
        "ship_port": "aberystwyth",
        "date_leaving": "continued",
        "joined_ship_date": "1862-06-03",
        "joined_at_port": "cardiff",
        "capacity": "boatswain",
        "date_left": "1863-08-15",
        "left_port": "london",
        "cause_of_leaving": "discharged",
        "sign_with_mark": "n",
        "notes": "blk"
    },
    {
        "id": "vtls004615329_0_18",
        "type": "sailor",
        "parent": "vtls004615329",
        "name": "charles lewis",
        "dob": "blk",
        "age": "22",
        "place_of_birth": "amhill",
        "home_address": "blk",
        "f": "blk",
        "name_of_ship": "ann & sarah",
        "ship_port": "bridgewater",
        "date_leaving": "1862-05-30",
        "joined_ship_date": "1862-06-03",
        "joined_at_port": "cardiff",
        "capacity": "able seaman",
        "date_left": "1863-08-15",
        "left_port": "london",
        "cause_of_leaving": "discharged",
        "sign_with_mark": "n",
        "notes": "blk"
    },
    {
        "id": "vtls004615329_0_17",
        "type": "sailor",
        "parent": "vtls004615329",
        "name": "james parton",
        "dob": "blk",
        "age": "23",
        "place_of_birth": "langport",
        "home_address": "blk",
        "f": "blk",
        "name_of_ship": "mary henzell",
        "ship_port": "shields",
        "date_leaving": "1862-04-05",
        "joined_ship_date": "1862-06-03",
        "joined_at_port": "cardiff",
        "capacity": "able seaman",
        "date_left": "1863-08-15",
        "left_port": "london",
        "cause_of_leaving": "discharged",
        "sign_with_mark": "n",
        "notes": "blk"
    },
    {
        "id": "vtls004615329_0_15",
        "type": "sailor",
        "parent": "vtls004615329",
        "name": "david jones",
        "dob": "blk",
        "age": "62",
        "place_of_birth": "aberystwyth",
        "home_address": "blk",
        "f": "blk",
        "name_of_ship": "portland",
        "ship_port": "aberdovey",
        "date_leaving": "1861",
        "joined_ship_date": "1862-06-03",
        "joined_at_port": "cardiff",
        "capacity": "cook & steward",
        "date_left": "1863-08-15",
        "left_port": "london",
        "cause_of_leaving": "discharged",
        "sign_with_mark": "n",
        "notes": "blk"
    },
    {
        "id": "vtls004615329_0_16",
        "type": "sailor",
        "parent": "vtls004615329",
        "name": "thomas thomas",
        "dob": "blk",
        "age": "20",
        "place_of_birth": "aberystwyth",
        "home_address": "blk",
        "f": "blk",
        "name_of_ship": "edinburgh",
        "ship_port": "liverpool",
        "date_leaving": "1861",
        "joined_ship_date": "1862-06-03",
        "joined_at_port": "cardiff",
        "capacity": "able seaman",
        "date_left": "1863-08-15",
        "left_port": "london",
        "cause_of_leaving": "discharged",
        "sign_with_mark": "n",
        "notes": "blk"
    },
    {
        "id": "vtls004615329_0_14",
        "type": "sailor",
        "parent": "vtls004615329",
        "name": "john jones",
        "dob": "blk",
        "age": "28",
        "place_of_birth": "aberystwyth",
        "home_address": "blk",
        "f": "blk",
        "name_of_ship": "cledo",
        "ship_port": "aberystwyth",
        "date_leaving": "1861",
        "joined_ship_date": "1862-06-03",
        "joined_at_port": "cardiff",
        "capacity": "carpenter",
        "date_left": "1863-08-15",
        "left_port": "london",
        "cause_of_leaving": "discharged",
        "sign_with_mark": "n",
        "notes": "blk"
    },
    {
        "id": "vtls004615480_0_12",
        "type": "sailor",
        "parent": "vtls004615480",
        "name": "george morrison",
        "dob": "blk",
        "age": "48",
        "place_of_birth": "jamaica",
        "home_address": "blk",
        "f": "blk",
        "name_of_ship": "truant",
        "ship_port": "aberystwyth",
        "date_leaving": "1863-08-07",
        "joined_ship_date": "1863-10-24",
        "joined_at_port": "london",
        "capacity": "mate",
        "date_left": "1865-12-18",
        "left_port": "colombo, sri lanka",
        "cause_of_leaving": "discharged",
        "sign_with_mark": "n",
        "notes": "mate number 64493"
    },
    {
        "id": "vtls004615480_0_13",
        "type": "sailor",
        "parent": "vtls004615480",
        "name": "g h knox",
        "dob": "blk",
        "age": "20",
        "place_of_birth": "edinburgh",
        "home_address": "blk",
        "f": "blk",
        "name_of_ship": "venilia",
        "ship_port": "london",
        "date_leaving": "1863-09-27",
        "joined_ship_date": "1863-10-24",
        "joined_at_port": "london",
        "capacity": "2nd mate",
        "date_left": "1863-11-20",
        "left_port": "plymouth",
        "cause_of_leaving": "discharged",
        "sign_with_mark": "n",
        "notes": "mate number 64913"
    },
    {
        "id": "vtls004615480_0_11",
        "type": "sailor",
        "parent": "vtls004615480",
        "name": "david d davies",
        "dob": "blk",
        "age": "31",
        "place_of_birth": "newquay",
        "home_address": "new quay",
        "f": "new quay",
        "name_of_ship": "truant",
        "ship_port": "aberystwyth",
        "date_leaving": "1863-08-07",
        "joined_ship_date": "1863-09-17",
        "joined_at_port": "london",
        "capacity": "master",
        "date_left": "remains",
        "left_port": "remains",
        "cause_of_leaving": "remains on board",
        "sign_with_mark": "n",
        "notes": "blk"
    },
    {
        "id": "vtls004615329_0_20",
        "type": "sailor",
        "parent": "vtls004615329",
        "name": "john glomell",
        "dob": "blk",
        "age": "35",
        "place_of_birth": "ferry port",
        "home_address": "blk",
        "f": "blk",
        "name_of_ship": "cross fell",
        "ship_port": "liverpool",
        "date_leaving": "1862-10-01",
        "joined_ship_date": "1862-10-04",
        "joined_at_port": "st. helena",
        "capacity": "mate",
        "date_left": "1863-06-05",
        "left_port": "st helena",
        "cause_of_leaving": "discharged",
        "sign_with_mark": "n",
        "notes": "blk"
    },
    {
        "id": "vtls004615329_0_19",
        "type": "sailor",
        "parent": "vtls004615329",
        "name": "james humes",
        "dob": "blk",
        "age": "20",
        "place_of_birth": "plymouth",
        "home_address": "blk",
        "f": "blk",
        "name_of_ship": "mermaid",
        "ship_port": "london",
        "date_leaving": "1862-03",
        "joined_ship_date": "1862-06-03",
        "joined_at_port": "cardiff",
        "capacity": "ordinary seaman",
        "date_left": "1863-08-15",
        "left_port": "london",
        "cause_of_leaving": "discharged",
        "sign_with_mark": "n",
        "notes": "blk"
    },
    {
        "id": "vtls004615329_0_21",
        "type": "sailor",
        "parent": "vtls004615329",
        "name": "charles osbourne",
        "dob": "blk",
        "age": "24",
        "place_of_birth": "gosport",
        "home_address": "blk",
        "f": "blk",
        "name_of_ship": "squadron",
        "ship_port": "beaumaris",
        "date_leaving": "1862-09",
        "joined_ship_date": "1862-10-05",
        "joined_at_port": "monte video",
        "capacity": "mate",
        "date_left": "1862-07-15",
        "left_port": "blk",
        "cause_of_leaving": "blk",
        "sign_with_mark": "n",
        "notes": "blk"
    },
    {
        "id": "vtls004615329_0_22",
        "type": "sailor",
        "parent": "vtls004615329",
        "name": "j konchin",
        "dob": "blk",
        "age": "26",
        "place_of_birth": "antwerp",
        "home_address": "blk",
        "f": "blk",
        "name_of_ship": "grantoq",
        "ship_port": "blk",
        "date_leaving": "1863-05-13",
        "joined_ship_date": "1862-06-05",
        "joined_at_port": "st. helena",
        "capacity": "carpenter",
        "date_left": "1862-05-30",
        "left_port": "blk",
        "cause_of_leaving": "blk",
        "sign_with_mark": "blk",
        "notes": "blk"
    },
    {
        "id": "vtls004615480_1_11",
        "type": "sailor",
        "parent": "vtls004615480",
        "name": "david d davies",
        "dob": "blk",
        "age": "31",
        "place_of_birth": "newquay",
        "home_address": "newquay",
        "f": "newquay",
        "name_of_ship": "truant",
        "ship_port": "aberystwyth",
        "date_leaving": "1863-08-07",
        "joined_ship_date": "1863-09-17",
        "joined_at_port": "london",
        "capacity": "master",
        "date_left": "1866-07-26",
        "left_port": "mauritius",
        "cause_of_leaving": "ship sold\/ discharged",
        "sign_with_mark": "n",
        "notes": "master number 16224"
    },
    {
        "id": "vtls004615480_0_20",
        "type": "sailor",
        "parent": "vtls004615480",
        "name": "joaos theodoro petta",
        "dob": "blk",
        "age": "16",
        "place_of_birth": "madeira",
        "home_address": "blk",
        "f": "blk",
        "name_of_ship": "levant",
        "ship_port": "aberystwyth",
        "date_leaving": "1863-08-27",
        "joined_ship_date": "1863-10-24",
        "joined_at_port": "london",
        "capacity": "boy",
        "date_left": "1866-04-14",
        "left_port": "outboard el-hikyah",
        "cause_of_leaving": "died",
        "sign_with_mark": "n",
        "notes": "died of cholera"
    },
    {
        "id": "vtls004615480_1_12",
        "type": "sailor",
        "parent": "vtls004615480",
        "name": "george harrison",
        "dob": "blk",
        "age": "48",
        "place_of_birth": "jamaica",
        "home_address": "blk",
        "f": "blk",
        "name_of_ship": "truant",
        "ship_port": "aberystwyth",
        "date_leaving": "1863-08-07",
        "joined_ship_date": "1863-10-20",
        "joined_at_port": "london",
        "capacity": "mate",
        "date_left": "1866-07-26",
        "left_port": "mauritius",
        "cause_of_leaving": "discharged",
        "sign_with_mark": "n",
        "notes": "mate number 64492"
    },
    {
        "id": "vtls004615480_0_17",
        "type": "sailor",
        "parent": "vtls004615480",
        "name": "carly johnson",
        "dob": "blk",
        "age": "26",
        "place_of_birth": "sweden",
        "home_address": "blk",
        "f": "blk",
        "name_of_ship": "norwegian vessel",
        "ship_port": "blk",
        "date_leaving": "1863-07-24",
        "joined_ship_date": "1863-10-24",
        "joined_at_port": "london",
        "capacity": "able seaman",
        "date_left": "never joined",
        "left_port": "never joined",
        "cause_of_leaving": "never joined",
        "sign_with_mark": "n",
        "notes": "blk"
    },
    {
        "id": "vtls004615480_1_13",
        "type": "sailor",
        "parent": "vtls004615480",
        "name": "g h knox",
        "dob": "blk",
        "age": "20",
        "place_of_birth": "edinburgh",
        "home_address": "blk",
        "f": "blk",
        "name_of_ship": "venilia",
        "ship_port": "london",
        "date_leaving": "1862-09-27",
        "joined_ship_date": "1863-10-24",
        "joined_at_port": "london",
        "capacity": "2nd mate",
        "date_left": "1863-11-26",
        "left_port": "plymouth",
        "cause_of_leaving": "discharged",
        "sign_with_mark": "n",
        "notes": "mate number 26913"
    },
    {
        "id": "vtls004615480_0_15",
        "type": "sailor",
        "parent": "vtls004615480",
        "name": "william fusyard",
        "dob": "blk",
        "age": "25",
        "place_of_birth": "jersey",
        "home_address": "blk",
        "f": "blk",
        "name_of_ship": "flying cloud",
        "ship_port": "jersey",
        "date_leaving": "1863-10-26",
        "joined_ship_date": "1863-10-27",
        "joined_at_port": "london",
        "capacity": "cook & steward",
        "date_left": "1864-09-10",
        "left_port": "bombay",
        "cause_of_leaving": "discharged",
        "sign_with_mark": "n",
        "notes": "blk"
    },
    {
        "id": "vtls004615480_0_19",
        "type": "sailor",
        "parent": "vtls004615480",
        "name": "george sommer",
        "dob": "blk",
        "age": "23",
        "place_of_birth": "hamburg",
        "home_address": "blk",
        "f": "blk",
        "name_of_ship": "elizabeth",
        "ship_port": "st johns",
        "date_leaving": "1863-10-19",
        "joined_ship_date": "1863-10-24",
        "joined_at_port": "london",
        "capacity": "able seaman",
        "date_left": "never joined",
        "left_port": "never joined",
        "cause_of_leaving": "never joined",
        "sign_with_mark": "y",
        "notes": "blk"
    },
    {
        "id": "vtls004615480_0_18",
        "type": "sailor",
        "parent": "vtls004615480",
        "name": "charly alander",
        "dob": "blk",
        "age": "23",
        "place_of_birth": "sweden",
        "home_address": "blk",
        "f": "blk",
        "name_of_ship": "norwegian vessel",
        "ship_port": "blk",
        "date_leaving": "1863-07-24",
        "joined_ship_date": "1863-10-24",
        "joined_at_port": "london",
        "capacity": "able seaman",
        "date_left": "1864-09-10",
        "left_port": "bombay",
        "cause_of_leaving": "discharged",
        "sign_with_mark": "n",
        "notes": "blk"
    },
    {
        "id": "vtls004615480_0_16",
        "type": "sailor",
        "parent": "vtls004615480",
        "name": "harry sarson",
        "dob": "blk",
        "age": "25",
        "place_of_birth": "sweden",
        "home_address": "blk",
        "f": "blk",
        "name_of_ship": "norwegian vessel",
        "ship_port": "blk",
        "date_leaving": "1863-07-24",
        "joined_ship_date": "1863-10-24",
        "joined_at_port": "london",
        "capacity": "able seaman",
        "date_left": "1864-09-10",
        "left_port": "bombay",
        "cause_of_leaving": "discharged",
        "sign_with_mark": "n",
        "notes": "blk"
    },
    {
        "id": "vtls004615480_0_14",
        "type": "sailor",
        "parent": "vtls004615480",
        "name": "alingo prera",
        "dob": "blk",
        "age": "30",
        "place_of_birth": "brazil",
        "home_address": "blk",
        "f": "blk",
        "name_of_ship": "macduff",
        "ship_port": "banff",
        "date_leaving": "1863-04-24",
        "joined_ship_date": "1863-10-24",
        "joined_at_port": "london",
        "capacity": "carpenter",
        "date_left": "1865-03-15",
        "left_port": "dillying",
        "cause_of_leaving": "sent to jail",
        "sign_with_mark": "n",
        "notes": "blk"
    },
    {
        "id": "vtls004615480_1_15",
        "type": "sailor",
        "parent": "vtls004615480",
        "name": "william fusyard",
        "dob": "blk",
        "age": "25",
        "place_of_birth": "jersey",
        "home_address": "blk",
        "f": "blk",
        "name_of_ship": "flying cloud",
        "ship_port": "jersey",
        "date_leaving": "1863-10-28",
        "joined_ship_date": "1863-10-27",
        "joined_at_port": "london",
        "capacity": "cook & steward",
        "date_left": "1864-09-07",
        "left_port": "bombay",
        "cause_of_leaving": "discharged",
        "sign_with_mark": "n",
        "notes": "abiguity in dates on the 1863-10-28 left the flying cloud  in aberdeen . 1863-10-27 joined  anne jenkins in london"
    },
    {
        "id": "vtls004615480_1_19",
        "type": "sailor",
        "parent": "vtls004615480",
        "name": "george sommer",
        "dob": "blk",
        "age": "23",
        "place_of_birth": "hamburg",
        "home_address": "blk",
        "f": "blk",
        "name_of_ship": "elizabeth",
        "ship_port": "liverpool",
        "date_leaving": "1863-10-19",
        "joined_ship_date": "1863-10-24",
        "joined_at_port": "london",
        "capacity": "able seaman",
        "date_left": "never joined",
        "left_port": "never joined",
        "cause_of_leaving": "never joined",
        "sign_with_mark": "n",
        "notes": "blk"
    },
    {
        "id": "vtls004615480_1_17",
        "type": "sailor",
        "parent": "vtls004615480",
        "name": "carly johnson",
        "dob": "blk",
        "age": "26",
        "place_of_birth": "sweden",
        "home_address": "blk",
        "f": "blk",
        "name_of_ship": "norwegian ship",
        "ship_port": "blk",
        "date_leaving": "1863-07-24",
        "joined_ship_date": "1863-10-24",
        "joined_at_port": "london",
        "capacity": "able seaman",
        "date_left": "1865-12-11",
        "left_port": "colombo, sri lanka",
        "cause_of_leaving": "discharged",
        "sign_with_mark": "n",
        "notes": "blk"
    },
    {
        "id": "vtls004615480_1_18",
        "type": "sailor",
        "parent": "vtls004615480",
        "name": "charley alander",
        "dob": "blk",
        "age": "23",
        "place_of_birth": "sweden",
        "home_address": "blk",
        "f": "blk",
        "name_of_ship": "norwegian ship",
        "ship_port": "blk",
        "date_leaving": "1863-10-16",
        "joined_ship_date": "1863-10-24",
        "joined_at_port": "london",
        "capacity": "able seaman",
        "date_left": "1864-09-13",
        "left_port": "bombay",
        "cause_of_leaving": "discharged",
        "sign_with_mark": "n",
        "notes": "blk"
    },
    {
        "id": "vtls004615480_1_20",
        "type": "sailor",
        "parent": "vtls004615480",
        "name": "joaos theodoro petta",
        "dob": "blk",
        "age": "16",
        "place_of_birth": "madeira",
        "home_address": "blk",
        "f": "blk",
        "name_of_ship": "levant",
        "ship_port": "aberystwyth",
        "date_leaving": "1863-08-07",
        "joined_ship_date": "1863-10-24",
        "joined_at_port": "london",
        "capacity": "boy",
        "date_left": "1866-04-14",
        "left_port": "akyab",
        "cause_of_leaving": "discharged",
        "sign_with_mark": "n",
        "notes": "blk"
    },
    {
        "id": "vtls004615480_1_21",
        "type": "sailor",
        "parent": "vtls004615480",
        "name": "gustav johnson",
        "dob": "blk",
        "age": "29",
        "place_of_birth": "norway",
        "home_address": "blk",
        "f": "blk",
        "name_of_ship": "norwegian ship",
        "ship_port": "blk",
        "date_leaving": "1863-10-24",
        "joined_ship_date": "1863-10-27",
        "joined_at_port": "london",
        "capacity": "able seaman",
        "date_left": "1866-04-12",
        "left_port": "akyab",
        "cause_of_leaving": "discharged",
        "sign_with_mark": "n",
        "notes": "blk"
    },
    {
        "id": "vtls004615480_1_16",
        "type": "sailor",
        "parent": "vtls004615480",
        "name": "henry larson",
        "dob": "blk",
        "age": "25",
        "place_of_birth": "sweden",
        "home_address": "blk",
        "f": "blk",
        "name_of_ship": "norwegian ship",
        "ship_port": "blk",
        "date_leaving": "1863-07-24",
        "joined_ship_date": "1863-10-24",
        "joined_at_port": "london",
        "capacity": "able seaman",
        "date_left": "1864-09-13",
        "left_port": "bombay",
        "cause_of_leaving": "discharged",
        "sign_with_mark": "n",
        "notes": "blk"
    },
    {
        "id": "vtls004615480_1_22",
        "type": "sailor",
        "parent": "vtls004615480",
        "name": "john sobet",
        "dob": "blk",
        "age": "37",
        "place_of_birth": "france",
        "home_address": "blk",
        "f": "blk",
        "name_of_ship": "selisia",
        "ship_port": "london",
        "date_leaving": "1863-11-26",
        "joined_ship_date": "1863-?-26",
        "joined_at_port": "plymouth",
        "capacity": "able seaman",
        "date_left": "1864-06-15",
        "left_port": "bombay",
        "cause_of_leaving": "discharged",
        "sign_with_mark": "n",
        "notes": "blk"
    },
    {
        "id": "vtls004615480_1_14",
        "type": "sailor",
        "parent": "vtls004615480",
        "name": "alingo prera",
        "dob": "blk",
        "age": "30",
        "place_of_birth": "brazil",
        "home_address": "blk",
        "f": "blk",
        "name_of_ship": "macduff",
        "ship_port": "banff",
        "date_leaving": "1863-04-24",
        "joined_ship_date": "1863-10-24",
        "joined_at_port": "london",
        "capacity": "carpenter",
        "date_left": "1865-03-25",
        "left_port": "colombo, sri lanka",
        "cause_of_leaving": "discharged",
        "sign_with_mark": "n",
        "notes": "blk"
    },
    {
        "id": "vtls004615480_1_26",
        "type": "sailor",
        "parent": "vtls004615480",
        "name": "john campbell",
        "dob": "blk",
        "age": "blk",
        "place_of_birth": "blk",
        "home_address": "blk",
        "f": "blk",
        "name_of_ship": "blk",
        "ship_port": "blk",
        "date_leaving": "blk",
        "joined_ship_date": "1864-11-15",
        "joined_at_port": "chittagong",
        "capacity": "able seaman",
        "date_left": "1865-05-17",
        "left_port": "colombo, sri lanka",
        "cause_of_leaving": "discharged",
        "sign_with_mark": "n",
        "notes": "chittagong now in bangladesh"
    },
    {
        "id": "vtls004615480_1_23",
        "type": "sailor",
        "parent": "vtls004615480",
        "name": "john watter",
        "dob": "blk",
        "age": "blk",
        "place_of_birth": "blk",
        "home_address": "blk",
        "f": "blk",
        "name_of_ship": "blk",
        "ship_port": "blk",
        "date_leaving": "blk",
        "joined_ship_date": "1864-09-03",
        "joined_at_port": "bombay",
        "capacity": "able seaman",
        "date_left": "1864-11-13",
        "left_port": "kurrachee",
        "cause_of_leaving": "discharged",
        "sign_with_mark": "n",
        "notes": "kurrachee now karachi pakistan"
    },
    {
        "id": "vtls004615480_1_24",
        "type": "sailor",
        "parent": "vtls004615480",
        "name": "william whetton",
        "dob": "blk",
        "age": "blk",
        "place_of_birth": "blk",
        "home_address": "blk",
        "f": "blk",
        "name_of_ship": "blk",
        "ship_port": "blk",
        "date_leaving": "blk",
        "joined_ship_date": "1864-09-14",
        "joined_at_port": "bombay",
        "capacity": "able seaman",
        "date_left": "1864-11-24",
        "left_port": "kurrachee",
        "cause_of_leaving": "discharged",
        "sign_with_mark": "n",
        "notes": "blk"
    },
    {
        "id": "vtls004615480_1_28",
        "type": "sailor",
        "parent": "vtls004615480",
        "name": "andrew marten",
        "dob": "blk",
        "age": "blk",
        "place_of_birth": "blk",
        "home_address": "blk",
        "f": "blk",
        "name_of_ship": "blk",
        "ship_port": "blk",
        "date_leaving": "blk",
        "joined_ship_date": "1865-01-01",
        "joined_at_port": "chittagong",
        "capacity": "able seaman",
        "date_left": "1865-06-06",
        "left_port": "colombo, sri lanka",
        "cause_of_leaving": "discharged",
        "sign_with_mark": "n",
        "notes": "blk"
    },
    {
        "id": "vtls004615480_1_25",
        "type": "sailor",
        "parent": "vtls004615480",
        "name": "william biggor",
        "dob": "blk",
        "age": "blk",
        "place_of_birth": "blk",
        "home_address": "blk",
        "f": "blk",
        "name_of_ship": "blk",
        "ship_port": "blk",
        "date_leaving": "blk",
        "joined_ship_date": "1864-09-14",
        "joined_at_port": "bombay",
        "capacity": "able seaman",
        "date_left": "1864-11-24",
        "left_port": "kurrachee",
        "cause_of_leaving": "discharged",
        "sign_with_mark": "n",
        "notes": "blk"
    },
    {
        "id": "vtls004615480_1_29",
        "type": "sailor",
        "parent": "vtls004615480",
        "name": "james yart",
        "dob": "blk",
        "age": "blk",
        "place_of_birth": "blk",
        "home_address": "blk",
        "f": "blk",
        "name_of_ship": "blk",
        "ship_port": "blk",
        "date_leaving": "blk",
        "joined_ship_date": "1865-09-11",
        "joined_at_port": "chittagong",
        "capacity": "able seaman",
        "date_left": "1865-12-11",
        "left_port": "colombo, sri lanka",
        "cause_of_leaving": "discharged",
        "sign_with_mark": "n",
        "notes": "blk"
    },
    {
        "id": "vtls004615480_1_30",
        "type": "sailor",
        "parent": "vtls004615480",
        "name": "joseph denastor",
        "dob": "blk",
        "age": "blk",
        "place_of_birth": "blk",
        "home_address": "blk",
        "f": "blk",
        "name_of_ship": "blk",
        "ship_port": "blk",
        "date_leaving": "blk",
        "joined_ship_date": "1865-09-11",
        "joined_at_port": "chittagong",
        "capacity": "cook",
        "date_left": "1865-12-08",
        "left_port": "colombo, sri lanka",
        "cause_of_leaving": "discharged",
        "sign_with_mark": "n",
        "notes": "blk"
    },
    {
        "id": "vtls004615480_1_27",
        "type": "sailor",
        "parent": "vtls004615480",
        "name": "john beadle",
        "dob": "blk",
        "age": "blk",
        "place_of_birth": "blk",
        "home_address": "blk",
        "f": "blk",
        "name_of_ship": "blk",
        "ship_port": "blk",
        "date_leaving": "blk",
        "joined_ship_date": "1864-07-07",
        "joined_at_port": "bombay",
        "capacity": "cook",
        "date_left": "1865-05-24",
        "left_port": "colombo, sri lanka",
        "cause_of_leaving": "discharged",
        "sign_with_mark": "n",
        "notes": "blk"
    },
    {
        "id": "vtls004615480_2_13",
        "type": "sailor",
        "parent": "vtls004615480",
        "name": "gustav johnson",
        "dob": "blk",
        "age": "30",
        "place_of_birth": "norway",
        "home_address": "blk",
        "f": "blk",
        "name_of_ship": "anne jenkins",
        "ship_port": "aberystwyth",
        "date_leaving": "continued",
        "joined_ship_date": "1865-12-18",
        "joined_at_port": "colombo",
        "capacity": "able seaman",
        "date_left": "1866-04-12",
        "left_port": "akyah",
        "cause_of_leaving": "deceased",
        "sign_with_mark": "n",
        "notes": "died in hospital from cholera"
    },
    {
        "id": "vtls004615480_2_11",
        "type": "sailor",
        "parent": "vtls004615480",
        "name": "david d davies",
        "dob": "blk",
        "age": "31",
        "place_of_birth": "newquay",
        "home_address": "new quay",
        "f": "new quay",
        "name_of_ship": "anne jenkins",
        "ship_port": "aberystwyth",
        "date_leaving": "continued",
        "joined_ship_date": "continued",
        "joined_at_port": "continued",
        "capacity": "master",
        "date_left": "1866-11-20",
        "left_port": "port louis",
        "cause_of_leaving": "discharged",
        "sign_with_mark": "n",
        "notes": "blk"
    },
    {
        "id": "vtls004615480_2_12",
        "type": "sailor",
        "parent": "vtls004615480",
        "name": "george harrison",
        "dob": "blk",
        "age": "50",
        "place_of_birth": "jamaica",
        "home_address": "blk",
        "f": "blk",
        "name_of_ship": "anne jenkins",
        "ship_port": "aberystwyth",
        "date_leaving": "continued",
        "joined_ship_date": "1865-12-18",
        "joined_at_port": "colombo",
        "capacity": "mate",
        "date_left": "1866-12-04",
        "left_port": "port louis",
        "cause_of_leaving": "discharged",
        "sign_with_mark": "n",
        "notes": "blk"
    },
    {
        "id": "vtls004615480_1_33",
        "type": "sailor",
        "parent": "vtls004615480",
        "name": "andrew frederick",
        "dob": "blk",
        "age": "blk",
        "place_of_birth": "blk",
        "home_address": "blk",
        "f": "blk",
        "name_of_ship": "blk",
        "ship_port": "blk",
        "date_leaving": "blk",
        "joined_ship_date": "1865-12-08",
        "joined_at_port": "colombo",
        "capacity": "able seaman",
        "date_left": "1866-07-30",
        "left_port": "port louis, maritius",
        "cause_of_leaving": "discharged",
        "sign_with_mark": "n",
        "notes": "blk"
    },
    {
        "id": "vtls004615480_1_34",
        "type": "sailor",
        "parent": "vtls004615480",
        "name": "william carlson",
        "dob": "blk",
        "age": "blk",
        "place_of_birth": "blk",
        "home_address": "blk",
        "f": "blk",
        "name_of_ship": "blk",
        "ship_port": "blk",
        "date_leaving": "blk",
        "joined_ship_date": "1865-05-14",
        "joined_at_port": "bombay",
        "capacity": "able seaman",
        "date_left": "1866-07-29",
        "left_port": "port louis, maritius",
        "cause_of_leaving": "discharged",
        "sign_with_mark": "n",
        "notes": "blk"
    },
    {
        "id": "vtls004615480_1_35",
        "type": "sailor",
        "parent": "vtls004615480",
        "name": "william wilson",
        "dob": "blk",
        "age": "blk",
        "place_of_birth": "blk",
        "home_address": "blk",
        "f": "blk",
        "name_of_ship": "blk",
        "ship_port": "blk",
        "date_leaving": "blk",
        "joined_ship_date": "1865-12-14",
        "joined_at_port": "colombo",
        "capacity": "able seaman",
        "date_left": "1866-07-26",
        "left_port": "port louis, maritius",
        "cause_of_leaving": "discharged",
        "sign_with_mark": "n",
        "notes": "blk"
    },
    {
        "id": "vtls004615480_1_37",
        "type": "sailor",
        "parent": "vtls004615480",
        "name": "charles bennet",
        "dob": "blk",
        "age": "blk",
        "place_of_birth": "blk",
        "home_address": "blk",
        "f": "blk",
        "name_of_ship": "blk",
        "ship_port": "blk",
        "date_leaving": "blk",
        "joined_ship_date": "1866-05-14",
        "joined_at_port": "achyahab",
        "capacity": "able seaman",
        "date_left": "1866-07-22",
        "left_port": "port louis, maritius",
        "cause_of_leaving": "discharged",
        "sign_with_mark": "n",
        "notes": "blk"
    },
    {
        "id": "vtls004615480_1_36",
        "type": "sailor",
        "parent": "vtls004615480",
        "name": "samuel evans",
        "dob": "blk",
        "age": "blk",
        "place_of_birth": "blk",
        "home_address": "blk",
        "f": "blk",
        "name_of_ship": "blk",
        "ship_port": "blk",
        "date_leaving": "blk",
        "joined_ship_date": "1865-11-27",
        "joined_at_port": "colombo",
        "capacity": "able seaman",
        "date_left": "1866-07-30",
        "left_port": "port louis, maritius",
        "cause_of_leaving": "discharged",
        "sign_with_mark": "n",
        "notes": "blk"
    },
    {
        "id": "vtls004615480_1_31",
        "type": "sailor",
        "parent": "vtls004615480",
        "name": "samuel carnills",
        "dob": "blk",
        "age": "blk",
        "place_of_birth": "blk",
        "home_address": "blk",
        "f": "blk",
        "name_of_ship": "blk",
        "ship_port": "blk",
        "date_leaving": "blk",
        "joined_ship_date": "1865-09-25",
        "joined_at_port": "chittagong",
        "capacity": "able seaman",
        "date_left": "1865-12-12",
        "left_port": "colombo, sri lanka",
        "cause_of_leaving": "discharged",
        "sign_with_mark": "n",
        "notes": "blk"
    },
    {
        "id": "vtls004615480_1_32",
        "type": "sailor",
        "parent": "vtls004615480",
        "name": "william broms",
        "dob": "blk",
        "age": "blk",
        "place_of_birth": "blk",
        "home_address": "blk",
        "f": "blk",
        "name_of_ship": "blk",
        "ship_port": "blk",
        "date_leaving": "blk",
        "joined_ship_date": "1865-09-25",
        "joined_at_port": "chittagong",
        "capacity": "able seaman",
        "date_left": "1865-12-10",
        "left_port": "colombo, sri lanka",
        "cause_of_leaving": "discharged",
        "sign_with_mark": "n",
        "notes": "blk"
    },
    {
        "id": "vtls004615480_2_14",
        "type": "sailor",
        "parent": "vtls004615480",
        "name": "matthew wilson",
        "dob": "blk",
        "age": "27",
        "place_of_birth": "sweden",
        "home_address": "blk",
        "f": "blk",
        "name_of_ship": "anne jenkins",
        "ship_port": "aberystwyth",
        "date_leaving": "continued",
        "joined_ship_date": "1865-12-18",
        "joined_at_port": "colombo",
        "capacity": "able seaman",
        "date_left": "1866-07-30",
        "left_port": "port louis",
        "cause_of_leaving": "discharged",
        "sign_with_mark": "n",
        "notes": "blk"
    },
    {
        "id": "vtls004615480_2_18",
        "type": "sailor",
        "parent": "vtls004615480",
        "name": "j e drew",
        "dob": "blk",
        "age": "21",
        "place_of_birth": "aberystwyth",
        "home_address": "blk",
        "f": "blk",
        "name_of_ship": "anne jenkins",
        "ship_port": "aberystwyth",
        "date_leaving": "continued",
        "joined_ship_date": "continued",
        "joined_at_port": "continued",
        "capacity": "able seaman",
        "date_left": "1866-08-01",
        "left_port": "port louis",
        "cause_of_leaving": "discharged",
        "sign_with_mark": "n",
        "notes": "blk"
    },
    {
        "id": "vtls004615480_2_17",
        "type": "sailor",
        "parent": "vtls004615480",
        "name": "samuel evans",
        "dob": "blk",
        "age": "22",
        "place_of_birth": "cardigan",
        "home_address": "blk",
        "f": "blk",
        "name_of_ship": "mary & may",
        "ship_port": "lancaster",
        "date_leaving": "blk",
        "joined_ship_date": "1865-11-05",
        "joined_at_port": "colombo",
        "capacity": "ordinary seaman",
        "date_left": "1866-07-30",
        "left_port": "port louis",
        "cause_of_leaving": "discharged",
        "sign_with_mark": "n",
        "notes": "blk"
    },
    {
        "id": "vtls004615480_2_21",
        "type": "sailor",
        "parent": "vtls004615480",
        "name": "daniel carter",
        "dob": "blk",
        "age": "29",
        "place_of_birth": "ireland",
        "home_address": "blk",
        "f": "blk",
        "name_of_ship": "discharged",
        "ship_port": "discharged",
        "date_leaving": "discharged",
        "joined_ship_date": "discharged",
        "joined_at_port": "discharged",
        "capacity": "able seaman",
        "date_left": "never joined",
        "left_port": "never joined",
        "cause_of_leaving": "never joined",
        "sign_with_mark": "n",
        "notes": "blk"
    },
    {
        "id": "vtls004615480_2_16",
        "type": "sailor",
        "parent": "vtls004615480",
        "name": "andrew frederick",
        "dob": "blk",
        "age": "31",
        "place_of_birth": "sweden",
        "home_address": "blk",
        "f": "blk",
        "name_of_ship": "jerusalem",
        "ship_port": "blk",
        "date_leaving": "blk",
        "joined_ship_date": "1865-06-22",
        "joined_at_port": "calcutta",
        "capacity": "ordinary seaman",
        "date_left": "1866-07-19",
        "left_port": "port louis",
        "cause_of_leaving": "discharged",
        "sign_with_mark": "n",
        "notes": "blk"
    },
    {
        "id": "vtls004615480_2_19",
        "type": "sailor",
        "parent": "vtls004615480",
        "name": "j pitts",
        "dob": "blk",
        "age": "18",
        "place_of_birth": "madiena",
        "home_address": "blk",
        "f": "blk",
        "name_of_ship": "anne jenkins",
        "ship_port": "aberystwyth",
        "date_leaving": "continued",
        "joined_ship_date": "continued",
        "joined_at_port": "continued",
        "capacity": "boy",
        "date_left": "1866-04-14",
        "left_port": "al akyahe",
        "cause_of_leaving": "over board died",
        "sign_with_mark": "n",
        "notes": "blk"
    },
    {
        "id": "vtls004615480_2_15",
        "type": "sailor",
        "parent": "vtls004615480",
        "name": "olaf olsen",
        "dob": "blk",
        "age": "27",
        "place_of_birth": "sweden",
        "home_address": "blk",
        "f": "blk",
        "name_of_ship": "[agenoria]",
        "ship_port": "aberystwyth",
        "date_leaving": "blk",
        "joined_ship_date": "1865-11-24",
        "joined_at_port": "colombo",
        "capacity": "able seaman",
        "date_left": "1866-07-30",
        "left_port": "port louis",
        "cause_of_leaving": "discharged",
        "sign_with_mark": "n",
        "notes": "blk"
    },
    {
        "id": "vtls004615480_2_20",
        "type": "sailor",
        "parent": "vtls004615480",
        "name": "william godwin",
        "dob": "blk",
        "age": "35",
        "place_of_birth": "liverpool",
        "home_address": "blk",
        "f": "blk",
        "name_of_ship": "mogul",
        "ship_port": "blk",
        "date_leaving": "blk",
        "joined_ship_date": "1865-12-18",
        "joined_at_port": "colombo",
        "capacity": "cook & steward",
        "date_left": "1866-08-20",
        "left_port": "port louis",
        "cause_of_leaving": "discharged",
        "sign_with_mark": "n",
        "notes": "blk"
    },
    {
        "id": "vtls004615480_2_22",
        "type": "sailor",
        "parent": "vtls004615480",
        "name": "carl feogar",
        "dob": "blk",
        "age": "29",
        "place_of_birth": "germany",
        "home_address": "blk",
        "f": "blk",
        "name_of_ship": "sixpence",
        "ship_port": "ipswich",
        "date_leaving": "blk",
        "joined_ship_date": "1866-05-08",
        "joined_at_port": "al akyahe",
        "capacity": "able seaman",
        "date_left": "1866-07-16",
        "left_port": "port louis",
        "cause_of_leaving": "discharged",
        "sign_with_mark": "n",
        "notes": "blk"
    },
    {
        "id": "vtls004615480_2_23",
        "type": "sailor",
        "parent": "vtls004615480",
        "name": "william barker",
        "dob": "blk",
        "age": "24",
        "place_of_birth": "hampshire",
        "home_address": "blk",
        "f": "blk",
        "name_of_ship": "sixpence",
        "ship_port": "ipswich",
        "date_leaving": "blk",
        "joined_ship_date": "1866-05-08",
        "joined_at_port": "al akyahe",
        "capacity": "able seaman",
        "date_left": "1866-07-16",
        "left_port": "port louis",
        "cause_of_leaving": "discharged",
        "sign_with_mark": "n",
        "notes": "blk"
    },
    {
        "id": "vtls004615480_2_24",
        "type": "sailor",
        "parent": "vtls004615480",
        "name": "john sobert",
        "dob": "blk",
        "age": "37",
        "place_of_birth": "france",
        "home_address": "blk",
        "f": "blk",
        "name_of_ship": "[selisia]",
        "ship_port": "blk",
        "date_leaving": "blk",
        "joined_ship_date": "1863-09-20",
        "joined_at_port": "london",
        "capacity": "able seaman",
        "date_left": "1864-06-15",
        "left_port": "bombay",
        "cause_of_leaving": "decision mutual",
        "sign_with_mark": "n",
        "notes": "blk"
    }
]