[
    {
        "id": "vtls004916684_0_14",
        "type": "sailor",
        "parent": "vtls004916684",
        "name": "nicholas johnson",
        "dob": "blk",
        "age": "37",
        "place_of_birth": "schlierien",
        "home_address": "blk",
        "f": "blk",
        "name_of_ship": "[nolarn]",
        "ship_port": "port madoc",
        "date_leaving": "1872-03-01",
        "joined_ship_date": "1872-05-14",
        "joined_at_port": "bangor",
        "capacity": "mate",
        "date_left": "blk",
        "left_port": "blk",
        "cause_of_leaving": "remains on board",
        "sign_with_mark": "n",
        "notes": "blk"
    },
    {
        "id": "vtls004916684_1_12",
        "type": "sailor",
        "parent": "vtls004916684",
        "name": "owen davies",
        "dob": "blk",
        "age": "25",
        "place_of_birth": "bangor",
        "home_address": "blk",
        "f": "blk",
        "name_of_ship": "maid of meirion",
        "ship_port": "aberystwyth",
        "date_leaving": "blk",
        "joined_ship_date": "1873-07-06",
        "joined_at_port": "newry",
        "capacity": "mate",
        "date_left": "1873-11-16",
        "left_port": "glasgow",
        "cause_of_leaving": "discharged",
        "sign_with_mark": "n",
        "notes": "blk"
    },
    {
        "id": "vtls004916684_1_11",
        "type": "sailor",
        "parent": "vtls004916684",
        "name": "david hughes",
        "dob": "blk",
        "age": "45",
        "place_of_birth": "borth",
        "home_address": "borth",
        "f": "borth",
        "name_of_ship": "maid of meirion",
        "ship_port": "aberystwyth",
        "date_leaving": "blk",
        "joined_ship_date": "1873-07-06",
        "joined_at_port": "newry",
        "capacity": "master",
        "date_left": "blk",
        "left_port": "blk",
        "cause_of_leaving": "remains on board",
        "sign_with_mark": "n",
        "notes": "blk"
    },
    {
        "id": "vtls004916684_0_13",
        "type": "sailor",
        "parent": "vtls004916684",
        "name": "robert harris",
        "dob": "blk",
        "age": "21",
        "place_of_birth": "worcester",
        "home_address": "blk",
        "f": "blk",
        "name_of_ship": "first ship",
        "ship_port": "blk",
        "date_leaving": "blk",
        "joined_ship_date": "1872-02-11",
        "joined_at_port": "abersoch",
        "capacity": "ordinary seaman",
        "date_left": "1872-04-10",
        "left_port": "bangor",
        "cause_of_leaving": "discharged",
        "sign_with_mark": "n",
        "notes": "blk"
    },
    {
        "id": "vtls004916684_0_16",
        "type": "sailor",
        "parent": "vtls004916684",
        "name": "john hughes",
        "dob": "blk",
        "age": "17",
        "place_of_birth": "borth",
        "home_address": "blk",
        "f": "blk",
        "name_of_ship": "[coriah]",
        "ship_port": "blk",
        "date_leaving": "1872-03-15",
        "joined_ship_date": "1872-05-27",
        "joined_at_port": "bangor",
        "capacity": "ordinary seaman",
        "date_left": "blk",
        "left_port": "blk",
        "cause_of_leaving": "remains on board",
        "sign_with_mark": "n",
        "notes": "blk"
    },
    {
        "id": "vtls004916684_0_11",
        "type": "sailor",
        "parent": "vtls004916684",
        "name": "david hughes",
        "dob": "blk",
        "age": "46",
        "place_of_birth": "borth",
        "home_address": "borth",
        "f": "borth",
        "name_of_ship": "maid of meirion",
        "ship_port": "aberystwyth",
        "date_leaving": "blk",
        "joined_ship_date": "blk",
        "joined_at_port": "blk",
        "capacity": "master",
        "date_left": "blk",
        "left_port": "blk",
        "cause_of_leaving": "remains on board",
        "sign_with_mark": "n",
        "notes": "blk"
    },
    {
        "id": "vtls004916684_0_12",
        "type": "sailor",
        "parent": "vtls004916684",
        "name": "thomas davies",
        "dob": "blk",
        "age": "50",
        "place_of_birth": "borth",
        "home_address": "blk",
        "f": "blk",
        "name_of_ship": "edith",
        "ship_port": "blk",
        "date_leaving": "1872-08",
        "joined_ship_date": "1872-02-11",
        "joined_at_port": "abersoch",
        "capacity": "mate",
        "date_left": "1872-04-10",
        "left_port": "bangor",
        "cause_of_leaving": "discharged",
        "sign_with_mark": "n",
        "notes": "blk"
    },
    {
        "id": "vtls004916684_0_15",
        "type": "sailor",
        "parent": "vtls004916684",
        "name": "david hughes",
        "dob": "blk",
        "age": "12",
        "place_of_birth": "borth",
        "home_address": "blk",
        "f": "blk",
        "name_of_ship": "first ship",
        "ship_port": "blk",
        "date_leaving": "blk",
        "joined_ship_date": "1872-02-11",
        "joined_at_port": "abersoch",
        "capacity": "boy",
        "date_left": "blk",
        "left_port": "blk",
        "cause_of_leaving": "remains on board",
        "sign_with_mark": "n",
        "notes": "blk"
    },
    {
        "id": "vtls004916684_1_13",
        "type": "sailor",
        "parent": "vtls004916684",
        "name": "john hughes",
        "dob": "blk",
        "age": "18",
        "place_of_birth": "borth",
        "home_address": "blk",
        "f": "blk",
        "name_of_ship": "maid of meirion",
        "ship_port": "aberystwyth",
        "date_leaving": "blk",
        "joined_ship_date": "1873-07-06",
        "joined_at_port": "newry",
        "capacity": "able seaman",
        "date_left": "blk",
        "left_port": "blk",
        "cause_of_leaving": "remains on board",
        "sign_with_mark": "n",
        "notes": "blk"
    },
    {
        "id": "vtls004916684_1_14",
        "type": "sailor",
        "parent": "vtls004916684",
        "name": "price lloyd",
        "dob": "blk",
        "age": "33",
        "place_of_birth": "aberystwyth",
        "home_address": "blk",
        "f": "blk",
        "name_of_ship": "arethusa",
        "ship_port": "caernarvon",
        "date_leaving": "1873-11-14",
        "joined_ship_date": "1873-11-17",
        "joined_at_port": "glasgow",
        "capacity": "mate",
        "date_left": "blk",
        "left_port": "blk",
        "cause_of_leaving": "remains on board",
        "sign_with_mark": "n",
        "notes": "blk"
    }
]