[
    {
        "id": "vtls004696318_0_15",
        "type": "sailor",
        "parent": "vtls004696318",
        "name": "stephen lewis",
        "dob": "blk",
        "age": "17",
        "place_of_birth": "fishguard",
        "home_address": "blk",
        "f": "blk",
        "name_of_ship": "sarah",
        "ship_port": "swansea",
        "date_leaving": "1863-10-07",
        "joined_ship_date": "1863-02-07",
        "joined_at_port": "cardiff",
        "capacity": "ordinary seaman",
        "date_left": "1863-06-01",
        "left_port": "falmouth",
        "cause_of_leaving": "discharged",
        "sign_with_mark": "n",
        "notes": "blk"
    },
    {
        "id": "vtls004696318_1_11",
        "type": "sailor",
        "parent": "vtls004696318",
        "name": "william richards",
        "dob": "blk",
        "age": "52",
        "place_of_birth": "st dogmaels",
        "home_address": "blk",
        "f": "blk",
        "name_of_ship": "keldhead",
        "ship_port": "aberystwyth",
        "date_leaving": "1863-07-11",
        "joined_ship_date": "1863-07-13",
        "joined_at_port": "charlestown",
        "capacity": "master",
        "date_left": "blk",
        "left_port": "blk",
        "cause_of_leaving": "remains on board",
        "sign_with_mark": "n",
        "notes": "blk"
    },
    {
        "id": "vtls004696318_0_14",
        "type": "sailor",
        "parent": "vtls004696318",
        "name": "thomas evans",
        "dob": "blk",
        "age": "25",
        "place_of_birth": "cardigan",
        "home_address": "blk",
        "f": "blk",
        "name_of_ship": "[catherine ann]",
        "ship_port": "blk",
        "date_leaving": "1863-02-09",
        "joined_ship_date": "1863-02-09",
        "joined_at_port": "cardiff",
        "capacity": "able seaman",
        "date_left": "1863-06-10",
        "left_port": "london",
        "cause_of_leaving": "discharged",
        "sign_with_mark": "n",
        "notes": "blk"
    },
    {
        "id": "vtls004696318_0_11",
        "type": "sailor",
        "parent": "vtls004696318",
        "name": "william richards",
        "dob": "blk",
        "age": "52",
        "place_of_birth": "st dogmaels",
        "home_address": "blk",
        "f": "blk",
        "name_of_ship": "keldhead",
        "ship_port": "aberystwyth",
        "date_leaving": "remained",
        "joined_ship_date": "1863-02-07",
        "joined_at_port": "cardiff",
        "capacity": "master",
        "date_left": "blk",
        "left_port": "blk",
        "cause_of_leaving": "remains on board",
        "sign_with_mark": "n",
        "notes": "blk"
    },
    {
        "id": "vtls004696318_0_13",
        "type": "sailor",
        "parent": "vtls004696318",
        "name": "john jones",
        "dob": "blk",
        "age": "17",
        "place_of_birth": "cardigan",
        "home_address": "blk",
        "f": "blk",
        "name_of_ship": "[catherine ann]",
        "ship_port": "blk",
        "date_leaving": "1863-02-09",
        "joined_ship_date": "1863-02-09",
        "joined_at_port": "cardiff",
        "capacity": "seaman",
        "date_left": "1863-06-10",
        "left_port": "london",
        "cause_of_leaving": "discharged",
        "sign_with_mark": "n",
        "notes": "blk"
    },
    {
        "id": "vtls004696318_0_12",
        "type": "sailor",
        "parent": "vtls004696318",
        "name": "evan davies",
        "dob": "blk",
        "age": "33",
        "place_of_birth": "newquay",
        "home_address": "blk",
        "f": "blk",
        "name_of_ship": "keldhead",
        "ship_port": "aberystwyth",
        "date_leaving": "remained",
        "joined_ship_date": "1863-02-07",
        "joined_at_port": "cardiff",
        "capacity": "mate",
        "date_left": "1863-06-10",
        "left_port": "london",
        "cause_of_leaving": "discharged",
        "sign_with_mark": "n",
        "notes": "blk"
    },
    {
        "id": "vtls004696318_1_14",
        "type": "sailor",
        "parent": "vtls004696318",
        "name": "charles hubut",
        "dob": "blk",
        "age": "18",
        "place_of_birth": "antwerp",
        "home_address": "blk",
        "f": "blk",
        "name_of_ship": "keldhead",
        "ship_port": "aberystwyth",
        "date_leaving": "1863-07-11",
        "joined_ship_date": "1863-07-13",
        "joined_at_port": "charlestown",
        "capacity": "ordinary seaman",
        "date_left": "1863-10-28",
        "left_port": "gloucestershire",
        "cause_of_leaving": "discharged",
        "sign_with_mark": "y",
        "notes": "blk"
    },
    {
        "id": "vtls004696318_1_17",
        "type": "sailor",
        "parent": "vtls004696318",
        "name": "stephen stride",
        "dob": "blk",
        "age": "19",
        "place_of_birth": "lymington",
        "home_address": "blk",
        "f": "blk",
        "name_of_ship": "agenoria",
        "ship_port": "st. ives",
        "date_leaving": "1863-07-17",
        "joined_ship_date": "1863-07-18",
        "joined_at_port": "falmouth",
        "capacity": "ordinary seaman",
        "date_left": "1863-10-28",
        "left_port": "gloucestershire",
        "cause_of_leaving": "discharged",
        "sign_with_mark": "n",
        "notes": "blk"
    },
    {
        "id": "vtls004696318_2_13",
        "type": "sailor",
        "parent": "vtls004696318",
        "name": "david evans",
        "dob": "blk",
        "age": "22",
        "place_of_birth": "cardigan",
        "home_address": "blk",
        "f": "blk",
        "name_of_ship": "stately",
        "ship_port": "sunderland",
        "date_leaving": "1863-10-27",
        "joined_ship_date": "1863-11-25",
        "joined_at_port": "newport",
        "capacity": "able seaman",
        "date_left": "1864-02-16",
        "left_port": "liverpool",
        "cause_of_leaving": "discharged",
        "sign_with_mark": "n",
        "notes": "blk"
    },
    {
        "id": "vtls004696318_2_14",
        "type": "sailor",
        "parent": "vtls004696318",
        "name": "evan davies",
        "dob": "blk",
        "age": "28",
        "place_of_birth": "newquay",
        "home_address": "blk",
        "f": "blk",
        "name_of_ship": "anne davies",
        "ship_port": "cardigan",
        "date_leaving": "1863-11-11",
        "joined_ship_date": "1863-11-25",
        "joined_at_port": "newport",
        "capacity": "able seaman",
        "date_left": "1864-02-16",
        "left_port": "liverpool",
        "cause_of_leaving": "discharged",
        "sign_with_mark": "n",
        "notes": "blk"
    },
    {
        "id": "vtls004696318_1_12",
        "type": "sailor",
        "parent": "vtls004696318",
        "name": "evan davies",
        "dob": "blk",
        "age": "33",
        "place_of_birth": "newquay",
        "home_address": "blk",
        "f": "blk",
        "name_of_ship": "keldhead",
        "ship_port": "aberystwyth",
        "date_leaving": "1863-07-11",
        "joined_ship_date": "1863-07-13",
        "joined_at_port": "charlestown",
        "capacity": "mate",
        "date_left": "1863-10-28",
        "left_port": "gloucestershire",
        "cause_of_leaving": "discharged",
        "sign_with_mark": "n",
        "notes": "blk"
    },
    {
        "id": "vtls004696318_1_16",
        "type": "sailor",
        "parent": "vtls004696318",
        "name": "william roach",
        "dob": "blk",
        "age": "23",
        "place_of_birth": "hull",
        "home_address": "blk",
        "f": "blk",
        "name_of_ship": "$$$ance",
        "ship_port": "bristol",
        "date_leaving": "1863-06-30",
        "joined_ship_date": "1863-07-18",
        "joined_at_port": "falmouth",
        "capacity": "able seaman",
        "date_left": "1863-10-28",
        "left_port": "gloucestershire",
        "cause_of_leaving": "discharged",
        "sign_with_mark": "y",
        "notes": "blk"
    },
    {
        "id": "vtls004696318_2_12",
        "type": "sailor",
        "parent": "vtls004696318",
        "name": "evan davies",
        "dob": "blk",
        "age": "33",
        "place_of_birth": "newquay",
        "home_address": "blk",
        "f": "blk",
        "name_of_ship": "keldhead",
        "ship_port": "aberystwyth",
        "date_leaving": "remained",
        "joined_ship_date": "1863-11-25",
        "joined_at_port": "newport",
        "capacity": "mate",
        "date_left": "1864-02-16",
        "left_port": "liverpool",
        "cause_of_leaving": "discharged",
        "sign_with_mark": "n",
        "notes": "blk"
    },
    {
        "id": "vtls004696318_2_11",
        "type": "sailor",
        "parent": "vtls004696318",
        "name": "william richards",
        "dob": "blk",
        "age": "53",
        "place_of_birth": "st dogmaels",
        "home_address": "blk",
        "f": "blk",
        "name_of_ship": "keldhead",
        "ship_port": "aberystwyth",
        "date_leaving": "remained",
        "joined_ship_date": "blk",
        "joined_at_port": "newport",
        "capacity": "master",
        "date_left": "blk",
        "left_port": "blk",
        "cause_of_leaving": "remains on board",
        "sign_with_mark": "n",
        "notes": "blk"
    },
    {
        "id": "vtls004696318_1_15",
        "type": "sailor",
        "parent": "vtls004696318",
        "name": "george knight",
        "dob": "blk",
        "age": "21",
        "place_of_birth": "dover",
        "home_address": "blk",
        "f": "blk",
        "name_of_ship": "corrib",
        "ship_port": "cardiff",
        "date_leaving": "1863-07-11",
        "joined_ship_date": "1863-07-18",
        "joined_at_port": "falmouth",
        "capacity": "able seaman",
        "date_left": "blk",
        "left_port": "blk",
        "cause_of_leaving": "not on board",
        "sign_with_mark": "n",
        "notes": "blk"
    },
    {
        "id": "vtls004696318_1_18",
        "type": "sailor",
        "parent": "vtls004696318",
        "name": "owen evans",
        "dob": "blk",
        "age": "17",
        "place_of_birth": "blk",
        "home_address": "blk",
        "f": "blk",
        "name_of_ship": "blk",
        "ship_port": "blk",
        "date_leaving": "blk",
        "joined_ship_date": "blk",
        "joined_at_port": "blk",
        "capacity": "blk",
        "date_left": "blk",
        "left_port": "blk",
        "cause_of_leaving": "blk",
        "sign_with_mark": "blk",
        "notes": "registry of indenture - 19th march, 1862, newport."
    },
    {
        "id": "vtls004696318_2_16",
        "type": "sailor",
        "parent": "vtls004696318",
        "name": "owen evans",
        "dob": "blk",
        "age": "17",
        "place_of_birth": "blk",
        "home_address": "blk",
        "f": "blk",
        "name_of_ship": "blk",
        "ship_port": "blk",
        "date_leaving": "blk",
        "joined_ship_date": "blk",
        "joined_at_port": "blk",
        "capacity": "blk",
        "date_left": "blk",
        "left_port": "blk",
        "cause_of_leaving": "blk",
        "sign_with_mark": "blk",
        "notes": "registry of indenture - 19th march, 1863, newport.  remains on board. (date of indenture given as 19th march, 1862 on previous voyage.)"
    },
    {
        "id": "vtls004696318_2_15",
        "type": "sailor",
        "parent": "vtls004696318",
        "name": "david jones",
        "dob": "blk",
        "age": "18",
        "place_of_birth": "cardigan",
        "home_address": "blk",
        "f": "blk",
        "name_of_ship": "priscilla & eliza",
        "ship_port": "cardigan",
        "date_leaving": "1863-09-15",
        "joined_ship_date": "1863-11-25",
        "joined_at_port": "newport",
        "capacity": "ordinary seaman",
        "date_left": "1864-02-16",
        "left_port": "liverpool",
        "cause_of_leaving": "discharged",
        "sign_with_mark": "n",
        "notes": "blk"
    },
    {
        "id": "vtls004696318_2_17",
        "type": "sailor",
        "parent": "vtls004696318",
        "name": "thomas morgans",
        "dob": "blk",
        "age": "20",
        "place_of_birth": "blk",
        "home_address": "blk",
        "f": "blk",
        "name_of_ship": "blk",
        "ship_port": "blk",
        "date_leaving": "blk",
        "joined_ship_date": "blk",
        "joined_at_port": "blk",
        "capacity": "blk",
        "date_left": "blk",
        "left_port": "blk",
        "cause_of_leaving": "blk",
        "sign_with_mark": "blk",
        "notes": "registry of indenture - 25th november, 1863, newport.  indenture cancelled 16th february, 1864 in liverpool."
    },
    {
        "id": "vtls004696318_3_15",
        "type": "sailor",
        "parent": "vtls004696318",
        "name": "david evans",
        "dob": "blk",
        "age": "23",
        "place_of_birth": "cardigan",
        "home_address": "blk",
        "f": "blk",
        "name_of_ship": "keldhead",
        "ship_port": "aberystwyth",
        "date_leaving": "february",
        "joined_ship_date": "1864-04-18",
        "joined_at_port": "liverpool",
        "capacity": "able seaman",
        "date_left": "october 1864",
        "left_port": "liverpool",
        "cause_of_leaving": "discharged",
        "sign_with_mark": "n",
        "notes": "blk"
    },
    {
        "id": "vtls004696318_3_14",
        "type": "sailor",
        "parent": "vtls004696318",
        "name": "james evans",
        "dob": "blk",
        "age": "21",
        "place_of_birth": "carmarthen",
        "home_address": "blk",
        "f": "blk",
        "name_of_ship": "julia",
        "ship_port": "llanelly",
        "date_leaving": "1864-04-12",
        "joined_ship_date": "1864-04-16",
        "joined_at_port": "liverpool",
        "capacity": "able seaman",
        "date_left": "october 1864",
        "left_port": "liverpool",
        "cause_of_leaving": "discharged",
        "sign_with_mark": "n",
        "notes": "blk"
    },
    {
        "id": "vtls004696318_3_13",
        "type": "sailor",
        "parent": "vtls004696318",
        "name": "john evans",
        "dob": "blk",
        "age": "28",
        "place_of_birth": "carmarthen",
        "home_address": "blk",
        "f": "blk",
        "name_of_ship": "julia",
        "ship_port": "llanelly",
        "date_leaving": "1864-04-12",
        "joined_ship_date": "1864-04-16",
        "joined_at_port": "liverpool",
        "capacity": "able seaman",
        "date_left": "october 1864",
        "left_port": "liverpool",
        "cause_of_leaving": "discharged",
        "sign_with_mark": "n",
        "notes": "blk"
    },
    {
        "id": "vtls004696318_3_12",
        "type": "sailor",
        "parent": "vtls004696318",
        "name": "evan davies",
        "dob": "blk",
        "age": "35",
        "place_of_birth": "newquay",
        "home_address": "blk",
        "f": "blk",
        "name_of_ship": "keldhead",
        "ship_port": "aberystwyth",
        "date_leaving": "february",
        "joined_ship_date": "1864-04-16",
        "joined_at_port": "liverpool",
        "capacity": "mate",
        "date_left": "october 1864",
        "left_port": "liverpool",
        "cause_of_leaving": "discharged",
        "sign_with_mark": "n",
        "notes": "blk"
    },
    {
        "id": "vtls004696318_3_11",
        "type": "sailor",
        "parent": "vtls004696318",
        "name": "william richards",
        "dob": "blk",
        "age": "54",
        "place_of_birth": "st dogmaels",
        "home_address": "blk",
        "f": "blk",
        "name_of_ship": "keldhead",
        "ship_port": "aberystwyth",
        "date_leaving": "remains",
        "joined_ship_date": "blk",
        "joined_at_port": "blk",
        "capacity": "master",
        "date_left": "blk",
        "left_port": "blk",
        "cause_of_leaving": "remains on board",
        "sign_with_mark": "n",
        "notes": "blk"
    },
    {
        "id": "vtls004696334_0_17",
        "type": "sailor",
        "parent": "vtls004696334",
        "name": "charles sidders",
        "dob": "blk",
        "age": "blk",
        "place_of_birth": "kent",
        "home_address": "blk",
        "f": "blk",
        "name_of_ship": "primrose",
        "ship_port": "p.e. island",
        "date_leaving": "1865-12",
        "joined_ship_date": "1865-12-08",
        "joined_at_port": "falmouth",
        "capacity": "ordinary seaman",
        "date_left": "1866-01-25",
        "left_port": "canary islands",
        "cause_of_leaving": "transferred",
        "sign_with_mark": "n",
        "notes": "transferred to thr flying cloud by mutual aggreement."
    },
    {
        "id": "vtls004696334_0_15",
        "type": "sailor",
        "parent": "vtls004696334",
        "name": "james griffiths",
        "dob": "blk",
        "age": "18",
        "place_of_birth": "liverpool",
        "home_address": "blk",
        "f": "blk",
        "name_of_ship": "landore",
        "ship_port": "liverpool",
        "date_leaving": "1865-11-17",
        "joined_ship_date": "1865-11-21",
        "joined_at_port": "london",
        "capacity": "ordinary seaman",
        "date_left": "1886-05-14",
        "left_port": "london",
        "cause_of_leaving": "discharged",
        "sign_with_mark": "y",
        "notes": "blk"
    },
    {
        "id": "vtls004696334_0_14",
        "type": "sailor",
        "parent": "vtls004696334",
        "name": "richard evans",
        "dob": "blk",
        "age": "23",
        "place_of_birth": "newquay",
        "home_address": "blk",
        "f": "blk",
        "name_of_ship": "keldhead",
        "ship_port": "aberystwyth",
        "date_leaving": "1865-11-15",
        "joined_ship_date": "1865-11-21",
        "joined_at_port": "london",
        "capacity": "ordinary seaman",
        "date_left": "1886-05-14",
        "left_port": "london",
        "cause_of_leaving": "discharged",
        "sign_with_mark": "n",
        "notes": "blk"
    },
    {
        "id": "vtls004696334_0_13",
        "type": "sailor",
        "parent": "vtls004696334",
        "name": "edward lockman",
        "dob": "blk",
        "age": "26",
        "place_of_birth": "copenhagen",
        "home_address": "blk",
        "f": "blk",
        "name_of_ship": "landore",
        "ship_port": "liverpool",
        "date_leaving": "1865-11-17",
        "joined_ship_date": "1865-11-21",
        "joined_at_port": "london",
        "capacity": "able seaman",
        "date_left": "1886-05-14",
        "left_port": "london",
        "cause_of_leaving": "discharged",
        "sign_with_mark": "n",
        "notes": "blk"
    },
    {
        "id": "vtls004696334_0_16",
        "type": "sailor",
        "parent": "vtls004696334",
        "name": "john thomas",
        "dob": "blk",
        "age": "23",
        "place_of_birth": "penzance",
        "home_address": "blk",
        "f": "blk",
        "name_of_ship": "flying cloud",
        "ship_port": "blk",
        "date_leaving": "1865-11-18",
        "joined_ship_date": "1865-11-21",
        "joined_at_port": "london",
        "capacity": "able seaman",
        "date_left": "1865-12-07",
        "left_port": "falmouth",
        "cause_of_leaving": "deserted",
        "sign_with_mark": "n",
        "notes": "blk"
    },
    {
        "id": "vtls004696334_0_12",
        "type": "sailor",
        "parent": "vtls004696334",
        "name": "evan evans",
        "dob": "blk",
        "age": "27",
        "place_of_birth": "newquay",
        "home_address": "blk",
        "f": "blk",
        "name_of_ship": "keldhead",
        "ship_port": "aberystwyth",
        "date_leaving": "1865-11-15",
        "joined_ship_date": "1865-11-21",
        "joined_at_port": "london",
        "capacity": "mate",
        "date_left": "1886-05-14",
        "left_port": "london",
        "cause_of_leaving": "discharged",
        "sign_with_mark": "n",
        "notes": "blk"
    },
    {
        "id": "vtls004696334_0_11",
        "type": "sailor",
        "parent": "vtls004696334",
        "name": "evan davies",
        "dob": "blk",
        "age": "35",
        "place_of_birth": "newquay",
        "home_address": "blk",
        "f": "blk",
        "name_of_ship": "keldhead",
        "ship_port": "aberystwyth",
        "date_leaving": "blk",
        "joined_ship_date": "blk",
        "joined_at_port": "continues",
        "capacity": "master",
        "date_left": "blk",
        "left_port": "blk",
        "cause_of_leaving": "remains on board",
        "sign_with_mark": "n",
        "notes": "blk"
    },
    {
        "id": "vtls004696318_3_16",
        "type": "sailor",
        "parent": "vtls004696318",
        "name": "thomas evans",
        "dob": "blk",
        "age": "15",
        "place_of_birth": "blk",
        "home_address": "blk",
        "f": "blk",
        "name_of_ship": "blk",
        "ship_port": "blk",
        "date_leaving": "blk",
        "joined_ship_date": "blk",
        "joined_at_port": "blk",
        "capacity": "blk",
        "date_left": "blk",
        "left_port": "blk",
        "cause_of_leaving": "blk",
        "sign_with_mark": "blk",
        "notes": "registry of indenture - 18th april, 1864, liverpool."
    },
    {
        "id": "vtls004696334_0_18",
        "type": "sailor",
        "parent": "vtls004696334",
        "name": "james clifton",
        "dob": "blk",
        "age": "19",
        "place_of_birth": "nevis",
        "home_address": "blk",
        "f": "blk",
        "name_of_ship": "blk",
        "ship_port": "blk",
        "date_leaving": "blk",
        "joined_ship_date": "1866-02-23",
        "joined_at_port": "nevis",
        "capacity": "boy",
        "date_left": "1855-05-14",
        "left_port": "london",
        "cause_of_leaving": "discharged",
        "sign_with_mark": "n",
        "notes": "blk"
    },
    {
        "id": "vtls004696334_1_15",
        "type": "sailor",
        "parent": "vtls004696334",
        "name": "joseph francis",
        "dob": "blk",
        "age": "27",
        "place_of_birth": "pembroke",
        "home_address": "blk",
        "f": "blk",
        "name_of_ship": "turtle dove",
        "ship_port": "aberystwyth",
        "date_leaving": "1866-06-24",
        "joined_ship_date": "1866-07-14",
        "joined_at_port": "london",
        "capacity": "able seaman",
        "date_left": "1866-12-21",
        "left_port": "london",
        "cause_of_leaving": "discharged",
        "sign_with_mark": "n",
        "notes": "blk"
    },
    {
        "id": "vtls004696334_1_13",
        "type": "sailor",
        "parent": "vtls004696334",
        "name": "charles courtney",
        "dob": "blk",
        "age": "27",
        "place_of_birth": "exeter",
        "home_address": "blk",
        "f": "blk",
        "name_of_ship": "esk",
        "ship_port": "london",
        "date_leaving": "1866-05-28",
        "joined_ship_date": "1866-07-14",
        "joined_at_port": "london",
        "capacity": "cook",
        "date_left": "1866-10-22",
        "left_port": "st helena",
        "cause_of_leaving": "discharged",
        "sign_with_mark": "n",
        "notes": "went to hospital"
    },
    {
        "id": "vtls004696334_1_16",
        "type": "sailor",
        "parent": "vtls004696334",
        "name": "william barnes",
        "dob": "blk",
        "age": "17",
        "place_of_birth": "rentham",
        "home_address": "blk",
        "f": "blk",
        "name_of_ship": "cygnet",
        "ship_port": "jersey",
        "date_leaving": "1866-06-30",
        "joined_ship_date": "1866-07-14",
        "joined_at_port": "london",
        "capacity": "able seaman",
        "date_left": "1866-12-21",
        "left_port": "london",
        "cause_of_leaving": "discharged",
        "sign_with_mark": "n",
        "notes": "blk"
    },
    {
        "id": "vtls004696334_1_12",
        "type": "sailor",
        "parent": "vtls004696334",
        "name": "david williams",
        "dob": "blk",
        "age": "39",
        "place_of_birth": "newquay",
        "home_address": "blk",
        "f": "blk",
        "name_of_ship": "ellen catherine",
        "ship_port": "newquay",
        "date_leaving": "1866-05-08",
        "joined_ship_date": "1866-07-14",
        "joined_at_port": "london",
        "capacity": "mate",
        "date_left": "1866-12-21",
        "left_port": "london",
        "cause_of_leaving": "discharged",
        "sign_with_mark": "n",
        "notes": "blk"
    },
    {
        "id": "vtls004696334_1_14",
        "type": "sailor",
        "parent": "vtls004696334",
        "name": "john jeremiah",
        "dob": "blk",
        "age": "25",
        "place_of_birth": "cardigan",
        "home_address": "blk",
        "f": "blk",
        "name_of_ship": "ariel",
        "ship_port": "goole",
        "date_leaving": "1866-07-07",
        "joined_ship_date": "1866-07-14",
        "joined_at_port": "london",
        "capacity": "able seaman",
        "date_left": "1866-12-21",
        "left_port": "london",
        "cause_of_leaving": "discharged",
        "sign_with_mark": "n",
        "notes": "blk"
    },
    {
        "id": "vtls004696334_1_11",
        "type": "sailor",
        "parent": "vtls004696334",
        "name": "evan davies",
        "dob": "blk",
        "age": "30",
        "place_of_birth": "newquay",
        "home_address": "blk",
        "f": "blk",
        "name_of_ship": "keldhead",
        "ship_port": "aberystwyth",
        "date_leaving": "blk",
        "joined_ship_date": "1866-07-14",
        "joined_at_port": "london",
        "capacity": "master",
        "date_left": "blk",
        "left_port": "london",
        "cause_of_leaving": "remains on board",
        "sign_with_mark": "n",
        "notes": "blk"
    },
    {
        "id": "vtls004696334_0_20",
        "type": "sailor",
        "parent": "vtls004696334",
        "name": "thomas evans",
        "dob": "blk",
        "age": "16",
        "place_of_birth": "blk",
        "home_address": "blk",
        "f": "blk",
        "name_of_ship": "blk",
        "ship_port": "blk",
        "date_leaving": "blk",
        "joined_ship_date": "blk",
        "joined_at_port": "blk",
        "capacity": "apprentice",
        "date_left": "blk",
        "left_port": "blk",
        "cause_of_leaving": "blk",
        "sign_with_mark": "n",
        "notes": "registry of indenture - 1864-04-06 at liverpool."
    },
    {
        "id": "vtls004696334_0_19",
        "type": "sailor",
        "parent": "vtls004696334",
        "name": "william hayley",
        "dob": "blk",
        "age": "14",
        "place_of_birth": "$",
        "home_address": "blk",
        "f": "blk",
        "name_of_ship": "blk",
        "ship_port": "blk",
        "date_leaving": "blk",
        "joined_ship_date": "1866-03-24",
        "joined_at_port": "athen",
        "capacity": "stowaway",
        "date_left": "1855-05-14",
        "left_port": "london",
        "cause_of_leaving": "discharged",
        "sign_with_mark": "n",
        "notes": "blk"
    },
    {
        "id": "vtls004696339_0_11",
        "type": "sailor",
        "parent": "vtls004696339",
        "name": "thomas jones",
        "dob": "blk",
        "age": "36",
        "place_of_birth": "aberaeron",
        "home_address": "aberayron",
        "f": "aberayron",
        "name_of_ship": "british american",
        "ship_port": "bristol",
        "date_leaving": "1868-11-13",
        "joined_ship_date": "1868-02-26",
        "joined_at_port": "swansea",
        "capacity": "master",
        "date_left": "1868-06-27",
        "left_port": "bristol",
        "cause_of_leaving": "remains on board",
        "sign_with_mark": "n",
        "notes": "blk"
    },
    {
        "id": "vtls004696334_1_18",
        "type": "sailor",
        "parent": "vtls004696334",
        "name": "john thomas chandler",
        "dob": "blk",
        "age": "17",
        "place_of_birth": "reading",
        "home_address": "blk",
        "f": "blk",
        "name_of_ship": "[w j c]",
        "ship_port": "hartlepool",
        "date_leaving": "1866-06-16",
        "joined_ship_date": "1866-07-14",
        "joined_at_port": "london",
        "capacity": "ordinary seaman",
        "date_left": "1866-12-21",
        "left_port": "london",
        "cause_of_leaving": "discharged",
        "sign_with_mark": "n",
        "notes": "blk"
    },
    {
        "id": "vtls004696339_0_14",
        "type": "sailor",
        "parent": "vtls004696339",
        "name": "owen evans",
        "dob": "blk",
        "age": "22",
        "place_of_birth": "newquay",
        "home_address": "blk",
        "f": "blk",
        "name_of_ship": "queen of nations",
        "ship_port": "st john",
        "date_leaving": "1867-09-01",
        "joined_ship_date": "1868-02-26",
        "joined_at_port": "swansea",
        "capacity": "able seaman",
        "date_left": "1868-06-27",
        "left_port": "bristol",
        "cause_of_leaving": "discharged",
        "sign_with_mark": "n",
        "notes": "blk"
    },
    {
        "id": "vtls004696339_0_15",
        "type": "sailor",
        "parent": "vtls004696339",
        "name": "john nicolas",
        "dob": "blk",
        "age": "17",
        "place_of_birth": "newquay",
        "home_address": "blk",
        "f": "blk",
        "name_of_ship": "mary sarah",
        "ship_port": "newquay",
        "date_leaving": "1867-12-20",
        "joined_ship_date": "1868-02-26",
        "joined_at_port": "swansea",
        "capacity": "ordinary seaman",
        "date_left": "1868-06-27",
        "left_port": "bristol",
        "cause_of_leaving": "discharged",
        "sign_with_mark": "n",
        "notes": "blk"
    },
    {
        "id": "vtls004696334_1_17",
        "type": "sailor",
        "parent": "vtls004696334",
        "name": "james chambers",
        "dob": "blk",
        "age": "17",
        "place_of_birth": "queenstown",
        "home_address": "blk",
        "f": "blk",
        "name_of_ship": "juanita",
        "ship_port": "liverpool",
        "date_leaving": "1866-06-30",
        "joined_ship_date": "1866-07-14",
        "joined_at_port": "london",
        "capacity": "ordinary seaman",
        "date_left": "blk",
        "left_port": "london",
        "cause_of_leaving": "did not join",
        "sign_with_mark": "y",
        "notes": "blk"
    },
    {
        "id": "vtls004696334_1_20",
        "type": "sailor",
        "parent": "vtls004696334",
        "name": "anthony campbell",
        "dob": "blk",
        "age": "23",
        "place_of_birth": "dundee",
        "home_address": "blk",
        "f": "blk",
        "name_of_ship": "meg merrilies",
        "ship_port": "blk",
        "date_leaving": "1866-08-01",
        "joined_ship_date": "1866-10-23",
        "joined_at_port": "london",
        "capacity": "able seaman",
        "date_left": "1866-12-21",
        "left_port": "london",
        "cause_of_leaving": "discharged",
        "sign_with_mark": "n",
        "notes": "blk"
    },
    {
        "id": "vtls004696339_0_13",
        "type": "sailor",
        "parent": "vtls004696339",
        "name": "thomas evans",
        "dob": "blk",
        "age": "19",
        "place_of_birth": "newquay",
        "home_address": "blk",
        "f": "blk",
        "name_of_ship": "revival",
        "ship_port": "newquay",
        "date_leaving": "1867-12-11",
        "joined_ship_date": "1868-02-26",
        "joined_at_port": "swansea",
        "capacity": "boatswain",
        "date_left": "1868-06-27",
        "left_port": "bristol",
        "cause_of_leaving": "discharged",
        "sign_with_mark": "n",
        "notes": "blk"
    },
    {
        "id": "vtls004696334_1_19",
        "type": "sailor",
        "parent": "vtls004696334",
        "name": "john james",
        "dob": "blk",
        "age": "33",
        "place_of_birth": "wales",
        "home_address": "blk",
        "f": "blk",
        "name_of_ship": "dastre",
        "ship_port": "blk",
        "date_leaving": "1866-10-22",
        "joined_ship_date": "1866-10-23",
        "joined_at_port": "st. helena",
        "capacity": "boatswain",
        "date_left": "1866-12-15",
        "left_port": "falmouth",
        "cause_of_leaving": "deserted",
        "sign_with_mark": "n",
        "notes": "blk"
    },
    {
        "id": "vtls004696339_0_12",
        "type": "sailor",
        "parent": "vtls004696339",
        "name": "thomas davies",
        "dob": "blk",
        "age": "32",
        "place_of_birth": "newquay",
        "home_address": "blk",
        "f": "blk",
        "name_of_ship": "alfred",
        "ship_port": "swansea",
        "date_leaving": "1868-02-22",
        "joined_ship_date": "1868-02-26",
        "joined_at_port": "swansea",
        "capacity": "mate",
        "date_left": "1868-06-27",
        "left_port": "bristol",
        "cause_of_leaving": "discharged",
        "sign_with_mark": "n",
        "notes": "blk"
    },
    {
        "id": "vtls004696339_1_11",
        "type": "sailor",
        "parent": "vtls004696339",
        "name": "david jones",
        "dob": "blk",
        "age": "62",
        "place_of_birth": "aberaeron",
        "home_address": "aberayron",
        "f": "aberayron",
        "name_of_ship": "euphemia",
        "ship_port": "amlwch",
        "date_leaving": "1868-06-01",
        "joined_ship_date": "1868-07-11",
        "joined_at_port": "cardiff",
        "capacity": "master",
        "date_left": "1868-09-22",
        "left_port": "bristol",
        "cause_of_leaving": "remains on board",
        "sign_with_mark": "n",
        "notes": "blk"
    },
    {
        "id": "vtls004696339_1_15",
        "type": "sailor",
        "parent": "vtls004696339",
        "name": "john nicolas",
        "dob": "blk",
        "age": "17",
        "place_of_birth": "newquay",
        "home_address": "blk",
        "f": "blk",
        "name_of_ship": "keldhead",
        "ship_port": "aberystwyth",
        "date_leaving": "blk",
        "joined_ship_date": "1868-07-11",
        "joined_at_port": "cardiff",
        "capacity": "ordinary seaman",
        "date_left": "1868-09-22",
        "left_port": "bristol",
        "cause_of_leaving": "discharged",
        "sign_with_mark": "n",
        "notes": "blk"
    },
    {
        "id": "vtls004696339_0_16",
        "type": "sailor",
        "parent": "vtls004696339",
        "name": "david d davies",
        "dob": "blk",
        "age": "17",
        "place_of_birth": "newquay",
        "home_address": "blk",
        "f": "blk",
        "name_of_ship": "nire",
        "ship_port": "newquay",
        "date_leaving": "1867-10-01",
        "joined_ship_date": "1868-02-26",
        "joined_at_port": "swansea",
        "capacity": "ordinary seaman",
        "date_left": "1868-06-27",
        "left_port": "bristol",
        "cause_of_leaving": "discharged",
        "sign_with_mark": "n",
        "notes": "blk"
    },
    {
        "id": "vtls004696339_1_16",
        "type": "sailor",
        "parent": "vtls004696339",
        "name": "michael fleming",
        "dob": "blk",
        "age": "18",
        "place_of_birth": "kingston",
        "home_address": "blk",
        "f": "blk",
        "name_of_ship": "queen",
        "ship_port": "exeter",
        "date_leaving": "1868",
        "joined_ship_date": "1868-07-11",
        "joined_at_port": "cardiff",
        "capacity": "ordinary seaman",
        "date_left": "1868-09-22",
        "left_port": "bristol",
        "cause_of_leaving": "discharged",
        "sign_with_mark": "n",
        "notes": "blk"
    },
    {
        "id": "vtls004696339_1_14",
        "type": "sailor",
        "parent": "vtls004696339",
        "name": "timothy davies",
        "dob": "blk",
        "age": "19",
        "place_of_birth": "newquay",
        "home_address": "blk",
        "f": "blk",
        "name_of_ship": "naphtali",
        "ship_port": "cardigan",
        "date_leaving": "1868",
        "joined_ship_date": "1868-07-11",
        "joined_at_port": "cardiff",
        "capacity": "able seaman",
        "date_left": "1868-09-22",
        "left_port": "bristol",
        "cause_of_leaving": "discharged",
        "sign_with_mark": "n",
        "notes": "blk"
    },
    {
        "id": "vtls004696339_1_13",
        "type": "sailor",
        "parent": "vtls004696339",
        "name": "owen evans",
        "dob": "blk",
        "age": "23",
        "place_of_birth": "newquay",
        "home_address": "blk",
        "f": "blk",
        "name_of_ship": "keldhead",
        "ship_port": "aberystwyth",
        "date_leaving": "blk",
        "joined_ship_date": "1868-07-11",
        "joined_at_port": "cardiff",
        "capacity": "boatswain",
        "date_left": "1868-09-22",
        "left_port": "bristol",
        "cause_of_leaving": "discharged",
        "sign_with_mark": "n",
        "notes": "blk"
    },
    {
        "id": "vtls004696339_1_12",
        "type": "sailor",
        "parent": "vtls004696339",
        "name": "thomas davies",
        "dob": "blk",
        "age": "32",
        "place_of_birth": "newquay",
        "home_address": "blk",
        "f": "blk",
        "name_of_ship": "keldhead",
        "ship_port": "aberystwyth",
        "date_leaving": "blk",
        "joined_ship_date": "1868-07-11",
        "joined_at_port": "cardiff",
        "capacity": "mate",
        "date_left": "1868-09-22",
        "left_port": "bristol",
        "cause_of_leaving": "discharged",
        "sign_with_mark": "n",
        "notes": "blk"
    },
    {
        "id": "vtls004696339_0_17",
        "type": "sailor",
        "parent": "vtls004696339",
        "name": "benjamin evans",
        "dob": "blk",
        "age": "15",
        "place_of_birth": "newquay",
        "home_address": "blk",
        "f": "blk",
        "name_of_ship": "linnet",
        "ship_port": "newquay",
        "date_leaving": "1868-02-08",
        "joined_ship_date": "1868-02-26",
        "joined_at_port": "swansea",
        "capacity": "boy",
        "date_left": "1868-06-27",
        "left_port": "bristol",
        "cause_of_leaving": "discharged",
        "sign_with_mark": "n",
        "notes": "blk"
    },
    {
        "id": "vtls004696341_0_11",
        "type": "sailor",
        "parent": "vtls004696341",
        "name": "david evans",
        "dob": "blk",
        "age": "35",
        "place_of_birth": "newquay",
        "home_address": "newquay, cardigan",
        "f": "newquay, cardigan",
        "name_of_ship": "integrity",
        "ship_port": "newquay",
        "date_leaving": "1868-10-06",
        "joined_ship_date": "1868-10-13",
        "joined_at_port": "cardiff",
        "capacity": "master",
        "date_left": "1869-04-26",
        "left_port": "liverpool",
        "cause_of_leaving": "remains on board",
        "sign_with_mark": "n",
        "notes": "blk"
    },
    {
        "id": "vtls004696341_0_14",
        "type": "sailor",
        "parent": "vtls004696341",
        "name": "james smith",
        "dob": "blk",
        "age": "38",
        "place_of_birth": "bristol",
        "home_address": "blk",
        "f": "blk",
        "name_of_ship": "royal visitor",
        "ship_port": "liverpool",
        "date_leaving": "1868-09-02",
        "joined_ship_date": "1868-10-13",
        "joined_at_port": "cardiff",
        "capacity": "able seaman",
        "date_left": "1869-04-26",
        "left_port": "liverpool",
        "cause_of_leaving": "discharged",
        "sign_with_mark": "n",
        "notes": "blk"
    },
    {
        "id": "vtls004696341_0_15",
        "type": "sailor",
        "parent": "vtls004696341",
        "name": "john lloyd",
        "dob": "blk",
        "age": "19",
        "place_of_birth": "newquay",
        "home_address": "blk",
        "f": "blk",
        "name_of_ship": "ocean dart",
        "ship_port": "aberystwyth",
        "date_leaving": "1868-03-18",
        "joined_ship_date": "1868-10-13",
        "joined_at_port": "cardiff",
        "capacity": "able seaman",
        "date_left": "1869-04-26",
        "left_port": "liverpool",
        "cause_of_leaving": "discharged",
        "sign_with_mark": "n",
        "notes": "blk"
    },
    {
        "id": "vtls004696341_0_16",
        "type": "sailor",
        "parent": "vtls004696341",
        "name": "lewis williams",
        "dob": "blk",
        "age": "16",
        "place_of_birth": "aberystwyth",
        "home_address": "blk",
        "f": "blk",
        "name_of_ship": "hermione",
        "ship_port": "[carajan]",
        "date_leaving": "1868-10-13",
        "joined_ship_date": "1868-10-13",
        "joined_at_port": "cardiff",
        "capacity": "cook",
        "date_left": "1869-04-26",
        "left_port": "liverpool",
        "cause_of_leaving": "discharged",
        "sign_with_mark": "n",
        "notes": "blk"
    },
    {
        "id": "vtls004696341_0_13",
        "type": "sailor",
        "parent": "vtls004696341",
        "name": "evan davies",
        "dob": "blk",
        "age": "35",
        "place_of_birth": "newquay",
        "home_address": "blk",
        "f": "blk",
        "name_of_ship": "keldhead",
        "ship_port": "aberystwyth",
        "date_leaving": "blk",
        "joined_ship_date": "1868-10-13",
        "joined_at_port": "cardiff",
        "capacity": "boatswain",
        "date_left": "1869-04-26",
        "left_port": "liverpool",
        "cause_of_leaving": "discharged",
        "sign_with_mark": "n",
        "notes": "blk"
    },
    {
        "id": "vtls004696341_0_17",
        "type": "sailor",
        "parent": "vtls004696341",
        "name": "benjamine evans",
        "dob": "blk",
        "age": "15",
        "place_of_birth": "newquay",
        "home_address": "blk",
        "f": "blk",
        "name_of_ship": "keldhead",
        "ship_port": "aberystwyth",
        "date_leaving": "blk",
        "joined_ship_date": "1868-10-13",
        "joined_at_port": "cardiff",
        "capacity": "boy",
        "date_left": "1869-04-26",
        "left_port": "liverpool",
        "cause_of_leaving": "discharged",
        "sign_with_mark": "n",
        "notes": "blk"
    },
    {
        "id": "vtls004696341_0_12",
        "type": "sailor",
        "parent": "vtls004696341",
        "name": "thomas davies",
        "dob": "blk",
        "age": "33",
        "place_of_birth": "newquay",
        "home_address": "blk",
        "f": "blk",
        "name_of_ship": "keldhead",
        "ship_port": "aberystwyth",
        "date_leaving": "blk",
        "joined_ship_date": "1868-10-13",
        "joined_at_port": "cardiff",
        "capacity": "mate",
        "date_left": "1869-04-26",
        "left_port": "liverpool",
        "cause_of_leaving": "discharged",
        "sign_with_mark": "n",
        "notes": "blk"
    },
    {
        "id": "vtls004696339_1_17",
        "type": "sailor",
        "parent": "vtls004696339",
        "name": "benjamin evans",
        "dob": "blk",
        "age": "15",
        "place_of_birth": "newquay",
        "home_address": "blk",
        "f": "blk",
        "name_of_ship": "keldhead",
        "ship_port": "aberystwyth",
        "date_leaving": "blk",
        "joined_ship_date": "1868-07-11",
        "joined_at_port": "cardiff",
        "capacity": "boy",
        "date_left": "1868-09-22",
        "left_port": "bristol",
        "cause_of_leaving": "discharged",
        "sign_with_mark": "n",
        "notes": "blk"
    },
    {
        "id": "vtls004696423_0_11",
        "type": "sailor",
        "parent": "vtls004696423",
        "name": "thomas davies",
        "dob": "blk",
        "age": "33",
        "place_of_birth": "newquay",
        "home_address": "newquay, cardigan",
        "f": "newquay, cardigan",
        "name_of_ship": "keldhead",
        "ship_port": "aberystwyth",
        "date_leaving": "1869",
        "joined_ship_date": "1869-06-11",
        "joined_at_port": "liverpool",
        "capacity": "master",
        "date_left": "1870-01-10",
        "left_port": "swansea",
        "cause_of_leaving": "remains on board",
        "sign_with_mark": "n",
        "notes": "blk"
    },
    {
        "id": "vtls004696423_0_16",
        "type": "sailor",
        "parent": "vtls004696423",
        "name": "john evans",
        "dob": "blk",
        "age": "17",
        "place_of_birth": "newquay",
        "home_address": "blk",
        "f": "blk",
        "name_of_ship": "farmer's lass",
        "ship_port": "aberystwyth",
        "date_leaving": "1869",
        "joined_ship_date": "1869-06-11",
        "joined_at_port": "liverpool",
        "capacity": "ordinary seaman",
        "date_left": "1870-01-10",
        "left_port": "swansea",
        "cause_of_leaving": "discharged",
        "sign_with_mark": "n",
        "notes": "blk"
    },
    {
        "id": "vtls004696423_0_17",
        "type": "sailor",
        "parent": "vtls004696423",
        "name": "benjamin evans",
        "dob": "blk",
        "age": "16",
        "place_of_birth": "newquay",
        "home_address": "blk",
        "f": "blk",
        "name_of_ship": "keldhead",
        "ship_port": "aberystwyth",
        "date_leaving": "1869",
        "joined_ship_date": "1869-06-11",
        "joined_at_port": "liverpool",
        "capacity": "ordinary seaman",
        "date_left": "1870-01-10",
        "left_port": "swansea",
        "cause_of_leaving": "discharged",
        "sign_with_mark": "n",
        "notes": "blk"
    },
    {
        "id": "vtls004696423_0_15",
        "type": "sailor",
        "parent": "vtls004696423",
        "name": "hosea williams",
        "dob": "blk",
        "age": "46",
        "place_of_birth": "conwy",
        "home_address": "blk",
        "f": "blk",
        "name_of_ship": "robert jones",
        "ship_port": "carnarvon",
        "date_leaving": "1869",
        "joined_ship_date": "1869-06-11",
        "joined_at_port": "liverpool",
        "capacity": "able seaman",
        "date_left": "1869-12-03",
        "left_port": "havre, france",
        "cause_of_leaving": "discharged",
        "sign_with_mark": "n",
        "notes": "blk"
    },
    {
        "id": "vtls004696423_0_18",
        "type": "sailor",
        "parent": "vtls004696423",
        "name": "william thomas",
        "dob": "blk",
        "age": "20",
        "place_of_birth": "amlwch",
        "home_address": "blk",
        "f": "blk",
        "name_of_ship": "assam valley",
        "ship_port": "liverpool",
        "date_leaving": "1869",
        "joined_ship_date": "1869-12-13",
        "joined_at_port": "havre",
        "capacity": "able seaman",
        "date_left": "1870-01-10",
        "left_port": "swansea",
        "cause_of_leaving": "discharged",
        "sign_with_mark": "n",
        "notes": "blk"
    },
    {
        "id": "vtls004696423_0_14",
        "type": "sailor",
        "parent": "vtls004696423",
        "name": "john owens",
        "dob": "blk",
        "age": "40",
        "place_of_birth": "newquay",
        "home_address": "blk",
        "f": "blk",
        "name_of_ship": "emma alice",
        "ship_port": "newquay",
        "date_leaving": "1869",
        "joined_ship_date": "1869-06-11",
        "joined_at_port": "liverpool",
        "capacity": "cook & able seaman",
        "date_left": "1869-12-03",
        "left_port": "havre, france",
        "cause_of_leaving": "discharged",
        "sign_with_mark": "n",
        "notes": "blk"
    },
    {
        "id": "vtls004696423_0_13",
        "type": "sailor",
        "parent": "vtls004696423",
        "name": "evan davies",
        "dob": "blk",
        "age": "35",
        "place_of_birth": "newquay",
        "home_address": "blk",
        "f": "blk",
        "name_of_ship": "keldhead",
        "ship_port": "aberystwyth",
        "date_leaving": "1869",
        "joined_ship_date": "1869-06-11",
        "joined_at_port": "liverpool",
        "capacity": "boatswain",
        "date_left": "1870-01-10",
        "left_port": "swansea",
        "cause_of_leaving": "discharged",
        "sign_with_mark": "n",
        "notes": "blk"
    },
    {
        "id": "vtls004696423_0_12",
        "type": "sailor",
        "parent": "vtls004696423",
        "name": "david d davies",
        "dob": "blk",
        "age": "27",
        "place_of_birth": "newquay",
        "home_address": "blk",
        "f": "blk",
        "name_of_ship": "favorite",
        "ship_port": "newquay",
        "date_leaving": "1868-11-01",
        "joined_ship_date": "1869-06-11",
        "joined_at_port": "liverpool",
        "capacity": "mate",
        "date_left": "1870-01-10",
        "left_port": "swansea",
        "cause_of_leaving": "discharged",
        "sign_with_mark": "n",
        "notes": "blk"
    },
    {
        "id": "vtls004696427_0_15",
        "type": "sailor",
        "parent": "vtls004696427",
        "name": "david jones",
        "dob": "blk",
        "age": "16",
        "place_of_birth": "aberystwyth",
        "home_address": "blk",
        "f": "blk",
        "name_of_ship": "lizzie ellen",
        "ship_port": "cardigan",
        "date_leaving": "1869-07-15",
        "joined_ship_date": "1870-01-27",
        "joined_at_port": "swansea",
        "capacity": "ordinary seaman",
        "date_left": "1870-06-24",
        "left_port": "glasgow",
        "cause_of_leaving": "discharged",
        "sign_with_mark": "n",
        "notes": "blk"
    },
    {
        "id": "vtls004696427_0_13",
        "type": "sailor",
        "parent": "vtls004696427",
        "name": "thomas lewis",
        "dob": "blk",
        "age": "21",
        "place_of_birth": "st dogmaels",
        "home_address": "blk",
        "f": "blk",
        "name_of_ship": "capricorn",
        "ship_port": "swansea",
        "date_leaving": "1869-08-14",
        "joined_ship_date": "1870-01-27",
        "joined_at_port": "swansea",
        "capacity": "able seaman",
        "date_left": "1870-06-24",
        "left_port": "glasgow",
        "cause_of_leaving": "discharged",
        "sign_with_mark": "n",
        "notes": "blk"
    },
    {
        "id": "vtls004696427_0_14",
        "type": "sailor",
        "parent": "vtls004696427",
        "name": "thomas evans",
        "dob": "blk",
        "age": "22",
        "place_of_birth": "newquay",
        "home_address": "blk",
        "f": "blk",
        "name_of_ship": "mallard",
        "ship_port": "liverpool",
        "date_leaving": "1869-09-03",
        "joined_ship_date": "1870-01-27",
        "joined_at_port": "swansea",
        "capacity": "able seaman",
        "date_left": "1870-06-11",
        "left_port": "milford",
        "cause_of_leaving": "discharged",
        "sign_with_mark": "n",
        "notes": "blk"
    },
    {
        "id": "vtls004696427_0_16",
        "type": "sailor",
        "parent": "vtls004696427",
        "name": "james may",
        "dob": "blk",
        "age": "15",
        "place_of_birth": "swansea",
        "home_address": "blk",
        "f": "blk",
        "name_of_ship": "clarendon",
        "ship_port": "liverpool",
        "date_leaving": "1870-01-07",
        "joined_ship_date": "1870-01-27",
        "joined_at_port": "swansea",
        "capacity": "ordinary seaman",
        "date_left": "1870-02-03",
        "left_port": "milford",
        "cause_of_leaving": "deserted",
        "sign_with_mark": "y",
        "notes": "blk"
    },
    {
        "id": "vtls004696427_0_17",
        "type": "sailor",
        "parent": "vtls004696427",
        "name": "john owens",
        "dob": "blk",
        "age": "21",
        "place_of_birth": "aberporth",
        "home_address": "blk",
        "f": "blk",
        "name_of_ship": "mela",
        "ship_port": "newquay",
        "date_leaving": "1869-11-15",
        "joined_ship_date": "1870-01-27",
        "joined_at_port": "swansea",
        "capacity": "able seaman",
        "date_left": "1870-06-24",
        "left_port": "glasgow",
        "cause_of_leaving": "discharged",
        "sign_with_mark": "n",
        "notes": "blk"
    },
    {
        "id": "vtls004696427_0_12",
        "type": "sailor",
        "parent": "vtls004696427",
        "name": "david d davies",
        "dob": "blk",
        "age": "28",
        "place_of_birth": "newquay",
        "home_address": "blk",
        "f": "blk",
        "name_of_ship": "keldhead",
        "ship_port": "aberystwyth",
        "date_leaving": "contiuned",
        "joined_ship_date": "1870-01-27",
        "joined_at_port": "swansea",
        "capacity": "mate",
        "date_left": "1870-06-24",
        "left_port": "glasgow",
        "cause_of_leaving": "discharged",
        "sign_with_mark": "n",
        "notes": "blk"
    },
    {
        "id": "vtls004696427_0_18",
        "type": "sailor",
        "parent": "vtls004696427",
        "name": "williams brace",
        "dob": "blk",
        "age": "19",
        "place_of_birth": "pembroke",
        "home_address": "blk",
        "f": "blk",
        "name_of_ship": "[shore]",
        "ship_port": "blk",
        "date_leaving": "blk",
        "joined_ship_date": "1870-02-03",
        "joined_at_port": "milford",
        "capacity": "ordinary seaman",
        "date_left": "1870-06-24",
        "left_port": "glasgow",
        "cause_of_leaving": "discharged",
        "sign_with_mark": "n",
        "notes": "blk"
    },
    {
        "id": "vtls004696427_0_11",
        "type": "sailor",
        "parent": "vtls004696427",
        "name": "thomas davies",
        "dob": "blk",
        "age": "33",
        "place_of_birth": "newquay",
        "home_address": "blk",
        "f": "blk",
        "name_of_ship": "keldhead",
        "ship_port": "aberystwyth",
        "date_leaving": "contiuned",
        "joined_ship_date": "1870-01-27",
        "joined_at_port": "swansea",
        "capacity": "master",
        "date_left": "blk",
        "left_port": "blk",
        "cause_of_leaving": "remains on board",
        "sign_with_mark": "n",
        "notes": "blk"
    },
    {
        "id": "vtls004696427_1_11",
        "type": "sailor",
        "parent": "vtls004696427",
        "name": "thomas davies",
        "dob": "blk",
        "age": "34",
        "place_of_birth": "newquay",
        "home_address": "blk",
        "f": "blk",
        "name_of_ship": "keldhead",
        "ship_port": "aberystwyth",
        "date_leaving": "1870",
        "joined_ship_date": "1870-07-02",
        "joined_at_port": "glasgow",
        "capacity": "master",
        "date_left": "blk",
        "left_port": "blk",
        "cause_of_leaving": "remains on board",
        "sign_with_mark": "n",
        "notes": "blk"
    },
    {
        "id": "vtls004696427_1_16",
        "type": "sailor",
        "parent": "vtls004696427",
        "name": "william brace",
        "dob": "blk",
        "age": "19",
        "place_of_birth": "pembroke",
        "home_address": "blk",
        "f": "blk",
        "name_of_ship": "keldhead",
        "ship_port": "aberystwyth",
        "date_leaving": "1870",
        "joined_ship_date": "1870-07-02",
        "joined_at_port": "glasgow",
        "capacity": "ordinary seaman",
        "date_left": "1870-09-06",
        "left_port": "newport",
        "cause_of_leaving": "discharged",
        "sign_with_mark": "n",
        "notes": "blk"
    },
    {
        "id": "vtls004696427_1_13",
        "type": "sailor",
        "parent": "vtls004696427",
        "name": "william donaldson",
        "dob": "blk",
        "age": "13",
        "place_of_birth": "glasgow",
        "home_address": "blk",
        "f": "blk",
        "name_of_ship": "first ship",
        "ship_port": "blk",
        "date_leaving": "1870",
        "joined_ship_date": "1870-07-02",
        "joined_at_port": "glasgow",
        "capacity": "cook & able seaman",
        "date_left": "1870-09-06",
        "left_port": "newport",
        "cause_of_leaving": "discharged",
        "sign_with_mark": "n",
        "notes": "blk"
    },
    {
        "id": "vtls004696427_1_15",
        "type": "sailor",
        "parent": "vtls004696427",
        "name": "david jones",
        "dob": "blk",
        "age": "16",
        "place_of_birth": "cardigan",
        "home_address": "blk",
        "f": "blk",
        "name_of_ship": "keldhead",
        "ship_port": "aberystwyth",
        "date_leaving": "1870",
        "joined_ship_date": "1870-07-02",
        "joined_at_port": "glasgow",
        "capacity": "able seaman",
        "date_left": "1870-09-06",
        "left_port": "newport",
        "cause_of_leaving": "discharged",
        "sign_with_mark": "n",
        "notes": "blk"
    },
    {
        "id": "vtls004696427_1_14",
        "type": "sailor",
        "parent": "vtls004696427",
        "name": "john owens",
        "dob": "blk",
        "age": "21",
        "place_of_birth": "cardigan",
        "home_address": "blk",
        "f": "blk",
        "name_of_ship": "keldhead",
        "ship_port": "aberystwyth",
        "date_leaving": "1870",
        "joined_ship_date": "1870-07-02",
        "joined_at_port": "glasgow",
        "capacity": "able seaman",
        "date_left": "1870-09-06",
        "left_port": "newport",
        "cause_of_leaving": "discharged",
        "sign_with_mark": "n",
        "notes": "blk"
    },
    {
        "id": "vtls004696432_0_12",
        "type": "sailor",
        "parent": "vtls004696432",
        "name": "john thomas",
        "dob": "blk",
        "age": "61",
        "place_of_birth": "newquay",
        "home_address": "blk",
        "f": "blk",
        "name_of_ship": "prima donia",
        "ship_port": "aberystwyth",
        "date_leaving": "1870",
        "joined_ship_date": "1870-09-24",
        "joined_at_port": "newport",
        "capacity": "mate",
        "date_left": "1870-02-13",
        "left_port": "gloucestershire",
        "cause_of_leaving": "discharged",
        "sign_with_mark": "n",
        "notes": "blk"
    },
    {
        "id": "vtls004696427_1_12",
        "type": "sailor",
        "parent": "vtls004696427",
        "name": "david d davies",
        "dob": "blk",
        "age": "30",
        "place_of_birth": "newquay",
        "home_address": "blk",
        "f": "blk",
        "name_of_ship": "keldhead",
        "ship_port": "aberystwyth",
        "date_leaving": "1870",
        "joined_ship_date": "1870-07-02",
        "joined_at_port": "glasgow",
        "capacity": "mate",
        "date_left": "1870-09-06",
        "left_port": "newport",
        "cause_of_leaving": "discharged",
        "sign_with_mark": "n",
        "notes": "blk"
    },
    {
        "id": "vtls004696432_0_11",
        "type": "sailor",
        "parent": "vtls004696432",
        "name": "thomas davies",
        "dob": "blk",
        "age": "32",
        "place_of_birth": "newquay",
        "home_address": "blk",
        "f": "blk",
        "name_of_ship": "keldhead",
        "ship_port": "aberystwyth",
        "date_leaving": "blk",
        "joined_ship_date": "blk",
        "joined_at_port": "blk",
        "capacity": "master",
        "date_left": "blk",
        "left_port": "blk",
        "cause_of_leaving": "remains on board",
        "sign_with_mark": "n",
        "notes": "blk"
    },
    {
        "id": "vtls004696432_1_13",
        "type": "sailor",
        "parent": "vtls004696432",
        "name": "evan morgan",
        "dob": "blk",
        "age": "17",
        "place_of_birth": "cardigan",
        "home_address": "blk",
        "f": "blk",
        "name_of_ship": "keldhead",
        "ship_port": "aberystwyth",
        "date_leaving": "blk",
        "joined_ship_date": "1870-06-16",
        "joined_at_port": "newport",
        "capacity": "cook & ordinary seaman",
        "date_left": "1871-11-22",
        "left_port": "glasgow",
        "cause_of_leaving": "discharged",
        "sign_with_mark": "n",
        "notes": "blk"
    },
    {
        "id": "vtls004696432_0_15",
        "type": "sailor",
        "parent": "vtls004696432",
        "name": "william brace",
        "dob": "blk",
        "age": "19",
        "place_of_birth": "pembroke",
        "home_address": "blk",
        "f": "blk",
        "name_of_ship": "keldhead",
        "ship_port": "aberystwyth",
        "date_leaving": "1870",
        "joined_ship_date": "1870-09-24",
        "joined_at_port": "newport",
        "capacity": "able seaman",
        "date_left": "1870-02-13",
        "left_port": "gloucestershire",
        "cause_of_leaving": "discharged",
        "sign_with_mark": "n",
        "notes": "blk"
    },
    {
        "id": "vtls004696432_0_14",
        "type": "sailor",
        "parent": "vtls004696432",
        "name": "david jones",
        "dob": "blk",
        "age": "17",
        "place_of_birth": "aberporth",
        "home_address": "blk",
        "f": "blk",
        "name_of_ship": "keldhead",
        "ship_port": "aberystwyth",
        "date_leaving": "1870",
        "joined_ship_date": "1870-09-24",
        "joined_at_port": "newport",
        "capacity": "able seaman",
        "date_left": "1870-02-13",
        "left_port": "gloucestershire",
        "cause_of_leaving": "discharged",
        "sign_with_mark": "n",
        "notes": "blk"
    },
    {
        "id": "vtls004696432_0_13",
        "type": "sailor",
        "parent": "vtls004696432",
        "name": "john owen",
        "dob": "blk",
        "age": "27",
        "place_of_birth": "aberporth",
        "home_address": "blk",
        "f": "blk",
        "name_of_ship": "keldhead",
        "ship_port": "aberystwyth",
        "date_leaving": "1870",
        "joined_ship_date": "1870-09-24",
        "joined_at_port": "newport",
        "capacity": "boatswain",
        "date_left": "1870-02-13",
        "left_port": "gloucestershire",
        "cause_of_leaving": "discharged",
        "sign_with_mark": "n",
        "notes": "blk"
    },
    {
        "id": "vtls004696432_1_14",
        "type": "sailor",
        "parent": "vtls004696432",
        "name": "samuel rees",
        "dob": "blk",
        "age": "30",
        "place_of_birth": "swansea",
        "home_address": "blk",
        "f": "blk",
        "name_of_ship": "mary jane",
        "ship_port": "st johns",
        "date_leaving": "1871",
        "joined_ship_date": "1870-06-16",
        "joined_at_port": "newport",
        "capacity": "able seaman",
        "date_left": "1871-06-20",
        "left_port": "newport",
        "cause_of_leaving": "did not join",
        "sign_with_mark": "n",
        "notes": "blk"
    },
    {
        "id": "vtls004696432_1_16",
        "type": "sailor",
        "parent": "vtls004696432",
        "name": "thomas lamb",
        "dob": "blk",
        "age": "37",
        "place_of_birth": "dundalk",
        "home_address": "blk",
        "f": "blk",
        "name_of_ship": "eliza",
        "ship_port": "whitehaven",
        "date_leaving": "1871",
        "joined_ship_date": "1870-06-17",
        "joined_at_port": "newport",
        "capacity": "able seaman",
        "date_left": "1871-11-22",
        "left_port": "glasgow",
        "cause_of_leaving": "discharged",
        "sign_with_mark": "y",
        "notes": "blk"
    },
    {
        "id": "vtls004696432_0_17",
        "type": "sailor",
        "parent": "vtls004696432",
        "name": "william jones",
        "dob": "blk",
        "age": "26",
        "place_of_birth": "aberystwyth",
        "home_address": "blk",
        "f": "blk",
        "name_of_ship": "first ship",
        "ship_port": "blk",
        "date_leaving": "1870",
        "joined_ship_date": "1870-09-26",
        "joined_at_port": "newport",
        "capacity": "cook",
        "date_left": "1870-02-13",
        "left_port": "gloucestershire",
        "cause_of_leaving": "discharged",
        "sign_with_mark": "y",
        "notes": "blk"
    },
    {
        "id": "vtls004696432_1_12",
        "type": "sailor",
        "parent": "vtls004696432",
        "name": "david d davies",
        "dob": "blk",
        "age": "30",
        "place_of_birth": "cardigan",
        "home_address": "blk",
        "f": "blk",
        "name_of_ship": "keldhead",
        "ship_port": "aberystwyth",
        "date_leaving": "blk",
        "joined_ship_date": "1870-06-16",
        "joined_at_port": "newport",
        "capacity": "mate",
        "date_left": "1871-11-22",
        "left_port": "glasgow",
        "cause_of_leaving": "discharged",
        "sign_with_mark": "n",
        "notes": "blk"
    },
    {
        "id": "vtls004696432_0_16",
        "type": "sailor",
        "parent": "vtls004696432",
        "name": "lewis evans",
        "dob": "blk",
        "age": "14",
        "place_of_birth": "newquay",
        "home_address": "blk",
        "f": "blk",
        "name_of_ship": "first ship",
        "ship_port": "blk",
        "date_leaving": "1870",
        "joined_ship_date": "1870-09-24",
        "joined_at_port": "newport",
        "capacity": "boy",
        "date_left": "1870-02-13",
        "left_port": "gloucestershire",
        "cause_of_leaving": "discharged",
        "sign_with_mark": "n",
        "notes": "blk"
    },
    {
        "id": "vtls004696432_1_11",
        "type": "sailor",
        "parent": "vtls004696432",
        "name": "thomas davies",
        "dob": "blk",
        "age": "35",
        "place_of_birth": "cardigan",
        "home_address": "blk",
        "f": "blk",
        "name_of_ship": "keldhead",
        "ship_port": "aberystwyth",
        "date_leaving": "blk",
        "joined_ship_date": "continued",
        "joined_at_port": "blk",
        "capacity": "master",
        "date_left": "blk",
        "left_port": "blk",
        "cause_of_leaving": "remains on board",
        "sign_with_mark": "n",
        "notes": "blk"
    },
    {
        "id": "vtls004696439_0_15",
        "type": "sailor",
        "parent": "vtls004696439",
        "name": "george fugsden alexander",
        "dob": "blk",
        "age": "19",
        "place_of_birth": "south shields",
        "home_address": "blk",
        "f": "blk",
        "name_of_ship": "grange",
        "ship_port": "glasgow",
        "date_leaving": "1871",
        "joined_ship_date": "1871-12-12",
        "joined_at_port": "glasgow",
        "capacity": "able seaman",
        "date_left": "1872-01-04",
        "left_port": "holyhead",
        "cause_of_leaving": "deserted",
        "sign_with_mark": "y",
        "notes": "blk"
    },
    {
        "id": "vtls004696432_1_17",
        "type": "sailor",
        "parent": "vtls004696432",
        "name": "william sparks",
        "dob": "blk",
        "age": "27",
        "place_of_birth": "london",
        "home_address": "blk",
        "f": "blk",
        "name_of_ship": "[kate crosby]",
        "ship_port": "[yarmouth]",
        "date_leaving": "1871",
        "joined_ship_date": "1870-06-20",
        "joined_at_port": "newport",
        "capacity": "able seaman",
        "date_left": "1871-11-22",
        "left_port": "glasgow",
        "cause_of_leaving": "discharged",
        "sign_with_mark": "y",
        "notes": "blk"
    },
    {
        "id": "vtls004696439_0_13",
        "type": "sailor",
        "parent": "vtls004696439",
        "name": "thomas hingstow",
        "dob": "blk",
        "age": "17",
        "place_of_birth": "plymouth",
        "home_address": "blk",
        "f": "blk",
        "name_of_ship": "magiec",
        "ship_port": "penzance",
        "date_leaving": "1871",
        "joined_ship_date": "blk",
        "joined_at_port": "glasgow",
        "capacity": "cook & able seaman",
        "date_left": "1872-06-25",
        "left_port": "london",
        "cause_of_leaving": "discharged",
        "sign_with_mark": "n",
        "notes": "blk"
    },
    {
        "id": "vtls004696439_0_16",
        "type": "sailor",
        "parent": "vtls004696439",
        "name": "benjamin james",
        "dob": "blk",
        "age": "19",
        "place_of_birth": "cardigan",
        "home_address": "blk",
        "f": "blk",
        "name_of_ship": "magic",
        "ship_port": "penzance",
        "date_leaving": "1871",
        "joined_ship_date": "1871-12-12",
        "joined_at_port": "glasgow",
        "capacity": "able seaman",
        "date_left": "1872-06-20",
        "left_port": "london",
        "cause_of_leaving": "discharged",
        "sign_with_mark": "n",
        "notes": "blk"
    },
    {
        "id": "vtls004696439_0_12",
        "type": "sailor",
        "parent": "vtls004696439",
        "name": "david d davies",
        "dob": "blk",
        "age": "30",
        "place_of_birth": "newquay",
        "home_address": "blk",
        "f": "blk",
        "name_of_ship": "keldhead",
        "ship_port": "aberystwyth",
        "date_leaving": "1871",
        "joined_ship_date": "1871-12-12",
        "joined_at_port": "glasgow",
        "capacity": "mate",
        "date_left": "1872-06-25",
        "left_port": "london",
        "cause_of_leaving": "discharged",
        "sign_with_mark": "n",
        "notes": "blk"
    },
    {
        "id": "vtls004696439_0_14",
        "type": "sailor",
        "parent": "vtls004696439",
        "name": "thomas smith",
        "dob": "blk",
        "age": "28",
        "place_of_birth": "bristol",
        "home_address": "blk",
        "f": "blk",
        "name_of_ship": "grange",
        "ship_port": "glasgow",
        "date_leaving": "1871",
        "joined_ship_date": "1871-12-12",
        "joined_at_port": "glasgow",
        "capacity": "able seaman",
        "date_left": "1872-01-04",
        "left_port": "holyhead",
        "cause_of_leaving": "deserted",
        "sign_with_mark": "y",
        "notes": "blk"
    },
    {
        "id": "vtls004696439_0_11",
        "type": "sailor",
        "parent": "vtls004696439",
        "name": "thomas davies",
        "dob": "blk",
        "age": "37",
        "place_of_birth": "newquay",
        "home_address": "blk",
        "f": "blk",
        "name_of_ship": "keldhead",
        "ship_port": "aberystwyth",
        "date_leaving": "1871",
        "joined_ship_date": "1871-12-12",
        "joined_at_port": "glasgow",
        "capacity": "master",
        "date_left": "blk",
        "left_port": "blk",
        "cause_of_leaving": "remains on board",
        "sign_with_mark": "n",
        "notes": "blk"
    },
    {
        "id": "vtls004696455_0_16",
        "type": "sailor",
        "parent": "vtls004696455",
        "name": "robert nolbury",
        "dob": "blk",
        "age": "28",
        "place_of_birth": "flintshire",
        "home_address": "ship & pilot stand",
        "f": "ship & pilot stand",
        "name_of_ship": "excel",
        "ship_port": "chester",
        "date_leaving": "1872",
        "joined_ship_date": "1872-12-07",
        "joined_at_port": "swansea",
        "capacity": "able seaman",
        "date_left": "1872-12-18",
        "left_port": "swansea",
        "cause_of_leaving": "discharged",
        "sign_with_mark": "y",
        "notes": "blk"
    },
    {
        "id": "vtls004696439_0_19",
        "type": "sailor",
        "parent": "vtls004696439",
        "name": "william owen williams",
        "dob": "blk",
        "age": "19",
        "place_of_birth": "bangor",
        "home_address": "blk",
        "f": "blk",
        "name_of_ship": "florentin",
        "ship_port": "liverpool",
        "date_leaving": "1871",
        "joined_ship_date": "1872-01-08",
        "joined_at_port": "holyhead",
        "capacity": "ordinary seaman",
        "date_left": "1872-06-20",
        "left_port": "london",
        "cause_of_leaving": "discharged",
        "sign_with_mark": "n",
        "notes": "blk"
    },
    {
        "id": "vtls004696439_0_17",
        "type": "sailor",
        "parent": "vtls004696439",
        "name": "henry bachelor",
        "dob": "blk",
        "age": "47",
        "place_of_birth": "thorne point",
        "home_address": "blk",
        "f": "blk",
        "name_of_ship": "zenith",
        "ship_port": "liverpool",
        "date_leaving": "1871",
        "joined_ship_date": "1872-01-08",
        "joined_at_port": "holyhead",
        "capacity": "able seaman",
        "date_left": "1872-05-04",
        "left_port": "falmouth",
        "cause_of_leaving": "deserted",
        "sign_with_mark": "y",
        "notes": "blk"
    },
    {
        "id": "vtls004696439_0_18",
        "type": "sailor",
        "parent": "vtls004696439",
        "name": "george brotherhood",
        "dob": "blk",
        "age": "32",
        "place_of_birth": "london",
        "home_address": "blk",
        "f": "blk",
        "name_of_ship": "florentin",
        "ship_port": "liverpool",
        "date_leaving": "1871",
        "joined_ship_date": "1872-01-08",
        "joined_at_port": "holyhead",
        "capacity": "able seaman",
        "date_left": "1872-06-20",
        "left_port": "london",
        "cause_of_leaving": "discharged",
        "sign_with_mark": "n",
        "notes": "blk"
    },
    {
        "id": "vtls004696455_0_14",
        "type": "sailor",
        "parent": "vtls004696455",
        "name": "william simpson",
        "dob": "blk",
        "age": "36",
        "place_of_birth": "belfast",
        "home_address": "blue bell stand",
        "f": "blue bell stand",
        "name_of_ship": "lodore",
        "ship_port": "liverpool",
        "date_leaving": "1872",
        "joined_ship_date": "1872-12-07",
        "joined_at_port": "swansea",
        "capacity": "able seaman",
        "date_left": "1872-12-29",
        "left_port": "swansea",
        "cause_of_leaving": "sick",
        "sign_with_mark": "y",
        "notes": "blk"
    },
    {
        "id": "vtls004696455_0_15",
        "type": "sailor",
        "parent": "vtls004696455",
        "name": "william petterzen",
        "dob": "blk",
        "age": "28",
        "place_of_birth": "gothenburg, sweden",
        "home_address": "globe inn strand",
        "f": "globe inn strand",
        "name_of_ship": "mary",
        "ship_port": "aberystwyth",
        "date_leaving": "1872",
        "joined_ship_date": "1872-12-04",
        "joined_at_port": "swansea",
        "capacity": "able seaman",
        "date_left": "blk",
        "left_port": "blk",
        "cause_of_leaving": "blk",
        "sign_with_mark": "n",
        "notes": "blk"
    },
    {
        "id": "vtls004696455_0_13",
        "type": "sailor",
        "parent": "vtls004696455",
        "name": "william loft",
        "dob": "blk",
        "age": "18",
        "place_of_birth": "newport",
        "home_address": "on board",
        "f": "on board",
        "name_of_ship": "adarnis",
        "ship_port": "waterford",
        "date_leaving": "1872",
        "joined_ship_date": "1872-12-11",
        "joined_at_port": "swansea",
        "capacity": "ordinary seaman",
        "date_left": "blk",
        "left_port": "blk",
        "cause_of_leaving": "blk",
        "sign_with_mark": "y",
        "notes": "blk"
    },
    {
        "id": "vtls004696455_0_11",
        "type": "sailor",
        "parent": "vtls004696455",
        "name": "thomas davies",
        "dob": "blk",
        "age": "36",
        "place_of_birth": "newquay",
        "home_address": "blk",
        "f": "blk",
        "name_of_ship": "keldhead",
        "ship_port": "aberystwyth",
        "date_leaving": "1872",
        "joined_ship_date": "1872-12-04",
        "joined_at_port": "swansea",
        "capacity": "master",
        "date_left": "blk",
        "left_port": "blk",
        "cause_of_leaving": "blk",
        "sign_with_mark": "n",
        "notes": "blk"
    },
    {
        "id": "vtls004696455_0_12",
        "type": "sailor",
        "parent": "vtls004696455",
        "name": "william williams",
        "dob": "blk",
        "age": "46",
        "place_of_birth": "solva",
        "home_address": "on board",
        "f": "on board",
        "name_of_ship": "albys",
        "ship_port": "liverpool",
        "date_leaving": "1872",
        "joined_ship_date": "1872-12-06",
        "joined_at_port": "swansea",
        "capacity": "mate",
        "date_left": "blk",
        "left_port": "blk",
        "cause_of_leaving": "blk",
        "sign_with_mark": "n",
        "notes": "blk"
    },
    {
        "id": "vtls004696455_1_13",
        "type": "sailor",
        "parent": "vtls004696455",
        "name": "charles simpson",
        "dob": "blk",
        "age": "25",
        "place_of_birth": "yarmouth",
        "home_address": "blk",
        "f": "blk",
        "name_of_ship": "mary ann",
        "ship_port": "ipswich",
        "date_leaving": "1873-01-01",
        "joined_ship_date": "1873-01-17",
        "joined_at_port": "swansea",
        "capacity": "able seaman",
        "date_left": "1873-04-27",
        "left_port": "cardiff",
        "cause_of_leaving": "discharged",
        "sign_with_mark": "n",
        "notes": "blk"
    },
    {
        "id": "vtls004696455_1_14",
        "type": "sailor",
        "parent": "vtls004696455",
        "name": "william peterson",
        "dob": "blk",
        "age": "35",
        "place_of_birth": "gothenburg, sweden",
        "home_address": "blk",
        "f": "blk",
        "name_of_ship": "mary",
        "ship_port": "aberystwyth",
        "date_leaving": "1872-11",
        "joined_ship_date": "1872-02-05",
        "joined_at_port": "swansea",
        "capacity": "able seaman",
        "date_left": "1873-04-27",
        "left_port": "cardiff",
        "cause_of_leaving": "discharged",
        "sign_with_mark": "n",
        "notes": "blk"
    },
    {
        "id": "vtls004696455_1_15",
        "type": "sailor",
        "parent": "vtls004696455",
        "name": "george mc innis",
        "dob": "blk",
        "age": "20",
        "place_of_birth": "campbelltown",
        "home_address": "blk",
        "f": "blk",
        "name_of_ship": "barry",
        "ship_port": "llanelly",
        "date_leaving": "1872-11",
        "joined_ship_date": "1873-01-03",
        "joined_at_port": "swansea",
        "capacity": "able seaman",
        "date_left": "1873-04-27",
        "left_port": "cardiff",
        "cause_of_leaving": "discharged",
        "sign_with_mark": "n",
        "notes": "blk"
    },
    {
        "id": "vtls004696455_1_16",
        "type": "sailor",
        "parent": "vtls004696455",
        "name": "william loft",
        "dob": "blk",
        "age": "17",
        "place_of_birth": "newport",
        "home_address": "blk",
        "f": "blk",
        "name_of_ship": "adonis",
        "ship_port": "waterford",
        "date_leaving": "1872-11",
        "joined_ship_date": "1872-12-12",
        "joined_at_port": "swansea",
        "capacity": "ordinary seaman",
        "date_left": "1873-04-27",
        "left_port": "cardiff",
        "cause_of_leaving": "discharged",
        "sign_with_mark": "n",
        "notes": "blk"
    },
    {
        "id": "vtls004696455_1_11",
        "type": "sailor",
        "parent": "vtls004696455",
        "name": "thomas davies",
        "dob": "blk",
        "age": "35",
        "place_of_birth": "newquay",
        "home_address": "blk",
        "f": "blk",
        "name_of_ship": "keldhead",
        "ship_port": "aberystwyth",
        "date_leaving": "blk",
        "joined_ship_date": "1873-01-03",
        "joined_at_port": "swansea",
        "capacity": "master",
        "date_left": "1873-04-27",
        "left_port": "cardiff",
        "cause_of_leaving": "ship found",
        "sign_with_mark": "n",
        "notes": "blk"
    },
    {
        "id": "vtls004696455_1_12",
        "type": "sailor",
        "parent": "vtls004696455",
        "name": "william williams",
        "dob": "blk",
        "age": "47",
        "place_of_birth": "solva",
        "home_address": "blk",
        "f": "blk",
        "name_of_ship": "keldhead",
        "ship_port": "aberystwyth",
        "date_leaving": "blk",
        "joined_ship_date": "1873-01-03",
        "joined_at_port": "swansea",
        "capacity": "mate",
        "date_left": "1873-04-27",
        "left_port": "cardiff",
        "cause_of_leaving": "discharged",
        "sign_with_mark": "n",
        "notes": "blk"
    }
]