[
    {
        "id": "vtls004979185_0_11",
        "type": "sailor",
        "parent": "vtls004979185",
        "name": "william morgans",
        "dob": "blk",
        "age": "26",
        "place_of_birth": "aberystwyth",
        "home_address": "blk",
        "f": "blk",
        "name_of_ship": "ystwyth",
        "ship_port": "aberystwyth",
        "date_leaving": "remains",
        "joined_ship_date": "1871-05-08",
        "joined_at_port": "swansea",
        "capacity": "master",
        "date_left": "blk",
        "left_port": "blk",
        "cause_of_leaving": "remains on board",
        "sign_with_mark": "n",
        "notes": "1872-01-01 to 1872-06-30"
    },
    {
        "id": "vtls004979185_1_11",
        "type": "sailor",
        "parent": "vtls004979185",
        "name": "william morgan",
        "dob": "blk",
        "age": "27",
        "place_of_birth": "aberystwyth",
        "home_address": "blk",
        "f": "blk",
        "name_of_ship": "ystwyth",
        "ship_port": "aberystwyth",
        "date_leaving": "continued",
        "joined_ship_date": "1872-07-01",
        "joined_at_port": "skibbereen",
        "capacity": "master",
        "date_left": "1872-12-31",
        "left_port": "liverpool",
        "cause_of_leaving": "remains on board",
        "sign_with_mark": "n",
        "notes": "1872-07-01 to 1872-12-31"
    },
    {
        "id": "vtls004979185_1_14",
        "type": "sailor",
        "parent": "vtls004979185",
        "name": "john foster",
        "dob": "blk",
        "age": "18",
        "place_of_birth": "dublin",
        "home_address": "blk",
        "f": "blk",
        "name_of_ship": "ystwyth",
        "ship_port": "aberystwyth",
        "date_leaving": "continued",
        "joined_ship_date": "1872-07-01",
        "joined_at_port": "skibbereen",
        "capacity": "ordinary seaman",
        "date_left": "1872-12-31",
        "left_port": "liverpool",
        "cause_of_leaving": "remains on board",
        "sign_with_mark": "n",
        "notes": "blk"
    },
    {
        "id": "vtls004979185_1_13",
        "type": "sailor",
        "parent": "vtls004979185",
        "name": "edward owen",
        "dob": "blk",
        "age": "26",
        "place_of_birth": "beaumaris",
        "home_address": "blk",
        "f": "blk",
        "name_of_ship": "ystwyth",
        "ship_port": "aberystwyth",
        "date_leaving": "continued",
        "joined_ship_date": "1872-07-01",
        "joined_at_port": "skibbereen",
        "capacity": "able seaman",
        "date_left": "1872-12-31",
        "left_port": "liverpool",
        "cause_of_leaving": "remains on board",
        "sign_with_mark": "n",
        "notes": "blk"
    },
    {
        "id": "vtls004979185_1_12",
        "type": "sailor",
        "parent": "vtls004979185",
        "name": "john humphreys",
        "dob": "blk",
        "age": "32",
        "place_of_birth": "aberystwyth",
        "home_address": "blk",
        "f": "blk",
        "name_of_ship": "ystwyth",
        "ship_port": "aberystwyth",
        "date_leaving": "continued",
        "joined_ship_date": "1872-07-01",
        "joined_at_port": "skibbereen",
        "capacity": "mate",
        "date_left": "1872-12-31",
        "left_port": "liverpool",
        "cause_of_leaving": "remains on board",
        "sign_with_mark": "n",
        "notes": "blk"
    },
    {
        "id": "vtls004979185_0_12",
        "type": "sailor",
        "parent": "vtls004979185",
        "name": "john humphreys",
        "dob": "blk",
        "age": "30",
        "place_of_birth": "aberystwyth",
        "home_address": "blk",
        "f": "blk",
        "name_of_ship": "ystwyth",
        "ship_port": "aberystwyth",
        "date_leaving": "remains",
        "joined_ship_date": "1871-07-12",
        "joined_at_port": "runcorn",
        "capacity": "mate",
        "date_left": "blk",
        "left_port": "blk",
        "cause_of_leaving": "remains on board",
        "sign_with_mark": "n",
        "notes": "blk"
    },
    {
        "id": "vtls004979185_0_13",
        "type": "sailor",
        "parent": "vtls004979185",
        "name": "george floyd",
        "dob": "blk",
        "age": "18",
        "place_of_birth": "plymouth",
        "home_address": "blk",
        "f": "blk",
        "name_of_ship": "no ship",
        "ship_port": "blk",
        "date_leaving": "blk",
        "joined_ship_date": "1872-06-01",
        "joined_at_port": "liverpool",
        "capacity": "ordinary seaman",
        "date_left": "blk",
        "left_port": "blk",
        "cause_of_leaving": "remains on board",
        "sign_with_mark": "n",
        "notes": "blk"
    },
    {
        "id": "vtls004979185_0_14",
        "type": "sailor",
        "parent": "vtls004979185",
        "name": "david d davies",
        "dob": "blk",
        "age": "15",
        "place_of_birth": "aberystwyth",
        "home_address": "blk",
        "f": "blk",
        "name_of_ship": "no ship",
        "ship_port": "blk",
        "date_leaving": "blk",
        "joined_ship_date": "1872-03-03",
        "joined_at_port": "aberystwyth",
        "capacity": "boy",
        "date_left": "blk",
        "left_port": "blk",
        "cause_of_leaving": "remains on board",
        "sign_with_mark": "n",
        "notes": "blk"
    }
]