[
    {
        "id": "vtls004658464_0_12",
        "type": "sailor",
        "parent": "vtls004658464",
        "name": "david watkins",
        "dob": "blk",
        "age": "56",
        "place_of_birth": "aberystwyth",
        "home_address": "north parade, aberystwyth",
        "f": "north parade, aberystwyth",
        "name_of_ship": "emily agnes",
        "ship_port": "aberystwyth",
        "date_leaving": "continues",
        "joined_ship_date": "1863-01-01",
        "joined_at_port": "londonderry",
        "capacity": "mate",
        "date_left": "blk",
        "left_port": "blk",
        "cause_of_leaving": "remains on board",
        "sign_with_mark": "n",
        "notes": "blk"
    },
    {
        "id": "vtls004658464_0_11",
        "type": "sailor",
        "parent": "vtls004658464",
        "name": "john watkins",
        "dob": "blk",
        "age": "24",
        "place_of_birth": "aberystwyth",
        "home_address": "north parade, aberystwyth",
        "f": "north parade, aberystwyth",
        "name_of_ship": "emily agnes",
        "ship_port": "aberystwyth",
        "date_leaving": "continues",
        "joined_ship_date": "1862-05-30",
        "joined_at_port": "conway",
        "capacity": "master",
        "date_left": "blk",
        "left_port": "blk",
        "cause_of_leaving": "remains on board",
        "sign_with_mark": "n",
        "notes": "blk"
    },
    {
        "id": "vtls004658464_1_11",
        "type": "sailor",
        "parent": "vtls004658464",
        "name": "john watkins",
        "dob": "blk",
        "age": "24",
        "place_of_birth": "aberystwyth",
        "home_address": "aberystwyth",
        "f": "aberystwyth",
        "name_of_ship": "emily agnes",
        "ship_port": "aberystwyth",
        "date_leaving": "continues",
        "joined_ship_date": "1863-05",
        "joined_at_port": "conway",
        "capacity": "master",
        "date_left": "1864-01-22",
        "left_port": "swansea",
        "cause_of_leaving": "remains on board",
        "sign_with_mark": "n",
        "notes": "blk"
    },
    {
        "id": "vtls004658464_0_13",
        "type": "sailor",
        "parent": "vtls004658464",
        "name": "james watkins",
        "dob": "blk",
        "age": "22",
        "place_of_birth": "aberystwyth",
        "home_address": "blk",
        "f": "blk",
        "name_of_ship": "emily agnes",
        "ship_port": "aberystwyth",
        "date_leaving": "continues",
        "joined_ship_date": "1863-01-01",
        "joined_at_port": "londonderry",
        "capacity": "able seaman",
        "date_left": "blk",
        "left_port": "blk",
        "cause_of_leaving": "remains on board",
        "sign_with_mark": "n",
        "notes": "blk"
    },
    {
        "id": "vtls004658464_0_14",
        "type": "sailor",
        "parent": "vtls004658464",
        "name": "benjamin jones",
        "dob": "blk",
        "age": "19",
        "place_of_birth": "bangor",
        "home_address": "blk",
        "f": "blk",
        "name_of_ship": "emily agnes",
        "ship_port": "aberystwyth",
        "date_leaving": "continues",
        "joined_ship_date": "1863-01-01",
        "joined_at_port": "londonderry",
        "capacity": "boy",
        "date_left": "1863-04-15",
        "left_port": "liverpool",
        "cause_of_leaving": "discharged",
        "sign_with_mark": "n",
        "notes": "blk"
    },
    {
        "id": "vtls004658464_1_12",
        "type": "sailor",
        "parent": "vtls004658464",
        "name": "david watkins",
        "dob": "blk",
        "age": "57",
        "place_of_birth": "aberystwyth",
        "home_address": "blk",
        "f": "blk",
        "name_of_ship": "emily agnes",
        "ship_port": "aberystwyth",
        "date_leaving": "continues",
        "joined_ship_date": "1863-05",
        "joined_at_port": "conway",
        "capacity": "mate",
        "date_left": "1864-01-22",
        "left_port": "swansea",
        "cause_of_leaving": "remains on board",
        "sign_with_mark": "n",
        "notes": "blk"
    },
    {
        "id": "vtls004658464_0_15",
        "type": "sailor",
        "parent": "vtls004658464",
        "name": "william rees",
        "dob": "blk",
        "age": "13",
        "place_of_birth": "aberystwyth",
        "home_address": "blk",
        "f": "blk",
        "name_of_ship": "first ship",
        "ship_port": "blk",
        "date_leaving": "blk",
        "joined_ship_date": "1863-04-16",
        "joined_at_port": "liverpool",
        "capacity": "boy",
        "date_left": "blk",
        "left_port": "blk",
        "cause_of_leaving": "remains on board",
        "sign_with_mark": "n",
        "notes": "blk"
    },
    {
        "id": "vtls004658464_1_13",
        "type": "sailor",
        "parent": "vtls004658464",
        "name": "james watkins",
        "dob": "blk",
        "age": "22",
        "place_of_birth": "aberystwyth",
        "home_address": "blk",
        "f": "blk",
        "name_of_ship": "emily agnes",
        "ship_port": "aberystwyth",
        "date_leaving": "continues",
        "joined_ship_date": "1863-05",
        "joined_at_port": "conway",
        "capacity": "able seaman",
        "date_left": "1864-01-22",
        "left_port": "swansea",
        "cause_of_leaving": "remains on board",
        "sign_with_mark": "n",
        "notes": "blk"
    },
    {
        "id": "vtls004658473_1_11",
        "type": "sailor",
        "parent": "vtls004658473",
        "name": "john watkins",
        "dob": "blk",
        "age": "25",
        "place_of_birth": "aberystwyth",
        "home_address": "north parade, aberystwyth",
        "f": "north parade, aberystwyth",
        "name_of_ship": "emily agnes",
        "ship_port": "aberystwyth",
        "date_leaving": "still on board",
        "joined_ship_date": "blk",
        "joined_at_port": "blk",
        "capacity": "master",
        "date_left": "blk",
        "left_port": "blk",
        "cause_of_leaving": "remains on board",
        "sign_with_mark": "n",
        "notes": "blk"
    },
    {
        "id": "vtls004658473_1_12",
        "type": "sailor",
        "parent": "vtls004658473",
        "name": "david watkins",
        "dob": "blk",
        "age": "59",
        "place_of_birth": "aberystwyth",
        "home_address": "north parade, aberystwyth",
        "f": "north parade, aberystwyth",
        "name_of_ship": "emily agnes",
        "ship_port": "aberystwyth",
        "date_leaving": "still on board",
        "joined_ship_date": "blk",
        "joined_at_port": "blk",
        "capacity": "mate",
        "date_left": "blk",
        "left_port": "blk",
        "cause_of_leaving": "remains on board",
        "sign_with_mark": "n",
        "notes": "blk"
    },
    {
        "id": "vtls004658464_1_14",
        "type": "sailor",
        "parent": "vtls004658464",
        "name": "john davies",
        "dob": "blk",
        "age": "17",
        "place_of_birth": "aberystwyth",
        "home_address": "blk",
        "f": "blk",
        "name_of_ship": "emily agnes",
        "ship_port": "aberystwyth",
        "date_leaving": "continues",
        "joined_ship_date": "1863-07",
        "joined_at_port": "aberystwyth",
        "capacity": "boy",
        "date_left": "1864-01-22",
        "left_port": "swansea",
        "cause_of_leaving": "remains on board",
        "sign_with_mark": "n",
        "notes": "blk"
    },
    {
        "id": "vtls004658473_1_13",
        "type": "sailor",
        "parent": "vtls004658473",
        "name": "james watkins",
        "dob": "blk",
        "age": "23",
        "place_of_birth": "aberystwyth",
        "home_address": "blk",
        "f": "blk",
        "name_of_ship": "emily agnes",
        "ship_port": "aberystwyth",
        "date_leaving": "still on board",
        "joined_ship_date": "blk",
        "joined_at_port": "blk",
        "capacity": "able seaman",
        "date_left": "blk",
        "left_port": "blk",
        "cause_of_leaving": "remains on board",
        "sign_with_mark": "n",
        "notes": "blk"
    },
    {
        "id": "vtls004658473_0_14",
        "type": "sailor",
        "parent": "vtls004658473",
        "name": "john davis",
        "dob": "blk",
        "age": "19",
        "place_of_birth": "aberystwyth",
        "home_address": "blk",
        "f": "blk",
        "name_of_ship": "emily agnes",
        "ship_port": "aberystwyth",
        "date_leaving": "blk",
        "joined_ship_date": "blk",
        "joined_at_port": "blk",
        "capacity": "ordinary seaman",
        "date_left": "blk",
        "left_port": "blk",
        "cause_of_leaving": "remains on board",
        "sign_with_mark": "n",
        "notes": "blk"
    },
    {
        "id": "vtls004658473_0_13",
        "type": "sailor",
        "parent": "vtls004658473",
        "name": "james watkins",
        "dob": "blk",
        "age": "23",
        "place_of_birth": "aberystwyth",
        "home_address": "blk",
        "f": "blk",
        "name_of_ship": "emily agnes",
        "ship_port": "aberystwyth",
        "date_leaving": "blk",
        "joined_ship_date": "blk",
        "joined_at_port": "blk",
        "capacity": "able seaman",
        "date_left": "blk",
        "left_port": "blk",
        "cause_of_leaving": "remains on board",
        "sign_with_mark": "n",
        "notes": "blk"
    },
    {
        "id": "vtls004658473_0_11",
        "type": "sailor",
        "parent": "vtls004658473",
        "name": "john watkins",
        "dob": "blk",
        "age": "25",
        "place_of_birth": "aberystwyth",
        "home_address": "aberystwyth",
        "f": "aberystwyth",
        "name_of_ship": "emily agnes",
        "ship_port": "aberystwyth",
        "date_leaving": "blk",
        "joined_ship_date": "blk",
        "joined_at_port": "blk",
        "capacity": "master",
        "date_left": "blk",
        "left_port": "blk",
        "cause_of_leaving": "remains on board",
        "sign_with_mark": "n",
        "notes": "blk"
    },
    {
        "id": "vtls004658473_0_12",
        "type": "sailor",
        "parent": "vtls004658473",
        "name": "david watkins",
        "dob": "blk",
        "age": "59",
        "place_of_birth": "aberystwyth",
        "home_address": "blk",
        "f": "blk",
        "name_of_ship": "emily agnes",
        "ship_port": "aberystwyth",
        "date_leaving": "blk",
        "joined_ship_date": "blk",
        "joined_at_port": "blk",
        "capacity": "mate",
        "date_left": "blk",
        "left_port": "blk",
        "cause_of_leaving": "remains on board",
        "sign_with_mark": "n",
        "notes": "blk"
    },
    {
        "id": "vtls004658480_1_12",
        "type": "sailor",
        "parent": "vtls004658480",
        "name": "david watkins",
        "dob": "blk",
        "age": "60",
        "place_of_birth": "aberystwyth",
        "home_address": "master mariner, aberystwith, cardigan",
        "f": "master mariner, aberystwith, cardigan",
        "name_of_ship": "emily agnes",
        "ship_port": "aberystwyth",
        "date_leaving": "continues",
        "joined_ship_date": "1866-07-01",
        "joined_at_port": "conway",
        "capacity": "mate",
        "date_left": "blk",
        "left_port": "blk",
        "cause_of_leaving": "remains on board",
        "sign_with_mark": "n",
        "notes": "blk"
    },
    {
        "id": "vtls004658480_1_11",
        "type": "sailor",
        "parent": "vtls004658480",
        "name": "john watkins",
        "dob": "blk",
        "age": "27",
        "place_of_birth": "aberystwyth",
        "home_address": "north parade, aberystwith",
        "f": "north parade, aberystwith",
        "name_of_ship": "emily agnes",
        "ship_port": "aberystwyth",
        "date_leaving": "continues",
        "joined_ship_date": "1866-07-01",
        "joined_at_port": "conway",
        "capacity": "master",
        "date_left": "blk",
        "left_port": "blk",
        "cause_of_leaving": "remains on board",
        "sign_with_mark": "n",
        "notes": "blk"
    },
    {
        "id": "vtls004658480_0_14",
        "type": "sailor",
        "parent": "vtls004658480",
        "name": "james butler",
        "dob": "blk",
        "age": "20",
        "place_of_birth": "portreath",
        "home_address": "blk",
        "f": "blk",
        "name_of_ship": "emily agnes",
        "ship_port": "aberystwyth",
        "date_leaving": "1866-01-28",
        "joined_ship_date": "1866-01-29",
        "joined_at_port": "cardiff",
        "capacity": "ordinary seaman",
        "date_left": "blk",
        "left_port": "blk",
        "cause_of_leaving": "remains on board",
        "sign_with_mark": "n",
        "notes": "blk"
    },
    {
        "id": "vtls004658480_0_11",
        "type": "sailor",
        "parent": "vtls004658480",
        "name": "john watkins",
        "dob": "blk",
        "age": "27",
        "place_of_birth": "aberystwyth",
        "home_address": "aberystwyth",
        "f": "aberystwyth",
        "name_of_ship": "emily agnes",
        "ship_port": "aberystwyth",
        "date_leaving": "1866-01-28",
        "joined_ship_date": "1866-01-29",
        "joined_at_port": "cardiff",
        "capacity": "master",
        "date_left": "blk",
        "left_port": "blk",
        "cause_of_leaving": "remains on board",
        "sign_with_mark": "n",
        "notes": "blk"
    },
    {
        "id": "vtls004658480_0_13",
        "type": "sailor",
        "parent": "vtls004658480",
        "name": "david watkins",
        "dob": "blk",
        "age": "60",
        "place_of_birth": "aberystwyth",
        "home_address": "blk",
        "f": "blk",
        "name_of_ship": "emily agnes",
        "ship_port": "aberystwyth",
        "date_leaving": "1866-01-28",
        "joined_ship_date": "1866-01-29",
        "joined_at_port": "cardiff",
        "capacity": "able seaman",
        "date_left": "blk",
        "left_port": "blk",
        "cause_of_leaving": "remains on board",
        "sign_with_mark": "n",
        "notes": "blk"
    },
    {
        "id": "vtls004658473_1_14",
        "type": "sailor",
        "parent": "vtls004658473",
        "name": "john davies",
        "dob": "blk",
        "age": "19",
        "place_of_birth": "aberystwyth",
        "home_address": "blk",
        "f": "blk",
        "name_of_ship": "emily agnes",
        "ship_port": "aberystwyth",
        "date_leaving": "still on board",
        "joined_ship_date": "blk",
        "joined_at_port": "blk",
        "capacity": "ordinary seaman",
        "date_left": "blk",
        "left_port": "blk",
        "cause_of_leaving": "remains on board",
        "sign_with_mark": "n",
        "notes": "blk"
    },
    {
        "id": "vtls004658480_0_12",
        "type": "sailor",
        "parent": "vtls004658480",
        "name": "james watkins",
        "dob": "blk",
        "age": "24",
        "place_of_birth": "aberystwyth",
        "home_address": "blk",
        "f": "blk",
        "name_of_ship": "emily agnes",
        "ship_port": "aberystwyth",
        "date_leaving": "1866-01-28",
        "joined_ship_date": "1866-01-29",
        "joined_at_port": "cardiff",
        "capacity": "mate",
        "date_left": "blk",
        "left_port": "blk",
        "cause_of_leaving": "remains on board",
        "sign_with_mark": "n",
        "notes": "blk"
    },
    {
        "id": "vtls004658480_1_14",
        "type": "sailor",
        "parent": "vtls004658480",
        "name": "james budler",
        "dob": "blk",
        "age": "20",
        "place_of_birth": "portreath, cornwall",
        "home_address": "blk",
        "f": "blk",
        "name_of_ship": "emily agnes",
        "ship_port": "aberystwyth",
        "date_leaving": "continues",
        "joined_ship_date": "1866-07-01",
        "joined_at_port": "conway",
        "capacity": "ordinary seaman",
        "date_left": "blk",
        "left_port": "blk",
        "cause_of_leaving": "remains on board",
        "sign_with_mark": "n",
        "notes": "surname was previously spelt 'butler'"
    },
    {
        "id": "vtls004658480_1_13",
        "type": "sailor",
        "parent": "vtls004658480",
        "name": "thomas cowley",
        "dob": "blk",
        "age": "25",
        "place_of_birth": "laxey, isle of man",
        "home_address": "blk",
        "f": "blk",
        "name_of_ship": "emily agnes",
        "ship_port": "aberystwyth",
        "date_leaving": "continues",
        "joined_ship_date": "1866-07-01",
        "joined_at_port": "conway",
        "capacity": "seaman",
        "date_left": "blk",
        "left_port": "blk",
        "cause_of_leaving": "remains on board",
        "sign_with_mark": "n",
        "notes": "blk"
    },
    {
        "id": "vtls004658484_1_11",
        "type": "sailor",
        "parent": "vtls004658484",
        "name": "john watkins",
        "dob": "blk",
        "age": "28",
        "place_of_birth": "aberystwyth",
        "home_address": "aberystwyth",
        "f": "aberystwyth",
        "name_of_ship": "emily agnes",
        "ship_port": "aberystwyth",
        "date_leaving": "continues",
        "joined_ship_date": "1861-06",
        "joined_at_port": "aberystwyth",
        "capacity": "master",
        "date_left": "blk",
        "left_port": "blk",
        "cause_of_leaving": "remains on board",
        "sign_with_mark": "n",
        "notes": "blk"
    },
    {
        "id": "vtls004658484_1_13",
        "type": "sailor",
        "parent": "vtls004658484",
        "name": "william williams",
        "dob": "blk",
        "age": "32",
        "place_of_birth": "aberystwyth",
        "home_address": "blk",
        "f": "blk",
        "name_of_ship": "marvel",
        "ship_port": "pwllheli",
        "date_leaving": "1867-06",
        "joined_ship_date": "1867-07",
        "joined_at_port": "aberdovey",
        "capacity": "able seaman",
        "date_left": "blk",
        "left_port": "blk",
        "cause_of_leaving": "remains on board",
        "sign_with_mark": "n",
        "notes": "blk"
    },
    {
        "id": "vtls004658484_1_12",
        "type": "sailor",
        "parent": "vtls004658484",
        "name": "david watkins",
        "dob": "blk",
        "age": "55",
        "place_of_birth": "aberystwyth",
        "home_address": "blk",
        "f": "blk",
        "name_of_ship": "emily agnes",
        "ship_port": "aberystwyth",
        "date_leaving": "continues",
        "joined_ship_date": "1861-06",
        "joined_at_port": "aberystwyth",
        "capacity": "mate",
        "date_left": "blk",
        "left_port": "blk",
        "cause_of_leaving": "remains on board",
        "sign_with_mark": "n",
        "notes": "blk"
    },
    {
        "id": "vtls004658484_0_13",
        "type": "sailor",
        "parent": "vtls004658484",
        "name": "john roberts",
        "dob": "blk",
        "age": "21",
        "place_of_birth": "anglesey",
        "home_address": "blk",
        "f": "blk",
        "name_of_ship": "emily agnes",
        "ship_port": "aberystwyth",
        "date_leaving": "blk",
        "joined_ship_date": "blk",
        "joined_at_port": "blk",
        "capacity": "able seaman",
        "date_left": "1867-06-28",
        "left_port": "fleetwood",
        "cause_of_leaving": "discharged",
        "sign_with_mark": "n",
        "notes": "blk"
    },
    {
        "id": "vtls004658484_0_11",
        "type": "sailor",
        "parent": "vtls004658484",
        "name": "john watkins",
        "dob": "blk",
        "age": "27",
        "place_of_birth": "aberystwyth",
        "home_address": "aberystwyth",
        "f": "aberystwyth",
        "name_of_ship": "emily agnes",
        "ship_port": "aberystwyth",
        "date_leaving": "blk",
        "joined_ship_date": "blk",
        "joined_at_port": "blk",
        "capacity": "master",
        "date_left": "blk",
        "left_port": "blk",
        "cause_of_leaving": "remains on board",
        "sign_with_mark": "n",
        "notes": "blk"
    },
    {
        "id": "vtls004658484_0_12",
        "type": "sailor",
        "parent": "vtls004658484",
        "name": "owen owens",
        "dob": "blk",
        "age": "25",
        "place_of_birth": "conway",
        "home_address": "blk",
        "f": "blk",
        "name_of_ship": "emily agnes",
        "ship_port": "aberystwyth",
        "date_leaving": "blk",
        "joined_ship_date": "blk",
        "joined_at_port": "blk",
        "capacity": "mate",
        "date_left": "1867-06-28",
        "left_port": "fleetwood",
        "cause_of_leaving": "discharged",
        "sign_with_mark": "n",
        "notes": "blk"
    },
    {
        "id": "vtls004658484_0_14",
        "type": "sailor",
        "parent": "vtls004658484",
        "name": "william jones",
        "dob": "blk",
        "age": "18",
        "place_of_birth": "llandudno",
        "home_address": "blk",
        "f": "blk",
        "name_of_ship": "emily agnes",
        "ship_port": "aberystwyth",
        "date_leaving": "blk",
        "joined_ship_date": "blk",
        "joined_at_port": "blk",
        "capacity": "cook",
        "date_left": "blk",
        "left_port": "blk",
        "cause_of_leaving": "remains on board",
        "sign_with_mark": "n",
        "notes": "blk"
    },
    {
        "id": "vtls004658488_0_12",
        "type": "sailor",
        "parent": "vtls004658488",
        "name": "david watkins senior",
        "dob": "blk",
        "age": "65",
        "place_of_birth": "aberystwyth",
        "home_address": "master mariner, aberystwyth",
        "f": "master mariner, aberystwyth",
        "name_of_ship": "emily agnes",
        "ship_port": "aberystwyth",
        "date_leaving": "continued",
        "joined_ship_date": "blk",
        "joined_at_port": "blk",
        "capacity": "mate",
        "date_left": "1869-06-30",
        "left_port": "runcorn",
        "cause_of_leaving": "remains on board",
        "sign_with_mark": "n",
        "notes": "blk"
    },
    {
        "id": "vtls004658488_1_11",
        "type": "sailor",
        "parent": "vtls004658488",
        "name": "john watkins",
        "dob": "blk",
        "age": "30",
        "place_of_birth": "aberystwyth",
        "home_address": "aberystwyth",
        "f": "aberystwyth",
        "name_of_ship": "emily agnes",
        "ship_port": "aberystwyth",
        "date_leaving": "continued",
        "joined_ship_date": "1869-07-01",
        "joined_at_port": "runcorn",
        "capacity": "master",
        "date_left": "1869-12-31",
        "left_port": "liverpool",
        "cause_of_leaving": "remains on board",
        "sign_with_mark": "n",
        "notes": "blk"
    },
    {
        "id": "vtls004658488_0_13",
        "type": "sailor",
        "parent": "vtls004658488",
        "name": "david watkins junior",
        "dob": "blk",
        "age": "33",
        "place_of_birth": "aberystwyth",
        "home_address": "blk",
        "f": "blk",
        "name_of_ship": "emily agnes",
        "ship_port": "aberystwyth",
        "date_leaving": "continued",
        "joined_ship_date": "blk",
        "joined_at_port": "blk",
        "capacity": "able seaman",
        "date_left": "1869-06-30",
        "left_port": "runcorn",
        "cause_of_leaving": "remains on board",
        "sign_with_mark": "n",
        "notes": "blk"
    },
    {
        "id": "vtls004658488_1_12",
        "type": "sailor",
        "parent": "vtls004658488",
        "name": "david watkins",
        "dob": "blk",
        "age": "34",
        "place_of_birth": "aberystwyth",
        "home_address": "blk",
        "f": "blk",
        "name_of_ship": "emily agnes",
        "ship_port": "aberystwyth",
        "date_leaving": "continued",
        "joined_ship_date": "1869-07-01",
        "joined_at_port": "runcorn",
        "capacity": "mate",
        "date_left": "1869-12-31",
        "left_port": "liverpool",
        "cause_of_leaving": "remains on board",
        "sign_with_mark": "n",
        "notes": "blk"
    },
    {
        "id": "vtls004658488_0_11",
        "type": "sailor",
        "parent": "vtls004658488",
        "name": "john watkins",
        "dob": "blk",
        "age": "29",
        "place_of_birth": "aberystwyth",
        "home_address": "15 north parade, aberystwyth",
        "f": "15 north parade, aberystwyth",
        "name_of_ship": "emily agnes",
        "ship_port": "aberystwyth",
        "date_leaving": "continued",
        "joined_ship_date": "blk",
        "joined_at_port": "blk",
        "capacity": "master",
        "date_left": "blk",
        "left_port": "blk",
        "cause_of_leaving": "remains on board",
        "sign_with_mark": "n",
        "notes": "blk"
    },
    {
        "id": "vtls004658488_0_14",
        "type": "sailor",
        "parent": "vtls004658488",
        "name": "richard richards",
        "dob": "blk",
        "age": "22",
        "place_of_birth": "aberystwyth",
        "home_address": "blk",
        "f": "blk",
        "name_of_ship": "emily agnes",
        "ship_port": "aberystwyth",
        "date_leaving": "continued",
        "joined_ship_date": "blk",
        "joined_at_port": "blk",
        "capacity": "able seaman",
        "date_left": "1869-06-30",
        "left_port": "runcorn",
        "cause_of_leaving": "paid off",
        "sign_with_mark": "n",
        "notes": "blk"
    },
    {
        "id": "vtls004658484_1_14",
        "type": "sailor",
        "parent": "vtls004658484",
        "name": "maurice hughes",
        "dob": "blk",
        "age": "16",
        "place_of_birth": "aberystwyth",
        "home_address": "blk",
        "f": "blk",
        "name_of_ship": "emily agnes",
        "ship_port": "aberystwyth",
        "date_leaving": "blk",
        "joined_ship_date": "1866-06",
        "joined_at_port": "aberdovey",
        "capacity": "boy",
        "date_left": "1867-12-02",
        "left_port": "aberdovey",
        "cause_of_leaving": "paid off",
        "sign_with_mark": "n",
        "notes": "blk"
    },
    {
        "id": "vtls004658518_1_11",
        "type": "sailor",
        "parent": "vtls004658518",
        "name": "david watkins",
        "dob": "blk",
        "age": "65",
        "place_of_birth": "aberystwyth",
        "home_address": "blk",
        "f": "blk",
        "name_of_ship": "emily agnes",
        "ship_port": "aberystwyth",
        "date_leaving": "continues",
        "joined_ship_date": "blk",
        "joined_at_port": "blk",
        "capacity": "master",
        "date_left": "1870-11-22",
        "left_port": "cardiff",
        "cause_of_leaving": "drowned",
        "sign_with_mark": "n",
        "notes": "there is a note on this record stating that the ship sank. the note further states that the vessel was raised on 10.12.70 and 'is in cardiff dock'."
    },
    {
        "id": "vtls004658488_1_13",
        "type": "sailor",
        "parent": "vtls004658488",
        "name": "david watkins",
        "dob": "blk",
        "age": "72",
        "place_of_birth": "aberystwyth",
        "home_address": "blk",
        "f": "blk",
        "name_of_ship": "emily agnes",
        "ship_port": "aberystwyth",
        "date_leaving": "continued",
        "joined_ship_date": "1869-07-01",
        "joined_at_port": "runcorn",
        "capacity": "able seaman",
        "date_left": "1869-12-31",
        "left_port": "liverpool",
        "cause_of_leaving": "remains on board",
        "sign_with_mark": "n",
        "notes": "there is much discrepancy between the records of this vessel of this crewman's age."
    },
    {
        "id": "vtls004658488_1_14",
        "type": "sailor",
        "parent": "vtls004658488",
        "name": "thomas griffiths",
        "dob": "blk",
        "age": "18",
        "place_of_birth": "newport",
        "home_address": "blk",
        "f": "blk",
        "name_of_ship": "emily agnes",
        "ship_port": "aberystwyth",
        "date_leaving": "continued",
        "joined_ship_date": "1869-07-01",
        "joined_at_port": "runcorn",
        "capacity": "ordinary seaman",
        "date_left": "1869-12-31",
        "left_port": "liverpool",
        "cause_of_leaving": "remains on board",
        "sign_with_mark": "n",
        "notes": "blk"
    },
    {
        "id": "vtls004658518_0_11",
        "type": "sailor",
        "parent": "vtls004658518",
        "name": "john watkins",
        "dob": "blk",
        "age": "30",
        "place_of_birth": "aberystwyth",
        "home_address": "15 north parade, aberystwith",
        "f": "15 north parade, aberystwith",
        "name_of_ship": "emily agnes",
        "ship_port": "aberystwyth",
        "date_leaving": "blk",
        "joined_ship_date": "1905-02-04",
        "joined_at_port": "conway",
        "capacity": "master",
        "date_left": "blk",
        "left_port": "blk",
        "cause_of_leaving": "remains on board",
        "sign_with_mark": "n",
        "notes": "blk"
    },
    {
        "id": "vtls004658518_0_12",
        "type": "sailor",
        "parent": "vtls004658518",
        "name": "david watkins",
        "dob": "blk",
        "age": "65",
        "place_of_birth": "aberystwyth",
        "home_address": "15 north parade, aberystwith",
        "f": "15 north parade, aberystwith",
        "name_of_ship": "emily agnes",
        "ship_port": "aberystwyth",
        "date_leaving": "blk",
        "joined_ship_date": "1905-02-05",
        "joined_at_port": "conway",
        "capacity": "mate",
        "date_left": "blk",
        "left_port": "blk",
        "cause_of_leaving": "remains on board",
        "sign_with_mark": "n",
        "notes": "blk"
    },
    {
        "id": "vtls004658518_0_14",
        "type": "sailor",
        "parent": "vtls004658518",
        "name": "thomas griffiths",
        "dob": "blk",
        "age": "21",
        "place_of_birth": "aberystwyth",
        "home_address": "blk",
        "f": "blk",
        "name_of_ship": "emily agnes",
        "ship_port": "aberystwyth",
        "date_leaving": "blk",
        "joined_ship_date": "1905-02-07",
        "joined_at_port": "conway",
        "capacity": "ordinary seaman",
        "date_left": "blk",
        "left_port": "blk",
        "cause_of_leaving": "remains on board",
        "sign_with_mark": "n",
        "notes": "blk"
    },
    {
        "id": "vtls004658518_0_13",
        "type": "sailor",
        "parent": "vtls004658518",
        "name": "david watkins",
        "dob": "blk",
        "age": "34",
        "place_of_birth": "aberystwyth",
        "home_address": "blk",
        "f": "blk",
        "name_of_ship": "emily agnes",
        "ship_port": "aberystwyth",
        "date_leaving": "blk",
        "joined_ship_date": "1905-02-06",
        "joined_at_port": "conway",
        "capacity": "ordinary seaman",
        "date_left": "blk",
        "left_port": "blk",
        "cause_of_leaving": "remains on board",
        "sign_with_mark": "n",
        "notes": "blk"
    },
    {
        "id": "vtls004658518_1_12",
        "type": "sailor",
        "parent": "vtls004658518",
        "name": "david watkins",
        "dob": "blk",
        "age": "38",
        "place_of_birth": "aberystwyth",
        "home_address": "blk",
        "f": "blk",
        "name_of_ship": "emily agnes",
        "ship_port": "aberystwyth",
        "date_leaving": "continues",
        "joined_ship_date": "blk",
        "joined_at_port": "blk",
        "capacity": "mate",
        "date_left": "1870-11-22",
        "left_port": "cardiff",
        "cause_of_leaving": "drowned",
        "sign_with_mark": "n",
        "notes": "blk"
    },
    {
        "id": "vtls004658538_0_11",
        "type": "sailor",
        "parent": "vtls004658538",
        "name": "william rowlands",
        "dob": "blk",
        "age": "22",
        "place_of_birth": "amlwch, anglesea",
        "home_address": "amlwch, anglesea",
        "f": "amlwch, anglesea",
        "name_of_ship": "[illustrious]",
        "ship_port": "liverpool",
        "date_leaving": "1871-01-26",
        "joined_ship_date": "1871-02-27",
        "joined_at_port": "cardiff",
        "capacity": "master",
        "date_left": "blk",
        "left_port": "blk",
        "cause_of_leaving": "remains on board",
        "sign_with_mark": "n",
        "notes": "blk"
    },
    {
        "id": "vtls004658538_0_15",
        "type": "sailor",
        "parent": "vtls004658538",
        "name": "william edwards",
        "dob": "blk",
        "age": "20",
        "place_of_birth": "amlwch, anglesea",
        "home_address": "blk",
        "f": "blk",
        "name_of_ship": "elizabeth ann",
        "ship_port": "$",
        "date_leaving": "1871-04-15",
        "joined_ship_date": "1871-04-17",
        "joined_at_port": "garston",
        "capacity": "ordinary seaman",
        "date_left": "blk",
        "left_port": "blk",
        "cause_of_leaving": "remains on board",
        "sign_with_mark": "n",
        "notes": "blk"
    },
    {
        "id": "vtls004658538_0_12",
        "type": "sailor",
        "parent": "vtls004658538",
        "name": "william jones",
        "dob": "blk",
        "age": "21",
        "place_of_birth": "amlwch, anglesea",
        "home_address": "blk",
        "f": "blk",
        "name_of_ship": "margaret [jones]",
        "ship_port": "[carnarvon]",
        "date_leaving": "1871-02-28",
        "joined_ship_date": "1871-03-01",
        "joined_at_port": "cardiff",
        "capacity": "mate",
        "date_left": "blk",
        "left_port": "blk",
        "cause_of_leaving": "remains on board",
        "sign_with_mark": "n",
        "notes": "blk"
    },
    {
        "id": "vtls004658538_0_14",
        "type": "sailor",
        "parent": "vtls004658538",
        "name": "$ jones",
        "dob": "blk",
        "age": "18",
        "place_of_birth": "caernarfon",
        "home_address": "blk",
        "f": "blk",
        "name_of_ship": "ocean queen",
        "ship_port": "liverpool",
        "date_leaving": "1871-04-15",
        "joined_ship_date": "1871-04-17",
        "joined_at_port": "garston",
        "capacity": "ordinary seaman",
        "date_left": "blk",
        "left_port": "blk",
        "cause_of_leaving": "remains on board",
        "sign_with_mark": "n",
        "notes": "blk"
    },
    {
        "id": "vtls004658518_1_14",
        "type": "sailor",
        "parent": "vtls004658518",
        "name": "charles thomas",
        "dob": "blk",
        "age": "13",
        "place_of_birth": "aberystwyth",
        "home_address": "blk",
        "f": "blk",
        "name_of_ship": "emily agnes",
        "ship_port": "aberystwyth",
        "date_leaving": "continues",
        "joined_ship_date": "blk",
        "joined_at_port": "blk",
        "capacity": "boy",
        "date_left": "1870-11-22",
        "left_port": "cardiff",
        "cause_of_leaving": "landed and sent home",
        "sign_with_mark": "n",
        "notes": "blk"
    },
    {
        "id": "vtls004658518_1_13",
        "type": "sailor",
        "parent": "vtls004658518",
        "name": "richard pugh",
        "dob": "blk",
        "age": "20",
        "place_of_birth": "aberystwyth",
        "home_address": "blk",
        "f": "blk",
        "name_of_ship": "emily agnes",
        "ship_port": "aberystwyth",
        "date_leaving": "continues",
        "joined_ship_date": "blk",
        "joined_at_port": "blk",
        "capacity": "ordinary seaman",
        "date_left": "1870-11-22",
        "left_port": "cardiff",
        "cause_of_leaving": "drowned",
        "sign_with_mark": "n",
        "notes": "blk"
    },
    {
        "id": "vtls004658538_0_13",
        "type": "sailor",
        "parent": "vtls004658538",
        "name": "issac guy",
        "dob": "blk",
        "age": "25",
        "place_of_birth": "padstowe",
        "home_address": "blk",
        "f": "blk",
        "name_of_ship": "emma",
        "ship_port": "liverpool",
        "date_leaving": "1871-02-25",
        "joined_ship_date": "1871-03-03",
        "joined_at_port": "cardiff",
        "capacity": "able seaman",
        "date_left": "1871-04-18",
        "left_port": "garston",
        "cause_of_leaving": "discharged",
        "sign_with_mark": "n",
        "notes": "blk"
    },
    {
        "id": "vtls004658538_1_11",
        "type": "sailor",
        "parent": "vtls004658538",
        "name": "william rowlands",
        "dob": "blk",
        "age": "24",
        "place_of_birth": "amlwch",
        "home_address": "amlwch",
        "f": "amlwch",
        "name_of_ship": "emily agnes",
        "ship_port": "aberystwyth",
        "date_leaving": "continues",
        "joined_ship_date": "blk",
        "joined_at_port": "blk",
        "capacity": "master",
        "date_left": "1871-12-31",
        "left_port": "bangor",
        "cause_of_leaving": "discharged",
        "sign_with_mark": "n",
        "notes": "blk"
    },
    {
        "id": "vtls004658538_1_12",
        "type": "sailor",
        "parent": "vtls004658538",
        "name": "richard rowlands",
        "dob": "blk",
        "age": "24",
        "place_of_birth": "amlwch",
        "home_address": "blk",
        "f": "blk",
        "name_of_ship": "emily agnes",
        "ship_port": "aberystwyth",
        "date_leaving": "continues",
        "joined_ship_date": "blk",
        "joined_at_port": "blk",
        "capacity": "mate",
        "date_left": "1871-12-31",
        "left_port": "bangor",
        "cause_of_leaving": "discharged",
        "sign_with_mark": "n",
        "notes": "blk"
    },
    {
        "id": "vtls004658538_1_14",
        "type": "sailor",
        "parent": "vtls004658538",
        "name": "richard hughes",
        "dob": "blk",
        "age": "18",
        "place_of_birth": "caernarfon",
        "home_address": "blk",
        "f": "blk",
        "name_of_ship": "emily agnes",
        "ship_port": "aberystwyth",
        "date_leaving": "continues",
        "joined_ship_date": "blk",
        "joined_at_port": "blk",
        "capacity": "ordinary seaman",
        "date_left": "1871-12-31",
        "left_port": "bangor",
        "cause_of_leaving": "discharged",
        "sign_with_mark": "n",
        "notes": "blk"
    },
    {
        "id": "vtls004658538_1_13",
        "type": "sailor",
        "parent": "vtls004658538",
        "name": "william edwards",
        "dob": "blk",
        "age": "19",
        "place_of_birth": "amlwch",
        "home_address": "blk",
        "f": "blk",
        "name_of_ship": "emily agnes",
        "ship_port": "aberystwyth",
        "date_leaving": "continues",
        "joined_ship_date": "blk",
        "joined_at_port": "blk",
        "capacity": "ordinary seaman",
        "date_left": "1871-12-31",
        "left_port": "bangor",
        "cause_of_leaving": "discharged",
        "sign_with_mark": "n",
        "notes": "blk"
    }
]