[
    {
        "id": "vtls004663052_0_11",
        "type": "sailor",
        "parent": "vtls004663052",
        "name": "thomas thomas",
        "dob": "blk",
        "age": "53",
        "place_of_birth": "cardigan",
        "home_address": "blk",
        "f": "blk",
        "name_of_ship": "george evans",
        "ship_port": "aberystwyth",
        "date_leaving": "1876-12-31",
        "joined_ship_date": "1877-01-01",
        "joined_at_port": "newport",
        "capacity": "master",
        "date_left": "1877-05-26",
        "left_port": "newport",
        "cause_of_leaving": "discharged",
        "sign_with_mark": "n",
        "notes": "blk"
    },
    {
        "id": "vtls004663052_0_12",
        "type": "sailor",
        "parent": "vtls004663052",
        "name": "evan evans",
        "dob": "blk",
        "age": "67",
        "place_of_birth": "newquay",
        "home_address": "blk",
        "f": "blk",
        "name_of_ship": "george evans",
        "ship_port": "aberystwyth",
        "date_leaving": "1876-12-31",
        "joined_ship_date": "1877-01-01",
        "joined_at_port": "newport",
        "capacity": "mate",
        "date_left": "1877-06-02",
        "left_port": "newquay",
        "cause_of_leaving": "discharged",
        "sign_with_mark": "n",
        "notes": "blk"
    },
    {
        "id": "vtls004663052_1_12",
        "type": "sailor",
        "parent": "vtls004663052",
        "name": "david j rees",
        "dob": "blk",
        "age": "21",
        "place_of_birth": "st. dogmaels, pembrokeshire",
        "home_address": "blk",
        "f": "blk",
        "name_of_ship": "hibernian ss",
        "ship_port": "liverpool",
        "date_leaving": "1877-08",
        "joined_ship_date": "1877-08-16",
        "joined_at_port": "cardigan",
        "capacity": "mate",
        "date_left": "blk",
        "left_port": "blk",
        "cause_of_leaving": "remains on board",
        "sign_with_mark": "n",
        "notes": "blk"
    },
    {
        "id": "vtls004663052_1_11",
        "type": "sailor",
        "parent": "vtls004663052",
        "name": "david rees",
        "dob": "blk",
        "age": "50",
        "place_of_birth": "st. dogmaels, pembrokeshire",
        "home_address": "blk",
        "f": "blk",
        "name_of_ship": "heather bell",
        "ship_port": "cardigan",
        "date_leaving": "1877-07",
        "joined_ship_date": "1877-07-07",
        "joined_at_port": "cardigan",
        "capacity": "master",
        "date_left": "blk",
        "left_port": "blk",
        "cause_of_leaving": "remains on board",
        "sign_with_mark": "y",
        "notes": "blk"
    },
    {
        "id": "vtls004663060_0_13",
        "type": "sailor",
        "parent": "vtls004663060",
        "name": "enoch davies",
        "dob": "blk",
        "age": "14",
        "place_of_birth": "st. dogmaels, pembrokeshire",
        "home_address": "blk",
        "f": "blk",
        "name_of_ship": "first vessel",
        "ship_port": "blk",
        "date_leaving": "blk",
        "joined_ship_date": "1878-02-26",
        "joined_at_port": "cardigan",
        "capacity": "boy",
        "date_left": "blk",
        "left_port": "blk",
        "cause_of_leaving": "remains on board",
        "sign_with_mark": "n",
        "notes": "blk"
    },
    {
        "id": "vtls004663060_0_12",
        "type": "sailor",
        "parent": "vtls004663060",
        "name": "david j rees",
        "dob": "blk",
        "age": "23",
        "place_of_birth": "st. dogmaels, pembrokeshire",
        "home_address": "blk",
        "f": "blk",
        "name_of_ship": "george evans",
        "ship_port": "aberystwyth",
        "date_leaving": "blk",
        "joined_ship_date": "blk",
        "joined_at_port": "blk",
        "capacity": "mate",
        "date_left": "blk",
        "left_port": "blk",
        "cause_of_leaving": "remains on board",
        "sign_with_mark": "n",
        "notes": "blk"
    },
    {
        "id": "vtls004663060_0_11",
        "type": "sailor",
        "parent": "vtls004663060",
        "name": "david rees",
        "dob": "blk",
        "age": "57",
        "place_of_birth": "st. dogmaels, pembrokeshire",
        "home_address": "blk",
        "f": "blk",
        "name_of_ship": "george evans",
        "ship_port": "aberystwyth",
        "date_leaving": "blk",
        "joined_ship_date": "blk",
        "joined_at_port": "blk",
        "capacity": "master",
        "date_left": "blk",
        "left_port": "blk",
        "cause_of_leaving": "remains on board",
        "sign_with_mark": "y",
        "notes": "blk"
    },
    {
        "id": "vtls004662975_0_13",
        "type": "sailor",
        "parent": "vtls004662975",
        "name": "david evans",
        "dob": "blk",
        "age": "19",
        "place_of_birth": "newquay",
        "home_address": "blk",
        "f": "blk",
        "name_of_ship": "george evans",
        "ship_port": "aberystwyth",
        "date_leaving": "blk",
        "joined_ship_date": "1863-01-01",
        "joined_at_port": "whitehaven",
        "capacity": "ordinary seaman",
        "date_left": "blk",
        "left_port": "blk",
        "cause_of_leaving": "remains on board",
        "sign_with_mark": "n",
        "notes": "blk"
    },
    {
        "id": "vtls004662975_0_11",
        "type": "sailor",
        "parent": "vtls004662975",
        "name": "thomas thomas",
        "dob": "blk",
        "age": "40",
        "place_of_birth": "newquay",
        "home_address": "blk",
        "f": "blk",
        "name_of_ship": "george evans",
        "ship_port": "aberystwyth",
        "date_leaving": "blk",
        "joined_ship_date": "1863-01-01",
        "joined_at_port": "whitehaven",
        "capacity": "master",
        "date_left": "blk",
        "left_port": "blk",
        "cause_of_leaving": "remains on board",
        "sign_with_mark": "n",
        "notes": "blk"
    },
    {
        "id": "vtls004662975_1_11",
        "type": "sailor",
        "parent": "vtls004662975",
        "name": "thomas thomas",
        "dob": "blk",
        "age": "46",
        "place_of_birth": "cardigan",
        "home_address": "blk",
        "f": "blk",
        "name_of_ship": "george evans",
        "ship_port": "aberystwyth",
        "date_leaving": "continued",
        "joined_ship_date": "1862",
        "joined_at_port": "newquay",
        "capacity": "master",
        "date_left": "1864-01-20",
        "left_port": "swansea",
        "cause_of_leaving": "remains on board",
        "sign_with_mark": "n",
        "notes": "blk"
    },
    {
        "id": "vtls004662975_0_12",
        "type": "sailor",
        "parent": "vtls004662975",
        "name": "jenkin thomas",
        "dob": "blk",
        "age": "18",
        "place_of_birth": "newquay",
        "home_address": "blk",
        "f": "blk",
        "name_of_ship": "george evans",
        "ship_port": "aberystwyth",
        "date_leaving": "blk",
        "joined_ship_date": "1863-01-01",
        "joined_at_port": "whitehaven",
        "capacity": "mate",
        "date_left": "blk",
        "left_port": "blk",
        "cause_of_leaving": "remains on board",
        "sign_with_mark": "n",
        "notes": "blk"
    },
    {
        "id": "vtls004662975_1_12",
        "type": "sailor",
        "parent": "vtls004662975",
        "name": "jenkin thomas",
        "dob": "blk",
        "age": "18",
        "place_of_birth": "cardigan",
        "home_address": "blk",
        "f": "blk",
        "name_of_ship": "george evans",
        "ship_port": "aberystwyth",
        "date_leaving": "continued",
        "joined_ship_date": "1862",
        "joined_at_port": "newquay",
        "capacity": "mate",
        "date_left": "1864-01-20",
        "left_port": "swansea",
        "cause_of_leaving": "remains on board",
        "sign_with_mark": "n",
        "notes": "blk"
    },
    {
        "id": "vtls004663060_1_13",
        "type": "sailor",
        "parent": "vtls004663060",
        "name": "enoch davies",
        "dob": "blk",
        "age": "15",
        "place_of_birth": "st dogmaels",
        "home_address": "blk",
        "f": "blk",
        "name_of_ship": "george evans",
        "ship_port": "aberystwyth",
        "date_leaving": "blk",
        "joined_ship_date": "blk",
        "joined_at_port": "blk",
        "capacity": "boy",
        "date_left": "1878-09-26",
        "left_port": "cardigan",
        "cause_of_leaving": "discharged",
        "sign_with_mark": "n",
        "notes": "blk"
    },
    {
        "id": "vtls004663060_1_11",
        "type": "sailor",
        "parent": "vtls004663060",
        "name": "david rees",
        "dob": "blk",
        "age": "67",
        "place_of_birth": "st dogmaels",
        "home_address": "blk",
        "f": "blk",
        "name_of_ship": "george evans",
        "ship_port": "aberystwyth",
        "date_leaving": "blk",
        "joined_ship_date": "blk",
        "joined_at_port": "blk",
        "capacity": "master",
        "date_left": "blk",
        "left_port": "blk",
        "cause_of_leaving": "remains on board",
        "sign_with_mark": "y",
        "notes": "blk"
    },
    {
        "id": "vtls004663060_1_12",
        "type": "sailor",
        "parent": "vtls004663060",
        "name": "david j rees",
        "dob": "blk",
        "age": "23",
        "place_of_birth": "st dogmaels",
        "home_address": "blk",
        "f": "blk",
        "name_of_ship": "george evans",
        "ship_port": "aberystwyth",
        "date_leaving": "blk",
        "joined_ship_date": "blk",
        "joined_at_port": "blk",
        "capacity": "mate",
        "date_left": "blk",
        "left_port": "blk",
        "cause_of_leaving": "remains on board",
        "sign_with_mark": "n",
        "notes": "blk"
    },
    {
        "id": "vtls004662977_0_13",
        "type": "sailor",
        "parent": "vtls004662977",
        "name": "david evans",
        "dob": "blk",
        "age": "18",
        "place_of_birth": "newquay",
        "home_address": "blk",
        "f": "blk",
        "name_of_ship": "george evans",
        "ship_port": "aberystwyth",
        "date_leaving": "1864-12-31",
        "joined_ship_date": "1864-01-01",
        "joined_at_port": "swansea",
        "capacity": "ordinary seaman",
        "date_left": "1864-01-15",
        "left_port": "swansea",
        "cause_of_leaving": "discharged",
        "sign_with_mark": "n",
        "notes": "blk"
    },
    {
        "id": "vtls004662975_1_13",
        "type": "sailor",
        "parent": "vtls004662975",
        "name": "david evans",
        "dob": "blk",
        "age": "19",
        "place_of_birth": "cardigan",
        "home_address": "blk",
        "f": "blk",
        "name_of_ship": "george evans",
        "ship_port": "aberystwyth",
        "date_leaving": "continued",
        "joined_ship_date": "1863-01",
        "joined_at_port": "port talbot",
        "capacity": "ordinary seaman",
        "date_left": "1864-01-20",
        "left_port": "swansea",
        "cause_of_leaving": "remains on board",
        "sign_with_mark": "n",
        "notes": "blk"
    },
    {
        "id": "vtls004662977_0_17",
        "type": "sailor",
        "parent": "vtls004662977",
        "name": "jenkin rees",
        "dob": "blk",
        "age": "15",
        "place_of_birth": "llanarth, cardiganshire",
        "home_address": "blk",
        "f": "blk",
        "name_of_ship": "first ship",
        "ship_port": "blk",
        "date_leaving": "blk",
        "joined_ship_date": "1864-06-08",
        "joined_at_port": "llanrhystud",
        "capacity": "ordinary seaman",
        "date_left": "1864-06-30",
        "left_port": "at sea",
        "cause_of_leaving": "remains on board",
        "sign_with_mark": "n",
        "notes": "blk"
    },
    {
        "id": "vtls004662977_0_12",
        "type": "sailor",
        "parent": "vtls004662977",
        "name": "jenkin thomas",
        "dob": "blk",
        "age": "18",
        "place_of_birth": "newquay",
        "home_address": "blk",
        "f": "blk",
        "name_of_ship": "george evans",
        "ship_port": "aberystwyth",
        "date_leaving": "1864-12-31",
        "joined_ship_date": "1864-01-01",
        "joined_at_port": "swansea",
        "capacity": "mate",
        "date_left": "1864-02-28",
        "left_port": "newquay",
        "cause_of_leaving": "discharged",
        "sign_with_mark": "n",
        "notes": "blk"
    },
    {
        "id": "vtls004662977_0_11",
        "type": "sailor",
        "parent": "vtls004662977",
        "name": "thomas thomas",
        "dob": "blk",
        "age": "40",
        "place_of_birth": "cardigan",
        "home_address": "blk",
        "f": "blk",
        "name_of_ship": "george evans",
        "ship_port": "aberystwyth",
        "date_leaving": "1864-12-31",
        "joined_ship_date": "1864-01-01",
        "joined_at_port": "swansea",
        "capacity": "master",
        "date_left": "1864-06-30",
        "left_port": "at sea",
        "cause_of_leaving": "remains on board",
        "sign_with_mark": "n",
        "notes": "blk"
    },
    {
        "id": "vtls004662977_0_15",
        "type": "sailor",
        "parent": "vtls004662977",
        "name": "david jones",
        "dob": "blk",
        "age": "60",
        "place_of_birth": "newquay",
        "home_address": "blk",
        "f": "blk",
        "name_of_ship": "rachel",
        "ship_port": "cardigan",
        "date_leaving": "1864-12-31",
        "joined_ship_date": "1864-02-29",
        "joined_at_port": "newquay",
        "capacity": "mate",
        "date_left": "1864-06-30",
        "left_port": "at sea",
        "cause_of_leaving": "remains on board",
        "sign_with_mark": "n",
        "notes": "blk"
    },
    {
        "id": "vtls004662977_1_11",
        "type": "sailor",
        "parent": "vtls004662977",
        "name": "thomas thomas",
        "dob": "blk",
        "age": "42",
        "place_of_birth": "cardigan",
        "home_address": "blk",
        "f": "blk",
        "name_of_ship": "george evans",
        "ship_port": "aberystwyth",
        "date_leaving": "1864-06-30",
        "joined_ship_date": "1864-07-01",
        "joined_at_port": "aberayron",
        "capacity": "master",
        "date_left": "1864-12-31",
        "left_port": "sea",
        "cause_of_leaving": "remains on board",
        "sign_with_mark": "n",
        "notes": "blk"
    },
    {
        "id": "vtls004662977_0_14",
        "type": "sailor",
        "parent": "vtls004662977",
        "name": "john evans",
        "dob": "blk",
        "age": "21",
        "place_of_birth": "cardigan",
        "home_address": "blk",
        "f": "blk",
        "name_of_ship": "first ship",
        "ship_port": "blk",
        "date_leaving": "blk",
        "joined_ship_date": "1864-01-22",
        "joined_at_port": "swansea",
        "capacity": "ordinary seaman",
        "date_left": "1864-05-07",
        "left_port": "briton ferry",
        "cause_of_leaving": "discharged",
        "sign_with_mark": "n",
        "notes": "blk"
    },
    {
        "id": "vtls004662977_0_16",
        "type": "sailor",
        "parent": "vtls004662977",
        "name": "john dulston",
        "dob": "blk",
        "age": "18",
        "place_of_birth": "chester",
        "home_address": "blk",
        "f": "blk",
        "name_of_ship": "first ship",
        "ship_port": "blk",
        "date_leaving": "blk",
        "joined_ship_date": "1864-05-09",
        "joined_at_port": "briton ferry",
        "capacity": "ordinary seaman",
        "date_left": "1864-05-26",
        "left_port": "bayill",
        "cause_of_leaving": "discharged",
        "sign_with_mark": "n",
        "notes": "blk"
    },
    {
        "id": "vtls004662983_0_11",
        "type": "sailor",
        "parent": "vtls004662983",
        "name": "thomas thomas",
        "dob": "blk",
        "age": "42",
        "place_of_birth": "cardigan",
        "home_address": "blk",
        "f": "blk",
        "name_of_ship": "george evans",
        "ship_port": "aberystwyth",
        "date_leaving": "1865-12-31",
        "joined_ship_date": "1866-01-01",
        "joined_at_port": "caernarvon",
        "capacity": "master",
        "date_left": "1866-01-30",
        "left_port": "newquay",
        "cause_of_leaving": "remains on board",
        "sign_with_mark": "n",
        "notes": "blk"
    },
    {
        "id": "vtls004662983_0_13",
        "type": "sailor",
        "parent": "vtls004662983",
        "name": "evan davies",
        "dob": "blk",
        "age": "16",
        "place_of_birth": "aberaeron",
        "home_address": "blk",
        "f": "blk",
        "name_of_ship": "george evans",
        "ship_port": "aberystwyth",
        "date_leaving": "1865-12-31",
        "joined_ship_date": "1866-01-01",
        "joined_at_port": "caernarvon",
        "capacity": "boy",
        "date_left": "1866-06-18",
        "left_port": "newquay",
        "cause_of_leaving": "discharged",
        "sign_with_mark": "n",
        "notes": "blk"
    },
    {
        "id": "vtls004662977_1_12",
        "type": "sailor",
        "parent": "vtls004662977",
        "name": "david jones",
        "dob": "blk",
        "age": "60",
        "place_of_birth": "newquay",
        "home_address": "blk",
        "f": "blk",
        "name_of_ship": "george evans",
        "ship_port": "aberystwyth",
        "date_leaving": "1864-06-30",
        "joined_ship_date": "1864-07-01",
        "joined_at_port": "aberayron",
        "capacity": "mate",
        "date_left": "1864-12-31",
        "left_port": "sea",
        "cause_of_leaving": "remains on board",
        "sign_with_mark": "n",
        "notes": "blk"
    },
    {
        "id": "vtls004662977_1_13",
        "type": "sailor",
        "parent": "vtls004662977",
        "name": "jenkin rees",
        "dob": "blk",
        "age": "14",
        "place_of_birth": "llanarth",
        "home_address": "blk",
        "f": "blk",
        "name_of_ship": "george evans",
        "ship_port": "aberystwyth",
        "date_leaving": "1864-06-30",
        "joined_ship_date": "1864-07-01",
        "joined_at_port": "aberayron",
        "capacity": "boy",
        "date_left": "1864-12-31",
        "left_port": "sea",
        "cause_of_leaving": "remains on board",
        "sign_with_mark": "n",
        "notes": "blk"
    },
    {
        "id": "vtls004662983_0_12",
        "type": "sailor",
        "parent": "vtls004662983",
        "name": "evan evans",
        "dob": "blk",
        "age": "30",
        "place_of_birth": "newquay",
        "home_address": "blk",
        "f": "blk",
        "name_of_ship": "george evans",
        "ship_port": "aberystwyth",
        "date_leaving": "1865-12-31",
        "joined_ship_date": "1866-01-01",
        "joined_at_port": "caernarvon",
        "capacity": "mate",
        "date_left": "1866-06-18",
        "left_port": "newquay",
        "cause_of_leaving": "discharged",
        "sign_with_mark": "n",
        "notes": "blk"
    },
    {
        "id": "vtls004662983_0_14",
        "type": "sailor",
        "parent": "vtls004662983",
        "name": "john evans",
        "dob": "blk",
        "age": "46",
        "place_of_birth": "cardiganshire",
        "home_address": "blk",
        "f": "blk",
        "name_of_ship": "mary ann",
        "ship_port": "cardigan",
        "date_leaving": "1866-06",
        "joined_ship_date": "1866-06-20",
        "joined_at_port": "newquay",
        "capacity": "mate",
        "date_left": "1866-06-30",
        "left_port": "newquay",
        "cause_of_leaving": "remains on board",
        "sign_with_mark": "n",
        "notes": "blk"
    },
    {
        "id": "vtls004662983_0_15",
        "type": "sailor",
        "parent": "vtls004662983",
        "name": "evan jones",
        "dob": "blk",
        "age": "13",
        "place_of_birth": "newquay",
        "home_address": "blk",
        "f": "blk",
        "name_of_ship": "first ship",
        "ship_port": "blk",
        "date_leaving": "blk",
        "joined_ship_date": "1866-06-21",
        "joined_at_port": "newquay",
        "capacity": "boy",
        "date_left": "1866-06-30",
        "left_port": "newquay",
        "cause_of_leaving": "remains on board",
        "sign_with_mark": "n",
        "notes": "blk"
    },
    {
        "id": "vtls004662987_0_12",
        "type": "sailor",
        "parent": "vtls004662987",
        "name": "david thomas",
        "dob": "blk",
        "age": "38",
        "place_of_birth": "aberporth",
        "home_address": "blk",
        "f": "blk",
        "name_of_ship": "george evans",
        "ship_port": "aberystwyth",
        "date_leaving": "1866-12-31",
        "joined_ship_date": "1867-01-01",
        "joined_at_port": "cardiff",
        "capacity": "mate",
        "date_left": "1867-01-09",
        "left_port": "cardiff",
        "cause_of_leaving": "discharged",
        "sign_with_mark": "n",
        "notes": "blk"
    },
    {
        "id": "vtls004662987_0_13",
        "type": "sailor",
        "parent": "vtls004662987",
        "name": "jenkin evans",
        "dob": "blk",
        "age": "12",
        "place_of_birth": "newquay",
        "home_address": "blk",
        "f": "blk",
        "name_of_ship": "george evans",
        "ship_port": "aberystwyth",
        "date_leaving": "1866-12-31",
        "joined_ship_date": "1867-01-01",
        "joined_at_port": "cardiff",
        "capacity": "boy",
        "date_left": "1867-02-18",
        "left_port": "swansea",
        "cause_of_leaving": "discharged",
        "sign_with_mark": "n",
        "notes": "blk"
    },
    {
        "id": "vtls004662987_0_11",
        "type": "sailor",
        "parent": "vtls004662987",
        "name": "thomas thomas",
        "dob": "blk",
        "age": "43",
        "place_of_birth": "cardigan",
        "home_address": "blk",
        "f": "blk",
        "name_of_ship": "george evans",
        "ship_port": "aberystwyth",
        "date_leaving": "1866-12-31",
        "joined_ship_date": "1867-01-01",
        "joined_at_port": "cardiff",
        "capacity": "master",
        "date_left": "1867-06-30",
        "left_port": "pembrey",
        "cause_of_leaving": "remains on board",
        "sign_with_mark": "n",
        "notes": "blk"
    },
    {
        "id": "vtls004662983_1_11",
        "type": "sailor",
        "parent": "vtls004662983",
        "name": "thomas thomas",
        "dob": "blk",
        "age": "43",
        "place_of_birth": "cardigan",
        "home_address": "blk",
        "f": "blk",
        "name_of_ship": "george evans",
        "ship_port": "aberystwyth",
        "date_leaving": "continued",
        "joined_ship_date": "1866-07-07",
        "joined_at_port": "aberayron",
        "capacity": "master",
        "date_left": "blk",
        "left_port": "blk",
        "cause_of_leaving": "remains on board",
        "sign_with_mark": "n",
        "notes": "blk"
    },
    {
        "id": "vtls004662983_1_12",
        "type": "sailor",
        "parent": "vtls004662983",
        "name": "john evans",
        "dob": "blk",
        "age": "44",
        "place_of_birth": "newquay",
        "home_address": "blk",
        "f": "blk",
        "name_of_ship": "george evans",
        "ship_port": "aberystwyth",
        "date_leaving": "continued",
        "joined_ship_date": "1866-07-07",
        "joined_at_port": "aberayron",
        "capacity": "mate",
        "date_left": "1866-09-11",
        "left_port": "newquay",
        "cause_of_leaving": "discharged",
        "sign_with_mark": "n",
        "notes": "blk"
    },
    {
        "id": "vtls004662983_1_13",
        "type": "sailor",
        "parent": "vtls004662983",
        "name": "evan jones",
        "dob": "blk",
        "age": "13",
        "place_of_birth": "newquay",
        "home_address": "blk",
        "f": "blk",
        "name_of_ship": "george evans",
        "ship_port": "aberystwyth",
        "date_leaving": "continued",
        "joined_ship_date": "1866-07-07",
        "joined_at_port": "aberayron",
        "capacity": "boy",
        "date_left": "1866-09-11",
        "left_port": "newquay",
        "cause_of_leaving": "discharged",
        "sign_with_mark": "n",
        "notes": "blk"
    },
    {
        "id": "vtls004662983_1_15",
        "type": "sailor",
        "parent": "vtls004662983",
        "name": "thomas davies",
        "dob": "blk",
        "age": "55",
        "place_of_birth": "cardigan",
        "home_address": "blk",
        "f": "blk",
        "name_of_ship": "good hope",
        "ship_port": "newquay",
        "date_leaving": "1866-09",
        "joined_ship_date": "1866-09-24",
        "joined_at_port": "newquay",
        "capacity": "able seaman",
        "date_left": "1866-11-27",
        "left_port": "milford",
        "cause_of_leaving": "discharged",
        "sign_with_mark": "n",
        "notes": "blk"
    },
    {
        "id": "vtls004662983_1_16",
        "type": "sailor",
        "parent": "vtls004662983",
        "name": "david thomas",
        "dob": "blk",
        "age": "38",
        "place_of_birth": "aberporth",
        "home_address": "blk",
        "f": "blk",
        "name_of_ship": "julianna",
        "ship_port": "newquay",
        "date_leaving": "1866-10-19",
        "joined_ship_date": "1866-10-28",
        "joined_at_port": "cardiff",
        "capacity": "mate",
        "date_left": "blk",
        "left_port": "blk",
        "cause_of_leaving": "remains on board",
        "sign_with_mark": "n",
        "notes": "blk"
    },
    {
        "id": "vtls004662983_1_14",
        "type": "sailor",
        "parent": "vtls004662983",
        "name": "evan davies",
        "dob": "blk",
        "age": "35",
        "place_of_birth": "newquay",
        "home_address": "blk",
        "f": "blk",
        "name_of_ship": "maria + ann",
        "ship_port": "newquay",
        "date_leaving": "1866-09",
        "joined_ship_date": "1866-09-24",
        "joined_at_port": "newquay",
        "capacity": "mate",
        "date_left": "1866-10-16",
        "left_port": "cardiff",
        "cause_of_leaving": "discharged",
        "sign_with_mark": "n",
        "notes": "blk"
    },
    {
        "id": "vtls004662987_0_14",
        "type": "sailor",
        "parent": "vtls004662987",
        "name": "elias evans",
        "dob": "blk",
        "age": "35",
        "place_of_birth": "cardiganshire",
        "home_address": "blk",
        "f": "blk",
        "name_of_ship": "this is being his first ship",
        "ship_port": "blk",
        "date_leaving": "blk",
        "joined_ship_date": "1867-01-10",
        "joined_at_port": "cardiff",
        "capacity": "ordinary seaman",
        "date_left": "1867-02-15",
        "left_port": "swansea",
        "cause_of_leaving": "discharged",
        "sign_with_mark": "n",
        "notes": "blk"
    },
    {
        "id": "vtls004662987_0_16",
        "type": "sailor",
        "parent": "vtls004662987",
        "name": "jenkin williams",
        "dob": "blk",
        "age": "12",
        "place_of_birth": "cardiganshire",
        "home_address": "blk",
        "f": "blk",
        "name_of_ship": "this is being his first ship",
        "ship_port": "blk",
        "date_leaving": "blk",
        "joined_ship_date": "1867-04-18",
        "joined_at_port": "newquay",
        "capacity": "boy",
        "date_left": "1867-06-30",
        "left_port": "pembrey",
        "cause_of_leaving": "remains on board",
        "sign_with_mark": "n",
        "notes": "blk"
    },
    {
        "id": "vtls004662987_1_11",
        "type": "sailor",
        "parent": "vtls004662987",
        "name": "thomas thomas",
        "dob": "blk",
        "age": "44",
        "place_of_birth": "cardigan",
        "home_address": "blk",
        "f": "blk",
        "name_of_ship": "george evans",
        "ship_port": "aberystwyth",
        "date_leaving": "1867-06-30",
        "joined_ship_date": "1867-07-01",
        "joined_at_port": "pembrey",
        "capacity": "master",
        "date_left": "1867-12-31",
        "left_port": "caernarfon",
        "cause_of_leaving": "remains on board",
        "sign_with_mark": "n",
        "notes": "blk"
    },
    {
        "id": "vtls004662987_1_12",
        "type": "sailor",
        "parent": "vtls004662987",
        "name": "thomas thomas",
        "dob": "blk",
        "age": "35",
        "place_of_birth": "newcastle emlyn",
        "home_address": "blk",
        "f": "blk",
        "name_of_ship": "george evans",
        "ship_port": "aberystwyth",
        "date_leaving": "1867-06-30",
        "joined_ship_date": "1867-07-01",
        "joined_at_port": "pembrey",
        "capacity": "mate",
        "date_left": "1867-07-06",
        "left_port": "newquay",
        "cause_of_leaving": "discharged",
        "sign_with_mark": "n",
        "notes": "blk"
    },
    {
        "id": "vtls004662987_0_18",
        "type": "sailor",
        "parent": "vtls004662987",
        "name": "thomas thomas",
        "dob": "blk",
        "age": "40",
        "place_of_birth": "cardiganshire",
        "home_address": "blk",
        "f": "blk",
        "name_of_ship": "[milbay]",
        "ship_port": "swansea",
        "date_leaving": "1867-05",
        "joined_ship_date": "1867-05-08",
        "joined_at_port": "newquay",
        "capacity": "mate",
        "date_left": "1867-06-30",
        "left_port": "pembrey",
        "cause_of_leaving": "remains on board",
        "sign_with_mark": "n",
        "notes": "blk"
    },
    {
        "id": "vtls004662987_1_13",
        "type": "sailor",
        "parent": "vtls004662987",
        "name": "david evans",
        "dob": "blk",
        "age": "22",
        "place_of_birth": "newquay",
        "home_address": "blk",
        "f": "blk",
        "name_of_ship": "margaret pugh",
        "ship_port": "caernarvon",
        "date_leaving": "1867-06-01",
        "joined_ship_date": "1867-07-06",
        "joined_at_port": "newquay",
        "capacity": "mate",
        "date_left": "1867-08-26",
        "left_port": "newquay",
        "cause_of_leaving": "discharged",
        "sign_with_mark": "n",
        "notes": "blk"
    },
    {
        "id": "vtls004662987_0_15",
        "type": "sailor",
        "parent": "vtls004662987",
        "name": "john jenkins",
        "dob": "blk",
        "age": "42",
        "place_of_birth": "cardiganshire",
        "home_address": "blk",
        "f": "blk",
        "name_of_ship": "william",
        "ship_port": "cardigan",
        "date_leaving": "1867-02",
        "joined_ship_date": "1867-02-18",
        "joined_at_port": "swansea",
        "capacity": "mate",
        "date_left": "1867-04-02",
        "left_port": "newquay",
        "cause_of_leaving": "discharged",
        "sign_with_mark": "n",
        "notes": "blk"
    },
    {
        "id": "vtls004662987_0_17",
        "type": "sailor",
        "parent": "vtls004662987",
        "name": "owen thomas",
        "dob": "blk",
        "age": "20",
        "place_of_birth": "cardiganshire",
        "home_address": "blk",
        "f": "blk",
        "name_of_ship": "unknown",
        "ship_port": "blk",
        "date_leaving": "blk",
        "joined_ship_date": "1867-04-13",
        "joined_at_port": "newquay",
        "capacity": "mate",
        "date_left": "1867-05-08",
        "left_port": "newquay",
        "cause_of_leaving": "discharged",
        "sign_with_mark": "n",
        "notes": "blk"
    },
    {
        "id": "vtls004662992_1_12",
        "type": "sailor",
        "parent": "vtls004662992",
        "name": "job evans",
        "dob": "blk",
        "age": "34",
        "place_of_birth": "newquay",
        "home_address": "blk",
        "f": "blk",
        "name_of_ship": "george evans",
        "ship_port": "aberystwyth",
        "date_leaving": "1869-06-30",
        "joined_ship_date": "1869-07-01",
        "joined_at_port": "llanelly",
        "capacity": "mate",
        "date_left": "1869-12-01",
        "left_port": "newquay",
        "cause_of_leaving": "discharged",
        "sign_with_mark": "n",
        "notes": "blk"
    },
    {
        "id": "vtls004662992_1_11",
        "type": "sailor",
        "parent": "vtls004662992",
        "name": "thomas thomas",
        "dob": "blk",
        "age": "45",
        "place_of_birth": "cardigan",
        "home_address": "blk",
        "f": "blk",
        "name_of_ship": "george evans",
        "ship_port": "aberystwyth",
        "date_leaving": "1869-06-30",
        "joined_ship_date": "1869-07-01",
        "joined_at_port": "llanelly",
        "capacity": "master",
        "date_left": "1869-12-31",
        "left_port": "newquay",
        "cause_of_leaving": "remains on board",
        "sign_with_mark": "n",
        "notes": "blk"
    },
    {
        "id": "vtls004662987_1_14",
        "type": "sailor",
        "parent": "vtls004662987",
        "name": "jenkin jenkins",
        "dob": "blk",
        "age": "68",
        "place_of_birth": "newquay",
        "home_address": "blk",
        "f": "blk",
        "name_of_ship": "ocean dart",
        "ship_port": "aberystwyth",
        "date_leaving": "1867-07-15",
        "joined_ship_date": "1867-08-27",
        "joined_at_port": "newquay",
        "capacity": "mate",
        "date_left": "1867-12-31",
        "left_port": "caernarfon",
        "cause_of_leaving": "remains on board",
        "sign_with_mark": "n",
        "notes": "blk"
    },
    {
        "id": "vtls004662987_1_15",
        "type": "sailor",
        "parent": "vtls004662987",
        "name": "thomas lloyd",
        "dob": "blk",
        "age": "15",
        "place_of_birth": "newquay",
        "home_address": "blk",
        "f": "blk",
        "name_of_ship": "m.a.sophia",
        "ship_port": "aberystwyth",
        "date_leaving": "1867-02-15",
        "joined_ship_date": "1867-08-03",
        "joined_at_port": "newquay",
        "capacity": "boy",
        "date_left": "1867-10-15",
        "left_port": "newquay",
        "cause_of_leaving": "discharged",
        "sign_with_mark": "n",
        "notes": "blk"
    },
    {
        "id": "vtls004662992_0_11",
        "type": "sailor",
        "parent": "vtls004662992",
        "name": "thomas thomas",
        "dob": "blk",
        "age": "44",
        "place_of_birth": "cardigan",
        "home_address": "blk",
        "f": "blk",
        "name_of_ship": "george evans",
        "ship_port": "aberystwyth",
        "date_leaving": "continued",
        "joined_ship_date": "blk",
        "joined_at_port": "blk",
        "capacity": "master",
        "date_left": "blk",
        "left_port": "blk",
        "cause_of_leaving": "remains on board",
        "sign_with_mark": "n",
        "notes": "blk"
    },
    {
        "id": "vtls004662992_0_13",
        "type": "sailor",
        "parent": "vtls004662992",
        "name": "phillip john",
        "dob": "blk",
        "age": "16",
        "place_of_birth": "newquay",
        "home_address": "blk",
        "f": "blk",
        "name_of_ship": "first ship",
        "ship_port": "blk",
        "date_leaving": "continued",
        "joined_ship_date": "1869-03-08",
        "joined_at_port": "newquay",
        "capacity": "boy",
        "date_left": "1869-06-02",
        "left_port": "newquay",
        "cause_of_leaving": "discharged",
        "sign_with_mark": "n",
        "notes": "blk"
    },
    {
        "id": "vtls004662992_0_12",
        "type": "sailor",
        "parent": "vtls004662992",
        "name": "job evans",
        "dob": "blk",
        "age": "33",
        "place_of_birth": "newquay",
        "home_address": "blk",
        "f": "blk",
        "name_of_ship": "george evans",
        "ship_port": "aberystwyth",
        "date_leaving": "continued",
        "joined_ship_date": "blk",
        "joined_at_port": "blk",
        "capacity": "mate",
        "date_left": "blk",
        "left_port": "blk",
        "cause_of_leaving": "remains on board",
        "sign_with_mark": "n",
        "notes": "blk"
    },
    {
        "id": "vtls004663037_0_13",
        "type": "sailor",
        "parent": "vtls004663037",
        "name": "evan jenkins",
        "dob": "blk",
        "age": "20",
        "place_of_birth": "newquay",
        "home_address": "blk",
        "f": "blk",
        "name_of_ship": "this being his first ship",
        "ship_port": "blk",
        "date_leaving": "blk",
        "joined_ship_date": "1870-03-16",
        "joined_at_port": "newquay",
        "capacity": "ordinary seaman",
        "date_left": "1870-05-28",
        "left_port": "newquay",
        "cause_of_leaving": "discharged",
        "sign_with_mark": "n",
        "notes": "blk"
    },
    {
        "id": "vtls004663037_1_11",
        "type": "sailor",
        "parent": "vtls004663037",
        "name": "thomas thomas",
        "dob": "blk",
        "age": "46",
        "place_of_birth": "cardigan",
        "home_address": "blk",
        "f": "blk",
        "name_of_ship": "george evans",
        "ship_port": "aberystwyth",
        "date_leaving": "1870-06-30",
        "joined_ship_date": "1870-07-01",
        "joined_at_port": "llangranog",
        "capacity": "master",
        "date_left": "1870-12-31",
        "left_port": "newquay",
        "cause_of_leaving": "remains on board",
        "sign_with_mark": "n",
        "notes": "blk"
    },
    {
        "id": "vtls004663037_0_11",
        "type": "sailor",
        "parent": "vtls004663037",
        "name": "thomas thomas",
        "dob": "blk",
        "age": "45",
        "place_of_birth": "cardigan",
        "home_address": "blk",
        "f": "blk",
        "name_of_ship": "george evans",
        "ship_port": "aberystwyth",
        "date_leaving": "1869-12-31",
        "joined_ship_date": "1870-01-01",
        "joined_at_port": "newquay",
        "capacity": "master",
        "date_left": "1870-06-30",
        "left_port": "at sea",
        "cause_of_leaving": "remains on board",
        "sign_with_mark": "n",
        "notes": "blk"
    },
    {
        "id": "vtls004663037_1_12",
        "type": "sailor",
        "parent": "vtls004663037",
        "name": "thomas owens",
        "dob": "blk",
        "age": "40",
        "place_of_birth": "cardigan",
        "home_address": "blk",
        "f": "blk",
        "name_of_ship": "george evans",
        "ship_port": "aberystwyth",
        "date_leaving": "1870-06-30",
        "joined_ship_date": "1870-07-01",
        "joined_at_port": "llangranog",
        "capacity": "mate",
        "date_left": "1870-09-12",
        "left_port": "newquay",
        "cause_of_leaving": "discharged",
        "sign_with_mark": "n",
        "notes": "blk"
    },
    {
        "id": "vtls004663037_0_12",
        "type": "sailor",
        "parent": "vtls004663037",
        "name": "thomas owens",
        "dob": "blk",
        "age": "40",
        "place_of_birth": "newquay",
        "home_address": "blk",
        "f": "blk",
        "name_of_ship": "wasp",
        "ship_port": "cardigan",
        "date_leaving": "1869-12-15",
        "joined_ship_date": "1870-03-14",
        "joined_at_port": "newquay",
        "capacity": "mate",
        "date_left": "1870-06-30",
        "left_port": "at sea",
        "cause_of_leaving": "remains on board",
        "sign_with_mark": "n",
        "notes": "blk"
    },
    {
        "id": "vtls004663037_1_13",
        "type": "sailor",
        "parent": "vtls004663037",
        "name": "owen owens",
        "dob": "blk",
        "age": "13",
        "place_of_birth": "cardigan",
        "home_address": "blk",
        "f": "blk",
        "name_of_ship": "george evans",
        "ship_port": "aberystwyth",
        "date_leaving": "1870-06-30",
        "joined_ship_date": "1870-07-01",
        "joined_at_port": "llangranog",
        "capacity": "boy",
        "date_left": "1870-09-12",
        "left_port": "newquay",
        "cause_of_leaving": "discharged",
        "sign_with_mark": "n",
        "notes": "blk"
    },
    {
        "id": "vtls004663037_0_14",
        "type": "sailor",
        "parent": "vtls004663037",
        "name": "owen owens",
        "dob": "blk",
        "age": "14",
        "place_of_birth": "newquay",
        "home_address": "blk",
        "f": "blk",
        "name_of_ship": "wasp",
        "ship_port": "cardigan",
        "date_leaving": "1870-05-10",
        "joined_ship_date": "1870-06-01",
        "joined_at_port": "newquay",
        "capacity": "boy",
        "date_left": "1870-06-30",
        "left_port": "at sea",
        "cause_of_leaving": "remains on board",
        "sign_with_mark": "n",
        "notes": "blk"
    },
    {
        "id": "vtls004663037_1_14",
        "type": "sailor",
        "parent": "vtls004663037",
        "name": "evan james",
        "dob": "blk",
        "age": "40",
        "place_of_birth": "cardigan",
        "home_address": "blk",
        "f": "blk",
        "name_of_ship": "active",
        "ship_port": "aberystwyth",
        "date_leaving": "1870-07-18",
        "joined_ship_date": "1870-09-27",
        "joined_at_port": "newquay",
        "capacity": "mate",
        "date_left": "1870-12-31",
        "left_port": "newquay",
        "cause_of_leaving": "discharged",
        "sign_with_mark": "n",
        "notes": "blk"
    },
    {
        "id": "vtls004663041_0_11",
        "type": "sailor",
        "parent": "vtls004663041",
        "name": "thomas thomas",
        "dob": "blk",
        "age": "47",
        "place_of_birth": "cardigan",
        "home_address": "blk",
        "f": "blk",
        "name_of_ship": "george evans",
        "ship_port": "aberystwyth",
        "date_leaving": "continued",
        "joined_ship_date": "1871-01-16",
        "joined_at_port": "newquay",
        "capacity": "master",
        "date_left": "1871-07-10",
        "left_port": "swansea",
        "cause_of_leaving": "remains on board",
        "sign_with_mark": "n",
        "notes": "blk"
    },
    {
        "id": "vtls004663041_1_11",
        "type": "sailor",
        "parent": "vtls004663041",
        "name": "thomas thomas",
        "dob": "blk",
        "age": "47",
        "place_of_birth": "cardigan",
        "home_address": "blk",
        "f": "blk",
        "name_of_ship": "george evans",
        "ship_port": "aberystwyth",
        "date_leaving": "1871-06-30",
        "joined_ship_date": "1871-07-01",
        "joined_at_port": "at sea",
        "capacity": "master",
        "date_left": "1871-12-31",
        "left_port": "cardigan",
        "cause_of_leaving": "remains on board",
        "sign_with_mark": "n",
        "notes": "blk"
    },
    {
        "id": "vtls004663041_0_14",
        "type": "sailor",
        "parent": "vtls004663041",
        "name": "john jenkins",
        "dob": "blk",
        "age": "47",
        "place_of_birth": "newquay",
        "home_address": "blk",
        "f": "blk",
        "name_of_ship": "sophia",
        "ship_port": "portmadoc",
        "date_leaving": "1871-05-12",
        "joined_ship_date": "1871-05-17",
        "joined_at_port": "newquay",
        "capacity": "able seaman",
        "date_left": "1871-07-10",
        "left_port": "swansea",
        "cause_of_leaving": "remains on board",
        "sign_with_mark": "n",
        "notes": "blk"
    },
    {
        "id": "vtls004663041_1_12",
        "type": "sailor",
        "parent": "vtls004663041",
        "name": "john jenkins",
        "dob": "blk",
        "age": "43",
        "place_of_birth": "newquay",
        "home_address": "blk",
        "f": "blk",
        "name_of_ship": "george evans",
        "ship_port": "aberystwyth",
        "date_leaving": "1871-06-30",
        "joined_ship_date": "1871-07-01",
        "joined_at_port": "at sea",
        "capacity": "mate",
        "date_left": "1871-10-14",
        "left_port": "cardigan",
        "cause_of_leaving": "discharged",
        "sign_with_mark": "n",
        "notes": "blk"
    },
    {
        "id": "vtls004663041_1_13",
        "type": "sailor",
        "parent": "vtls004663041",
        "name": "thomas jones",
        "dob": "blk",
        "age": "13",
        "place_of_birth": "newquay",
        "home_address": "blk",
        "f": "blk",
        "name_of_ship": "george evans",
        "ship_port": "aberystwyth",
        "date_leaving": "1871-06-30",
        "joined_ship_date": "1871-07-01",
        "joined_at_port": "at sea",
        "capacity": "boy",
        "date_left": "1871-10-14",
        "left_port": "cardigan",
        "cause_of_leaving": "discharged",
        "sign_with_mark": "n",
        "notes": "blk"
    },
    {
        "id": "vtls004663041_0_12",
        "type": "sailor",
        "parent": "vtls004663041",
        "name": "evan james",
        "dob": "blk",
        "age": "40",
        "place_of_birth": "newquay",
        "home_address": "blk",
        "f": "blk",
        "name_of_ship": "george evans",
        "ship_port": "aberystwyth",
        "date_leaving": "continued",
        "joined_ship_date": "1871-01-16",
        "joined_at_port": "newquay",
        "capacity": "mate",
        "date_left": "1871-01-20",
        "left_port": "newquay",
        "cause_of_leaving": "discharged",
        "sign_with_mark": "n",
        "notes": "blk"
    },
    {
        "id": "vtls004663041_0_13",
        "type": "sailor",
        "parent": "vtls004663041",
        "name": "david evans",
        "dob": "blk",
        "age": "26",
        "place_of_birth": "newquay",
        "home_address": "blk",
        "f": "blk",
        "name_of_ship": "zenobia",
        "ship_port": "newquay",
        "date_leaving": "1871-01-18",
        "joined_ship_date": "1871-01-27",
        "joined_at_port": "newquay",
        "capacity": "mate",
        "date_left": "1871-05-16",
        "left_port": "newquay",
        "cause_of_leaving": "discharged",
        "sign_with_mark": "n",
        "notes": "blk"
    },
    {
        "id": "vtls004663041_0_15",
        "type": "sailor",
        "parent": "vtls004663041",
        "name": "thomas jones",
        "dob": "blk",
        "age": "14",
        "place_of_birth": "newquay",
        "home_address": "blk",
        "f": "blk",
        "name_of_ship": "first voyage",
        "ship_port": "blk",
        "date_leaving": "blk",
        "joined_ship_date": "blk",
        "joined_at_port": "newquay",
        "capacity": "boy",
        "date_left": "1871-07-10",
        "left_port": "swansea",
        "cause_of_leaving": "remains on board",
        "sign_with_mark": "n",
        "notes": "blk"
    },
    {
        "id": "vtls004663046_0_11",
        "type": "sailor",
        "parent": "vtls004663046",
        "name": "thomas thomas",
        "dob": "blk",
        "age": "50",
        "place_of_birth": "cardigan",
        "home_address": "blk",
        "f": "blk",
        "name_of_ship": "george evans",
        "ship_port": "aberystwyth",
        "date_leaving": "continued",
        "joined_ship_date": "blk",
        "joined_at_port": "blk",
        "capacity": "master",
        "date_left": "blk",
        "left_port": "blk",
        "cause_of_leaving": "remains on board",
        "sign_with_mark": "n",
        "notes": "account for 1874-01-07 to 1874-06-30"
    },
    {
        "id": "vtls004663048_0_11",
        "type": "sailor",
        "parent": "vtls004663048",
        "name": "thomas thomas",
        "dob": "blk",
        "age": "52",
        "place_of_birth": "cardigan",
        "home_address": "blk",
        "f": "blk",
        "name_of_ship": "george evans",
        "ship_port": "aberystwyth",
        "date_leaving": "1875-12-31",
        "joined_ship_date": "1876-01-01",
        "joined_at_port": "bristol",
        "capacity": "master",
        "date_left": "1876-06-30",
        "left_port": "newquay",
        "cause_of_leaving": "remains on board",
        "sign_with_mark": "n",
        "notes": "blk"
    },
    {
        "id": "vtls004663048_0_12",
        "type": "sailor",
        "parent": "vtls004663048",
        "name": "john jenkins",
        "dob": "blk",
        "age": "52",
        "place_of_birth": "newquay",
        "home_address": "blk",
        "f": "blk",
        "name_of_ship": "george evans",
        "ship_port": "aberystwyth",
        "date_leaving": "1875-12-31",
        "joined_ship_date": "1876-01-01",
        "joined_at_port": "bristol",
        "capacity": "mate",
        "date_left": "1876-01-07",
        "left_port": "newquay",
        "cause_of_leaving": "discharged",
        "sign_with_mark": "n",
        "notes": "blk"
    },
    {
        "id": "vtls004663048_0_13",
        "type": "sailor",
        "parent": "vtls004663048",
        "name": "john evans",
        "dob": "blk",
        "age": "52",
        "place_of_birth": "newquay",
        "home_address": "blk",
        "f": "blk",
        "name_of_ship": "esther & mary",
        "ship_port": "cardigan",
        "date_leaving": "1875-12-24",
        "joined_ship_date": "1876-01-24",
        "joined_at_port": "newquay",
        "capacity": "mate",
        "date_left": "1876-06-30",
        "left_port": "newquay",
        "cause_of_leaving": "remains on board",
        "sign_with_mark": "n",
        "notes": "blk"
    },
    {
        "id": "vtls004663046_1_13",
        "type": "sailor",
        "parent": "vtls004663046",
        "name": "thomas thomas",
        "dob": "blk",
        "age": "44",
        "place_of_birth": "newcastle emlyn",
        "home_address": "blk",
        "f": "blk",
        "name_of_ship": "ellen",
        "ship_port": "newquay",
        "date_leaving": "1874-08-24",
        "joined_ship_date": "1874-08-25",
        "joined_at_port": "aberaeron",
        "capacity": "mate",
        "date_left": "1874-11-02",
        "left_port": "aberaeron",
        "cause_of_leaving": "discharged",
        "sign_with_mark": "n",
        "notes": "blk"
    },
    {
        "id": "vtls004663046_1_14",
        "type": "sailor",
        "parent": "vtls004663046",
        "name": "david jones",
        "dob": "blk",
        "age": "66",
        "place_of_birth": "llanddewi",
        "home_address": "blk",
        "f": "blk",
        "name_of_ship": "eliza",
        "ship_port": "aberystwyth",
        "date_leaving": "1874-11-06",
        "joined_ship_date": "1874-11-09",
        "joined_at_port": "aberaeron",
        "capacity": "mate",
        "date_left": "1874-12-30",
        "left_port": "aberystwyth",
        "cause_of_leaving": "discharged",
        "sign_with_mark": "n",
        "notes": "blk"
    },
    {
        "id": "vtls004663046_1_12",
        "type": "sailor",
        "parent": "vtls004663046",
        "name": "evan davies",
        "dob": "blk",
        "age": "60",
        "place_of_birth": "newquay",
        "home_address": "blk",
        "f": "blk",
        "name_of_ship": "george evans",
        "ship_port": "aberystwyth",
        "date_leaving": "blk",
        "joined_ship_date": "1874-07-01",
        "joined_at_port": "blk",
        "capacity": "mate",
        "date_left": "1874-08-24",
        "left_port": "aberaeron",
        "cause_of_leaving": "discharged",
        "sign_with_mark": "n",
        "notes": "blk"
    },
    {
        "id": "vtls004663046_1_11",
        "type": "sailor",
        "parent": "vtls004663046",
        "name": "thomas thomas",
        "dob": "blk",
        "age": "50",
        "place_of_birth": "cardigan",
        "home_address": "blk",
        "f": "blk",
        "name_of_ship": "george evans",
        "ship_port": "aberystwyth",
        "date_leaving": "blk",
        "joined_ship_date": "1874-07-01",
        "joined_at_port": "blk",
        "capacity": "master",
        "date_left": "blk",
        "left_port": "blk",
        "cause_of_leaving": "remains on board",
        "sign_with_mark": "n",
        "notes": "blk"
    },
    {
        "id": "vtls004663046_0_12",
        "type": "sailor",
        "parent": "vtls004663046",
        "name": "evan davies",
        "dob": "blk",
        "age": "60",
        "place_of_birth": "newquay",
        "home_address": "blk",
        "f": "blk",
        "name_of_ship": "george evans",
        "ship_port": "aberystwyth",
        "date_leaving": "continued",
        "joined_ship_date": "blk",
        "joined_at_port": "blk",
        "capacity": "mate",
        "date_left": "blk",
        "left_port": "blk",
        "cause_of_leaving": "remains on board",
        "sign_with_mark": "n",
        "notes": "blk"
    },
    {
        "id": "vtls004663048_1_12",
        "type": "sailor",
        "parent": "vtls004663048",
        "name": "john evans",
        "dob": "blk",
        "age": "52",
        "place_of_birth": "newquay",
        "home_address": "blk",
        "f": "blk",
        "name_of_ship": "george evans",
        "ship_port": "aberystwyth",
        "date_leaving": "blk",
        "joined_ship_date": "blk",
        "joined_at_port": "blk",
        "capacity": "able seaman",
        "date_left": "1876-10-03",
        "left_port": "newquay",
        "cause_of_leaving": "discharged",
        "sign_with_mark": "n",
        "notes": "blk"
    },
    {
        "id": "vtls004663048_1_13",
        "type": "sailor",
        "parent": "vtls004663048",
        "name": "evan evans",
        "dob": "blk",
        "age": "64",
        "place_of_birth": "newquay",
        "home_address": "blk",
        "f": "blk",
        "name_of_ship": "mela",
        "ship_port": "newquay",
        "date_leaving": "1864",
        "joined_ship_date": "1876-10-03",
        "joined_at_port": "newquay",
        "capacity": "able seaman",
        "date_left": "blk",
        "left_port": "blk",
        "cause_of_leaving": "remains on board",
        "sign_with_mark": "n",
        "notes": "blk"
    },
    {
        "id": "vtls004663048_1_11",
        "type": "sailor",
        "parent": "vtls004663048",
        "name": "thomas thomas",
        "dob": "blk",
        "age": "53",
        "place_of_birth": "cardigan",
        "home_address": "blk",
        "f": "blk",
        "name_of_ship": "george evans",
        "ship_port": "aberystwyth",
        "date_leaving": "blk",
        "joined_ship_date": "blk",
        "joined_at_port": "blk",
        "capacity": "master",
        "date_left": "blk",
        "left_port": "blk",
        "cause_of_leaving": "remains on board",
        "sign_with_mark": "n",
        "notes": "blk"
    }
]