[
    {
        "id": "vtls004661012_0_11",
        "type": "sailor",
        "parent": "vtls004661012",
        "name": "thomas w humphreys",
        "dob": "blk",
        "age": "35",
        "place_of_birth": "aberystwyth",
        "home_address": "blk",
        "f": "blk",
        "name_of_ship": "fairlina",
        "ship_port": "aberystwyth",
        "date_leaving": "1871",
        "joined_ship_date": "1871",
        "joined_at_port": "aberystwyth",
        "capacity": "master",
        "date_left": "1872-05-20",
        "left_port": "plymouth",
        "cause_of_leaving": "remains on board",
        "sign_with_mark": "n",
        "notes": "london to buenos ayres, ended in plymouth."
    },
    {
        "id": "vtls004661012_0_14",
        "type": "sailor",
        "parent": "vtls004661012",
        "name": "thomas barnett",
        "dob": "blk",
        "age": "19",
        "place_of_birth": "london",
        "home_address": "blk",
        "f": "blk",
        "name_of_ship": "hibernica",
        "ship_port": "miramichi",
        "date_leaving": "1871",
        "joined_ship_date": "1871-09-19",
        "joined_at_port": "london",
        "capacity": "cook & steward",
        "date_left": "1871-05-20",
        "left_port": "plymouth",
        "cause_of_leaving": "discharged",
        "sign_with_mark": "n",
        "notes": "blk"
    },
    {
        "id": "vtls004661012_0_12",
        "type": "sailor",
        "parent": "vtls004661012",
        "name": "john richards",
        "dob": "blk",
        "age": "28",
        "place_of_birth": "aberystwyth",
        "home_address": "blk",
        "f": "blk",
        "name_of_ship": "isabel",
        "ship_port": "aberystwyth",
        "date_leaving": "1871",
        "joined_ship_date": "1871-09-19",
        "joined_at_port": "london",
        "capacity": "mate",
        "date_left": "1872-01-02",
        "left_port": "buenos aires",
        "cause_of_leaving": "discharged",
        "sign_with_mark": "n",
        "notes": "blk"
    },
    {
        "id": "vtls004661012_0_13",
        "type": "sailor",
        "parent": "vtls004661012",
        "name": "james mill",
        "dob": "blk",
        "age": "29",
        "place_of_birth": "devon",
        "home_address": "blk",
        "f": "blk",
        "name_of_ship": "john bull",
        "ship_port": "cardiff",
        "date_leaving": "1871",
        "joined_ship_date": "1871-09-19",
        "joined_at_port": "london",
        "capacity": "boatswain",
        "date_left": "1872-05-20",
        "left_port": "plymouth",
        "cause_of_leaving": "discharged",
        "sign_with_mark": "n",
        "notes": "blk"
    },
    {
        "id": "vtls004661012_0_15",
        "type": "sailor",
        "parent": "vtls004661012",
        "name": "john smith",
        "dob": "blk",
        "age": "31",
        "place_of_birth": "new york",
        "home_address": "blk",
        "f": "blk",
        "name_of_ship": "spirit of the north",
        "ship_port": "london",
        "date_leaving": "1871",
        "joined_ship_date": "1871-09-19",
        "joined_at_port": "london",
        "capacity": "able seaman",
        "date_left": "1871-05-20",
        "left_port": "plymouth",
        "cause_of_leaving": "discharged",
        "sign_with_mark": "n",
        "notes": "blk"
    },
    {
        "id": "vtls004661012_0_19",
        "type": "sailor",
        "parent": "vtls004661012",
        "name": "richard w pugh",
        "dob": "blk",
        "age": "31",
        "place_of_birth": "aberystwyth",
        "home_address": "blk",
        "f": "blk",
        "name_of_ship": "elizabeth",
        "ship_port": "aberystwyth",
        "date_leaving": "1872",
        "joined_ship_date": "1872-01-03",
        "joined_at_port": "buenos ayres",
        "capacity": "mate",
        "date_left": "1872-05-27",
        "left_port": "plymouth",
        "cause_of_leaving": "discharged",
        "sign_with_mark": "n",
        "notes": "blk"
    },
    {
        "id": "vtls004661012_1_11",
        "type": "sailor",
        "parent": "vtls004661012",
        "name": "thomas w humphreys",
        "dob": "blk",
        "age": "36",
        "place_of_birth": "aberystwyth",
        "home_address": "blk",
        "f": "blk",
        "name_of_ship": "fairlina",
        "ship_port": "aberystwyth",
        "date_leaving": "blk",
        "joined_ship_date": "1871",
        "joined_at_port": "aberystwyth",
        "capacity": "master",
        "date_left": "blk",
        "left_port": "blk",
        "cause_of_leaving": "remains on board",
        "sign_with_mark": "n",
        "notes": "fowey to hamburg"
    },
    {
        "id": "vtls004661012_0_17",
        "type": "sailor",
        "parent": "vtls004661012",
        "name": "frederik holm",
        "dob": "blk",
        "age": "20",
        "place_of_birth": "denmark",
        "home_address": "blk",
        "f": "blk",
        "name_of_ship": "danish vessel",
        "ship_port": "blk",
        "date_leaving": "1871",
        "joined_ship_date": "1871-09-19",
        "joined_at_port": "london",
        "capacity": "ordinary seaman",
        "date_left": "1871-05-20",
        "left_port": "plymouth",
        "cause_of_leaving": "discharged",
        "sign_with_mark": "n",
        "notes": "blk"
    },
    {
        "id": "vtls004661012_0_18",
        "type": "sailor",
        "parent": "vtls004661012",
        "name": "ferdinand nilsfon",
        "dob": "blk",
        "age": "20",
        "place_of_birth": "sweden",
        "home_address": "blk",
        "f": "blk",
        "name_of_ship": "amazon",
        "ship_port": "windsor",
        "date_leaving": "1871",
        "joined_ship_date": "1871-09-19",
        "joined_at_port": "london",
        "capacity": "able seaman",
        "date_left": "1871-05-20",
        "left_port": "plymouth",
        "cause_of_leaving": "discharged",
        "sign_with_mark": "n",
        "notes": "blk"
    },
    {
        "id": "vtls004661012_0_16",
        "type": "sailor",
        "parent": "vtls004661012",
        "name": "henrik hansen",
        "dob": "blk",
        "age": "22",
        "place_of_birth": "denmark",
        "home_address": "blk",
        "f": "blk",
        "name_of_ship": "danish vessel",
        "ship_port": "blk",
        "date_leaving": "1871",
        "joined_ship_date": "1871-09-19",
        "joined_at_port": "london",
        "capacity": "able seaman",
        "date_left": "1871-05-20",
        "left_port": "plymouth",
        "cause_of_leaving": "discharged",
        "sign_with_mark": "n",
        "notes": "blk"
    },
    {
        "id": "vtls004661012_1_15",
        "type": "sailor",
        "parent": "vtls004661012",
        "name": "william g horgett",
        "dob": "blk",
        "age": "22",
        "place_of_birth": "plymouth",
        "home_address": "blk",
        "f": "blk",
        "name_of_ship": "[neriadi]",
        "ship_port": "$",
        "date_leaving": "1872",
        "joined_ship_date": "1872-07-09",
        "joined_at_port": "plymouth",
        "capacity": "able seaman",
        "date_left": "1872-12-06",
        "left_port": "hamburg, germany",
        "cause_of_leaving": "discharged",
        "sign_with_mark": "n",
        "notes": "blk"
    },
    {
        "id": "vtls004661012_1_14",
        "type": "sailor",
        "parent": "vtls004661012",
        "name": "edwin heller",
        "dob": "blk",
        "age": "29",
        "place_of_birth": "fowey",
        "home_address": "blk",
        "f": "blk",
        "name_of_ship": "republican",
        "ship_port": "yarmouth",
        "date_leaving": "1872",
        "joined_ship_date": "1872-07-08",
        "joined_at_port": "fowey",
        "capacity": "cook & steward",
        "date_left": "1872-11-28",
        "left_port": "blk",
        "cause_of_leaving": "discharged",
        "sign_with_mark": "n",
        "notes": "blk"
    },
    {
        "id": "vtls004661012_1_13",
        "type": "sailor",
        "parent": "vtls004661012",
        "name": "philip keast",
        "dob": "blk",
        "age": "25",
        "place_of_birth": "plymouth",
        "home_address": "blk",
        "f": "blk",
        "name_of_ship": "sisters",
        "ship_port": "fowey",
        "date_leaving": "1872",
        "joined_ship_date": "1872-07-08",
        "joined_at_port": "fowey",
        "capacity": "boatswain",
        "date_left": "1872-12-06",
        "left_port": "hamburg, germany",
        "cause_of_leaving": "discharged",
        "sign_with_mark": "n",
        "notes": "blk"
    },
    {
        "id": "vtls004661012_1_12",
        "type": "sailor",
        "parent": "vtls004661012",
        "name": "john johns",
        "dob": "blk",
        "age": "29",
        "place_of_birth": "lostwithiel",
        "home_address": "blk",
        "f": "blk",
        "name_of_ship": "mary helen",
        "ship_port": "fowey",
        "date_leaving": "1872",
        "joined_ship_date": "1872-07-09",
        "joined_at_port": "fowey",
        "capacity": "blk",
        "date_left": "1872-01-7",
        "left_port": "hamburg, germany",
        "cause_of_leaving": "discharged",
        "sign_with_mark": "n",
        "notes": "blk"
    },
    {
        "id": "vtls004661021_0_13",
        "type": "sailor",
        "parent": "vtls004661021",
        "name": "ollo heinrich",
        "dob": "blk",
        "age": "23",
        "place_of_birth": "berlin",
        "home_address": "blk",
        "f": "blk",
        "name_of_ship": "ravensworth castle",
        "ship_port": "north sheid",
        "date_leaving": "1872",
        "joined_ship_date": "1873-03-25",
        "joined_at_port": "hamburg",
        "capacity": "cook & seaman",
        "date_left": "1873-06-17",
        "left_port": "bahia",
        "cause_of_leaving": "died",
        "sign_with_mark": "n",
        "notes": "blk"
    },
    {
        "id": "vtls004661021_0_12",
        "type": "sailor",
        "parent": "vtls004661021",
        "name": "david edwards",
        "dob": "blk",
        "age": "23",
        "place_of_birth": "aberystwyth",
        "home_address": "blk",
        "f": "blk",
        "name_of_ship": "cambrian belle",
        "ship_port": "aberystwyth",
        "date_leaving": "1872",
        "joined_ship_date": "1873-03-25",
        "joined_at_port": "hamburg",
        "capacity": "mate",
        "date_left": "1873-11-08",
        "left_port": "hamburg, germany",
        "cause_of_leaving": "discharged",
        "sign_with_mark": "n",
        "notes": "blk"
    },
    {
        "id": "vtls004661012_1_17",
        "type": "sailor",
        "parent": "vtls004661012",
        "name": "john langmaid",
        "dob": "blk",
        "age": "22",
        "place_of_birth": "fowey",
        "home_address": "blk",
        "f": "blk",
        "name_of_ship": "brunswick",
        "ship_port": "bideford",
        "date_leaving": "1872",
        "joined_ship_date": "1872-07-08",
        "joined_at_port": "fowey",
        "capacity": "ordinary seaman",
        "date_left": "1872-01-07",
        "left_port": "hamburg, germany",
        "cause_of_leaving": "discharged",
        "sign_with_mark": "n",
        "notes": "blk"
    },
    {
        "id": "vtls004661012_1_16",
        "type": "sailor",
        "parent": "vtls004661012",
        "name": "william ahern",
        "dob": "blk",
        "age": "20",
        "place_of_birth": "devon",
        "home_address": "blk",
        "f": "blk",
        "name_of_ship": "tyburnia",
        "ship_port": "london",
        "date_leaving": "1872",
        "joined_ship_date": "1872-07-09",
        "joined_at_port": "plymouth",
        "capacity": "able seaman",
        "date_left": "1872-12-06",
        "left_port": "hamburg, germany",
        "cause_of_leaving": "discharged",
        "sign_with_mark": "n",
        "notes": "blk"
    },
    {
        "id": "vtls004661021_0_14",
        "type": "sailor",
        "parent": "vtls004661021",
        "name": "g aruquist",
        "dob": "blk",
        "age": "29",
        "place_of_birth": "sweden",
        "home_address": "blk",
        "f": "blk",
        "name_of_ship": "foreign ship",
        "ship_port": "blk",
        "date_leaving": "1873",
        "joined_ship_date": "1873-03-24",
        "joined_at_port": "hamburg",
        "capacity": "able seaman",
        "date_left": "1873-10-09",
        "left_port": "hamburg, germany",
        "cause_of_leaving": "discharged",
        "sign_with_mark": "n",
        "notes": "blk"
    },
    {
        "id": "vtls004661012_1_18",
        "type": "sailor",
        "parent": "vtls004661012",
        "name": "william bunt",
        "dob": "blk",
        "age": "17",
        "place_of_birth": "fowey",
        "home_address": "blk",
        "f": "blk",
        "name_of_ship": "par",
        "ship_port": "fowey",
        "date_leaving": "1872",
        "joined_ship_date": "1872-07-10",
        "joined_at_port": "fowey",
        "capacity": "ordinary seaman",
        "date_left": "1872-01-07",
        "left_port": "hamburg, germany",
        "cause_of_leaving": "discharged",
        "sign_with_mark": "n",
        "notes": "blk"
    },
    {
        "id": "vtls004661021_0_11",
        "type": "sailor",
        "parent": "vtls004661021",
        "name": "w humphreys",
        "dob": "blk",
        "age": "37",
        "place_of_birth": "aberystwyth",
        "home_address": "blk",
        "f": "blk",
        "name_of_ship": "fairlina",
        "ship_port": "aberystwyth",
        "date_leaving": "blk",
        "joined_ship_date": "blk",
        "joined_at_port": "blk",
        "capacity": "$",
        "date_left": "blk",
        "left_port": "blk",
        "cause_of_leaving": "blk",
        "sign_with_mark": "n",
        "notes": "blk"
    },
    {
        "id": "vtls004661021_1_14",
        "type": "sailor",
        "parent": "vtls004661021",
        "name": "hilfilm ziafamis",
        "dob": "blk",
        "age": "17",
        "place_of_birth": "hanover",
        "home_address": "blk",
        "f": "blk",
        "name_of_ship": "foreign",
        "ship_port": "sheild",
        "date_leaving": "1873",
        "joined_ship_date": "1873-12-30",
        "joined_at_port": "hamburg",
        "capacity": "cook & steward",
        "date_left": "1874-02-12",
        "left_port": "cuxhaven, germany",
        "cause_of_leaving": "deserted",
        "sign_with_mark": "n",
        "notes": "blk"
    },
    {
        "id": "vtls004661021_0_15",
        "type": "sailor",
        "parent": "vtls004661021",
        "name": "c lanswood",
        "dob": "blk",
        "age": "23",
        "place_of_birth": "brixham",
        "home_address": "blk",
        "f": "blk",
        "name_of_ship": "foreign ship",
        "ship_port": "shield ",
        "date_leaving": "1873",
        "joined_ship_date": "1873-03-24",
        "joined_at_port": "hamburg",
        "capacity": "able seaman",
        "date_left": "1873-10-10",
        "left_port": "hamburg, germany",
        "cause_of_leaving": "discharged",
        "sign_with_mark": "n",
        "notes": "blk"
    },
    {
        "id": "vtls004661021_0_16",
        "type": "sailor",
        "parent": "vtls004661021",
        "name": "o mengerson",
        "dob": "blk",
        "age": "32",
        "place_of_birth": "sweden",
        "home_address": "blk",
        "f": "blk",
        "name_of_ship": "foreign ship",
        "ship_port": "shield ",
        "date_leaving": "1873",
        "joined_ship_date": "1873-03-24",
        "joined_at_port": "hamburg",
        "capacity": "able seaman",
        "date_left": "1873-10-09",
        "left_port": "hamburg, germany",
        "cause_of_leaving": "discharged",
        "sign_with_mark": "y",
        "notes": "blk"
    },
    {
        "id": "vtls004661021_0_17",
        "type": "sailor",
        "parent": "vtls004661021",
        "name": "a mcdonald",
        "dob": "blk",
        "age": "23",
        "place_of_birth": "new york",
        "home_address": "blk",
        "f": "blk",
        "name_of_ship": "albatross",
        "ship_port": "liverpool",
        "date_leaving": "1873",
        "joined_ship_date": "1873-03-25",
        "joined_at_port": "hamburg",
        "capacity": "able seaman",
        "date_left": "1873-10-10",
        "left_port": "hamburg, germany",
        "cause_of_leaving": "discharged",
        "sign_with_mark": "y",
        "notes": "blk"
    },
    {
        "id": "vtls004661021_0_18",
        "type": "sailor",
        "parent": "vtls004661021",
        "name": "james wise",
        "dob": "blk",
        "age": "43",
        "place_of_birth": "new york",
        "home_address": "blk",
        "f": "blk",
        "name_of_ship": "albatross",
        "ship_port": "liverpool",
        "date_leaving": "1873",
        "joined_ship_date": "1873-03-25",
        "joined_at_port": "hamburg",
        "capacity": "able seaman",
        "date_left": "1873-10-10",
        "left_port": "hamburg, germany",
        "cause_of_leaving": "discharged",
        "sign_with_mark": "y",
        "notes": "blk"
    },
    {
        "id": "vtls004661021_1_13",
        "type": "sailor",
        "parent": "vtls004661021",
        "name": "robert wood",
        "dob": "blk",
        "age": "38",
        "place_of_birth": "liverpool",
        "home_address": "blk",
        "f": "blk",
        "name_of_ship": "foreign",
        "ship_port": "sheild",
        "date_leaving": "1873",
        "joined_ship_date": "1873-12-30",
        "joined_at_port": "hamburg",
        "capacity": "boatswain",
        "date_left": "1874-02-12",
        "left_port": "cuxhaven, germany",
        "cause_of_leaving": "discharged",
        "sign_with_mark": "n",
        "notes": "blk"
    },
    {
        "id": "vtls004661021_0_19",
        "type": "sailor",
        "parent": "vtls004661021",
        "name": "j punning",
        "dob": "blk",
        "age": "37",
        "place_of_birth": "amsterdam",
        "home_address": "blk",
        "f": "blk",
        "name_of_ship": "dutch vessel",
        "ship_port": "blk",
        "date_leaving": "1873",
        "joined_ship_date": "1873-08-01",
        "joined_at_port": "bahia",
        "capacity": "able seaman",
        "date_left": "1873-10-10",
        "left_port": "hamburg, germany",
        "cause_of_leaving": "discharged",
        "sign_with_mark": "n",
        "notes": "blk"
    },
    {
        "id": "vtls004661021_1_12",
        "type": "sailor",
        "parent": "vtls004661021",
        "name": "william beynon",
        "dob": "blk",
        "age": "30",
        "place_of_birth": "swansea",
        "home_address": "blk",
        "f": "blk",
        "name_of_ship": "mary",
        "ship_port": "newton",
        "date_leaving": "1873",
        "joined_ship_date": "1873-12-30",
        "joined_at_port": "hamburg",
        "capacity": "mate",
        "date_left": "1874-08-07",
        "left_port": "hamburg, germany",
        "cause_of_leaving": "discharged",
        "sign_with_mark": "n",
        "notes": "blk"
    },
    {
        "id": "vtls004661021_1_11",
        "type": "sailor",
        "parent": "vtls004661021",
        "name": "w humphrey",
        "dob": "blk",
        "age": "blk",
        "place_of_birth": "blk",
        "home_address": "blk",
        "f": "blk",
        "name_of_ship": "fairlina",
        "ship_port": "aberystwyth",
        "date_leaving": "blk",
        "joined_ship_date": "1873-12-30",
        "joined_at_port": "hamburg",
        "capacity": "master",
        "date_left": "blk",
        "left_port": "blk",
        "cause_of_leaving": "remains on board",
        "sign_with_mark": "n",
        "notes": "blk"
    },
    {
        "id": "vtls004661021_0_20",
        "type": "sailor",
        "parent": "vtls004661021",
        "name": "evan james evans",
        "dob": "blk",
        "age": "13",
        "place_of_birth": "blk",
        "home_address": "blk",
        "f": "blk",
        "name_of_ship": "blk",
        "ship_port": "blk",
        "date_leaving": "blk",
        "joined_ship_date": "blk",
        "joined_at_port": "blk",
        "capacity": "apprentice",
        "date_left": "blk",
        "left_port": "blk",
        "cause_of_leaving": "blk",
        "sign_with_mark": "n",
        "notes": "registry of indenture aberystwyth 1973-02"
    },
    {
        "id": "vtls004661021_1_21",
        "type": "sailor",
        "parent": "vtls004661021",
        "name": "heinrech dieckmann",
        "dob": "blk",
        "age": "21",
        "place_of_birth": "vandam",
        "home_address": "blk",
        "f": "blk",
        "name_of_ship": "foreign",
        "ship_port": "sheild",
        "date_leaving": "1873",
        "joined_ship_date": "1873-01-14",
        "joined_at_port": "cuxhaven",
        "capacity": "able seaman",
        "date_left": "1874-12-02",
        "left_port": "cuxhaven, germany",
        "cause_of_leaving": "mutual consent",
        "sign_with_mark": "n",
        "notes": "blk"
    },
    {
        "id": "vtls004661021_1_20",
        "type": "sailor",
        "parent": "vtls004661021",
        "name": "newton turner",
        "dob": "blk",
        "age": "25",
        "place_of_birth": "wilmington",
        "home_address": "blk",
        "f": "blk",
        "name_of_ship": "foreign",
        "ship_port": "sheild",
        "date_leaving": "1873",
        "joined_ship_date": "1873-01-14",
        "joined_at_port": "cuxhaven",
        "capacity": "able seaman",
        "date_left": "1874-07-08",
        "left_port": "siera leone",
        "cause_of_leaving": "discharged",
        "sign_with_mark": "n",
        "notes": "blk"
    },
    {
        "id": "vtls004661021_1_15",
        "type": "sailor",
        "parent": "vtls004661021",
        "name": "h hend$$$$",
        "dob": "blk",
        "age": "25",
        "place_of_birth": "norway",
        "home_address": "blk",
        "f": "blk",
        "name_of_ship": "foreign",
        "ship_port": "sheild",
        "date_leaving": "1873",
        "joined_ship_date": "1873-12-30",
        "joined_at_port": "hamburg",
        "capacity": "able seaman",
        "date_left": "1874-02-12",
        "left_port": "cuxhaven, germany",
        "cause_of_leaving": "deserted",
        "sign_with_mark": "n",
        "notes": "blk"
    },
    {
        "id": "vtls004661021_1_17",
        "type": "sailor",
        "parent": "vtls004661021",
        "name": "john smith",
        "dob": "blk",
        "age": "32",
        "place_of_birth": "shields",
        "home_address": "blk",
        "f": "blk",
        "name_of_ship": "foreign",
        "ship_port": "sheild",
        "date_leaving": "1873",
        "joined_ship_date": "1873-12-30",
        "joined_at_port": "hamburg",
        "capacity": "able seaman",
        "date_left": "1874-02-12",
        "left_port": "cuxhaven, germany",
        "cause_of_leaving": "deserted",
        "sign_with_mark": "n",
        "notes": "blk"
    },
    {
        "id": "vtls004661021_1_19",
        "type": "sailor",
        "parent": "vtls004661021",
        "name": "d almers",
        "dob": "blk",
        "age": "23",
        "place_of_birth": "rotterdam",
        "home_address": "blk",
        "f": "blk",
        "name_of_ship": "foreign",
        "ship_port": "sheild",
        "date_leaving": "1873",
        "joined_ship_date": "1873-12-30",
        "joined_at_port": "hamburg",
        "capacity": "able seaman",
        "date_left": "1874-02-12",
        "left_port": "hamburg, germany",
        "cause_of_leaving": "discharged",
        "sign_with_mark": "y",
        "notes": "blk"
    },
    {
        "id": "vtls004661021_1_16",
        "type": "sailor",
        "parent": "vtls004661021",
        "name": "j coine",
        "dob": "blk",
        "age": "20",
        "place_of_birth": "norway",
        "home_address": "blk",
        "f": "blk",
        "name_of_ship": "foreign",
        "ship_port": "sheild",
        "date_leaving": "1873",
        "joined_ship_date": "1873-12-30",
        "joined_at_port": "hamburg",
        "capacity": "able seaman",
        "date_left": "1874-02-12",
        "left_port": "cuxhaven, germany",
        "cause_of_leaving": "deserted",
        "sign_with_mark": "n",
        "notes": "blk"
    },
    {
        "id": "vtls004661021_1_18",
        "type": "sailor",
        "parent": "vtls004661021",
        "name": "g lundson",
        "dob": "blk",
        "age": "22",
        "place_of_birth": "finland",
        "home_address": "blk",
        "f": "blk",
        "name_of_ship": "foreign",
        "ship_port": "sheild",
        "date_leaving": "1873",
        "joined_ship_date": "1873-12-30",
        "joined_at_port": "hamburg",
        "capacity": "able seaman",
        "date_left": "1874-02-12",
        "left_port": "cuxhaven, germany",
        "cause_of_leaving": "deserted",
        "sign_with_mark": "n",
        "notes": "blk"
    },
    {
        "id": "vtls004661021_1_22",
        "type": "sailor",
        "parent": "vtls004661021",
        "name": "h pohlsen",
        "dob": "blk",
        "age": "21",
        "place_of_birth": "$",
        "home_address": "blk",
        "f": "blk",
        "name_of_ship": "foreign",
        "ship_port": "sheild",
        "date_leaving": "1873",
        "joined_ship_date": "1873-01-14",
        "joined_at_port": "cuxhaven",
        "capacity": "able seaman",
        "date_left": "1874-12-02",
        "left_port": "cuxhaven, germany",
        "cause_of_leaving": "deserted",
        "sign_with_mark": "n",
        "notes": "blk"
    },
    {
        "id": "vtls004661021_1_27",
        "type": "sailor",
        "parent": "vtls004661021",
        "name": "edward hartley",
        "dob": "blk",
        "age": "14",
        "place_of_birth": "lincolnshire",
        "home_address": "blk",
        "f": "blk",
        "name_of_ship": "confidence",
        "ship_port": "blk",
        "date_leaving": "1874",
        "joined_ship_date": "1874-02-03",
        "joined_at_port": "cuxhaven",
        "capacity": "ordinary seaman",
        "date_left": "1874-08-7",
        "left_port": "hamburg, germany",
        "cause_of_leaving": "discharged",
        "sign_with_mark": "y",
        "notes": "blk"
    },
    {
        "id": "vtls004661021_1_31",
        "type": "sailor",
        "parent": "vtls004661021",
        "name": "joseph jackson",
        "dob": "blk",
        "age": "30",
        "place_of_birth": "sierra leone",
        "home_address": "blk",
        "f": "blk",
        "name_of_ship": "hanny hilbery",
        "ship_port": "blk",
        "date_leaving": "1873",
        "joined_ship_date": "1874-06-09",
        "joined_at_port": "siera leone",
        "capacity": "able seaman",
        "date_left": "1874-08-12",
        "left_port": "hamburg, germany",
        "cause_of_leaving": "discharged",
        "sign_with_mark": "y",
        "notes": "blk"
    },
    {
        "id": "vtls004661021_1_25",
        "type": "sailor",
        "parent": "vtls004661021",
        "name": "henry sifton",
        "dob": "blk",
        "age": "20",
        "place_of_birth": "dublin",
        "home_address": "blk",
        "f": "blk",
        "name_of_ship": "tan cook",
        "ship_port": "blk",
        "date_leaving": "1874",
        "joined_ship_date": "1874-02-03",
        "joined_at_port": "cuxhaven",
        "capacity": "able seaman",
        "date_left": "1874-04-18",
        "left_port": "siera leone",
        "cause_of_leaving": "mutual consent",
        "sign_with_mark": "y",
        "notes": "blk"
    },
    {
        "id": "vtls004661021_1_30",
        "type": "sailor",
        "parent": "vtls004661021",
        "name": "john hutchinson",
        "dob": "blk",
        "age": "20",
        "place_of_birth": "preston",
        "home_address": "blk",
        "f": "blk",
        "name_of_ship": "elizabeth",
        "ship_port": "blk",
        "date_leaving": "1871",
        "joined_ship_date": "1874-05-23",
        "joined_at_port": "siera leone",
        "capacity": "2nd mate",
        "date_left": "1874-08-12",
        "left_port": "hamburg, germany",
        "cause_of_leaving": "discharged",
        "sign_with_mark": "y",
        "notes": "blk"
    },
    {
        "id": "vtls004661021_1_32",
        "type": "sailor",
        "parent": "vtls004661021",
        "name": "evan james evans",
        "dob": "blk",
        "age": "14",
        "place_of_birth": "blk",
        "home_address": "blk",
        "f": "blk",
        "name_of_ship": "blk",
        "ship_port": "blk",
        "date_leaving": "blk",
        "joined_ship_date": "1873-12-29",
        "joined_at_port": "hamburg",
        "capacity": "apprentice",
        "date_left": "blk",
        "left_port": "blk",
        "cause_of_leaving": "blk",
        "sign_with_mark": "n",
        "notes": "registry of indenture aberystwyth 1973-02"
    },
    {
        "id": "vtls004661021_1_23",
        "type": "sailor",
        "parent": "vtls004661021",
        "name": "h blank",
        "dob": "blk",
        "age": "20",
        "place_of_birth": "vandam",
        "home_address": "blk",
        "f": "blk",
        "name_of_ship": "foreign",
        "ship_port": "sheild",
        "date_leaving": "1873",
        "joined_ship_date": "1873-01-14",
        "joined_at_port": "cuxhaven",
        "capacity": "ordinary seaman",
        "date_left": "1874-12-02",
        "left_port": "cuxhaven, germany",
        "cause_of_leaving": "deserted",
        "sign_with_mark": "n",
        "notes": "blk"
    },
    {
        "id": "vtls004661021_1_26",
        "type": "sailor",
        "parent": "vtls004661021",
        "name": "james welsh",
        "dob": "blk",
        "age": "19",
        "place_of_birth": "philadelphia",
        "home_address": "blk",
        "f": "blk",
        "name_of_ship": "flower girl",
        "ship_port": "blk",
        "date_leaving": "1874",
        "joined_ship_date": "1874-02-03",
        "joined_at_port": "cuxhaven",
        "capacity": "blk",
        "date_left": "1874-08-07",
        "left_port": "hamburg, germany",
        "cause_of_leaving": "discharged",
        "sign_with_mark": "y",
        "notes": "blk"
    },
    {
        "id": "vtls004661021_1_24",
        "type": "sailor",
        "parent": "vtls004661021",
        "name": "peter williams",
        "dob": "blk",
        "age": "34",
        "place_of_birth": "$",
        "home_address": "blk",
        "f": "blk",
        "name_of_ship": "bell [hill]",
        "ship_port": "blk",
        "date_leaving": "1874",
        "joined_ship_date": "1874-02-03",
        "joined_at_port": "cuxhaven",
        "capacity": "able seaman",
        "date_left": "1874-08-07",
        "left_port": "hamburg, germany",
        "cause_of_leaving": "discharged",
        "sign_with_mark": "y",
        "notes": "blk"
    },
    {
        "id": "vtls004661021_1_28",
        "type": "sailor",
        "parent": "vtls004661021",
        "name": "gustav manhardt",
        "dob": "blk",
        "age": "23",
        "place_of_birth": "germany",
        "home_address": "blk",
        "f": "blk",
        "name_of_ship": "christine",
        "ship_port": "blk",
        "date_leaving": "1874",
        "joined_ship_date": "1874-02-03",
        "joined_at_port": "cuxhaven",
        "capacity": "able seaman",
        "date_left": "blk",
        "left_port": "freetown",
        "cause_of_leaving": "deserted",
        "sign_with_mark": "n",
        "notes": "blk"
    },
    {
        "id": "vtls004661021_1_29",
        "type": "sailor",
        "parent": "vtls004661021",
        "name": "john rose",
        "dob": "blk",
        "age": "39",
        "place_of_birth": "hull",
        "home_address": "blk",
        "f": "blk",
        "name_of_ship": "[nebraska]",
        "ship_port": "blk",
        "date_leaving": "1874",
        "joined_ship_date": "1874-05-30",
        "joined_at_port": "siera leone",
        "capacity": "2nd mate",
        "date_left": "blk",
        "left_port": "blk",
        "cause_of_leaving": "not joined",
        "sign_with_mark": "n",
        "notes": "blk"
    },
    {
        "id": "vtls004661021_2_17",
        "type": "sailor",
        "parent": "vtls004661021",
        "name": "henry tugler",
        "dob": "blk",
        "age": "28",
        "place_of_birth": "hamburg",
        "home_address": "blk",
        "f": "blk",
        "name_of_ship": "lallah rookh",
        "ship_port": "st john",
        "date_leaving": "1874",
        "joined_ship_date": "1874-09-15",
        "joined_at_port": "hamburg",
        "capacity": "ordinary seaman",
        "date_left": "1874-09-28",
        "left_port": "sunderland",
        "cause_of_leaving": "deserted",
        "sign_with_mark": "n",
        "notes": "blk"
    },
    {
        "id": "vtls004661021_2_14",
        "type": "sailor",
        "parent": "vtls004661021",
        "name": "james cunningham",
        "dob": "blk",
        "age": "26",
        "place_of_birth": "newry",
        "home_address": "blk",
        "f": "blk",
        "name_of_ship": "foreign ship",
        "ship_port": "blk",
        "date_leaving": "1874",
        "joined_ship_date": "1874-09-15",
        "joined_at_port": "hamburg",
        "capacity": "able seaman",
        "date_left": "1874-09-28",
        "left_port": "sunderland",
        "cause_of_leaving": "deserted",
        "sign_with_mark": "n",
        "notes": "blk"
    },
    {
        "id": "vtls004661021_2_15",
        "type": "sailor",
        "parent": "vtls004661021",
        "name": "d v pomern",
        "dob": "blk",
        "age": "23",
        "place_of_birth": "amsterdam",
        "home_address": "blk",
        "f": "blk",
        "name_of_ship": "foreign ship",
        "ship_port": "blk",
        "date_leaving": "1874",
        "joined_ship_date": "1874-09-15",
        "joined_at_port": "hamburg",
        "capacity": "able seaman",
        "date_left": "1874-09-28",
        "left_port": "sunderland",
        "cause_of_leaving": "deserted",
        "sign_with_mark": "n",
        "notes": "blk"
    },
    {
        "id": "vtls004661021_2_16",
        "type": "sailor",
        "parent": "vtls004661021",
        "name": "thomas murphy",
        "dob": "blk",
        "age": "36",
        "place_of_birth": "dublin",
        "home_address": "blk",
        "f": "blk",
        "name_of_ship": "romeo",
        "ship_port": "liverpool",
        "date_leaving": "1874",
        "joined_ship_date": "1874-09-15",
        "joined_at_port": "hamburg",
        "capacity": "able seaman",
        "date_left": "1874-09-28",
        "left_port": "sunderland",
        "cause_of_leaving": "deserted",
        "sign_with_mark": "y",
        "notes": "blk"
    },
    {
        "id": "vtls004661021_2_13",
        "type": "sailor",
        "parent": "vtls004661021",
        "name": "james pierce",
        "dob": "blk",
        "age": "35",
        "place_of_birth": "halifax",
        "home_address": "blk",
        "f": "blk",
        "name_of_ship": "foreign ship",
        "ship_port": "blk",
        "date_leaving": "1874",
        "joined_ship_date": "1874--09-15",
        "joined_at_port": "hamburg",
        "capacity": "able seaman",
        "date_left": "1874-09-18",
        "left_port": "hamburg, germany",
        "cause_of_leaving": "drowned",
        "sign_with_mark": "y",
        "notes": "blk"
    },
    {
        "id": "vtls004661021_2_12",
        "type": "sailor",
        "parent": "vtls004661021",
        "name": "edward saucke",
        "dob": "blk",
        "age": "37",
        "place_of_birth": "hamburg",
        "home_address": "blk",
        "f": "blk",
        "name_of_ship": "foreign ship",
        "ship_port": "blk",
        "date_leaving": "1874",
        "joined_ship_date": "1874--09-15",
        "joined_at_port": "hamburg",
        "capacity": "mate",
        "date_left": "1874-09-18",
        "left_port": "hamburg, germany",
        "cause_of_leaving": "never joined",
        "sign_with_mark": "n",
        "notes": "blk"
    },
    {
        "id": "vtls004661021_2_11",
        "type": "sailor",
        "parent": "vtls004661021",
        "name": "j w humphreys",
        "dob": "blk",
        "age": "39",
        "place_of_birth": "aberystwyth",
        "home_address": "fairlina villa",
        "f": "fairlina villa",
        "name_of_ship": "blk",
        "ship_port": "blk",
        "date_leaving": "blk",
        "joined_ship_date": "blk",
        "joined_at_port": "blk",
        "capacity": "master",
        "date_left": "blk",
        "left_port": "blk",
        "cause_of_leaving": "remains on board",
        "sign_with_mark": "n",
        "notes": "blk"
    },
    {
        "id": "vtls004661021_2_18",
        "type": "sailor",
        "parent": "vtls004661021",
        "name": "fred tinken",
        "dob": "blk",
        "age": "30",
        "place_of_birth": "leremen",
        "home_address": "blk",
        "f": "blk",
        "name_of_ship": "$",
        "ship_port": "$",
        "date_leaving": "1874",
        "joined_ship_date": "1874-09-21",
        "joined_at_port": "hamburg",
        "capacity": "mate",
        "date_left": "1874-09-28",
        "left_port": "sunderland",
        "cause_of_leaving": "deserted",
        "sign_with_mark": "n",
        "notes": "blk"
    },
    {
        "id": "vtls004661021_2_20",
        "type": "sailor",
        "parent": "vtls004661021",
        "name": "evan james evans",
        "dob": "blk",
        "age": "14",
        "place_of_birth": "blk",
        "home_address": "blk",
        "f": "blk",
        "name_of_ship": "blk",
        "ship_port": "blk",
        "date_leaving": "blk",
        "joined_ship_date": "blk",
        "joined_at_port": "blk",
        "capacity": "apprentice",
        "date_left": "blk",
        "left_port": "blk",
        "cause_of_leaving": "remains on board",
        "sign_with_mark": "n",
        "notes": "registry of indenture aberystwyth 1973-02"
    },
    {
        "id": "vtls004661021_2_19",
        "type": "sailor",
        "parent": "vtls004661021",
        "name": "william horton",
        "dob": "blk",
        "age": "48",
        "place_of_birth": "$",
        "home_address": "blk",
        "f": "blk",
        "name_of_ship": "[flute]",
        "ship_port": "blk",
        "date_leaving": "1874",
        "joined_ship_date": "1874-09-21",
        "joined_at_port": "hamburg",
        "capacity": "able seaman",
        "date_left": "1874-09-21",
        "left_port": "hamburg, germany",
        "cause_of_leaving": "did not join",
        "sign_with_mark": "n",
        "notes": "blk"
    }
]