[
    {
        "id": "vtls004663382_0_18",
        "type": "sailor",
        "parent": "vtls004663382",
        "name": "samuel williams",
        "dob": "blk",
        "age": "19",
        "place_of_birth": "llanarth",
        "home_address": "blk",
        "f": "blk",
        "name_of_ship": "gertrude",
        "ship_port": "aberystwyth",
        "date_leaving": "blk",
        "joined_ship_date": "1863-05-25",
        "joined_at_port": "cardiff",
        "capacity": "ordinary seaman",
        "date_left": "1863-09-03",
        "left_port": "runcorn",
        "cause_of_leaving": "paid off",
        "sign_with_mark": "n",
        "notes": "blk"
    },
    {
        "id": "vtls004663382_0_19",
        "type": "sailor",
        "parent": "vtls004663382",
        "name": "samuel thomas",
        "dob": "blk",
        "age": "17",
        "place_of_birth": "llanarth",
        "home_address": "blk",
        "f": "blk",
        "name_of_ship": "gertrude",
        "ship_port": "aberystwyth",
        "date_leaving": "blk",
        "joined_ship_date": "1863-05-25",
        "joined_at_port": "cardiff",
        "capacity": "ordinary seaman",
        "date_left": "1863-09-03",
        "left_port": "runcorn",
        "cause_of_leaving": "paid off",
        "sign_with_mark": "n",
        "notes": "blk"
    },
    {
        "id": "vtls004663382_0_17",
        "type": "sailor",
        "parent": "vtls004663382",
        "name": "david profles",
        "dob": "blk",
        "age": "26",
        "place_of_birth": "llanarth",
        "home_address": "blk",
        "f": "blk",
        "name_of_ship": "gertrude",
        "ship_port": "aberystwyth",
        "date_leaving": "blk",
        "joined_ship_date": "1863-05-25",
        "joined_at_port": "cardiff",
        "capacity": "carpenter",
        "date_left": "1863-09-03",
        "left_port": "runcorn",
        "cause_of_leaving": "paid off",
        "sign_with_mark": "n",
        "notes": "blk"
    },
    {
        "id": "vtls004663382_0_15",
        "type": "sailor",
        "parent": "vtls004663382",
        "name": "daniel jones",
        "dob": "blk",
        "age": "42",
        "place_of_birth": "aberaeron",
        "home_address": "blk",
        "f": "blk",
        "name_of_ship": "gertrude",
        "ship_port": "aberystwyth",
        "date_leaving": "blk",
        "joined_ship_date": "1863-05-25",
        "joined_at_port": "cardiff",
        "capacity": "able seaman",
        "date_left": "1863-09-03",
        "left_port": "runcorn",
        "cause_of_leaving": "paid off",
        "sign_with_mark": "n",
        "notes": "blk"
    },
    {
        "id": "vtls004663382_0_13",
        "type": "sailor",
        "parent": "vtls004663382",
        "name": "timothy thomas",
        "dob": "blk",
        "age": "30",
        "place_of_birth": "llanarth",
        "home_address": "blk",
        "f": "blk",
        "name_of_ship": "gertrude",
        "ship_port": "aberystwyth",
        "date_leaving": "blk",
        "joined_ship_date": "1863-05-25",
        "joined_at_port": "cardiff",
        "capacity": "boatswain",
        "date_left": "1863-09-03",
        "left_port": "runcorn",
        "cause_of_leaving": "paid off",
        "sign_with_mark": "n",
        "notes": "blk"
    },
    {
        "id": "vtls004663382_0_16",
        "type": "sailor",
        "parent": "vtls004663382",
        "name": "james thomas",
        "dob": "blk",
        "age": "25",
        "place_of_birth": "newquay",
        "home_address": "blk",
        "f": "blk",
        "name_of_ship": "gertrude",
        "ship_port": "aberystwyth",
        "date_leaving": "blk",
        "joined_ship_date": "1863-05-25",
        "joined_at_port": "cardiff",
        "capacity": "able seaman",
        "date_left": "1863-09-03",
        "left_port": "runcorn",
        "cause_of_leaving": "paid off",
        "sign_with_mark": "n",
        "notes": "blk"
    },
    {
        "id": "vtls004663382_0_14",
        "type": "sailor",
        "parent": "vtls004663382",
        "name": "griffith enoch",
        "dob": "blk",
        "age": "30",
        "place_of_birth": "llanarth",
        "home_address": "blk",
        "f": "blk",
        "name_of_ship": "gertrude",
        "ship_port": "aberystwyth",
        "date_leaving": "blk",
        "joined_ship_date": "1863-05-25",
        "joined_at_port": "cardiff",
        "capacity": "cook",
        "date_left": "1863-09-03",
        "left_port": "runcorn",
        "cause_of_leaving": "paid off",
        "sign_with_mark": "n",
        "notes": "blk"
    },
    {
        "id": "vtls004663382_0_11",
        "type": "sailor",
        "parent": "vtls004663382",
        "name": "abraham enoch",
        "dob": "blk",
        "age": "39",
        "place_of_birth": "newquay",
        "home_address": "blk",
        "f": "blk",
        "name_of_ship": "gertrude",
        "ship_port": "aberystwyth",
        "date_leaving": "blk",
        "joined_ship_date": "blk",
        "joined_at_port": "blk",
        "capacity": "master",
        "date_left": "1863-09-03",
        "left_port": "runcorn",
        "cause_of_leaving": "remains on board",
        "sign_with_mark": "n",
        "notes": "blk"
    },
    {
        "id": "vtls004663382_1_18",
        "type": "sailor",
        "parent": "vtls004663382",
        "name": "samuel thomas",
        "dob": "blk",
        "age": "17",
        "place_of_birth": "newquay",
        "home_address": "blk",
        "f": "blk",
        "name_of_ship": "gertrude",
        "ship_port": "aberystwyth",
        "date_leaving": "1863-09-03",
        "joined_ship_date": "1863-09-08",
        "joined_at_port": "runcorn",
        "capacity": "ordinary seaman",
        "date_left": "1863-11-23",
        "left_port": "liverpool",
        "cause_of_leaving": "discharged",
        "sign_with_mark": "n",
        "notes": "blk"
    },
    {
        "id": "vtls004663382_1_16",
        "type": "sailor",
        "parent": "vtls004663382",
        "name": "james thomas",
        "dob": "blk",
        "age": "26",
        "place_of_birth": "newquay",
        "home_address": "blk",
        "f": "blk",
        "name_of_ship": "gertrude",
        "ship_port": "aberystwyth",
        "date_leaving": "1863-09-03",
        "joined_ship_date": "1863-09-08",
        "joined_at_port": "runcorn",
        "capacity": "able seaman",
        "date_left": "1863-11-23",
        "left_port": "liverpool",
        "cause_of_leaving": "discharged",
        "sign_with_mark": "n",
        "notes": "blk"
    },
    {
        "id": "vtls004663382_1_17",
        "type": "sailor",
        "parent": "vtls004663382",
        "name": "samuel williams",
        "dob": "blk",
        "age": "19",
        "place_of_birth": "llanarth",
        "home_address": "blk",
        "f": "blk",
        "name_of_ship": "gertrude",
        "ship_port": "aberystwyth",
        "date_leaving": "1863-09-03",
        "joined_ship_date": "1863-09-08",
        "joined_at_port": "runcorn",
        "capacity": "ordinary seaman",
        "date_left": "1863-11-23",
        "left_port": "liverpool",
        "cause_of_leaving": "discharged",
        "sign_with_mark": "n",
        "notes": "blk"
    },
    {
        "id": "vtls004663382_1_14",
        "type": "sailor",
        "parent": "vtls004663382",
        "name": "griffith encoch",
        "dob": "blk",
        "age": "30",
        "place_of_birth": "llanarth",
        "home_address": "blk",
        "f": "blk",
        "name_of_ship": "gertrude",
        "ship_port": "aberystwyth",
        "date_leaving": "1863-09-03",
        "joined_ship_date": "1863-09-08",
        "joined_at_port": "runcorn",
        "capacity": "cook & steward",
        "date_left": "1863-11-23",
        "left_port": "liverpool",
        "cause_of_leaving": "discharged",
        "sign_with_mark": "n",
        "notes": "blk"
    },
    {
        "id": "vtls004663382_1_13",
        "type": "sailor",
        "parent": "vtls004663382",
        "name": "timonthy thomas",
        "dob": "blk",
        "age": "31",
        "place_of_birth": "llanarth",
        "home_address": "blk",
        "f": "blk",
        "name_of_ship": "gertrude",
        "ship_port": "aberystwyth",
        "date_leaving": "1863-09-03",
        "joined_ship_date": "1863-09-08",
        "joined_at_port": "runcorn",
        "capacity": "boatswain",
        "date_left": "1863-11-23",
        "left_port": "liverpool",
        "cause_of_leaving": "discharged",
        "sign_with_mark": "n",
        "notes": "blk"
    },
    {
        "id": "vtls004663382_1_15",
        "type": "sailor",
        "parent": "vtls004663382",
        "name": "daniel jones",
        "dob": "blk",
        "age": "42",
        "place_of_birth": "aberaeron",
        "home_address": "blk",
        "f": "blk",
        "name_of_ship": "gertrude",
        "ship_port": "aberystwyth",
        "date_leaving": "1863-09-03",
        "joined_ship_date": "1863-09-08",
        "joined_at_port": "runcorn",
        "capacity": "able seaman",
        "date_left": "1863-11-23",
        "left_port": "liverpool",
        "cause_of_leaving": "discharged",
        "sign_with_mark": "n",
        "notes": "blk"
    },
    {
        "id": "vtls004663382_1_11",
        "type": "sailor",
        "parent": "vtls004663382",
        "name": "abraham enoch",
        "dob": "blk",
        "age": "38",
        "place_of_birth": "newquay",
        "home_address": "blk",
        "f": "blk",
        "name_of_ship": "gertrude",
        "ship_port": "aberystwyth",
        "date_leaving": "continued",
        "joined_ship_date": "blk",
        "joined_at_port": "blk",
        "capacity": "master",
        "date_left": "blk",
        "left_port": "blk",
        "cause_of_leaving": "remains on board",
        "sign_with_mark": "n",
        "notes": "blk"
    },
    {
        "id": "vtls004663389_0_13",
        "type": "sailor",
        "parent": "vtls004663389",
        "name": "griffith enoch",
        "dob": "blk",
        "age": "32",
        "place_of_birth": "cardigan",
        "home_address": "blk",
        "f": "blk",
        "name_of_ship": "gertrude",
        "ship_port": "aberystwyth",
        "date_leaving": "1863-11",
        "joined_ship_date": "1864-02-02",
        "joined_at_port": "liverpool",
        "capacity": "cook & steward",
        "date_left": "1864-06-08",
        "left_port": "liverpool",
        "cause_of_leaving": "discharged",
        "sign_with_mark": "n",
        "notes": "blk"
    },
    {
        "id": "vtls004663389_0_17",
        "type": "sailor",
        "parent": "vtls004663389",
        "name": "samuel thomas",
        "dob": "blk",
        "age": "18",
        "place_of_birth": "cardigan",
        "home_address": "blk",
        "f": "blk",
        "name_of_ship": "gertrude",
        "ship_port": "aberystwyth",
        "date_leaving": "1863-11",
        "joined_ship_date": "1864-02-01",
        "joined_at_port": "liverpool",
        "capacity": "ordinary seaman",
        "date_left": "1864-06-08",
        "left_port": "liverpool",
        "cause_of_leaving": "discharged",
        "sign_with_mark": "n",
        "notes": "blk"
    },
    {
        "id": "vtls004663389_0_16",
        "type": "sailor",
        "parent": "vtls004663389",
        "name": "magus anderson",
        "dob": "blk",
        "age": "33",
        "place_of_birth": "lerwick",
        "home_address": "blk",
        "f": "blk",
        "name_of_ship": "lizzie homan",
        "ship_port": "liverpool",
        "date_leaving": "1864-01-25",
        "joined_ship_date": "1864-02-02",
        "joined_at_port": "liverpool",
        "capacity": "seaman",
        "date_left": "1864-04-26",
        "left_port": "barbados",
        "cause_of_leaving": "discharged",
        "sign_with_mark": "y",
        "notes": "blk"
    },
    {
        "id": "vtls004663389_0_14",
        "type": "sailor",
        "parent": "vtls004663389",
        "name": "john edward",
        "dob": "blk",
        "age": "20",
        "place_of_birth": "aberystwyth",
        "home_address": "blk",
        "f": "blk",
        "name_of_ship": "battus",
        "ship_port": "aberystwyth",
        "date_leaving": "1863-10-25",
        "joined_ship_date": "1864-02-01",
        "joined_at_port": "liverpool",
        "capacity": "seaman",
        "date_left": "1864-06-08",
        "left_port": "liverpool",
        "cause_of_leaving": "discharged",
        "sign_with_mark": "n",
        "notes": "blk"
    },
    {
        "id": "vtls004663389_0_12",
        "type": "sailor",
        "parent": "vtls004663389",
        "name": "francais jones",
        "dob": "blk",
        "age": "43",
        "place_of_birth": "cardigan",
        "home_address": "blk",
        "f": "blk",
        "name_of_ship": "gertrude",
        "ship_port": "aberystwyth",
        "date_leaving": "1863-11",
        "joined_ship_date": "1864-02-02",
        "joined_at_port": "liverpool",
        "capacity": "mate",
        "date_left": "1864-06-08",
        "left_port": "liverpool",
        "cause_of_leaving": "discharged",
        "sign_with_mark": "n",
        "notes": "blk"
    },
    {
        "id": "vtls004663389_0_15",
        "type": "sailor",
        "parent": "vtls004663389",
        "name": "john evans",
        "dob": "blk",
        "age": "21",
        "place_of_birth": "aberystwyth",
        "home_address": "blk",
        "f": "blk",
        "name_of_ship": "ystwyth",
        "ship_port": "aberystwyth",
        "date_leaving": "1863-10",
        "joined_ship_date": "1864-02-01",
        "joined_at_port": "liverpool",
        "capacity": "seaman",
        "date_left": "1864-06-08",
        "left_port": "liverpool",
        "cause_of_leaving": "discharged",
        "sign_with_mark": "n",
        "notes": "blk"
    },
    {
        "id": "vtls004663389_0_11",
        "type": "sailor",
        "parent": "vtls004663389",
        "name": "abraham enoch",
        "dob": "blk",
        "age": "38",
        "place_of_birth": "cardigan",
        "home_address": "blk",
        "f": "blk",
        "name_of_ship": "gertrude",
        "ship_port": "aberystwyth",
        "date_leaving": "remains",
        "joined_ship_date": "blk",
        "joined_at_port": "blk",
        "capacity": "master",
        "date_left": "1864-06-08",
        "left_port": "liverpool",
        "cause_of_leaving": "discharged",
        "sign_with_mark": "n",
        "notes": "blk"
    },
    {
        "id": "vtls004663389_0_18",
        "type": "sailor",
        "parent": "vtls004663389",
        "name": "james ohara",
        "dob": "blk",
        "age": "22",
        "place_of_birth": "liverpool",
        "home_address": "blk",
        "f": "blk",
        "name_of_ship": "ann",
        "ship_port": "bristol",
        "date_leaving": "1864-01",
        "joined_ship_date": "1864-02-02",
        "joined_at_port": "liverpool",
        "capacity": "seaman",
        "date_left": "1864-06-08",
        "left_port": "liverpool",
        "cause_of_leaving": "discharged",
        "sign_with_mark": "n",
        "notes": "blk"
    },
    {
        "id": "vtls004663389_0_19",
        "type": "sailor",
        "parent": "vtls004663389",
        "name": "john morgan rees",
        "dob": "blk",
        "age": "16",
        "place_of_birth": "blk",
        "home_address": "blk",
        "f": "blk",
        "name_of_ship": "blk",
        "ship_port": "blk",
        "date_leaving": "blk",
        "joined_ship_date": "1863-04-18",
        "joined_at_port": "aberystwyth",
        "capacity": "appentice",
        "date_left": "blk",
        "left_port": "blk",
        "cause_of_leaving": "remains on board",
        "sign_with_mark": "n",
        "notes": "blk"
    },
    {
        "id": "vtls004663413_0_18",
        "type": "sailor",
        "parent": "vtls004663413",
        "name": "august georgens",
        "dob": "blk",
        "age": "18",
        "place_of_birth": "prussia",
        "home_address": "blk",
        "f": "blk",
        "name_of_ship": "gertrude",
        "ship_port": "aberystwyth",
        "date_leaving": "1866-10",
        "joined_ship_date": "1866-11-07",
        "joined_at_port": "liverpool",
        "capacity": "ordinary seaman",
        "date_left": "blk",
        "left_port": "blk",
        "cause_of_leaving": "blk",
        "sign_with_mark": "n",
        "notes": "blk"
    },
    {
        "id": "vtls004663413_0_15",
        "type": "sailor",
        "parent": "vtls004663413",
        "name": "john jones",
        "dob": "blk",
        "age": "22",
        "place_of_birth": "cardigan",
        "home_address": "blk",
        "f": "blk",
        "name_of_ship": "star of the teign",
        "ship_port": "liverpool",
        "date_leaving": "1866-11",
        "joined_ship_date": "1866-11-07",
        "joined_at_port": "liverpool",
        "capacity": "able seaman",
        "date_left": "blk",
        "left_port": "blk",
        "cause_of_leaving": "blk",
        "sign_with_mark": "n",
        "notes": "blk"
    },
    {
        "id": "vtls004663413_0_17",
        "type": "sailor",
        "parent": "vtls004663413",
        "name": "william jones",
        "dob": "blk",
        "age": "21",
        "place_of_birth": "caernarfon",
        "home_address": "blk",
        "f": "blk",
        "name_of_ship": "edward",
        "ship_port": "caernarvon",
        "date_leaving": "1866-10",
        "joined_ship_date": "1866-11-07",
        "joined_at_port": "liverpool",
        "capacity": "ordinary seaman",
        "date_left": "blk",
        "left_port": "blk",
        "cause_of_leaving": "blk",
        "sign_with_mark": "y",
        "notes": "blk"
    },
    {
        "id": "vtls004663413_0_14",
        "type": "sailor",
        "parent": "vtls004663413",
        "name": "david rees",
        "dob": "blk",
        "age": "62",
        "place_of_birth": "newquay",
        "home_address": "blk",
        "f": "blk",
        "name_of_ship": "gertrude",
        "ship_port": "aberystwyth",
        "date_leaving": "1866-10",
        "joined_ship_date": "1866-11-07",
        "joined_at_port": "liverpool",
        "capacity": "cook & steward",
        "date_left": "blk",
        "left_port": "blk",
        "cause_of_leaving": "blk",
        "sign_with_mark": "n",
        "notes": "blk"
    },
    {
        "id": "vtls004663413_0_16",
        "type": "sailor",
        "parent": "vtls004663413",
        "name": "john parry",
        "dob": "blk",
        "age": "20",
        "place_of_birth": "caernarfon",
        "home_address": "blk",
        "f": "blk",
        "name_of_ship": "kate",
        "ship_port": "liverpool",
        "date_leaving": "1866-10",
        "joined_ship_date": "1866-11-07",
        "joined_at_port": "liverpool",
        "capacity": "ordinary seaman",
        "date_left": "blk",
        "left_port": "blk",
        "cause_of_leaving": "blk",
        "sign_with_mark": "y",
        "notes": "blk"
    },
    {
        "id": "vtls004663413_0_12",
        "type": "sailor",
        "parent": "vtls004663413",
        "name": "evan davies",
        "dob": "blk",
        "age": "27",
        "place_of_birth": "aberaeron",
        "home_address": "blk",
        "f": "blk",
        "name_of_ship": "gertrude",
        "ship_port": "aberystwyth",
        "date_leaving": "1866-10",
        "joined_ship_date": "1866-11-07",
        "joined_at_port": "liverpool",
        "capacity": "mate",
        "date_left": "blk",
        "left_port": "blk",
        "cause_of_leaving": "blk",
        "sign_with_mark": "n",
        "notes": "blk"
    },
    {
        "id": "vtls004663413_0_19",
        "type": "sailor",
        "parent": "vtls004663413",
        "name": "edward parry",
        "dob": "blk",
        "age": "16",
        "place_of_birth": "caernarfon",
        "home_address": "blk",
        "f": "blk",
        "name_of_ship": "newry",
        "ship_port": "liverpool",
        "date_leaving": "1866-10",
        "joined_ship_date": "1866-11-07",
        "joined_at_port": "liverpool",
        "capacity": "boy",
        "date_left": "blk",
        "left_port": "blk",
        "cause_of_leaving": "blk",
        "sign_with_mark": "n",
        "notes": "blk"
    },
    {
        "id": "vtls004663413_0_11",
        "type": "sailor",
        "parent": "vtls004663413",
        "name": "abraham enoch",
        "dob": "blk",
        "age": "42",
        "place_of_birth": "cardigan",
        "home_address": "blk",
        "f": "blk",
        "name_of_ship": "gertrude",
        "ship_port": "aberystwyth",
        "date_leaving": "blk",
        "joined_ship_date": "blk",
        "joined_at_port": "blk",
        "capacity": "master",
        "date_left": "blk",
        "left_port": "blk",
        "cause_of_leaving": "blk",
        "sign_with_mark": "n",
        "notes": "blk"
    },
    {
        "id": "vtls004663413_1_11",
        "type": "sailor",
        "parent": "vtls004663413",
        "name": "abraham enoch",
        "dob": "blk",
        "age": "42",
        "place_of_birth": "cardigan",
        "home_address": "blk",
        "f": "blk",
        "name_of_ship": "gertrude",
        "ship_port": "aberystwyth",
        "date_leaving": "blk",
        "joined_ship_date": "blk",
        "joined_at_port": "blk",
        "capacity": "master",
        "date_left": "1867-12-12",
        "left_port": "at sea",
        "cause_of_leaving": "drowned",
        "sign_with_mark": "n",
        "notes": "duplicate of 227-3-1 but with discharge details"
    },
    {
        "id": "vtls004663413_1_18",
        "type": "sailor",
        "parent": "vtls004663413",
        "name": "august georgens",
        "dob": "blk",
        "age": "18",
        "place_of_birth": "prussia",
        "home_address": "blk",
        "f": "blk",
        "name_of_ship": "gertrude",
        "ship_port": "aberystwyth",
        "date_leaving": "1866-10",
        "joined_ship_date": "1866-11-07",
        "joined_at_port": "liverpool",
        "capacity": "ordinary seaman",
        "date_left": "1867-12-12",
        "left_port": "at sea",
        "cause_of_leaving": "drowned",
        "sign_with_mark": "n",
        "notes": "blk"
    },
    {
        "id": "vtls004663413_1_16",
        "type": "sailor",
        "parent": "vtls004663413",
        "name": "william jones",
        "dob": "blk",
        "age": "20",
        "place_of_birth": "caernarfon",
        "home_address": "blk",
        "f": "blk",
        "name_of_ship": "edward",
        "ship_port": "caernarvon",
        "date_leaving": "1866-10",
        "joined_ship_date": "1866-11-07",
        "joined_at_port": "liverpool",
        "capacity": "ordinary seaman",
        "date_left": "1867-06-08",
        "left_port": "new york",
        "cause_of_leaving": "deserted",
        "sign_with_mark": "y",
        "notes": "blk"
    },
    {
        "id": "vtls004663413_1_15",
        "type": "sailor",
        "parent": "vtls004663413",
        "name": "john jones",
        "dob": "blk",
        "age": "22",
        "place_of_birth": "cardigan",
        "home_address": "blk",
        "f": "blk",
        "name_of_ship": "star of the teign",
        "ship_port": "liverpool",
        "date_leaving": "1866-11",
        "joined_ship_date": "1866-11-07",
        "joined_at_port": "liverpool",
        "capacity": "able seaman",
        "date_left": "1867-12-12",
        "left_port": "at sea",
        "cause_of_leaving": "drowned",
        "sign_with_mark": "n",
        "notes": "blk"
    },
    {
        "id": "vtls004663413_1_14",
        "type": "sailor",
        "parent": "vtls004663413",
        "name": "david rees",
        "dob": "blk",
        "age": "62",
        "place_of_birth": "newquay",
        "home_address": "blk",
        "f": "blk",
        "name_of_ship": "gertrude",
        "ship_port": "aberystwyth",
        "date_leaving": "1866-10",
        "joined_ship_date": "1866-11-07",
        "joined_at_port": "liverpool",
        "capacity": "cook & steward",
        "date_left": "1867-12-12",
        "left_port": "at sea",
        "cause_of_leaving": "drowned",
        "sign_with_mark": "n",
        "notes": "blk"
    },
    {
        "id": "vtls004663413_1_17",
        "type": "sailor",
        "parent": "vtls004663413",
        "name": "john parry",
        "dob": "blk",
        "age": "21",
        "place_of_birth": "caernarfon",
        "home_address": "blk",
        "f": "blk",
        "name_of_ship": "kate",
        "ship_port": "liverpool",
        "date_leaving": "1866-10",
        "joined_ship_date": "1866-11-07",
        "joined_at_port": "liverpool",
        "capacity": "ordinary seaman",
        "date_left": "1867-06-08",
        "left_port": "new york",
        "cause_of_leaving": "deserted",
        "sign_with_mark": "y",
        "notes": "blk"
    },
    {
        "id": "vtls004663413_1_12",
        "type": "sailor",
        "parent": "vtls004663413",
        "name": "evan davies",
        "dob": "blk",
        "age": "27",
        "place_of_birth": "aberaeron",
        "home_address": "blk",
        "f": "blk",
        "name_of_ship": "gertrude",
        "ship_port": "aberystwyth",
        "date_leaving": "1866-10",
        "joined_ship_date": "1866-11-07",
        "joined_at_port": "liverpool",
        "capacity": "mate",
        "date_left": "1867-12-12",
        "left_port": "at sea",
        "cause_of_leaving": "drowned",
        "sign_with_mark": "n",
        "notes": "blk"
    },
    {
        "id": "vtls004663413_1_20",
        "type": "sailor",
        "parent": "vtls004663413",
        "name": "daniel parker",
        "dob": "blk",
        "age": "18",
        "place_of_birth": "london",
        "home_address": "blk",
        "f": "blk",
        "name_of_ship": "meg merrilies",
        "ship_port": "hartlepool",
        "date_leaving": "1866-10",
        "joined_ship_date": "1866-11-19",
        "joined_at_port": "liverpool",
        "capacity": "boy",
        "date_left": "blk",
        "left_port": "blk",
        "cause_of_leaving": "did not join",
        "sign_with_mark": "n",
        "notes": "blk"
    },
    {
        "id": "vtls004663413_1_19",
        "type": "sailor",
        "parent": "vtls004663413",
        "name": "edward parry",
        "dob": "blk",
        "age": "16",
        "place_of_birth": "caernarfon",
        "home_address": "blk",
        "f": "blk",
        "name_of_ship": "newry",
        "ship_port": "liverpool",
        "date_leaving": "1866-10",
        "joined_ship_date": "1866-11-07",
        "joined_at_port": "liverpool",
        "capacity": "boy",
        "date_left": "blk",
        "left_port": "blk",
        "cause_of_leaving": "did not join",
        "sign_with_mark": "n",
        "notes": "blk"
    },
    {
        "id": "vtls004663413_0_20",
        "type": "sailor",
        "parent": "vtls004663413",
        "name": "daniel parker",
        "dob": "blk",
        "age": "18",
        "place_of_birth": "london",
        "home_address": "blk",
        "f": "blk",
        "name_of_ship": "meg merrilies",
        "ship_port": "hartlepool",
        "date_leaving": "1866-10",
        "joined_ship_date": "1866-11-19",
        "joined_at_port": "liverpool",
        "capacity": "boy",
        "date_left": "blk",
        "left_port": "blk",
        "cause_of_leaving": "blk",
        "sign_with_mark": "n",
        "notes": "blk"
    },
    {
        "id": "vtls004663413_1_21",
        "type": "sailor",
        "parent": "vtls004663413",
        "name": "thomas hughes",
        "dob": "blk",
        "age": "16",
        "place_of_birth": "llandudno",
        "home_address": "blk",
        "f": "blk",
        "name_of_ship": "[warwick]",
        "ship_port": "$",
        "date_leaving": "1866-11-10",
        "joined_ship_date": "1866-11-10",
        "joined_at_port": "runcorn",
        "capacity": "boy",
        "date_left": "1867-12-12",
        "left_port": "at sea",
        "cause_of_leaving": "drowned",
        "sign_with_mark": "n",
        "notes": "blk"
    },
    {
        "id": "vtls004663413_1_23",
        "type": "sailor",
        "parent": "vtls004663413",
        "name": "owen jones",
        "dob": "blk",
        "age": "23",
        "place_of_birth": "aberaeron",
        "home_address": "blk",
        "f": "blk",
        "name_of_ship": "blk",
        "ship_port": "blk",
        "date_leaving": "blk",
        "joined_ship_date": "1867-06-12",
        "joined_at_port": "new york",
        "capacity": "seaman",
        "date_left": "1867-12-12",
        "left_port": "at sea",
        "cause_of_leaving": "drowned",
        "sign_with_mark": "n",
        "notes": "blk"
    },
    {
        "id": "vtls004663413_1_22",
        "type": "sailor",
        "parent": "vtls004663413",
        "name": "john lloyd",
        "dob": "blk",
        "age": "17",
        "place_of_birth": "aberaeron",
        "home_address": "blk",
        "f": "blk",
        "name_of_ship": "blk",
        "ship_port": "blk",
        "date_leaving": "blk",
        "joined_ship_date": "1867-06-12",
        "joined_at_port": "new york",
        "capacity": "boy",
        "date_left": "1867-12-12",
        "left_port": "at sea",
        "cause_of_leaving": "drowned",
        "sign_with_mark": "n",
        "notes": "blk"
    }
]