[
    {
        "id": "vtls004964540_0_12",
        "type": "sailor",
        "parent": "vtls004964540",
        "name": "joseph coates",
        "dob": "blk",
        "age": "24",
        "place_of_birth": "york",
        "home_address": "blk",
        "f": "blk",
        "name_of_ship": "summer cloud",
        "ship_port": "aberystwyth",
        "date_leaving": "1873",
        "joined_ship_date": "1873-04-05",
        "joined_at_port": "porthcawl",
        "capacity": "boatswain",
        "date_left": "1873-05-28",
        "left_port": "liverpool",
        "cause_of_leaving": "discharged",
        "sign_with_mark": "n",
        "notes": "blk"
    },
    {
        "id": "vtls004964540_0_11",
        "type": "sailor",
        "parent": "vtls004964540",
        "name": "william elliott",
        "dob": "blk",
        "age": "37",
        "place_of_birth": "goole",
        "home_address": "blk",
        "f": "blk",
        "name_of_ship": "summer cloud",
        "ship_port": "aberystwyth",
        "date_leaving": "continues",
        "joined_ship_date": "blk",
        "joined_at_port": "blk",
        "capacity": "master",
        "date_left": "remains",
        "left_port": "blk",
        "cause_of_leaving": "remains on board",
        "sign_with_mark": "n",
        "notes": "blk"
    },
    {
        "id": "vtls004964540_0_14",
        "type": "sailor",
        "parent": "vtls004964540",
        "name": "isaac postlethwaite",
        "dob": "blk",
        "age": "30",
        "place_of_birth": "barrow",
        "home_address": "blk",
        "f": "blk",
        "name_of_ship": "summer cloud",
        "ship_port": "aberystwyth",
        "date_leaving": "1873",
        "joined_ship_date": "1873-04-05",
        "joined_at_port": "porthcawl",
        "capacity": "able seaman",
        "date_left": "1873-05-28",
        "left_port": "liverpool",
        "cause_of_leaving": "discharged",
        "sign_with_mark": "n",
        "notes": "blk"
    },
    {
        "id": "vtls004964540_1_14",
        "type": "sailor",
        "parent": "vtls004964540",
        "name": "enoch morgans",
        "dob": "blk",
        "age": "21",
        "place_of_birth": "aberystwyth",
        "home_address": "blk",
        "f": "blk",
        "name_of_ship": "[j. w. greaves]",
        "ship_port": "caernarfon",
        "date_leaving": "1873",
        "joined_ship_date": "1873-07-03",
        "joined_at_port": "liverpool",
        "capacity": "able seaman",
        "date_left": "1873-10-03",
        "left_port": "goole",
        "cause_of_leaving": "discharged",
        "sign_with_mark": "n",
        "notes": "blk"
    },
    {
        "id": "vtls004964540_1_13",
        "type": "sailor",
        "parent": "vtls004964540",
        "name": "edward boatwright",
        "dob": "blk",
        "age": "27",
        "place_of_birth": "great yarmouth",
        "home_address": "blk",
        "f": "blk",
        "name_of_ship": "leander",
        "ship_port": "padstow",
        "date_leaving": "1873",
        "joined_ship_date": "1873-07-03",
        "joined_at_port": "liverpool",
        "capacity": "able seaman",
        "date_left": "1873-10-03",
        "left_port": "goole",
        "cause_of_leaving": "discharged",
        "sign_with_mark": "n",
        "notes": "blk"
    },
    {
        "id": "vtls004964540_2_11",
        "type": "sailor",
        "parent": "vtls004964540",
        "name": "thomas lewis",
        "dob": "blk",
        "age": "37",
        "place_of_birth": "aberystwyth",
        "home_address": "blk",
        "f": "blk",
        "name_of_ship": "summer cloud",
        "ship_port": "aberystwyth",
        "date_leaving": "continues",
        "joined_ship_date": "continues",
        "joined_at_port": "blk",
        "capacity": "master",
        "date_left": "1873-12-31",
        "left_port": "runcorn",
        "cause_of_leaving": "remains on board",
        "sign_with_mark": "n",
        "notes": "blk"
    },
    {
        "id": "vtls004964540_0_15",
        "type": "sailor",
        "parent": "vtls004964540",
        "name": "john arkwright",
        "dob": "blk",
        "age": "17",
        "place_of_birth": "garstang",
        "home_address": "blk",
        "f": "blk",
        "name_of_ship": "summer cloud",
        "ship_port": "aberystwyth",
        "date_leaving": "1873",
        "joined_ship_date": "1873-04-05",
        "joined_at_port": "porthcawl",
        "capacity": "boy",
        "date_left": "1873-05-28",
        "left_port": "liverpool",
        "cause_of_leaving": "discharged",
        "sign_with_mark": "n",
        "notes": "blk"
    },
    {
        "id": "vtls004964540_2_12",
        "type": "sailor",
        "parent": "vtls004964540",
        "name": "thomas rees",
        "dob": "blk",
        "age": "46",
        "place_of_birth": "aberystwyth",
        "home_address": "blk",
        "f": "blk",
        "name_of_ship": "summer cloud",
        "ship_port": "aberystwyth",
        "date_leaving": "continues",
        "joined_ship_date": "continues",
        "joined_at_port": "blk",
        "capacity": "mate",
        "date_left": "1873-12-31",
        "left_port": "runcorn",
        "cause_of_leaving": "remains on board",
        "sign_with_mark": "n",
        "notes": "blk"
    },
    {
        "id": "vtls004964540_1_15",
        "type": "sailor",
        "parent": "vtls004964540",
        "name": "andrew rees",
        "dob": "blk",
        "age": "15",
        "place_of_birth": "aberystwyth",
        "home_address": "blk",
        "f": "blk",
        "name_of_ship": "alice",
        "ship_port": "aberystwyth",
        "date_leaving": "1873",
        "joined_ship_date": "1873-07-03",
        "joined_at_port": "liverpool",
        "capacity": "cook & steward",
        "date_left": "1873-10-03",
        "left_port": "goole",
        "cause_of_leaving": "discharged",
        "sign_with_mark": "n",
        "notes": "blk"
    },
    {
        "id": "vtls004964540_0_13",
        "type": "sailor",
        "parent": "vtls004964540",
        "name": "david berriman",
        "dob": "blk",
        "age": "42",
        "place_of_birth": "neath",
        "home_address": "blk",
        "f": "blk",
        "name_of_ship": "h. h.",
        "ship_port": "swansea",
        "date_leaving": "1873",
        "joined_ship_date": "1873-04-07",
        "joined_at_port": "porthcawl",
        "capacity": "able seaman",
        "date_left": "1873-05-28",
        "left_port": "liverpool",
        "cause_of_leaving": "discharged",
        "sign_with_mark": "n",
        "notes": "blk"
    },
    {
        "id": "vtls004964540_1_12",
        "type": "sailor",
        "parent": "vtls004964540",
        "name": "thomas lewis",
        "dob": "blk",
        "age": "36",
        "place_of_birth": "aberystwyth",
        "home_address": "blk",
        "f": "blk",
        "name_of_ship": "glynaeron",
        "ship_port": "aberystwyth",
        "date_leaving": "1873",
        "joined_ship_date": "1873-07-03",
        "joined_at_port": "liverpool",
        "capacity": "bosun",
        "date_left": "1873-10-03",
        "left_port": "goole",
        "cause_of_leaving": "discharged",
        "sign_with_mark": "n",
        "notes": "blk"
    },
    {
        "id": "vtls004964540_1_11",
        "type": "sailor",
        "parent": "vtls004964540",
        "name": "thomas rees",
        "dob": "blk",
        "age": "46",
        "place_of_birth": "aberystwyth",
        "home_address": "blk",
        "f": "blk",
        "name_of_ship": "alice",
        "ship_port": "aberystwyth",
        "date_leaving": "1873",
        "joined_ship_date": "[1873-07-01]",
        "joined_at_port": "liverpool",
        "capacity": "master",
        "date_left": "remains",
        "left_port": "blk",
        "cause_of_leaving": "remains on board",
        "sign_with_mark": "n",
        "notes": "blk"
    },
    {
        "id": "vtls004964550_0_14",
        "type": "sailor",
        "parent": "vtls004964550",
        "name": "andrew rees",
        "dob": "blk",
        "age": "blk",
        "place_of_birth": "aberystwyth",
        "home_address": "blk",
        "f": "blk",
        "name_of_ship": "summer cloud",
        "ship_port": "aberystwyth",
        "date_leaving": "continues",
        "joined_ship_date": "blk",
        "joined_at_port": "blk",
        "capacity": "ordinary seaman",
        "date_left": "1874-06-20",
        "left_port": "runcorn",
        "cause_of_leaving": "remains on board",
        "sign_with_mark": "n",
        "notes": "blk"
    },
    {
        "id": "vtls004964550_0_13",
        "type": "sailor",
        "parent": "vtls004964550",
        "name": "thomas e lewis",
        "dob": "blk",
        "age": "blk",
        "place_of_birth": "aberystwyth",
        "home_address": "blk",
        "f": "blk",
        "name_of_ship": "alice",
        "ship_port": "aberystwyth",
        "date_leaving": "1873-09-20",
        "joined_ship_date": "1874-02-10",
        "joined_at_port": "runcorn",
        "capacity": "able seaman",
        "date_left": "1874-06-20",
        "left_port": "runcorn",
        "cause_of_leaving": "discharged",
        "sign_with_mark": "n",
        "notes": "blk"
    },
    {
        "id": "vtls004964540_2_13",
        "type": "sailor",
        "parent": "vtls004964540",
        "name": "enock morgans",
        "dob": "blk",
        "age": "21",
        "place_of_birth": "aberystwyth",
        "home_address": "blk",
        "f": "blk",
        "name_of_ship": "summer cloud",
        "ship_port": "aberystwyth",
        "date_leaving": "continues",
        "joined_ship_date": "continues",
        "joined_at_port": "blk",
        "capacity": "able seaman",
        "date_left": "1873-12-27",
        "left_port": "runcorn",
        "cause_of_leaving": "paid off",
        "sign_with_mark": "n",
        "notes": "blk"
    },
    {
        "id": "vtls004964540_2_15",
        "type": "sailor",
        "parent": "vtls004964540",
        "name": "andrew rees",
        "dob": "blk",
        "age": "15",
        "place_of_birth": "aberystwyth",
        "home_address": "blk",
        "f": "blk",
        "name_of_ship": "summer cloud",
        "ship_port": "aberystwyth",
        "date_leaving": "continues",
        "joined_ship_date": "continues",
        "joined_at_port": "blk",
        "capacity": "boy",
        "date_left": "1873-12-31",
        "left_port": "runcorn",
        "cause_of_leaving": "remains on board",
        "sign_with_mark": "n",
        "notes": "blk"
    },
    {
        "id": "vtls004964540_2_14",
        "type": "sailor",
        "parent": "vtls004964540",
        "name": "james padgham",
        "dob": "blk",
        "age": "19",
        "place_of_birth": "hastings",
        "home_address": "blk",
        "f": "blk",
        "name_of_ship": "op2",
        "ship_port": "dover",
        "date_leaving": "1873-10-25",
        "joined_ship_date": "1873-10-25",
        "joined_at_port": "dover",
        "capacity": "ordinary seaman",
        "date_left": "1873-12-27",
        "left_port": "runcorn",
        "cause_of_leaving": "paid off",
        "sign_with_mark": "n",
        "notes": "blk"
    },
    {
        "id": "vtls004964550_0_11",
        "type": "sailor",
        "parent": "vtls004964550",
        "name": "thomas lewis",
        "dob": "blk",
        "age": "blk",
        "place_of_birth": "aberystwyth",
        "home_address": "blk",
        "f": "blk",
        "name_of_ship": "summer cloud",
        "ship_port": "aberystwyth",
        "date_leaving": "continues",
        "joined_ship_date": "blk",
        "joined_at_port": "blk",
        "capacity": "master",
        "date_left": "blk",
        "left_port": "blk",
        "cause_of_leaving": "remains on board",
        "sign_with_mark": "n",
        "notes": "blk"
    },
    {
        "id": "vtls004964550_0_12",
        "type": "sailor",
        "parent": "vtls004964550",
        "name": "thomas rees",
        "dob": "blk",
        "age": "blk",
        "place_of_birth": "aberystwyth",
        "home_address": "blk",
        "f": "blk",
        "name_of_ship": "summer cloud",
        "ship_port": "aberystwyth",
        "date_leaving": "continues",
        "joined_ship_date": "blk",
        "joined_at_port": "blk",
        "capacity": "mate",
        "date_left": "blk",
        "left_port": "blk",
        "cause_of_leaving": "remains on board",
        "sign_with_mark": "n",
        "notes": "blk"
    },
    {
        "id": "vtls004964550_1_15",
        "type": "sailor",
        "parent": "vtls004964550",
        "name": "thomas edwards",
        "dob": "blk",
        "age": "blk",
        "place_of_birth": "holyhead",
        "home_address": "blk",
        "f": "blk",
        "name_of_ship": "summer cloud",
        "ship_port": "aberystwyth",
        "date_leaving": "continues",
        "joined_ship_date": "blk",
        "joined_at_port": "blk",
        "capacity": "ordinary seaman",
        "date_left": "1874-10-17",
        "left_port": "porthmadog",
        "cause_of_leaving": "discharged",
        "sign_with_mark": "n",
        "notes": "blk"
    },
    {
        "id": "vtls004964550_1_16",
        "type": "sailor",
        "parent": "vtls004964550",
        "name": "david jones",
        "dob": "blk",
        "age": "39",
        "place_of_birth": "aberystwyth",
        "home_address": "blk",
        "f": "blk",
        "name_of_ship": "rheidol vale",
        "ship_port": "aberystwyth",
        "date_leaving": "1874-09-05",
        "joined_ship_date": "1874-09-08",
        "joined_at_port": "runcorn",
        "capacity": "mate",
        "date_left": "1874-10-17",
        "left_port": "porthmadog",
        "cause_of_leaving": "discharged",
        "sign_with_mark": "n",
        "notes": "blk"
    },
    {
        "id": "vtls004964550_0_15",
        "type": "sailor",
        "parent": "vtls004964550",
        "name": "alfred werher",
        "dob": "blk",
        "age": "blk",
        "place_of_birth": "lilne",
        "home_address": "blk",
        "f": "blk",
        "name_of_ship": "alice",
        "ship_port": "aberystwyth",
        "date_leaving": "1874-06-22",
        "joined_ship_date": "1874-06-23",
        "joined_at_port": "runcorn",
        "capacity": "able seaman",
        "date_left": "1874-06-23",
        "left_port": "runcorn",
        "cause_of_leaving": "remains on board",
        "sign_with_mark": "n",
        "notes": "blk"
    },
    {
        "id": "vtls004964550_1_14",
        "type": "sailor",
        "parent": "vtls004964550",
        "name": "andrew rees",
        "dob": "blk",
        "age": "16",
        "place_of_birth": "aberystwyth",
        "home_address": "blk",
        "f": "blk",
        "name_of_ship": "summer cloud",
        "ship_port": "aberystwyth",
        "date_leaving": "continues",
        "joined_ship_date": "blk",
        "joined_at_port": "blk",
        "capacity": "ordinary seaman",
        "date_left": "1874-09-08",
        "left_port": "runcorn",
        "cause_of_leaving": "discharged",
        "sign_with_mark": "n",
        "notes": "blk"
    },
    {
        "id": "vtls004964550_1_17",
        "type": "sailor",
        "parent": "vtls004964550",
        "name": "george fryer",
        "dob": "blk",
        "age": "20",
        "place_of_birth": "runcorn",
        "home_address": "blk",
        "f": "blk",
        "name_of_ship": "maggie",
        "ship_port": "runcorn",
        "date_leaving": "1874-09-05",
        "joined_ship_date": "1874-09-24",
        "joined_at_port": "runcorn",
        "capacity": "able seaman",
        "date_left": "1874-10-17",
        "left_port": "porthmadog",
        "cause_of_leaving": "discharged",
        "sign_with_mark": "n",
        "notes": "blk"
    },
    {
        "id": "vtls004964550_1_18",
        "type": "sailor",
        "parent": "vtls004964550",
        "name": "edward meddin",
        "dob": "blk",
        "age": "14",
        "place_of_birth": "borth",
        "home_address": "blk",
        "f": "blk",
        "name_of_ship": "maid of meirion",
        "ship_port": "aberystwyth",
        "date_leaving": "1874-09-11",
        "joined_ship_date": "1874-09-12",
        "joined_at_port": "runcorn",
        "capacity": "boy",
        "date_left": "blk",
        "left_port": "blk",
        "cause_of_leaving": "remains on board",
        "sign_with_mark": "n",
        "notes": "blk"
    },
    {
        "id": "vtls004964550_1_13",
        "type": "sailor",
        "parent": "vtls004964550",
        "name": "alfred werher",
        "dob": "blk",
        "age": "25",
        "place_of_birth": "lilne",
        "home_address": "blk",
        "f": "blk",
        "name_of_ship": "summer cloud",
        "ship_port": "aberystwyth",
        "date_leaving": "continues",
        "joined_ship_date": "blk",
        "joined_at_port": "blk",
        "capacity": "able seaman",
        "date_left": "1874-09-08",
        "left_port": "runcorn",
        "cause_of_leaving": "discharged",
        "sign_with_mark": "n",
        "notes": "blk"
    },
    {
        "id": "vtls004964550_1_12",
        "type": "sailor",
        "parent": "vtls004964550",
        "name": "thomas rees",
        "dob": "blk",
        "age": "47",
        "place_of_birth": "aberystwyth",
        "home_address": "blk",
        "f": "blk",
        "name_of_ship": "summer cloud",
        "ship_port": "aberystwyth",
        "date_leaving": "continues",
        "joined_ship_date": "blk",
        "joined_at_port": "blk",
        "capacity": "mate",
        "date_left": "1874-09-08",
        "left_port": "runcorn",
        "cause_of_leaving": "discharged",
        "sign_with_mark": "n",
        "notes": "blk"
    },
    {
        "id": "vtls004964550_0_16",
        "type": "sailor",
        "parent": "vtls004964550",
        "name": "thomas edwards",
        "dob": "blk",
        "age": "blk",
        "place_of_birth": "holyhead",
        "home_address": "blk",
        "f": "blk",
        "name_of_ship": "a jones",
        "ship_port": "chester",
        "date_leaving": "1874-06-05",
        "joined_ship_date": "1874-06-30",
        "joined_at_port": "runcorn",
        "capacity": "blk",
        "date_left": "blk",
        "left_port": "blk",
        "cause_of_leaving": "remains on board",
        "sign_with_mark": "n",
        "notes": "blk"
    },
    {
        "id": "vtls004964550_1_11",
        "type": "sailor",
        "parent": "vtls004964550",
        "name": "thomas lewis",
        "dob": "blk",
        "age": "38",
        "place_of_birth": "aberystwyth",
        "home_address": "blk",
        "f": "blk",
        "name_of_ship": "summer cloud",
        "ship_port": "aberystwyth",
        "date_leaving": "continues",
        "joined_ship_date": "blk",
        "joined_at_port": "blk",
        "capacity": "master",
        "date_left": "blk",
        "left_port": "blk",
        "cause_of_leaving": "remains on board",
        "sign_with_mark": "n",
        "notes": "blk"
    },
    {
        "id": "vtls004964559_0_12",
        "type": "sailor",
        "parent": "vtls004964559",
        "name": "thomas edwards",
        "dob": "blk",
        "age": "26",
        "place_of_birth": "llandeilo",
        "home_address": "blk",
        "f": "blk",
        "name_of_ship": "summer cloud",
        "ship_port": "aberystwyth",
        "date_leaving": "1876",
        "joined_ship_date": "1877-01-01",
        "joined_at_port": "workington",
        "capacity": "able seaman",
        "date_left": "1877-02-05",
        "left_port": "swansea",
        "cause_of_leaving": "paid off",
        "sign_with_mark": "n",
        "notes": "blk"
    },
    {
        "id": "vtls004964559_0_13",
        "type": "sailor",
        "parent": "vtls004964559",
        "name": "andrew rees",
        "dob": "blk",
        "age": "17",
        "place_of_birth": "aberystwyth",
        "home_address": "blk",
        "f": "blk",
        "name_of_ship": "summer cloud",
        "ship_port": "aberystwyth",
        "date_leaving": "1876",
        "joined_ship_date": "1877-01-01",
        "joined_at_port": "workington",
        "capacity": "able seaman",
        "date_left": "1877-06-20",
        "left_port": "workington",
        "cause_of_leaving": "paid off",
        "sign_with_mark": "n",
        "notes": "blk"
    },
    {
        "id": "vtls004964550_1_22",
        "type": "sailor",
        "parent": "vtls004964550",
        "name": "george garrett",
        "dob": "blk",
        "age": "23",
        "place_of_birth": "tyrone",
        "home_address": "blk",
        "f": "blk",
        "name_of_ship": "$$wa$",
        "ship_port": "shields",
        "date_leaving": "1874-12-17",
        "joined_ship_date": "1874-12-30",
        "joined_at_port": "london",
        "capacity": "able seaman",
        "date_left": "1875-01-15",
        "left_port": "lilloth",
        "cause_of_leaving": "discharged",
        "sign_with_mark": "n",
        "notes": "blk"
    },
    {
        "id": "vtls004964559_0_11",
        "type": "sailor",
        "parent": "vtls004964559",
        "name": "thomas lewis",
        "dob": "blk",
        "age": "39",
        "place_of_birth": "aberystwyth",
        "home_address": "blk",
        "f": "blk",
        "name_of_ship": "summer cloud",
        "ship_port": "aberystwyth",
        "date_leaving": "1876",
        "joined_ship_date": "1877-01-01",
        "joined_at_port": "workington",
        "capacity": "master",
        "date_left": "remains",
        "left_port": "blk",
        "cause_of_leaving": "remains on board",
        "sign_with_mark": "n",
        "notes": "blk"
    },
    {
        "id": "vtls004964550_1_21",
        "type": "sailor",
        "parent": "vtls004964550",
        "name": "david bowen",
        "dob": "blk",
        "age": "23",
        "place_of_birth": "cardigan",
        "home_address": "blk",
        "f": "blk",
        "name_of_ship": "sophia",
        "ship_port": "port madoc",
        "date_leaving": "1874-10-23",
        "joined_ship_date": "1874-10-31",
        "joined_at_port": "portmadoc",
        "capacity": "able seaman",
        "date_left": "1874-12-15",
        "left_port": "london",
        "cause_of_leaving": "discharged",
        "sign_with_mark": "n",
        "notes": "blk"
    },
    {
        "id": "vtls004964550_1_20",
        "type": "sailor",
        "parent": "vtls004964550",
        "name": "john doughton",
        "dob": "blk",
        "age": "48",
        "place_of_birth": "aberystwyth",
        "home_address": "blk",
        "f": "blk",
        "name_of_ship": "ann",
        "ship_port": "aberystwyth",
        "date_leaving": "1874-11-29",
        "joined_ship_date": "1874-11-30",
        "joined_at_port": "aberystwyth",
        "capacity": "able seaman",
        "date_left": "blk",
        "left_port": "blk",
        "cause_of_leaving": "remains on board",
        "sign_with_mark": "n",
        "notes": "blk"
    },
    {
        "id": "vtls004964550_1_19",
        "type": "sailor",
        "parent": "vtls004964550",
        "name": "evan davies",
        "dob": "blk",
        "age": "42",
        "place_of_birth": "cardigan",
        "home_address": "blk",
        "f": "blk",
        "name_of_ship": "ar$$ur$$",
        "ship_port": "port madoc",
        "date_leaving": "1874-11-20",
        "joined_ship_date": "1874-11-26",
        "joined_at_port": "portmadoc",
        "capacity": "mate",
        "date_left": "blk",
        "left_port": "blk",
        "cause_of_leaving": "remains on board",
        "sign_with_mark": "n",
        "notes": "blk"
    },
    {
        "id": "vtls004964559_1_14",
        "type": "sailor",
        "parent": "vtls004964559",
        "name": "thomas mcoldins",
        "dob": "blk",
        "age": "20",
        "place_of_birth": "limerick",
        "home_address": "blk",
        "f": "blk",
        "name_of_ship": "summer cloud",
        "ship_port": "aberystwyth",
        "date_leaving": "1876",
        "joined_ship_date": "1876-07-08",
        "joined_at_port": "workington",
        "capacity": "ordinary seaman",
        "date_left": "1876-11-11",
        "left_port": "bangor",
        "cause_of_leaving": "discharged",
        "sign_with_mark": "n",
        "notes": "blk"
    },
    {
        "id": "vtls004964559_1_13",
        "type": "sailor",
        "parent": "vtls004964559",
        "name": "andrew rees",
        "dob": "blk",
        "age": "24",
        "place_of_birth": "aberystwyth",
        "home_address": "blk",
        "f": "blk",
        "name_of_ship": "summer cloud",
        "ship_port": "aberystwyth",
        "date_leaving": "1876",
        "joined_ship_date": "1876-07-08",
        "joined_at_port": "workington",
        "capacity": "able seaman",
        "date_left": "1876-11-11",
        "left_port": "bangor",
        "cause_of_leaving": "discharged",
        "sign_with_mark": "n",
        "notes": "blk"
    },
    {
        "id": "vtls004964559_1_12",
        "type": "sailor",
        "parent": "vtls004964559",
        "name": "richard rowlands",
        "dob": "blk",
        "age": "41",
        "place_of_birth": "aberystwyth",
        "home_address": "blk",
        "f": "blk",
        "name_of_ship": "summer cloud",
        "ship_port": "aberystwyth",
        "date_leaving": "1876",
        "joined_ship_date": "1876-07-08",
        "joined_at_port": "workington",
        "capacity": "mate",
        "date_left": "blk",
        "left_port": "blk",
        "cause_of_leaving": "remains on board",
        "sign_with_mark": "n",
        "notes": "blk"
    },
    {
        "id": "vtls004964559_1_11",
        "type": "sailor",
        "parent": "vtls004964559",
        "name": "thomas lewis",
        "dob": "blk",
        "age": "39",
        "place_of_birth": "aberystwyth",
        "home_address": "blk",
        "f": "blk",
        "name_of_ship": "summer cloud",
        "ship_port": "aberystwyth",
        "date_leaving": "1876",
        "joined_ship_date": "1876-07-08",
        "joined_at_port": "workington",
        "capacity": "master",
        "date_left": "blk",
        "left_port": "blk",
        "cause_of_leaving": "remains on board",
        "sign_with_mark": "n",
        "notes": "blk"
    },
    {
        "id": "vtls004964559_0_14",
        "type": "sailor",
        "parent": "vtls004964559",
        "name": "thomas nickus",
        "dob": "blk",
        "age": "16",
        "place_of_birth": "kelso",
        "home_address": "blk",
        "f": "blk",
        "name_of_ship": "summer cloud",
        "ship_port": "aberystwyth",
        "date_leaving": "1876",
        "joined_ship_date": "1877-01-01",
        "joined_at_port": "workington",
        "capacity": "boy",
        "date_left": "remains",
        "left_port": "blk",
        "cause_of_leaving": "remains on board",
        "sign_with_mark": "n",
        "notes": "blk"
    },
    {
        "id": "vtls004964559_1_15",
        "type": "sailor",
        "parent": "vtls004964559",
        "name": "john lewis",
        "dob": "blk",
        "age": "13",
        "place_of_birth": "aberystwyth",
        "home_address": "blk",
        "f": "blk",
        "name_of_ship": "summer cloud",
        "ship_port": "aberystwyth",
        "date_leaving": "1876",
        "joined_ship_date": "1876-07-08",
        "joined_at_port": "workington",
        "capacity": "boy",
        "date_left": "1876-11-11",
        "left_port": "bangor",
        "cause_of_leaving": "discharged",
        "sign_with_mark": "n",
        "notes": "blk"
    },
    {
        "id": "vtls004964559_0_16",
        "type": "sailor",
        "parent": "vtls004964559",
        "name": "john humphreys lewis",
        "dob": "blk",
        "age": "13",
        "place_of_birth": "aberystwyth",
        "home_address": "blk",
        "f": "blk",
        "name_of_ship": "first ship",
        "ship_port": "blk",
        "date_leaving": "blk",
        "joined_ship_date": "1877-04-04",
        "joined_at_port": "runcorn",
        "capacity": "boy",
        "date_left": "remains",
        "left_port": "blk",
        "cause_of_leaving": "remains on board",
        "sign_with_mark": "y",
        "notes": "blk"
    },
    {
        "id": "vtls004964564_0_11",
        "type": "sailor",
        "parent": "vtls004964564",
        "name": "thomas lewis",
        "dob": "blk",
        "age": "39",
        "place_of_birth": "arbroath",
        "home_address": "blk",
        "f": "blk",
        "name_of_ship": "summer cloud",
        "ship_port": "aberystwyth",
        "date_leaving": "1876",
        "joined_ship_date": "1877-01-11",
        "joined_at_port": "bangor",
        "capacity": "master",
        "date_left": "blk",
        "left_port": "blk",
        "cause_of_leaving": "remains on board",
        "sign_with_mark": "n",
        "notes": "blk"
    },
    {
        "id": "vtls004964559_0_15",
        "type": "sailor",
        "parent": "vtls004964559",
        "name": "richard rowlands",
        "dob": "blk",
        "age": "40",
        "place_of_birth": "aberystwyth",
        "home_address": "blk",
        "f": "blk",
        "name_of_ship": "mary jones",
        "ship_port": "blk",
        "date_leaving": "1875",
        "joined_ship_date": "1877-02-07",
        "joined_at_port": "swansea",
        "capacity": "mate",
        "date_left": "remains",
        "left_port": "blk",
        "cause_of_leaving": "remains on board",
        "sign_with_mark": "n",
        "notes": "blk"
    },
    {
        "id": "vtls004964564_0_13",
        "type": "sailor",
        "parent": "vtls004964564",
        "name": "william rees",
        "dob": "blk",
        "age": "28",
        "place_of_birth": "newport pemb.",
        "home_address": "blk",
        "f": "blk",
        "name_of_ship": "summer cloud",
        "ship_port": "aberystwyth",
        "date_leaving": "1876",
        "joined_ship_date": "1877-01-11",
        "joined_at_port": "bangor",
        "capacity": "able seaman",
        "date_left": "blk",
        "left_port": "blk",
        "cause_of_leaving": "remains on board",
        "sign_with_mark": "n",
        "notes": "blk"
    },
    {
        "id": "vtls004964564_1_12",
        "type": "sailor",
        "parent": "vtls004964564",
        "name": "richard rowlands",
        "dob": "blk",
        "age": "43",
        "place_of_birth": "aberystwyth",
        "home_address": "blk",
        "f": "blk",
        "name_of_ship": "summer cloud",
        "ship_port": "aberystwyth",
        "date_leaving": "1877",
        "joined_ship_date": "1877-07-10",
        "joined_at_port": "runcorn",
        "capacity": "mate",
        "date_left": "1877-10-17",
        "left_port": "swansea",
        "cause_of_leaving": "discharged",
        "sign_with_mark": "n",
        "notes": "blk"
    },
    {
        "id": "vtls004964564_0_12",
        "type": "sailor",
        "parent": "vtls004964564",
        "name": "richard rowlands",
        "dob": "blk",
        "age": "43",
        "place_of_birth": "arbroath",
        "home_address": "blk",
        "f": "blk",
        "name_of_ship": "summer cloud",
        "ship_port": "aberystwyth",
        "date_leaving": "1876",
        "joined_ship_date": "1877-01-11",
        "joined_at_port": "bangor",
        "capacity": "mate",
        "date_left": "blk",
        "left_port": "blk",
        "cause_of_leaving": "remains on board",
        "sign_with_mark": "n",
        "notes": "blk"
    },
    {
        "id": "vtls004964564_1_11",
        "type": "sailor",
        "parent": "vtls004964564",
        "name": "thomas lewis",
        "dob": "blk",
        "age": "40",
        "place_of_birth": "aberystwyth",
        "home_address": "blk",
        "f": "blk",
        "name_of_ship": "summer cloud",
        "ship_port": "aberystwyth",
        "date_leaving": "1877",
        "joined_ship_date": "1877-07-10",
        "joined_at_port": "runcorn",
        "capacity": "master",
        "date_left": "blk",
        "left_port": "blk",
        "cause_of_leaving": "remains on board",
        "sign_with_mark": "n",
        "notes": "blk"
    },
    {
        "id": "vtls004964564_0_14",
        "type": "sailor",
        "parent": "vtls004964564",
        "name": "charles thomas",
        "dob": "blk",
        "age": "22",
        "place_of_birth": "aberystwyth",
        "home_address": "blk",
        "f": "blk",
        "name_of_ship": "[nelly]",
        "ship_port": "swansea",
        "date_leaving": "1876",
        "joined_ship_date": "1877-01-11",
        "joined_at_port": "bangor",
        "capacity": "able seaman",
        "date_left": "1877-04-14",
        "left_port": "bangor",
        "cause_of_leaving": "paid off",
        "sign_with_mark": "n",
        "notes": "blk"
    },
    {
        "id": "vtls004964564_0_15",
        "type": "sailor",
        "parent": "vtls004964564",
        "name": "john h lewis",
        "dob": "blk",
        "age": "14",
        "place_of_birth": "aberystwyth",
        "home_address": "blk",
        "f": "blk",
        "name_of_ship": "summer cloud",
        "ship_port": "aberystwyth",
        "date_leaving": "1876",
        "joined_ship_date": "1877-01-11",
        "joined_at_port": "bangor",
        "capacity": "cook",
        "date_left": "1877-04-04",
        "left_port": "bangor",
        "cause_of_leaving": "paid off",
        "sign_with_mark": "n",
        "notes": "blk"
    },
    {
        "id": "vtls004964564_0_16",
        "type": "sailor",
        "parent": "vtls004964564",
        "name": "john roberts",
        "dob": "blk",
        "age": "23",
        "place_of_birth": "anglesey",
        "home_address": "blk",
        "f": "blk",
        "name_of_ship": "venerable",
        "ship_port": "blk",
        "date_leaving": "1877",
        "joined_ship_date": "1877-05-02",
        "joined_at_port": "bangor",
        "capacity": "able seaman",
        "date_left": "1877-06-24",
        "left_port": "runcorn",
        "cause_of_leaving": "paid off",
        "sign_with_mark": "n",
        "notes": "blk"
    },
    {
        "id": "vtls004964564_0_17",
        "type": "sailor",
        "parent": "vtls004964564",
        "name": "william sims",
        "dob": "blk",
        "age": "14",
        "place_of_birth": "aberystwyth",
        "home_address": "blk",
        "f": "blk",
        "name_of_ship": "venerable",
        "ship_port": "blk",
        "date_leaving": "1877",
        "joined_ship_date": "1877-4-04",
        "joined_at_port": "bangor",
        "capacity": "boy",
        "date_left": "blk",
        "left_port": "blk",
        "cause_of_leaving": "remains on board",
        "sign_with_mark": "n",
        "notes": "blk"
    },
    {
        "id": "vtls004964564_1_13",
        "type": "sailor",
        "parent": "vtls004964564",
        "name": "william rees",
        "dob": "blk",
        "age": "28",
        "place_of_birth": "cardigan",
        "home_address": "blk",
        "f": "blk",
        "name_of_ship": "summer cloud",
        "ship_port": "aberystwyth",
        "date_leaving": "1877",
        "joined_ship_date": "1877-07-10",
        "joined_at_port": "runcorn",
        "capacity": "able seaman",
        "date_left": "1877-09-01",
        "left_port": "swansea",
        "cause_of_leaving": "discharged",
        "sign_with_mark": "n",
        "notes": "blk"
    },
    {
        "id": "vtls004964564_1_14",
        "type": "sailor",
        "parent": "vtls004964564",
        "name": "john avery",
        "dob": "blk",
        "age": "39",
        "place_of_birth": "liverpool",
        "home_address": "blk",
        "f": "blk",
        "name_of_ship": "[ave] maria",
        "ship_port": "blk",
        "date_leaving": "1875",
        "joined_ship_date": "1877-07-15",
        "joined_at_port": "liverpool",
        "capacity": "ordinary seaman",
        "date_left": "1877-08-01",
        "left_port": "fraserburgh",
        "cause_of_leaving": "discharged",
        "sign_with_mark": "n",
        "notes": "blk"
    },
    {
        "id": "vtls004964564_1_19",
        "type": "sailor",
        "parent": "vtls004964564",
        "name": "henry rowlands",
        "dob": "blk",
        "age": "41",
        "place_of_birth": "aberystwyth",
        "home_address": "blk",
        "f": "blk",
        "name_of_ship": "summer cloud",
        "ship_port": "aberystwyth",
        "date_leaving": "1877",
        "joined_ship_date": "1877-10-19",
        "joined_at_port": "swansea",
        "capacity": "mate",
        "date_left": "1877-12-31",
        "left_port": "belfast",
        "cause_of_leaving": "discharged",
        "sign_with_mark": "y",
        "notes": "blk"
    },
    {
        "id": "vtls004964564_1_15",
        "type": "sailor",
        "parent": "vtls004964564",
        "name": "william sims",
        "dob": "blk",
        "age": "14",
        "place_of_birth": "aberystwyth",
        "home_address": "blk",
        "f": "blk",
        "name_of_ship": "summer cloud",
        "ship_port": "aberystwyth",
        "date_leaving": "1877",
        "joined_ship_date": "1877-07-15",
        "joined_at_port": "liverpool",
        "capacity": "boy",
        "date_left": "1877-09-01",
        "left_port": "swansea",
        "cause_of_leaving": "discharged",
        "sign_with_mark": "n",
        "notes": "blk"
    },
    {
        "id": "vtls004964564_1_18",
        "type": "sailor",
        "parent": "vtls004964564",
        "name": "john h lewis",
        "dob": "blk",
        "age": "14",
        "place_of_birth": "aberystwyth",
        "home_address": "blk",
        "f": "blk",
        "name_of_ship": "summer cloud",
        "ship_port": "aberystwyth",
        "date_leaving": "1877",
        "joined_ship_date": "1877-09-05",
        "joined_at_port": "swansea",
        "capacity": "boy",
        "date_left": "1877-12-31",
        "left_port": "belfast",
        "cause_of_leaving": "discharged",
        "sign_with_mark": "n",
        "notes": "blk"
    },
    {
        "id": "vtls004964564_1_16",
        "type": "sailor",
        "parent": "vtls004964564",
        "name": "henry rowlands",
        "dob": "blk",
        "age": "40",
        "place_of_birth": "aberystwyth",
        "home_address": "blk",
        "f": "blk",
        "name_of_ship": "gertrude",
        "ship_port": "blk",
        "date_leaving": "1877",
        "joined_ship_date": "1877-08-21",
        "joined_at_port": "swansea",
        "capacity": "able seaman",
        "date_left": "1877-10-18",
        "left_port": "swansea",
        "cause_of_leaving": "discharged",
        "sign_with_mark": "y",
        "notes": "blk"
    },
    {
        "id": "vtls004964564_1_20",
        "type": "sailor",
        "parent": "vtls004964564",
        "name": "thomas evans",
        "dob": "blk",
        "age": "27",
        "place_of_birth": "llanon",
        "home_address": "blk",
        "f": "blk",
        "name_of_ship": "diana",
        "ship_port": "aberystwyth",
        "date_leaving": "1877",
        "joined_ship_date": "1877-10-19",
        "joined_at_port": "swansea",
        "capacity": "able seaman",
        "date_left": "1877-12-31",
        "left_port": "belfast",
        "cause_of_leaving": "discharged",
        "sign_with_mark": "n",
        "notes": "blk"
    },
    {
        "id": "vtls004964569_0_11",
        "type": "sailor",
        "parent": "vtls004964569",
        "name": "thomas lewis",
        "dob": "blk",
        "age": "41",
        "place_of_birth": "aberystwyth",
        "home_address": "blk",
        "f": "blk",
        "name_of_ship": "summer cloud",
        "ship_port": "aberystwyth",
        "date_leaving": "1878",
        "joined_ship_date": "1878-04-08",
        "joined_at_port": "bangor",
        "capacity": "master",
        "date_left": "blk",
        "left_port": "blk",
        "cause_of_leaving": "remains on board",
        "sign_with_mark": "n",
        "notes": "blk"
    },
    {
        "id": "vtls004964564_1_17",
        "type": "sailor",
        "parent": "vtls004964564",
        "name": "john jones",
        "dob": "blk",
        "age": "23",
        "place_of_birth": "llanon",
        "home_address": "blk",
        "f": "blk",
        "name_of_ship": "john stonard",
        "ship_port": "blk",
        "date_leaving": "1877",
        "joined_ship_date": "1877-09-05",
        "joined_at_port": "swansea",
        "capacity": "able seaman",
        "date_left": "1877-12-31",
        "left_port": "belfast",
        "cause_of_leaving": "discharged",
        "sign_with_mark": "n",
        "notes": "blk"
    },
    {
        "id": "vtls004964569_1_12",
        "type": "sailor",
        "parent": "vtls004964569",
        "name": "william parry",
        "dob": "blk",
        "age": "29",
        "place_of_birth": "anglesey",
        "home_address": "blk",
        "f": "blk",
        "name_of_ship": "summer cloud",
        "ship_port": "aberystwyth",
        "date_leaving": "1878",
        "joined_ship_date": "1878-07-12",
        "joined_at_port": "charleston",
        "capacity": "able seaman",
        "date_left": "1878-08-12",
        "left_port": "runcorn",
        "cause_of_leaving": "discharged",
        "sign_with_mark": "n",
        "notes": "blk"
    },
    {
        "id": "vtls004964569_0_15",
        "type": "sailor",
        "parent": "vtls004964569",
        "name": "john humphries lewis",
        "dob": "blk",
        "age": "14",
        "place_of_birth": "aberystwyth",
        "home_address": "blk",
        "f": "blk",
        "name_of_ship": "summer cloud",
        "ship_port": "aberystwyth",
        "date_leaving": "1878",
        "joined_ship_date": "1878-04-08",
        "joined_at_port": "bangor",
        "capacity": "boy",
        "date_left": "blk",
        "left_port": "blk",
        "cause_of_leaving": "remains on board",
        "sign_with_mark": "n",
        "notes": "blk"
    },
    {
        "id": "vtls004964569_1_11",
        "type": "sailor",
        "parent": "vtls004964569",
        "name": "thomas lewis",
        "dob": "blk",
        "age": "41",
        "place_of_birth": "aberystwyth",
        "home_address": "blk",
        "f": "blk",
        "name_of_ship": "summer cloud",
        "ship_port": "aberystwyth",
        "date_leaving": "1878",
        "joined_ship_date": "1878-07-12",
        "joined_at_port": "charleston",
        "capacity": "master",
        "date_left": "blk",
        "left_port": "blk",
        "cause_of_leaving": "remains on board",
        "sign_with_mark": "n",
        "notes": "blk"
    },
    {
        "id": "vtls004964569_0_14",
        "type": "sailor",
        "parent": "vtls004964569",
        "name": "jabes williams",
        "dob": "blk",
        "age": "25",
        "place_of_birth": "anglesey",
        "home_address": "blk",
        "f": "blk",
        "name_of_ship": "lake field",
        "ship_port": "blk",
        "date_leaving": "1878",
        "joined_ship_date": "1878-04-08",
        "joined_at_port": "bangor",
        "capacity": "able seaman",
        "date_left": "1878-05-29",
        "left_port": "pembrey",
        "cause_of_leaving": "discharged",
        "sign_with_mark": "y",
        "notes": "blk"
    },
    {
        "id": "vtls004964569_0_13",
        "type": "sailor",
        "parent": "vtls004964569",
        "name": "richard williams",
        "dob": "blk",
        "age": "20",
        "place_of_birth": "anglesey",
        "home_address": "blk",
        "f": "blk",
        "name_of_ship": "alice",
        "ship_port": "blk",
        "date_leaving": "1878",
        "joined_ship_date": "1878-04-08",
        "joined_at_port": "bangor",
        "capacity": "able seaman",
        "date_left": "1878-05-29",
        "left_port": "pembrey",
        "cause_of_leaving": "discharged",
        "sign_with_mark": "n",
        "notes": "blk"
    },
    {
        "id": "vtls004964569_0_17",
        "type": "sailor",
        "parent": "vtls004964569",
        "name": "james hoskins",
        "dob": "blk",
        "age": "19",
        "place_of_birth": "pembury",
        "home_address": "blk",
        "f": "blk",
        "name_of_ship": "scotia",
        "ship_port": "blk",
        "date_leaving": "1878",
        "joined_ship_date": "1878-06-05",
        "joined_at_port": "pembrey",
        "capacity": "ordinary seaman",
        "date_left": "blk",
        "left_port": "blk",
        "cause_of_leaving": "remains on board",
        "sign_with_mark": "y",
        "notes": "blk"
    },
    {
        "id": "vtls004964569_0_16",
        "type": "sailor",
        "parent": "vtls004964569",
        "name": "john hoskins",
        "dob": "blk",
        "age": "20",
        "place_of_birth": "pembury",
        "home_address": "blk",
        "f": "blk",
        "name_of_ship": "[elsa]",
        "ship_port": "blk",
        "date_leaving": "1878",
        "joined_ship_date": "1878-05-30",
        "joined_at_port": "pembrey",
        "capacity": "ordinary seaman",
        "date_left": "blk",
        "left_port": "blk",
        "cause_of_leaving": "remains on board",
        "sign_with_mark": "y",
        "notes": "blk"
    },
    {
        "id": "vtls004964569_0_12",
        "type": "sailor",
        "parent": "vtls004964569",
        "name": "william surry",
        "dob": "blk",
        "age": "28",
        "place_of_birth": "beaumaris",
        "home_address": "blk",
        "f": "blk",
        "name_of_ship": "mary orr",
        "ship_port": "blk",
        "date_leaving": "1878",
        "joined_ship_date": "1878-03-29",
        "joined_at_port": "bangor",
        "capacity": "mate",
        "date_left": "blk",
        "left_port": "blk",
        "cause_of_leaving": "remains on board",
        "sign_with_mark": "n",
        "notes": "blk"
    },
    {
        "id": "vtls004964589_0_13",
        "type": "sailor",
        "parent": "vtls004964589",
        "name": "william eggleton",
        "dob": "blk",
        "age": "18",
        "place_of_birth": "chichester",
        "home_address": "blk",
        "f": "blk",
        "name_of_ship": "summer cloud",
        "ship_port": "aberystwyth",
        "date_leaving": "blk",
        "joined_ship_date": "1879-01-01",
        "joined_at_port": "garston",
        "capacity": "ordinary seaman",
        "date_left": "blk",
        "left_port": "blk",
        "cause_of_leaving": "remains on board",
        "sign_with_mark": "n",
        "notes": "blk"
    },
    {
        "id": "vtls004964589_0_12",
        "type": "sailor",
        "parent": "vtls004964589",
        "name": "william jones",
        "dob": "blk",
        "age": "28",
        "place_of_birth": "aberystwyth",
        "home_address": "blk",
        "f": "blk",
        "name_of_ship": "summer cloud",
        "ship_port": "aberystwyth",
        "date_leaving": "blk",
        "joined_ship_date": "1879-01-01",
        "joined_at_port": "garston",
        "capacity": "mate",
        "date_left": "1879-05-30",
        "left_port": "runcorn",
        "cause_of_leaving": "discharged",
        "sign_with_mark": "n",
        "notes": "blk"
    },
    {
        "id": "vtls004964569_1_14",
        "type": "sailor",
        "parent": "vtls004964569",
        "name": "john hoskins",
        "dob": "blk",
        "age": "20",
        "place_of_birth": "pembury",
        "home_address": "blk",
        "f": "blk",
        "name_of_ship": "elisa",
        "ship_port": "blk",
        "date_leaving": "1878",
        "joined_ship_date": "1878-07-12",
        "joined_at_port": "charleston",
        "capacity": "ordinary seaman",
        "date_left": "1878-07-26",
        "left_port": "liverpool",
        "cause_of_leaving": "discharged",
        "sign_with_mark": "y",
        "notes": "blk"
    },
    {
        "id": "vtls004964569_1_18",
        "type": "sailor",
        "parent": "vtls004964569",
        "name": "william eggleton",
        "dob": "blk",
        "age": "18",
        "place_of_birth": "chichester",
        "home_address": "blk",
        "f": "blk",
        "name_of_ship": "ystwyth",
        "ship_port": "blk",
        "date_leaving": "1878",
        "joined_ship_date": "1878-10-17",
        "joined_at_port": "runcorn",
        "capacity": "ordinary seaman",
        "date_left": "blk",
        "left_port": "blk",
        "cause_of_leaving": "remains on board",
        "sign_with_mark": "n",
        "notes": "blk"
    },
    {
        "id": "vtls004964589_0_11",
        "type": "sailor",
        "parent": "vtls004964589",
        "name": "thomas lewis",
        "dob": "blk",
        "age": "41",
        "place_of_birth": "aberystwyth",
        "home_address": "blk",
        "f": "blk",
        "name_of_ship": "summer cloud",
        "ship_port": "aberystwyth",
        "date_leaving": "blk",
        "joined_ship_date": "1879-01-01",
        "joined_at_port": "milford",
        "capacity": "master",
        "date_left": "blk",
        "left_port": "blk",
        "cause_of_leaving": "remains on board",
        "sign_with_mark": "n",
        "notes": "blk"
    },
    {
        "id": "vtls004964569_1_13",
        "type": "sailor",
        "parent": "vtls004964569",
        "name": "james hoskins",
        "dob": "blk",
        "age": "18",
        "place_of_birth": "pembury",
        "home_address": "blk",
        "f": "blk",
        "name_of_ship": "scotia",
        "ship_port": "blk",
        "date_leaving": "1878",
        "joined_ship_date": "1878-07-12",
        "joined_at_port": "charleston",
        "capacity": "able seaman",
        "date_left": "1878-07-26",
        "left_port": "liverpool",
        "cause_of_leaving": "discharged",
        "sign_with_mark": "y",
        "notes": "blk"
    },
    {
        "id": "vtls004964569_1_17",
        "type": "sailor",
        "parent": "vtls004964569",
        "name": "john h lewis",
        "dob": "blk",
        "age": "15",
        "place_of_birth": "aberystwyth",
        "home_address": "blk",
        "f": "blk",
        "name_of_ship": "summer cloud",
        "ship_port": "aberystwyth",
        "date_leaving": "1878",
        "joined_ship_date": "1878-08-12",
        "joined_at_port": "runcorn",
        "capacity": "boy",
        "date_left": "blk",
        "left_port": "blk",
        "cause_of_leaving": "remains on board",
        "sign_with_mark": "n",
        "notes": "blk"
    },
    {
        "id": "vtls004964569_1_15",
        "type": "sailor",
        "parent": "vtls004964569",
        "name": "william jones",
        "dob": "blk",
        "age": "28",
        "place_of_birth": "aberystwyth",
        "home_address": "blk",
        "f": "blk",
        "name_of_ship": "mary & ellen",
        "ship_port": "blk",
        "date_leaving": "1878",
        "joined_ship_date": "1878-08-12",
        "joined_at_port": "runcorn",
        "capacity": "mate",
        "date_left": "blk",
        "left_port": "blk",
        "cause_of_leaving": "remains on board",
        "sign_with_mark": "n",
        "notes": "blk"
    },
    {
        "id": "vtls004964569_1_16",
        "type": "sailor",
        "parent": "vtls004964569",
        "name": "hugh parry",
        "dob": "blk",
        "age": "23",
        "place_of_birth": "amlwch",
        "home_address": "blk",
        "f": "blk",
        "name_of_ship": "$$ches",
        "ship_port": "blk",
        "date_leaving": "1878",
        "joined_ship_date": "1878-08-12",
        "joined_at_port": "runcorn",
        "capacity": "able seaman",
        "date_left": "1878-10-06",
        "left_port": "garston",
        "cause_of_leaving": "discharged",
        "sign_with_mark": "n",
        "notes": "blk"
    },
    {
        "id": "vtls004964589_1_13",
        "type": "sailor",
        "parent": "vtls004964589",
        "name": "william eggleton",
        "dob": "blk",
        "age": "19",
        "place_of_birth": "lymington",
        "home_address": "blk",
        "f": "blk",
        "name_of_ship": "summer cloud",
        "ship_port": "aberystwyth",
        "date_leaving": "1879",
        "joined_ship_date": "1879-07-10",
        "joined_at_port": "newcastle",
        "capacity": "able seaman",
        "date_left": "1879-09-10",
        "left_port": "aberystwyth",
        "cause_of_leaving": "discharged",
        "sign_with_mark": "n",
        "notes": "blk"
    },
    {
        "id": "vtls004964589_1_14",
        "type": "sailor",
        "parent": "vtls004964589",
        "name": "john h lewis",
        "dob": "blk",
        "age": "15",
        "place_of_birth": "aberystwyth",
        "home_address": "blk",
        "f": "blk",
        "name_of_ship": "summer cloud",
        "ship_port": "aberystwyth",
        "date_leaving": "1879",
        "joined_ship_date": "1879-07-10",
        "joined_at_port": "newcastle",
        "capacity": "ordinary seaman",
        "date_left": "blk",
        "left_port": "blk",
        "cause_of_leaving": "remains on board",
        "sign_with_mark": "n",
        "notes": "blk"
    },
    {
        "id": "vtls004964589_1_12",
        "type": "sailor",
        "parent": "vtls004964589",
        "name": "william parry",
        "dob": "blk",
        "age": "28",
        "place_of_birth": "beaumaris",
        "home_address": "blk",
        "f": "blk",
        "name_of_ship": "summer cloud",
        "ship_port": "aberystwyth",
        "date_leaving": "1879",
        "joined_ship_date": "1879-07-10",
        "joined_at_port": "newcastle",
        "capacity": "mate",
        "date_left": "1879-09-10",
        "left_port": "aberystwyth",
        "cause_of_leaving": "discharged",
        "sign_with_mark": "n",
        "notes": "blk"
    },
    {
        "id": "vtls004964589_1_11",
        "type": "sailor",
        "parent": "vtls004964589",
        "name": "thomas lewis",
        "dob": "blk",
        "age": "42",
        "place_of_birth": "aberystwyth",
        "home_address": "blk",
        "f": "blk",
        "name_of_ship": "summer cloud",
        "ship_port": "aberystwyth",
        "date_leaving": "1879",
        "joined_ship_date": "1879-07-10",
        "joined_at_port": "newcastle",
        "capacity": "master",
        "date_left": "blk",
        "left_port": "blk",
        "cause_of_leaving": "remains on board",
        "sign_with_mark": "n",
        "notes": "blk"
    },
    {
        "id": "vtls004964589_0_14",
        "type": "sailor",
        "parent": "vtls004964589",
        "name": "john h lewis",
        "dob": "blk",
        "age": "15",
        "place_of_birth": "aberystwyth",
        "home_address": "blk",
        "f": "blk",
        "name_of_ship": "summer cloud",
        "ship_port": "aberystwyth",
        "date_leaving": "blk",
        "joined_ship_date": "1879-01-01",
        "joined_at_port": "garston",
        "capacity": "boy",
        "date_left": "blk",
        "left_port": "blk",
        "cause_of_leaving": "remains on board",
        "sign_with_mark": "n",
        "notes": "blk"
    },
    {
        "id": "vtls004964589_1_15",
        "type": "sailor",
        "parent": "vtls004964589",
        "name": "richard thomas",
        "dob": "blk",
        "age": "44",
        "place_of_birth": "aberystwyth",
        "home_address": "blk",
        "f": "blk",
        "name_of_ship": "[inverness]",
        "ship_port": "blk",
        "date_leaving": "1879",
        "joined_ship_date": "1879-09-27",
        "joined_at_port": "aberystwyth",
        "capacity": "mate",
        "date_left": "blk",
        "left_port": "blk",
        "cause_of_leaving": "remains on board",
        "sign_with_mark": "n",
        "notes": "blk"
    },
    {
        "id": "vtls004964589_0_15",
        "type": "sailor",
        "parent": "vtls004964589",
        "name": "james esatt",
        "dob": "blk",
        "age": "22",
        "place_of_birth": "ladock",
        "home_address": "blk",
        "f": "blk",
        "name_of_ship": "elisa",
        "ship_port": "blk",
        "date_leaving": "1879",
        "joined_ship_date": "1879-02-04",
        "joined_at_port": "plymouth",
        "capacity": "ordinary seaman",
        "date_left": "1879-02-06",
        "left_port": "plymouth",
        "cause_of_leaving": "deserted",
        "sign_with_mark": "n",
        "notes": "blk"
    },
    {
        "id": "vtls004964589_0_16",
        "type": "sailor",
        "parent": "vtls004964589",
        "name": "william darry",
        "dob": "blk",
        "age": "30",
        "place_of_birth": "beaumaris",
        "home_address": "blk",
        "f": "blk",
        "name_of_ship": "[passenger]",
        "ship_port": "blk",
        "date_leaving": "1879",
        "joined_ship_date": "1879-06-05",
        "joined_at_port": "runcorn",
        "capacity": "mate",
        "date_left": "blk",
        "left_port": "blk",
        "cause_of_leaving": "remains on board",
        "sign_with_mark": "n",
        "notes": "blk"
    },
    {
        "id": "vtls004964597_0_16",
        "type": "sailor",
        "parent": "vtls004964597",
        "name": "john humphreys",
        "dob": "blk",
        "age": "16",
        "place_of_birth": "aberystwyth",
        "home_address": "blk",
        "f": "blk",
        "name_of_ship": "summer cloud",
        "ship_port": "aberystwyth",
        "date_leaving": "1880",
        "joined_ship_date": "1880-03-22",
        "joined_at_port": "porthcawl",
        "capacity": "ordinary seaman",
        "date_left": "blk",
        "left_port": "blk",
        "cause_of_leaving": "remains on board",
        "sign_with_mark": "n",
        "notes": "blk"
    },
    {
        "id": "vtls004964597_0_14",
        "type": "sailor",
        "parent": "vtls004964597",
        "name": "james james",
        "dob": "blk",
        "age": "20",
        "place_of_birth": "aberystwyth",
        "home_address": "blk",
        "f": "blk",
        "name_of_ship": "summer cloud",
        "ship_port": "aberystwyth",
        "date_leaving": "1880",
        "joined_ship_date": "1880-01-07",
        "joined_at_port": "newport",
        "capacity": "ordinary seaman",
        "date_left": "blk",
        "left_port": "blk",
        "cause_of_leaving": "remains on board",
        "sign_with_mark": "y",
        "notes": "blk"
    },
    {
        "id": "vtls004964597_0_15",
        "type": "sailor",
        "parent": "vtls004964597",
        "name": "samuel evan jones",
        "dob": "blk",
        "age": "15",
        "place_of_birth": "aberystwyth",
        "home_address": "blk",
        "f": "blk",
        "name_of_ship": "summer cloud",
        "ship_port": "aberystwyth",
        "date_leaving": "1880",
        "joined_ship_date": "1880-01-07",
        "joined_at_port": "newport",
        "capacity": "boy",
        "date_left": "1880-05-12",
        "left_port": "runcorn",
        "cause_of_leaving": "paid off",
        "sign_with_mark": "n",
        "notes": "blk"
    },
    {
        "id": "vtls004964597_0_13",
        "type": "sailor",
        "parent": "vtls004964597",
        "name": "john griffiths",
        "dob": "blk",
        "age": "30",
        "place_of_birth": "cardigan",
        "home_address": "blk",
        "f": "blk",
        "name_of_ship": "forest prince",
        "ship_port": "blk",
        "date_leaving": "1880",
        "joined_ship_date": "1880-01-07",
        "joined_at_port": "newport",
        "capacity": "able seaman",
        "date_left": "1880-03-02",
        "left_port": "porthcawl",
        "cause_of_leaving": "paid off",
        "sign_with_mark": "n",
        "notes": "blk"
    },
    {
        "id": "vtls004964589_1_17",
        "type": "sailor",
        "parent": "vtls004964589",
        "name": "samuel e jones",
        "dob": "blk",
        "age": "15",
        "place_of_birth": "aberystwyth",
        "home_address": "blk",
        "f": "blk",
        "name_of_ship": "agenoria",
        "ship_port": "blk",
        "date_leaving": "1879",
        "joined_ship_date": "1879-09-29",
        "joined_at_port": "aberystwyth",
        "capacity": "ordinary seaman",
        "date_left": "blk",
        "left_port": "blk",
        "cause_of_leaving": "remains on board",
        "sign_with_mark": "n",
        "notes": "blk"
    },
    {
        "id": "vtls004964597_0_11",
        "type": "sailor",
        "parent": "vtls004964597",
        "name": "thomas lewis",
        "dob": "blk",
        "age": "42",
        "place_of_birth": "aberystwyth",
        "home_address": "blk",
        "f": "blk",
        "name_of_ship": "summer cloud",
        "ship_port": "aberystwyth",
        "date_leaving": "1880",
        "joined_ship_date": "1880-01-09",
        "joined_at_port": "newport",
        "capacity": "master",
        "date_left": "blk",
        "left_port": "blk",
        "cause_of_leaving": "remains on board",
        "sign_with_mark": "n",
        "notes": "blk"
    },
    {
        "id": "vtls004964597_0_12",
        "type": "sailor",
        "parent": "vtls004964597",
        "name": "richard thomas",
        "dob": "blk",
        "age": "44",
        "place_of_birth": "aberystwyth",
        "home_address": "blk",
        "f": "blk",
        "name_of_ship": "summer cloud",
        "ship_port": "aberystwyth",
        "date_leaving": "1880",
        "joined_ship_date": "1880-01-09",
        "joined_at_port": "newport",
        "capacity": "mate",
        "date_left": "blk",
        "left_port": "blk",
        "cause_of_leaving": "remains on board",
        "sign_with_mark": "n",
        "notes": "blk"
    },
    {
        "id": "vtls004964597_1_11",
        "type": "sailor",
        "parent": "vtls004964597",
        "name": "thomas lewis",
        "dob": "blk",
        "age": "43",
        "place_of_birth": "aberystwyth",
        "home_address": "blk",
        "f": "blk",
        "name_of_ship": "summer cloud",
        "ship_port": "aberystwyth",
        "date_leaving": "1880",
        "joined_ship_date": "1880-07-06",
        "joined_at_port": "london",
        "capacity": "master",
        "date_left": "blk",
        "left_port": "blk",
        "cause_of_leaving": "remains on board",
        "sign_with_mark": "n",
        "notes": "blk"
    },
    {
        "id": "vtls004964589_1_16",
        "type": "sailor",
        "parent": "vtls004964589",
        "name": "james james",
        "dob": "blk",
        "age": "20",
        "place_of_birth": "aberystwyth",
        "home_address": "blk",
        "f": "blk",
        "name_of_ship": "[colontuse]",
        "ship_port": "blk",
        "date_leaving": "1879",
        "joined_ship_date": "1879-09-29",
        "joined_at_port": "aberystwyth",
        "capacity": "able seaman",
        "date_left": "blk",
        "left_port": "blk",
        "cause_of_leaving": "remains on board",
        "sign_with_mark": "n",
        "notes": "blk"
    },
    {
        "id": "vtls004964597_1_14",
        "type": "sailor",
        "parent": "vtls004964597",
        "name": "john h lewis",
        "dob": "blk",
        "age": "17",
        "place_of_birth": "aberystwyth",
        "home_address": "blk",
        "f": "blk",
        "name_of_ship": "summer cloud",
        "ship_port": "aberystwyth",
        "date_leaving": "1880",
        "joined_ship_date": "1880-07-06",
        "joined_at_port": "london",
        "capacity": "ordinary seaman",
        "date_left": "blk",
        "left_port": "blk",
        "cause_of_leaving": "remains on board",
        "sign_with_mark": "n",
        "notes": "blk"
    },
    {
        "id": "vtls004964597_1_13",
        "type": "sailor",
        "parent": "vtls004964597",
        "name": "james james",
        "dob": "blk",
        "age": "20",
        "place_of_birth": "aberystwyth",
        "home_address": "blk",
        "f": "blk",
        "name_of_ship": "summer cloud",
        "ship_port": "aberystwyth",
        "date_leaving": "1880",
        "joined_ship_date": "1880-07-06",
        "joined_at_port": "london",
        "capacity": "ordinary seaman",
        "date_left": "blk",
        "left_port": "blk",
        "cause_of_leaving": "remains on board",
        "sign_with_mark": "y",
        "notes": "blk"
    },
    {
        "id": "vtls004964597_1_12",
        "type": "sailor",
        "parent": "vtls004964597",
        "name": "richard thomas",
        "dob": "blk",
        "age": "44",
        "place_of_birth": "aberystwyth",
        "home_address": "blk",
        "f": "blk",
        "name_of_ship": "summer cloud",
        "ship_port": "aberystwyth",
        "date_leaving": "1880",
        "joined_ship_date": "1880-07-06",
        "joined_at_port": "london",
        "capacity": "mate",
        "date_left": "1880-07-29",
        "left_port": "belfast",
        "cause_of_leaving": "discharged",
        "sign_with_mark": "n",
        "notes": "blk"
    },
    {
        "id": "vtls004964610_0_11",
        "type": "sailor",
        "parent": "vtls004964610",
        "name": "thomas lewis",
        "dob": "blk",
        "age": "45",
        "place_of_birth": "aberystwyth",
        "home_address": "blk",
        "f": "blk",
        "name_of_ship": "summer cloud",
        "ship_port": "aberystwyth",
        "date_leaving": "1883",
        "joined_ship_date": "1883-01-10",
        "joined_at_port": "falmouth",
        "capacity": "master",
        "date_left": "blk",
        "left_port": "blk",
        "cause_of_leaving": "remains on board",
        "sign_with_mark": "n",
        "notes": "blk"
    },
    {
        "id": "vtls004964597_1_15",
        "type": "sailor",
        "parent": "vtls004964597",
        "name": "thomas edmunds",
        "dob": "blk",
        "age": "52",
        "place_of_birth": "llanelly",
        "home_address": "blk",
        "f": "blk",
        "name_of_ship": "[carnarvon]",
        "ship_port": "blk",
        "date_leaving": "1880",
        "joined_ship_date": "1880-08-10",
        "joined_at_port": "newport",
        "capacity": "mate",
        "date_left": "1880-09-27",
        "left_port": "liverpool",
        "cause_of_leaving": "discharged",
        "sign_with_mark": "n",
        "notes": "blk"
    },
    {
        "id": "vtls004964597_1_17",
        "type": "sailor",
        "parent": "vtls004964597",
        "name": "john owen",
        "dob": "blk",
        "age": "14",
        "place_of_birth": "holyhead",
        "home_address": "blk",
        "f": "blk",
        "name_of_ship": "summer cloud",
        "ship_port": "aberystwyth",
        "date_leaving": "1880",
        "joined_ship_date": "1880-10-07",
        "joined_at_port": "garston",
        "capacity": "boy",
        "date_left": "blk",
        "left_port": "blk",
        "cause_of_leaving": "remains on board",
        "sign_with_mark": "n",
        "notes": "blk"
    },
    {
        "id": "vtls004964597_1_16",
        "type": "sailor",
        "parent": "vtls004964597",
        "name": "andrew heaves",
        "dob": "blk",
        "age": "46",
        "place_of_birth": "jersey",
        "home_address": "blk",
        "f": "blk",
        "name_of_ship": "base",
        "ship_port": "blk",
        "date_leaving": "1880",
        "joined_ship_date": "1880-09-08",
        "joined_at_port": "liverpool",
        "capacity": "mate",
        "date_left": "blk",
        "left_port": "blk",
        "cause_of_leaving": "remains on board",
        "sign_with_mark": "y",
        "notes": "blk"
    },
    {
        "id": "vtls004964610_0_14",
        "type": "sailor",
        "parent": "vtls004964610",
        "name": "robert brian",
        "dob": "blk",
        "age": "19",
        "place_of_birth": "dusseldorf",
        "home_address": "blk",
        "f": "blk",
        "name_of_ship": "summer cloud",
        "ship_port": "aberystwyth",
        "date_leaving": "1883",
        "joined_ship_date": "1883-01-10",
        "joined_at_port": "falmouth",
        "capacity": "ordinary seaman",
        "date_left": "1883-01-25",
        "left_port": "belfast",
        "cause_of_leaving": "discharged",
        "sign_with_mark": "n",
        "notes": "blk"
    },
    {
        "id": "vtls004964610_0_17",
        "type": "sailor",
        "parent": "vtls004964610",
        "name": "john sterling",
        "dob": "blk",
        "age": "17",
        "place_of_birth": "donaghadee",
        "home_address": "blk",
        "f": "blk",
        "name_of_ship": "breadalbane",
        "ship_port": "irvine",
        "date_leaving": "1883",
        "joined_ship_date": "1883-02-09",
        "joined_at_port": "belfast",
        "capacity": "ordinary seaman",
        "date_left": "blk",
        "left_port": "blk",
        "cause_of_leaving": "remains on board",
        "sign_with_mark": "n",
        "notes": "blk"
    },
    {
        "id": "vtls004964610_0_12",
        "type": "sailor",
        "parent": "vtls004964610",
        "name": "richard davies",
        "dob": "blk",
        "age": "38",
        "place_of_birth": "aberystwyth",
        "home_address": "blk",
        "f": "blk",
        "name_of_ship": "summer cloud",
        "ship_port": "aberystwyth",
        "date_leaving": "1883",
        "joined_ship_date": "1883-01-10",
        "joined_at_port": "falmouth",
        "capacity": "mate",
        "date_left": "1883-01-25",
        "left_port": "belfast",
        "cause_of_leaving": "discharged",
        "sign_with_mark": "n",
        "notes": "blk"
    },
    {
        "id": "vtls004964610_1_12",
        "type": "sailor",
        "parent": "vtls004964610",
        "name": "john h lewis",
        "dob": "blk",
        "age": "20",
        "place_of_birth": "aberystwyth",
        "home_address": "blk",
        "f": "blk",
        "name_of_ship": "summer cloud",
        "ship_port": "aberystwyth",
        "date_leaving": "1883",
        "joined_ship_date": "1883-07-14",
        "joined_at_port": "rochester",
        "capacity": "mate",
        "date_left": "1883-10-13",
        "left_port": "rochester",
        "cause_of_leaving": "discharged",
        "sign_with_mark": "n",
        "notes": "blk"
    },
    {
        "id": "vtls004964610_0_13",
        "type": "sailor",
        "parent": "vtls004964610",
        "name": "owen enos",
        "dob": "blk",
        "age": "21",
        "place_of_birth": "aberystwyth",
        "home_address": "blk",
        "f": "blk",
        "name_of_ship": "summer cloud",
        "ship_port": "aberystwyth",
        "date_leaving": "1883",
        "joined_ship_date": "1883-01-10",
        "joined_at_port": "falmouth",
        "capacity": "able seaman",
        "date_left": "blk",
        "left_port": "blk",
        "cause_of_leaving": "remains on board",
        "sign_with_mark": "n",
        "notes": "blk"
    },
    {
        "id": "vtls004964610_1_11",
        "type": "sailor",
        "parent": "vtls004964610",
        "name": "thomas lewis",
        "dob": "blk",
        "age": "45",
        "place_of_birth": "aberystwyth",
        "home_address": "blk",
        "f": "blk",
        "name_of_ship": "summer cloud",
        "ship_port": "aberystwyth",
        "date_leaving": "1883",
        "joined_ship_date": "1883-07-14",
        "joined_at_port": "rochester",
        "capacity": "master",
        "date_left": "blk",
        "left_port": "blk",
        "cause_of_leaving": "remains on board",
        "sign_with_mark": "n",
        "notes": "blk"
    },
    {
        "id": "vtls004964610_0_15",
        "type": "sailor",
        "parent": "vtls004964610",
        "name": "w lamb",
        "dob": "blk",
        "age": "18",
        "place_of_birth": "runcorn",
        "home_address": "blk",
        "f": "blk",
        "name_of_ship": "summer cloud",
        "ship_port": "aberystwyth",
        "date_leaving": "1883",
        "joined_ship_date": "1883-01-10",
        "joined_at_port": "falmouth",
        "capacity": "cook",
        "date_left": "1883-01-25",
        "left_port": "belfast",
        "cause_of_leaving": "discharged",
        "sign_with_mark": "n",
        "notes": "blk"
    },
    {
        "id": "vtls004964610_0_18",
        "type": "sailor",
        "parent": "vtls004964610",
        "name": "james dovan",
        "dob": "blk",
        "age": "17",
        "place_of_birth": "kiel",
        "home_address": "blk",
        "f": "blk",
        "name_of_ship": "rose",
        "ship_port": "newry",
        "date_leaving": "1883",
        "joined_ship_date": "1883-02-09",
        "joined_at_port": "belfast",
        "capacity": "ordinary seaman",
        "date_left": "1883-03",
        "left_port": "limerick",
        "cause_of_leaving": "discharged",
        "sign_with_mark": "n",
        "notes": "blk"
    },
    {
        "id": "vtls004964610_0_16",
        "type": "sailor",
        "parent": "vtls004964610",
        "name": "john h lewis",
        "dob": "blk",
        "age": "19",
        "place_of_birth": "aberystwyth",
        "home_address": "blk",
        "f": "blk",
        "name_of_ship": "chilena",
        "ship_port": "liverpool",
        "date_leaving": "1883",
        "joined_ship_date": "1883-02-03",
        "joined_at_port": "belfast",
        "capacity": "mate",
        "date_left": "blk",
        "left_port": "blk",
        "cause_of_leaving": "remains on board",
        "sign_with_mark": "n",
        "notes": "blk"
    },
    {
        "id": "vtls004964610_0_19",
        "type": "sailor",
        "parent": "vtls004964610",
        "name": "john enos",
        "dob": "blk",
        "age": "15",
        "place_of_birth": "aberystwyth",
        "home_address": "blk",
        "f": "blk",
        "name_of_ship": "[ceres]",
        "ship_port": "blk",
        "date_leaving": "1883",
        "joined_ship_date": "1883-05-08",
        "joined_at_port": "portmadoc",
        "capacity": "cook",
        "date_left": "blk",
        "left_port": "blk",
        "cause_of_leaving": "remains on board",
        "sign_with_mark": "n",
        "notes": "blk"
    },
    {
        "id": "vtls004964615_0_13",
        "type": "sailor",
        "parent": "vtls004964615",
        "name": "john sterling",
        "dob": "blk",
        "age": "18",
        "place_of_birth": "donaghadee",
        "home_address": "blk",
        "f": "blk",
        "name_of_ship": "summer cloud",
        "ship_port": "aberystwyth",
        "date_leaving": "1883",
        "joined_ship_date": "1884-01-11",
        "joined_at_port": "rochester",
        "capacity": "ordinary seaman",
        "date_left": "blk",
        "left_port": "blk",
        "cause_of_leaving": "remains on board",
        "sign_with_mark": "n",
        "notes": "blk"
    },
    {
        "id": "vtls004964610_1_14",
        "type": "sailor",
        "parent": "vtls004964610",
        "name": "john sterling",
        "dob": "blk",
        "age": "18",
        "place_of_birth": "donaghadee",
        "home_address": "blk",
        "f": "blk",
        "name_of_ship": "summer cloud",
        "ship_port": "aberystwyth",
        "date_leaving": "1883",
        "joined_ship_date": "1883-07-14",
        "joined_at_port": "rochester",
        "capacity": "ordinary seaman",
        "date_left": "blk",
        "left_port": "blk",
        "cause_of_leaving": "remains on board",
        "sign_with_mark": "n",
        "notes": "blk"
    },
    {
        "id": "vtls004964615_0_12",
        "type": "sailor",
        "parent": "vtls004964615",
        "name": "edward halpin",
        "dob": "blk",
        "age": "20",
        "place_of_birth": "skerries",
        "home_address": "blk",
        "f": "blk",
        "name_of_ship": "summer cloud",
        "ship_port": "aberystwyth",
        "date_leaving": "1883",
        "joined_ship_date": "1884-01-11",
        "joined_at_port": "rochester",
        "capacity": "able seaman",
        "date_left": "1884-02-04",
        "left_port": "liverpool",
        "cause_of_leaving": "left",
        "sign_with_mark": "n",
        "notes": "blk"
    },
    {
        "id": "vtls004964610_1_13",
        "type": "sailor",
        "parent": "vtls004964610",
        "name": "owen enos",
        "dob": "blk",
        "age": "21",
        "place_of_birth": "aberystwyth",
        "home_address": "blk",
        "f": "blk",
        "name_of_ship": "summer cloud",
        "ship_port": "aberystwyth",
        "date_leaving": "1883",
        "joined_ship_date": "1883-07-14",
        "joined_at_port": "rochester",
        "capacity": "able seaman",
        "date_left": "1883-11-13",
        "left_port": "dublin",
        "cause_of_leaving": "discharged",
        "sign_with_mark": "n",
        "notes": "blk"
    },
    {
        "id": "vtls004964615_0_11",
        "type": "sailor",
        "parent": "vtls004964615",
        "name": "thomas lewis",
        "dob": "blk",
        "age": "47",
        "place_of_birth": "aberystwyth",
        "home_address": "blk",
        "f": "blk",
        "name_of_ship": "summer cloud",
        "ship_port": "aberystwyth",
        "date_leaving": "1883",
        "joined_ship_date": "1884-01-11",
        "joined_at_port": "rochester",
        "capacity": "master",
        "date_left": "blk",
        "left_port": "blk",
        "cause_of_leaving": "remains on board",
        "sign_with_mark": "n",
        "notes": "blk"
    },
    {
        "id": "vtls004964610_1_16",
        "type": "sailor",
        "parent": "vtls004964610",
        "name": "edward halpin",
        "dob": "blk",
        "age": "20",
        "place_of_birth": "skerries",
        "home_address": "blk",
        "f": "blk",
        "name_of_ship": "excelsior",
        "ship_port": "chester",
        "date_leaving": "1883",
        "joined_ship_date": "1883-07-14",
        "joined_at_port": "dublin",
        "capacity": "able seaman",
        "date_left": "blk",
        "left_port": "blk",
        "cause_of_leaving": "remains on board",
        "sign_with_mark": "n",
        "notes": "blk"
    },
    {
        "id": "vtls004964610_1_15",
        "type": "sailor",
        "parent": "vtls004964610",
        "name": "john enos",
        "dob": "blk",
        "age": "15",
        "place_of_birth": "aberystwyth",
        "home_address": "blk",
        "f": "blk",
        "name_of_ship": "summer cloud",
        "ship_port": "aberystwyth",
        "date_leaving": "1883",
        "joined_ship_date": "1883-07-14",
        "joined_at_port": "rochester",
        "capacity": "boy",
        "date_left": "blk",
        "left_port": "blk",
        "cause_of_leaving": "remains on board",
        "sign_with_mark": "n",
        "notes": "blk"
    },
    {
        "id": "vtls004964615_0_17",
        "type": "sailor",
        "parent": "vtls004964615",
        "name": "john h lewis",
        "dob": "blk",
        "age": "21",
        "place_of_birth": "aberystwyth",
        "home_address": "blk",
        "f": "blk",
        "name_of_ship": "summer cloud",
        "ship_port": "aberystwyth",
        "date_leaving": "1884",
        "joined_ship_date": "1884-03-12",
        "joined_at_port": "rochester",
        "capacity": "able seaman",
        "date_left": "1884-07-10",
        "left_port": "newport",
        "cause_of_leaving": "remains on board",
        "sign_with_mark": "n",
        "notes": "blk"
    },
    {
        "id": "vtls004964615_1_15",
        "type": "sailor",
        "parent": "vtls004964615",
        "name": "alfred wannell",
        "dob": "blk",
        "age": "19",
        "place_of_birth": "exmouth",
        "home_address": "blk",
        "f": "blk",
        "name_of_ship": "summer cloud",
        "ship_port": "aberystwyth",
        "date_leaving": "1884",
        "joined_ship_date": "1884-08-21",
        "joined_at_port": "portmadoc",
        "capacity": "ordinary seaman",
        "date_left": "blk",
        "left_port": "blk",
        "cause_of_leaving": "remains on board",
        "sign_with_mark": "n",
        "notes": "blk"
    },
    {
        "id": "vtls004964615_1_12",
        "type": "sailor",
        "parent": "vtls004964615",
        "name": "john roberts",
        "dob": "blk",
        "age": "46",
        "place_of_birth": "llandudno",
        "home_address": "blk",
        "f": "blk",
        "name_of_ship": "summer cloud",
        "ship_port": "aberystwyth",
        "date_leaving": "1884",
        "joined_ship_date": "1884-07-10",
        "joined_at_port": "newport",
        "capacity": "mate",
        "date_left": "1884-08-19",
        "left_port": "porthmadog",
        "cause_of_leaving": "of his own accord",
        "sign_with_mark": "n",
        "notes": "blk"
    },
    {
        "id": "vtls004964615_1_14",
        "type": "sailor",
        "parent": "vtls004964615",
        "name": "john sterling",
        "dob": "blk",
        "age": "19",
        "place_of_birth": "belfast",
        "home_address": "blk",
        "f": "blk",
        "name_of_ship": "summer cloud",
        "ship_port": "aberystwyth",
        "date_leaving": "1884",
        "joined_ship_date": "1884-07-10",
        "joined_at_port": "newport",
        "capacity": "ordinary seaman",
        "date_left": "blk",
        "left_port": "blk",
        "cause_of_leaving": "remains on board",
        "sign_with_mark": "n",
        "notes": "blk"
    },
    {
        "id": "vtls004964615_0_14",
        "type": "sailor",
        "parent": "vtls004964615",
        "name": "thomas benjamin",
        "dob": "blk",
        "age": "18",
        "place_of_birth": "rochester",
        "home_address": "blk",
        "f": "blk",
        "name_of_ship": "h. pierreport",
        "ship_port": "blk",
        "date_leaving": "1883",
        "joined_ship_date": "1884-01-11",
        "joined_at_port": "rochester",
        "capacity": "ordinary seaman",
        "date_left": "1884-02-04",
        "left_port": "liverpool",
        "cause_of_leaving": "left",
        "sign_with_mark": "n",
        "notes": "blk"
    },
    {
        "id": "vtls004964615_1_13",
        "type": "sailor",
        "parent": "vtls004964615",
        "name": "john h lewis",
        "dob": "blk",
        "age": "21",
        "place_of_birth": "aberystwyth",
        "home_address": "blk",
        "f": "blk",
        "name_of_ship": "summer cloud",
        "ship_port": "aberystwyth",
        "date_leaving": "1884",
        "joined_ship_date": "1884-07-10",
        "joined_at_port": "newport",
        "capacity": "able seaman",
        "date_left": "blk",
        "left_port": "blk",
        "cause_of_leaving": "remains on board",
        "sign_with_mark": "n",
        "notes": "blk"
    },
    {
        "id": "vtls004964615_0_15",
        "type": "sailor",
        "parent": "vtls004964615",
        "name": "john enos",
        "dob": "blk",
        "age": "16",
        "place_of_birth": "aberystwyth",
        "home_address": "blk",
        "f": "blk",
        "name_of_ship": "summer cloud",
        "ship_port": "aberystwyth",
        "date_leaving": "1883",
        "joined_ship_date": "1884-01-11",
        "joined_at_port": "rochester",
        "capacity": "cook",
        "date_left": "1884-02-26",
        "left_port": "port dinorwic",
        "cause_of_leaving": "left",
        "sign_with_mark": "n",
        "notes": "blk"
    },
    {
        "id": "vtls004964615_1_11",
        "type": "sailor",
        "parent": "vtls004964615",
        "name": "thomas lewis",
        "dob": "blk",
        "age": "47",
        "place_of_birth": "aberystwyth",
        "home_address": "blk",
        "f": "blk",
        "name_of_ship": "summer cloud",
        "ship_port": "aberystwyth",
        "date_leaving": "1884",
        "joined_ship_date": "1884-07-10",
        "joined_at_port": "newport",
        "capacity": "master",
        "date_left": "blk",
        "left_port": "blk",
        "cause_of_leaving": "remains on board",
        "sign_with_mark": "n",
        "notes": "blk"
    },
    {
        "id": "vtls004964615_0_16",
        "type": "sailor",
        "parent": "vtls004964615",
        "name": "john roberts",
        "dob": "blk",
        "age": "46",
        "place_of_birth": "rhyl",
        "home_address": "blk",
        "f": "blk",
        "name_of_ship": "[alice & kate]",
        "ship_port": "blk",
        "date_leaving": "1884",
        "joined_ship_date": "1884-02-11",
        "joined_at_port": "liverpool",
        "capacity": "mate",
        "date_left": "1884-07-10",
        "left_port": "newport",
        "cause_of_leaving": "remains on board",
        "sign_with_mark": "n",
        "notes": "blk"
    }
]