[
    {
        "id": "vtls004634747_1_11",
        "type": "sailor",
        "parent": "vtls004634747",
        "name": "evan jones",
        "dob": "blk",
        "age": "36",
        "place_of_birth": "aberystwyth",
        "home_address": "aberystwyth",
        "f": "aberystwyth",
        "name_of_ship": "catherine hendry",
        "ship_port": "aberystwyth",
        "date_leaving": "1888",
        "joined_ship_date": "1888-07-01",
        "joined_at_port": "portmadoc",
        "capacity": "master",
        "date_left": "1888-12-31",
        "left_port": "aberdovey",
        "cause_of_leaving": "remains on board",
        "sign_with_mark": "n",
        "notes": "blk"
    },
    {
        "id": "vtls004634747_0_12",
        "type": "sailor",
        "parent": "vtls004634747",
        "name": "john jones",
        "dob": "1823",
        "age": "blk",
        "place_of_birth": "aberystwyth",
        "home_address": "blk",
        "f": "blk",
        "name_of_ship": "a[er]on lass",
        "ship_port": "aberystwyth",
        "date_leaving": "1887",
        "joined_ship_date": "1888-03-03",
        "joined_at_port": "lamlash",
        "capacity": "mate",
        "date_left": "1888-06-30",
        "left_port": "porthmadog",
        "cause_of_leaving": "discharged",
        "sign_with_mark": "n",
        "notes": "blk"
    },
    {
        "id": "vtls004634747_1_13",
        "type": "sailor",
        "parent": "vtls004634747",
        "name": "edward munthes",
        "dob": "blk",
        "age": "27",
        "place_of_birth": "jersey",
        "home_address": "blk",
        "f": "blk",
        "name_of_ship": "unknown",
        "ship_port": "blk",
        "date_leaving": "1888",
        "joined_ship_date": "1888-07-10",
        "joined_at_port": "portmadoc",
        "capacity": "able seaman",
        "date_left": "1888-11-12",
        "left_port": "aberdovey",
        "cause_of_leaving": "discharged",
        "sign_with_mark": "n",
        "notes": "blk"
    },
    {
        "id": "vtls004634747_0_13",
        "type": "sailor",
        "parent": "vtls004634747",
        "name": "charles nelson",
        "dob": "1870",
        "age": "blk",
        "place_of_birth": "norway",
        "home_address": "blk",
        "f": "blk",
        "name_of_ship": "native",
        "ship_port": "aberystwyth",
        "date_leaving": "1887",
        "joined_ship_date": "1888-03-03",
        "joined_at_port": "lamlash",
        "capacity": "able seaman",
        "date_left": "blk",
        "left_port": "blk",
        "cause_of_leaving": "remains on board",
        "sign_with_mark": "n",
        "notes": "blk"
    },
    {
        "id": "vtls004634747_0_11",
        "type": "sailor",
        "parent": "vtls004634747",
        "name": "evan jones",
        "dob": "1855",
        "age": "blk",
        "place_of_birth": "aberystwyth",
        "home_address": "aberystwyth",
        "f": "aberystwyth",
        "name_of_ship": "native",
        "ship_port": "aberystwyth",
        "date_leaving": "1887",
        "joined_ship_date": "1888-03-03",
        "joined_at_port": "lamlash",
        "capacity": "master",
        "date_left": "blk",
        "left_port": "blk",
        "cause_of_leaving": "remains on board",
        "sign_with_mark": "n",
        "notes": "blk"
    },
    {
        "id": "vtls004634747_1_14",
        "type": "sailor",
        "parent": "vtls004634747",
        "name": "arthur jones",
        "dob": "blk",
        "age": "16",
        "place_of_birth": "caernarfon",
        "home_address": "blk",
        "f": "blk",
        "name_of_ship": "first voyage",
        "ship_port": "blk",
        "date_leaving": "1888",
        "joined_ship_date": "1888-07-10",
        "joined_at_port": "portmadoc",
        "capacity": "boy",
        "date_left": "1888-10-14",
        "left_port": "porthmadog",
        "cause_of_leaving": "discharged",
        "sign_with_mark": "n",
        "notes": "blk"
    },
    {
        "id": "vtls004634747_1_12",
        "type": "sailor",
        "parent": "vtls004634747",
        "name": "john davies",
        "dob": "blk",
        "age": "24",
        "place_of_birth": "borth",
        "home_address": "blk",
        "f": "blk",
        "name_of_ship": "unknown",
        "ship_port": "blk",
        "date_leaving": "1888",
        "joined_ship_date": "1888-07-10",
        "joined_at_port": "portmadoc",
        "capacity": "mate",
        "date_left": "1888-11-12",
        "left_port": "aberdovey",
        "cause_of_leaving": "discharged",
        "sign_with_mark": "n",
        "notes": "blk"
    },
    {
        "id": "vtls004634753_1_11",
        "type": "sailor",
        "parent": "vtls004634753",
        "name": "evan jones",
        "dob": "1855",
        "age": "blk",
        "place_of_birth": "aberystwyth",
        "home_address": "36 bridge street, aberystwith",
        "f": "36 bridge street, aberystwith",
        "name_of_ship": "catherine hendry",
        "ship_port": "aberystwyth",
        "date_leaving": "blk",
        "joined_ship_date": "blk",
        "joined_at_port": "blk",
        "capacity": "master",
        "date_left": "blk",
        "left_port": "blk",
        "cause_of_leaving": "remains on board",
        "sign_with_mark": "n",
        "notes": "there is a note on this record stating that the vessel was \"laying up at aberystwith since nov. 14\""
    },
    {
        "id": "vtls004634753_0_13",
        "type": "sailor",
        "parent": "vtls004634753",
        "name": "dicus parry",
        "dob": "blk",
        "age": "24",
        "place_of_birth": "pt madoc",
        "home_address": "blk",
        "f": "blk",
        "name_of_ship": "catherine hendry",
        "ship_port": "aberystwyth",
        "date_leaving": "continued",
        "joined_ship_date": "blk",
        "joined_at_port": "blk",
        "capacity": "ordinary seaman",
        "date_left": "1890-06-30",
        "left_port": "runcorn",
        "cause_of_leaving": "remains on board",
        "sign_with_mark": "n",
        "notes": "blk"
    },
    {
        "id": "vtls004634753_0_11",
        "type": "sailor",
        "parent": "vtls004634753",
        "name": "evan jones",
        "dob": "blk",
        "age": "36",
        "place_of_birth": "aberystwyth",
        "home_address": "aberystwyth",
        "f": "aberystwyth",
        "name_of_ship": "catherine hendry",
        "ship_port": "aberystwyth",
        "date_leaving": "continued",
        "joined_ship_date": "blk",
        "joined_at_port": "blk",
        "capacity": "master",
        "date_left": "1890-06-30",
        "left_port": "runcorn",
        "cause_of_leaving": "remains on board",
        "sign_with_mark": "n",
        "notes": "blk"
    },
    {
        "id": "vtls004634753_1_13",
        "type": "sailor",
        "parent": "vtls004634753",
        "name": "dicus parry",
        "dob": "1866",
        "age": "blk",
        "place_of_birth": "portmadoc",
        "home_address": "blk",
        "f": "blk",
        "name_of_ship": "catherine hendry",
        "ship_port": "aberystwyth",
        "date_leaving": "blk",
        "joined_ship_date": "blk",
        "joined_at_port": "blk",
        "capacity": "ordinary seaman",
        "date_left": "1890-11-14",
        "left_port": "aberystwyth",
        "cause_of_leaving": "discharged",
        "sign_with_mark": "n",
        "notes": "blk"
    },
    {
        "id": "vtls004634753_0_12",
        "type": "sailor",
        "parent": "vtls004634753",
        "name": "william owen",
        "dob": "blk",
        "age": "48",
        "place_of_birth": "pt madoc",
        "home_address": "blk",
        "f": "blk",
        "name_of_ship": "catherine hendry",
        "ship_port": "aberystwyth",
        "date_leaving": "continued",
        "joined_ship_date": "blk",
        "joined_at_port": "blk",
        "capacity": "mate",
        "date_left": "1890-06-30",
        "left_port": "runcorn",
        "cause_of_leaving": "remains on board",
        "sign_with_mark": "n",
        "notes": "blk"
    },
    {
        "id": "vtls004634753_0_14",
        "type": "sailor",
        "parent": "vtls004634753",
        "name": "thomas jones",
        "dob": "blk",
        "age": "17",
        "place_of_birth": "pt madoc",
        "home_address": "blk",
        "f": "blk",
        "name_of_ship": "catherine hendry",
        "ship_port": "aberystwyth",
        "date_leaving": "continued",
        "joined_ship_date": "blk",
        "joined_at_port": "blk",
        "capacity": "cook",
        "date_left": "1890-06-30",
        "left_port": "runcorn",
        "cause_of_leaving": "remains on board",
        "sign_with_mark": "n",
        "notes": "blk"
    },
    {
        "id": "vtls004634753_1_12",
        "type": "sailor",
        "parent": "vtls004634753",
        "name": "william owen",
        "dob": "1840",
        "age": "blk",
        "place_of_birth": "portmadoc",
        "home_address": "blk",
        "f": "blk",
        "name_of_ship": "catherine hendry",
        "ship_port": "aberystwyth",
        "date_leaving": "blk",
        "joined_ship_date": "blk",
        "joined_at_port": "blk",
        "capacity": "able seaman",
        "date_left": "1890-11-14",
        "left_port": "aberystwyth",
        "cause_of_leaving": "discharged",
        "sign_with_mark": "n",
        "notes": "blk"
    },
    {
        "id": "vtls004634753_1_14",
        "type": "sailor",
        "parent": "vtls004634753",
        "name": "thomas jones",
        "dob": "1872",
        "age": "blk",
        "place_of_birth": "portmadoc",
        "home_address": "blk",
        "f": "blk",
        "name_of_ship": "catherine hendry",
        "ship_port": "aberystwyth",
        "date_leaving": "blk",
        "joined_ship_date": "blk",
        "joined_at_port": "blk",
        "capacity": "boy",
        "date_left": "1890-11-14",
        "left_port": "aberystwyth",
        "cause_of_leaving": "discharged",
        "sign_with_mark": "n",
        "notes": "blk"
    },
    {
        "id": "vtls004634762_0_15",
        "type": "sailor",
        "parent": "vtls004634762",
        "name": "edward munson",
        "dob": "1863",
        "age": "blk",
        "place_of_birth": "jursey",
        "home_address": "blk",
        "f": "blk",
        "name_of_ship": "catherine hendry",
        "ship_port": "aberystwyth",
        "date_leaving": "1891",
        "joined_ship_date": "1892-06-28",
        "joined_at_port": "portmadoc",
        "capacity": "able seaman",
        "date_left": "blk",
        "left_port": "blk",
        "cause_of_leaving": "remains on board",
        "sign_with_mark": "n",
        "notes": "place of birth identified in previous record as jersey."
    },
    {
        "id": "vtls004634762_1_11",
        "type": "sailor",
        "parent": "vtls004634762",
        "name": "evan jones",
        "dob": "1853",
        "age": "blk",
        "place_of_birth": "aberystwyth",
        "home_address": "36 bridge street, aberystwith",
        "f": "36 bridge street, aberystwith",
        "name_of_ship": "catherine hendry",
        "ship_port": "aberystwyth",
        "date_leaving": "1892",
        "joined_ship_date": "continued",
        "joined_at_port": "blk",
        "capacity": "master",
        "date_left": "1892-10-20",
        "left_port": "porthmadog",
        "cause_of_leaving": "discharged",
        "sign_with_mark": "n",
        "notes": "blk"
    },
    {
        "id": "vtls004634762_0_11",
        "type": "sailor",
        "parent": "vtls004634762",
        "name": "evan jones",
        "dob": "1852",
        "age": "blk",
        "place_of_birth": "aberystwyth",
        "home_address": "36 bridge street, aberystwith",
        "f": "36 bridge street, aberystwith",
        "name_of_ship": "catherine hendry",
        "ship_port": "aberystwyth",
        "date_leaving": "continued",
        "joined_ship_date": "blk",
        "joined_at_port": "blk",
        "capacity": "master",
        "date_left": "blk",
        "left_port": "blk",
        "cause_of_leaving": "remains on board",
        "sign_with_mark": "n",
        "notes": "blk"
    },
    {
        "id": "vtls004634762_0_13",
        "type": "sailor",
        "parent": "vtls004634762",
        "name": "thomas jones",
        "dob": "1868",
        "age": "blk",
        "place_of_birth": "aberystwyth",
        "home_address": "blk",
        "f": "blk",
        "name_of_ship": "catherine hendry",
        "ship_port": "aberystwyth",
        "date_leaving": "continued",
        "joined_ship_date": "blk",
        "joined_at_port": "blk",
        "capacity": "ordinary seaman",
        "date_left": "1892-06-27",
        "left_port": "porthmadog",
        "cause_of_leaving": "discharged",
        "sign_with_mark": "n",
        "notes": "blk"
    },
    {
        "id": "vtls004634762_1_13",
        "type": "sailor",
        "parent": "vtls004634762",
        "name": "william griffiths",
        "dob": "1853",
        "age": "blk",
        "place_of_birth": "dyffryn",
        "home_address": "blk",
        "f": "blk",
        "name_of_ship": "eagle eyed",
        "ship_port": "aberystwyth",
        "date_leaving": "1892",
        "joined_ship_date": "1892-10-20",
        "joined_at_port": "portmadoc",
        "capacity": "master",
        "date_left": "1893-01-07",
        "left_port": "porthmadog",
        "cause_of_leaving": "discharged",
        "sign_with_mark": "n",
        "notes": "blk"
    },
    {
        "id": "vtls004634762_0_14",
        "type": "sailor",
        "parent": "vtls004634762",
        "name": "griffiths thomas",
        "dob": "1876",
        "age": "blk",
        "place_of_birth": "portmadoc",
        "home_address": "blk",
        "f": "blk",
        "name_of_ship": "catherine hendry",
        "ship_port": "aberystwyth",
        "date_leaving": "continued",
        "joined_ship_date": "blk",
        "joined_at_port": "blk",
        "capacity": "boy",
        "date_left": "1892-06-27",
        "left_port": "porthmadog",
        "cause_of_leaving": "discharged",
        "sign_with_mark": "n",
        "notes": "blk"
    },
    {
        "id": "vtls004634762_1_12",
        "type": "sailor",
        "parent": "vtls004634762",
        "name": "edward munson",
        "dob": "1860",
        "age": "blk",
        "place_of_birth": "jersey",
        "home_address": "blk",
        "f": "blk",
        "name_of_ship": "catherine hendry",
        "ship_port": "aberystwyth",
        "date_leaving": "1892",
        "joined_ship_date": "continued",
        "joined_at_port": "blk",
        "capacity": "mate",
        "date_left": "1892-12-25",
        "left_port": "mochras",
        "cause_of_leaving": "discharged",
        "sign_with_mark": "n",
        "notes": "blk"
    },
    {
        "id": "vtls004634762_0_12",
        "type": "sailor",
        "parent": "vtls004634762",
        "name": "john eathridge",
        "dob": "1838",
        "age": "blk",
        "place_of_birth": "portmadoc",
        "home_address": "blk",
        "f": "blk",
        "name_of_ship": "catherine hendry",
        "ship_port": "aberystwyth",
        "date_leaving": "continued",
        "joined_ship_date": "blk",
        "joined_at_port": "blk",
        "capacity": "mate",
        "date_left": "blk",
        "left_port": "blk",
        "cause_of_leaving": "remains on board",
        "sign_with_mark": "n",
        "notes": "blk"
    },
    {
        "id": "vtls004634767_1_13",
        "type": "sailor",
        "parent": "vtls004634767",
        "name": "abrim jones",
        "dob": "1870",
        "age": "blk",
        "place_of_birth": "portmadoc",
        "home_address": "blk",
        "f": "blk",
        "name_of_ship": "catherine hendry",
        "ship_port": "aberystwyth",
        "date_leaving": "continued",
        "joined_ship_date": "blk",
        "joined_at_port": "blk",
        "capacity": "ordinary seaman",
        "date_left": "1893-10-20",
        "left_port": "porthmadog",
        "cause_of_leaving": "discharged",
        "sign_with_mark": "n",
        "notes": "possibly the first name is 'abraham'"
    },
    {
        "id": "vtls004634767_1_11",
        "type": "sailor",
        "parent": "vtls004634767",
        "name": "evan jones",
        "dob": "1853",
        "age": "blk",
        "place_of_birth": "aberystwyth",
        "home_address": "36 bridge street, aberystwyth",
        "f": "36 bridge street, aberystwyth",
        "name_of_ship": "catherine hendry",
        "ship_port": "aberystwyth",
        "date_leaving": "continued",
        "joined_ship_date": "blk",
        "joined_at_port": "blk",
        "capacity": "master",
        "date_left": "1893-10-20",
        "left_port": "porthmadog",
        "cause_of_leaving": "discharged",
        "sign_with_mark": "n",
        "notes": "blk"
    },
    {
        "id": "vtls004634767_0_11",
        "type": "sailor",
        "parent": "vtls004634767",
        "name": "evan jones",
        "dob": "1849",
        "age": "blk",
        "place_of_birth": "aberystwyth",
        "home_address": "36 bridge street, aberystwyth",
        "f": "36 bridge street, aberystwyth",
        "name_of_ship": "catherine hendry",
        "ship_port": "aberystwyth",
        "date_leaving": "1888",
        "joined_ship_date": "continued",
        "joined_at_port": "blk",
        "capacity": "master",
        "date_left": "blk",
        "left_port": "blk",
        "cause_of_leaving": "remains on board",
        "sign_with_mark": "n",
        "notes": "blk"
    },
    {
        "id": "vtls004634762_1_15",
        "type": "sailor",
        "parent": "vtls004634762",
        "name": "john etheridge",
        "dob": "1840",
        "age": "blk",
        "place_of_birth": "portmadoc",
        "home_address": "blk",
        "f": "blk",
        "name_of_ship": "eagle eyed",
        "ship_port": "aberystwyth",
        "date_leaving": "1892",
        "joined_ship_date": "continued",
        "joined_at_port": "blk",
        "capacity": "able seaman",
        "date_left": "1893-01-07",
        "left_port": "porthmadog",
        "cause_of_leaving": "discharged",
        "sign_with_mark": "n",
        "notes": "blk"
    },
    {
        "id": "vtls004634762_1_14",
        "type": "sailor",
        "parent": "vtls004634762",
        "name": "thomas jones",
        "dob": "1872",
        "age": "blk",
        "place_of_birth": "portmadoc",
        "home_address": "blk",
        "f": "blk",
        "name_of_ship": "eagle eyed",
        "ship_port": "aberystwyth",
        "date_leaving": "1892",
        "joined_ship_date": "continued",
        "joined_at_port": "blk",
        "capacity": "ordinary seaman",
        "date_left": "1892-10-20",
        "left_port": "porthmadog",
        "cause_of_leaving": "discharged",
        "sign_with_mark": "n",
        "notes": "blk"
    },
    {
        "id": "vtls004634767_1_12",
        "type": "sailor",
        "parent": "vtls004634767",
        "name": "john eathridge",
        "dob": "1836",
        "age": "blk",
        "place_of_birth": "portmadoc",
        "home_address": "blk",
        "f": "blk",
        "name_of_ship": "catherine hendry",
        "ship_port": "aberystwyth",
        "date_leaving": "continued",
        "joined_ship_date": "blk",
        "joined_at_port": "blk",
        "capacity": "mate",
        "date_left": "1893-10-20",
        "left_port": "porthmadog",
        "cause_of_leaving": "discharged",
        "sign_with_mark": "n",
        "notes": "blk"
    },
    {
        "id": "vtls004634767_0_12",
        "type": "sailor",
        "parent": "vtls004634767",
        "name": "john etheridge",
        "dob": "1835",
        "age": "blk",
        "place_of_birth": "portmadoc",
        "home_address": "blk",
        "f": "blk",
        "name_of_ship": "catherine hendry",
        "ship_port": "aberystwyth",
        "date_leaving": "1892",
        "joined_ship_date": "continued",
        "joined_at_port": "blk",
        "capacity": "mate",
        "date_left": "blk",
        "left_port": "blk",
        "cause_of_leaving": "remains on board",
        "sign_with_mark": "n",
        "notes": "blk"
    },
    {
        "id": "vtls004634767_0_14",
        "type": "sailor",
        "parent": "vtls004634767",
        "name": "david jones",
        "dob": "1875",
        "age": "blk",
        "place_of_birth": "portmadoc",
        "home_address": "blk",
        "f": "blk",
        "name_of_ship": "first ship",
        "ship_port": "blk",
        "date_leaving": "blk",
        "joined_ship_date": "1893-03-19",
        "joined_at_port": "blk",
        "capacity": "boy",
        "date_left": "1893-06-16",
        "left_port": "porthmadog",
        "cause_of_leaving": "discharged",
        "sign_with_mark": "n",
        "notes": "blk"
    },
    {
        "id": "vtls004634767_2_11",
        "type": "sailor",
        "parent": "vtls004634767",
        "name": "evan jones",
        "dob": "blk",
        "age": "42",
        "place_of_birth": "aberystwyth",
        "home_address": "36 bridge street, aberystwyth",
        "f": "36 bridge street, aberystwyth",
        "name_of_ship": "catherine hendry",
        "ship_port": "aberystwyth",
        "date_leaving": "1893",
        "joined_ship_date": "1894-03-16",
        "joined_at_port": "portmadoc",
        "capacity": "master",
        "date_left": "1894-06-30",
        "left_port": "blk",
        "cause_of_leaving": "remains on board",
        "sign_with_mark": "n",
        "notes": "blk"
    },
    {
        "id": "vtls004634767_3_11",
        "type": "sailor",
        "parent": "vtls004634767",
        "name": "evan jones",
        "dob": "1854",
        "age": "blk",
        "place_of_birth": "aberystwyth",
        "home_address": "36 bridge street, aberystwith",
        "f": "36 bridge street, aberystwith",
        "name_of_ship": "catherine hendry",
        "ship_port": "aberystwyth",
        "date_leaving": "continued",
        "joined_ship_date": "blk",
        "joined_at_port": "blk",
        "capacity": "master",
        "date_left": "blk",
        "left_port": "blk",
        "cause_of_leaving": "remains on board",
        "sign_with_mark": "n",
        "notes": "blk"
    },
    {
        "id": "vtls004634767_2_13",
        "type": "sailor",
        "parent": "vtls004634767",
        "name": "hugh roberts",
        "dob": "blk",
        "age": "17",
        "place_of_birth": "portmadoc",
        "home_address": "blk",
        "f": "blk",
        "name_of_ship": "catherine hendry",
        "ship_port": "aberystwyth",
        "date_leaving": "1893",
        "joined_ship_date": "1894-03-16",
        "joined_at_port": "portmadoc",
        "capacity": "ordinary seaman",
        "date_left": "1894-06-30",
        "left_port": "blk",
        "cause_of_leaving": "remains on board",
        "sign_with_mark": "y",
        "notes": "blk"
    },
    {
        "id": "vtls004634767_1_14",
        "type": "sailor",
        "parent": "vtls004634767",
        "name": "william jones",
        "dob": "1876",
        "age": "blk",
        "place_of_birth": "portmadoc",
        "home_address": "blk",
        "f": "blk",
        "name_of_ship": "catherine hendry",
        "ship_port": "aberystwyth",
        "date_leaving": "continued",
        "joined_ship_date": "blk",
        "joined_at_port": "blk",
        "capacity": "ordinary seaman",
        "date_left": "1893-10-20",
        "left_port": "porthmadog",
        "cause_of_leaving": "discharged",
        "sign_with_mark": "n",
        "notes": "blk"
    },
    {
        "id": "vtls004634767_3_13",
        "type": "sailor",
        "parent": "vtls004634767",
        "name": "hugh roberts",
        "dob": "1878",
        "age": "blk",
        "place_of_birth": "portmadoc",
        "home_address": "blk",
        "f": "blk",
        "name_of_ship": "catherine hendry",
        "ship_port": "aberystwyth",
        "date_leaving": "continued",
        "joined_ship_date": "blk",
        "joined_at_port": "blk",
        "capacity": "ordinary seaman",
        "date_left": "1894-11-12",
        "left_port": "porthmadog",
        "cause_of_leaving": "discharged",
        "sign_with_mark": "y",
        "notes": "blk"
    },
    {
        "id": "vtls004634767_2_12",
        "type": "sailor",
        "parent": "vtls004634767",
        "name": "evan williams",
        "dob": "blk",
        "age": "30",
        "place_of_birth": "portmadoc",
        "home_address": "blk",
        "f": "blk",
        "name_of_ship": "catherine hendry",
        "ship_port": "aberystwyth",
        "date_leaving": "1893",
        "joined_ship_date": "1894-03-16",
        "joined_at_port": "portmadoc",
        "capacity": "mate",
        "date_left": "1894-06-30",
        "left_port": "blk",
        "cause_of_leaving": "remains on board",
        "sign_with_mark": "n",
        "notes": "blk"
    },
    {
        "id": "vtls004634767_2_14",
        "type": "sailor",
        "parent": "vtls004634767",
        "name": "m h morris",
        "dob": "blk",
        "age": "15",
        "place_of_birth": "portmadoc",
        "home_address": "blk",
        "f": "blk",
        "name_of_ship": "catherine hendry",
        "ship_port": "aberystwyth",
        "date_leaving": "1893",
        "joined_ship_date": "1894-03-16",
        "joined_at_port": "portmadoc",
        "capacity": "cook",
        "date_left": "1894-06-30",
        "left_port": "blk",
        "cause_of_leaving": "remains on board",
        "sign_with_mark": "n",
        "notes": "blk"
    },
    {
        "id": "vtls004634767_3_12",
        "type": "sailor",
        "parent": "vtls004634767",
        "name": "evan williams",
        "dob": "1864",
        "age": "blk",
        "place_of_birth": "portmadoc",
        "home_address": "blk",
        "f": "blk",
        "name_of_ship": "catherine hendry",
        "ship_port": "aberystwyth",
        "date_leaving": "continued",
        "joined_ship_date": "blk",
        "joined_at_port": "blk",
        "capacity": "mate",
        "date_left": "1894-11-12",
        "left_port": "porthmadog",
        "cause_of_leaving": "discharged",
        "sign_with_mark": "n",
        "notes": "blk"
    },
    {
        "id": "vtls004634767_3_14",
        "type": "sailor",
        "parent": "vtls004634767",
        "name": "morris morris",
        "dob": "1879",
        "age": "blk",
        "place_of_birth": "portmadoc",
        "home_address": "blk",
        "f": "blk",
        "name_of_ship": "catherine hendry",
        "ship_port": "aberystwyth",
        "date_leaving": "continued",
        "joined_ship_date": "blk",
        "joined_at_port": "blk",
        "capacity": "cook",
        "date_left": "1894-11-12",
        "left_port": "porthmadog",
        "cause_of_leaving": "discharged",
        "sign_with_mark": "n",
        "notes": "blk"
    },
    {
        "id": "vtls004634828_0_11",
        "type": "sailor",
        "parent": "vtls004634828",
        "name": "evan jones",
        "dob": "blk",
        "age": "41",
        "place_of_birth": "aberystwyth",
        "home_address": "36 bridge street, aberystwyth",
        "f": "36 bridge street, aberystwyth",
        "name_of_ship": "catherine hendry",
        "ship_port": "aberystwyth",
        "date_leaving": "1895",
        "joined_ship_date": "1896-01-02",
        "joined_at_port": "portmadoc",
        "capacity": "master",
        "date_left": "blk",
        "left_port": "blk",
        "cause_of_leaving": "remains on board",
        "sign_with_mark": "n",
        "notes": "blk"
    },
    {
        "id": "vtls004634828_1_13",
        "type": "sailor",
        "parent": "vtls004634828",
        "name": "thomas donaldson",
        "dob": "1878",
        "age": "blk",
        "place_of_birth": "aberporth",
        "home_address": "blk",
        "f": "blk",
        "name_of_ship": "catherine hendry",
        "ship_port": "aberystwyth",
        "date_leaving": "continued",
        "joined_ship_date": "blk",
        "joined_at_port": "blk",
        "capacity": "ordinary seaman",
        "date_left": "1896-08-21",
        "left_port": "porthmadog",
        "cause_of_leaving": "discharged",
        "sign_with_mark": "n",
        "notes": "blk"
    },
    {
        "id": "vtls004634828_1_11",
        "type": "sailor",
        "parent": "vtls004634828",
        "name": "evan jones",
        "dob": "1852",
        "age": "blk",
        "place_of_birth": "aberystwyth",
        "home_address": "bridge street, aberstwyth",
        "f": "bridge street, aberstwyth",
        "name_of_ship": "catherine hendry",
        "ship_port": "aberystwyth",
        "date_leaving": "continued",
        "joined_ship_date": "blk",
        "joined_at_port": "blk",
        "capacity": "master",
        "date_left": "blk",
        "left_port": "blk",
        "cause_of_leaving": "remains on board",
        "sign_with_mark": "n",
        "notes": "blk"
    },
    {
        "id": "vtls004634828_0_13",
        "type": "sailor",
        "parent": "vtls004634828",
        "name": "tom donaldson",
        "dob": "blk",
        "age": "19",
        "place_of_birth": "aberporth",
        "home_address": "blk",
        "f": "blk",
        "name_of_ship": "catherine hendry",
        "ship_port": "aberystwyth",
        "date_leaving": "1895",
        "joined_ship_date": "1896-01-02",
        "joined_at_port": "portmadoc",
        "capacity": "ordinary seaman",
        "date_left": "blk",
        "left_port": "blk",
        "cause_of_leaving": "remains on board",
        "sign_with_mark": "n",
        "notes": "blk"
    },
    {
        "id": "vtls004634828_1_14",
        "type": "sailor",
        "parent": "vtls004634828",
        "name": "thomas jones",
        "dob": "1878",
        "age": "blk",
        "place_of_birth": "holyhead",
        "home_address": "blk",
        "f": "blk",
        "name_of_ship": "catherine hendry",
        "ship_port": "aberystwyth",
        "date_leaving": "continued",
        "joined_ship_date": "blk",
        "joined_at_port": "blk",
        "capacity": "ordinary seaman",
        "date_left": "1896-08-21",
        "left_port": "porthmadog",
        "cause_of_leaving": "discharged",
        "sign_with_mark": "n",
        "notes": "blk"
    },
    {
        "id": "vtls004634828_0_14",
        "type": "sailor",
        "parent": "vtls004634828",
        "name": "llewelyn williams",
        "dob": "blk",
        "age": "19",
        "place_of_birth": "holyhead",
        "home_address": "blk",
        "f": "blk",
        "name_of_ship": "catherine hendry",
        "ship_port": "aberystwyth",
        "date_leaving": "1895",
        "joined_ship_date": "1896-01-02",
        "joined_at_port": "portmadoc",
        "capacity": "cook",
        "date_left": "blk",
        "left_port": "blk",
        "cause_of_leaving": "remains on board",
        "sign_with_mark": "n",
        "notes": "blk"
    },
    {
        "id": "vtls004634828_1_12",
        "type": "sailor",
        "parent": "vtls004634828",
        "name": "evan williams",
        "dob": "1865",
        "age": "blk",
        "place_of_birth": "portmadoc",
        "home_address": "blk",
        "f": "blk",
        "name_of_ship": "catherine hendry",
        "ship_port": "aberystwyth",
        "date_leaving": "continued",
        "joined_ship_date": "blk",
        "joined_at_port": "blk",
        "capacity": "mate",
        "date_left": "1896-11-18",
        "left_port": "aberystwyth",
        "cause_of_leaving": "discharged",
        "sign_with_mark": "n",
        "notes": "blk"
    },
    {
        "id": "vtls004634828_0_12",
        "type": "sailor",
        "parent": "vtls004634828",
        "name": "evan williams",
        "dob": "blk",
        "age": "30",
        "place_of_birth": "portmadoc",
        "home_address": "blk",
        "f": "blk",
        "name_of_ship": "catherine hendry",
        "ship_port": "aberystwyth",
        "date_leaving": "1895",
        "joined_ship_date": "1896-01-02",
        "joined_at_port": "portmadoc",
        "capacity": "mate",
        "date_left": "blk",
        "left_port": "blk",
        "cause_of_leaving": "remains on board",
        "sign_with_mark": "n",
        "notes": "blk"
    },
    {
        "id": "vtls004634828_1_15",
        "type": "sailor",
        "parent": "vtls004634828",
        "name": "thomas jones",
        "dob": "1875",
        "age": "blk",
        "place_of_birth": "aberporth",
        "home_address": "blk",
        "f": "blk",
        "name_of_ship": "michael kelly",
        "ship_port": "carnarvon",
        "date_leaving": "1896",
        "joined_ship_date": "1896-08-21",
        "joined_at_port": "portmadoc",
        "capacity": "ordinary seaman",
        "date_left": "1896-10-22",
        "left_port": "porthmadog",
        "cause_of_leaving": "discharged",
        "sign_with_mark": "n",
        "notes": "port which the 'michael kelly' belongs to may be incorrect."
    },
    {
        "id": "vtls004634842_0_11",
        "type": "sailor",
        "parent": "vtls004634842",
        "name": "evan jones",
        "dob": "1852",
        "age": "blk",
        "place_of_birth": "aberystwyth",
        "home_address": "bridge street, aberystwyth",
        "f": "bridge street, aberystwyth",
        "name_of_ship": "catherine hendry",
        "ship_port": "aberystwyth",
        "date_leaving": "1896",
        "joined_ship_date": "1897-01-01",
        "joined_at_port": "aberystwyth",
        "capacity": "master",
        "date_left": "blk",
        "left_port": "blk",
        "cause_of_leaving": "remains on board",
        "sign_with_mark": "n",
        "notes": "blk"
    },
    {
        "id": "vtls004634842_1_13",
        "type": "sailor",
        "parent": "vtls004634842",
        "name": "hugh williams",
        "dob": "1877",
        "age": "blk",
        "place_of_birth": "criccieth",
        "home_address": "blk",
        "f": "blk",
        "name_of_ship": "catherine hendry",
        "ship_port": "aberystwyth",
        "date_leaving": "continued",
        "joined_ship_date": "blk",
        "joined_at_port": "blk",
        "capacity": "ordinary seaman",
        "date_left": "1897-09-28",
        "left_port": "aberystwyth",
        "cause_of_leaving": "discharged",
        "sign_with_mark": "n",
        "notes": "blk"
    },
    {
        "id": "vtls004634828_1_16",
        "type": "sailor",
        "parent": "vtls004634828",
        "name": "john hughes",
        "dob": "1861",
        "age": "blk",
        "place_of_birth": "portmadoc",
        "home_address": "blk",
        "f": "blk",
        "name_of_ship": "sarah davies",
        "ship_port": "aberystwyth",
        "date_leaving": "1896",
        "joined_ship_date": "1896-10-29",
        "joined_at_port": "portmadoc",
        "capacity": "able seaman",
        "date_left": "1896-11-18",
        "left_port": "aberystwyth",
        "cause_of_leaving": "discharged",
        "sign_with_mark": "n",
        "notes": "blk"
    },
    {
        "id": "vtls004634842_0_13",
        "type": "sailor",
        "parent": "vtls004634842",
        "name": "john jones",
        "dob": "1869",
        "age": "blk",
        "place_of_birth": "abersoch",
        "home_address": "blk",
        "f": "blk",
        "name_of_ship": "catherine hendry",
        "ship_port": "aberystwyth",
        "date_leaving": "1896",
        "joined_ship_date": "1897-01-01",
        "joined_at_port": "aberystwyth",
        "capacity": "boy",
        "date_left": "1897-07-05",
        "left_port": "porthmadog",
        "cause_of_leaving": "discharged",
        "sign_with_mark": "n",
        "notes": "blk"
    },
    {
        "id": "vtls004634842_0_12",
        "type": "sailor",
        "parent": "vtls004634842",
        "name": "evan williams",
        "dob": "1869",
        "age": "blk",
        "place_of_birth": "portmadoc",
        "home_address": "blk",
        "f": "blk",
        "name_of_ship": "catherine hendry",
        "ship_port": "aberystwyth",
        "date_leaving": "1896",
        "joined_ship_date": "1897-01-01",
        "joined_at_port": "aberystwyth",
        "capacity": "mate",
        "date_left": "blk",
        "left_port": "blk",
        "cause_of_leaving": "remains on board",
        "sign_with_mark": "n",
        "notes": "blk"
    },
    {
        "id": "vtls004634842_1_12",
        "type": "sailor",
        "parent": "vtls004634842",
        "name": "william jones",
        "dob": "1854",
        "age": "blk",
        "place_of_birth": "criccieth",
        "home_address": "blk",
        "f": "blk",
        "name_of_ship": "catherine hendry",
        "ship_port": "aberystwyth",
        "date_leaving": "continued",
        "joined_ship_date": "blk",
        "joined_at_port": "blk",
        "capacity": "mate",
        "date_left": "1897-09-28",
        "left_port": "aberystwyth",
        "cause_of_leaving": "discharged",
        "sign_with_mark": "n",
        "notes": "blk"
    },
    {
        "id": "vtls004634842_1_11",
        "type": "sailor",
        "parent": "vtls004634842",
        "name": "evan jones",
        "dob": "1853",
        "age": "blk",
        "place_of_birth": "aberystwyth",
        "home_address": "aberystwyth",
        "f": "aberystwyth",
        "name_of_ship": "catherine hendry",
        "ship_port": "aberystwyth",
        "date_leaving": "continued",
        "joined_ship_date": "blk",
        "joined_at_port": "blk",
        "capacity": "master",
        "date_left": "blk",
        "left_port": "blk",
        "cause_of_leaving": "remains on board",
        "sign_with_mark": "n",
        "notes": "blk"
    },
    {
        "id": "vtls004634849_0_11",
        "type": "sailor",
        "parent": "vtls004634849",
        "name": "evan jones",
        "dob": "1853",
        "age": "blk",
        "place_of_birth": "aberystwyth",
        "home_address": "bridge street, aberystwyth",
        "f": "bridge street, aberystwyth",
        "name_of_ship": "catherine hendry",
        "ship_port": "aberystwyth",
        "date_leaving": "1897",
        "joined_ship_date": "1898-01-01",
        "joined_at_port": "aberystwyth",
        "capacity": "master",
        "date_left": "1989-03-25",
        "left_port": "off lundy",
        "cause_of_leaving": "ship foundered and discharged",
        "sign_with_mark": "n",
        "notes": "blk"
    },
    {
        "id": "vtls004634849_0_12",
        "type": "sailor",
        "parent": "vtls004634849",
        "name": "william k roberts",
        "dob": "1867",
        "age": "blk",
        "place_of_birth": "caernarfon",
        "home_address": "blk",
        "f": "blk",
        "name_of_ship": "catherine hendry",
        "ship_port": "aberystwyth",
        "date_leaving": "1897",
        "joined_ship_date": "1898-02-14",
        "joined_at_port": "aberystwyth",
        "capacity": "mate",
        "date_left": "1989-03-25",
        "left_port": "off lundy",
        "cause_of_leaving": "ship foundered and discharged",
        "sign_with_mark": "n",
        "notes": "blk"
    },
    {
        "id": "vtls004634849_0_14",
        "type": "sailor",
        "parent": "vtls004634849",
        "name": "owen k roberts",
        "dob": "1882",
        "age": "blk",
        "place_of_birth": "caernarfon",
        "home_address": "blk",
        "f": "blk",
        "name_of_ship": "catherine hendry",
        "ship_port": "aberystwyth",
        "date_leaving": "1897",
        "joined_ship_date": "1898-02-14",
        "joined_at_port": "aberystwyth",
        "capacity": "cook",
        "date_left": "1989-03-25",
        "left_port": "off lundy",
        "cause_of_leaving": "ship foundered and discharged",
        "sign_with_mark": "n",
        "notes": "blk"
    },
    {
        "id": "vtls004634849_0_13",
        "type": "sailor",
        "parent": "vtls004634849",
        "name": "david jones",
        "dob": "1880",
        "age": "blk",
        "place_of_birth": "caernarfon",
        "home_address": "blk",
        "f": "blk",
        "name_of_ship": "catherine hendry",
        "ship_port": "aberystwyth",
        "date_leaving": "1897",
        "joined_ship_date": "1898-02-14",
        "joined_at_port": "aberystwyth",
        "capacity": "boy",
        "date_left": "1989-03-25",
        "left_port": "off lundy",
        "cause_of_leaving": "ship foundered and discharged",
        "sign_with_mark": "n",
        "notes": "blk"
    },
    {
        "id": "vtls004634842_1_14",
        "type": "sailor",
        "parent": "vtls004634842",
        "name": "griffith jones",
        "dob": "1883",
        "age": "blk",
        "place_of_birth": "criccieth",
        "home_address": "blk",
        "f": "blk",
        "name_of_ship": "catherine hendry",
        "ship_port": "aberystwyth",
        "date_leaving": "continued",
        "joined_ship_date": "blk",
        "joined_at_port": "blk",
        "capacity": "boy",
        "date_left": "1897-09-28",
        "left_port": "aberystwyth",
        "cause_of_leaving": "discharged",
        "sign_with_mark": "n",
        "notes": "blk"
    }
]