[
    {
        "id": "vtls004657353_0_11",
        "type": "sailor",
        "parent": "vtls004657353",
        "name": "william owens",
        "dob": "blk",
        "age": "45",
        "place_of_birth": "aberystwyth",
        "home_address": "blk",
        "f": "blk",
        "name_of_ship": "ellen beatrice",
        "ship_port": "aberystwyth",
        "date_leaving": "1865-12-31",
        "joined_ship_date": "1866-12-31",
        "joined_at_port": "ardrossan",
        "capacity": "master",
        "date_left": "1866-06-30",
        "left_port": "liverpool",
        "cause_of_leaving": "remains on board",
        "sign_with_mark": "n",
        "notes": "blk"
    },
    {
        "id": "vtls004657353_0_12",
        "type": "sailor",
        "parent": "vtls004657353",
        "name": "james edwards",
        "dob": "blk",
        "age": "36",
        "place_of_birth": "aberystwyth",
        "home_address": "blk",
        "f": "blk",
        "name_of_ship": "ellen beatrice",
        "ship_port": "aberystwyth",
        "date_leaving": "1865-12-31",
        "joined_ship_date": "1866-12-31",
        "joined_at_port": "ardrossan",
        "capacity": "mate",
        "date_left": "1866-06-30",
        "left_port": "liverpool",
        "cause_of_leaving": "remains on board",
        "sign_with_mark": "n",
        "notes": "blk"
    },
    {
        "id": "vtls004657353_0_14",
        "type": "sailor",
        "parent": "vtls004657353",
        "name": "john morgan",
        "dob": "blk",
        "age": "20",
        "place_of_birth": "aberaeron",
        "home_address": "blk",
        "f": "blk",
        "name_of_ship": "ellen beatrice",
        "ship_port": "aberystwyth",
        "date_leaving": "1865-12-31",
        "joined_ship_date": "1866-12-31",
        "joined_at_port": "ardrossan",
        "capacity": "able seaman",
        "date_left": "1866-03-05",
        "left_port": "runcorn",
        "cause_of_leaving": "discharged",
        "sign_with_mark": "n",
        "notes": "blk"
    },
    {
        "id": "vtls004657353_0_13",
        "type": "sailor",
        "parent": "vtls004657353",
        "name": "john thomas",
        "dob": "blk",
        "age": "24",
        "place_of_birth": "cardigan",
        "home_address": "blk",
        "f": "blk",
        "name_of_ship": "ellen beatrice",
        "ship_port": "aberystwyth",
        "date_leaving": "1865-12-31",
        "joined_ship_date": "1866-12-31",
        "joined_at_port": "ardrossan",
        "capacity": "able seaman",
        "date_left": "1866-03-05",
        "left_port": "runcorn",
        "cause_of_leaving": "discharged",
        "sign_with_mark": "n",
        "notes": "blk"
    },
    {
        "id": "vtls004657353_0_17",
        "type": "sailor",
        "parent": "vtls004657353",
        "name": "john griffiths",
        "dob": "blk",
        "age": "19",
        "place_of_birth": "aberystwyth",
        "home_address": "blk",
        "f": "blk",
        "name_of_ship": "rose [brib]",
        "ship_port": "aberystwyth",
        "date_leaving": "[1866-02-27]",
        "joined_ship_date": "1866-03-05",
        "joined_at_port": "runcorn",
        "capacity": "ordinary seaman",
        "date_left": "1866-06-30",
        "left_port": "liverpool",
        "cause_of_leaving": "remains on board",
        "sign_with_mark": "n",
        "notes": "blk"
    },
    {
        "id": "vtls004657353_0_15",
        "type": "sailor",
        "parent": "vtls004657353",
        "name": "william cumming",
        "dob": "blk",
        "age": "16",
        "place_of_birth": "bridgewater",
        "home_address": "blk",
        "f": "blk",
        "name_of_ship": "ellen beatrice",
        "ship_port": "aberystwyth",
        "date_leaving": "1865-12-31",
        "joined_ship_date": "1866-12-31",
        "joined_at_port": "ardrossan",
        "capacity": "boy",
        "date_left": "1866-06-30",
        "left_port": "liverpool",
        "cause_of_leaving": "remains on board",
        "sign_with_mark": "n",
        "notes": "blk"
    },
    {
        "id": "vtls004657353_0_16",
        "type": "sailor",
        "parent": "vtls004657353",
        "name": "john lee",
        "dob": "blk",
        "age": "30",
        "place_of_birth": "douglas",
        "home_address": "blk",
        "f": "blk",
        "name_of_ship": "ellen beatrice",
        "ship_port": "aberystwyth",
        "date_leaving": "1865-12-31",
        "joined_ship_date": "1866-12-31",
        "joined_at_port": "ardrossan",
        "capacity": "able seaman",
        "date_left": "1866-06-30",
        "left_port": "liverpool",
        "cause_of_leaving": "remains on board",
        "sign_with_mark": "n",
        "notes": "blk"
    },
    {
        "id": "vtls004657353_1_14",
        "type": "sailor",
        "parent": "vtls004657353",
        "name": "john griffith",
        "dob": "blk",
        "age": "21",
        "place_of_birth": "aberystwyth",
        "home_address": "blk",
        "f": "blk",
        "name_of_ship": "ellen beatrice",
        "ship_port": "aberystwyth",
        "date_leaving": "1866-06-30",
        "joined_ship_date": "1866-07-01",
        "joined_at_port": "liverpool",
        "capacity": "ordinary seaman",
        "date_left": "blk",
        "left_port": "blk",
        "cause_of_leaving": "remains on board",
        "sign_with_mark": "n",
        "notes": "blk"
    },
    {
        "id": "vtls004657353_1_13",
        "type": "sailor",
        "parent": "vtls004657353",
        "name": "thomas jones",
        "dob": "blk",
        "age": "22",
        "place_of_birth": "aberystwyth",
        "home_address": "blk",
        "f": "blk",
        "name_of_ship": "ellen beatrice",
        "ship_port": "aberystwyth",
        "date_leaving": "1866-06-30",
        "joined_ship_date": "1866-07-01",
        "joined_at_port": "liverpool",
        "capacity": "able seaman",
        "date_left": "blk",
        "left_port": "blk",
        "cause_of_leaving": "remains on board",
        "sign_with_mark": "n",
        "notes": "blk"
    },
    {
        "id": "vtls004657353_1_12",
        "type": "sailor",
        "parent": "vtls004657353",
        "name": "richard thackham",
        "dob": "blk",
        "age": "24",
        "place_of_birth": "aberystwyth",
        "home_address": "blk",
        "f": "blk",
        "name_of_ship": "ellen beatrice",
        "ship_port": "aberystwyth",
        "date_leaving": "1866-06-30",
        "joined_ship_date": "1866-07-01",
        "joined_at_port": "liverpool",
        "capacity": "mate",
        "date_left": "blk",
        "left_port": "blk",
        "cause_of_leaving": "remains on board",
        "sign_with_mark": "n",
        "notes": "blk"
    },
    {
        "id": "vtls004657353_1_11",
        "type": "sailor",
        "parent": "vtls004657353",
        "name": "william owens",
        "dob": "blk",
        "age": "45",
        "place_of_birth": "aberystwyth",
        "home_address": "blk",
        "f": "blk",
        "name_of_ship": "ellen beatrice",
        "ship_port": "aberystwyth",
        "date_leaving": "1866-06-30",
        "joined_ship_date": "1866-07-01",
        "joined_at_port": "liverpool",
        "capacity": "master",
        "date_left": "blk",
        "left_port": "blk",
        "cause_of_leaving": "remains on board",
        "sign_with_mark": "n",
        "notes": "blk"
    },
    {
        "id": "vtls004657353_1_15",
        "type": "sailor",
        "parent": "vtls004657353",
        "name": "w s griffiths",
        "dob": "blk",
        "age": "15",
        "place_of_birth": "aberystwyth",
        "home_address": "blk",
        "f": "blk",
        "name_of_ship": "ellen beatrice",
        "ship_port": "aberystwyth",
        "date_leaving": "1866-06-30",
        "joined_ship_date": "1866-07-01",
        "joined_at_port": "liverpool",
        "capacity": "boy",
        "date_left": "blk",
        "left_port": "blk",
        "cause_of_leaving": "remains on board",
        "sign_with_mark": "n",
        "notes": "blk"
    }
]