[
    {
        "id": "vtls004959553_0_11",
        "type": "sailor",
        "parent": "vtls004959553",
        "name": "richard edwards",
        "dob": "blk",
        "age": "34",
        "place_of_birth": "aberystwyth",
        "home_address": "blk",
        "f": "blk",
        "name_of_ship": "sarah phillips",
        "ship_port": "aberystwyth",
        "date_leaving": "remains",
        "joined_ship_date": "1864-07-19",
        "joined_at_port": "cardiff",
        "capacity": "master",
        "date_left": "remains",
        "left_port": "blk",
        "cause_of_leaving": "remains on board",
        "sign_with_mark": "n",
        "notes": "blk"
    },
    {
        "id": "vtls004959553_0_12",
        "type": "sailor",
        "parent": "vtls004959553",
        "name": "john edwards",
        "dob": "blk",
        "age": "32",
        "place_of_birth": "aberystwyth",
        "home_address": "blk",
        "f": "blk",
        "name_of_ship": "sarah phillips",
        "ship_port": "aberystwyth",
        "date_leaving": "remains",
        "joined_ship_date": "1864-07-19",
        "joined_at_port": "cardiff",
        "capacity": "mate",
        "date_left": "1864-10-24",
        "left_port": "runcorn",
        "cause_of_leaving": "paid off",
        "sign_with_mark": "n",
        "notes": "blk"
    },
    {
        "id": "vtls004959553_0_13",
        "type": "sailor",
        "parent": "vtls004959553",
        "name": "isaac james trowes",
        "dob": "blk",
        "age": "18",
        "place_of_birth": "jamaica",
        "home_address": "blk",
        "f": "blk",
        "name_of_ship": "sarah phillips",
        "ship_port": "aberystwyth",
        "date_leaving": "remains",
        "joined_ship_date": "1864-07-19",
        "joined_at_port": "cardiff",
        "capacity": "cook & steward",
        "date_left": "1864-07-23",
        "left_port": "cardiff",
        "cause_of_leaving": "deserted",
        "sign_with_mark": "n",
        "notes": "blk"
    },
    {
        "id": "vtls004959553_0_17",
        "type": "sailor",
        "parent": "vtls004959553",
        "name": "john edwards",
        "dob": "blk",
        "age": "17",
        "place_of_birth": "aberystwyth",
        "home_address": "blk",
        "f": "blk",
        "name_of_ship": "sarah phillips",
        "ship_port": "aberystwyth",
        "date_leaving": "remains",
        "joined_ship_date": "1864-07-19",
        "joined_at_port": "cardiff",
        "capacity": "ordinary seaman",
        "date_left": "1864-10-24",
        "left_port": "runcorn",
        "cause_of_leaving": "paid off",
        "sign_with_mark": "n",
        "notes": "blk"
    },
    {
        "id": "vtls004959553_0_18",
        "type": "sailor",
        "parent": "vtls004959553",
        "name": "john demor",
        "dob": "blk",
        "age": "15",
        "place_of_birth": "aberystwyth",
        "home_address": "blk",
        "f": "blk",
        "name_of_ship": "sarah phillips",
        "ship_port": "aberystwyth",
        "date_leaving": "remains",
        "joined_ship_date": "1864-07-19",
        "joined_at_port": "cardiff",
        "capacity": "ordinary seaman",
        "date_left": "1864-10-24",
        "left_port": "runcorn",
        "cause_of_leaving": "paid off",
        "sign_with_mark": "n",
        "notes": "blk"
    },
    {
        "id": "vtls004959553_0_14",
        "type": "sailor",
        "parent": "vtls004959553",
        "name": "john jones",
        "dob": "blk",
        "age": "22",
        "place_of_birth": "aberystwyth",
        "home_address": "blk",
        "f": "blk",
        "name_of_ship": "sarah phillips",
        "ship_port": "aberystwyth",
        "date_leaving": "remains",
        "joined_ship_date": "1864-07-19",
        "joined_at_port": "cardiff",
        "capacity": "able seaman",
        "date_left": "1864-10-24",
        "left_port": "runcorn",
        "cause_of_leaving": "paid off",
        "sign_with_mark": "n",
        "notes": "blk"
    },
    {
        "id": "vtls004959553_0_16",
        "type": "sailor",
        "parent": "vtls004959553",
        "name": "david williams",
        "dob": "blk",
        "age": "21",
        "place_of_birth": "fishguard",
        "home_address": "blk",
        "f": "blk",
        "name_of_ship": "[brunette]",
        "ship_port": "london",
        "date_leaving": "1864-07-13",
        "joined_ship_date": "1864-07-19",
        "joined_at_port": "cardiff",
        "capacity": "able seaman",
        "date_left": "1864-10-24",
        "left_port": "runcorn",
        "cause_of_leaving": "paid off",
        "sign_with_mark": "n",
        "notes": "blk"
    },
    {
        "id": "vtls004959553_0_15",
        "type": "sailor",
        "parent": "vtls004959553",
        "name": "john thomas",
        "dob": "blk",
        "age": "20",
        "place_of_birth": "fishguard",
        "home_address": "blk",
        "f": "blk",
        "name_of_ship": "[brunette]",
        "ship_port": "london",
        "date_leaving": "1864-07-13",
        "joined_ship_date": "1864-07-19",
        "joined_at_port": "cardiff",
        "capacity": "able seaman",
        "date_left": "1864-10-24",
        "left_port": "runcorn",
        "cause_of_leaving": "paid off",
        "sign_with_mark": "n",
        "notes": "blk"
    },
    {
        "id": "vtls004959553_0_20",
        "type": "sailor",
        "parent": "vtls004959553",
        "name": "evan davies",
        "dob": "blk",
        "age": "19",
        "place_of_birth": "aberaeron",
        "home_address": "blk",
        "f": "blk",
        "name_of_ship": "bodotria",
        "ship_port": "aberystwyth",
        "date_leaving": "1864",
        "joined_ship_date": "1864-07-19",
        "joined_at_port": "cardiff",
        "capacity": "able seaman",
        "date_left": "1864-10-24",
        "left_port": "runcorn",
        "cause_of_leaving": "paid off",
        "sign_with_mark": "n",
        "notes": "blk"
    },
    {
        "id": "vtls004959553_0_19",
        "type": "sailor",
        "parent": "vtls004959553",
        "name": "john owen",
        "dob": "blk",
        "age": "21",
        "place_of_birth": "aberaeron",
        "home_address": "blk",
        "f": "blk",
        "name_of_ship": "bodotria",
        "ship_port": "aberystwyth",
        "date_leaving": "1864",
        "joined_ship_date": "1864-07-19",
        "joined_at_port": "cardiff",
        "capacity": "able seaman",
        "date_left": "1864-10-24",
        "left_port": "runcorn",
        "cause_of_leaving": "paid off",
        "sign_with_mark": "n",
        "notes": "blk"
    },
    {
        "id": "vtls004959556_0_11",
        "type": "sailor",
        "parent": "vtls004959556",
        "name": "richard edwards",
        "dob": "blk",
        "age": "35",
        "place_of_birth": "aberystwyth",
        "home_address": "blk",
        "f": "blk",
        "name_of_ship": "sarah philips",
        "ship_port": "aberystwyth",
        "date_leaving": "remains",
        "joined_ship_date": "blk",
        "joined_at_port": "blk",
        "capacity": "master",
        "date_left": "blk",
        "left_port": "blk",
        "cause_of_leaving": "blk",
        "sign_with_mark": "n",
        "notes": "blk"
    },
    {
        "id": "vtls004959556_0_14",
        "type": "sailor",
        "parent": "vtls004959556",
        "name": "william phipps",
        "dob": "blk",
        "age": "66",
        "place_of_birth": "west indies",
        "home_address": "blk",
        "f": "blk",
        "name_of_ship": "sir r [abercrombie]",
        "ship_port": "london",
        "date_leaving": "blk",
        "joined_ship_date": "1866-02-15",
        "joined_at_port": "liverpool",
        "capacity": "cook & steward",
        "date_left": "1866-04-25",
        "left_port": "colon",
        "cause_of_leaving": "deserted",
        "sign_with_mark": "n",
        "notes": "blk"
    },
    {
        "id": "vtls004959556_0_16",
        "type": "sailor",
        "parent": "vtls004959556",
        "name": "william morgans",
        "dob": "blk",
        "age": "28",
        "place_of_birth": "aberystwyth",
        "home_address": "blk",
        "f": "blk",
        "name_of_ship": "sarah philips",
        "ship_port": "aberystwyth",
        "date_leaving": "blk",
        "joined_ship_date": "1866-02-15",
        "joined_at_port": "liverpool",
        "capacity": "able seaman",
        "date_left": "1866-07-31",
        "left_port": "london",
        "cause_of_leaving": "discharged",
        "sign_with_mark": "n",
        "notes": "blk"
    },
    {
        "id": "vtls004959556_0_19",
        "type": "sailor",
        "parent": "vtls004959556",
        "name": "thomas shelly",
        "dob": "blk",
        "age": "15",
        "place_of_birth": "fishguard",
        "home_address": "blk",
        "f": "blk",
        "name_of_ship": "problem",
        "ship_port": "[ipswich]",
        "date_leaving": "blk",
        "joined_ship_date": "1866-02-15",
        "joined_at_port": "liverpool",
        "capacity": "ordinary seaman",
        "date_left": "1866-07-31",
        "left_port": "london",
        "cause_of_leaving": "discharged",
        "sign_with_mark": "n",
        "notes": "blk"
    },
    {
        "id": "vtls004959556_0_17",
        "type": "sailor",
        "parent": "vtls004959556",
        "name": "richard pritchard",
        "dob": "blk",
        "age": "20",
        "place_of_birth": "caernarfon",
        "home_address": "blk",
        "f": "blk",
        "name_of_ship": "emily jane",
        "ship_port": "carnarvon",
        "date_leaving": "blk",
        "joined_ship_date": "1866-02-15",
        "joined_at_port": "liverpool",
        "capacity": "able seaman",
        "date_left": "1866-07-31",
        "left_port": "london",
        "cause_of_leaving": "discharged",
        "sign_with_mark": "n",
        "notes": "blk"
    },
    {
        "id": "vtls004959556_0_12",
        "type": "sailor",
        "parent": "vtls004959556",
        "name": "john edwards",
        "dob": "blk",
        "age": "34",
        "place_of_birth": "aberystwyth",
        "home_address": "blk",
        "f": "blk",
        "name_of_ship": "sarah philips",
        "ship_port": "aberystwyth",
        "date_leaving": "blk",
        "joined_ship_date": "1866-02-15",
        "joined_at_port": "liverpool",
        "capacity": "mate",
        "date_left": "1866-06-[05]",
        "left_port": "jamaica",
        "cause_of_leaving": "discharged",
        "sign_with_mark": "n",
        "notes": "blk"
    },
    {
        "id": "vtls004959556_0_18",
        "type": "sailor",
        "parent": "vtls004959556",
        "name": "thomas thomas",
        "dob": "blk",
        "age": "15",
        "place_of_birth": "cardigan",
        "home_address": "blk",
        "f": "blk",
        "name_of_ship": "amelia $",
        "ship_port": "liverpool",
        "date_leaving": "blk",
        "joined_ship_date": "1866-02-15",
        "joined_at_port": "liverpool",
        "capacity": "ordinary seaman",
        "date_left": "1866-07-31",
        "left_port": "london",
        "cause_of_leaving": "discharged",
        "sign_with_mark": "n",
        "notes": "blk"
    },
    {
        "id": "vtls004959556_0_15",
        "type": "sailor",
        "parent": "vtls004959556",
        "name": "john davis",
        "dob": "blk",
        "age": "21",
        "place_of_birth": "aberystwyth",
        "home_address": "blk",
        "f": "blk",
        "name_of_ship": "[empire]",
        "ship_port": "carnarvon",
        "date_leaving": "blk",
        "joined_ship_date": "1866-02-15",
        "joined_at_port": "liverpool",
        "capacity": "able seaman",
        "date_left": "1866-07-31",
        "left_port": "london",
        "cause_of_leaving": "discharged",
        "sign_with_mark": "y",
        "notes": "blk"
    },
    {
        "id": "vtls004959556_0_13",
        "type": "sailor",
        "parent": "vtls004959556",
        "name": "david jones",
        "dob": "blk",
        "age": "39",
        "place_of_birth": "aberystwyth",
        "home_address": "blk",
        "f": "blk",
        "name_of_ship": "orient",
        "ship_port": "[liverpool]",
        "date_leaving": "blk",
        "joined_ship_date": "1866-02-15",
        "joined_at_port": "liverpool",
        "capacity": "bosun",
        "date_left": "1866-07-31",
        "left_port": "london",
        "cause_of_leaving": "discharged",
        "sign_with_mark": "n",
        "notes": "blk"
    },
    {
        "id": "vtls004959556_1_16",
        "type": "sailor",
        "parent": "vtls004959556",
        "name": "edward graham",
        "dob": "blk",
        "age": "39",
        "place_of_birth": "canada",
        "home_address": "blk",
        "f": "blk",
        "name_of_ship": "sea flower",
        "ship_port": "liverpool",
        "date_leaving": "1866",
        "joined_ship_date": "1866-10-25",
        "joined_at_port": "london",
        "capacity": "able seaman",
        "date_left": "1866-09-15",
        "left_port": "tyne",
        "cause_of_leaving": "deserted",
        "sign_with_mark": "n",
        "notes": "date of desertion is earlier than date of joining"
    },
    {
        "id": "vtls004959556_1_17",
        "type": "sailor",
        "parent": "vtls004959556",
        "name": "aubert eugene",
        "dob": "blk",
        "age": "32",
        "place_of_birth": "marseilles",
        "home_address": "blk",
        "f": "blk",
        "name_of_ship": "montrose",
        "ship_port": "london",
        "date_leaving": "1866",
        "joined_ship_date": "1866-10-25",
        "joined_at_port": "london",
        "capacity": "able seaman",
        "date_left": "1866-12-04",
        "left_port": "marseilles, france",
        "cause_of_leaving": "discharged by mutual consent",
        "sign_with_mark": "n",
        "notes": "blk"
    },
    {
        "id": "vtls004959556_1_14",
        "type": "sailor",
        "parent": "vtls004959556",
        "name": "thomas shillyss",
        "dob": "blk",
        "age": "15",
        "place_of_birth": "fishguard",
        "home_address": "blk",
        "f": "blk",
        "name_of_ship": "sarah philips",
        "ship_port": "aberystwyth",
        "date_leaving": "1866",
        "joined_ship_date": "1866-10-20",
        "joined_at_port": "london",
        "capacity": "cook & steward",
        "date_left": "1867-02-02",
        "left_port": "yarmouth",
        "cause_of_leaving": "discharged",
        "sign_with_mark": "n",
        "notes": "blk"
    },
    {
        "id": "vtls004959556_1_19",
        "type": "sailor",
        "parent": "vtls004959556",
        "name": "david edwards",
        "dob": "blk",
        "age": "17",
        "place_of_birth": "aberystwyth",
        "home_address": "blk",
        "f": "blk",
        "name_of_ship": "anne maria",
        "ship_port": "aberystwyth",
        "date_leaving": "1866",
        "joined_ship_date": "1866-10-25",
        "joined_at_port": "london",
        "capacity": "able seaman",
        "date_left": "1867-02-02",
        "left_port": "yarmouth",
        "cause_of_leaving": "discharged",
        "sign_with_mark": "n",
        "notes": "blk"
    },
    {
        "id": "vtls004959556_1_13",
        "type": "sailor",
        "parent": "vtls004959556",
        "name": "david jones",
        "dob": "blk",
        "age": "40",
        "place_of_birth": "aberystwyth",
        "home_address": "blk",
        "f": "blk",
        "name_of_ship": "sarah philips",
        "ship_port": "aberystwyth",
        "date_leaving": "1866",
        "joined_ship_date": "1866-10-20",
        "joined_at_port": "london",
        "capacity": "boatswain",
        "date_left": "1867-02-02",
        "left_port": "yarmouth",
        "cause_of_leaving": "discharged",
        "sign_with_mark": "n",
        "notes": "blk"
    },
    {
        "id": "vtls004959556_1_18",
        "type": "sailor",
        "parent": "vtls004959556",
        "name": "henry wollacott",
        "dob": "blk",
        "age": "21",
        "place_of_birth": "torquay",
        "home_address": "blk",
        "f": "blk",
        "name_of_ship": "fontabelle",
        "ship_port": "london",
        "date_leaving": "1866",
        "joined_ship_date": "1866-10-25",
        "joined_at_port": "london",
        "capacity": "ordinary seaman",
        "date_left": "1867-02-02",
        "left_port": "yarmouth",
        "cause_of_leaving": "discharged",
        "sign_with_mark": "n",
        "notes": "blk"
    },
    {
        "id": "vtls004959556_0_20",
        "type": "sailor",
        "parent": "vtls004959556",
        "name": "john shiels",
        "dob": "blk",
        "age": "43",
        "place_of_birth": "airla",
        "home_address": "blk",
        "f": "blk",
        "name_of_ship": "hope",
        "ship_port": "[scarborough]",
        "date_leaving": "1866",
        "joined_ship_date": "1866-06-09",
        "joined_at_port": "falmouth, jamaica",
        "capacity": "mate",
        "date_left": "1866-07-31",
        "left_port": "london",
        "cause_of_leaving": "discharged",
        "sign_with_mark": "n",
        "notes": "blk"
    },
    {
        "id": "vtls004959556_1_12",
        "type": "sailor",
        "parent": "vtls004959556",
        "name": "john evans",
        "dob": "blk",
        "age": "21",
        "place_of_birth": "aberystwyth",
        "home_address": "blk",
        "f": "blk",
        "name_of_ship": "agnes fraser",
        "ship_port": "aberystwyth",
        "date_leaving": "1866",
        "joined_ship_date": "1866-10-04",
        "joined_at_port": "newcastle",
        "capacity": "mate",
        "date_left": "1867-02-02",
        "left_port": "yarmouth",
        "cause_of_leaving": "discharged",
        "sign_with_mark": "n",
        "notes": "blk"
    },
    {
        "id": "vtls004959556_1_15",
        "type": "sailor",
        "parent": "vtls004959556",
        "name": "john jacobson",
        "dob": "blk",
        "age": "41",
        "place_of_birth": "sweden",
        "home_address": "blk",
        "f": "blk",
        "name_of_ship": "enmore",
        "ship_port": "london",
        "date_leaving": "1866",
        "joined_ship_date": "1866-10-25",
        "joined_at_port": "london",
        "capacity": "able seaman",
        "date_left": "1866-12-04",
        "left_port": "marseille",
        "cause_of_leaving": "discharged",
        "sign_with_mark": "y",
        "notes": "blk"
    },
    {
        "id": "vtls004959556_1_11",
        "type": "sailor",
        "parent": "vtls004959556",
        "name": "richard edwards",
        "dob": "blk",
        "age": "36",
        "place_of_birth": "aberystwyth",
        "home_address": "blk",
        "f": "blk",
        "name_of_ship": "sarah philips",
        "ship_port": "aberystwyth",
        "date_leaving": "1866",
        "joined_ship_date": "blk",
        "joined_at_port": "blk",
        "capacity": "master",
        "date_left": "blk",
        "left_port": "blk",
        "cause_of_leaving": "remains on board",
        "sign_with_mark": "n",
        "notes": "blk"
    },
    {
        "id": "vtls004959585_0_11",
        "type": "sailor",
        "parent": "vtls004959585",
        "name": "richard edwards",
        "dob": "blk",
        "age": "36",
        "place_of_birth": "aberystwyth",
        "home_address": "25, [pier st., aberystwyth]",
        "f": "25, [pier st., aberystwyth]",
        "name_of_ship": "sarah phillips",
        "ship_port": "aberystwyth",
        "date_leaving": "continued",
        "joined_ship_date": "1867-02",
        "joined_at_port": "south shields",
        "capacity": "master",
        "date_left": "blk",
        "left_port": "blk",
        "cause_of_leaving": "remains on board",
        "sign_with_mark": "n",
        "notes": "master's cert.no: 70170"
    },
    {
        "id": "vtls004959585_0_12",
        "type": "sailor",
        "parent": "vtls004959585",
        "name": "john evans",
        "dob": "blk",
        "age": "22",
        "place_of_birth": "aberystwyth",
        "home_address": "blk",
        "f": "blk",
        "name_of_ship": "sarah phillips",
        "ship_port": "aberystwyth",
        "date_leaving": "continued",
        "joined_ship_date": "1867-02-23",
        "joined_at_port": "south shields",
        "capacity": "mate",
        "date_left": "1867-05-20",
        "left_port": "liverpool",
        "cause_of_leaving": "discharged",
        "sign_with_mark": "n",
        "notes": "mate's cert.no: 83495"
    },
    {
        "id": "vtls004959585_0_14",
        "type": "sailor",
        "parent": "vtls004959585",
        "name": "david edwards",
        "dob": "blk",
        "age": "18",
        "place_of_birth": "aberystwyth",
        "home_address": "blk",
        "f": "blk",
        "name_of_ship": "sarah phillips",
        "ship_port": "aberystwyth",
        "date_leaving": "continued",
        "joined_ship_date": "1867-02-25",
        "joined_at_port": "south shields",
        "capacity": "able seaman",
        "date_left": "1867-05-20",
        "left_port": "liverpool",
        "cause_of_leaving": "discharged",
        "sign_with_mark": "n",
        "notes": "blk"
    },
    {
        "id": "vtls004959585_0_13",
        "type": "sailor",
        "parent": "vtls004959585",
        "name": "david jones",
        "dob": "blk",
        "age": "40",
        "place_of_birth": "aberystwyth",
        "home_address": "blk",
        "f": "blk",
        "name_of_ship": "sarah phillips",
        "ship_port": "aberystwyth",
        "date_leaving": "continued",
        "joined_ship_date": "1867-02-25",
        "joined_at_port": "south shields",
        "capacity": "boatswain",
        "date_left": "1867-05-20",
        "left_port": "liverpool",
        "cause_of_leaving": "discharged",
        "sign_with_mark": "n",
        "notes": "blk"
    },
    {
        "id": "vtls004959556_1_20",
        "type": "sailor",
        "parent": "vtls004959556",
        "name": "john philips",
        "dob": "blk",
        "age": "26",
        "place_of_birth": "new south wales",
        "home_address": "blk",
        "f": "blk",
        "name_of_ship": "justine",
        "ship_port": "quebec",
        "date_leaving": "1866",
        "joined_ship_date": "1866-12-03",
        "joined_at_port": "marseille, france",
        "capacity": "able seaman",
        "date_left": "1867-02-02",
        "left_port": "yarmouth",
        "cause_of_leaving": "discharged",
        "sign_with_mark": "y",
        "notes": "blk"
    },
    {
        "id": "vtls004959556_1_21",
        "type": "sailor",
        "parent": "vtls004959556",
        "name": "richard chirch",
        "dob": "blk",
        "age": "27",
        "place_of_birth": "london",
        "home_address": "blk",
        "f": "blk",
        "name_of_ship": "rocket",
        "ship_port": "london",
        "date_leaving": "1866",
        "joined_ship_date": "1866-12-06",
        "joined_at_port": "marseille, france",
        "capacity": "able seaman",
        "date_left": "1867-02-02",
        "left_port": "yarmouth",
        "cause_of_leaving": "discharged",
        "sign_with_mark": "n",
        "notes": "blk"
    },
    {
        "id": "vtls004959556_1_22",
        "type": "sailor",
        "parent": "vtls004959556",
        "name": "patrick duffy",
        "dob": "blk",
        "age": "34",
        "place_of_birth": "newry",
        "home_address": "blk",
        "f": "blk",
        "name_of_ship": "rocket",
        "ship_port": "london",
        "date_leaving": "1866",
        "joined_ship_date": "1866-12-05",
        "joined_at_port": "marseille, france",
        "capacity": "able seaman",
        "date_left": "blk",
        "left_port": "blk",
        "cause_of_leaving": "never joined",
        "sign_with_mark": "n",
        "notes": "blk"
    },
    {
        "id": "vtls004959585_1_11",
        "type": "sailor",
        "parent": "vtls004959585",
        "name": "richard evans",
        "dob": "blk",
        "age": "37",
        "place_of_birth": "aberystwyth",
        "home_address": "aberystwyth",
        "f": "aberystwyth",
        "name_of_ship": "sarah phillips",
        "ship_port": "aberystwyth",
        "date_leaving": "remains",
        "joined_ship_date": "blk",
        "joined_at_port": "blk",
        "capacity": "master",
        "date_left": "1867-09-14",
        "left_port": "runcorn",
        "cause_of_leaving": "remains on board",
        "sign_with_mark": "n",
        "notes": "master's cert.no.: 70170"
    },
    {
        "id": "vtls004959585_0_15",
        "type": "sailor",
        "parent": "vtls004959585",
        "name": "thomas evans",
        "dob": "blk",
        "age": "16",
        "place_of_birth": "aberystwyth",
        "home_address": "blk",
        "f": "blk",
        "name_of_ship": "sarah phillips",
        "ship_port": "aberystwyth",
        "date_leaving": "continued",
        "joined_ship_date": "1867-02-25",
        "joined_at_port": "south shields",
        "capacity": "ordinary seaman",
        "date_left": "1867-05-20",
        "left_port": "liverpool",
        "cause_of_leaving": "discharged",
        "sign_with_mark": "n",
        "notes": "blk"
    },
    {
        "id": "vtls004959585_1_12",
        "type": "sailor",
        "parent": "vtls004959585",
        "name": "john evans",
        "dob": "blk",
        "age": "22",
        "place_of_birth": "aberystwyth",
        "home_address": "blk",
        "f": "blk",
        "name_of_ship": "sarah phillips",
        "ship_port": "aberystwyth",
        "date_leaving": "1867-05",
        "joined_ship_date": "1867-06-12",
        "joined_at_port": "liverpool",
        "capacity": "mate",
        "date_left": "1867-09-14",
        "left_port": "runcorn",
        "cause_of_leaving": "paid off",
        "sign_with_mark": "n",
        "notes": "mate's cert.no.: 83495"
    },
    {
        "id": "vtls004959585_0_16",
        "type": "sailor",
        "parent": "vtls004959585",
        "name": "richard barnes",
        "dob": "blk",
        "age": "22",
        "place_of_birth": "wells",
        "home_address": "blk",
        "f": "blk",
        "name_of_ship": "james booth[s]",
        "ship_port": "newcastle",
        "date_leaving": "1866-12-29",
        "joined_ship_date": "1867-02-25",
        "joined_at_port": "south shields",
        "capacity": "able seaman",
        "date_left": "1867-05-20",
        "left_port": "liverpool",
        "cause_of_leaving": "discharged",
        "sign_with_mark": "n",
        "notes": "blk"
    },
    {
        "id": "vtls004959585_0_18",
        "type": "sailor",
        "parent": "vtls004959585",
        "name": "john philips",
        "dob": "blk",
        "age": "22",
        "place_of_birth": "wells",
        "home_address": "blk",
        "f": "blk",
        "name_of_ship": "sarah phillips",
        "ship_port": "aberystwyth",
        "date_leaving": "continued",
        "joined_ship_date": "1867-02-25",
        "joined_at_port": "south shields",
        "capacity": "able seaman",
        "date_left": "1867-05-20",
        "left_port": "liverpool",
        "cause_of_leaving": "discharged",
        "sign_with_mark": "y",
        "notes": "blk"
    },
    {
        "id": "vtls004959585_0_17",
        "type": "sailor",
        "parent": "vtls004959585",
        "name": "william fane",
        "dob": "blk",
        "age": "22",
        "place_of_birth": "lynn",
        "home_address": "blk",
        "f": "blk",
        "name_of_ship": "beautiful star",
        "ship_port": "aberdeen",
        "date_leaving": "1867-01-29",
        "joined_ship_date": "1867-02-25",
        "joined_at_port": "south shields",
        "capacity": "able seaman",
        "date_left": "1867-05-20",
        "left_port": "liverpool",
        "cause_of_leaving": "discharged",
        "sign_with_mark": "n",
        "notes": "blk"
    },
    {
        "id": "vtls004959585_1_13",
        "type": "sailor",
        "parent": "vtls004959585",
        "name": "david jones",
        "dob": "blk",
        "age": "40",
        "place_of_birth": "aberystwyth",
        "home_address": "blk",
        "f": "blk",
        "name_of_ship": "sarah phillips",
        "ship_port": "aberystwyth",
        "date_leaving": "1867-05",
        "joined_ship_date": "1867-06-12",
        "joined_at_port": "liverpool",
        "capacity": "boatswain",
        "date_left": "1867-09-14",
        "left_port": "runcorn",
        "cause_of_leaving": "paid off",
        "sign_with_mark": "n",
        "notes": "blk"
    },
    {
        "id": "vtls004959585_1_15",
        "type": "sailor",
        "parent": "vtls004959585",
        "name": "michael king",
        "dob": "blk",
        "age": "24",
        "place_of_birth": "dublin",
        "home_address": "blk",
        "f": "blk",
        "name_of_ship": "ellen bates",
        "ship_port": "liverpool",
        "date_leaving": "1867-06",
        "joined_ship_date": "1867-06-12",
        "joined_at_port": "liverpool",
        "capacity": "able seaman",
        "date_left": "1867-09-14",
        "left_port": "runcorn",
        "cause_of_leaving": "paid off",
        "sign_with_mark": "n",
        "notes": "blk"
    },
    {
        "id": "vtls004959585_1_16",
        "type": "sailor",
        "parent": "vtls004959585",
        "name": "james stafford",
        "dob": "blk",
        "age": "22",
        "place_of_birth": "dublin",
        "home_address": "blk",
        "f": "blk",
        "name_of_ship": "newton",
        "ship_port": "liverpool",
        "date_leaving": "1867-06",
        "joined_ship_date": "1867-06-12",
        "joined_at_port": "liverpool",
        "capacity": "able seaman",
        "date_left": "1867-09-14",
        "left_port": "runcorn",
        "cause_of_leaving": "paid off",
        "sign_with_mark": "n",
        "notes": "blk"
    },
    {
        "id": "vtls004959585_1_14",
        "type": "sailor",
        "parent": "vtls004959585",
        "name": "thomas wood",
        "dob": "blk",
        "age": "24",
        "place_of_birth": "london",
        "home_address": "blk",
        "f": "blk",
        "name_of_ship": "american ship",
        "ship_port": "blk",
        "date_leaving": "blk",
        "joined_ship_date": "1867-06-12",
        "joined_at_port": "liverpool",
        "capacity": "able seaman",
        "date_left": "1867-09-14",
        "left_port": "runcorn",
        "cause_of_leaving": "paid off",
        "sign_with_mark": "n",
        "notes": "blk"
    },
    {
        "id": "vtls004959597_0_14",
        "type": "sailor",
        "parent": "vtls004959597",
        "name": "richard davies",
        "dob": "blk",
        "age": "33",
        "place_of_birth": "aberystwyth",
        "home_address": "aberystwyth",
        "f": "aberystwyth",
        "name_of_ship": "scotia",
        "ship_port": "glasgow",
        "date_leaving": "1867-09",
        "joined_ship_date": "1867-11-08",
        "joined_at_port": "liverpool",
        "capacity": "cook & steward",
        "date_left": "1868-11-30",
        "left_port": "boston",
        "cause_of_leaving": "discharged",
        "sign_with_mark": "n",
        "notes": "in the log book there are numerous reports of richard davies's  disorderly conduct, desertion at one stage and he was finally left in boston at his own request."
    },
    {
        "id": "vtls004959597_0_12",
        "type": "sailor",
        "parent": "vtls004959597",
        "name": "john evans",
        "dob": "blk",
        "age": "22",
        "place_of_birth": "aberystwyth",
        "home_address": "aberystwyth",
        "f": "aberystwyth",
        "name_of_ship": "sarah phillips",
        "ship_port": "aberystwyth",
        "date_leaving": "1867-10",
        "joined_ship_date": "1867-11-08",
        "joined_at_port": "liverpool",
        "capacity": "mate",
        "date_left": "1869-02-13",
        "left_port": "london",
        "cause_of_leaving": "discharged",
        "sign_with_mark": "n",
        "notes": "mate's cert.no.: 83495"
    },
    {
        "id": "vtls004959585_1_18",
        "type": "sailor",
        "parent": "vtls004959585",
        "name": "james critchett",
        "dob": "blk",
        "age": "21",
        "place_of_birth": "lyme regis",
        "home_address": "blk",
        "f": "blk",
        "name_of_ship": "jemsetjee cursetjee",
        "ship_port": "liverpool",
        "date_leaving": "1867-06",
        "joined_ship_date": "1867-06-12",
        "joined_at_port": "liverpool",
        "capacity": "ordinary seaman",
        "date_left": "1867-09-14",
        "left_port": "runcorn",
        "cause_of_leaving": "paid off",
        "sign_with_mark": "n",
        "notes": "blk"
    },
    {
        "id": "vtls004959597_0_13",
        "type": "sailor",
        "parent": "vtls004959597",
        "name": "david jones",
        "dob": "blk",
        "age": "40",
        "place_of_birth": "aberystwyth",
        "home_address": "aberystwyth",
        "f": "aberystwyth",
        "name_of_ship": "sarah phillips",
        "ship_port": "aberystwyth",
        "date_leaving": "[1867-10]",
        "joined_ship_date": "[1867-11-08]",
        "joined_at_port": "liverpool",
        "capacity": "boatswain",
        "date_left": "1869-02-13",
        "left_port": "london",
        "cause_of_leaving": "discharged",
        "sign_with_mark": "n",
        "notes": "blk"
    },
    {
        "id": "vtls004959597_0_15",
        "type": "sailor",
        "parent": "vtls004959597",
        "name": "thomas rowland",
        "dob": "blk",
        "age": "26",
        "place_of_birth": "aberystwyth",
        "home_address": "aberystwyth",
        "f": "aberystwyth",
        "name_of_ship": "rachel lewis",
        "ship_port": "aberystwyth",
        "date_leaving": "1867-11",
        "joined_ship_date": "1867-11-08",
        "joined_at_port": "liverpool",
        "capacity": "able seaman",
        "date_left": "1869-02-13",
        "left_port": "london",
        "cause_of_leaving": "discharged",
        "sign_with_mark": "n",
        "notes": "blk"
    },
    {
        "id": "vtls004959597_0_11",
        "type": "sailor",
        "parent": "vtls004959597",
        "name": "richard edwards",
        "dob": "blk",
        "age": "37",
        "place_of_birth": "aberystwyth",
        "home_address": "aberystwyth",
        "f": "aberystwyth",
        "name_of_ship": "sarah phillips",
        "ship_port": "aberystwyth",
        "date_leaving": "remains",
        "joined_ship_date": "blk",
        "joined_at_port": "blk",
        "capacity": "master",
        "date_left": "blk",
        "left_port": "blk",
        "cause_of_leaving": "remains on board",
        "sign_with_mark": "n",
        "notes": "master's cert.no: 70170"
    },
    {
        "id": "vtls004959585_1_17",
        "type": "sailor",
        "parent": "vtls004959585",
        "name": "thomas fell",
        "dob": "blk",
        "age": "22",
        "place_of_birth": "leeds",
        "home_address": "blk",
        "f": "blk",
        "name_of_ship": "jemsetjee cursetjee",
        "ship_port": "liverpool",
        "date_leaving": "1867-06",
        "joined_ship_date": "1867-06-12",
        "joined_at_port": "liverpool",
        "capacity": "able seaman",
        "date_left": "1867-09-14",
        "left_port": "runcorn",
        "cause_of_leaving": "paid off",
        "sign_with_mark": "n",
        "notes": "blk"
    },
    {
        "id": "vtls004959618_0_15",
        "type": "sailor",
        "parent": "vtls004959618",
        "name": "stephen o'brien",
        "dob": "blk",
        "age": "36",
        "place_of_birth": "galway",
        "home_address": "blk",
        "f": "blk",
        "name_of_ship": "cavour",
        "ship_port": "liverpool",
        "date_leaving": "1869-05-20",
        "joined_ship_date": "1869-05-28",
        "joined_at_port": "london",
        "capacity": "able seaman",
        "date_left": "1869-11-15",
        "left_port": "natal",
        "cause_of_leaving": "discharged",
        "sign_with_mark": "y",
        "notes": "in log book, stated that after troublesome behaviour, stephen o'brien  was paid off by mutual consent."
    },
    {
        "id": "vtls004959597_0_16",
        "type": "sailor",
        "parent": "vtls004959597",
        "name": "isaac thomas",
        "dob": "blk",
        "age": "20",
        "place_of_birth": "aberystwyth",
        "home_address": "aberystwyth",
        "f": "aberystwyth",
        "name_of_ship": "rachel lewis",
        "ship_port": "aberystwyth",
        "date_leaving": "1867-11",
        "joined_ship_date": "1867-11-08",
        "joined_at_port": "liverpool",
        "capacity": "able seaman",
        "date_left": "1869-02-13",
        "left_port": "london",
        "cause_of_leaving": "discharged",
        "sign_with_mark": "n",
        "notes": "blk"
    },
    {
        "id": "vtls004959597_0_19",
        "type": "sailor",
        "parent": "vtls004959597",
        "name": "stephen spargo",
        "dob": "blk",
        "age": "22",
        "place_of_birth": "falmouth",
        "home_address": "aberystwyth",
        "f": "aberystwyth",
        "name_of_ship": "[a medlney]",
        "ship_port": "blk",
        "date_leaving": "[1868-02-17]",
        "joined_ship_date": "1868-11-03",
        "joined_at_port": "boston",
        "capacity": "able seaman",
        "date_left": "1869-02-13",
        "left_port": "london",
        "cause_of_leaving": "discharged",
        "sign_with_mark": "n",
        "notes": "blk"
    },
    {
        "id": "vtls004959618_0_11",
        "type": "sailor",
        "parent": "vtls004959618",
        "name": "john hughes",
        "dob": "blk",
        "age": "35",
        "place_of_birth": "aberystwyth",
        "home_address": "blk",
        "f": "blk",
        "name_of_ship": "eliza jane",
        "ship_port": "aberystwyth",
        "date_leaving": "1868-11-14",
        "joined_ship_date": "1869-03-21",
        "joined_at_port": "london",
        "capacity": "master",
        "date_left": "blk",
        "left_port": "blk",
        "cause_of_leaving": "remains on board",
        "sign_with_mark": "n",
        "notes": "master's cert.no.: 12015"
    },
    {
        "id": "vtls004959597_0_18",
        "type": "sailor",
        "parent": "vtls004959597",
        "name": "ebenezer evans",
        "dob": "blk",
        "age": "16",
        "place_of_birth": "holyhead",
        "home_address": "aberystwyth",
        "f": "aberystwyth",
        "name_of_ship": "flora",
        "ship_port": "liverpool",
        "date_leaving": "1867-11",
        "joined_ship_date": "1867-11-08",
        "joined_at_port": "liverpool",
        "capacity": "ordinary seaman",
        "date_left": "1869-02-13",
        "left_port": "london",
        "cause_of_leaving": "discharged",
        "sign_with_mark": "n",
        "notes": "blk"
    },
    {
        "id": "vtls004959618_0_13",
        "type": "sailor",
        "parent": "vtls004959618",
        "name": "richard d jones",
        "dob": "blk",
        "age": "21",
        "place_of_birth": "aberystwyth",
        "home_address": "blk",
        "f": "blk",
        "name_of_ship": "anne moore",
        "ship_port": "[aberystwyth]",
        "date_leaving": "1868-11-14",
        "joined_ship_date": "1869-05-21",
        "joined_at_port": "london",
        "capacity": "boatswain",
        "date_left": "1870-02-28",
        "left_port": "london",
        "cause_of_leaving": "discharged",
        "sign_with_mark": "n",
        "notes": "blk"
    },
    {
        "id": "vtls004959618_0_12",
        "type": "sailor",
        "parent": "vtls004959618",
        "name": "hugh jones",
        "dob": "blk",
        "age": "24",
        "place_of_birth": "aberystwyth",
        "home_address": "blk",
        "f": "blk",
        "name_of_ship": "mary jones",
        "ship_port": "aberystwyth",
        "date_leaving": "1869-04-14",
        "joined_ship_date": "1869-05-21",
        "joined_at_port": "london",
        "capacity": "mate",
        "date_left": "1870-02-28",
        "left_port": "london",
        "cause_of_leaving": "discharged",
        "sign_with_mark": "n",
        "notes": "mate's cert. no.: 84243"
    },
    {
        "id": "vtls004959597_0_17",
        "type": "sailor",
        "parent": "vtls004959597",
        "name": "john jones",
        "dob": "blk",
        "age": "18",
        "place_of_birth": "holyhead",
        "home_address": "aberystwyth",
        "f": "aberystwyth",
        "name_of_ship": "lilian",
        "ship_port": "newport",
        "date_leaving": "1867-11",
        "joined_ship_date": "1867-11-08",
        "joined_at_port": "liverpool",
        "capacity": "ordinary seaman",
        "date_left": "1869-02-13",
        "left_port": "london",
        "cause_of_leaving": "discharged",
        "sign_with_mark": "n",
        "notes": "blk"
    },
    {
        "id": "vtls004959618_0_14",
        "type": "sailor",
        "parent": "vtls004959618",
        "name": "david clayton",
        "dob": "blk",
        "age": "23",
        "place_of_birth": "london",
        "home_address": "blk",
        "f": "blk",
        "name_of_ship": "hannah",
        "ship_port": "blyth",
        "date_leaving": "1869-04-14",
        "joined_ship_date": "1869-05-21",
        "joined_at_port": "london",
        "capacity": "cook",
        "date_left": "1870-02-28",
        "left_port": "london",
        "cause_of_leaving": "discharged",
        "sign_with_mark": "n",
        "notes": "blk"
    },
    {
        "id": "vtls004959618_0_18",
        "type": "sailor",
        "parent": "vtls004959618",
        "name": "thomas rafters",
        "dob": "blk",
        "age": "17",
        "place_of_birth": "st johns",
        "home_address": "blk",
        "f": "blk",
        "name_of_ship": "green jacket",
        "ship_port": "liverpool",
        "date_leaving": "1869-05-16",
        "joined_ship_date": "1869-05-28",
        "joined_at_port": "london",
        "capacity": "ordinary seaman",
        "date_left": "1870-02-28",
        "left_port": "london",
        "cause_of_leaving": "discharged",
        "sign_with_mark": "n",
        "notes": "blk"
    },
    {
        "id": "vtls004959618_0_17",
        "type": "sailor",
        "parent": "vtls004959618",
        "name": "evan jenkin davies",
        "dob": "blk",
        "age": "18",
        "place_of_birth": "aberystwyth",
        "home_address": "blk",
        "f": "blk",
        "name_of_ship": "ann",
        "ship_port": "portmadoc",
        "date_leaving": "1869-03-20",
        "joined_ship_date": "1869-05-28",
        "joined_at_port": "london",
        "capacity": "ordinary seaman",
        "date_left": "1870-02-28",
        "left_port": "london",
        "cause_of_leaving": "discharged",
        "sign_with_mark": "n",
        "notes": "blk"
    },
    {
        "id": "vtls004959618_1_12",
        "type": "sailor",
        "parent": "vtls004959618",
        "name": "hugh jones",
        "dob": "blk",
        "age": "26",
        "place_of_birth": "aberystwyth",
        "home_address": "blk",
        "f": "blk",
        "name_of_ship": "sarah phillips",
        "ship_port": "aberystwyth",
        "date_leaving": "1870",
        "joined_ship_date": "1870-03-25",
        "joined_at_port": "london",
        "capacity": "mate",
        "date_left": "1870-08-26",
        "left_port": "london",
        "cause_of_leaving": "discharged",
        "sign_with_mark": "n",
        "notes": "mate's cert.no.: 84243"
    },
    {
        "id": "vtls004959618_0_19",
        "type": "sailor",
        "parent": "vtls004959618",
        "name": "thomas davids",
        "dob": "blk",
        "age": "21",
        "place_of_birth": "cape town",
        "home_address": "blk",
        "f": "blk",
        "name_of_ship": "priscilla",
        "ship_port": "blk",
        "date_leaving": "1869-11-08",
        "joined_ship_date": "1869-11-19",
        "joined_at_port": "port natal",
        "capacity": "ordinary seaman",
        "date_left": "1870-02-28",
        "left_port": "london",
        "cause_of_leaving": "discharged",
        "sign_with_mark": "n",
        "notes": "blk"
    },
    {
        "id": "vtls004959618_1_11",
        "type": "sailor",
        "parent": "vtls004959618",
        "name": "david jenkins",
        "dob": "blk",
        "age": "29",
        "place_of_birth": "aberystwyth",
        "home_address": "blk",
        "f": "blk",
        "name_of_ship": "sarah phillips",
        "ship_port": "aberystwyth",
        "date_leaving": "continues",
        "joined_ship_date": "blk",
        "joined_at_port": "blk",
        "capacity": "master",
        "date_left": "1870-08-26",
        "left_port": "blk",
        "cause_of_leaving": "continues",
        "sign_with_mark": "n",
        "notes": "master's cert.no.: 31127"
    },
    {
        "id": "vtls004959618_0_16",
        "type": "sailor",
        "parent": "vtls004959618",
        "name": "james ward",
        "dob": "blk",
        "age": "20",
        "place_of_birth": "essex",
        "home_address": "blk",
        "f": "blk",
        "name_of_ship": "james shepherd",
        "ship_port": "london",
        "date_leaving": "1869-04-26",
        "joined_ship_date": "1869-05-28",
        "joined_at_port": "london",
        "capacity": "able seaman",
        "date_left": "1870-02-28",
        "left_port": "london",
        "cause_of_leaving": "discharged",
        "sign_with_mark": "n",
        "notes": "blk"
    },
    {
        "id": "vtls004959618_1_13",
        "type": "sailor",
        "parent": "vtls004959618",
        "name": "john jenkins",
        "dob": "blk",
        "age": "25",
        "place_of_birth": "aberystwyth",
        "home_address": "blk",
        "f": "blk",
        "name_of_ship": "ocean dart",
        "ship_port": "new quay",
        "date_leaving": "1870",
        "joined_ship_date": "1870-03-26",
        "joined_at_port": "london",
        "capacity": "boatswain",
        "date_left": "1870-08-26",
        "left_port": "london",
        "cause_of_leaving": "discharged",
        "sign_with_mark": "n",
        "notes": "blk"
    },
    {
        "id": "vtls004959618_1_14",
        "type": "sailor",
        "parent": "vtls004959618",
        "name": "eteta steffon",
        "dob": "blk",
        "age": "25",
        "place_of_birth": "france",
        "home_address": "blk",
        "f": "blk",
        "name_of_ship": "earl powis",
        "ship_port": "dundee",
        "date_leaving": "1870",
        "joined_ship_date": "1870-03-24",
        "joined_at_port": "london",
        "capacity": "cook and seaman",
        "date_left": "1870-08-26",
        "left_port": "london",
        "cause_of_leaving": "discharged",
        "sign_with_mark": "y",
        "notes": "blk"
    },
    {
        "id": "vtls004959624_0_13",
        "type": "sailor",
        "parent": "vtls004959624",
        "name": "john jenkins",
        "dob": "blk",
        "age": "26",
        "place_of_birth": "aberystwyth",
        "home_address": "blk",
        "f": "blk",
        "name_of_ship": "sarah phillips",
        "ship_port": "aberystwyth",
        "date_leaving": "1870",
        "joined_ship_date": "1870-11-07",
        "joined_at_port": "london",
        "capacity": "boatswain",
        "date_left": "1871-05-08",
        "left_port": "london",
        "cause_of_leaving": "discharged",
        "sign_with_mark": "n",
        "notes": "blk"
    },
    {
        "id": "vtls004959624_0_15",
        "type": "sailor",
        "parent": "vtls004959624",
        "name": "richard jones",
        "dob": "blk",
        "age": "26",
        "place_of_birth": "aberystwyth",
        "home_address": "blk",
        "f": "blk",
        "name_of_ship": "retriever",
        "ship_port": "new quay",
        "date_leaving": "1870",
        "joined_ship_date": "1870-11-07",
        "joined_at_port": "london",
        "capacity": "able seaman",
        "date_left": "1871-05-08",
        "left_port": "london",
        "cause_of_leaving": "discharged",
        "sign_with_mark": "n",
        "notes": "blk"
    },
    {
        "id": "vtls004959618_1_17",
        "type": "sailor",
        "parent": "vtls004959618",
        "name": "thomas hughes",
        "dob": "blk",
        "age": "18",
        "place_of_birth": "llanarth",
        "home_address": "blk",
        "f": "blk",
        "name_of_ship": "patriot",
        "ship_port": "aberayron",
        "date_leaving": "1870",
        "joined_ship_date": "1870-03-26",
        "joined_at_port": "london",
        "capacity": "ordinary seaman",
        "date_left": "1870-08-26",
        "left_port": "london",
        "cause_of_leaving": "discharged",
        "sign_with_mark": "n",
        "notes": "blk"
    },
    {
        "id": "vtls004959624_0_12",
        "type": "sailor",
        "parent": "vtls004959624",
        "name": "robert evans",
        "dob": "blk",
        "age": "29",
        "place_of_birth": "aberystwyth",
        "home_address": "blk",
        "f": "blk",
        "name_of_ship": "alpine crag",
        "ship_port": "north shields",
        "date_leaving": "1870",
        "joined_ship_date": "1870-11-05",
        "joined_at_port": "london",
        "capacity": "mate",
        "date_left": "1871-05-08",
        "left_port": "london",
        "cause_of_leaving": "discharged",
        "sign_with_mark": "n",
        "notes": "blk"
    },
    {
        "id": "vtls004959624_0_14",
        "type": "sailor",
        "parent": "vtls004959624",
        "name": "robert hopkins",
        "dob": "blk",
        "age": "27",
        "place_of_birth": "aberystwyth",
        "home_address": "blk",
        "f": "blk",
        "name_of_ship": "veto",
        "ship_port": "new york",
        "date_leaving": "1870",
        "joined_ship_date": "1870-11-07",
        "joined_at_port": "london",
        "capacity": "cook & seaman",
        "date_left": "1871-05-08",
        "left_port": "london",
        "cause_of_leaving": "discharged",
        "sign_with_mark": "n",
        "notes": "blk"
    },
    {
        "id": "vtls004959624_0_11",
        "type": "sailor",
        "parent": "vtls004959624",
        "name": "david jenkins",
        "dob": "blk",
        "age": "30",
        "place_of_birth": "cardigan",
        "home_address": "blk",
        "f": "blk",
        "name_of_ship": "sarah phillips",
        "ship_port": "aberystwyth",
        "date_leaving": "continued",
        "joined_ship_date": "continued",
        "joined_at_port": "blk",
        "capacity": "master",
        "date_left": "blk",
        "left_port": "blk",
        "cause_of_leaving": "remains on board",
        "sign_with_mark": "n",
        "notes": "blk"
    },
    {
        "id": "vtls004959618_1_16",
        "type": "sailor",
        "parent": "vtls004959618",
        "name": "peter l bonfleuz",
        "dob": "blk",
        "age": "39",
        "place_of_birth": "finland",
        "home_address": "blk",
        "f": "blk",
        "name_of_ship": "[wize]",
        "ship_port": "glasgow",
        "date_leaving": "1870",
        "joined_ship_date": "1870-03-24",
        "joined_at_port": "london",
        "capacity": "able seaman",
        "date_left": "1870-08-26",
        "left_port": "london",
        "cause_of_leaving": "discharged",
        "sign_with_mark": "n",
        "notes": "blk"
    },
    {
        "id": "vtls004959618_1_18",
        "type": "sailor",
        "parent": "vtls004959618",
        "name": "henry herbst",
        "dob": "blk",
        "age": "20",
        "place_of_birth": "sweden",
        "home_address": "blk",
        "f": "blk",
        "name_of_ship": "dutch ship",
        "ship_port": "blk",
        "date_leaving": "1870",
        "joined_ship_date": "1870-03-24",
        "joined_at_port": "london",
        "capacity": "ordinary seaman",
        "date_left": "1870-08-26",
        "left_port": "london",
        "cause_of_leaving": "discharged",
        "sign_with_mark": "y",
        "notes": "blk"
    },
    {
        "id": "vtls004959618_1_15",
        "type": "sailor",
        "parent": "vtls004959618",
        "name": "francis conen",
        "dob": "blk",
        "age": "21",
        "place_of_birth": "guernsey",
        "home_address": "blk",
        "f": "blk",
        "name_of_ship": "[tizne]",
        "ship_port": "guernsey",
        "date_leaving": "1870",
        "joined_ship_date": "1870-03-24",
        "joined_at_port": "london",
        "capacity": "able seaman",
        "date_left": "1870-08-26",
        "left_port": "london",
        "cause_of_leaving": "discharged",
        "sign_with_mark": "n",
        "notes": "blk"
    },
    {
        "id": "vtls004959624_1_15",
        "type": "sailor",
        "parent": "vtls004959624",
        "name": "lorenity wilson",
        "dob": "blk",
        "age": "31",
        "place_of_birth": "norway",
        "home_address": "blk",
        "f": "blk",
        "name_of_ship": "slieve bloom",
        "ship_port": "st johns nb",
        "date_leaving": "1871",
        "joined_ship_date": "1871-07-05",
        "joined_at_port": "london",
        "capacity": "able seaman",
        "date_left": "1871-10-15",
        "left_port": "east london",
        "cause_of_leaving": "vessel wrecked",
        "sign_with_mark": "n",
        "notes": "crew discharged"
    },
    {
        "id": "vtls004959624_1_13",
        "type": "sailor",
        "parent": "vtls004959624",
        "name": "thomas jenkins",
        "dob": "blk",
        "age": "22",
        "place_of_birth": "aberystwyth",
        "home_address": "blk",
        "f": "blk",
        "name_of_ship": "pilgrim",
        "ship_port": "aberystwyth",
        "date_leaving": "1871",
        "joined_ship_date": "1871-07-05",
        "joined_at_port": "london",
        "capacity": "boatswain",
        "date_left": "1871-10-15",
        "left_port": "east london",
        "cause_of_leaving": "vessel wrecked",
        "sign_with_mark": "n",
        "notes": "crew discharged"
    },
    {
        "id": "vtls004959624_1_11",
        "type": "sailor",
        "parent": "vtls004959624",
        "name": "david jenkins",
        "dob": "blk",
        "age": "31",
        "place_of_birth": "aberystwyth",
        "home_address": "blk",
        "f": "blk",
        "name_of_ship": "sarah phillips",
        "ship_port": "aberystwyth",
        "date_leaving": "continued",
        "joined_ship_date": "continued",
        "joined_at_port": "blk",
        "capacity": "master",
        "date_left": "1871-10-15",
        "left_port": "east london",
        "cause_of_leaving": "vessel wrecked",
        "sign_with_mark": "n",
        "notes": "blk"
    },
    {
        "id": "vtls004959624_1_14",
        "type": "sailor",
        "parent": "vtls004959624",
        "name": "a olsen",
        "dob": "blk",
        "age": "27",
        "place_of_birth": "norway",
        "home_address": "blk",
        "f": "blk",
        "name_of_ship": "swedish vessel",
        "ship_port": "blk",
        "date_leaving": "1871",
        "joined_ship_date": "1871-07-05",
        "joined_at_port": "london",
        "capacity": "cook & seaman",
        "date_left": "1871-10-15",
        "left_port": "east london",
        "cause_of_leaving": "vessel wrecked",
        "sign_with_mark": "n",
        "notes": "crew discharged"
    },
    {
        "id": "vtls004959624_0_17",
        "type": "sailor",
        "parent": "vtls004959624",
        "name": "david doughton",
        "dob": "blk",
        "age": "18",
        "place_of_birth": "aberystwyth",
        "home_address": "blk",
        "f": "blk",
        "name_of_ship": "volunteer",
        "ship_port": "aberystwyth",
        "date_leaving": "1870",
        "joined_ship_date": "1870-11-07",
        "joined_at_port": "london",
        "capacity": "able seaman",
        "date_left": "1871-05-08",
        "left_port": "london",
        "cause_of_leaving": "discharged",
        "sign_with_mark": "n",
        "notes": "blk"
    },
    {
        "id": "vtls004959624_0_16",
        "type": "sailor",
        "parent": "vtls004959624",
        "name": "thomas william",
        "dob": "blk",
        "age": "18",
        "place_of_birth": "aberystwyth",
        "home_address": "blk",
        "f": "blk",
        "name_of_ship": "battus",
        "ship_port": "aberystwyth",
        "date_leaving": "1870",
        "joined_ship_date": "1870-11-07",
        "joined_at_port": "london",
        "capacity": "able seaman",
        "date_left": "1871-05-08",
        "left_port": "london",
        "cause_of_leaving": "discharged",
        "sign_with_mark": "n",
        "notes": "blk"
    },
    {
        "id": "vtls004959624_1_12",
        "type": "sailor",
        "parent": "vtls004959624",
        "name": "thomas hughes",
        "dob": "blk",
        "age": "27",
        "place_of_birth": "aberystwyth",
        "home_address": "blk",
        "f": "blk",
        "name_of_ship": "emily",
        "ship_port": "swansea",
        "date_leaving": "1871",
        "joined_ship_date": "1871-07-05",
        "joined_at_port": "london",
        "capacity": "mate",
        "date_left": "1871-10-15",
        "left_port": "east london",
        "cause_of_leaving": "vessel wrecked",
        "sign_with_mark": "n",
        "notes": "blk"
    },
    {
        "id": "vtls004959624_0_18",
        "type": "sailor",
        "parent": "vtls004959624",
        "name": "charles dicks",
        "dob": "blk",
        "age": "20",
        "place_of_birth": "norway",
        "home_address": "blk",
        "f": "blk",
        "name_of_ship": "norman",
        "ship_port": "london",
        "date_leaving": "1870",
        "joined_ship_date": "1870-11-07",
        "joined_at_port": "london",
        "capacity": "ordinary seaman",
        "date_left": "1871-05-08",
        "left_port": "london",
        "cause_of_leaving": "discharged",
        "sign_with_mark": "y",
        "notes": "blk"
    },
    {
        "id": "vtls004959624_1_17",
        "type": "sailor",
        "parent": "vtls004959624",
        "name": "thomas jenkins",
        "dob": "blk",
        "age": "19",
        "place_of_birth": "stockton",
        "home_address": "blk",
        "f": "blk",
        "name_of_ship": "w.e. gladstone",
        "ship_port": "london",
        "date_leaving": "1871",
        "joined_ship_date": "1871-07-05",
        "joined_at_port": "london",
        "capacity": "ordinary seaman",
        "date_left": "1871-10-15",
        "left_port": "east london",
        "cause_of_leaving": "vessel wrecked",
        "sign_with_mark": "n",
        "notes": "crew discharged"
    },
    {
        "id": "vtls004959624_1_18",
        "type": "sailor",
        "parent": "vtls004959624",
        "name": "edward nielsen",
        "dob": "blk",
        "age": "20",
        "place_of_birth": "copenhagen",
        "home_address": "blk",
        "f": "blk",
        "name_of_ship": "gladstone",
        "ship_port": "shields",
        "date_leaving": "1871",
        "joined_ship_date": "1871-07-05",
        "joined_at_port": "london",
        "capacity": "ordinary seaman",
        "date_left": "1871-10-15",
        "left_port": "east london",
        "cause_of_leaving": "vessel wrecked",
        "sign_with_mark": "n",
        "notes": "crew discharged"
    },
    {
        "id": "vtls004959624_1_16",
        "type": "sailor",
        "parent": "vtls004959624",
        "name": "henry potter",
        "dob": "blk",
        "age": "20",
        "place_of_birth": "stockton",
        "home_address": "blk",
        "f": "blk",
        "name_of_ship": "violet",
        "ship_port": "cardigan",
        "date_leaving": "1871",
        "joined_ship_date": "1871-07-05",
        "joined_at_port": "london",
        "capacity": "able seaman",
        "date_left": "1871-10-15",
        "left_port": "east london",
        "cause_of_leaving": "vessel wrecked",
        "sign_with_mark": "n",
        "notes": "crew discharged"
    }
]