[
    {
        "id": "vtls004693640_0_11",
        "type": "sailor",
        "parent": "vtls004693640",
        "name": "daniel jones",
        "dob": "1828",
        "age": "50",
        "place_of_birth": "aberaeron",
        "home_address": "blk",
        "f": "blk",
        "name_of_ship": "john pierce",
        "ship_port": "aberystwyth",
        "date_leaving": "continuous",
        "joined_ship_date": "1878-01-01",
        "joined_at_port": "newquay",
        "capacity": "master",
        "date_left": "remains",
        "left_port": "remains",
        "cause_of_leaving": "remains on board",
        "sign_with_mark": "blk",
        "notes": "blk"
    },
    {
        "id": "vtls004693640_0_16",
        "type": "sailor",
        "parent": "vtls004693640",
        "name": "william roberts",
        "dob": "1862",
        "age": "16",
        "place_of_birth": "aberaeron",
        "home_address": "blk",
        "f": "blk",
        "name_of_ship": "hannah jones",
        "ship_port": "[aberystwyth]",
        "date_leaving": "[1878]",
        "joined_ship_date": "1878-04-16",
        "joined_at_port": "aberaeron",
        "capacity": "ordinary seaman",
        "date_left": "1878-07-03",
        "left_port": "newport",
        "cause_of_leaving": "paid off",
        "sign_with_mark": "blk",
        "notes": "blk"
    },
    {
        "id": "vtls004693640_0_15",
        "type": "sailor",
        "parent": "vtls004693640",
        "name": "william jenkins",
        "dob": "1854",
        "age": "24",
        "place_of_birth": "aberaeron",
        "home_address": "blk",
        "f": "blk",
        "name_of_ship": "hannah jones",
        "ship_port": "[aberystwyth]",
        "date_leaving": "[1878]",
        "joined_ship_date": "1878-04-16",
        "joined_at_port": "aberaeron",
        "capacity": "able seaman",
        "date_left": "1878-07-03",
        "left_port": "newport",
        "cause_of_leaving": "paid off",
        "sign_with_mark": "blk",
        "notes": "blk"
    },
    {
        "id": "vtls004693640_0_14",
        "type": "sailor",
        "parent": "vtls004693640",
        "name": "ebenezer jones",
        "dob": "1832",
        "age": "46",
        "place_of_birth": "aberaeron",
        "home_address": "blk",
        "f": "blk",
        "name_of_ship": "hannah jones",
        "ship_port": "[aberystwyth]",
        "date_leaving": "[1878]",
        "joined_ship_date": "1878-04-16",
        "joined_at_port": "aberaeron",
        "capacity": "mate",
        "date_left": "remains",
        "left_port": "remains",
        "cause_of_leaving": "remains on board",
        "sign_with_mark": "blk",
        "notes": "blk"
    },
    {
        "id": "vtls004693640_0_12",
        "type": "sailor",
        "parent": "vtls004693640",
        "name": "william jones",
        "dob": "blk",
        "age": "36",
        "place_of_birth": "flint",
        "home_address": "blk",
        "f": "blk",
        "name_of_ship": "john pierce",
        "ship_port": "aberystwyth",
        "date_leaving": "continuous",
        "joined_ship_date": "1878-01-01",
        "joined_at_port": "newquay",
        "capacity": "mate",
        "date_left": "1878-01-13",
        "left_port": "aberaeron",
        "cause_of_leaving": "discharged",
        "sign_with_mark": "blk",
        "notes": "blk"
    },
    {
        "id": "vtls004693640_0_13",
        "type": "sailor",
        "parent": "vtls004693640",
        "name": "peter jones",
        "dob": "blk",
        "age": "14",
        "place_of_birth": "aberaeron",
        "home_address": "blk",
        "f": "blk",
        "name_of_ship": "john pierce",
        "ship_port": "aberystwyth",
        "date_leaving": "continuous",
        "joined_ship_date": "1878-01-01",
        "joined_at_port": "newquay",
        "capacity": "boy",
        "date_left": "1878-01-14",
        "left_port": "aberaeron",
        "cause_of_leaving": "discharged",
        "sign_with_mark": "blk",
        "notes": "blk"
    },
    {
        "id": "vtls004693640_0_17",
        "type": "sailor",
        "parent": "vtls004693640",
        "name": "william jones",
        "dob": "1865",
        "age": "13",
        "place_of_birth": "aberaeron",
        "home_address": "blk",
        "f": "blk",
        "name_of_ship": "first ship",
        "ship_port": "blk",
        "date_leaving": "blk",
        "joined_ship_date": "1878-04-16",
        "joined_at_port": "aberaeron",
        "capacity": "boy",
        "date_left": "remains",
        "left_port": "remains",
        "cause_of_leaving": "remains on board",
        "sign_with_mark": "blk",
        "notes": "blk"
    }
]