[
    {
        "id": "vtls004939704_0_15",
        "type": "sailor",
        "parent": "vtls004939704",
        "name": "thomas munro",
        "dob": "blk",
        "age": "17",
        "place_of_birth": "leith",
        "home_address": "blk",
        "f": "blk",
        "name_of_ship": "maiden bower",
        "ship_port": "scilly",
        "date_leaving": "1877",
        "joined_ship_date": "1877-02-09",
        "joined_at_port": "newport",
        "capacity": "ordinary seaman",
        "date_left": "1877-05-04",
        "left_port": "smyrna",
        "cause_of_leaving": "discharged",
        "sign_with_mark": "n",
        "notes": "blk"
    },
    {
        "id": "vtls004939704_0_13",
        "type": "sailor",
        "parent": "vtls004939704",
        "name": "charles whitchurch",
        "dob": "blk",
        "age": "26",
        "place_of_birth": "chepstow",
        "home_address": "blk",
        "f": "blk",
        "name_of_ship": "[shahpore]",
        "ship_port": "liverpool",
        "date_leaving": "1877",
        "joined_ship_date": "1877-02-09",
        "joined_at_port": "newport",
        "capacity": "able seaman",
        "date_left": "blk",
        "left_port": "blk",
        "cause_of_leaving": "did not join",
        "sign_with_mark": "n",
        "notes": "blk"
    },
    {
        "id": "vtls004939704_0_14",
        "type": "sailor",
        "parent": "vtls004939704",
        "name": "robert beerbaum",
        "dob": "blk",
        "age": "45",
        "place_of_birth": "stettin",
        "home_address": "blk",
        "f": "blk",
        "name_of_ship": "[marie]",
        "ship_port": "stettin",
        "date_leaving": "1877",
        "joined_ship_date": "1877-02-09",
        "joined_at_port": "newport",
        "capacity": "able seaman",
        "date_left": "1877-07-10",
        "left_port": "exeter",
        "cause_of_leaving": "discharged",
        "sign_with_mark": "n",
        "notes": "blk"
    },
    {
        "id": "vtls004939704_0_12",
        "type": "sailor",
        "parent": "vtls004939704",
        "name": "thomas morris",
        "dob": "blk",
        "age": "42",
        "place_of_birth": "newport",
        "home_address": "blk",
        "f": "blk",
        "name_of_ship": "derby",
        "ship_port": "aberystwyth",
        "date_leaving": "1877",
        "joined_ship_date": "1877-02-09",
        "joined_at_port": "newport",
        "capacity": "mate",
        "date_left": "1877-07-20",
        "left_port": "exeter",
        "cause_of_leaving": "discharged",
        "sign_with_mark": "n",
        "notes": "blk"
    },
    {
        "id": "vtls004939704_0_11",
        "type": "sailor",
        "parent": "vtls004939704",
        "name": "daniel jones",
        "dob": "blk",
        "age": "28",
        "place_of_birth": "aberaeron",
        "home_address": "blk",
        "f": "blk",
        "name_of_ship": "pleiades",
        "ship_port": "aberystwyth",
        "date_leaving": "blk",
        "joined_ship_date": "blk",
        "joined_at_port": "blk",
        "capacity": "master",
        "date_left": "blk",
        "left_port": "blk",
        "cause_of_leaving": "remains on board",
        "sign_with_mark": "n",
        "notes": "blk"
    },
    {
        "id": "vtls004939704_1_14",
        "type": "sailor",
        "parent": "vtls004939704",
        "name": "jenkin evans",
        "dob": "blk",
        "age": "35",
        "place_of_birth": "aberaeron",
        "home_address": "blk",
        "f": "blk",
        "name_of_ship": "hannah croasdell",
        "ship_port": "lancaster",
        "date_leaving": "1877",
        "joined_ship_date": "1877-08-10",
        "joined_at_port": "cardiff",
        "capacity": "able seaman",
        "date_left": "1877-11-07",
        "left_port": "ipswich",
        "cause_of_leaving": "discharged",
        "sign_with_mark": "n",
        "notes": "blk"
    },
    {
        "id": "vtls004939704_1_16",
        "type": "sailor",
        "parent": "vtls004939704",
        "name": "thomas jones",
        "dob": "blk",
        "age": "16",
        "place_of_birth": "aberaeron",
        "home_address": "blk",
        "f": "blk",
        "name_of_ship": "pleiades",
        "ship_port": "aberystwyth",
        "date_leaving": "1877",
        "joined_ship_date": "1877-08-10",
        "joined_at_port": "cardiff",
        "capacity": "ordinary seaman",
        "date_left": "1877-11-07",
        "left_port": "ipswich",
        "cause_of_leaving": "discharged",
        "sign_with_mark": "n",
        "notes": "blk"
    },
    {
        "id": "vtls004939704_0_17",
        "type": "sailor",
        "parent": "vtls004939704",
        "name": "william lateford",
        "dob": "blk",
        "age": "23",
        "place_of_birth": "$",
        "home_address": "blk",
        "f": "blk",
        "name_of_ship": "[frankfort]",
        "ship_port": "liverpool",
        "date_leaving": "1877",
        "joined_ship_date": "1877-02-21",
        "joined_at_port": "newport",
        "capacity": "able seaman",
        "date_left": "1877-06-20",
        "left_port": "falmouth",
        "cause_of_leaving": "discharged",
        "sign_with_mark": "n",
        "notes": "blk"
    },
    {
        "id": "vtls004939704_0_16",
        "type": "sailor",
        "parent": "vtls004939704",
        "name": "thomas jones",
        "dob": "blk",
        "age": "16",
        "place_of_birth": "aberaeron",
        "home_address": "blk",
        "f": "blk",
        "name_of_ship": "pleiades",
        "ship_port": "aberystwyth",
        "date_leaving": "1877",
        "joined_ship_date": "1877-02-09",
        "joined_at_port": "newport",
        "capacity": "boy & cook",
        "date_left": "1877-07-10",
        "left_port": "exeter",
        "cause_of_leaving": "discharged",
        "sign_with_mark": "n",
        "notes": "blk"
    },
    {
        "id": "vtls004939704_2_11",
        "type": "sailor",
        "parent": "vtls004939704",
        "name": "david rees",
        "dob": "blk",
        "age": "54",
        "place_of_birth": "aberaeron",
        "home_address": "blk",
        "f": "blk",
        "name_of_ship": "pleiades",
        "ship_port": "aberystwyth",
        "date_leaving": "1877",
        "joined_ship_date": "1877-11-15",
        "joined_at_port": "ipswich",
        "capacity": "master",
        "date_left": "1877-12-31",
        "left_port": "dublin",
        "cause_of_leaving": "remains on board",
        "sign_with_mark": "n",
        "notes": "blk"
    },
    {
        "id": "vtls004939704_0_18",
        "type": "sailor",
        "parent": "vtls004939704",
        "name": "$ gilippsis",
        "dob": "blk",
        "age": "22",
        "place_of_birth": "greece",
        "home_address": "blk",
        "f": "blk",
        "name_of_ship": "foreign vessel",
        "ship_port": "blk",
        "date_leaving": "1877",
        "joined_ship_date": "1877-05-04",
        "joined_at_port": "smyrna",
        "capacity": "ordinary seaman",
        "date_left": "1877-07-10",
        "left_port": "exeter",
        "cause_of_leaving": "discharged",
        "sign_with_mark": "n",
        "notes": "blk"
    },
    {
        "id": "vtls004939704_1_15",
        "type": "sailor",
        "parent": "vtls004939704",
        "name": "david james",
        "dob": "blk",
        "age": "27",
        "place_of_birth": "aberaeron",
        "home_address": "blk",
        "f": "blk",
        "name_of_ship": "[muca]",
        "ship_port": "liverpool",
        "date_leaving": "1877",
        "joined_ship_date": "1877-08-10",
        "joined_at_port": "cardiff",
        "capacity": "able seaman",
        "date_left": "1877-11-07",
        "left_port": "ipswich",
        "cause_of_leaving": "discharged",
        "sign_with_mark": "n",
        "notes": "blk"
    },
    {
        "id": "vtls004939704_1_13",
        "type": "sailor",
        "parent": "vtls004939704",
        "name": "evan lewis",
        "dob": "blk",
        "age": "14",
        "place_of_birth": "aberaeron",
        "home_address": "blk",
        "f": "blk",
        "name_of_ship": "first ship",
        "ship_port": "blk",
        "date_leaving": "1877",
        "joined_ship_date": "1877-08-10",
        "joined_at_port": "cardiff",
        "capacity": "cook & steward",
        "date_left": "1877-11-07",
        "left_port": "ipswich",
        "cause_of_leaving": "discharged",
        "sign_with_mark": "n",
        "notes": "blk"
    },
    {
        "id": "vtls004939704_1_12",
        "type": "sailor",
        "parent": "vtls004939704",
        "name": "daniel jones",
        "dob": "blk",
        "age": "28",
        "place_of_birth": "aberaeron",
        "home_address": "blk",
        "f": "blk",
        "name_of_ship": "pleiades",
        "ship_port": "aberystwyth",
        "date_leaving": "1877",
        "joined_ship_date": "1877-08-10",
        "joined_at_port": "cardiff",
        "capacity": "mate",
        "date_left": "1877-11-07",
        "left_port": "ipswich",
        "cause_of_leaving": "discharged",
        "sign_with_mark": "n",
        "notes": "blk"
    },
    {
        "id": "vtls004939704_1_11",
        "type": "sailor",
        "parent": "vtls004939704",
        "name": "david rees",
        "dob": "blk",
        "age": "54",
        "place_of_birth": "aberaeron",
        "home_address": "blk",
        "f": "blk",
        "name_of_ship": "pleiades",
        "ship_port": "aberystwyth",
        "date_leaving": "1877",
        "joined_ship_date": "1877-08-10",
        "joined_at_port": "cardiff",
        "capacity": "master",
        "date_left": "blk",
        "left_port": "blk",
        "cause_of_leaving": "remains on board",
        "sign_with_mark": "n",
        "notes": "blk"
    },
    {
        "id": "vtls004939704_2_15",
        "type": "sailor",
        "parent": "vtls004939704",
        "name": "thomas jones",
        "dob": "blk",
        "age": "17",
        "place_of_birth": "aberaeron",
        "home_address": "blk",
        "f": "blk",
        "name_of_ship": "pleiades",
        "ship_port": "aberystwyth",
        "date_leaving": "1877",
        "joined_ship_date": "1877-11-15",
        "joined_at_port": "ipswich",
        "capacity": "ordinary seaman",
        "date_left": "1877-12-31",
        "left_port": "dublin",
        "cause_of_leaving": "remains on board",
        "sign_with_mark": "n",
        "notes": "blk"
    },
    {
        "id": "vtls004939704_2_13",
        "type": "sailor",
        "parent": "vtls004939704",
        "name": "daniel james",
        "dob": "blk",
        "age": "27",
        "place_of_birth": "aberaeron",
        "home_address": "blk",
        "f": "blk",
        "name_of_ship": "pleiades",
        "ship_port": "aberystwyth",
        "date_leaving": "1877",
        "joined_ship_date": "1877-11-15",
        "joined_at_port": "ipswich",
        "capacity": "able seaman",
        "date_left": "1877-12-26",
        "left_port": "dublin",
        "cause_of_leaving": "mutual consent",
        "sign_with_mark": "n",
        "notes": "blk"
    },
    {
        "id": "vtls004939704_2_14",
        "type": "sailor",
        "parent": "vtls004939704",
        "name": "jenkin evans",
        "dob": "blk",
        "age": "35",
        "place_of_birth": "aberaeron",
        "home_address": "blk",
        "f": "blk",
        "name_of_ship": "pleiades",
        "ship_port": "aberystwyth",
        "date_leaving": "1877",
        "joined_ship_date": "1877-11-15",
        "joined_at_port": "ipswich",
        "capacity": "able seaman",
        "date_left": "1877-12-26",
        "left_port": "dublin",
        "cause_of_leaving": "mutual consent",
        "sign_with_mark": "n",
        "notes": "blk"
    },
    {
        "id": "vtls004939704_2_17",
        "type": "sailor",
        "parent": "vtls004939704",
        "name": "george hawkins",
        "dob": "blk",
        "age": "20",
        "place_of_birth": "bristol",
        "home_address": "blk",
        "f": "blk",
        "name_of_ship": "ranger",
        "ship_port": "glasgow",
        "date_leaving": "1877",
        "joined_ship_date": "1877-12-27",
        "joined_at_port": "dublin",
        "capacity": "able seaman",
        "date_left": "1877-12-31",
        "left_port": "dublin",
        "cause_of_leaving": "remains on board",
        "sign_with_mark": "n",
        "notes": "blk"
    },
    {
        "id": "vtls004939704_2_16",
        "type": "sailor",
        "parent": "vtls004939704",
        "name": "evan lewis",
        "dob": "blk",
        "age": "14",
        "place_of_birth": "aberaeron",
        "home_address": "blk",
        "f": "blk",
        "name_of_ship": "pleiades",
        "ship_port": "aberystwyth",
        "date_leaving": "1877",
        "joined_ship_date": "1877-11-15",
        "joined_at_port": "ipswich",
        "capacity": "cook",
        "date_left": "1877-12-31",
        "left_port": "dublin",
        "cause_of_leaving": "remains on board",
        "sign_with_mark": "n",
        "notes": "blk"
    },
    {
        "id": "vtls004939704_2_18",
        "type": "sailor",
        "parent": "vtls004939704",
        "name": "thomas bevan",
        "dob": "blk",
        "age": "19",
        "place_of_birth": "pembroke",
        "home_address": "blk",
        "f": "blk",
        "name_of_ship": "ranger",
        "ship_port": "glasgow",
        "date_leaving": "1877",
        "joined_ship_date": "1877-12-27",
        "joined_at_port": "dublin",
        "capacity": "able seaman",
        "date_left": "1877-12-31",
        "left_port": "dublin",
        "cause_of_leaving": "remains on board",
        "sign_with_mark": "n",
        "notes": "blk"
    },
    {
        "id": "vtls004939704_2_12",
        "type": "sailor",
        "parent": "vtls004939704",
        "name": "daniel jones",
        "dob": "blk",
        "age": "28",
        "place_of_birth": "aberaeron",
        "home_address": "blk",
        "f": "blk",
        "name_of_ship": "pleiades",
        "ship_port": "aberystwyth",
        "date_leaving": "1877",
        "joined_ship_date": "1877-11-15",
        "joined_at_port": "ipswich",
        "capacity": "mate",
        "date_left": "blk",
        "left_port": "blk",
        "cause_of_leaving": "remains on board",
        "sign_with_mark": "n",
        "notes": "blk"
    },
    {
        "id": "vtls004939761_0_16",
        "type": "sailor",
        "parent": "vtls004939761",
        "name": "edward lewis",
        "dob": "blk",
        "age": "21",
        "place_of_birth": "aberystwyth",
        "home_address": "blk",
        "f": "blk",
        "name_of_ship": "velocity",
        "ship_port": "aberystwyth",
        "date_leaving": "1878",
        "joined_ship_date": "1878-01-22",
        "joined_at_port": "cardiff",
        "capacity": "ordinary seaman",
        "date_left": "1878-03-16",
        "left_port": "trapani",
        "cause_of_leaving": "deserted",
        "sign_with_mark": "n",
        "notes": "blk"
    },
    {
        "id": "vtls004939761_0_14",
        "type": "sailor",
        "parent": "vtls004939761",
        "name": "david williams",
        "dob": "blk",
        "age": "52",
        "place_of_birth": "aberaeron",
        "home_address": "blk",
        "f": "blk",
        "name_of_ship": "margaret",
        "ship_port": "aberayron",
        "date_leaving": "1878",
        "joined_ship_date": "1878-01-22",
        "joined_at_port": "cardiff",
        "capacity": "able seaman",
        "date_left": "1878-06-22",
        "left_port": "gloucestershire",
        "cause_of_leaving": "discharged",
        "sign_with_mark": "n",
        "notes": "blk"
    },
    {
        "id": "vtls004939761_0_13",
        "type": "sailor",
        "parent": "vtls004939761",
        "name": "daniel james davies",
        "dob": "blk",
        "age": "13",
        "place_of_birth": "cardiganshire",
        "home_address": "blk",
        "f": "blk",
        "name_of_ship": "first ship",
        "ship_port": "blk",
        "date_leaving": "1878",
        "joined_ship_date": "1878-01-22",
        "joined_at_port": "cardiff",
        "capacity": "cook",
        "date_left": "1878-06-22",
        "left_port": "gloucestershire",
        "cause_of_leaving": "discharged",
        "sign_with_mark": "n",
        "notes": "blk"
    },
    {
        "id": "vtls004939761_0_15",
        "type": "sailor",
        "parent": "vtls004939761",
        "name": "john jones",
        "dob": "blk",
        "age": "22",
        "place_of_birth": "aberaeron",
        "home_address": "blk",
        "f": "blk",
        "name_of_ship": "berlin",
        "ship_port": "aberystwyth",
        "date_leaving": "1878",
        "joined_ship_date": "1878-01-22",
        "joined_at_port": "cardiff",
        "capacity": "able seaman",
        "date_left": "1878-06-22",
        "left_port": "gloucestershire",
        "cause_of_leaving": "discharged",
        "sign_with_mark": "n",
        "notes": "blk"
    },
    {
        "id": "vtls004939761_1_13",
        "type": "sailor",
        "parent": "vtls004939761",
        "name": "david williams",
        "dob": "blk",
        "age": "32",
        "place_of_birth": "aberaeron",
        "home_address": "blk",
        "f": "blk",
        "name_of_ship": "pleiades",
        "ship_port": "aberystwyth",
        "date_leaving": "1878",
        "joined_ship_date": "1878-07-03",
        "joined_at_port": "$",
        "capacity": "able seaman",
        "date_left": "1879-05-06",
        "left_port": "milford",
        "cause_of_leaving": "discharged",
        "sign_with_mark": "n",
        "notes": "blk"
    },
    {
        "id": "vtls004939761_0_12",
        "type": "sailor",
        "parent": "vtls004939761",
        "name": "jenkin jones",
        "dob": "blk",
        "age": "57",
        "place_of_birth": "aberaeron",
        "home_address": "blk",
        "f": "blk",
        "name_of_ship": "arabian",
        "ship_port": "chester",
        "date_leaving": "1878",
        "joined_ship_date": "1878-01-22",
        "joined_at_port": "cardiff",
        "capacity": "mate",
        "date_left": "1878-06-22",
        "left_port": "gloucestershire",
        "cause_of_leaving": "discharged",
        "sign_with_mark": "n",
        "notes": "blk"
    },
    {
        "id": "vtls004939761_0_11",
        "type": "sailor",
        "parent": "vtls004939761",
        "name": "daniel jones",
        "dob": "blk",
        "age": "28",
        "place_of_birth": "aberaeron",
        "home_address": "blk",
        "f": "blk",
        "name_of_ship": "pleiades",
        "ship_port": "aberystwyth",
        "date_leaving": "1878",
        "joined_ship_date": "1878-01-22",
        "joined_at_port": "cardiff",
        "capacity": "master",
        "date_left": "blk",
        "left_port": "blk",
        "cause_of_leaving": "remains on board",
        "sign_with_mark": "n",
        "notes": "blk"
    },
    {
        "id": "vtls004939761_1_12",
        "type": "sailor",
        "parent": "vtls004939761",
        "name": "jenkin jones",
        "dob": "blk",
        "age": "26",
        "place_of_birth": "aberaeron",
        "home_address": "blk",
        "f": "blk",
        "name_of_ship": "pleiades",
        "ship_port": "aberystwyth",
        "date_leaving": "1878",
        "joined_ship_date": "1878-07-03",
        "joined_at_port": "$",
        "capacity": "mate",
        "date_left": "1879-05-06",
        "left_port": "milford",
        "cause_of_leaving": "discharged",
        "sign_with_mark": "n",
        "notes": "blk"
    },
    {
        "id": "vtls004939761_0_17",
        "type": "sailor",
        "parent": "vtls004939761",
        "name": "giuseppe campagna",
        "dob": "blk",
        "age": "28",
        "place_of_birth": "trapani",
        "home_address": "blk",
        "f": "blk",
        "name_of_ship": "bella $",
        "ship_port": "$",
        "date_leaving": "1878",
        "joined_ship_date": "1878-01-22",
        "joined_at_port": "blk",
        "capacity": "seaman",
        "date_left": "1878-06-12",
        "left_port": "gloucestershire",
        "cause_of_leaving": "discharged",
        "sign_with_mark": "y",
        "notes": "blk"
    },
    {
        "id": "vtls004939761_1_11",
        "type": "sailor",
        "parent": "vtls004939761",
        "name": "david jones",
        "dob": "blk",
        "age": "29",
        "place_of_birth": "aberaeron",
        "home_address": "blk",
        "f": "blk",
        "name_of_ship": "pleiades",
        "ship_port": "aberystwyth",
        "date_leaving": "blk",
        "joined_ship_date": "blk",
        "joined_at_port": "blk",
        "capacity": "master",
        "date_left": "blk",
        "left_port": "blk",
        "cause_of_leaving": "blk",
        "sign_with_mark": "n",
        "notes": "blk"
    },
    {
        "id": "vtls004939761_2_14",
        "type": "sailor",
        "parent": "vtls004939761",
        "name": "thomas jenkins",
        "dob": "blk",
        "age": "19",
        "place_of_birth": "county of pembrock",
        "home_address": "blk",
        "f": "blk",
        "name_of_ship": "william west",
        "ship_port": "fowey",
        "date_leaving": "blk",
        "joined_ship_date": "1879-07-01",
        "joined_at_port": "milford",
        "capacity": "ordinary seaman",
        "date_left": "1879-07-04",
        "left_port": "newport",
        "cause_of_leaving": "discharged",
        "sign_with_mark": "n",
        "notes": "blk"
    },
    {
        "id": "vtls004939761_2_13",
        "type": "sailor",
        "parent": "vtls004939761",
        "name": "john james",
        "dob": "blk",
        "age": "21",
        "place_of_birth": "county of pembrock",
        "home_address": "blk",
        "f": "blk",
        "name_of_ship": "margaret alice",
        "ship_port": "milford",
        "date_leaving": "blk",
        "joined_ship_date": "1879-07-01",
        "joined_at_port": "milford",
        "capacity": "able seaman",
        "date_left": "1879-07-04",
        "left_port": "newport",
        "cause_of_leaving": "discharged",
        "sign_with_mark": "n",
        "notes": "blk"
    },
    {
        "id": "vtls004939761_1_16",
        "type": "sailor",
        "parent": "vtls004939761",
        "name": "daniel i davies",
        "dob": "blk",
        "age": "13",
        "place_of_birth": "aberaeron",
        "home_address": "blk",
        "f": "blk",
        "name_of_ship": "pleiades",
        "ship_port": "aberystwyth",
        "date_leaving": "1878",
        "joined_ship_date": "1878-07-03",
        "joined_at_port": "$",
        "capacity": "able seaman",
        "date_left": "1879-05-06",
        "left_port": "milford",
        "cause_of_leaving": "discharged",
        "sign_with_mark": "n",
        "notes": "blk"
    },
    {
        "id": "vtls004939761_1_15",
        "type": "sailor",
        "parent": "vtls004939761",
        "name": "joseph campagne",
        "dob": "blk",
        "age": "28",
        "place_of_birth": "aberaeron",
        "home_address": "blk",
        "f": "blk",
        "name_of_ship": "pleiades",
        "ship_port": "aberystwyth",
        "date_leaving": "1878",
        "joined_ship_date": "1878-07-03",
        "joined_at_port": "$",
        "capacity": "able seaman",
        "date_left": "1879-04-15",
        "left_port": "hamburg, germany",
        "cause_of_leaving": "discharged",
        "sign_with_mark": "y",
        "notes": "blk"
    },
    {
        "id": "vtls004939761_1_17",
        "type": "sailor",
        "parent": "vtls004939761",
        "name": "ernst pries",
        "dob": "blk",
        "age": "17",
        "place_of_birth": "perth",
        "home_address": "blk",
        "f": "blk",
        "name_of_ship": "foreign ship",
        "ship_port": "blk",
        "date_leaving": "1879",
        "joined_ship_date": "1879-04-23",
        "joined_at_port": "hamburg",
        "capacity": "ordinary seaman",
        "date_left": "1879-05-06",
        "left_port": "milford",
        "cause_of_leaving": "discharged",
        "sign_with_mark": "y",
        "notes": "blk"
    },
    {
        "id": "vtls004939761_2_12",
        "type": "sailor",
        "parent": "vtls004939761",
        "name": "john peterson",
        "dob": "blk",
        "age": "48",
        "place_of_birth": "milford",
        "home_address": "blk",
        "f": "blk",
        "name_of_ship": "pleiades",
        "ship_port": "aberystwyth",
        "date_leaving": "blk",
        "joined_ship_date": "1879-07-01",
        "joined_at_port": "milford",
        "capacity": "able seaman",
        "date_left": "1879-07-04",
        "left_port": "newport",
        "cause_of_leaving": "discharged",
        "sign_with_mark": "n",
        "notes": "blk"
    },
    {
        "id": "vtls004939761_1_14",
        "type": "sailor",
        "parent": "vtls004939761",
        "name": "john jones",
        "dob": "blk",
        "age": "23",
        "place_of_birth": "aberaeron",
        "home_address": "blk",
        "f": "blk",
        "name_of_ship": "pleiades",
        "ship_port": "aberystwyth",
        "date_leaving": "1878",
        "joined_ship_date": "1878-07-03",
        "joined_at_port": "$",
        "capacity": "able seaman",
        "date_left": "1879-05-06",
        "left_port": "milford",
        "cause_of_leaving": "discharged",
        "sign_with_mark": "n",
        "notes": "blk"
    },
    {
        "id": "vtls004939761_2_11",
        "type": "sailor",
        "parent": "vtls004939761",
        "name": "david rees",
        "dob": "blk",
        "age": "57",
        "place_of_birth": "aberaeron",
        "home_address": "blk",
        "f": "blk",
        "name_of_ship": "pleiades",
        "ship_port": "aberystwyth",
        "date_leaving": "blk",
        "joined_ship_date": "1879-07-01",
        "joined_at_port": "milford",
        "capacity": "master",
        "date_left": "blk",
        "left_port": "blk",
        "cause_of_leaving": "remains on board",
        "sign_with_mark": "n",
        "notes": "blk"
    },
    {
        "id": "vtls004939761_3_15",
        "type": "sailor",
        "parent": "vtls004939761",
        "name": "thomas jenkins",
        "dob": "blk",
        "age": "19",
        "place_of_birth": "pembroke",
        "home_address": "blk",
        "f": "blk",
        "name_of_ship": "william west",
        "ship_port": "fowey",
        "date_leaving": "1879",
        "joined_ship_date": "1879-07-09",
        "joined_at_port": "newport",
        "capacity": "ordinary seaman",
        "date_left": "1879-11-11",
        "left_port": "glasgow",
        "cause_of_leaving": "discharged",
        "sign_with_mark": "n",
        "notes": "blk"
    },
    {
        "id": "vtls004939761_3_13",
        "type": "sailor",
        "parent": "vtls004939761",
        "name": "thomas davies",
        "dob": "blk",
        "age": "30",
        "place_of_birth": "milford",
        "home_address": "blk",
        "f": "blk",
        "name_of_ship": "blue bell",
        "ship_port": "shoreham",
        "date_leaving": "1879",
        "joined_ship_date": "1879-07-09",
        "joined_at_port": "newport",
        "capacity": "able seaman",
        "date_left": "1879-11-11",
        "left_port": "glasgow",
        "cause_of_leaving": "discharged",
        "sign_with_mark": "n",
        "notes": "blk"
    },
    {
        "id": "vtls004939761_3_12",
        "type": "sailor",
        "parent": "vtls004939761",
        "name": "thomas davies",
        "dob": "blk",
        "age": "65",
        "place_of_birth": "st davids",
        "home_address": "blk",
        "f": "blk",
        "name_of_ship": "golden island",
        "ship_port": "fleetwood",
        "date_leaving": "1879",
        "joined_ship_date": "1879-07-09",
        "joined_at_port": "newport",
        "capacity": "mate",
        "date_left": "1879-11-20",
        "left_port": "glasgow",
        "cause_of_leaving": "discharged",
        "sign_with_mark": "n",
        "notes": "blk"
    },
    {
        "id": "vtls004939761_3_16",
        "type": "sailor",
        "parent": "vtls004939761",
        "name": "david d davies",
        "dob": "blk",
        "age": "15",
        "place_of_birth": "aberaeron",
        "home_address": "blk",
        "f": "blk",
        "name_of_ship": "first ship",
        "ship_port": "blk",
        "date_leaving": "1879",
        "joined_ship_date": "1879-07-09",
        "joined_at_port": "newport",
        "capacity": "cook & steward",
        "date_left": "1879-11-11",
        "left_port": "glasgow",
        "cause_of_leaving": "discharged",
        "sign_with_mark": "n",
        "notes": "blk"
    },
    {
        "id": "vtls004939761_3_14",
        "type": "sailor",
        "parent": "vtls004939761",
        "name": "john james",
        "dob": "blk",
        "age": "21",
        "place_of_birth": "pembroke",
        "home_address": "blk",
        "f": "blk",
        "name_of_ship": "mary alice",
        "ship_port": "milford",
        "date_leaving": "1879",
        "joined_ship_date": "1879-07-09",
        "joined_at_port": "newport",
        "capacity": "able seaman",
        "date_left": "1879-11-11",
        "left_port": "glasgow",
        "cause_of_leaving": "discharged",
        "sign_with_mark": "n",
        "notes": "blk"
    },
    {
        "id": "vtls004939761_2_15",
        "type": "sailor",
        "parent": "vtls004939761",
        "name": "david d davies",
        "dob": "blk",
        "age": "12",
        "place_of_birth": "aberaeron",
        "home_address": "blk",
        "f": "blk",
        "name_of_ship": "commence",
        "ship_port": "blk",
        "date_leaving": "blk",
        "joined_ship_date": "1879-07-01",
        "joined_at_port": "milford",
        "capacity": "cook",
        "date_left": "1879-07-04",
        "left_port": "newport",
        "cause_of_leaving": "discharged",
        "sign_with_mark": "n",
        "notes": "blk"
    },
    {
        "id": "vtls004939761_3_11",
        "type": "sailor",
        "parent": "vtls004939761",
        "name": "david rees",
        "dob": "blk",
        "age": "57",
        "place_of_birth": "aberaeron",
        "home_address": "blk",
        "f": "blk",
        "name_of_ship": "pleiades",
        "ship_port": "aberystwyth",
        "date_leaving": "blk",
        "joined_ship_date": "blk",
        "joined_at_port": "blk",
        "capacity": "master",
        "date_left": "blk",
        "left_port": "glasgow",
        "cause_of_leaving": "remains on board",
        "sign_with_mark": "n",
        "notes": "blk"
    }
]