[
    {
        "id": "vtls004932558_0_13",
        "type": "sailor",
        "parent": "vtls004932558",
        "name": "richard owens",
        "dob": "blk",
        "age": "22",
        "place_of_birth": "barmouth",
        "home_address": "blk",
        "f": "blk",
        "name_of_ship": "[endeavour]",
        "ship_port": "carnarvon",
        "date_leaving": "1868-06-01",
        "joined_ship_date": "1868-07-11",
        "joined_at_port": "portmadoc",
        "capacity": "able seaman",
        "date_left": "1866-09-12",
        "left_port": "aberdovey",
        "cause_of_leaving": "discharged",
        "sign_with_mark": "n",
        "notes": "blk"
    },
    {
        "id": "vtls004932558_0_11",
        "type": "sailor",
        "parent": "vtls004932558",
        "name": "evan jones",
        "dob": "blk",
        "age": "26",
        "place_of_birth": "duffrin, county merioneth",
        "home_address": "aberdovey",
        "f": "aberdovey",
        "name_of_ship": "napoleon",
        "ship_port": "aberystywth",
        "date_leaving": "blk",
        "joined_ship_date": "1866-05-11",
        "joined_at_port": "aberdovey",
        "capacity": "master",
        "date_left": "blk",
        "left_port": "blk",
        "cause_of_leaving": "remains",
        "sign_with_mark": "n",
        "notes": "blk"
    },
    {
        "id": "vtls004932558_0_12",
        "type": "sailor",
        "parent": "vtls004932558",
        "name": "edward evans",
        "dob": "blk",
        "age": "35",
        "place_of_birth": "towyn",
        "home_address": "blk",
        "f": "blk",
        "name_of_ship": "napoleon",
        "ship_port": "aberystywth",
        "date_leaving": "blk",
        "joined_ship_date": "1868-06-27",
        "joined_at_port": "aberdovey",
        "capacity": "mate",
        "date_left": "1866-09-12",
        "left_port": "aberdovey",
        "cause_of_leaving": "discharged",
        "sign_with_mark": "n",
        "notes": "blk"
    },
    {
        "id": "vtls004932558_0_15",
        "type": "sailor",
        "parent": "vtls004932558",
        "name": "phillip evans",
        "dob": "blk",
        "age": "20",
        "place_of_birth": "aberdovey",
        "home_address": "blk",
        "f": "blk",
        "name_of_ship": "[gandace]",
        "ship_port": "blk",
        "date_leaving": "1868-09-02",
        "joined_ship_date": "1868-10-28",
        "joined_at_port": "aberdovey",
        "capacity": "ordinary seaman",
        "date_left": "1869-12-12",
        "left_port": "aberdovey",
        "cause_of_leaving": "discharged",
        "sign_with_mark": "n",
        "notes": "blk"
    },
    {
        "id": "vtls004932558_0_14",
        "type": "sailor",
        "parent": "vtls004932558",
        "name": "owen griffiths",
        "dob": "blk",
        "age": "40",
        "place_of_birth": "llanegrin",
        "home_address": "blk",
        "f": "blk",
        "name_of_ship": "martha",
        "ship_port": "liverpool",
        "date_leaving": "1868-09-12",
        "joined_ship_date": "1868-10-23",
        "joined_at_port": "aberdovey",
        "capacity": "mate",
        "date_left": "1869-12-12",
        "left_port": "aberdovey",
        "cause_of_leaving": "discharged",
        "sign_with_mark": "n",
        "notes": "blk"
    },
    {
        "id": "vtls004932558_0_16",
        "type": "sailor",
        "parent": "vtls004932558",
        "name": "thomas williams",
        "dob": "blk",
        "age": "12",
        "place_of_birth": "aberdovey",
        "home_address": "blk",
        "f": "blk",
        "name_of_ship": "first vessel",
        "ship_port": "blk",
        "date_leaving": "blk",
        "joined_ship_date": "1868-10-28",
        "joined_at_port": "aberdovey",
        "capacity": "boy",
        "date_left": "1869-12-12",
        "left_port": "aberdovey",
        "cause_of_leaving": "discharged",
        "sign_with_mark": "n",
        "notes": "blk"
    }
]