[
    {
        "id": "vtls004968421_0_11",
        "type": "sailor",
        "parent": "vtls004968421",
        "name": "henry l toyen",
        "dob": "blk",
        "age": "25",
        "place_of_birth": "plymouth",
        "home_address": "blk",
        "f": "blk",
        "name_of_ship": "swell",
        "ship_port": "plymouth",
        "date_leaving": "1877",
        "joined_ship_date": "blk",
        "joined_at_port": "goole",
        "capacity": "master",
        "date_left": "blk",
        "left_port": "blk",
        "cause_of_leaving": "remains on board",
        "sign_with_mark": "n",
        "notes": "swell is originally registered to plymouth. registered to aberystwyth from 1879 onwards."
    },
    {
        "id": "vtls004968421_0_15",
        "type": "sailor",
        "parent": "vtls004968421",
        "name": "thomas trewin",
        "dob": "blk",
        "age": "21",
        "place_of_birth": "london",
        "home_address": "blk",
        "f": "blk",
        "name_of_ship": "vigilant",
        "ship_port": "goole",
        "date_leaving": "1877",
        "joined_ship_date": "1877-03-21",
        "joined_at_port": "goole",
        "capacity": "cook, steward & able seaman",
        "date_left": "1877-12-20",
        "left_port": "st. johns",
        "cause_of_leaving": "mutual consent",
        "sign_with_mark": "n",
        "notes": "blk"
    },
    {
        "id": "vtls004968421_0_19",
        "type": "sailor",
        "parent": "vtls004968421",
        "name": "cufton ginbson kimble",
        "dob": "blk",
        "age": "21",
        "place_of_birth": "germany",
        "home_address": "blk",
        "f": "blk",
        "name_of_ship": "rescue",
        "ship_port": "london",
        "date_leaving": "1877",
        "joined_ship_date": "1877-10-01",
        "joined_at_port": "lisbon",
        "capacity": "ordinary seaman",
        "date_left": "1878-03-20",
        "left_port": "teignmouth",
        "cause_of_leaving": "discharged",
        "sign_with_mark": "n",
        "notes": "blk"
    },
    {
        "id": "vtls004968421_0_17",
        "type": "sailor",
        "parent": "vtls004968421",
        "name": "stephen bindel",
        "dob": "blk",
        "age": "26",
        "place_of_birth": "nassau",
        "home_address": "blk",
        "f": "blk",
        "name_of_ship": "hudson",
        "ship_port": "halifax",
        "date_leaving": "1876",
        "joined_ship_date": "1877-[03]-28",
        "joined_at_port": "south shields",
        "capacity": "able seaman",
        "date_left": "1877-11-13",
        "left_port": "st. johns",
        "cause_of_leaving": "mutual consent",
        "sign_with_mark": "n",
        "notes": "blk"
    },
    {
        "id": "vtls004968421_0_21",
        "type": "sailor",
        "parent": "vtls004968421",
        "name": "thomas trewin",
        "dob": "blk",
        "age": "22",
        "place_of_birth": "london",
        "home_address": "blk",
        "f": "blk",
        "name_of_ship": "swell",
        "ship_port": "plymouth",
        "date_leaving": "1877",
        "joined_ship_date": "1878-01-23",
        "joined_at_port": "st. john",
        "capacity": "ordinary seaman",
        "date_left": "1878-03-20",
        "left_port": "teignmouth",
        "cause_of_leaving": "discharged",
        "sign_with_mark": "n",
        "notes": "blk"
    },
    {
        "id": "vtls004968421_0_16",
        "type": "sailor",
        "parent": "vtls004968421",
        "name": "william dews",
        "dob": "blk",
        "age": "28",
        "place_of_birth": "goole",
        "home_address": "blk",
        "f": "blk",
        "name_of_ship": "rothersford",
        "ship_port": "grimsby",
        "date_leaving": "1876",
        "joined_ship_date": "1877-03-22",
        "joined_at_port": "goole",
        "capacity": "ordinary seaman",
        "date_left": "1877-10-01",
        "left_port": "lisbon",
        "cause_of_leaving": "mutual consent",
        "sign_with_mark": "y",
        "notes": "blk"
    },
    {
        "id": "vtls004968421_0_20",
        "type": "sailor",
        "parent": "vtls004968421",
        "name": "george barton",
        "dob": "blk",
        "age": "26",
        "place_of_birth": "knottingley",
        "home_address": "blk",
        "f": "blk",
        "name_of_ship": "swell",
        "ship_port": "plymouth",
        "date_leaving": "1877",
        "joined_ship_date": "1878-01-23",
        "joined_at_port": "st. john",
        "capacity": "boatswain",
        "date_left": "1878-03-20",
        "left_port": "teignmouth",
        "cause_of_leaving": "discharged",
        "sign_with_mark": "n",
        "notes": "blk"
    },
    {
        "id": "vtls004968421_0_14",
        "type": "sailor",
        "parent": "vtls004968421",
        "name": "george barton",
        "dob": "blk",
        "age": "25",
        "place_of_birth": "knottingley",
        "home_address": "blk",
        "f": "blk",
        "name_of_ship": "mary",
        "ship_port": "goole",
        "date_leaving": "1877",
        "joined_ship_date": "1877-03-21",
        "joined_at_port": "goole",
        "capacity": "able seaman",
        "date_left": "1877-12-22",
        "left_port": "st. johns",
        "cause_of_leaving": "mutual consent",
        "sign_with_mark": "n",
        "notes": "blk"
    },
    {
        "id": "vtls004968421_0_13",
        "type": "sailor",
        "parent": "vtls004968421",
        "name": "william ranson",
        "dob": "blk",
        "age": "40",
        "place_of_birth": "ipswich",
        "home_address": "blk",
        "f": "blk",
        "name_of_ship": "florence",
        "ship_port": "hull",
        "date_leaving": "1877",
        "joined_ship_date": "1877-03-21",
        "joined_at_port": "goole",
        "capacity": "able seaman",
        "date_left": "never joined",
        "left_port": "never joined",
        "cause_of_leaving": "never joined",
        "sign_with_mark": "y",
        "notes": "blk"
    },
    {
        "id": "vtls004968421_0_18",
        "type": "sailor",
        "parent": "vtls004968421",
        "name": "richard lewis",
        "dob": "blk",
        "age": "24",
        "place_of_birth": "st johns",
        "home_address": "blk",
        "f": "blk",
        "name_of_ship": "[amora]",
        "ship_port": "blk",
        "date_leaving": "1877",
        "joined_ship_date": "1877-07-21",
        "joined_at_port": "st. john",
        "capacity": "mate",
        "date_left": "1878-03-20",
        "left_port": "st. johns",
        "cause_of_leaving": "mutual consent",
        "sign_with_mark": "n",
        "notes": "blk"
    },
    {
        "id": "vtls004968421_0_12",
        "type": "sailor",
        "parent": "vtls004968421",
        "name": "samuel bond",
        "dob": "blk",
        "age": "23",
        "place_of_birth": "plymouth",
        "home_address": "blk",
        "f": "blk",
        "name_of_ship": "swell",
        "ship_port": "plymouth",
        "date_leaving": "1877",
        "joined_ship_date": "1877-03-21",
        "joined_at_port": "goole",
        "capacity": "mate",
        "date_left": "1877-07-[21]",
        "left_port": "blk",
        "cause_of_leaving": "deserted",
        "sign_with_mark": "n",
        "notes": "blk"
    },
    {
        "id": "vtls004968421_1_11",
        "type": "sailor",
        "parent": "vtls004968421",
        "name": "owen enos",
        "dob": "blk",
        "age": "51",
        "place_of_birth": "borth",
        "home_address": "aberystwyth",
        "f": "aberystwyth",
        "name_of_ship": "aberystwyth",
        "ship_port": "[blk]",
        "date_leaving": "1878",
        "joined_ship_date": "1878-[04]-27",
        "joined_at_port": "teignmouth",
        "capacity": "master",
        "date_left": "1878-05-08",
        "left_port": "runcorn",
        "cause_of_leaving": "discharged",
        "sign_with_mark": "n",
        "notes": "swell is originally registered to plymouth. registered to aberystwyth from 1879 onwards."
    },
    {
        "id": "vtls004968421_0_22",
        "type": "sailor",
        "parent": "vtls004968421",
        "name": "william h dunne",
        "dob": "blk",
        "age": "20",
        "place_of_birth": "waterford",
        "home_address": "blk",
        "f": "blk",
        "name_of_ship": "pride of the west",
        "ship_port": "greenock",
        "date_leaving": "blk",
        "joined_ship_date": "1878-01-23",
        "joined_at_port": "st. john",
        "capacity": "able seaman",
        "date_left": "1878-03-20",
        "left_port": "teignmouth",
        "cause_of_leaving": "discharged",
        "sign_with_mark": "n",
        "notes": "blk"
    },
    {
        "id": "vtls004968421_0_23",
        "type": "sailor",
        "parent": "vtls004968421",
        "name": "james wiseman",
        "dob": "blk",
        "age": "53",
        "place_of_birth": "runf$$$$d",
        "home_address": "blk",
        "f": "blk",
        "name_of_ship": "f[ruit] girl",
        "ship_port": "blk",
        "date_leaving": "1877",
        "joined_ship_date": "1878-01-26",
        "joined_at_port": "st. john",
        "capacity": "able seaman",
        "date_left": "1878-03-20",
        "left_port": "teignmouth",
        "cause_of_leaving": "discharged",
        "sign_with_mark": "y",
        "notes": "blk"
    },
    {
        "id": "vtls004968421_1_14",
        "type": "sailor",
        "parent": "vtls004968421",
        "name": "thomas reanyer",
        "dob": "blk",
        "age": "23",
        "place_of_birth": "guernsey",
        "home_address": "blk",
        "f": "blk",
        "name_of_ship": "liza hanson",
        "ship_port": "[blk]",
        "date_leaving": "1878",
        "joined_ship_date": "1878-04-27",
        "joined_at_port": "teignmouth",
        "capacity": "able seaman",
        "date_left": "1878-05-21",
        "left_port": "runcorn",
        "cause_of_leaving": "discharged",
        "sign_with_mark": "n",
        "notes": "blk"
    },
    {
        "id": "vtls004968421_1_15",
        "type": "sailor",
        "parent": "vtls004968421",
        "name": "richard owens",
        "dob": "blk",
        "age": "36",
        "place_of_birth": "menai bridge",
        "home_address": "blk",
        "f": "blk",
        "name_of_ship": "confidence",
        "ship_port": "carnarvon",
        "date_leaving": "1878",
        "joined_ship_date": "1878-05-22",
        "joined_at_port": "liverpool",
        "capacity": "able seaman",
        "date_left": "blk",
        "left_port": "blk",
        "cause_of_leaving": "remains on board",
        "sign_with_mark": "n",
        "notes": "blk"
    },
    {
        "id": "vtls004968421_1_13",
        "type": "sailor",
        "parent": "vtls004968421",
        "name": "james wiseman",
        "dob": "blk",
        "age": "53",
        "place_of_birth": "newfoundland",
        "home_address": "blk",
        "f": "blk",
        "name_of_ship": "fruit girl",
        "ship_port": "blk",
        "date_leaving": "1878",
        "joined_ship_date": "1878-04-27",
        "joined_at_port": "teignmouth",
        "capacity": "able seaman",
        "date_left": "1878-05-21",
        "left_port": "runcorn",
        "cause_of_leaving": "discharged",
        "sign_with_mark": "n",
        "notes": "blk"
    },
    {
        "id": "vtls004968421_0_24",
        "type": "sailor",
        "parent": "vtls004968421",
        "name": "bernard biley",
        "dob": "blk",
        "age": "30",
        "place_of_birth": "boston",
        "home_address": "blk",
        "f": "blk",
        "name_of_ship": "jessy",
        "ship_port": "blk",
        "date_leaving": "1877",
        "joined_ship_date": "1878-01-26",
        "joined_at_port": "st. john",
        "capacity": "mate",
        "date_left": "1878-03-20",
        "left_port": "teignmouth",
        "cause_of_leaving": "discharged",
        "sign_with_mark": "n",
        "notes": "blk"
    },
    {
        "id": "vtls004968421_1_12",
        "type": "sailor",
        "parent": "vtls004968421",
        "name": "john jones",
        "dob": "blk",
        "age": "26",
        "place_of_birth": "borth",
        "home_address": "blk",
        "f": "blk",
        "name_of_ship": "liza ann",
        "ship_port": "[blk]",
        "date_leaving": "1878",
        "joined_ship_date": "1878-04-27",
        "joined_at_port": "teignmouth",
        "capacity": "mate",
        "date_left": "blk",
        "left_port": "blk",
        "cause_of_leaving": "remains on board",
        "sign_with_mark": "n",
        "notes": "blk"
    },
    {
        "id": "vtls004968421_2_11",
        "type": "sailor",
        "parent": "vtls004968421",
        "name": "william williams",
        "dob": "blk",
        "age": "37",
        "place_of_birth": "borth",
        "home_address": "borth, cardigan",
        "f": "borth, cardigan",
        "name_of_ship": "swell",
        "ship_port": "plymouth",
        "date_leaving": "blk",
        "joined_ship_date": "blk",
        "joined_at_port": "blk",
        "capacity": "master",
        "date_left": "1878-07-28",
        "left_port": "liverpool",
        "cause_of_leaving": "discharged",
        "sign_with_mark": "n",
        "notes": "swell is originally registered to plymouth. registered to aberystwyth from 1879 onwards."
    },
    {
        "id": "vtls004968421_2_17",
        "type": "sailor",
        "parent": "vtls004968421",
        "name": "gilbert nicolson",
        "dob": "blk",
        "age": "20",
        "place_of_birth": "lerwick",
        "home_address": "blk",
        "f": "blk",
        "name_of_ship": "thomas [handsy]",
        "ship_port": "blk",
        "date_leaving": "1878",
        "joined_ship_date": "1878-09-13",
        "joined_at_port": "newcastle",
        "capacity": "able seaman",
        "date_left": "1878-10-25",
        "left_port": "runcorn",
        "cause_of_leaving": "discharged",
        "sign_with_mark": "n",
        "notes": "blk"
    },
    {
        "id": "vtls004968421_1_16",
        "type": "sailor",
        "parent": "vtls004968421",
        "name": "evan griffiths",
        "dob": "blk",
        "age": "46",
        "place_of_birth": "pwllheli",
        "home_address": "blk",
        "f": "blk",
        "name_of_ship": "confidence",
        "ship_port": "blk",
        "date_leaving": "1878",
        "joined_ship_date": "1878-05-22",
        "joined_at_port": "liverpool",
        "capacity": "able seaman",
        "date_left": "never joined",
        "left_port": "never joined",
        "cause_of_leaving": "never joined",
        "sign_with_mark": "y",
        "notes": "blk"
    },
    {
        "id": "vtls004968421_2_15",
        "type": "sailor",
        "parent": "vtls004968421",
        "name": "john cook",
        "dob": "blk",
        "age": "18",
        "place_of_birth": "london",
        "home_address": "blk",
        "f": "blk",
        "name_of_ship": "princess royal",
        "ship_port": "blk",
        "date_leaving": "1878",
        "joined_ship_date": "1878-07-09",
        "joined_at_port": "london",
        "capacity": "ordinary seaman",
        "date_left": "1878-09-09",
        "left_port": "newcastle",
        "cause_of_leaving": "discharged",
        "sign_with_mark": "n",
        "notes": "blk"
    },
    {
        "id": "vtls004968421_1_17",
        "type": "sailor",
        "parent": "vtls004968421",
        "name": "william morrison",
        "dob": "blk",
        "age": "25",
        "place_of_birth": "liverpool",
        "home_address": "blk",
        "f": "blk",
        "name_of_ship": "[s.s.] corso",
        "ship_port": "blk",
        "date_leaving": "1878",
        "joined_ship_date": "1878-05-24",
        "joined_at_port": "liverpool",
        "capacity": "able seaman",
        "date_left": "blk",
        "left_port": "blk",
        "cause_of_leaving": "remains on board",
        "sign_with_mark": "n",
        "notes": "blk"
    },
    {
        "id": "vtls004968421_2_16",
        "type": "sailor",
        "parent": "vtls004968421",
        "name": "remadi vincent",
        "dob": "blk",
        "age": "24",
        "place_of_birth": "$",
        "home_address": "blk",
        "f": "blk",
        "name_of_ship": "[glimpse]",
        "ship_port": "blk",
        "date_leaving": "1878",
        "joined_ship_date": "1878-09-13",
        "joined_at_port": "newcastle",
        "capacity": "able seaman",
        "date_left": "1878-10-25",
        "left_port": "runcorn",
        "cause_of_leaving": "discharged",
        "sign_with_mark": "n",
        "notes": "blk"
    },
    {
        "id": "vtls004968421_1_18",
        "type": "sailor",
        "parent": "vtls004968421",
        "name": "william williams",
        "dob": "blk",
        "age": "39",
        "place_of_birth": "borth",
        "home_address": "blk",
        "f": "blk",
        "name_of_ship": "martha lloyd",
        "ship_port": "blk",
        "date_leaving": "1878",
        "joined_ship_date": "1878-05-08",
        "joined_at_port": "runcorn",
        "capacity": "master",
        "date_left": "bkl",
        "left_port": "blk",
        "cause_of_leaving": "remains on board",
        "sign_with_mark": "n",
        "notes": "blk"
    },
    {
        "id": "vtls004968421_2_14",
        "type": "sailor",
        "parent": "vtls004968421",
        "name": "john evans",
        "dob": "blk",
        "age": "22",
        "place_of_birth": "borth",
        "home_address": "blk",
        "f": "blk",
        "name_of_ship": "lizzie jane",
        "ship_port": "blk",
        "date_leaving": "1878",
        "joined_ship_date": "1878-07-01",
        "joined_at_port": "london",
        "capacity": "able seaman",
        "date_left": "blk",
        "left_port": "blk",
        "cause_of_leaving": "remains on board",
        "sign_with_mark": "n",
        "notes": "blk"
    },
    {
        "id": "vtls004968421_2_18",
        "type": "sailor",
        "parent": "vtls004968421",
        "name": "thomas williams",
        "dob": "blk",
        "age": "29",
        "place_of_birth": "borth",
        "home_address": "blk",
        "f": "blk",
        "name_of_ship": "aralilla",
        "ship_port": "blk",
        "date_leaving": "blk",
        "joined_ship_date": "1878-07-30",
        "joined_at_port": "liverpool",
        "capacity": "master",
        "date_left": "blk",
        "left_port": "blk",
        "cause_of_leaving": "remains on board",
        "sign_with_mark": "n",
        "notes": "blk"
    },
    {
        "id": "vtls004968421_2_12",
        "type": "sailor",
        "parent": "vtls004968421",
        "name": "john jones",
        "dob": "blk",
        "age": "27",
        "place_of_birth": "borth",
        "home_address": "blk",
        "f": "blk",
        "name_of_ship": "swell",
        "ship_port": "plymouth",
        "date_leaving": "1878",
        "joined_ship_date": "1878-07-01",
        "joined_at_port": "london",
        "capacity": "mate",
        "date_left": "blk",
        "left_port": "blk",
        "cause_of_leaving": "remains on board",
        "sign_with_mark": "y",
        "notes": "blk"
    },
    {
        "id": "vtls004968424_0_11",
        "type": "sailor",
        "parent": "vtls004968424",
        "name": "thomas williams",
        "dob": "blk",
        "age": "30",
        "place_of_birth": "borth",
        "home_address": "borth. cardigan",
        "f": "borth. cardigan",
        "name_of_ship": "swell",
        "ship_port": "aberystwyth",
        "date_leaving": "blk",
        "joined_ship_date": "blk",
        "joined_at_port": "blk",
        "capacity": "master",
        "date_left": "blk",
        "left_port": "blk",
        "cause_of_leaving": "remains on board",
        "sign_with_mark": "n",
        "notes": "swell was previously registered to plymouth"
    },
    {
        "id": "vtls004968421_2_19",
        "type": "sailor",
        "parent": "vtls004968421",
        "name": "owen evans",
        "dob": "blk",
        "age": "19",
        "place_of_birth": "bangor",
        "home_address": "blk",
        "f": "blk",
        "name_of_ship": "[masqualine]",
        "ship_port": "blk",
        "date_leaving": "blk",
        "joined_ship_date": "1878-10-29",
        "joined_at_port": "liverpool",
        "capacity": "able seaman",
        "date_left": "1879-01-16",
        "left_port": "liverpool",
        "cause_of_leaving": "discharged",
        "sign_with_mark": "n",
        "notes": "blk"
    },
    {
        "id": "vtls004968424_0_13",
        "type": "sailor",
        "parent": "vtls004968424",
        "name": "john evans",
        "dob": "blk",
        "age": "24",
        "place_of_birth": "borth",
        "home_address": "blk",
        "f": "blk",
        "name_of_ship": "swell",
        "ship_port": "aberystwyth",
        "date_leaving": "1879",
        "joined_ship_date": "1879-01-22",
        "joined_at_port": "runcorn",
        "capacity": "able seaman",
        "date_left": "1879-04-10",
        "left_port": "swansea",
        "cause_of_leaving": "discharged",
        "sign_with_mark": "y",
        "notes": "blk"
    },
    {
        "id": "vtls004968424_0_12",
        "type": "sailor",
        "parent": "vtls004968424",
        "name": "john jones",
        "dob": "blk",
        "age": "28",
        "place_of_birth": "borth",
        "home_address": "blk",
        "f": "blk",
        "name_of_ship": "swell",
        "ship_port": "aberystwyth",
        "date_leaving": "1879",
        "joined_ship_date": "1879-01-22",
        "joined_at_port": "runcorn",
        "capacity": "boatswain",
        "date_left": "1879-04-10",
        "left_port": "swansea",
        "cause_of_leaving": "discharged",
        "sign_with_mark": "n",
        "notes": "blk"
    },
    {
        "id": "vtls004968424_0_15",
        "type": "sailor",
        "parent": "vtls004968424",
        "name": "david h jones",
        "dob": "blk",
        "age": "17",
        "place_of_birth": "borth",
        "home_address": "blk",
        "f": "blk",
        "name_of_ship": "lady mary",
        "ship_port": "blk",
        "date_leaving": "1879",
        "joined_ship_date": "1879-02-10",
        "joined_at_port": "runcorn",
        "capacity": "ordinary seaman",
        "date_left": "blk",
        "left_port": "blk",
        "cause_of_leaving": "remains on board",
        "sign_with_mark": "n",
        "notes": "blk"
    },
    {
        "id": "vtls004968421_2_20",
        "type": "sailor",
        "parent": "vtls004968421",
        "name": "hugh hughes",
        "dob": "blk",
        "age": "14",
        "place_of_birth": "borth",
        "home_address": "blk",
        "f": "blk",
        "name_of_ship": "first ship",
        "ship_port": "first ship",
        "date_leaving": "first ship",
        "joined_ship_date": "1878-10-24",
        "joined_at_port": "runcorn",
        "capacity": "boy",
        "date_left": "blk",
        "left_port": "blk",
        "cause_of_leaving": "remains on board",
        "sign_with_mark": "n",
        "notes": "blk"
    },
    {
        "id": "vtls004968424_0_14",
        "type": "sailor",
        "parent": "vtls004968424",
        "name": "hugh hughes",
        "dob": "blk",
        "age": "14",
        "place_of_birth": "borth",
        "home_address": "blk",
        "f": "blk",
        "name_of_ship": "swell",
        "ship_port": "aberystwyth",
        "date_leaving": "1879",
        "joined_ship_date": "1879-01-22",
        "joined_at_port": "runcorn",
        "capacity": "cook",
        "date_left": "blk",
        "left_port": "blk",
        "cause_of_leaving": "remains on board",
        "sign_with_mark": "n",
        "notes": "blk"
    },
    {
        "id": "vtls004968424_1_12",
        "type": "sailor",
        "parent": "vtls004968424",
        "name": "david walter",
        "dob": "blk",
        "age": "22",
        "place_of_birth": "dinas, pembrokeshire",
        "home_address": "blk",
        "f": "blk",
        "name_of_ship": "swell",
        "ship_port": "aberystwyth",
        "date_leaving": "1879",
        "joined_ship_date": "1879-07-10",
        "joined_at_port": "macduff",
        "capacity": "able seaman",
        "date_left": "1879-07-25",
        "left_port": "kennelpa$$, scotland",
        "cause_of_leaving": "discharged",
        "sign_with_mark": "n",
        "notes": "blk"
    },
    {
        "id": "vtls004968424_1_14",
        "type": "sailor",
        "parent": "vtls004968424",
        "name": "david h jones",
        "dob": "blk",
        "age": "16",
        "place_of_birth": "borth, cardigan",
        "home_address": "blk",
        "f": "blk",
        "name_of_ship": "swell",
        "ship_port": "aberystwyth",
        "date_leaving": "1879",
        "joined_ship_date": "1879-07-10",
        "joined_at_port": "macduff",
        "capacity": "ordinary seaman",
        "date_left": "1879-12-05",
        "left_port": "liverpool",
        "cause_of_leaving": "discharged",
        "sign_with_mark": "n",
        "notes": "blk"
    },
    {
        "id": "vtls004968424_1_13",
        "type": "sailor",
        "parent": "vtls004968424",
        "name": "thomas nicholas",
        "dob": "blk",
        "age": "40",
        "place_of_birth": "newport pemb.",
        "home_address": "blk",
        "f": "blk",
        "name_of_ship": "swell",
        "ship_port": "aberystwyth",
        "date_leaving": "1879",
        "joined_ship_date": "1879-07-10",
        "joined_at_port": "macduff",
        "capacity": "mate",
        "date_left": "1879-11-29",
        "left_port": "runcorn",
        "cause_of_leaving": "discharged",
        "sign_with_mark": "n",
        "notes": "blk"
    },
    {
        "id": "vtls004968424_0_17",
        "type": "sailor",
        "parent": "vtls004968424",
        "name": "thomas nicholas",
        "dob": "blk",
        "age": "44",
        "place_of_birth": "newport, pembs",
        "home_address": "blk",
        "f": "blk",
        "name_of_ship": "devonshire",
        "ship_port": "blk",
        "date_leaving": "1879",
        "joined_ship_date": "1879-04-16",
        "joined_at_port": "swansea",
        "capacity": "able seaman",
        "date_left": "blk",
        "left_port": "blk",
        "cause_of_leaving": "remains on board",
        "sign_with_mark": "n",
        "notes": "blk"
    },
    {
        "id": "vtls004968424_1_16",
        "type": "sailor",
        "parent": "vtls004968424",
        "name": "david hughes",
        "dob": "blk",
        "age": "49",
        "place_of_birth": "shrewsbury",
        "home_address": "blk",
        "f": "blk",
        "name_of_ship": "rose",
        "ship_port": "port madoc",
        "date_leaving": "1879",
        "joined_ship_date": "1879-09-08",
        "joined_at_port": "liverpool",
        "capacity": "able seaman",
        "date_left": "1870-10-18",
        "left_port": "swansea",
        "cause_of_leaving": "discharged",
        "sign_with_mark": "n",
        "notes": "blk"
    },
    {
        "id": "vtls004968424_1_15",
        "type": "sailor",
        "parent": "vtls004968424",
        "name": "hugh hughes",
        "dob": "blk",
        "age": "15",
        "place_of_birth": "borth, cardigan",
        "home_address": "blk",
        "f": "blk",
        "name_of_ship": "swell",
        "ship_port": "aberystwyth",
        "date_leaving": "1879",
        "joined_ship_date": "1879-07-10",
        "joined_at_port": "macduff",
        "capacity": "boy",
        "date_left": "1879-11-01",
        "left_port": "swansea",
        "cause_of_leaving": "discharged",
        "sign_with_mark": "n",
        "notes": "blk"
    },
    {
        "id": "vtls004968424_1_11",
        "type": "sailor",
        "parent": "vtls004968424",
        "name": "thomas williams",
        "dob": "blk",
        "age": "31",
        "place_of_birth": "borth, cardigan",
        "home_address": "aberystwyth",
        "f": "aberystwyth",
        "name_of_ship": "swell",
        "ship_port": "aberystwyth",
        "date_leaving": "blk",
        "joined_ship_date": "blk",
        "joined_at_port": "blk",
        "capacity": "master",
        "date_left": "blk",
        "left_port": "blk",
        "cause_of_leaving": "remains on board",
        "sign_with_mark": "n",
        "notes": "blk"
    },
    {
        "id": "vtls004968424_1_18",
        "type": "sailor",
        "parent": "vtls004968424",
        "name": "joseph wade",
        "dob": "blk",
        "age": "40",
        "place_of_birth": "skerries",
        "home_address": "blk",
        "f": "blk",
        "name_of_ship": "[aonsil]",
        "ship_port": "blk",
        "date_leaving": "1879",
        "joined_ship_date": "1879-12-05",
        "joined_at_port": "liverpool",
        "capacity": "able seaman",
        "date_left": "blk",
        "left_port": "blk",
        "cause_of_leaving": "remains on board",
        "sign_with_mark": "n",
        "notes": "blk"
    },
    {
        "id": "vtls004968424_1_17",
        "type": "sailor",
        "parent": "vtls004968424",
        "name": "william lewis",
        "dob": "blk",
        "age": "32",
        "place_of_birth": "liverpool",
        "home_address": "blk",
        "f": "blk",
        "name_of_ship": "[evlyn]",
        "ship_port": "blk",
        "date_leaving": "1879",
        "joined_ship_date": "1879-12-05",
        "joined_at_port": "liverpool",
        "capacity": "mate",
        "date_left": "blk",
        "left_port": "blk",
        "cause_of_leaving": "remains on board",
        "sign_with_mark": "n",
        "notes": "blk"
    },
    {
        "id": "vtls004968424_0_16",
        "type": "sailor",
        "parent": "vtls004968424",
        "name": "david walter",
        "dob": "blk",
        "age": "32",
        "place_of_birth": "dinas",
        "home_address": "blk",
        "f": "blk",
        "name_of_ship": "solway",
        "ship_port": "blk",
        "date_leaving": "1879",
        "joined_ship_date": "1879-04-10",
        "joined_at_port": "swansea",
        "capacity": "boatswain",
        "date_left": "blk",
        "left_port": "blk",
        "cause_of_leaving": "remains on board",
        "sign_with_mark": "n",
        "notes": "blk"
    },
    {
        "id": "vtls004968435_0_11",
        "type": "sailor",
        "parent": "vtls004968435",
        "name": "john stephens",
        "dob": "1818",
        "age": "blk",
        "place_of_birth": "cardigan",
        "home_address": "blk",
        "f": "blk",
        "name_of_ship": "patriot",
        "ship_port": "carnarvon",
        "date_leaving": "1881",
        "joined_ship_date": "1881-03-12",
        "joined_at_port": "aberystwyth",
        "capacity": "master",
        "date_left": "1881-05-10",
        "left_port": "middlesbrough",
        "cause_of_leaving": "remains on board",
        "sign_with_mark": "n",
        "notes": "please note, ship previously registered to plymouth. possibly changed ownership."
    },
    {
        "id": "vtls004968435_0_12",
        "type": "sailor",
        "parent": "vtls004968435",
        "name": "thomas william",
        "dob": "1848",
        "age": "blk",
        "place_of_birth": "borth, cardiganshire",
        "home_address": "blk",
        "f": "blk",
        "name_of_ship": "swell",
        "ship_port": "aberystwyth",
        "date_leaving": "1881",
        "joined_ship_date": "1881-03-12",
        "joined_at_port": "aberystwyth",
        "capacity": "mate and master",
        "date_left": "1881-05-10",
        "left_port": "middlesbrough",
        "cause_of_leaving": "discharged",
        "sign_with_mark": "n",
        "notes": "blk"
    },
    {
        "id": "vtls004968435_0_13",
        "type": "sailor",
        "parent": "vtls004968435",
        "name": "evan thomas",
        "dob": "1844",
        "age": "blk",
        "place_of_birth": "aberaeron",
        "home_address": "blk",
        "f": "blk",
        "name_of_ship": "swell",
        "ship_port": "aberystwyth",
        "date_leaving": "1881",
        "joined_ship_date": "1881-03-12",
        "joined_at_port": "aberystwyth",
        "capacity": "able seaman",
        "date_left": "1881-05-10",
        "left_port": "middlesbrough",
        "cause_of_leaving": "discharged",
        "sign_with_mark": "n",
        "notes": "blk"
    },
    {
        "id": "vtls004968435_0_14",
        "type": "sailor",
        "parent": "vtls004968435",
        "name": "hugh jones",
        "dob": "1858",
        "age": "blk",
        "place_of_birth": "holyhead",
        "home_address": "blk",
        "f": "blk",
        "name_of_ship": "jane pringle",
        "ship_port": "beaumaris",
        "date_leaving": "1881",
        "joined_ship_date": "1881-03-12",
        "joined_at_port": "aberystwyth",
        "capacity": "ordinary seaman",
        "date_left": "1881-05-10",
        "left_port": "middlesbrough",
        "cause_of_leaving": "discharged",
        "sign_with_mark": "y",
        "notes": "blk"
    },
    {
        "id": "vtls004968435_0_15",
        "type": "sailor",
        "parent": "vtls004968435",
        "name": "owen jones",
        "dob": "1863",
        "age": "blk",
        "place_of_birth": "aberystwyth",
        "home_address": "blk",
        "f": "blk",
        "name_of_ship": "first ship",
        "ship_port": "blk",
        "date_leaving": "blk",
        "joined_ship_date": "1881-03-12",
        "joined_at_port": "aberystwyth",
        "capacity": "boy",
        "date_left": "1881-05-10",
        "left_port": "middlesbrough",
        "cause_of_leaving": "discharged",
        "sign_with_mark": "n",
        "notes": "blk"
    },
    {
        "id": "vtls004968424_1_19",
        "type": "sailor",
        "parent": "vtls004968424",
        "name": "andrew andersson",
        "dob": "blk",
        "age": "18",
        "place_of_birth": "golenburg",
        "home_address": "blk",
        "f": "blk",
        "name_of_ship": "day star",
        "ship_port": "blk",
        "date_leaving": "1879",
        "joined_ship_date": "1879-12-04",
        "joined_at_port": "liverpool",
        "capacity": "able seaman",
        "date_left": "blk",
        "left_port": "blk",
        "cause_of_leaving": "remains on board",
        "sign_with_mark": "n",
        "notes": "blk"
    },
    {
        "id": "vtls004968424_1_20",
        "type": "sailor",
        "parent": "vtls004968424",
        "name": "morgan taylor",
        "dob": "blk",
        "age": "16",
        "place_of_birth": "port eynon",
        "home_address": "blk",
        "f": "blk",
        "name_of_ship": "blk",
        "ship_port": "blk",
        "date_leaving": "1879",
        "joined_ship_date": "1879-11-03",
        "joined_at_port": "swansea",
        "capacity": "boy",
        "date_left": "blk",
        "left_port": "blk",
        "cause_of_leaving": "remains on board",
        "sign_with_mark": "n",
        "notes": "blk"
    },
    {
        "id": "vtls004968435_1_11",
        "type": "sailor",
        "parent": "vtls004968435",
        "name": "thomas williams",
        "dob": "1848",
        "age": "blk",
        "place_of_birth": "borth, cardiganshire",
        "home_address": "blk",
        "f": "blk",
        "name_of_ship": "swell",
        "ship_port": "aberystwyth",
        "date_leaving": "1881",
        "joined_ship_date": "1881-05-11",
        "joined_at_port": "middlesbrough",
        "capacity": "master",
        "date_left": "1881-06-30",
        "left_port": "porthmadog",
        "cause_of_leaving": "remains on board",
        "sign_with_mark": "n",
        "notes": "blk"
    },
    {
        "id": "vtls004968435_1_14",
        "type": "sailor",
        "parent": "vtls004968435",
        "name": "hugh jones",
        "dob": "1859",
        "age": "blk",
        "place_of_birth": "holyhead",
        "home_address": "blk",
        "f": "blk",
        "name_of_ship": "swell",
        "ship_port": "aberystwyth",
        "date_leaving": "1881",
        "joined_ship_date": "1881-05-11",
        "joined_at_port": "middlesbrough",
        "capacity": "cook & ordinary seaman",
        "date_left": "1881-05-31",
        "left_port": "newport",
        "cause_of_leaving": "discharged",
        "sign_with_mark": "y",
        "notes": "blk"
    },
    {
        "id": "vtls004968435_2_12",
        "type": "sailor",
        "parent": "vtls004968435",
        "name": "thomas williams",
        "dob": "1848",
        "age": "blk",
        "place_of_birth": "borth, cardiganshire",
        "home_address": "blk",
        "f": "blk",
        "name_of_ship": "swell",
        "ship_port": "aberystwyth",
        "date_leaving": "1881",
        "joined_ship_date": "1881-07-27",
        "joined_at_port": "portmadoc",
        "capacity": "boatswain",
        "date_left": "1881-09-12",
        "left_port": "london",
        "cause_of_leaving": "discharged",
        "sign_with_mark": "n",
        "notes": "blk"
    },
    {
        "id": "vtls004968435_1_17",
        "type": "sailor",
        "parent": "vtls004968435",
        "name": "john jones",
        "dob": "1865",
        "age": "blk",
        "place_of_birth": "borth, cardiganshire",
        "home_address": "blk",
        "f": "blk",
        "name_of_ship": "phoebe",
        "ship_port": "cardiff",
        "date_leaving": "1881",
        "joined_ship_date": "1881-06-01",
        "joined_at_port": "newport",
        "capacity": "ordinary seaman",
        "date_left": "1881-06-23",
        "left_port": "porthmadog",
        "cause_of_leaving": "discharged",
        "sign_with_mark": "n",
        "notes": "blk"
    },
    {
        "id": "vtls004968435_1_13",
        "type": "sailor",
        "parent": "vtls004968435",
        "name": "evan thomas",
        "dob": "1845",
        "age": "blk",
        "place_of_birth": "aberaeron",
        "home_address": "blk",
        "f": "blk",
        "name_of_ship": "swell",
        "ship_port": "aberystwyth",
        "date_leaving": "1881",
        "joined_ship_date": "1881-05-11",
        "joined_at_port": "middlesbrough",
        "capacity": "able seaman",
        "date_left": "1881-05-31",
        "left_port": "newport",
        "cause_of_leaving": "discharged",
        "sign_with_mark": "n",
        "notes": "blk"
    },
    {
        "id": "vtls004968435_1_12",
        "type": "sailor",
        "parent": "vtls004968435",
        "name": "john stephens",
        "dob": "1828",
        "age": "blk",
        "place_of_birth": "cardigan",
        "home_address": "blk",
        "f": "blk",
        "name_of_ship": "swell",
        "ship_port": "aberystwyth",
        "date_leaving": "1881",
        "joined_ship_date": "1881005-11",
        "joined_at_port": "middlesbrough",
        "capacity": "mate",
        "date_left": "1881-05-31",
        "left_port": "newport",
        "cause_of_leaving": "discharged",
        "sign_with_mark": "n",
        "notes": "blk"
    },
    {
        "id": "vtls004968435_1_16",
        "type": "sailor",
        "parent": "vtls004968435",
        "name": "john jones",
        "dob": "1860",
        "age": "blk",
        "place_of_birth": "amlwch",
        "home_address": "blk",
        "f": "blk",
        "name_of_ship": "[rieestell]",
        "ship_port": "liverpool",
        "date_leaving": "1881",
        "joined_ship_date": "1881-06-01",
        "joined_at_port": "newport",
        "capacity": "able seaman",
        "date_left": "1881-06-23",
        "left_port": "porthmadog",
        "cause_of_leaving": "discharged",
        "sign_with_mark": "n",
        "notes": "blk"
    },
    {
        "id": "vtls004968435_1_15",
        "type": "sailor",
        "parent": "vtls004968435",
        "name": "richard davies",
        "dob": "1846",
        "age": "blk",
        "place_of_birth": "barmouth",
        "home_address": "blk",
        "f": "blk",
        "name_of_ship": "[rieestell]",
        "ship_port": "liverpool",
        "date_leaving": "1881",
        "joined_ship_date": "1881-06-01",
        "joined_at_port": "newport",
        "capacity": "mate",
        "date_left": "1881-06-23",
        "left_port": "porthmadog",
        "cause_of_leaving": "discharged",
        "sign_with_mark": "n",
        "notes": "blk"
    },
    {
        "id": "vtls004968435_2_11",
        "type": "sailor",
        "parent": "vtls004968435",
        "name": "thomas davies",
        "dob": "1843",
        "age": "blk",
        "place_of_birth": "portmadoc",
        "home_address": "blk",
        "f": "blk",
        "name_of_ship": "ala charles",
        "ship_port": "aberystwyth",
        "date_leaving": "1881",
        "joined_ship_date": "1881-07-27",
        "joined_at_port": "portmadoc",
        "capacity": "master",
        "date_left": "blk",
        "left_port": "blk",
        "cause_of_leaving": "remains on board",
        "sign_with_mark": "n",
        "notes": "blk"
    },
    {
        "id": "vtls004968435_1_18",
        "type": "sailor",
        "parent": "vtls004968435",
        "name": "frank rover",
        "dob": "1863",
        "age": "blk",
        "place_of_birth": "whitby",
        "home_address": "blk",
        "f": "blk",
        "name_of_ship": "first ship",
        "ship_port": "blk",
        "date_leaving": "1881",
        "joined_ship_date": "1881-06-01",
        "joined_at_port": "newport",
        "capacity": "cook",
        "date_left": "1881-06-23",
        "left_port": "porthmadog",
        "cause_of_leaving": "discharged",
        "sign_with_mark": "n",
        "notes": "blk"
    },
    {
        "id": "vtls004968435_2_14",
        "type": "sailor",
        "parent": "vtls004968435",
        "name": "hugh hughes",
        "dob": "1865",
        "age": "blk",
        "place_of_birth": "borth, cardiganshire",
        "home_address": "blk",
        "f": "blk",
        "name_of_ship": "catherine",
        "ship_port": "aberystwyth",
        "date_leaving": "1881",
        "joined_ship_date": "1881-07-27",
        "joined_at_port": "portmadoc",
        "capacity": "ordinary seaman",
        "date_left": "1881-09-12",
        "left_port": "london",
        "cause_of_leaving": "discharged",
        "sign_with_mark": "n",
        "notes": "blk"
    },
    {
        "id": "vtls004968435_3_13",
        "type": "sailor",
        "parent": "vtls004968435",
        "name": "hugh hughes",
        "dob": "1856",
        "age": "blk",
        "place_of_birth": "borth, cardiganshire",
        "home_address": "blk",
        "f": "blk",
        "name_of_ship": "swell",
        "ship_port": "aberystwyth",
        "date_leaving": "1881",
        "joined_ship_date": "1881-07-14",
        "joined_at_port": "london",
        "capacity": "ordinary seaman",
        "date_left": "1882-01-13",
        "left_port": "conway",
        "cause_of_leaving": "remains on board",
        "sign_with_mark": "n",
        "notes": "blk"
    },
    {
        "id": "vtls004968435_3_16",
        "type": "sailor",
        "parent": "vtls004968435",
        "name": "hugh rowlands",
        "dob": "1849",
        "age": "blk",
        "place_of_birth": "amlwch",
        "home_address": "blk",
        "f": "blk",
        "name_of_ship": "thomas hamlin",
        "ship_port": "liverpool",
        "date_leaving": "1881",
        "joined_ship_date": "1881-11-08",
        "joined_at_port": "neath",
        "capacity": "able seaman",
        "date_left": "1882-01-13",
        "left_port": "conway",
        "cause_of_leaving": "remains on board",
        "sign_with_mark": "n",
        "notes": "blk"
    },
    {
        "id": "vtls004968435_2_13",
        "type": "sailor",
        "parent": "vtls004968435",
        "name": "john jones",
        "dob": "1857",
        "age": "blk",
        "place_of_birth": "borth, cardiganshire",
        "home_address": "blk",
        "f": "blk",
        "name_of_ship": "swan",
        "ship_port": "liverpool",
        "date_leaving": "1881",
        "joined_ship_date": "1881-07-27",
        "joined_at_port": "portmadoc",
        "capacity": "able seaman",
        "date_left": "1881-09-12",
        "left_port": "london",
        "cause_of_leaving": "discharged",
        "sign_with_mark": "n",
        "notes": "blk"
    },
    {
        "id": "vtls004968435_3_12",
        "type": "sailor",
        "parent": "vtls004968435",
        "name": "john jones",
        "dob": "1854",
        "age": "blk",
        "place_of_birth": "borth, cardiganshire",
        "home_address": "blk",
        "f": "blk",
        "name_of_ship": "swell",
        "ship_port": "aberystwyth",
        "date_leaving": "1881",
        "joined_ship_date": "1881-07-14",
        "joined_at_port": "london",
        "capacity": "mate",
        "date_left": "1882-01-13",
        "left_port": "conway",
        "cause_of_leaving": "remains on board",
        "sign_with_mark": "n",
        "notes": "blk"
    },
    {
        "id": "vtls004968435_3_11",
        "type": "sailor",
        "parent": "vtls004968435",
        "name": "thomas williams",
        "dob": "1848",
        "age": "blk",
        "place_of_birth": "borth, cardiganshire",
        "home_address": "blk",
        "f": "blk",
        "name_of_ship": "swell",
        "ship_port": "aberystwyth",
        "date_leaving": "1881",
        "joined_ship_date": "1881-07-14",
        "joined_at_port": "london",
        "capacity": "master",
        "date_left": "1881-10-21",
        "left_port": "swansea",
        "cause_of_leaving": "paid off",
        "sign_with_mark": "n",
        "notes": "blk"
    },
    {
        "id": "vtls004968435_3_14",
        "type": "sailor",
        "parent": "vtls004968435",
        "name": "john jones",
        "dob": "1867",
        "age": "blk",
        "place_of_birth": "borth, cardiganshire",
        "home_address": "blk",
        "f": "blk",
        "name_of_ship": "swell",
        "ship_port": "aberystwyth",
        "date_leaving": "1881",
        "joined_ship_date": "1881-07-14",
        "joined_at_port": "london",
        "capacity": "boy",
        "date_left": "1882-01-13",
        "left_port": "conway",
        "cause_of_leaving": "remains on board",
        "sign_with_mark": "n",
        "notes": "blk"
    },
    {
        "id": "vtls004968435_2_15",
        "type": "sailor",
        "parent": "vtls004968435",
        "name": "john jones",
        "dob": "1867",
        "age": "blk",
        "place_of_birth": "borth, cardiganshire",
        "home_address": "blk",
        "f": "blk",
        "name_of_ship": "swell",
        "ship_port": "aberystwyth",
        "date_leaving": "1881",
        "joined_ship_date": "1881-07-27",
        "joined_at_port": "portmadoc",
        "capacity": "cook",
        "date_left": "1881-09-12",
        "left_port": "london",
        "cause_of_leaving": "discharged",
        "sign_with_mark": "n",
        "notes": "blk"
    },
    {
        "id": "vtls004968452_1_12",
        "type": "sailor",
        "parent": "vtls004968452",
        "name": "thomas williams",
        "dob": "1848",
        "age": "blk",
        "place_of_birth": "borth",
        "home_address": "blk",
        "f": "blk",
        "name_of_ship": "swell",
        "ship_port": "aberystwyth",
        "date_leaving": "1882",
        "joined_ship_date": "1882-05-03",
        "joined_at_port": "portmadoc",
        "capacity": "purser and boatswain",
        "date_left": "1882-07-04",
        "left_port": "aberystwyth",
        "cause_of_leaving": "discharged",
        "sign_with_mark": "n",
        "notes": "blk"
    },
    {
        "id": "vtls004968452_0_18",
        "type": "sailor",
        "parent": "vtls004968452",
        "name": "john thomas smith",
        "dob": "blk",
        "age": "blk",
        "place_of_birth": "grimsby",
        "home_address": "blk",
        "f": "blk",
        "name_of_ship": "fishing boat",
        "ship_port": "blk",
        "date_leaving": "1883",
        "joined_ship_date": "1883-04-08",
        "joined_at_port": "grimsby",
        "capacity": "ordinary seaman",
        "date_left": "1883-04-13",
        "left_port": "bridlington",
        "cause_of_leaving": "discharged",
        "sign_with_mark": "n",
        "notes": "blk"
    },
    {
        "id": "vtls004968452_1_11",
        "type": "sailor",
        "parent": "vtls004968452",
        "name": "john thomas",
        "dob": "1819",
        "age": "blk",
        "place_of_birth": "newport, pemprokshire",
        "home_address": "blk",
        "f": "blk",
        "name_of_ship": "magnet",
        "ship_port": "swansea",
        "date_leaving": "1880",
        "joined_ship_date": "1882-05-03",
        "joined_at_port": "portmadoc",
        "capacity": "master",
        "date_left": "1882-07-04",
        "left_port": "aberystwyth",
        "cause_of_leaving": "discharged",
        "sign_with_mark": "n",
        "notes": "blk"
    },
    {
        "id": "vtls004968452_0_14",
        "type": "sailor",
        "parent": "vtls004968452",
        "name": "james daniel",
        "dob": "blk",
        "age": "blk",
        "place_of_birth": "aberystwyth",
        "home_address": "blk",
        "f": "blk",
        "name_of_ship": "unknown ship",
        "ship_port": "blk",
        "date_leaving": "1882",
        "joined_ship_date": "1883-01-08",
        "joined_at_port": "aberystwyth",
        "capacity": "able seaman",
        "date_left": "1883-01-13",
        "left_port": "caernarfon",
        "cause_of_leaving": "discharged",
        "sign_with_mark": "n",
        "notes": "blk"
    },
    {
        "id": "vtls004968452_0_16",
        "type": "sailor",
        "parent": "vtls004968452",
        "name": "f w lewis",
        "dob": "blk",
        "age": "blk",
        "place_of_birth": "caernarfon",
        "home_address": "blk",
        "f": "blk",
        "name_of_ship": "unknown ship",
        "ship_port": "blk",
        "date_leaving": "1883",
        "joined_ship_date": "1883-01-18",
        "joined_at_port": "carnarvon",
        "capacity": "ordinary seaman",
        "date_left": "1883-04-03",
        "left_port": "grimsby",
        "cause_of_leaving": "discharged",
        "sign_with_mark": "n",
        "notes": "blk"
    },
    {
        "id": "vtls004968452_0_17",
        "type": "sailor",
        "parent": "vtls004968452",
        "name": "harry deadman",
        "dob": "blk",
        "age": "blk",
        "place_of_birth": "grimsby",
        "home_address": "blk",
        "f": "blk",
        "name_of_ship": "fishing boat",
        "ship_port": "blk",
        "date_leaving": "1883",
        "joined_ship_date": "1883-04-08",
        "joined_at_port": "grimsby",
        "capacity": "able seaman",
        "date_left": "1883-04-13",
        "left_port": "bridlington",
        "cause_of_leaving": "discharged",
        "sign_with_mark": "n",
        "notes": "blk"
    },
    {
        "id": "vtls004968452_0_13",
        "type": "sailor",
        "parent": "vtls004968452",
        "name": "edward richard",
        "dob": "blk",
        "age": "blk",
        "place_of_birth": "aberystwyth",
        "home_address": "blk",
        "f": "blk",
        "name_of_ship": "swell",
        "ship_port": "aberystwyth",
        "date_leaving": "1882",
        "joined_ship_date": "1883-01-04",
        "joined_at_port": "aberystwyth",
        "capacity": "boy",
        "date_left": "1883-04-13",
        "left_port": "bridlington",
        "cause_of_leaving": "discharged",
        "sign_with_mark": "n",
        "notes": "blk"
    },
    {
        "id": "vtls004968452_0_15",
        "type": "sailor",
        "parent": "vtls004968452",
        "name": "james daniel",
        "dob": "blk",
        "age": "blk",
        "place_of_birth": "caernarfon",
        "home_address": "blk",
        "f": "blk",
        "name_of_ship": "unknown ship",
        "ship_port": "blk",
        "date_leaving": "1883",
        "joined_ship_date": "1883-01-18",
        "joined_at_port": "carnarvon",
        "capacity": "able seaman",
        "date_left": "1883-04-06",
        "left_port": "grimsby",
        "cause_of_leaving": "discharged",
        "sign_with_mark": "n",
        "notes": "blk"
    },
    {
        "id": "vtls004968452_0_11",
        "type": "sailor",
        "parent": "vtls004968452",
        "name": "thomas williams",
        "dob": "1848",
        "age": "blk",
        "place_of_birth": "borth",
        "home_address": "blk",
        "f": "blk",
        "name_of_ship": "swell",
        "ship_port": "aberystwyth",
        "date_leaving": "1882",
        "joined_ship_date": "1883-01",
        "joined_at_port": "aberystwyth",
        "capacity": "master",
        "date_left": "1883-04-13",
        "left_port": "bridlington",
        "cause_of_leaving": "discharged",
        "sign_with_mark": "n",
        "notes": "blk"
    },
    {
        "id": "vtls004968452_2_14",
        "type": "sailor",
        "parent": "vtls004968452",
        "name": "john jones",
        "dob": "1867",
        "age": "blk",
        "place_of_birth": "borth, cardiganshire",
        "home_address": "blk",
        "f": "blk",
        "name_of_ship": "swell",
        "ship_port": "aberystwyth",
        "date_leaving": "1882",
        "joined_ship_date": "1882-07-05",
        "joined_at_port": "aberystwyth",
        "capacity": "ordinary seaman",
        "date_left": "1882-10-14",
        "left_port": "runcorn",
        "cause_of_leaving": "discharged",
        "sign_with_mark": "n",
        "notes": "blk"
    },
    {
        "id": "vtls004968452_2_13",
        "type": "sailor",
        "parent": "vtls004968452",
        "name": "hugh hughes",
        "dob": "1865",
        "age": "blk",
        "place_of_birth": "borth, cardiganshire",
        "home_address": "blk",
        "f": "blk",
        "name_of_ship": "swell",
        "ship_port": "aberystwyth",
        "date_leaving": "1882",
        "joined_ship_date": "1882-07-05",
        "joined_at_port": "aberystwyth",
        "capacity": "able seaman",
        "date_left": "1882-12-02",
        "left_port": "aberystwyth",
        "cause_of_leaving": "discharged",
        "sign_with_mark": "n",
        "notes": "blk"
    },
    {
        "id": "vtls004968452_1_15",
        "type": "sailor",
        "parent": "vtls004968452",
        "name": "john jones",
        "dob": "1869",
        "age": "blk",
        "place_of_birth": "borth",
        "home_address": "blk",
        "f": "blk",
        "name_of_ship": "swell",
        "ship_port": "aberystwyth",
        "date_leaving": "1882",
        "joined_ship_date": "1882-05-03",
        "joined_at_port": "portmadoc",
        "capacity": "cook & ordinary seaman",
        "date_left": "1882-07-04",
        "left_port": "aberystwyth",
        "cause_of_leaving": "discharged",
        "sign_with_mark": "n",
        "notes": "blk"
    },
    {
        "id": "vtls004968452_2_15",
        "type": "sailor",
        "parent": "vtls004968452",
        "name": "evan m lewis",
        "dob": "1869",
        "age": "blk",
        "place_of_birth": "borth, cardiganshire",
        "home_address": "blk",
        "f": "blk",
        "name_of_ship": "first ship",
        "ship_port": "blk",
        "date_leaving": "1882",
        "joined_ship_date": "1882-07-05",
        "joined_at_port": "aberystwyth",
        "capacity": "boy",
        "date_left": "1882-12-02",
        "left_port": "aberystwyth",
        "cause_of_leaving": "discharged",
        "sign_with_mark": "n",
        "notes": "blk"
    },
    {
        "id": "vtls004968452_2_11",
        "type": "sailor",
        "parent": "vtls004968452",
        "name": "thomas williams",
        "dob": "1848",
        "age": "blk",
        "place_of_birth": "borth, cardiganshire",
        "home_address": "blk",
        "f": "blk",
        "name_of_ship": "swell",
        "ship_port": "aberystwyth",
        "date_leaving": "1882",
        "joined_ship_date": "1882-07-05",
        "joined_at_port": "aberystwyth",
        "capacity": "master",
        "date_left": "blk",
        "left_port": "blk",
        "cause_of_leaving": "remains on board",
        "sign_with_mark": "n",
        "notes": "blk"
    },
    {
        "id": "vtls004968452_2_16",
        "type": "sailor",
        "parent": "vtls004968452",
        "name": "john lloyd",
        "dob": "1856",
        "age": "blk",
        "place_of_birth": "aberystwyth",
        "home_address": "blk",
        "f": "blk",
        "name_of_ship": "nugget",
        "ship_port": "carnarvon",
        "date_leaving": "1882-10-27",
        "joined_ship_date": "1882-10-28",
        "joined_at_port": "runcorn",
        "capacity": "able seaman",
        "date_left": "1882-12-02",
        "left_port": "aberystwyth",
        "cause_of_leaving": "discharged",
        "sign_with_mark": "y",
        "notes": "blk"
    },
    {
        "id": "vtls004968452_1_14",
        "type": "sailor",
        "parent": "vtls004968452",
        "name": "hugh hughes",
        "dob": "1865",
        "age": "blk",
        "place_of_birth": "borth",
        "home_address": "blk",
        "f": "blk",
        "name_of_ship": "swell",
        "ship_port": "aberystwyth",
        "date_leaving": "1882",
        "joined_ship_date": "1882-05-03",
        "joined_at_port": "portmadoc",
        "capacity": "ordinary seaman",
        "date_left": "1882-07-04",
        "left_port": "aberystwyth",
        "cause_of_leaving": "discharged",
        "sign_with_mark": "n",
        "notes": "blk"
    },
    {
        "id": "vtls004968452_2_17",
        "type": "sailor",
        "parent": "vtls004968452",
        "name": "james daniel",
        "dob": "1844",
        "age": "blk",
        "place_of_birth": "aberystwyth",
        "home_address": "blk",
        "f": "blk",
        "name_of_ship": "glanwern",
        "ship_port": "glanwern",
        "date_leaving": "1882",
        "joined_ship_date": "1883-01-07",
        "joined_at_port": "aberystwyth",
        "capacity": "able seaman",
        "date_left": "blk",
        "left_port": "blk",
        "cause_of_leaving": "remains on board",
        "sign_with_mark": "n",
        "notes": "blk"
    },
    {
        "id": "vtls004968452_3_15",
        "type": "sailor",
        "parent": "vtls004968452",
        "name": "john jones",
        "dob": "1867",
        "age": "blk",
        "place_of_birth": "borth, cardiganshire",
        "home_address": "blk",
        "f": "blk",
        "name_of_ship": "swell",
        "ship_port": "aberystwyth",
        "date_leaving": "1882",
        "joined_ship_date": "1882-01-13",
        "joined_at_port": "conway",
        "capacity": "cook & ordinary seaman",
        "date_left": "1882-05-04",
        "left_port": "porthmadog",
        "cause_of_leaving": "remains on board",
        "sign_with_mark": "n",
        "notes": "blk"
    },
    {
        "id": "vtls004968452_3_14",
        "type": "sailor",
        "parent": "vtls004968452",
        "name": "hugh hughes",
        "dob": "blk",
        "age": "blk",
        "place_of_birth": "borth, cardiganshire",
        "home_address": "blk",
        "f": "blk",
        "name_of_ship": "swell",
        "ship_port": "aberystwyth",
        "date_leaving": "1882",
        "joined_ship_date": "1882-01-13",
        "joined_at_port": "conway",
        "capacity": "ordinary seaman",
        "date_left": "1882-05-04",
        "left_port": "porthmadog",
        "cause_of_leaving": "remains on board",
        "sign_with_mark": "n",
        "notes": "blk"
    },
    {
        "id": "vtls004968452_3_11",
        "type": "sailor",
        "parent": "vtls004968452",
        "name": "thomas williams",
        "dob": "1848",
        "age": "blk",
        "place_of_birth": "borth, cardiganshire",
        "home_address": "blk",
        "f": "blk",
        "name_of_ship": "swell",
        "ship_port": "aberystwyth",
        "date_leaving": "1882",
        "joined_ship_date": "1882-01-13",
        "joined_at_port": "conway",
        "capacity": "master",
        "date_left": "1882-05-03",
        "left_port": "porthmadog",
        "cause_of_leaving": "remains on board",
        "sign_with_mark": "n",
        "notes": "blk"
    },
    {
        "id": "vtls004968452_3_16",
        "type": "sailor",
        "parent": "vtls004968452",
        "name": "harry bulkly",
        "dob": "1863",
        "age": "blk",
        "place_of_birth": "beaumaris",
        "home_address": "blk",
        "f": "blk",
        "name_of_ship": "alice anna",
        "ship_port": "beaumaris",
        "date_leaving": "1882",
        "joined_ship_date": "1882-02-22",
        "joined_at_port": "bangor",
        "capacity": "able seaman",
        "date_left": "1882-04-24",
        "left_port": "porthmadog",
        "cause_of_leaving": "paid off",
        "sign_with_mark": "n",
        "notes": "blk"
    },
    {
        "id": "vtls004968452_3_13",
        "type": "sailor",
        "parent": "vtls004968452",
        "name": "hugh rollants",
        "dob": "1850",
        "age": "blk",
        "place_of_birth": "amlwch",
        "home_address": "blk",
        "f": "blk",
        "name_of_ship": "swell",
        "ship_port": "aberystwyth",
        "date_leaving": "1882",
        "joined_ship_date": "1882-01-13",
        "joined_at_port": "conway",
        "capacity": "able seaman",
        "date_left": "1882-02-01",
        "left_port": "bangor",
        "cause_of_leaving": "paid off",
        "sign_with_mark": "n",
        "notes": "blk"
    },
    {
        "id": "vtls004968452_2_18",
        "type": "sailor",
        "parent": "vtls004968452",
        "name": "e l richards",
        "dob": "1869",
        "age": "blk",
        "place_of_birth": "aberystwyth",
        "home_address": "blk",
        "f": "blk",
        "name_of_ship": "first ship",
        "ship_port": "blk",
        "date_leaving": "blk",
        "joined_ship_date": "1883-01-07",
        "joined_at_port": "aberystwyth",
        "capacity": "boy",
        "date_left": "blk",
        "left_port": "blk",
        "cause_of_leaving": "remains on board",
        "sign_with_mark": "n",
        "notes": "blk"
    }
]