[
    {
        "id": "vtls004634502_0_12",
        "type": "sailor",
        "parent": "vtls004634502",
        "name": "david bowen",
        "dob": "blk",
        "age": "26",
        "place_of_birth": "aberystwyth",
        "home_address": "blk",
        "f": "blk",
        "name_of_ship": "catherine",
        "ship_port": "aberystwyth",
        "date_leaving": "blk",
        "joined_ship_date": "in 1871",
        "joined_at_port": "aberdovey",
        "capacity": "maite",
        "date_left": "blk",
        "left_port": "blk",
        "cause_of_leaving": "remains on board",
        "sign_with_mark": "n",
        "notes": "note 1 - capacity of maite is as written"
    },
    {
        "id": "vtls004634502_0_15",
        "type": "sailor",
        "parent": "vtls004634502",
        "name": "david evans",
        "dob": "blk",
        "age": "18",
        "place_of_birth": "aberdovey",
        "home_address": "blk",
        "f": "blk",
        "name_of_ship": "jane owens",
        "ship_port": "aberystwyth",
        "date_leaving": "1872",
        "joined_ship_date": "1872-06-24",
        "joined_at_port": "aberdovey",
        "capacity": "able seaman",
        "date_left": "blk",
        "left_port": "blk",
        "cause_of_leaving": "remains on board",
        "sign_with_mark": "blk",
        "notes": "blk"
    },
    {
        "id": "vtls004634502_0_14",
        "type": "sailor",
        "parent": "vtls004634502",
        "name": "david morgan",
        "dob": "blk",
        "age": "60",
        "place_of_birth": "aberystwyth",
        "home_address": "blk",
        "f": "blk",
        "name_of_ship": "alert",
        "ship_port": "aberystwyth",
        "date_leaving": "1872",
        "joined_ship_date": "1872-05-04",
        "joined_at_port": "aberdovey",
        "capacity": "able seaman",
        "date_left": "blk",
        "left_port": "blk",
        "cause_of_leaving": "remains on board",
        "sign_with_mark": "n",
        "notes": "blk"
    },
    {
        "id": "vtls004634502_0_11",
        "type": "sailor",
        "parent": "vtls004634502",
        "name": "owen williams",
        "dob": "blk",
        "age": "34",
        "place_of_birth": "aberdovey",
        "home_address": "aberdovey",
        "f": "aberdovey",
        "name_of_ship": "catherine",
        "ship_port": "aberystwyth",
        "date_leaving": "blk",
        "joined_ship_date": "in 1869",
        "joined_at_port": "aberdovey",
        "capacity": "master",
        "date_left": "blk",
        "left_port": "blk",
        "cause_of_leaving": "remains on board",
        "sign_with_mark": "n",
        "notes": "blk"
    },
    {
        "id": "vtls004634504_0_12",
        "type": "sailor",
        "parent": "vtls004634504",
        "name": "edward williams",
        "dob": "1871",
        "age": "blk",
        "place_of_birth": "port isaac",
        "home_address": "blk",
        "f": "blk",
        "name_of_ship": "orion",
        "ship_port": "padstow",
        "date_leaving": "1898",
        "joined_ship_date": "1899-02-21",
        "joined_at_port": "falmouth",
        "capacity": "mate",
        "date_left": "1899-07-10",
        "left_port": "preston",
        "cause_of_leaving": "discharged",
        "sign_with_mark": "n",
        "notes": "note 1 - rn volunteers cert no. = 8045\nnote 2 - no vessel by the name orion registered at padstow for this period"
    },
    {
        "id": "vtls004634504_0_11",
        "type": "sailor",
        "parent": "vtls004634504",
        "name": "thomas mitchell",
        "dob": "1860",
        "age": "blk",
        "place_of_birth": "port isaac",
        "home_address": "port isaac",
        "f": "port isaac",
        "name_of_ship": "catherine",
        "ship_port": "padstow",
        "date_leaving": "1898",
        "joined_ship_date": "1899-02-21",
        "joined_at_port": "falmouth",
        "capacity": "master",
        "date_left": "1899-07-10",
        "left_port": "preston",
        "cause_of_leaving": "discharged",
        "sign_with_mark": "n",
        "notes": "this ship is now registered with the port of padstow"
    },
    {
        "id": "vtls004634502_1_13",
        "type": "sailor",
        "parent": "vtls004634502",
        "name": "william griffiths",
        "dob": "blk",
        "age": "25",
        "place_of_birth": "aberystwyth",
        "home_address": "blk",
        "f": "blk",
        "name_of_ship": "anne",
        "ship_port": "aberystwyth",
        "date_leaving": "1872",
        "joined_ship_date": "1872-11-04",
        "joined_at_port": "greenock",
        "capacity": "maite",
        "date_left": "blk",
        "left_port": "blk",
        "cause_of_leaving": "remains on board",
        "sign_with_mark": "n",
        "notes": "note 1 - capacity of maite is as written"
    },
    {
        "id": "vtls004634504_0_13",
        "type": "sailor",
        "parent": "vtls004634504",
        "name": "alexander clark",
        "dob": "1879",
        "age": "blk",
        "place_of_birth": "london",
        "home_address": "blk",
        "f": "blk",
        "name_of_ship": "catherine",
        "ship_port": "padstow",
        "date_leaving": "1898",
        "joined_ship_date": "1899-03-07",
        "joined_at_port": "falmouth",
        "capacity": "able seaman",
        "date_left": "1899-07-10",
        "left_port": "preston",
        "cause_of_leaving": "discharged",
        "sign_with_mark": "n",
        "notes": "blk"
    },
    {
        "id": "vtls004634502_1_14",
        "type": "sailor",
        "parent": "vtls004634502",
        "name": "david evans",
        "dob": "blk",
        "age": "18",
        "place_of_birth": "aberdovey",
        "home_address": "blk",
        "f": "blk",
        "name_of_ship": "catherine",
        "ship_port": "aberystwyth",
        "date_leaving": "blk",
        "joined_ship_date": "1871-01-01",
        "joined_at_port": "aberdovey",
        "capacity": "able seaman",
        "date_left": "1872-12-12",
        "left_port": "aberdovey",
        "cause_of_leaving": "discharged",
        "sign_with_mark": "n",
        "notes": "blk"
    },
    {
        "id": "vtls004634504_0_14",
        "type": "sailor",
        "parent": "vtls004634504",
        "name": "richard morman",
        "dob": "1880",
        "age": "blk",
        "place_of_birth": "port isaac",
        "home_address": "blk",
        "f": "blk",
        "name_of_ship": "first ship",
        "ship_port": "blk",
        "date_leaving": "blk",
        "joined_ship_date": "1899-03-14",
        "joined_at_port": "falmouth",
        "capacity": "boy & cook",
        "date_left": "1899-07-10",
        "left_port": "preston",
        "cause_of_leaving": "discharged",
        "sign_with_mark": "n",
        "notes": "blk"
    },
    {
        "id": "vtls004634502_1_12",
        "type": "sailor",
        "parent": "vtls004634502",
        "name": "david bowen",
        "dob": "blk",
        "age": "27",
        "place_of_birth": "aberystwyth",
        "home_address": "blk",
        "f": "blk",
        "name_of_ship": "catherine",
        "ship_port": "aberystwyth",
        "date_leaving": "blk",
        "joined_ship_date": "in 1872",
        "joined_at_port": "aberdovey",
        "capacity": "maite",
        "date_left": "1872-11-04",
        "left_port": "greenock",
        "cause_of_leaving": "discharged",
        "sign_with_mark": "n",
        "notes": "blk"
    },
    {
        "id": "vtls004634502_1_11",
        "type": "sailor",
        "parent": "vtls004634502",
        "name": "owen williams",
        "dob": "blk",
        "age": "35",
        "place_of_birth": "aberdovey",
        "home_address": "aberdovey",
        "f": "aberdovey",
        "name_of_ship": "catherine",
        "ship_port": "aberystwyth",
        "date_leaving": "blk",
        "joined_ship_date": "in 1869",
        "joined_at_port": "aberdovey",
        "capacity": "master",
        "date_left": "blk",
        "left_port": "blk",
        "cause_of_leaving": "remains on board",
        "sign_with_mark": "n",
        "notes": "blk"
    }
]