[
    {
        "id": "vtls004692776_0_13",
        "type": "sailor",
        "parent": "vtls004692776",
        "name": "joshua griffiths",
        "dob": "blk",
        "age": "22",
        "place_of_birth": "newquay",
        "home_address": "blk",
        "f": "blk",
        "name_of_ship": "john ewing",
        "ship_port": "aberystwyth",
        "date_leaving": "1875-12-31",
        "joined_ship_date": "1876-01-01",
        "joined_at_port": "london",
        "capacity": "able seaman",
        "date_left": "1876-06-10",
        "left_port": "newquay",
        "cause_of_leaving": "discharged",
        "sign_with_mark": "n",
        "notes": "blk"
    },
    {
        "id": "vtls004692776_0_14",
        "type": "sailor",
        "parent": "vtls004692776",
        "name": "john jenkins",
        "dob": "blk",
        "age": "21",
        "place_of_birth": "newquay",
        "home_address": "blk",
        "f": "blk",
        "name_of_ship": "john ewing",
        "ship_port": "aberystwyth",
        "date_leaving": "1875-12-31",
        "joined_ship_date": "1876-01-01",
        "joined_at_port": "london",
        "capacity": "ordinary seaman",
        "date_left": "1876-06-10",
        "left_port": "newquay",
        "cause_of_leaving": "discharged",
        "sign_with_mark": "n",
        "notes": "blk"
    },
    {
        "id": "vtls004692776_0_12",
        "type": "sailor",
        "parent": "vtls004692776",
        "name": "morgan jenkins",
        "dob": "blk",
        "age": "42",
        "place_of_birth": "llanuchaiarn, cardiganshire",
        "home_address": "blk",
        "f": "blk",
        "name_of_ship": "john ewing",
        "ship_port": "aberystwyth",
        "date_leaving": "1875-12-31",
        "joined_ship_date": "1876-01-01",
        "joined_at_port": "london",
        "capacity": "mate",
        "date_left": "1876-06-10",
        "left_port": "newquay",
        "cause_of_leaving": "discharged",
        "sign_with_mark": "n",
        "notes": "blk"
    },
    {
        "id": "vtls004692776_0_11",
        "type": "sailor",
        "parent": "vtls004692776",
        "name": "evan evans",
        "dob": "blk",
        "age": "29",
        "place_of_birth": "newquay",
        "home_address": "blk",
        "f": "blk",
        "name_of_ship": "john ewing",
        "ship_port": "aberystwyth",
        "date_leaving": "1875-12-31",
        "joined_ship_date": "1876-01-01",
        "joined_at_port": "london",
        "capacity": "master",
        "date_left": "1876-06-30",
        "left_port": "newquay",
        "cause_of_leaving": "remains on board",
        "sign_with_mark": "n",
        "notes": "blk"
    },
    {
        "id": "vtls004692776_1_13",
        "type": "sailor",
        "parent": "vtls004692776",
        "name": "david d davies",
        "dob": "blk",
        "age": "39",
        "place_of_birth": "narberth, pembrokeshire",
        "home_address": "blk",
        "f": "blk",
        "name_of_ship": "ann mitchell",
        "ship_port": "swansea",
        "date_leaving": "1876",
        "joined_ship_date": "1876-09-07",
        "joined_at_port": "newquay",
        "capacity": "able seaman",
        "date_left": "1876-09-19",
        "left_port": "porthcawl",
        "cause_of_leaving": "discharged",
        "sign_with_mark": "n",
        "notes": "blk"
    },
    {
        "id": "vtls004692776_1_15",
        "type": "sailor",
        "parent": "vtls004692776",
        "name": "william williams",
        "dob": "blk",
        "age": "26",
        "place_of_birth": "dinas, pembrokeshire",
        "home_address": "blk",
        "f": "blk",
        "name_of_ship": "[perseverance]",
        "ship_port": "little [hampton]",
        "date_leaving": "1876",
        "joined_ship_date": "1876-09-22",
        "joined_at_port": "porthcawl",
        "capacity": "able seaman",
        "date_left": "blk",
        "left_port": "blk",
        "cause_of_leaving": "remains on board",
        "sign_with_mark": "n",
        "notes": "blk"
    },
    {
        "id": "vtls004692776_1_14",
        "type": "sailor",
        "parent": "vtls004692776",
        "name": "david d davies",
        "dob": "blk",
        "age": "19",
        "place_of_birth": "newquay",
        "home_address": "blk",
        "f": "blk",
        "name_of_ship": "pacific",
        "ship_port": "aberystwyth",
        "date_leaving": "1876",
        "joined_ship_date": "1876-09-07",
        "joined_at_port": "newquay",
        "capacity": "ordinary seaman",
        "date_left": "blk",
        "left_port": "blk",
        "cause_of_leaving": "remains on board",
        "sign_with_mark": "n",
        "notes": "blk"
    },
    {
        "id": "vtls004692776_1_12",
        "type": "sailor",
        "parent": "vtls004692776",
        "name": "jenkin rees jones",
        "dob": "blk",
        "age": "28",
        "place_of_birth": "aberaeron",
        "home_address": "blk",
        "f": "blk",
        "name_of_ship": "ann mitchell",
        "ship_port": "swansea",
        "date_leaving": "1876",
        "joined_ship_date": "1876-09-07",
        "joined_at_port": "newquay",
        "capacity": "mate",
        "date_left": "blk",
        "left_port": "blk",
        "cause_of_leaving": "remains on board",
        "sign_with_mark": "n",
        "notes": "blk"
    },
    {
        "id": "vtls004692776_1_11",
        "type": "sailor",
        "parent": "vtls004692776",
        "name": "evan evans",
        "dob": "blk",
        "age": "30",
        "place_of_birth": "newquay",
        "home_address": "blk",
        "f": "blk",
        "name_of_ship": "john ewing",
        "ship_port": "aberystwyth",
        "date_leaving": "1876",
        "joined_ship_date": "1876-09-06",
        "joined_at_port": "newquay",
        "capacity": "master",
        "date_left": "blk",
        "left_port": "blk",
        "cause_of_leaving": "remains on board",
        "sign_with_mark": "n",
        "notes": "blk"
    },
    {
        "id": "vtls004692776_0_15",
        "type": "sailor",
        "parent": "vtls004692776",
        "name": "eben griffiths",
        "dob": "blk",
        "age": "19",
        "place_of_birth": "st davids",
        "home_address": "blk",
        "f": "blk",
        "name_of_ship": "john ewing",
        "ship_port": "aberystwyth",
        "date_leaving": "1875-12-31",
        "joined_ship_date": "1876-01-01",
        "joined_at_port": "london",
        "capacity": "boy",
        "date_left": "1876-06-10",
        "left_port": "newquay",
        "cause_of_leaving": "discharged",
        "sign_with_mark": "n",
        "notes": "blk"
    },
    {
        "id": "vtls004692785_0_11",
        "type": "sailor",
        "parent": "vtls004692785",
        "name": "evan evans",
        "dob": "blk",
        "age": "30",
        "place_of_birth": "newquay",
        "home_address": "blk",
        "f": "blk",
        "name_of_ship": "john ewing",
        "ship_port": "aberystwyth",
        "date_leaving": "1877",
        "joined_ship_date": "1877-01-10",
        "joined_at_port": "barrow",
        "capacity": "master",
        "date_left": "blk",
        "left_port": "blk",
        "cause_of_leaving": "remains on board",
        "sign_with_mark": "n",
        "notes": "blk"
    },
    {
        "id": "vtls004692785_0_12",
        "type": "sailor",
        "parent": "vtls004692785",
        "name": "jenkin rees jones",
        "dob": "blk",
        "age": "29",
        "place_of_birth": "aberaeron",
        "home_address": "blk",
        "f": "blk",
        "name_of_ship": "john ewing",
        "ship_port": "aberystwyth",
        "date_leaving": "1877",
        "joined_ship_date": "1877-01-10",
        "joined_at_port": "barrow",
        "capacity": "mate",
        "date_left": "1877-05-17",
        "left_port": "runcorn",
        "cause_of_leaving": "discharged",
        "sign_with_mark": "n",
        "notes": "blk"
    },
    {
        "id": "vtls004692776_1_16",
        "type": "sailor",
        "parent": "vtls004692776",
        "name": "george w jones",
        "dob": "blk",
        "age": "18",
        "place_of_birth": "hereford",
        "home_address": "blk",
        "f": "blk",
        "name_of_ship": "s.s cop$$",
        "ship_port": "london",
        "date_leaving": "1876",
        "joined_ship_date": "1876-09-22",
        "joined_at_port": "porthcawl",
        "capacity": "boy",
        "date_left": "blk",
        "left_port": "blk",
        "cause_of_leaving": "remains on board",
        "sign_with_mark": "n",
        "notes": "blk"
    },
    {
        "id": "vtls004692785_0_13",
        "type": "sailor",
        "parent": "vtls004692785",
        "name": "william williams",
        "dob": "blk",
        "age": "26",
        "place_of_birth": "dinas, pembroke",
        "home_address": "blk",
        "f": "blk",
        "name_of_ship": "john ewing",
        "ship_port": "aberystwyth",
        "date_leaving": "1877",
        "joined_ship_date": "1877-01-10",
        "joined_at_port": "barrow",
        "capacity": "able seaman",
        "date_left": "1877-02-23",
        "left_port": "swansea",
        "cause_of_leaving": "discharged",
        "sign_with_mark": "n",
        "notes": "blk"
    },
    {
        "id": "vtls004692785_0_14",
        "type": "sailor",
        "parent": "vtls004692785",
        "name": "david d davies",
        "dob": "blk",
        "age": "19",
        "place_of_birth": "newquay",
        "home_address": "blk",
        "f": "blk",
        "name_of_ship": "john ewing",
        "ship_port": "aberystwyth",
        "date_leaving": "1877",
        "joined_ship_date": "1877-01-10",
        "joined_at_port": "barrow",
        "capacity": "ordinary seaman",
        "date_left": "blk",
        "left_port": "blk",
        "cause_of_leaving": "remains on board",
        "sign_with_mark": "n",
        "notes": "blk"
    },
    {
        "id": "vtls004692785_0_19",
        "type": "sailor",
        "parent": "vtls004692785",
        "name": "william evans",
        "dob": "blk",
        "age": "54",
        "place_of_birth": "newquay",
        "home_address": "blk",
        "f": "blk",
        "name_of_ship": "margaretta",
        "ship_port": "aberystwyth",
        "date_leaving": "1877",
        "joined_ship_date": "1877-05-22",
        "joined_at_port": "runcorn",
        "capacity": "mate",
        "date_left": "1877-07-02",
        "left_port": "swansea",
        "cause_of_leaving": "discharged",
        "sign_with_mark": "n",
        "notes": "blk"
    },
    {
        "id": "vtls004692785_0_20",
        "type": "sailor",
        "parent": "vtls004692785",
        "name": "william willcocks",
        "dob": "blk",
        "age": "35",
        "place_of_birth": "trevine, pembrokeshire",
        "home_address": "blk",
        "f": "blk",
        "name_of_ship": "s.s. barington",
        "ship_port": "newcastle",
        "date_leaving": "1877",
        "joined_ship_date": "1877-07-02",
        "joined_at_port": "swansea",
        "capacity": "mate",
        "date_left": "blk",
        "left_port": "blk",
        "cause_of_leaving": "remains on board",
        "sign_with_mark": "n",
        "notes": "blk"
    },
    {
        "id": "vtls004692785_0_16",
        "type": "sailor",
        "parent": "vtls004692785",
        "name": "william edwards",
        "dob": "blk",
        "age": "16",
        "place_of_birth": "st dogmaels",
        "home_address": "blk",
        "f": "blk",
        "name_of_ship": "harry herbert",
        "ship_port": "liverpool",
        "date_leaving": "1877",
        "joined_ship_date": "1877-03-07",
        "joined_at_port": "swansea",
        "capacity": "boy",
        "date_left": "1877-04-24",
        "left_port": "greenock",
        "cause_of_leaving": "discharged",
        "sign_with_mark": "n",
        "notes": "blk"
    },
    {
        "id": "vtls004692785_0_18",
        "type": "sailor",
        "parent": "vtls004692785",
        "name": "william evans",
        "dob": "blk",
        "age": "16",
        "place_of_birth": "newquay",
        "home_address": "blk",
        "f": "blk",
        "name_of_ship": "margaretta",
        "ship_port": "aberystwyth",
        "date_leaving": "1877",
        "joined_ship_date": "1877-05-22",
        "joined_at_port": "runcorn",
        "capacity": "boy",
        "date_left": "blk",
        "left_port": "blk",
        "cause_of_leaving": "remains on board",
        "sign_with_mark": "n",
        "notes": "blk"
    },
    {
        "id": "vtls004692785_0_15",
        "type": "sailor",
        "parent": "vtls004692785",
        "name": "george w jones",
        "dob": "blk",
        "age": "19",
        "place_of_birth": "hereford",
        "home_address": "blk",
        "f": "blk",
        "name_of_ship": "john ewing",
        "ship_port": "aberystwyth",
        "date_leaving": "1877",
        "joined_ship_date": "1877-01-10",
        "joined_at_port": "barrow",
        "capacity": "boy",
        "date_left": "1877-03-21",
        "left_port": "swansea",
        "cause_of_leaving": "discharged",
        "sign_with_mark": "n",
        "notes": "blk"
    },
    {
        "id": "vtls004692785_0_17",
        "type": "sailor",
        "parent": "vtls004692785",
        "name": "thomas revell",
        "dob": "blk",
        "age": "22",
        "place_of_birth": "goole",
        "home_address": "blk",
        "f": "blk",
        "name_of_ship": "maid of kent",
        "ship_port": "london",
        "date_leaving": "1877",
        "joined_ship_date": "1877-03-26",
        "joined_at_port": "poole",
        "capacity": "able seaman",
        "date_left": "1877-05-17",
        "left_port": "runcorn",
        "cause_of_leaving": "discharged",
        "sign_with_mark": "n",
        "notes": "blk"
    },
    {
        "id": "vtls004692785_1_15",
        "type": "sailor",
        "parent": "vtls004692785",
        "name": "william evans",
        "dob": "blk",
        "age": "16",
        "place_of_birth": "newquay",
        "home_address": "blk",
        "f": "blk",
        "name_of_ship": "john ewing",
        "ship_port": "aberystwyth",
        "date_leaving": "1877",
        "joined_ship_date": "1877-08-03",
        "joined_at_port": "par",
        "capacity": "ordinary seaman",
        "date_left": "1877-08-16",
        "left_port": "newquay",
        "cause_of_leaving": "discharged",
        "sign_with_mark": "n",
        "notes": "blk"
    },
    {
        "id": "vtls004692785_1_14",
        "type": "sailor",
        "parent": "vtls004692785",
        "name": "david d davies",
        "dob": "blk",
        "age": "20",
        "place_of_birth": "newquay",
        "home_address": "blk",
        "f": "blk",
        "name_of_ship": "john ewing",
        "ship_port": "aberystwyth",
        "date_leaving": "1877",
        "joined_ship_date": "1877-08-03",
        "joined_at_port": "par",
        "capacity": "ordinary seaman",
        "date_left": "1877-10-25",
        "left_port": "newport",
        "cause_of_leaving": "discharged",
        "sign_with_mark": "n",
        "notes": "blk"
    },
    {
        "id": "vtls004692785_1_18",
        "type": "sailor",
        "parent": "vtls004692785",
        "name": "william beevan",
        "dob": "blk",
        "age": "31",
        "place_of_birth": "fishguard, pembrokeshire",
        "home_address": "blk",
        "f": "blk",
        "name_of_ship": "ann jane",
        "ship_port": "aberystwyth",
        "date_leaving": "1877",
        "joined_ship_date": "1877-10-24",
        "joined_at_port": "newport",
        "capacity": "mate",
        "date_left": "blk",
        "left_port": "blk",
        "cause_of_leaving": "remains on board",
        "sign_with_mark": "n",
        "notes": "blk"
    },
    {
        "id": "vtls004692785_1_12",
        "type": "sailor",
        "parent": "vtls004692785",
        "name": "william willcocks",
        "dob": "blk",
        "age": "33",
        "place_of_birth": "trevin, south wales",
        "home_address": "blk",
        "f": "blk",
        "name_of_ship": "john ewing",
        "ship_port": "aberystwyth",
        "date_leaving": "1877",
        "joined_ship_date": "1877-08-03",
        "joined_at_port": "par",
        "capacity": "mate",
        "date_left": "1877-10-18",
        "left_port": "bristol",
        "cause_of_leaving": "discharged",
        "sign_with_mark": "n",
        "notes": "blk"
    },
    {
        "id": "vtls004692785_1_19",
        "type": "sailor",
        "parent": "vtls004692785",
        "name": "william williams",
        "dob": "blk",
        "age": "27",
        "place_of_birth": "dinas, pembroke",
        "home_address": "blk",
        "f": "blk",
        "name_of_ship": "ann jane",
        "ship_port": "aberystwyth",
        "date_leaving": "1877",
        "joined_ship_date": "1877-10-24",
        "joined_at_port": "newport",
        "capacity": "able seaman",
        "date_left": "blk",
        "left_port": "blk",
        "cause_of_leaving": "remains on board",
        "sign_with_mark": "n",
        "notes": "blk"
    },
    {
        "id": "vtls004692785_0_21",
        "type": "sailor",
        "parent": "vtls004692785",
        "name": "william richards",
        "dob": "blk",
        "age": "22",
        "place_of_birth": "st dogmaels",
        "home_address": "blk",
        "f": "blk",
        "name_of_ship": "professor airy",
        "ship_port": "swansea",
        "date_leaving": "1877",
        "joined_ship_date": "1877-07-03",
        "joined_at_port": "swansea",
        "capacity": "able seaman",
        "date_left": "blk",
        "left_port": "blk",
        "cause_of_leaving": "remains on board",
        "sign_with_mark": "n",
        "notes": "blk"
    },
    {
        "id": "vtls004692785_1_13",
        "type": "sailor",
        "parent": "vtls004692785",
        "name": "william richards",
        "dob": "blk",
        "age": "24",
        "place_of_birth": "st dogmaels",
        "home_address": "blk",
        "f": "blk",
        "name_of_ship": "john ewing",
        "ship_port": "aberystwyth",
        "date_leaving": "1877",
        "joined_ship_date": "1877-08-03",
        "joined_at_port": "par",
        "capacity": "able seaman",
        "date_left": "1877-09-08",
        "left_port": "nearth",
        "cause_of_leaving": "discharged",
        "sign_with_mark": "n",
        "notes": "blk"
    },
    {
        "id": "vtls004692785_1_11",
        "type": "sailor",
        "parent": "vtls004692785",
        "name": "evan evans",
        "dob": "blk",
        "age": "30",
        "place_of_birth": "newquay",
        "home_address": "blk",
        "f": "blk",
        "name_of_ship": "john ewing",
        "ship_port": "aberystwyth",
        "date_leaving": "1877",
        "joined_ship_date": "1877-08-03",
        "joined_at_port": "par",
        "capacity": "master",
        "date_left": "blk",
        "left_port": "blk",
        "cause_of_leaving": "remains on board",
        "sign_with_mark": "n",
        "notes": "blk"
    },
    {
        "id": "vtls004692785_1_16",
        "type": "sailor",
        "parent": "vtls004692785",
        "name": "frances gibson",
        "dob": "blk",
        "age": "15",
        "place_of_birth": "st austell, cornwall",
        "home_address": "blk",
        "f": "blk",
        "name_of_ship": "first ship",
        "ship_port": "blk",
        "date_leaving": "1877",
        "joined_ship_date": "1877-08-06",
        "joined_at_port": "par",
        "capacity": "boy",
        "date_left": "1877-10-25",
        "left_port": "newport",
        "cause_of_leaving": "discharged",
        "sign_with_mark": "n",
        "notes": "blk"
    },
    {
        "id": "vtls004692785_1_17",
        "type": "sailor",
        "parent": "vtls004692785",
        "name": "william campbell",
        "dob": "blk",
        "age": "25",
        "place_of_birth": "swansea",
        "home_address": "blk",
        "f": "blk",
        "name_of_ship": "epsilon",
        "ship_port": "swansea",
        "date_leaving": "1877",
        "joined_ship_date": "1877-09-17",
        "joined_at_port": "neath",
        "capacity": "able seaman",
        "date_left": "1877-10-15",
        "left_port": "bristol",
        "cause_of_leaving": "discharged",
        "sign_with_mark": "n",
        "notes": "blk"
    },
    {
        "id": "vtls004692785_1_20",
        "type": "sailor",
        "parent": "vtls004692785",
        "name": "william phillips",
        "dob": "blk",
        "age": "18",
        "place_of_birth": "fishguard, pembrokeshire",
        "home_address": "blk",
        "f": "blk",
        "name_of_ship": "ann jane",
        "ship_port": "aberystwyth",
        "date_leaving": "1877",
        "joined_ship_date": "1877-10-24",
        "joined_at_port": "newport",
        "capacity": "ordinary seaman",
        "date_left": "1877-12-14",
        "left_port": "cork",
        "cause_of_leaving": "discharged",
        "sign_with_mark": "n",
        "notes": "blk"
    },
    {
        "id": "vtls004692785_1_22",
        "type": "sailor",
        "parent": "vtls004692785",
        "name": "william $halhnaw",
        "dob": "blk",
        "age": "18",
        "place_of_birth": "biggl$$and, england",
        "home_address": "blk",
        "f": "blk",
        "name_of_ship": "john roberts",
        "ship_port": "portmadoc",
        "date_leaving": "1877",
        "joined_ship_date": "1877-12-18",
        "joined_at_port": "cork",
        "capacity": "ordinary seaman",
        "date_left": "blk",
        "left_port": "blk",
        "cause_of_leaving": "remains on board",
        "sign_with_mark": "n",
        "notes": "blk"
    },
    {
        "id": "vtls004692799_0_14",
        "type": "sailor",
        "parent": "vtls004692799",
        "name": "nicholas smith",
        "dob": "blk",
        "age": "19",
        "place_of_birth": "st ives",
        "home_address": "blk",
        "f": "blk",
        "name_of_ship": "john ewing",
        "ship_port": "aberystwyth",
        "date_leaving": "1879",
        "joined_ship_date": "1879-01-14",
        "joined_at_port": "amlwch",
        "capacity": "ordinary seaman",
        "date_left": "1879-01-31",
        "left_port": "swansea",
        "cause_of_leaving": "discharged",
        "sign_with_mark": "n",
        "notes": "blk"
    },
    {
        "id": "vtls004692799_0_11",
        "type": "sailor",
        "parent": "vtls004692799",
        "name": "evan evans",
        "dob": "blk",
        "age": "32",
        "place_of_birth": "newquay",
        "home_address": "blk",
        "f": "blk",
        "name_of_ship": "john ewing",
        "ship_port": "aberystwyth",
        "date_leaving": "1879",
        "joined_ship_date": "1879-01-14",
        "joined_at_port": "amlwch",
        "capacity": "master",
        "date_left": "blk",
        "left_port": "blk",
        "cause_of_leaving": "remains on board",
        "sign_with_mark": "n",
        "notes": "blk"
    },
    {
        "id": "vtls004692799_0_13",
        "type": "sailor",
        "parent": "vtls004692799",
        "name": "henry nathan",
        "dob": "blk",
        "age": "30",
        "place_of_birth": "fishguard",
        "home_address": "blk",
        "f": "blk",
        "name_of_ship": "john ewing",
        "ship_port": "aberystwyth",
        "date_leaving": "1879",
        "joined_ship_date": "1879-01-14",
        "joined_at_port": "amlwch",
        "capacity": "able seaman",
        "date_left": "blk",
        "left_port": "blk",
        "cause_of_leaving": "remains on board",
        "sign_with_mark": "n",
        "notes": "blk"
    },
    {
        "id": "vtls004692799_0_12",
        "type": "sailor",
        "parent": "vtls004692799",
        "name": "william roach",
        "dob": "blk",
        "age": "31",
        "place_of_birth": "fishguard",
        "home_address": "blk",
        "f": "blk",
        "name_of_ship": "john ewing",
        "ship_port": "aberystwyth",
        "date_leaving": "1879",
        "joined_ship_date": "1879-01-14",
        "joined_at_port": "amlwch",
        "capacity": "mate",
        "date_left": "blk",
        "left_port": "blk",
        "cause_of_leaving": "remains on board",
        "sign_with_mark": "n",
        "notes": "blk"
    },
    {
        "id": "vtls004692785_1_21",
        "type": "sailor",
        "parent": "vtls004692785",
        "name": "george baker",
        "dob": "blk",
        "age": "15",
        "place_of_birth": "newport",
        "home_address": "blk",
        "f": "blk",
        "name_of_ship": "first ship",
        "ship_port": "blk",
        "date_leaving": "1877",
        "joined_ship_date": "1877-10-24",
        "joined_at_port": "newport",
        "capacity": "boy",
        "date_left": "blk",
        "left_port": "blk",
        "cause_of_leaving": "remains on board",
        "sign_with_mark": "n",
        "notes": "blk"
    },
    {
        "id": "vtls004692799_1_15",
        "type": "sailor",
        "parent": "vtls004692799",
        "name": "louis whittaker",
        "dob": "blk",
        "age": "18",
        "place_of_birth": "st helens, lancashire",
        "home_address": "blk",
        "f": "blk",
        "name_of_ship": "john ewing",
        "ship_port": "aberystwyth",
        "date_leaving": "1879",
        "joined_ship_date": "1879-07-07",
        "joined_at_port": "barrow",
        "capacity": "ordinary seaman",
        "date_left": "1879-07-17",
        "left_port": "briton ferry",
        "cause_of_leaving": "discharged",
        "sign_with_mark": "n",
        "notes": "blk"
    },
    {
        "id": "vtls004692799_1_16",
        "type": "sailor",
        "parent": "vtls004692799",
        "name": "john $",
        "dob": "blk",
        "age": "18",
        "place_of_birth": "mumbles, south wales",
        "home_address": "blk",
        "f": "blk",
        "name_of_ship": "first ship",
        "ship_port": "blk",
        "date_leaving": "1879",
        "joined_ship_date": "1879-07-28",
        "joined_at_port": "briton ferry",
        "capacity": "ordinary seaman",
        "date_left": "1877-11-13",
        "left_port": "swansea",
        "cause_of_leaving": "discharged",
        "sign_with_mark": "n",
        "notes": "blk"
    },
    {
        "id": "vtls004692799_0_18",
        "type": "sailor",
        "parent": "vtls004692799",
        "name": "louis whittakes",
        "dob": "blk",
        "age": "18",
        "place_of_birth": "st helens, lancashire",
        "home_address": "blk",
        "f": "blk",
        "name_of_ship": "[renneys]",
        "ship_port": "scilly",
        "date_leaving": "1879",
        "joined_ship_date": "1879-18-06",
        "joined_at_port": "cork",
        "capacity": "ordinary seaman",
        "date_left": "blk",
        "left_port": "blk",
        "cause_of_leaving": "discharged",
        "sign_with_mark": "n",
        "notes": "blk"
    },
    {
        "id": "vtls004692799_1_14",
        "type": "sailor",
        "parent": "vtls004692799",
        "name": "phillip jones",
        "dob": "blk",
        "age": "17",
        "place_of_birth": "llandilos, north wales",
        "home_address": "blk",
        "f": "blk",
        "name_of_ship": "john ewing",
        "ship_port": "aberystwyth",
        "date_leaving": "1879",
        "joined_ship_date": "1879-07-07",
        "joined_at_port": "barrow",
        "capacity": "boy",
        "date_left": "blk",
        "left_port": "blk",
        "cause_of_leaving": "remains on board",
        "sign_with_mark": "n",
        "notes": "blk"
    },
    {
        "id": "vtls004692799_0_16",
        "type": "sailor",
        "parent": "vtls004692799",
        "name": "henry williams",
        "dob": "blk",
        "age": "17",
        "place_of_birth": "cardigan",
        "home_address": "blk",
        "f": "blk",
        "name_of_ship": "trud",
        "ship_port": "whitstable",
        "date_leaving": "1879",
        "joined_ship_date": "1879-02-14",
        "joined_at_port": "swansea",
        "capacity": "ordinary seaman",
        "date_left": "1879-05-13",
        "left_port": "newport",
        "cause_of_leaving": "discharged",
        "sign_with_mark": "n",
        "notes": "blk"
    },
    {
        "id": "vtls004692799_1_11",
        "type": "sailor",
        "parent": "vtls004692799",
        "name": "evan evans",
        "dob": "blk",
        "age": "32",
        "place_of_birth": "newquay",
        "home_address": "blk",
        "f": "blk",
        "name_of_ship": "john ewing",
        "ship_port": "aberystwyth",
        "date_leaving": "1879",
        "joined_ship_date": "1879-07-07",
        "joined_at_port": "barrow",
        "capacity": "master",
        "date_left": "blk",
        "left_port": "blk",
        "cause_of_leaving": "remains on board",
        "sign_with_mark": "n",
        "notes": "blk"
    },
    {
        "id": "vtls004692799_1_13",
        "type": "sailor",
        "parent": "vtls004692799",
        "name": "harry nathan",
        "dob": "blk",
        "age": "30",
        "place_of_birth": "fishguard",
        "home_address": "blk",
        "f": "blk",
        "name_of_ship": "john ewing",
        "ship_port": "aberystwyth",
        "date_leaving": "1879",
        "joined_ship_date": "1879-07-07",
        "joined_at_port": "barrow",
        "capacity": "able seaman",
        "date_left": "blk",
        "left_port": "blk",
        "cause_of_leaving": "remains on board",
        "sign_with_mark": "n",
        "notes": "blk"
    },
    {
        "id": "vtls004692799_0_15",
        "type": "sailor",
        "parent": "vtls004692799",
        "name": "thomas gwynne",
        "dob": "blk",
        "age": "21",
        "place_of_birth": "fishguard",
        "home_address": "blk",
        "f": "blk",
        "name_of_ship": "john ewing",
        "ship_port": "aberystwyth",
        "date_leaving": "1879",
        "joined_ship_date": "1879-01-14",
        "joined_at_port": "amlwch",
        "capacity": "boy",
        "date_left": "1879-06-17",
        "left_port": "cork",
        "cause_of_leaving": "discharged",
        "sign_with_mark": "n",
        "notes": "blk"
    },
    {
        "id": "vtls004692799_1_12",
        "type": "sailor",
        "parent": "vtls004692799",
        "name": "william roach",
        "dob": "blk",
        "age": "31",
        "place_of_birth": "fishguard",
        "home_address": "blk",
        "f": "blk",
        "name_of_ship": "john ewing",
        "ship_port": "aberystwyth",
        "date_leaving": "1879",
        "joined_ship_date": "1879-07-07",
        "joined_at_port": "barrow",
        "capacity": "mate",
        "date_left": "blk",
        "left_port": "blk",
        "cause_of_leaving": "remains on board",
        "sign_with_mark": "n",
        "notes": "blk"
    },
    {
        "id": "vtls004692799_0_17",
        "type": "sailor",
        "parent": "vtls004692799",
        "name": "phillip jones",
        "dob": "blk",
        "age": "17",
        "place_of_birth": "llanidloes",
        "home_address": "blk",
        "f": "blk",
        "name_of_ship": "first ship",
        "ship_port": "blk",
        "date_leaving": "1879",
        "joined_ship_date": "1879-05-14",
        "joined_at_port": "newport",
        "capacity": "boy",
        "date_left": "blk",
        "left_port": "blk",
        "cause_of_leaving": "discharged",
        "sign_with_mark": "n",
        "notes": "blk"
    },
    {
        "id": "vtls004692808_0_13",
        "type": "sailor",
        "parent": "vtls004692808",
        "name": "henry nathan",
        "dob": "blk",
        "age": "35",
        "place_of_birth": "fishguard, pembrokeshire",
        "home_address": "blk",
        "f": "blk",
        "name_of_ship": "john ewing",
        "ship_port": "aberystwyth",
        "date_leaving": "1880",
        "joined_ship_date": "1880-01-20",
        "joined_at_port": "llanelly",
        "capacity": "able seaman",
        "date_left": "1880-06-30",
        "left_port": "liverpool",
        "cause_of_leaving": "discharged",
        "sign_with_mark": "n",
        "notes": "blk"
    },
    {
        "id": "vtls004692808_0_12",
        "type": "sailor",
        "parent": "vtls004692808",
        "name": "william roach",
        "dob": "blk",
        "age": "32",
        "place_of_birth": "fishguard, pembrokeshire",
        "home_address": "blk",
        "f": "blk",
        "name_of_ship": "john ewing",
        "ship_port": "aberystwyth",
        "date_leaving": "1880",
        "joined_ship_date": "1880-01-20",
        "joined_at_port": "llanelly",
        "capacity": "mate",
        "date_left": "1880-05-24",
        "left_port": "par",
        "cause_of_leaving": "discharged",
        "sign_with_mark": "n",
        "notes": "blk"
    },
    {
        "id": "vtls004692808_0_14",
        "type": "sailor",
        "parent": "vtls004692808",
        "name": "francis hicks",
        "dob": "blk",
        "age": "16",
        "place_of_birth": "plymouth",
        "home_address": "blk",
        "f": "blk",
        "name_of_ship": "catherine",
        "ship_port": "llanelly",
        "date_leaving": "1880",
        "joined_ship_date": "1880-01-29",
        "joined_at_port": "llanelly",
        "capacity": "ordinary seaman",
        "date_left": "1880-05-13",
        "left_port": "plymouth",
        "cause_of_leaving": "discharged",
        "sign_with_mark": "n",
        "notes": "blk"
    },
    {
        "id": "vtls004692808_0_11",
        "type": "sailor",
        "parent": "vtls004692808",
        "name": "evan evans",
        "dob": "blk",
        "age": "34",
        "place_of_birth": "newquay",
        "home_address": "blk",
        "f": "blk",
        "name_of_ship": "john ewing",
        "ship_port": "aberystwyth",
        "date_leaving": "1880",
        "joined_ship_date": "1880-01-20",
        "joined_at_port": "llanelly",
        "capacity": "master",
        "date_left": "blk",
        "left_port": "blk",
        "cause_of_leaving": "remains on board",
        "sign_with_mark": "n",
        "notes": "blk"
    },
    {
        "id": "vtls004692808_0_15",
        "type": "sailor",
        "parent": "vtls004692808",
        "name": "john thomas",
        "dob": "blk",
        "age": "17",
        "place_of_birth": "burry port, south wales",
        "home_address": "blk",
        "f": "blk",
        "name_of_ship": "ada",
        "ship_port": "llanelly",
        "date_leaving": "1880",
        "joined_ship_date": "1880-02-02",
        "joined_at_port": "llanelly",
        "capacity": "boy",
        "date_left": "1880-03-09",
        "left_port": "liverpool",
        "cause_of_leaving": "discharged",
        "sign_with_mark": "n",
        "notes": "blk"
    },
    {
        "id": "vtls004692799_1_17",
        "type": "sailor",
        "parent": "vtls004692799",
        "name": "john edwards",
        "dob": "blk",
        "age": "18",
        "place_of_birth": "pembroke",
        "home_address": "blk",
        "f": "blk",
        "name_of_ship": "pearl",
        "ship_port": "truro",
        "date_leaving": "1879",
        "joined_ship_date": "1879-11-21",
        "joined_at_port": "swansea",
        "capacity": "ordinary seaman",
        "date_left": "blk",
        "left_port": "blk",
        "cause_of_leaving": "remains on board",
        "sign_with_mark": "n",
        "notes": "blk"
    },
    {
        "id": "vtls004692808_0_16",
        "type": "sailor",
        "parent": "vtls004692808",
        "name": "robert hall",
        "dob": "blk",
        "age": "17",
        "place_of_birth": "heywood, $",
        "home_address": "blk",
        "f": "blk",
        "name_of_ship": "s.s lidon",
        "ship_port": "glasgow",
        "date_leaving": "1880",
        "joined_ship_date": "1880-03-12",
        "joined_at_port": "garston",
        "capacity": "boy",
        "date_left": "1880-04-03",
        "left_port": "milford",
        "cause_of_leaving": "discharged",
        "sign_with_mark": "n",
        "notes": "blk"
    },
    {
        "id": "vtls004692808_1_13",
        "type": "sailor",
        "parent": "vtls004692808",
        "name": "henry nathan",
        "dob": "blk",
        "age": "36",
        "place_of_birth": "fishguard, pembrokeshire",
        "home_address": "blk",
        "f": "blk",
        "name_of_ship": "john ewing",
        "ship_port": "aberystwyth",
        "date_leaving": "1880",
        "joined_ship_date": "1880-07-08",
        "joined_at_port": "liverpool",
        "capacity": "able seaman",
        "date_left": "1880-08-29",
        "left_port": "swansea",
        "cause_of_leaving": "discharged",
        "sign_with_mark": "n",
        "notes": "blk"
    },
    {
        "id": "vtls004692808_0_17",
        "type": "sailor",
        "parent": "vtls004692808",
        "name": "frederick williamson",
        "dob": "blk",
        "age": "20",
        "place_of_birth": "manchester",
        "home_address": "blk",
        "f": "blk",
        "name_of_ship": "saxon",
        "ship_port": "fleetwood",
        "date_leaving": "1880",
        "joined_ship_date": "1880-05-14",
        "joined_at_port": "plymouth",
        "capacity": "ordinary seaman",
        "date_left": "1880-06-14",
        "left_port": "liverpool",
        "cause_of_leaving": "discharged",
        "sign_with_mark": "n",
        "notes": "blk"
    },
    {
        "id": "vtls004692808_0_20",
        "type": "sailor",
        "parent": "vtls004692808",
        "name": "william roach",
        "dob": "blk",
        "age": "32",
        "place_of_birth": "fishguard, pembrokeshire",
        "home_address": "blk",
        "f": "blk",
        "name_of_ship": "john ewing",
        "ship_port": "aberystwyth",
        "date_leaving": "1880",
        "joined_ship_date": "1880-06-21",
        "joined_at_port": "liverpool",
        "capacity": "mate",
        "date_left": "1880-06-30",
        "left_port": "liverpool",
        "cause_of_leaving": "discharged",
        "sign_with_mark": "n",
        "notes": "blk"
    },
    {
        "id": "vtls004692808_0_21",
        "type": "sailor",
        "parent": "vtls004692808",
        "name": "william carr",
        "dob": "blk",
        "age": "17",
        "place_of_birth": "liverpool",
        "home_address": "blk",
        "f": "blk",
        "name_of_ship": "sarah bragg",
        "ship_port": "whitehaven",
        "date_leaving": "1880",
        "joined_ship_date": "1880-06-25",
        "joined_at_port": "liverpool",
        "capacity": "ordinary seaman",
        "date_left": "1880-06-30",
        "left_port": "liverpool",
        "cause_of_leaving": "discharged",
        "sign_with_mark": "n",
        "notes": "blk"
    },
    {
        "id": "vtls004692808_1_12",
        "type": "sailor",
        "parent": "vtls004692808",
        "name": "william roach",
        "dob": "blk",
        "age": "32",
        "place_of_birth": "fishguard, pembrokeshire",
        "home_address": "blk",
        "f": "blk",
        "name_of_ship": "john ewing",
        "ship_port": "aberystwyth",
        "date_leaving": "1880",
        "joined_ship_date": "1880-07-08",
        "joined_at_port": "liverpool",
        "capacity": "mate",
        "date_left": "blk",
        "left_port": "blk",
        "cause_of_leaving": "remains on board",
        "sign_with_mark": "y",
        "notes": "blk"
    },
    {
        "id": "vtls004692808_1_15",
        "type": "sailor",
        "parent": "vtls004692808",
        "name": "henry edwards",
        "dob": "blk",
        "age": "15",
        "place_of_birth": "solva, pembrokeshire",
        "home_address": "blk",
        "f": "blk",
        "name_of_ship": "john ewing",
        "ship_port": "aberystwyth",
        "date_leaving": "1880",
        "joined_ship_date": "1880-07-08",
        "joined_at_port": "liverpool",
        "capacity": "boy",
        "date_left": "blk",
        "left_port": "blk",
        "cause_of_leaving": "remains on board",
        "sign_with_mark": "n",
        "notes": "blk"
    },
    {
        "id": "vtls004692808_1_14",
        "type": "sailor",
        "parent": "vtls004692808",
        "name": "william carr",
        "dob": "blk",
        "age": "16",
        "place_of_birth": "liverpool",
        "home_address": "blk",
        "f": "blk",
        "name_of_ship": "john ewing",
        "ship_port": "aberystwyth",
        "date_leaving": "1880",
        "joined_ship_date": "1880-07-08",
        "joined_at_port": "liverpool",
        "capacity": "ordinary seaman",
        "date_left": "blk",
        "left_port": "blk",
        "cause_of_leaving": "remains on board",
        "sign_with_mark": "n",
        "notes": "blk"
    },
    {
        "id": "vtls004692808_1_11",
        "type": "sailor",
        "parent": "vtls004692808",
        "name": "evan evans",
        "dob": "blk",
        "age": "34",
        "place_of_birth": "newquay",
        "home_address": "blk",
        "f": "blk",
        "name_of_ship": "john ewing",
        "ship_port": "aberystwyth",
        "date_leaving": "1880",
        "joined_ship_date": "1880-07-08",
        "joined_at_port": "liverpool",
        "capacity": "master",
        "date_left": "blk",
        "left_port": "blk",
        "cause_of_leaving": "remains on board",
        "sign_with_mark": "n",
        "notes": "blk"
    },
    {
        "id": "vtls004692808_0_19",
        "type": "sailor",
        "parent": "vtls004692808",
        "name": "henry edwards",
        "dob": "blk",
        "age": "15",
        "place_of_birth": "solva, pembrokeshire",
        "home_address": "blk",
        "f": "blk",
        "name_of_ship": "first ship",
        "ship_port": "blk",
        "date_leaving": "1880",
        "joined_ship_date": "1880-06-03",
        "joined_at_port": "milford",
        "capacity": "boy",
        "date_left": "1880-06-30",
        "left_port": "liverpool",
        "cause_of_leaving": "discharged",
        "sign_with_mark": "n",
        "notes": "blk"
    },
    {
        "id": "vtls004692808_0_18",
        "type": "sailor",
        "parent": "vtls004692808",
        "name": "william smale",
        "dob": "blk",
        "age": "29",
        "place_of_birth": "plymouth",
        "home_address": "blk",
        "f": "blk",
        "name_of_ship": "[milou] s.s.",
        "ship_port": "hull",
        "date_leaving": "1880",
        "joined_ship_date": "1880-05-26",
        "joined_at_port": "par",
        "capacity": "able seaman",
        "date_left": "1880-06-18",
        "left_port": "liverpool",
        "cause_of_leaving": "discharged",
        "sign_with_mark": "n",
        "notes": "blk"
    },
    {
        "id": "vtls004692812_0_14",
        "type": "sailor",
        "parent": "vtls004692812",
        "name": "evan evans",
        "dob": "blk",
        "age": "18",
        "place_of_birth": "llanon",
        "home_address": "blk",
        "f": "blk",
        "name_of_ship": "john ewing",
        "ship_port": "aberystwyth",
        "date_leaving": "1881",
        "joined_ship_date": "1881-01-01",
        "joined_at_port": "porthcawl",
        "capacity": "ordinary seaman",
        "date_left": "1881-06-30",
        "left_port": "middlesbrough",
        "cause_of_leaving": "remains on board",
        "sign_with_mark": "n",
        "notes": "blk"
    },
    {
        "id": "vtls004692812_0_13",
        "type": "sailor",
        "parent": "vtls004692812",
        "name": "henry nathan",
        "dob": "blk",
        "age": "37",
        "place_of_birth": "fishguard, pembrokeshire",
        "home_address": "blk",
        "f": "blk",
        "name_of_ship": "john ewing",
        "ship_port": "aberystwyth",
        "date_leaving": "1881",
        "joined_ship_date": "1881-01-01",
        "joined_at_port": "porthcawl",
        "capacity": "able seaman",
        "date_left": "1881-06-30",
        "left_port": "middlesbrough",
        "cause_of_leaving": "remains on board",
        "sign_with_mark": "n",
        "notes": "blk"
    },
    {
        "id": "vtls004692812_0_15",
        "type": "sailor",
        "parent": "vtls004692812",
        "name": "henry edwards",
        "dob": "blk",
        "age": "16",
        "place_of_birth": "solva, pembrokeshire",
        "home_address": "blk",
        "f": "blk",
        "name_of_ship": "john ewing",
        "ship_port": "aberystwyth",
        "date_leaving": "1881",
        "joined_ship_date": "1881-01-01",
        "joined_at_port": "porthcawl",
        "capacity": "boy",
        "date_left": "1881-06-30",
        "left_port": "middlesbrough",
        "cause_of_leaving": "remains on board",
        "sign_with_mark": "n",
        "notes": "blk"
    },
    {
        "id": "vtls004692812_0_11",
        "type": "sailor",
        "parent": "vtls004692812",
        "name": "evan evans",
        "dob": "blk",
        "age": "34",
        "place_of_birth": "newquay",
        "home_address": "blk",
        "f": "blk",
        "name_of_ship": "john ewing",
        "ship_port": "aberystwyth",
        "date_leaving": "1881",
        "joined_ship_date": "1881-01-01",
        "joined_at_port": "porthcawl",
        "capacity": "master",
        "date_left": "1881-06-30",
        "left_port": "middlesbrough",
        "cause_of_leaving": "remains on board",
        "sign_with_mark": "n",
        "notes": "blk"
    },
    {
        "id": "vtls004692812_0_12",
        "type": "sailor",
        "parent": "vtls004692812",
        "name": "william roach",
        "dob": "blk",
        "age": "32",
        "place_of_birth": "fishguard, pembrokeshire",
        "home_address": "blk",
        "f": "blk",
        "name_of_ship": "john ewing",
        "ship_port": "aberystwyth",
        "date_leaving": "1881",
        "joined_ship_date": "1881-01-01",
        "joined_at_port": "porthcawl",
        "capacity": "mate",
        "date_left": "1881-03-25",
        "left_port": "plymouth",
        "cause_of_leaving": "discharged",
        "sign_with_mark": "y",
        "notes": "blk"
    },
    {
        "id": "vtls004692808_1_16",
        "type": "sailor",
        "parent": "vtls004692808",
        "name": "evan evans",
        "dob": "blk",
        "age": "18",
        "place_of_birth": "llanon, cardigan",
        "home_address": "blk",
        "f": "blk",
        "name_of_ship": "sophia margaret",
        "ship_port": "swansea",
        "date_leaving": "1880",
        "joined_ship_date": "1880-09-03",
        "joined_at_port": "swansea",
        "capacity": "ordinary seaman",
        "date_left": "blk",
        "left_port": "blk",
        "cause_of_leaving": "remains on board",
        "sign_with_mark": "n",
        "notes": "blk"
    },
    {
        "id": "vtls004692812_0_16",
        "type": "sailor",
        "parent": "vtls004692812",
        "name": "thomas turner",
        "dob": "blk",
        "age": "18",
        "place_of_birth": "yarmouth",
        "home_address": "blk",
        "f": "blk",
        "name_of_ship": "reptless",
        "ship_port": "fowey",
        "date_leaving": "1881",
        "joined_ship_date": "1881-04-02",
        "joined_at_port": "plymouth",
        "capacity": "ordinary seaman",
        "date_left": "1881-04-26",
        "left_port": "swansea",
        "cause_of_leaving": "discharged",
        "sign_with_mark": "n",
        "notes": "blk"
    },
    {
        "id": "vtls004692812_1_11",
        "type": "sailor",
        "parent": "vtls004692812",
        "name": "evan evans",
        "dob": "blk",
        "age": "34",
        "place_of_birth": "newquay",
        "home_address": "3, high terrace, new quay",
        "f": "3, high terrace, new quay",
        "name_of_ship": "john ewing",
        "ship_port": "aberystwyth",
        "date_leaving": "1881",
        "joined_ship_date": "1881-07-09",
        "joined_at_port": "middlesbrough",
        "capacity": "master",
        "date_left": "1881-12-19",
        "left_port": "swansea",
        "cause_of_leaving": "discharged",
        "sign_with_mark": "blk",
        "notes": "blk"
    },
    {
        "id": "vtls004692812_1_16",
        "type": "sailor",
        "parent": "vtls004692812",
        "name": "george driscoll",
        "dob": "blk",
        "age": "57",
        "place_of_birth": "sherkin ireland",
        "home_address": "blk",
        "f": "blk",
        "name_of_ship": "marie constance",
        "ship_port": "waterford",
        "date_leaving": "1881",
        "joined_ship_date": "1881-10-29",
        "joined_at_port": "cardiff",
        "capacity": "able seaman",
        "date_left": "1881-12-12",
        "left_port": "swansea",
        "cause_of_leaving": "discharged",
        "sign_with_mark": "blk",
        "notes": "blk"
    },
    {
        "id": "vtls004692812_0_17",
        "type": "sailor",
        "parent": "vtls004692812",
        "name": "james bevan",
        "dob": "blk",
        "age": "30",
        "place_of_birth": "st davids pembrokeshire",
        "home_address": "blk",
        "f": "blk",
        "name_of_ship": "sarah ellen",
        "ship_port": "swansea",
        "date_leaving": "1881",
        "joined_ship_date": "1881-04-25",
        "joined_at_port": "swansea",
        "capacity": "mate",
        "date_left": "1881-06-30",
        "left_port": "middlesbrough",
        "cause_of_leaving": "remains on board",
        "sign_with_mark": "n",
        "notes": "blk"
    },
    {
        "id": "vtls004692812_1_13",
        "type": "sailor",
        "parent": "vtls004692812",
        "name": "henry nathan",
        "dob": "blk",
        "age": "37",
        "place_of_birth": "fishguard",
        "home_address": "blk",
        "f": "blk",
        "name_of_ship": "john ewing",
        "ship_port": "aberystwyth",
        "date_leaving": "1881",
        "joined_ship_date": "1881-07-09",
        "joined_at_port": "middlesbrough",
        "capacity": "able seaman",
        "date_left": "1881-10-20",
        "left_port": "cardiff",
        "cause_of_leaving": "discharged",
        "sign_with_mark": "blk",
        "notes": "blk"
    },
    {
        "id": "vtls004692812_1_14",
        "type": "sailor",
        "parent": "vtls004692812",
        "name": "evan evans",
        "dob": "blk",
        "age": "18",
        "place_of_birth": "llanon",
        "home_address": "blk",
        "f": "blk",
        "name_of_ship": "john ewing",
        "ship_port": "aberystwyth",
        "date_leaving": "1881",
        "joined_ship_date": "1881-07-09",
        "joined_at_port": "middlesbrough",
        "capacity": "ordinary seaman",
        "date_left": "1881-10-20",
        "left_port": "cardiff",
        "cause_of_leaving": "discharged",
        "sign_with_mark": "blk",
        "notes": "blk"
    },
    {
        "id": "vtls004692812_1_12",
        "type": "sailor",
        "parent": "vtls004692812",
        "name": "james bevan",
        "dob": "blk",
        "age": "30",
        "place_of_birth": "st davids",
        "home_address": "blk",
        "f": "blk",
        "name_of_ship": "john ewing",
        "ship_port": "aberystwyth",
        "date_leaving": "1881",
        "joined_ship_date": "1881-07-09",
        "joined_at_port": "middlesbrough",
        "capacity": "mate",
        "date_left": "1881-12-19",
        "left_port": "swansea",
        "cause_of_leaving": "discharged",
        "sign_with_mark": "blk",
        "notes": "blk"
    },
    {
        "id": "vtls004692812_1_18",
        "type": "sailor",
        "parent": "vtls004692812",
        "name": "james bevan",
        "dob": "blk",
        "age": "31",
        "place_of_birth": "st davids",
        "home_address": "blk",
        "f": "blk",
        "name_of_ship": "john ewing",
        "ship_port": "aberystwyth",
        "date_leaving": "1881",
        "joined_ship_date": "1881-12-19",
        "joined_at_port": "swansea",
        "capacity": "master",
        "date_left": "blk",
        "left_port": "blk",
        "cause_of_leaving": "remains on board",
        "sign_with_mark": "blk",
        "notes": "blk"
    },
    {
        "id": "vtls004692812_1_15",
        "type": "sailor",
        "parent": "vtls004692812",
        "name": "henry edwards",
        "dob": "blk",
        "age": "16",
        "place_of_birth": "solva",
        "home_address": "blk",
        "f": "blk",
        "name_of_ship": "john ewing",
        "ship_port": "aberystwyth",
        "date_leaving": "1881",
        "joined_ship_date": "1881-07-09",
        "joined_at_port": "middlesbrough",
        "capacity": "boy",
        "date_left": "blk",
        "left_port": "blk",
        "cause_of_leaving": "remains on board",
        "sign_with_mark": "blk",
        "notes": "blk"
    },
    {
        "id": "vtls004692812_1_17",
        "type": "sailor",
        "parent": "vtls004692812",
        "name": "alex delcampe",
        "dob": "blk",
        "age": "31",
        "place_of_birth": "antwerp",
        "home_address": "blk",
        "f": "blk",
        "name_of_ship": "marys",
        "ship_port": "new quay",
        "date_leaving": "1881",
        "joined_ship_date": "1881-12-19",
        "joined_at_port": "swansea",
        "capacity": "able seaman",
        "date_left": "blk",
        "left_port": "blk",
        "cause_of_leaving": "remains on board",
        "sign_with_mark": "blk",
        "notes": "blk"
    },
    {
        "id": "vtls004692812_1_19",
        "type": "sailor",
        "parent": "vtls004692812",
        "name": "john evans",
        "dob": "blk",
        "age": "59",
        "place_of_birth": "newquay",
        "home_address": "blk",
        "f": "blk",
        "name_of_ship": "zenobia",
        "ship_port": "aberystwyth",
        "date_leaving": "1881",
        "joined_ship_date": "1881-12-19",
        "joined_at_port": "swansea",
        "capacity": "mate",
        "date_left": "blk",
        "left_port": "blk",
        "cause_of_leaving": "remains on board",
        "sign_with_mark": "blk",
        "notes": "blk"
    },
    {
        "id": "vtls004692885_0_11",
        "type": "sailor",
        "parent": "vtls004692885",
        "name": "james bevan",
        "dob": "1851",
        "age": "blk",
        "place_of_birth": "st davids",
        "home_address": "blk",
        "f": "blk",
        "name_of_ship": "john ewing",
        "ship_port": "aberystwyth",
        "date_leaving": "1882",
        "joined_ship_date": "1882-01-11",
        "joined_at_port": "cork",
        "capacity": "master",
        "date_left": "blk",
        "left_port": "blk",
        "cause_of_leaving": "blk",
        "sign_with_mark": "n",
        "notes": "discharged as master 1882-03-31 at newport, continued mate from 1882-03-31"
    },
    {
        "id": "vtls004692885_0_14",
        "type": "sailor",
        "parent": "vtls004692885",
        "name": "henry edwards",
        "dob": "1865",
        "age": "blk",
        "place_of_birth": "solva, pembrokeshire",
        "home_address": "blk",
        "f": "blk",
        "name_of_ship": "john ewing",
        "ship_port": "aberystwyth",
        "date_leaving": "1882",
        "joined_ship_date": "1882-01-11",
        "joined_at_port": "cork",
        "capacity": "ordinary seaman",
        "date_left": "1882-07-08",
        "left_port": "swansea",
        "cause_of_leaving": "remains on board",
        "sign_with_mark": "n",
        "notes": "blk"
    },
    {
        "id": "vtls004692885_0_17",
        "type": "sailor",
        "parent": "vtls004692885",
        "name": "evan evans",
        "dob": "1848",
        "age": "blk",
        "place_of_birth": "newquay",
        "home_address": "blk",
        "f": "blk",
        "name_of_ship": "john ewing",
        "ship_port": "aberystwyth",
        "date_leaving": "1881",
        "joined_ship_date": "1882-03-03",
        "joined_at_port": "newport",
        "capacity": "master",
        "date_left": "1882-07-08",
        "left_port": "swansea",
        "cause_of_leaving": "remains on board",
        "sign_with_mark": "n",
        "notes": "blk"
    },
    {
        "id": "vtls004692885_0_12",
        "type": "sailor",
        "parent": "vtls004692885",
        "name": "john evans",
        "dob": "1823",
        "age": "blk",
        "place_of_birth": "newquay",
        "home_address": "blk",
        "f": "blk",
        "name_of_ship": "john ewing",
        "ship_port": "aberystwyth",
        "date_leaving": "1882",
        "joined_ship_date": "1882-01-11",
        "joined_at_port": "cork",
        "capacity": "mate",
        "date_left": "1881-03-21",
        "left_port": "newport",
        "cause_of_leaving": "discharged",
        "sign_with_mark": "n",
        "notes": "blk"
    },
    {
        "id": "vtls004692885_0_16",
        "type": "sailor",
        "parent": "vtls004692885",
        "name": "joseph simms",
        "dob": "1856",
        "age": "blk",
        "place_of_birth": "bristol",
        "home_address": "blk",
        "f": "blk",
        "name_of_ship": "pandora",
        "ship_port": "southampton",
        "date_leaving": "1882",
        "joined_ship_date": "1882-01-11",
        "joined_at_port": "poole",
        "capacity": "able seaman",
        "date_left": "1881-03-21",
        "left_port": "newport",
        "cause_of_leaving": "discharged",
        "sign_with_mark": "n",
        "notes": "blk"
    },
    {
        "id": "vtls004692885_0_13",
        "type": "sailor",
        "parent": "vtls004692885",
        "name": "alex delcampe",
        "dob": "1854",
        "age": "blk",
        "place_of_birth": "antwerp",
        "home_address": "blk",
        "f": "blk",
        "name_of_ship": "john ewing",
        "ship_port": "aberystwyth",
        "date_leaving": "1882",
        "joined_ship_date": "1882-01-11",
        "joined_at_port": "cork",
        "capacity": "able seaman",
        "date_left": "1882-02-15",
        "left_port": "poole",
        "cause_of_leaving": "discharged",
        "sign_with_mark": "n",
        "notes": "blk"
    },
    {
        "id": "vtls004692885_0_15",
        "type": "sailor",
        "parent": "vtls004692885",
        "name": "william o'brien",
        "dob": "1869",
        "age": "blk",
        "place_of_birth": "waterford",
        "home_address": "blk",
        "f": "blk",
        "name_of_ship": "john ewing",
        "ship_port": "aberystwyth",
        "date_leaving": "1882",
        "joined_ship_date": "1882-01-11",
        "joined_at_port": "cork",
        "capacity": "boy",
        "date_left": "1882-03-22",
        "left_port": "newport",
        "cause_of_leaving": "discharged",
        "sign_with_mark": "n",
        "notes": "blk"
    },
    {
        "id": "vtls004692885_1_13",
        "type": "sailor",
        "parent": "vtls004692885",
        "name": "henry edwards",
        "dob": "1865",
        "age": "blk",
        "place_of_birth": "solva, pembrokeshire",
        "home_address": "blk",
        "f": "blk",
        "name_of_ship": "john ewing",
        "ship_port": "aberystwyth",
        "date_leaving": "1882",
        "joined_ship_date": "1882-07-08",
        "joined_at_port": "swansea",
        "capacity": "ordinary seaman",
        "date_left": "1882-09-13",
        "left_port": "swansea",
        "cause_of_leaving": "discharged",
        "sign_with_mark": "n",
        "notes": "blk"
    },
    {
        "id": "vtls004692885_1_16",
        "type": "sailor",
        "parent": "vtls004692885",
        "name": "o williams",
        "dob": "1861",
        "age": "blk",
        "place_of_birth": "holyhead",
        "home_address": "blk",
        "f": "blk",
        "name_of_ship": "constance [ellen]",
        "ship_port": "port talbot",
        "date_leaving": "1882",
        "joined_ship_date": "1882-09-21",
        "joined_at_port": "swansea",
        "capacity": "ordinary seaman",
        "date_left": "1882-12-23",
        "left_port": "runcorn",
        "cause_of_leaving": "discharged",
        "sign_with_mark": "n",
        "notes": "blk"
    },
    {
        "id": "vtls004692885_0_19",
        "type": "sailor",
        "parent": "vtls004692885",
        "name": "thomas edwards",
        "dob": "1852",
        "age": "blk",
        "place_of_birth": "cardigan",
        "home_address": "blk",
        "f": "blk",
        "name_of_ship": "morning star",
        "ship_port": "aberystwyth",
        "date_leaving": "1882",
        "joined_ship_date": "1882-04-01",
        "joined_at_port": "newport",
        "capacity": "able seaman",
        "date_left": "1882-05-07",
        "left_port": "liverpool",
        "cause_of_leaving": "discharged",
        "sign_with_mark": "n",
        "notes": "blk"
    },
    {
        "id": "vtls004692885_1_14",
        "type": "sailor",
        "parent": "vtls004692885",
        "name": "james edwards",
        "dob": "1867",
        "age": "blk",
        "place_of_birth": "solva, pembrokeshire",
        "home_address": "blk",
        "f": "blk",
        "name_of_ship": "john ewing",
        "ship_port": "aberystwyth",
        "date_leaving": "1882",
        "joined_ship_date": "1882-07-08",
        "joined_at_port": "swansea",
        "capacity": "boy",
        "date_left": "1882-12-25",
        "left_port": "runcorn",
        "cause_of_leaving": "discharged",
        "sign_with_mark": "n",
        "notes": "blk"
    },
    {
        "id": "vtls004692885_0_18",
        "type": "sailor",
        "parent": "vtls004692885",
        "name": "james edwards",
        "dob": "1867",
        "age": "blk",
        "place_of_birth": "solva, pembrokeshire",
        "home_address": "blk",
        "f": "blk",
        "name_of_ship": "first ship",
        "ship_port": "blk",
        "date_leaving": "1882",
        "joined_ship_date": "1882-03-03",
        "joined_at_port": "newport",
        "capacity": "boy",
        "date_left": "1882-07-08",
        "left_port": "swansea",
        "cause_of_leaving": "remains on board",
        "sign_with_mark": "n",
        "notes": "blk"
    },
    {
        "id": "vtls004692885_0_20",
        "type": "sailor",
        "parent": "vtls004692885",
        "name": "hugh humphreys",
        "dob": "1850",
        "age": "blk",
        "place_of_birth": "portmadoc",
        "home_address": "blk",
        "f": "blk",
        "name_of_ship": "s.s. canada",
        "ship_port": "liverpool",
        "date_leaving": "1882",
        "joined_ship_date": "1882-04-01",
        "joined_at_port": "liverpool",
        "capacity": "able seaman",
        "date_left": "1882-05-14",
        "left_port": "tralee",
        "cause_of_leaving": "discharged",
        "sign_with_mark": "y",
        "notes": "blk"
    },
    {
        "id": "vtls004692885_1_11",
        "type": "sailor",
        "parent": "vtls004692885",
        "name": "evan evans",
        "dob": "1848",
        "age": "blk",
        "place_of_birth": "newquay",
        "home_address": "blk",
        "f": "blk",
        "name_of_ship": "john ewing",
        "ship_port": "aberystwyth",
        "date_leaving": "1882",
        "joined_ship_date": "1882-07-08",
        "joined_at_port": "swansea",
        "capacity": "master",
        "date_left": "blk",
        "left_port": "blk",
        "cause_of_leaving": "remains on board",
        "sign_with_mark": "n",
        "notes": "blk"
    },
    {
        "id": "vtls004692885_1_12",
        "type": "sailor",
        "parent": "vtls004692885",
        "name": "james bevan",
        "dob": "1850",
        "age": "blk",
        "place_of_birth": "st davids",
        "home_address": "blk",
        "f": "blk",
        "name_of_ship": "john ewing",
        "ship_port": "aberystwyth",
        "date_leaving": "1882",
        "joined_ship_date": "1882-07-08",
        "joined_at_port": "swansea",
        "capacity": "mate",
        "date_left": "blk",
        "left_port": "blk",
        "cause_of_leaving": "remains on board",
        "sign_with_mark": "n",
        "notes": "blk"
    },
    {
        "id": "vtls004692885_1_15",
        "type": "sailor",
        "parent": "vtls004692885",
        "name": "e grindenson",
        "dob": "1845",
        "age": "blk",
        "place_of_birth": "norway",
        "home_address": "blk",
        "f": "blk",
        "name_of_ship": "morgan",
        "ship_port": "swansea",
        "date_leaving": "1882",
        "joined_ship_date": "1882-07-10",
        "joined_at_port": "swansea",
        "capacity": "able seaman",
        "date_left": "1882-09-16",
        "left_port": "swansea",
        "cause_of_leaving": "discharged",
        "sign_with_mark": "n",
        "notes": "blk"
    },
    {
        "id": "vtls004692885_1_17",
        "type": "sailor",
        "parent": "vtls004692885",
        "name": "david martin",
        "dob": "1864",
        "age": "blk",
        "place_of_birth": "st davids",
        "home_address": "blk",
        "f": "blk",
        "name_of_ship": "ensign",
        "ship_port": "[swansea]",
        "date_leaving": "1882",
        "joined_ship_date": "1882-10-03",
        "joined_at_port": "swansea",
        "capacity": "ordinary seaman",
        "date_left": "did not join",
        "left_port": "blk",
        "cause_of_leaving": "blk",
        "sign_with_mark": "n",
        "notes": "blk"
    },
    {
        "id": "vtls004692894_0_14",
        "type": "sailor",
        "parent": "vtls004692894",
        "name": "thomas davies",
        "dob": "1854",
        "age": "blk",
        "place_of_birth": "fishguard, pembrokeshire",
        "home_address": "blk",
        "f": "blk",
        "name_of_ship": "catherine roberts",
        "ship_port": "port dinorwic",
        "date_leaving": "1882",
        "joined_ship_date": "1883-01-06",
        "joined_at_port": "runcorn",
        "capacity": "able seaman",
        "date_left": "1883-07-04",
        "left_port": "london",
        "cause_of_leaving": "remains on board",
        "sign_with_mark": "n",
        "notes": "blk"
    },
    {
        "id": "vtls004692894_0_11",
        "type": "sailor",
        "parent": "vtls004692894",
        "name": "evan evans",
        "dob": "1846",
        "age": "blk",
        "place_of_birth": "newquay",
        "home_address": "blk",
        "f": "blk",
        "name_of_ship": "john ewing",
        "ship_port": "aberystwyth",
        "date_leaving": "1882",
        "joined_ship_date": "1883-01-06",
        "joined_at_port": "runcorn",
        "capacity": "master",
        "date_left": "1883-07-04",
        "left_port": "london",
        "cause_of_leaving": "remains on board",
        "sign_with_mark": "n",
        "notes": "blk"
    },
    {
        "id": "vtls004692894_0_12",
        "type": "sailor",
        "parent": "vtls004692894",
        "name": "james bevan",
        "dob": "1850",
        "age": "blk",
        "place_of_birth": "st davids pembrokeshire",
        "home_address": "blk",
        "f": "blk",
        "name_of_ship": "john ewing",
        "ship_port": "aberystwyth",
        "date_leaving": "1882",
        "joined_ship_date": "1883-01-06",
        "joined_at_port": "runcorn",
        "capacity": "mate",
        "date_left": "1883-06-06",
        "left_port": "pembroke, d16",
        "cause_of_leaving": "discharged",
        "sign_with_mark": "n",
        "notes": "blk"
    },
    {
        "id": "vtls004692894_0_16",
        "type": "sailor",
        "parent": "vtls004692894",
        "name": "jenkin lloyd",
        "dob": "1858",
        "age": "blk",
        "place_of_birth": "newquay",
        "home_address": "blk",
        "f": "blk",
        "name_of_ship": "nive",
        "ship_port": "new quay",
        "date_leaving": "1882",
        "joined_ship_date": "1883-03-09",
        "joined_at_port": "swansea",
        "capacity": "able seaman",
        "date_left": "1883-06-06",
        "left_port": "pembroke, d16",
        "cause_of_leaving": "discharged",
        "sign_with_mark": "n",
        "notes": "blk"
    },
    {
        "id": "vtls004692894_0_13",
        "type": "sailor",
        "parent": "vtls004692894",
        "name": "nicolai clemai",
        "dob": "1863",
        "age": "blk",
        "place_of_birth": "norway",
        "home_address": "blk",
        "f": "blk",
        "name_of_ship": "john ewing",
        "ship_port": "aberystwyth",
        "date_leaving": "1882",
        "joined_ship_date": "1883-01-06",
        "joined_at_port": "runcorn",
        "capacity": "ordinary seaman",
        "date_left": "1883-03-02",
        "left_port": "swansea",
        "cause_of_leaving": "discharged",
        "sign_with_mark": "n",
        "notes": "blk"
    },
    {
        "id": "vtls004692894_0_15",
        "type": "sailor",
        "parent": "vtls004692894",
        "name": "daniel evans",
        "dob": "1867",
        "age": "blk",
        "place_of_birth": "llanon, cardigan",
        "home_address": "blk",
        "f": "blk",
        "name_of_ship": "marwood",
        "ship_port": "new quay",
        "date_leaving": "1882",
        "joined_ship_date": "1883-01-09",
        "joined_at_port": "runcorn",
        "capacity": "boy",
        "date_left": "1883-02-26",
        "left_port": "swansea",
        "cause_of_leaving": "discharged",
        "sign_with_mark": "n",
        "notes": "blk"
    },
    {
        "id": "vtls004692885_1_18",
        "type": "sailor",
        "parent": "vtls004692885",
        "name": "nicolai oh$$",
        "dob": "1862",
        "age": "blk",
        "place_of_birth": "norway",
        "home_address": "blk",
        "f": "blk",
        "name_of_ship": "[kisk]",
        "ship_port": "$",
        "date_leaving": "1882",
        "joined_ship_date": "1882-10-09",
        "joined_at_port": "falmouth",
        "capacity": "ordinary seaman",
        "date_left": "blk",
        "left_port": "blk",
        "cause_of_leaving": "remains on board",
        "sign_with_mark": "n",
        "notes": "blk"
    },
    {
        "id": "vtls004692894_0_19",
        "type": "sailor",
        "parent": "vtls004692894",
        "name": "david owen selby",
        "dob": "1864",
        "age": "blk",
        "place_of_birth": "velindre, pembrokeshire",
        "home_address": "blk",
        "f": "blk",
        "name_of_ship": "ebenezer",
        "ship_port": "shoreham",
        "date_leaving": "1882",
        "joined_ship_date": "1883-06-20",
        "joined_at_port": "barry port",
        "capacity": "ordinary seaman",
        "date_left": "1883-07-04",
        "left_port": "london",
        "cause_of_leaving": "remains on board",
        "sign_with_mark": "n",
        "notes": "blk"
    },
    {
        "id": "vtls004692894_1_17",
        "type": "sailor",
        "parent": "vtls004692894",
        "name": "evan evans",
        "dob": "1863",
        "age": "blk",
        "place_of_birth": "llanon, cardigan",
        "home_address": "blk",
        "f": "blk",
        "name_of_ship": "s.s.  splate",
        "ship_port": "south shields",
        "date_leaving": "1883",
        "joined_ship_date": "1883-08-24",
        "joined_at_port": "swansea",
        "capacity": "able seaman",
        "date_left": "1883-12-24",
        "left_port": "caernarfon",
        "cause_of_leaving": "discharged",
        "sign_with_mark": "n",
        "notes": "blk"
    },
    {
        "id": "vtls004692894_0_17",
        "type": "sailor",
        "parent": "vtls004692894",
        "name": "david richards",
        "dob": "1869",
        "age": "blk",
        "place_of_birth": "newquay",
        "home_address": "blk",
        "f": "blk",
        "name_of_ship": "willaim sarah",
        "ship_port": "barrow",
        "date_leaving": "1882",
        "joined_ship_date": "1883-04-19",
        "joined_at_port": "liverpool",
        "capacity": "boy",
        "date_left": "1883-07-04",
        "left_port": "london",
        "cause_of_leaving": "remains on board",
        "sign_with_mark": "n",
        "notes": "blk"
    },
    {
        "id": "vtls004692894_1_16",
        "type": "sailor",
        "parent": "vtls004692894",
        "name": "david jones",
        "dob": "1866",
        "age": "blk",
        "place_of_birth": "ffestiniog, north wales",
        "home_address": "blk",
        "f": "blk",
        "name_of_ship": "mary owens",
        "ship_port": "port [madoc]",
        "date_leaving": "1883",
        "joined_ship_date": "1883-08-15",
        "joined_at_port": "swansea",
        "capacity": "boy",
        "date_left": "1883-09-15",
        "left_port": "waterford",
        "cause_of_leaving": "discharged",
        "sign_with_mark": "n",
        "notes": "blk"
    },
    {
        "id": "vtls004692894_1_14",
        "type": "sailor",
        "parent": "vtls004692894",
        "name": "d selby",
        "dob": "1864",
        "age": "blk",
        "place_of_birth": "newport, pemprokshire",
        "home_address": "blk",
        "f": "blk",
        "name_of_ship": "john ewing",
        "ship_port": "aberystwyth",
        "date_leaving": "1883",
        "joined_ship_date": "1883-07-05",
        "joined_at_port": "london",
        "capacity": "ordinary seaman",
        "date_left": "1883-08-06",
        "left_port": "swansea",
        "cause_of_leaving": "discharged",
        "sign_with_mark": "n",
        "notes": "blk"
    },
    {
        "id": "vtls004692894_1_12",
        "type": "sailor",
        "parent": "vtls004692894",
        "name": "thomas owens",
        "dob": "1854",
        "age": "blk",
        "place_of_birth": "fishguard, pembrokeshire",
        "home_address": "blk",
        "f": "blk",
        "name_of_ship": "john ewing",
        "ship_port": "aberystwyth",
        "date_leaving": "1883",
        "joined_ship_date": "1883-07-05",
        "joined_at_port": "london",
        "capacity": "mate",
        "date_left": "continued",
        "left_port": "blk",
        "cause_of_leaving": "remains on board",
        "sign_with_mark": "n",
        "notes": "blk"
    },
    {
        "id": "vtls004692894_1_11",
        "type": "sailor",
        "parent": "vtls004692894",
        "name": "evan evans",
        "dob": "1847",
        "age": "blk",
        "place_of_birth": "newquay",
        "home_address": "blk",
        "f": "blk",
        "name_of_ship": "john ewing",
        "ship_port": "aberystwyth",
        "date_leaving": "1883",
        "joined_ship_date": "1883-07-05",
        "joined_at_port": "london",
        "capacity": "master",
        "date_left": "continued",
        "left_port": "blk",
        "cause_of_leaving": "remains on board",
        "sign_with_mark": "n",
        "notes": "blk"
    },
    {
        "id": "vtls004692894_1_15",
        "type": "sailor",
        "parent": "vtls004692894",
        "name": "david richards",
        "dob": "1869",
        "age": "blk",
        "place_of_birth": "newquay",
        "home_address": "blk",
        "f": "blk",
        "name_of_ship": "john ewing",
        "ship_port": "aberystwyth",
        "date_leaving": "1883",
        "joined_ship_date": "1883-07-05",
        "joined_at_port": "london",
        "capacity": "boy",
        "date_left": "1883-08-06",
        "left_port": "swansea",
        "cause_of_leaving": "discharged",
        "sign_with_mark": "n",
        "notes": "blk"
    },
    {
        "id": "vtls004692894_0_18",
        "type": "sailor",
        "parent": "vtls004692894",
        "name": "rowland day",
        "dob": "1862",
        "age": "blk",
        "place_of_birth": "london",
        "home_address": "blk",
        "f": "blk",
        "name_of_ship": "mary $",
        "ship_port": "[jersey]",
        "date_leaving": "1882",
        "joined_ship_date": "1883-06-20",
        "joined_at_port": "barry port",
        "capacity": "able seaman",
        "date_left": "1883-07-04",
        "left_port": "london",
        "cause_of_leaving": "remains on board",
        "sign_with_mark": "n",
        "notes": "blk"
    },
    {
        "id": "vtls004692894_1_13",
        "type": "sailor",
        "parent": "vtls004692894",
        "name": "rc day",
        "dob": "1863",
        "age": "blk",
        "place_of_birth": "london",
        "home_address": "blk",
        "f": "blk",
        "name_of_ship": "john ewing",
        "ship_port": "aberystwyth",
        "date_leaving": "1883",
        "joined_ship_date": "1883-07-05",
        "joined_at_port": "london",
        "capacity": "able seaman",
        "date_left": "1883-08-06",
        "left_port": "swansea",
        "cause_of_leaving": "discharged",
        "sign_with_mark": "n",
        "notes": "blk"
    },
    {
        "id": "vtls004692894_1_18",
        "type": "sailor",
        "parent": "vtls004692894",
        "name": "os owens",
        "dob": "1867",
        "age": "blk",
        "place_of_birth": "newquay",
        "home_address": "blk",
        "f": "blk",
        "name_of_ship": "u larsing",
        "ship_port": "aberystwyth",
        "date_leaving": "1883",
        "joined_ship_date": "1883-08-24",
        "joined_at_port": "swansea",
        "capacity": "ordinary seaman",
        "date_left": "1883-10-13",
        "left_port": "cardiff",
        "cause_of_leaving": "discharged",
        "sign_with_mark": "n",
        "notes": "blk"
    },
    {
        "id": "vtls004692953_0_14",
        "type": "sailor",
        "parent": "vtls004692953",
        "name": "hugh davies",
        "dob": "blk",
        "age": "25",
        "place_of_birth": "aberystwyth",
        "home_address": "blk",
        "f": "blk",
        "name_of_ship": "zion hill",
        "ship_port": "caernarvon",
        "date_leaving": "1884",
        "joined_ship_date": "1884-02-26",
        "joined_at_port": "port dinorwic",
        "capacity": "able seaman",
        "date_left": "1884-04-08",
        "left_port": "briton ferry",
        "cause_of_leaving": "discharged",
        "sign_with_mark": "n",
        "notes": "blk"
    },
    {
        "id": "vtls004692953_0_15",
        "type": "sailor",
        "parent": "vtls004692953",
        "name": "hugh davidson",
        "dob": "blk",
        "age": "23",
        "place_of_birth": "caernarfon",
        "home_address": "blk",
        "f": "blk",
        "name_of_ship": "plevna",
        "ship_port": "liverpool",
        "date_leaving": "1884",
        "joined_ship_date": "1884-02-26",
        "joined_at_port": "port dinorwic",
        "capacity": "able seaman",
        "date_left": "1884-04-08",
        "left_port": "briton ferry",
        "cause_of_leaving": "discharged",
        "sign_with_mark": "n",
        "notes": "blk"
    },
    {
        "id": "vtls004692953_0_12",
        "type": "sailor",
        "parent": "vtls004692953",
        "name": "thomas owens",
        "dob": "blk",
        "age": "30",
        "place_of_birth": "fishguard, pembrokeshire",
        "home_address": "blk",
        "f": "blk",
        "name_of_ship": "john ewing",
        "ship_port": "aberystwyth",
        "date_leaving": "1884",
        "joined_ship_date": "1884-01-12",
        "joined_at_port": "port dinorwic",
        "capacity": "mate",
        "date_left": "blk",
        "left_port": "poole",
        "cause_of_leaving": "remains on board",
        "sign_with_mark": "n",
        "notes": "blk"
    },
    {
        "id": "vtls004692953_0_11",
        "type": "sailor",
        "parent": "vtls004692953",
        "name": "evan evans",
        "dob": "blk",
        "age": "37",
        "place_of_birth": "newquay",
        "home_address": "blk",
        "f": "blk",
        "name_of_ship": "john ewing",
        "ship_port": "aberystwyth",
        "date_leaving": "1884",
        "joined_ship_date": "1884-01-12",
        "joined_at_port": "port dinorwic",
        "capacity": "master",
        "date_left": "blk",
        "left_port": "poole",
        "cause_of_leaving": "remains on board",
        "sign_with_mark": "n",
        "notes": "blk"
    },
    {
        "id": "vtls004692953_0_13",
        "type": "sailor",
        "parent": "vtls004692953",
        "name": "james davies",
        "dob": "blk",
        "age": "16",
        "place_of_birth": "llanarth, cardiganshire",
        "home_address": "blk",
        "f": "blk",
        "name_of_ship": "john ewing",
        "ship_port": "aberystwyth",
        "date_leaving": "1884",
        "joined_ship_date": "1884-01-12",
        "joined_at_port": "port dinorwic",
        "capacity": "boy",
        "date_left": "blk",
        "left_port": "poole",
        "cause_of_leaving": "remains on board",
        "sign_with_mark": "n",
        "notes": "blk"
    },
    {
        "id": "vtls004692894_1_19",
        "type": "sailor",
        "parent": "vtls004692894",
        "name": "john griffith",
        "dob": "1853",
        "age": "blk",
        "place_of_birth": "cardigan",
        "home_address": "blk",
        "f": "blk",
        "name_of_ship": "squirel",
        "ship_port": "aberystwyth",
        "date_leaving": "1883",
        "joined_ship_date": "1883-10-22",
        "joined_at_port": "swansea",
        "capacity": "able seaman",
        "date_left": "1883-12-24",
        "left_port": "caernarfon",
        "cause_of_leaving": "discharged",
        "sign_with_mark": "n",
        "notes": "blk"
    },
    {
        "id": "vtls004692953_1_14",
        "type": "sailor",
        "parent": "vtls004692953",
        "name": "david d davies",
        "dob": "1866",
        "age": "blk",
        "place_of_birth": "cardigan",
        "home_address": "blk",
        "f": "blk",
        "name_of_ship": "john ewing",
        "ship_port": "aberystwyth",
        "date_leaving": "1884",
        "joined_ship_date": "1884-07-08",
        "joined_at_port": "poole",
        "capacity": "ordinary seaman",
        "date_left": "1884-10-01",
        "left_port": "newport, monmouth",
        "cause_of_leaving": "discharged",
        "sign_with_mark": "n",
        "notes": "blk"
    },
    {
        "id": "vtls004692953_1_13",
        "type": "sailor",
        "parent": "vtls004692953",
        "name": "david williams",
        "dob": "1863",
        "age": "blk",
        "place_of_birth": "briton ferry",
        "home_address": "blk",
        "f": "blk",
        "name_of_ship": "john ewing",
        "ship_port": "aberystwyth",
        "date_leaving": "1884",
        "joined_ship_date": "1884-07-08",
        "joined_at_port": "poole",
        "capacity": "able seaman",
        "date_left": "1884-10-17",
        "left_port": "ballinacurra",
        "cause_of_leaving": "discharged",
        "sign_with_mark": "n",
        "notes": "blk"
    },
    {
        "id": "vtls004692953_1_17",
        "type": "sailor",
        "parent": "vtls004692953",
        "name": "william parkhouse",
        "dob": "1864",
        "age": "blk",
        "place_of_birth": "bristol",
        "home_address": "blk",
        "f": "blk",
        "name_of_ship": "annie brocklebank",
        "ship_port": "barrow",
        "date_leaving": "1884",
        "joined_ship_date": "1884-11-14",
        "joined_at_port": "swansea",
        "capacity": "ordinary seaman",
        "date_left": "1885-01-07",
        "left_port": "dublin",
        "cause_of_leaving": "discharged",
        "sign_with_mark": "n",
        "notes": "blk"
    },
    {
        "id": "vtls004692953_1_16",
        "type": "sailor",
        "parent": "vtls004692953",
        "name": "john clements",
        "dob": "1865",
        "age": "blk",
        "place_of_birth": "newport",
        "home_address": "blk",
        "f": "blk",
        "name_of_ship": "annie",
        "ship_port": "[falmouth]",
        "date_leaving": "1884",
        "joined_ship_date": "1884-10-04",
        "joined_at_port": "newport",
        "capacity": "ordinary seaman",
        "date_left": "1884-10-29",
        "left_port": "swansea",
        "cause_of_leaving": "discharged",
        "sign_with_mark": "n",
        "notes": "blk"
    },
    {
        "id": "vtls004692953_1_18",
        "type": "sailor",
        "parent": "vtls004692953",
        "name": "henry young",
        "dob": "1864",
        "age": "blk",
        "place_of_birth": "harverfordwest, pembroke",
        "home_address": "blk",
        "f": "blk",
        "name_of_ship": "tamar",
        "ship_port": "plymouth",
        "date_leaving": "1884",
        "joined_ship_date": "1884-11-14",
        "joined_at_port": "swansea",
        "capacity": "ordinary seaman",
        "date_left": "1884-12-31",
        "left_port": "blk",
        "cause_of_leaving": "discharged",
        "sign_with_mark": "n",
        "notes": "blk"
    },
    {
        "id": "vtls004692953_0_16",
        "type": "sailor",
        "parent": "vtls004692953",
        "name": "david williams",
        "dob": "blk",
        "age": "21",
        "place_of_birth": "briton ferry",
        "home_address": "blk",
        "f": "blk",
        "name_of_ship": "[olavaya s.s.]",
        "ship_port": "swansea",
        "date_leaving": "1884",
        "joined_ship_date": "1884-04-28",
        "joined_at_port": "briton ferry",
        "capacity": "able seaman",
        "date_left": "blk",
        "left_port": "poole",
        "cause_of_leaving": "remains on board",
        "sign_with_mark": "n",
        "notes": "blk"
    },
    {
        "id": "vtls004692953_1_12",
        "type": "sailor",
        "parent": "vtls004692953",
        "name": "thomas owens",
        "dob": "1854",
        "age": "blk",
        "place_of_birth": "fishguard, pembrokeshire",
        "home_address": "blk",
        "f": "blk",
        "name_of_ship": "john ewing",
        "ship_port": "aberystwyth",
        "date_leaving": "1884",
        "joined_ship_date": "1884-07-08",
        "joined_at_port": "poole",
        "capacity": "mate",
        "date_left": "1884-12-31",
        "left_port": "blk",
        "cause_of_leaving": "remains on board",
        "sign_with_mark": "n",
        "notes": "blk"
    },
    {
        "id": "vtls004692953_1_11",
        "type": "sailor",
        "parent": "vtls004692953",
        "name": "evan evans",
        "dob": "1847",
        "age": "blk",
        "place_of_birth": "newquay",
        "home_address": "blk",
        "f": "blk",
        "name_of_ship": "john ewing",
        "ship_port": "aberystwyth",
        "date_leaving": "1884",
        "joined_ship_date": "1884-07-08",
        "joined_at_port": "poole",
        "capacity": "master",
        "date_left": "1884-12-31",
        "left_port": "blk",
        "cause_of_leaving": "remains on board",
        "sign_with_mark": "n",
        "notes": "blk"
    },
    {
        "id": "vtls004692953_0_17",
        "type": "sailor",
        "parent": "vtls004692953",
        "name": "david d davies",
        "dob": "blk",
        "age": "17",
        "place_of_birth": "cardigan",
        "home_address": "blk",
        "f": "blk",
        "name_of_ship": "utopia",
        "ship_port": "aberystwyth",
        "date_leaving": "1884",
        "joined_ship_date": "1884-04-29",
        "joined_at_port": "briton ferry",
        "capacity": "ordinary seaman",
        "date_left": "blk",
        "left_port": "poole",
        "cause_of_leaving": "remains on board",
        "sign_with_mark": "n",
        "notes": "blk"
    },
    {
        "id": "vtls004692953_1_15",
        "type": "sailor",
        "parent": "vtls004692953",
        "name": "james davies",
        "dob": "1868",
        "age": "blk",
        "place_of_birth": "newquay",
        "home_address": "blk",
        "f": "blk",
        "name_of_ship": "john ewing",
        "ship_port": "aberystwyth",
        "date_leaving": "1884",
        "joined_ship_date": "1884-07-08",
        "joined_at_port": "poole",
        "capacity": "boy",
        "date_left": "1884-12-31",
        "left_port": "blk",
        "cause_of_leaving": "discharged",
        "sign_with_mark": "n",
        "notes": "blk"
    },
    {
        "id": "vtls004692956_0_13",
        "type": "sailor",
        "parent": "vtls004692956",
        "name": "david jones",
        "dob": "1833",
        "age": "blk",
        "place_of_birth": "newquay",
        "home_address": "blk",
        "f": "blk",
        "name_of_ship": "john ewing",
        "ship_port": "aberystwyth",
        "date_leaving": "1885",
        "joined_ship_date": "1886-01-02",
        "joined_at_port": "newport, monmouth",
        "capacity": "able seaman",
        "date_left": "continued",
        "left_port": "blk",
        "cause_of_leaving": "remains on board",
        "sign_with_mark": "n",
        "notes": "blk"
    },
    {
        "id": "vtls004692956_1_12",
        "type": "sailor",
        "parent": "vtls004692956",
        "name": "thomas owens",
        "dob": "1854",
        "age": "blk",
        "place_of_birth": "fishguard, pembrokeshire",
        "home_address": "blk",
        "f": "blk",
        "name_of_ship": "john ewing",
        "ship_port": "aberystwyth",
        "date_leaving": "1886",
        "joined_ship_date": "1886-07-20",
        "joined_at_port": "froynes, limerick",
        "capacity": "mate",
        "date_left": "1886-11-04",
        "left_port": "port dinorwic",
        "cause_of_leaving": "discharged",
        "sign_with_mark": "n",
        "notes": "blk"
    },
    {
        "id": "vtls004692956_1_13",
        "type": "sailor",
        "parent": "vtls004692956",
        "name": "david james",
        "dob": "1830",
        "age": "blk",
        "place_of_birth": "newquay",
        "home_address": "blk",
        "f": "blk",
        "name_of_ship": "john ewing",
        "ship_port": "aberystwyth",
        "date_leaving": "1886",
        "joined_ship_date": "1886-07-20",
        "joined_at_port": "froynes, limerick",
        "capacity": "able seaman",
        "date_left": "1886-10-12",
        "left_port": "runcorn",
        "cause_of_leaving": "discharged",
        "sign_with_mark": "n",
        "notes": "blk"
    },
    {
        "id": "vtls004692956_0_11",
        "type": "sailor",
        "parent": "vtls004692956",
        "name": "evan evans",
        "dob": "1847",
        "age": "blk",
        "place_of_birth": "newquay",
        "home_address": "blk",
        "f": "blk",
        "name_of_ship": "john ewing",
        "ship_port": "aberystwyth",
        "date_leaving": "1885",
        "joined_ship_date": "1886-01-02",
        "joined_at_port": "newport, monmouth",
        "capacity": "master",
        "date_left": "continued",
        "left_port": "blk",
        "cause_of_leaving": "remains on board",
        "sign_with_mark": "n",
        "notes": "blk"
    },
    {
        "id": "vtls004692956_1_11",
        "type": "sailor",
        "parent": "vtls004692956",
        "name": "evan evans",
        "dob": "1848",
        "age": "blk",
        "place_of_birth": "newquay",
        "home_address": "blk",
        "f": "blk",
        "name_of_ship": "john ewing",
        "ship_port": "aberystwyth",
        "date_leaving": "1886",
        "joined_ship_date": "1886-07-20",
        "joined_at_port": "froynes, limerick",
        "capacity": "master",
        "date_left": "continued",
        "left_port": "blk",
        "cause_of_leaving": "remains on board",
        "sign_with_mark": "n",
        "notes": "blk"
    },
    {
        "id": "vtls004692956_0_12",
        "type": "sailor",
        "parent": "vtls004692956",
        "name": "thomas owens",
        "dob": "1853",
        "age": "blk",
        "place_of_birth": "fishguard",
        "home_address": "blk",
        "f": "blk",
        "name_of_ship": "john ewing",
        "ship_port": "aberystwyth",
        "date_leaving": "1885",
        "joined_ship_date": "1886-01-02",
        "joined_at_port": "newport, monmouth",
        "capacity": "mate",
        "date_left": "continued",
        "left_port": "blk",
        "cause_of_leaving": "remains on board",
        "sign_with_mark": "n",
        "notes": "blk"
    }
]