[
    {
        "id": "vtls004909494_0_14",
        "type": "sailor",
        "parent": "vtls004909494",
        "name": "edward williams",
        "dob": "blk",
        "age": "14",
        "place_of_birth": "aberdovey",
        "home_address": "blk",
        "f": "blk",
        "name_of_ship": "lorne",
        "ship_port": "aberystwyth",
        "date_leaving": "1878",
        "joined_ship_date": "1878-05-15",
        "joined_at_port": "kennetpans",
        "capacity": "ordinary seaman",
        "date_left": "1878-06-30",
        "left_port": "swansea",
        "cause_of_leaving": "continued",
        "sign_with_mark": "n",
        "notes": "blk"
    },
    {
        "id": "vtls004909494_0_13",
        "type": "sailor",
        "parent": "vtls004909494",
        "name": "owen williams",
        "dob": "blk",
        "age": "39",
        "place_of_birth": "beaumaris",
        "home_address": "blk",
        "f": "blk",
        "name_of_ship": "raven",
        "ship_port": "beaumaris",
        "date_leaving": "1878",
        "joined_ship_date": "1878-05-15",
        "joined_at_port": "kennetpans",
        "capacity": "able seaman",
        "date_left": "1878-06-30",
        "left_port": "swansea",
        "cause_of_leaving": "continued",
        "sign_with_mark": "y",
        "notes": "blk"
    },
    {
        "id": "vtls004909494_0_11",
        "type": "sailor",
        "parent": "vtls004909494",
        "name": "john hughes",
        "dob": "blk",
        "age": "42",
        "place_of_birth": "borth",
        "home_address": "borth",
        "f": "borth",
        "name_of_ship": "lorne",
        "ship_port": "aberystwyth",
        "date_leaving": "1878",
        "joined_ship_date": "1878-05-15",
        "joined_at_port": "kennetpans",
        "capacity": "master",
        "date_left": "1878-06-30",
        "left_port": "swansea",
        "cause_of_leaving": "continued",
        "sign_with_mark": "n",
        "notes": "blk"
    },
    {
        "id": "vtls004909494_0_12",
        "type": "sailor",
        "parent": "vtls004909494",
        "name": "john evans",
        "dob": "blk",
        "age": "20",
        "place_of_birth": "aberdovey",
        "home_address": "blk",
        "f": "blk",
        "name_of_ship": "lorne",
        "ship_port": "aberystwyth",
        "date_leaving": "1878",
        "joined_ship_date": "1878-05-15",
        "joined_at_port": "kennetpans",
        "capacity": "mate",
        "date_left": "1878-06-30",
        "left_port": "swansea",
        "cause_of_leaving": "continued",
        "sign_with_mark": "n",
        "notes": "blk"
    },
    {
        "id": "vtls004909500_0_11",
        "type": "sailor",
        "parent": "vtls004909500",
        "name": "john morgan hughes",
        "dob": "1835",
        "age": "blk",
        "place_of_birth": "borth, cardiganshire",
        "home_address": "aberdovey",
        "f": "aberdovey",
        "name_of_ship": "lorne",
        "ship_port": "aberystwyth",
        "date_leaving": "1893-01",
        "joined_ship_date": "remains",
        "joined_at_port": "blk",
        "capacity": "master",
        "date_left": "189[3]-12-25",
        "left_port": "aberdovey",
        "cause_of_leaving": "discharged",
        "sign_with_mark": "n",
        "notes": "in 'date left' ship, the date is down as 1893-12-25, but should poss. be 1892"
    },
    {
        "id": "vtls004909477_0_14",
        "type": "sailor",
        "parent": "vtls004909477",
        "name": "thomas d daniels",
        "dob": "1873",
        "age": "blk",
        "place_of_birth": "aberystwyth",
        "home_address": "blk",
        "f": "blk",
        "name_of_ship": "jane morgans",
        "ship_port": "aberystwyth",
        "date_leaving": "1887",
        "joined_ship_date": "1887-03-10",
        "joined_at_port": "porthmadoc",
        "capacity": "steward",
        "date_left": "blk",
        "left_port": "blk",
        "cause_of_leaving": "remains on board",
        "sign_with_mark": "n",
        "notes": "blk"
    },
    {
        "id": "vtls004909477_0_13",
        "type": "sailor",
        "parent": "vtls004909477",
        "name": "john roberts",
        "dob": "1837",
        "age": "blk",
        "place_of_birth": "pwllheli",
        "home_address": "blk",
        "f": "blk",
        "name_of_ship": "anne jones",
        "ship_port": "[aberystwyth]",
        "date_leaving": "1887",
        "joined_ship_date": "1887-03-10",
        "joined_at_port": "porthmadoc",
        "capacity": "able seaman",
        "date_left": "blk",
        "left_port": "blk",
        "cause_of_leaving": "remains on board",
        "sign_with_mark": "n",
        "notes": "blk"
    },
    {
        "id": "vtls004909500_0_12",
        "type": "sailor",
        "parent": "vtls004909500",
        "name": "john hughes",
        "dob": "blk",
        "age": "58",
        "place_of_birth": "aberdovey",
        "home_address": "blk",
        "f": "blk",
        "name_of_ship": "lorne",
        "ship_port": "aberystwyth",
        "date_leaving": "1893-01",
        "joined_ship_date": "1893-02-23",
        "joined_at_port": "aberdovey",
        "capacity": "master",
        "date_left": "1893-07-05",
        "left_port": "plymouth",
        "cause_of_leaving": "remains on board",
        "sign_with_mark": "n",
        "notes": "blk"
    },
    {
        "id": "vtls004909500_0_13",
        "type": "sailor",
        "parent": "vtls004909500",
        "name": "john jones",
        "dob": "blk",
        "age": "25",
        "place_of_birth": "porthmadog",
        "home_address": "blk",
        "f": "blk",
        "name_of_ship": "lorne",
        "ship_port": "aberystwyth",
        "date_leaving": "1893-01",
        "joined_ship_date": "1893-02-23",
        "joined_at_port": "aberdovey",
        "capacity": "mate",
        "date_left": "1893-03-10",
        "left_port": "bridgewater",
        "cause_of_leaving": "discharged",
        "sign_with_mark": "n",
        "notes": "blk"
    },
    {
        "id": "vtls004909477_0_11",
        "type": "sailor",
        "parent": "vtls004909477",
        "name": "john morgan hughes",
        "dob": "1867",
        "age": "blk",
        "place_of_birth": "borth",
        "home_address": "borth",
        "f": "borth",
        "name_of_ship": "snowdon",
        "ship_port": "liverpool",
        "date_leaving": "1886",
        "joined_ship_date": "1887-01-01",
        "joined_at_port": "porthmadoc",
        "capacity": "master",
        "date_left": "blk",
        "left_port": "blk",
        "cause_of_leaving": "remains on board",
        "sign_with_mark": "n",
        "notes": "blk"
    },
    {
        "id": "vtls004909477_0_12",
        "type": "sailor",
        "parent": "vtls004909477",
        "name": "john hughes",
        "dob": "1835",
        "age": "blk",
        "place_of_birth": "borth",
        "home_address": "blk",
        "f": "blk",
        "name_of_ship": "lorne",
        "ship_port": "aberystwyth",
        "date_leaving": "1886",
        "joined_ship_date": "blk",
        "joined_at_port": "blk",
        "capacity": "mate",
        "date_left": "blk",
        "left_port": "blk",
        "cause_of_leaving": "remains on board",
        "sign_with_mark": "n",
        "notes": "blk"
    },
    {
        "id": "vtls004909500_0_16",
        "type": "sailor",
        "parent": "vtls004909500",
        "name": "evan arthur",
        "dob": "blk",
        "age": "19",
        "place_of_birth": "borth, cardiganshire",
        "home_address": "blk",
        "f": "blk",
        "name_of_ship": "s\/s [carrion of lark]",
        "ship_port": "blk",
        "date_leaving": "1893-01",
        "joined_ship_date": "1893-05-01",
        "joined_at_port": "porthmadog",
        "capacity": "ordinary seaman",
        "date_left": "1893-07-05",
        "left_port": "plymouth",
        "cause_of_leaving": "remains on board",
        "sign_with_mark": "n",
        "notes": "blk"
    },
    {
        "id": "vtls004909500_0_15",
        "type": "sailor",
        "parent": "vtls004909500",
        "name": "benjamin jones",
        "dob": "blk",
        "age": "27",
        "place_of_birth": "porthmadog",
        "home_address": "blk",
        "f": "blk",
        "name_of_ship": "maid of meirion",
        "ship_port": "[aberystwyth]",
        "date_leaving": "1893-01",
        "joined_ship_date": "1893-04-25",
        "joined_at_port": "porthmadog",
        "capacity": "mate",
        "date_left": "1893-07-05",
        "left_port": "plymouth",
        "cause_of_leaving": "remains on board",
        "sign_with_mark": "n",
        "notes": "blk"
    },
    {
        "id": "vtls004909500_1_13",
        "type": "sailor",
        "parent": "vtls004909500",
        "name": "richard thomas jones",
        "dob": "1876",
        "age": "blk",
        "place_of_birth": "aberdovey",
        "home_address": "blk",
        "f": "blk",
        "name_of_ship": "lorne",
        "ship_port": "aberystwyth",
        "date_leaving": "1893",
        "joined_ship_date": "1893-07-05",
        "joined_at_port": "plymouth",
        "capacity": "ordinary seaman",
        "date_left": "1893-12-12",
        "left_port": "porthmadog",
        "cause_of_leaving": "discharged",
        "sign_with_mark": "n",
        "notes": "blk"
    },
    {
        "id": "vtls004909500_1_14",
        "type": "sailor",
        "parent": "vtls004909500",
        "name": "john morgan hughes",
        "dob": "1867",
        "age": "blk",
        "place_of_birth": "cardiganshire",
        "home_address": "blk",
        "f": "blk",
        "name_of_ship": "glan teify s\/s",
        "ship_port": "aberystwyth",
        "date_leaving": "1893",
        "joined_ship_date": "1893-08-18",
        "joined_at_port": "aberdovey",
        "capacity": "master",
        "date_left": "remains",
        "left_port": "blk",
        "cause_of_leaving": "remains on board",
        "sign_with_mark": "n",
        "notes": "blk"
    },
    {
        "id": "vtls004909500_1_11",
        "type": "sailor",
        "parent": "vtls004909500",
        "name": "john hughes",
        "dob": "1858",
        "age": "blk",
        "place_of_birth": "cardiganshire",
        "home_address": "borth, cardigan",
        "f": "borth, cardigan",
        "name_of_ship": "lorne",
        "ship_port": "aberystwyth",
        "date_leaving": "1893",
        "joined_ship_date": "1893-07-05",
        "joined_at_port": "plymouth",
        "capacity": "master",
        "date_left": "1893-08-10",
        "left_port": "aberdovey",
        "cause_of_leaving": "discharged",
        "sign_with_mark": "n",
        "notes": "blk"
    },
    {
        "id": "vtls004909500_0_14",
        "type": "sailor",
        "parent": "vtls004909500",
        "name": "lewis jones",
        "dob": "blk",
        "age": "22",
        "place_of_birth": "aberdovey",
        "home_address": "blk",
        "f": "blk",
        "name_of_ship": "sarah davies",
        "ship_port": "[aberystwyth]",
        "date_leaving": "1893-01",
        "joined_ship_date": "1893-02-23",
        "joined_at_port": "aberdovey",
        "capacity": "able seaman",
        "date_left": "1893-03-24",
        "left_port": "aberdovey",
        "cause_of_leaving": "discharged",
        "sign_with_mark": "n",
        "notes": "blk"
    },
    {
        "id": "vtls004909500_0_17",
        "type": "sailor",
        "parent": "vtls004909500",
        "name": "richard jones",
        "dob": "blk",
        "age": "18",
        "place_of_birth": "aberdovey",
        "home_address": "blk",
        "f": "blk",
        "name_of_ship": "volunteer",
        "ship_port": "aberystwyth",
        "date_leaving": "1893-01",
        "joined_ship_date": "1893-05-01",
        "joined_at_port": "porthmadog",
        "capacity": "boy",
        "date_left": "1893-07-05",
        "left_port": "plymouth",
        "cause_of_leaving": "remains on board",
        "sign_with_mark": "n",
        "notes": "blk"
    },
    {
        "id": "vtls004909500_1_12",
        "type": "sailor",
        "parent": "vtls004909500",
        "name": "lewis jones",
        "dob": "1869",
        "age": "blk",
        "place_of_birth": "aberdovey",
        "home_address": "blk",
        "f": "blk",
        "name_of_ship": "lorne",
        "ship_port": "aberystwyth",
        "date_leaving": "1893",
        "joined_ship_date": "1893-07-05",
        "joined_at_port": "plymouth",
        "capacity": "mate",
        "date_left": "1893-12-12",
        "left_port": "porthmadog",
        "cause_of_leaving": "discharged",
        "sign_with_mark": "n",
        "notes": "blk"
    }
]