[
    {
        "id": "vtls004953609_0_12",
        "type": "sailor",
        "parent": "vtls004953609",
        "name": "james mathias",
        "dob": "blk",
        "age": "35",
        "place_of_birth": "cardigan",
        "home_address": "blk",
        "f": "blk",
        "name_of_ship": "ancien",
        "ship_port": "falmouth",
        "date_leaving": "1876",
        "joined_ship_date": "1876-09-14",
        "joined_at_port": "cardiff",
        "capacity": "mate",
        "date_left": "1877-02-05",
        "left_port": "gloucestershire",
        "cause_of_leaving": "discharged",
        "sign_with_mark": "n",
        "notes": "blk"
    },
    {
        "id": "vtls004953609_0_11",
        "type": "sailor",
        "parent": "vtls004953609",
        "name": "john james",
        "dob": "blk",
        "age": "35",
        "place_of_birth": "newquay",
        "home_address": "blk",
        "f": "blk",
        "name_of_ship": "resolven",
        "ship_port": "aberystwyth",
        "date_leaving": "1876",
        "joined_ship_date": "1876-09-14",
        "joined_at_port": "cardiff",
        "capacity": "master",
        "date_left": "blk",
        "left_port": "blk",
        "cause_of_leaving": "remains on board",
        "sign_with_mark": "n",
        "notes": "blk"
    },
    {
        "id": "vtls004953609_0_14",
        "type": "sailor",
        "parent": "vtls004953609",
        "name": "henry judd",
        "dob": "blk",
        "age": "18",
        "place_of_birth": "london",
        "home_address": "blk",
        "f": "blk",
        "name_of_ship": "formosa",
        "ship_port": "miramichi bay",
        "date_leaving": "1876",
        "joined_ship_date": "1876-09-14",
        "joined_at_port": "cardiff",
        "capacity": "cook & steward",
        "date_left": "blk",
        "left_port": "blk",
        "cause_of_leaving": "deceased",
        "sign_with_mark": "n",
        "notes": "killed at sea 1877-01-14 (latitude 36.40n, longitude 11.5w) by falling down the [hold]"
    },
    {
        "id": "vtls004953609_1_13",
        "type": "sailor",
        "parent": "vtls004953609",
        "name": "james williams",
        "dob": "blk",
        "age": "26",
        "place_of_birth": "malvern",
        "home_address": "blk",
        "f": "blk",
        "name_of_ship": "william and sarah",
        "ship_port": "blk",
        "date_leaving": "1877",
        "joined_ship_date": "1877-02-26",
        "joined_at_port": "cardiff",
        "capacity": "cook, steward & ordinary seaman",
        "date_left": "1877-06-26",
        "left_port": "bristol",
        "cause_of_leaving": "discharged",
        "sign_with_mark": "n",
        "notes": "blk"
    },
    {
        "id": "vtls004953609_0_13",
        "type": "sailor",
        "parent": "vtls004953609",
        "name": "titus lewis",
        "dob": "blk",
        "age": "23",
        "place_of_birth": "newcastle emlyn",
        "home_address": "blk",
        "f": "blk",
        "name_of_ship": "resolven",
        "ship_port": "aberystwyth",
        "date_leaving": "1876",
        "joined_ship_date": "1876-09-14",
        "joined_at_port": "cardiff",
        "capacity": "boatswain",
        "date_left": "1877-01-31",
        "left_port": "gloucestershire",
        "cause_of_leaving": "discharged",
        "sign_with_mark": "n",
        "notes": "blk"
    },
    {
        "id": "vtls004953609_0_17",
        "type": "sailor",
        "parent": "vtls004953609",
        "name": "frederick simons",
        "dob": "blk",
        "age": "19",
        "place_of_birth": "sunderland",
        "home_address": "blk",
        "f": "blk",
        "name_of_ship": "conference",
        "ship_port": "blk",
        "date_leaving": "1876",
        "joined_ship_date": "1876-09-15",
        "joined_at_port": "cardiff",
        "capacity": "ordinary seaman",
        "date_left": "1877-01-31",
        "left_port": "gloucestershire",
        "cause_of_leaving": "discharged",
        "sign_with_mark": "y",
        "notes": "blk"
    },
    {
        "id": "vtls004953609_0_15",
        "type": "sailor",
        "parent": "vtls004953609",
        "name": "john davies",
        "dob": "blk",
        "age": "54",
        "place_of_birth": "aberaeron",
        "home_address": "blk",
        "f": "blk",
        "name_of_ship": "$$ ernst",
        "ship_port": "caernarfon",
        "date_leaving": "1876",
        "joined_ship_date": "1876-09-14",
        "joined_at_port": "cardiff",
        "capacity": "able seaman",
        "date_left": "1877-02-05",
        "left_port": "gloucestershire",
        "cause_of_leaving": "discharged",
        "sign_with_mark": "n",
        "notes": "blk"
    },
    {
        "id": "vtls004953609_0_16",
        "type": "sailor",
        "parent": "vtls004953609",
        "name": "james jimpkings",
        "dob": "blk",
        "age": "18",
        "place_of_birth": "hull",
        "home_address": "blk",
        "f": "blk",
        "name_of_ship": "conference",
        "ship_port": "blk",
        "date_leaving": "1876",
        "joined_ship_date": "1876-09-15",
        "joined_at_port": "cardiff",
        "capacity": "ordinary seaman",
        "date_left": "1877-01-31",
        "left_port": "gloucestershire",
        "cause_of_leaving": "discharged",
        "sign_with_mark": "n",
        "notes": "blk"
    },
    {
        "id": "vtls004953609_1_12",
        "type": "sailor",
        "parent": "vtls004953609",
        "name": "james mathias",
        "dob": "blk",
        "age": "36",
        "place_of_birth": "cardigan",
        "home_address": "blk",
        "f": "blk",
        "name_of_ship": "resolven",
        "ship_port": "aberystwyth",
        "date_leaving": "1877",
        "joined_ship_date": "1877-02-26",
        "joined_at_port": "cardiff",
        "capacity": "mate",
        "date_left": "1877-07-10",
        "left_port": "bristol",
        "cause_of_leaving": "discharged",
        "sign_with_mark": "n",
        "notes": "blk"
    },
    {
        "id": "vtls004953609_1_11",
        "type": "sailor",
        "parent": "vtls004953609",
        "name": "john james",
        "dob": "blk",
        "age": "36",
        "place_of_birth": "newquay",
        "home_address": "blk",
        "f": "blk",
        "name_of_ship": "resolven",
        "ship_port": "aberystwyth",
        "date_leaving": "1877",
        "joined_ship_date": "1877-02-26",
        "joined_at_port": "cardiff",
        "capacity": "master",
        "date_left": "blk",
        "left_port": "blk",
        "cause_of_leaving": "remains on board",
        "sign_with_mark": "n",
        "notes": "blk"
    },
    {
        "id": "vtls004953609_1_17",
        "type": "sailor",
        "parent": "vtls004953609",
        "name": "herbert william brown",
        "dob": "blk",
        "age": "18",
        "place_of_birth": "hull",
        "home_address": "blk",
        "f": "blk",
        "name_of_ship": "royal edward",
        "ship_port": "liverpool",
        "date_leaving": "1877",
        "joined_ship_date": "1877-02-27",
        "joined_at_port": "cardiff",
        "capacity": "ordinary seaman",
        "date_left": "1877-06-26",
        "left_port": "bristol",
        "cause_of_leaving": "discharged",
        "sign_with_mark": "n",
        "notes": "blk"
    },
    {
        "id": "vtls004953609_2_13",
        "type": "sailor",
        "parent": "vtls004953609",
        "name": "james williams",
        "dob": "blk",
        "age": "26",
        "place_of_birth": "malvern",
        "home_address": "blk",
        "f": "blk",
        "name_of_ship": "resolven",
        "ship_port": "aberystwyth",
        "date_leaving": "1877",
        "joined_ship_date": "1877-07-19",
        "joined_at_port": "cardiff",
        "capacity": "cook & steward",
        "date_left": "1878-01-14",
        "left_port": "glasgow",
        "cause_of_leaving": "discharged",
        "sign_with_mark": "n",
        "notes": "blk"
    },
    {
        "id": "vtls004953609_2_16",
        "type": "sailor",
        "parent": "vtls004953609",
        "name": "charles sutcliff",
        "dob": "blk",
        "age": "18",
        "place_of_birth": "cork",
        "home_address": "blk",
        "f": "blk",
        "name_of_ship": "baron von hartman",
        "ship_port": "blk",
        "date_leaving": "blk",
        "joined_ship_date": "1877-07-20",
        "joined_at_port": "cardiff",
        "capacity": "ordinary seaman",
        "date_left": "1878-01-14",
        "left_port": "glasgow",
        "cause_of_leaving": "discharged",
        "sign_with_mark": "n",
        "notes": "blk"
    },
    {
        "id": "vtls004953609_1_16",
        "type": "sailor",
        "parent": "vtls004953609",
        "name": "henry williams",
        "dob": "blk",
        "age": "16",
        "place_of_birth": "plymouth",
        "home_address": "blk",
        "f": "blk",
        "name_of_ship": "constance",
        "ship_port": "ipswich",
        "date_leaving": "1877",
        "joined_ship_date": "1877-02-26",
        "joined_at_port": "cardiff",
        "capacity": "ordinary seaman",
        "date_left": "1877-06-26",
        "left_port": "bristol",
        "cause_of_leaving": "discharged",
        "sign_with_mark": "n",
        "notes": "blk"
    },
    {
        "id": "vtls004953609_1_15",
        "type": "sailor",
        "parent": "vtls004953609",
        "name": "thomas evans",
        "dob": "blk",
        "age": "19",
        "place_of_birth": "aberporth",
        "home_address": "blk",
        "f": "blk",
        "name_of_ship": "owny belle",
        "ship_port": "aberystwyth",
        "date_leaving": "1877",
        "joined_ship_date": "1877-02-26",
        "joined_at_port": "cardiff",
        "capacity": "able seaman",
        "date_left": "1877-06-26",
        "left_port": "bristol",
        "cause_of_leaving": "discharged",
        "sign_with_mark": "n",
        "notes": "blk"
    },
    {
        "id": "vtls004953609_1_14",
        "type": "sailor",
        "parent": "vtls004953609",
        "name": "george hubble",
        "dob": "blk",
        "age": "28",
        "place_of_birth": "london",
        "home_address": "blk",
        "f": "blk",
        "name_of_ship": "owny belle",
        "ship_port": "aberystwyth",
        "date_leaving": "1877",
        "joined_ship_date": "1877-02-26",
        "joined_at_port": "cardiff",
        "capacity": "able seaman",
        "date_left": "1877-06-26",
        "left_port": "bristol",
        "cause_of_leaving": "discharged",
        "sign_with_mark": "n",
        "notes": "blk"
    },
    {
        "id": "vtls004953609_2_11",
        "type": "sailor",
        "parent": "vtls004953609",
        "name": "john james",
        "dob": "blk",
        "age": "36",
        "place_of_birth": "newquay",
        "home_address": "blk",
        "f": "blk",
        "name_of_ship": "resolven",
        "ship_port": "aberystwyth",
        "date_leaving": "1877",
        "joined_ship_date": "1877-07-19",
        "joined_at_port": "cardiff",
        "capacity": "master",
        "date_left": "1878-01-22",
        "left_port": "glasgow",
        "cause_of_leaving": "remains on board",
        "sign_with_mark": "n",
        "notes": "blk"
    },
    {
        "id": "vtls004953609_2_12",
        "type": "sailor",
        "parent": "vtls004953609",
        "name": "james mathias",
        "dob": "blk",
        "age": "37",
        "place_of_birth": "cardigan",
        "home_address": "blk",
        "f": "blk",
        "name_of_ship": "resolven",
        "ship_port": "aberystwyth",
        "date_leaving": "1877",
        "joined_ship_date": "1877-07-19",
        "joined_at_port": "cardiff",
        "capacity": "mate",
        "date_left": "1878-01-22",
        "left_port": "glasgow",
        "cause_of_leaving": "discharged",
        "sign_with_mark": "n",
        "notes": "blk"
    },
    {
        "id": "vtls004953609_2_15",
        "type": "sailor",
        "parent": "vtls004953609",
        "name": "john hooke",
        "dob": "blk",
        "age": "21",
        "place_of_birth": "dawlish",
        "home_address": "blk",
        "f": "blk",
        "name_of_ship": "loango",
        "ship_port": "sligo",
        "date_leaving": "blk",
        "joined_ship_date": "1877-07-20",
        "joined_at_port": "cardiff",
        "capacity": "able seaman",
        "date_left": "1878-01-14",
        "left_port": "glasgow",
        "cause_of_leaving": "discharged",
        "sign_with_mark": "n",
        "notes": "blk"
    },
    {
        "id": "vtls004953609_2_14",
        "type": "sailor",
        "parent": "vtls004953609",
        "name": "george tong",
        "dob": "blk",
        "age": "25",
        "place_of_birth": "blk",
        "home_address": "blk",
        "f": "blk",
        "name_of_ship": "nebo",
        "ship_port": "sunderland",
        "date_leaving": "blk",
        "joined_ship_date": "1877-07-20",
        "joined_at_port": "cardiff",
        "capacity": "able seaman",
        "date_left": "1878-01-14",
        "left_port": "glasgow",
        "cause_of_leaving": "discharged",
        "sign_with_mark": "n",
        "notes": "blk"
    },
    {
        "id": "vtls004953614_0_15",
        "type": "sailor",
        "parent": "vtls004953614",
        "name": "william davies",
        "dob": "blk",
        "age": "19",
        "place_of_birth": "penclawdd",
        "home_address": "blk",
        "f": "blk",
        "name_of_ship": "resolven",
        "ship_port": "aberystwyth",
        "date_leaving": "1878",
        "joined_ship_date": "1878-02-01",
        "joined_at_port": "glasgow",
        "capacity": "ordinary seaman",
        "date_left": "1871-04-12",
        "left_port": "swansea",
        "cause_of_leaving": "discharged",
        "sign_with_mark": "y",
        "notes": "blk"
    },
    {
        "id": "vtls004953609_2_17",
        "type": "sailor",
        "parent": "vtls004953609",
        "name": "william davies",
        "dob": "blk",
        "age": "18",
        "place_of_birth": "penclawdd",
        "home_address": "blk",
        "f": "blk",
        "name_of_ship": "catherine",
        "ship_port": "llanelly",
        "date_leaving": "blk",
        "joined_ship_date": "1877-07-20",
        "joined_at_port": "cardiff",
        "capacity": "ordinary seaman",
        "date_left": "1878-01-22",
        "left_port": "glasgow",
        "cause_of_leaving": "discharged",
        "sign_with_mark": "n",
        "notes": "blk"
    },
    {
        "id": "vtls004953614_0_12",
        "type": "sailor",
        "parent": "vtls004953614",
        "name": "james mathias",
        "dob": "blk",
        "age": "37",
        "place_of_birth": "cardigan",
        "home_address": "blk",
        "f": "blk",
        "name_of_ship": "resolven",
        "ship_port": "aberystwyth",
        "date_leaving": "1878",
        "joined_ship_date": "1878-02-01",
        "joined_at_port": "glasgow",
        "capacity": "mate",
        "date_left": "1871-04-12",
        "left_port": "swansea",
        "cause_of_leaving": "discharged",
        "sign_with_mark": "blk",
        "notes": "blk"
    },
    {
        "id": "vtls004953614_0_13",
        "type": "sailor",
        "parent": "vtls004953614",
        "name": "john milne",
        "dob": "blk",
        "age": "36",
        "place_of_birth": "aberdeen",
        "home_address": "blk",
        "f": "blk",
        "name_of_ship": "st petersburg",
        "ship_port": "blk",
        "date_leaving": "1878",
        "joined_ship_date": "1878-02-01",
        "joined_at_port": "glasgow",
        "capacity": "able seaman",
        "date_left": "1871-04-12",
        "left_port": "swansea",
        "cause_of_leaving": "discharged",
        "sign_with_mark": "n",
        "notes": "blk"
    },
    {
        "id": "vtls004953614_0_16",
        "type": "sailor",
        "parent": "vtls004953614",
        "name": "peter weber",
        "dob": "blk",
        "age": "21",
        "place_of_birth": "bavaria",
        "home_address": "blk",
        "f": "blk",
        "name_of_ship": "sidonian",
        "ship_port": "blk",
        "date_leaving": "1878",
        "joined_ship_date": "1878-02-01",
        "joined_at_port": "glasgow",
        "capacity": "cook & steward",
        "date_left": "1871-04-12",
        "left_port": "swansea",
        "cause_of_leaving": "discharged",
        "sign_with_mark": "y",
        "notes": "blk"
    },
    {
        "id": "vtls004953614_0_11",
        "type": "sailor",
        "parent": "vtls004953614",
        "name": "john james",
        "dob": "blk",
        "age": "36",
        "place_of_birth": "newquay",
        "home_address": "blk",
        "f": "blk",
        "name_of_ship": "resolven",
        "ship_port": "aberystwyth",
        "date_leaving": "1878",
        "joined_ship_date": "1878-02-01",
        "joined_at_port": "glasgow",
        "capacity": "master",
        "date_left": "1878-04-12",
        "left_port": "swansea",
        "cause_of_leaving": "discharged",
        "sign_with_mark": "n",
        "notes": "blk"
    },
    {
        "id": "vtls004953614_0_14",
        "type": "sailor",
        "parent": "vtls004953614",
        "name": "james duggan",
        "dob": "blk",
        "age": "22",
        "place_of_birth": "london",
        "home_address": "blk",
        "f": "blk",
        "name_of_ship": "sidonian",
        "ship_port": "blk",
        "date_leaving": "1878",
        "joined_ship_date": "1878-02-01",
        "joined_at_port": "glasgow",
        "capacity": "able seaman",
        "date_left": "1871-04-12",
        "left_port": "swansea",
        "cause_of_leaving": "discharged",
        "sign_with_mark": "n",
        "notes": "blk"
    },
    {
        "id": "vtls004953614_1_13",
        "type": "sailor",
        "parent": "vtls004953614",
        "name": "john jones",
        "dob": "blk",
        "age": "20",
        "place_of_birth": "penclawdd",
        "home_address": "blk",
        "f": "blk",
        "name_of_ship": "smile",
        "ship_port": "whitehaven",
        "date_leaving": "1878",
        "joined_ship_date": "1878-04-23",
        "joined_at_port": "swansea",
        "capacity": "cook & ordinary seaman",
        "date_left": "1878-09-15",
        "left_port": "liverpool",
        "cause_of_leaving": "discharged",
        "sign_with_mark": "n",
        "notes": "blk"
    },
    {
        "id": "vtls004953614_1_16",
        "type": "sailor",
        "parent": "vtls004953614",
        "name": "william nicholas",
        "dob": "blk",
        "age": "22",
        "place_of_birth": "bangor",
        "home_address": "blk",
        "f": "blk",
        "name_of_ship": "professor airy",
        "ship_port": "swansea",
        "date_leaving": "1878",
        "joined_ship_date": "1878-04-23",
        "joined_at_port": "swansea",
        "capacity": "ordinary seaman",
        "date_left": "1878-09-15",
        "left_port": "liverpool",
        "cause_of_leaving": "discharged",
        "sign_with_mark": "n",
        "notes": "blk"
    },
    {
        "id": "vtls004953614_1_17",
        "type": "sailor",
        "parent": "vtls004953614",
        "name": "george williams",
        "dob": "blk",
        "age": "16",
        "place_of_birth": "newquay",
        "home_address": "blk",
        "f": "blk",
        "name_of_ship": "margaret",
        "ship_port": "aberystwyth",
        "date_leaving": "1878",
        "joined_ship_date": "1878-04-23",
        "joined_at_port": "swansea",
        "capacity": "ordinary seaman",
        "date_left": "1878-09-15",
        "left_port": "liverpool",
        "cause_of_leaving": "discharged",
        "sign_with_mark": "n",
        "notes": "blk"
    },
    {
        "id": "vtls004953614_1_14",
        "type": "sailor",
        "parent": "vtls004953614",
        "name": "john rowlands",
        "dob": "blk",
        "age": "23",
        "place_of_birth": "dinas cross",
        "home_address": "blk",
        "f": "blk",
        "name_of_ship": "hampshore",
        "ship_port": "swansea",
        "date_leaving": "1877",
        "joined_ship_date": "1878-04-23",
        "joined_at_port": "swansea",
        "capacity": "able seaman",
        "date_left": "1878-09-15",
        "left_port": "liverpool",
        "cause_of_leaving": "discharged",
        "sign_with_mark": "n",
        "notes": "blk"
    },
    {
        "id": "vtls004953614_1_15",
        "type": "sailor",
        "parent": "vtls004953614",
        "name": "william roach",
        "dob": "blk",
        "age": "24",
        "place_of_birth": "soha",
        "home_address": "blk",
        "f": "blk",
        "name_of_ship": "devonshire",
        "ship_port": "llanelly",
        "date_leaving": "1878",
        "joined_ship_date": "1878-04-23",
        "joined_at_port": "swansea",
        "capacity": "able seaman",
        "date_left": "1878-08-22",
        "left_port": "hamburg, germany",
        "cause_of_leaving": "discharged",
        "sign_with_mark": "n",
        "notes": "blk"
    },
    {
        "id": "vtls004953614_1_12",
        "type": "sailor",
        "parent": "vtls004953614",
        "name": "james mathias",
        "dob": "blk",
        "age": "38",
        "place_of_birth": "cardigan",
        "home_address": "blk",
        "f": "blk",
        "name_of_ship": "resolven",
        "ship_port": "aberystwyth",
        "date_leaving": "1878",
        "joined_ship_date": "1878-04-23",
        "joined_at_port": "swansea",
        "capacity": "mate",
        "date_left": "1878-09-15",
        "left_port": "liverpool",
        "cause_of_leaving": "discharged",
        "sign_with_mark": "n",
        "notes": "blk"
    },
    {
        "id": "vtls004953614_2_12",
        "type": "sailor",
        "parent": "vtls004953614",
        "name": "james mathias",
        "dob": "blk",
        "age": "37",
        "place_of_birth": "cardigan",
        "home_address": "blk",
        "f": "blk",
        "name_of_ship": "resolven",
        "ship_port": "aberystwyth",
        "date_leaving": "1878",
        "joined_ship_date": "1878-10-12",
        "joined_at_port": "liverpool",
        "capacity": "mate",
        "date_left": "1878-12-31",
        "left_port": "liverpool",
        "cause_of_leaving": "discharged",
        "sign_with_mark": "n",
        "notes": "blk"
    },
    {
        "id": "vtls004953614_1_18",
        "type": "sailor",
        "parent": "vtls004953614",
        "name": "carl jones",
        "dob": "blk",
        "age": "20",
        "place_of_birth": "hamburg",
        "home_address": "blk",
        "f": "blk",
        "name_of_ship": "blk",
        "ship_port": "blk",
        "date_leaving": "1878",
        "joined_ship_date": "1878-08-26",
        "joined_at_port": "hamburg",
        "capacity": "cook & steward",
        "date_left": "1878-09-15",
        "left_port": "liverpool",
        "cause_of_leaving": "discharged",
        "sign_with_mark": "n",
        "notes": "blk"
    },
    {
        "id": "vtls004953614_2_11",
        "type": "sailor",
        "parent": "vtls004953614",
        "name": "john james",
        "dob": "blk",
        "age": "37",
        "place_of_birth": "newquay",
        "home_address": "blk",
        "f": "blk",
        "name_of_ship": "resolven",
        "ship_port": "aberystwyth",
        "date_leaving": "1878",
        "joined_ship_date": "blk",
        "joined_at_port": "blk",
        "capacity": "master",
        "date_left": "1878-12-31",
        "left_port": "liverpool",
        "cause_of_leaving": "remains on board",
        "sign_with_mark": "n",
        "notes": "blk"
    },
    {
        "id": "vtls004953614_1_11",
        "type": "sailor",
        "parent": "vtls004953614",
        "name": "john james",
        "dob": "blk",
        "age": "37",
        "place_of_birth": "newquay",
        "home_address": "blk",
        "f": "blk",
        "name_of_ship": "resolven",
        "ship_port": "aberystwyth",
        "date_leaving": "1878",
        "joined_ship_date": "1878-04-23",
        "joined_at_port": "swansea",
        "capacity": "master",
        "date_left": "blk",
        "left_port": "blk",
        "cause_of_leaving": "remains on board",
        "sign_with_mark": "n",
        "notes": "blk"
    },
    {
        "id": "vtls004953614_2_16",
        "type": "sailor",
        "parent": "vtls004953614",
        "name": "william blake",
        "dob": "blk",
        "age": "17",
        "place_of_birth": "birkenhead",
        "home_address": "blk",
        "f": "blk",
        "name_of_ship": "city of antwerp",
        "ship_port": "liverpool",
        "date_leaving": "1878",
        "joined_ship_date": "1878-10-12",
        "joined_at_port": "liverpool",
        "capacity": "ordinary seaman",
        "date_left": "1878-12-31",
        "left_port": "liverpool",
        "cause_of_leaving": "discharged",
        "sign_with_mark": "n",
        "notes": "blk"
    },
    {
        "id": "vtls004953638_0_11",
        "type": "sailor",
        "parent": "vtls004953638",
        "name": "john james",
        "dob": "1841",
        "age": "blk",
        "place_of_birth": "newquay",
        "home_address": "blk",
        "f": "blk",
        "name_of_ship": "resolven",
        "ship_port": "aberystwyth",
        "date_leaving": "1879",
        "joined_ship_date": "1879-10-16",
        "joined_at_port": "swansea",
        "capacity": "master",
        "date_left": "1880-03-31",
        "left_port": "dublin",
        "cause_of_leaving": "remains on board",
        "sign_with_mark": "n",
        "notes": "blk"
    },
    {
        "id": "vtls004953614_2_17",
        "type": "sailor",
        "parent": "vtls004953614",
        "name": "john jones",
        "dob": "blk",
        "age": "22",
        "place_of_birth": "llandudno",
        "home_address": "blk",
        "f": "blk",
        "name_of_ship": "hindu",
        "ship_port": "swansea",
        "date_leaving": "1878",
        "joined_ship_date": "1878-10-12",
        "joined_at_port": "liverpool",
        "capacity": "ordinary seaman",
        "date_left": "1878-12-31",
        "left_port": "liverpool",
        "cause_of_leaving": "discharged",
        "sign_with_mark": "n",
        "notes": "blk"
    },
    {
        "id": "vtls004953614_2_15",
        "type": "sailor",
        "parent": "vtls004953614",
        "name": "robert jones",
        "dob": "blk",
        "age": "22",
        "place_of_birth": "llandudno",
        "home_address": "blk",
        "f": "blk",
        "name_of_ship": "lorley",
        "ship_port": "london",
        "date_leaving": "1878",
        "joined_ship_date": "1878-10-12",
        "joined_at_port": "liverpool",
        "capacity": "able seaman",
        "date_left": "1878-12-31",
        "left_port": "liverpool",
        "cause_of_leaving": "discharged",
        "sign_with_mark": "n",
        "notes": "blk"
    },
    {
        "id": "vtls004953638_0_12",
        "type": "sailor",
        "parent": "vtls004953638",
        "name": "james mathias",
        "dob": "1840",
        "age": "blk",
        "place_of_birth": "cardigan",
        "home_address": "blk",
        "f": "blk",
        "name_of_ship": "resolven",
        "ship_port": "aberystwyth",
        "date_leaving": "1879",
        "joined_ship_date": "1879-10-17",
        "joined_at_port": "swansea",
        "capacity": "mate",
        "date_left": "1880-03-31",
        "left_port": "dublin",
        "cause_of_leaving": "discharged",
        "sign_with_mark": "n",
        "notes": "blk"
    },
    {
        "id": "vtls004953614_2_14",
        "type": "sailor",
        "parent": "vtls004953614",
        "name": "edwin roberts",
        "dob": "blk",
        "age": "22",
        "place_of_birth": "conway",
        "home_address": "blk",
        "f": "blk",
        "name_of_ship": "emma",
        "ship_port": "livepool",
        "date_leaving": "1878",
        "joined_ship_date": "1878-10-12",
        "joined_at_port": "liverpool",
        "capacity": "able seaman",
        "date_left": "1878-12-31",
        "left_port": "liverpool",
        "cause_of_leaving": "discharged",
        "sign_with_mark": "n",
        "notes": "blk"
    },
    {
        "id": "vtls004953614_2_13",
        "type": "sailor",
        "parent": "vtls004953614",
        "name": "lawrence crowther",
        "dob": "blk",
        "age": "17",
        "place_of_birth": "burnley",
        "home_address": "blk",
        "f": "blk",
        "name_of_ship": "elizabeth",
        "ship_port": "blk",
        "date_leaving": "1878",
        "joined_ship_date": "1878-10-12",
        "joined_at_port": "liverpool",
        "capacity": "cook",
        "date_left": "1878-12-31",
        "left_port": "liverpool",
        "cause_of_leaving": "discharged",
        "sign_with_mark": "n",
        "notes": "blk"
    },
    {
        "id": "vtls004953638_0_13",
        "type": "sailor",
        "parent": "vtls004953638",
        "name": "enoch john",
        "dob": "1846",
        "age": "blk",
        "place_of_birth": "fishguard",
        "home_address": "blk",
        "f": "blk",
        "name_of_ship": "distance",
        "ship_port": "swansea",
        "date_leaving": "1879",
        "joined_ship_date": "1879-10-18",
        "joined_at_port": "swansea",
        "capacity": "cook & steward",
        "date_left": "1879-12-15",
        "left_port": "catania",
        "cause_of_leaving": "illness",
        "sign_with_mark": "n",
        "notes": "rheumatic pains, left in hospital"
    },
    {
        "id": "vtls004953638_0_16",
        "type": "sailor",
        "parent": "vtls004953638",
        "name": "philip griffiths",
        "dob": "1863",
        "age": "blk",
        "place_of_birth": "morieton",
        "home_address": "blk",
        "f": "blk",
        "name_of_ship": "isabella",
        "ship_port": "swansea",
        "date_leaving": "1879",
        "joined_ship_date": "1879-10-21",
        "joined_at_port": "swansea",
        "capacity": "ordinary seaman",
        "date_left": "1880-03-31",
        "left_port": "dublin",
        "cause_of_leaving": "discharged",
        "sign_with_mark": "n",
        "notes": "blk"
    },
    {
        "id": "vtls004953638_0_14",
        "type": "sailor",
        "parent": "vtls004953638",
        "name": "david d davies",
        "dob": "1857",
        "age": "blk",
        "place_of_birth": "newquay",
        "home_address": "blk",
        "f": "blk",
        "name_of_ship": "ann & mary",
        "ship_port": "aberystwyth",
        "date_leaving": "1879",
        "joined_ship_date": "1879-10-19",
        "joined_at_port": "swansea",
        "capacity": "able seaman",
        "date_left": "1880-03-31",
        "left_port": "dublin",
        "cause_of_leaving": "discharged",
        "sign_with_mark": "n",
        "notes": "blk"
    },
    {
        "id": "vtls004953638_0_15",
        "type": "sailor",
        "parent": "vtls004953638",
        "name": "william evans",
        "dob": "1856",
        "age": "blk",
        "place_of_birth": "llanarth",
        "home_address": "blk",
        "f": "blk",
        "name_of_ship": "glenndal",
        "ship_port": "swansea",
        "date_leaving": "1879",
        "joined_ship_date": "1879-10-20",
        "joined_at_port": "swansea",
        "capacity": "ordinary seaman",
        "date_left": "1880-03-31",
        "left_port": "dublin",
        "cause_of_leaving": "discharged",
        "sign_with_mark": "n",
        "notes": "blk"
    },
    {
        "id": "vtls004953638_1_14",
        "type": "sailor",
        "parent": "vtls004953638",
        "name": "david d davies",
        "dob": "1865",
        "age": "blk",
        "place_of_birth": "newquay",
        "home_address": "blk",
        "f": "blk",
        "name_of_ship": "resolven",
        "ship_port": "aberystwyth",
        "date_leaving": "1880",
        "joined_ship_date": "1880-04-27",
        "joined_at_port": "swansea",
        "capacity": "able seaman",
        "date_left": "1880-09-25",
        "left_port": "london",
        "cause_of_leaving": "discharged",
        "sign_with_mark": "n",
        "notes": "blk"
    },
    {
        "id": "vtls004953638_1_13",
        "type": "sailor",
        "parent": "vtls004953638",
        "name": "david evans",
        "dob": "1862",
        "age": "blk",
        "place_of_birth": "newquay",
        "home_address": "blk",
        "f": "blk",
        "name_of_ship": "retriever",
        "ship_port": "newquay",
        "date_leaving": "1880",
        "joined_ship_date": "1880-04-27",
        "joined_at_port": "swansea",
        "capacity": "cook & steward",
        "date_left": "1880-09-25",
        "left_port": "london",
        "cause_of_leaving": "discharged",
        "sign_with_mark": "n",
        "notes": "blk"
    },
    {
        "id": "vtls004953638_1_12",
        "type": "sailor",
        "parent": "vtls004953638",
        "name": "james mathias",
        "dob": "1840",
        "age": "blk",
        "place_of_birth": "kilgerran",
        "home_address": "blk",
        "f": "blk",
        "name_of_ship": "resolven",
        "ship_port": "aberystwyth",
        "date_leaving": "1880",
        "joined_ship_date": "1880-04-27",
        "joined_at_port": "swansea",
        "capacity": "mate",
        "date_left": "1880-09-25",
        "left_port": "london",
        "cause_of_leaving": "discharged",
        "sign_with_mark": "n",
        "notes": "blk"
    },
    {
        "id": "vtls004953638_0_17",
        "type": "sailor",
        "parent": "vtls004953638",
        "name": "thomas murphy",
        "dob": "blk",
        "age": "32",
        "place_of_birth": "dublin",
        "home_address": "blk",
        "f": "blk",
        "name_of_ship": "village belle",
        "ship_port": "blk",
        "date_leaving": "1879",
        "joined_ship_date": "1880-01-13",
        "joined_at_port": "smyrna",
        "capacity": "able seaman",
        "date_left": "1880-03-31",
        "left_port": "dublin",
        "cause_of_leaving": "discharged",
        "sign_with_mark": "n",
        "notes": "blk"
    },
    {
        "id": "vtls004953638_1_15",
        "type": "sailor",
        "parent": "vtls004953638",
        "name": "lewis jones",
        "dob": "1863",
        "age": "blk",
        "place_of_birth": "newquay",
        "home_address": "blk",
        "f": "blk",
        "name_of_ship": "annie",
        "ship_port": "swansea",
        "date_leaving": "1880",
        "joined_ship_date": "1880-04-27",
        "joined_at_port": "swansea",
        "capacity": "able seaman",
        "date_left": "1880-09-25",
        "left_port": "london",
        "cause_of_leaving": "discharged",
        "sign_with_mark": "n",
        "notes": "blk"
    },
    {
        "id": "vtls004953638_1_11",
        "type": "sailor",
        "parent": "vtls004953638",
        "name": "john james",
        "dob": "1841",
        "age": "blk",
        "place_of_birth": "newquay",
        "home_address": "blk",
        "f": "blk",
        "name_of_ship": "resolven",
        "ship_port": "aberystwyth",
        "date_leaving": "1880",
        "joined_ship_date": "1880-04-27",
        "joined_at_port": "swansea",
        "capacity": "master",
        "date_left": "blk",
        "left_port": "blk",
        "cause_of_leaving": "remains on board",
        "sign_with_mark": "n",
        "notes": "blk"
    },
    {
        "id": "vtls004953702_0_17",
        "type": "sailor",
        "parent": "vtls004953702",
        "name": "george stornberg",
        "dob": "blk",
        "age": "25",
        "place_of_birth": "amsterdam",
        "home_address": "blk",
        "f": "blk",
        "name_of_ship": "blk",
        "ship_port": "blk",
        "date_leaving": "1882",
        "joined_ship_date": "1882-03-18",
        "joined_at_port": "monte video",
        "capacity": "ordinary seaman",
        "date_left": "1882-07-28",
        "left_port": "new york",
        "cause_of_leaving": "deserted",
        "sign_with_mark": "y",
        "notes": "previously served on french vessel"
    },
    {
        "id": "vtls004953702_0_16",
        "type": "sailor",
        "parent": "vtls004953702",
        "name": "george garmody",
        "dob": "1865",
        "age": "blk",
        "place_of_birth": "portsmouth",
        "home_address": "blk",
        "f": "blk",
        "name_of_ship": "bessie morns",
        "ship_port": "london",
        "date_leaving": "1881",
        "joined_ship_date": "1881-12-03",
        "joined_at_port": "swansea",
        "capacity": "ordinary seaman",
        "date_left": "1883-02-13",
        "left_port": "goole",
        "cause_of_leaving": "discharged",
        "sign_with_mark": "n",
        "notes": "blk"
    },
    {
        "id": "vtls004953702_0_14",
        "type": "sailor",
        "parent": "vtls004953702",
        "name": "thomas lewis",
        "dob": "1819",
        "age": "blk",
        "place_of_birth": "st dogmaels",
        "home_address": "blk",
        "f": "blk",
        "name_of_ship": "montague",
        "ship_port": "llanelly",
        "date_leaving": "1881",
        "joined_ship_date": "1881-10-29",
        "joined_at_port": "swansea",
        "capacity": "cook & steward",
        "date_left": "1882-08-03",
        "left_port": "new york",
        "cause_of_leaving": "deserted",
        "sign_with_mark": "n",
        "notes": "blk"
    },
    {
        "id": "vtls004953702_0_15",
        "type": "sailor",
        "parent": "vtls004953702",
        "name": "samuel reaney",
        "dob": "1857",
        "age": "blk",
        "place_of_birth": "bristol",
        "home_address": "blk",
        "f": "blk",
        "name_of_ship": "georgina",
        "ship_port": "swansea",
        "date_leaving": "1881",
        "joined_ship_date": "1881-10-31",
        "joined_at_port": "swansea",
        "capacity": "able seaman",
        "date_left": "1882-03-17",
        "left_port": "monte video",
        "cause_of_leaving": "deserted",
        "sign_with_mark": "n",
        "notes": "blk"
    },
    {
        "id": "vtls004953702_0_12",
        "type": "sailor",
        "parent": "vtls004953702",
        "name": "james mathias",
        "dob": "1840",
        "age": "blk",
        "place_of_birth": "kilgerran",
        "home_address": "blk",
        "f": "blk",
        "name_of_ship": "resolven",
        "ship_port": "aberystwyth",
        "date_leaving": "1881",
        "joined_ship_date": "1881-10-27",
        "joined_at_port": "swansea",
        "capacity": "mate",
        "date_left": "1883-02-28",
        "left_port": "goole",
        "cause_of_leaving": "discharged",
        "sign_with_mark": "n",
        "notes": "blk"
    },
    {
        "id": "vtls004953702_0_13",
        "type": "sailor",
        "parent": "vtls004953702",
        "name": "thomas evans",
        "dob": "1862",
        "age": "blk",
        "place_of_birth": "newquay",
        "home_address": "blk",
        "f": "blk",
        "name_of_ship": "nellie",
        "ship_port": "swansea",
        "date_leaving": "1881",
        "joined_ship_date": "1881-10-27",
        "joined_at_port": "swansea",
        "capacity": "boatswain",
        "date_left": "1883-02-28",
        "left_port": "goole",
        "cause_of_leaving": "discharged",
        "sign_with_mark": "n",
        "notes": "blk"
    },
    {
        "id": "vtls004953702_0_11",
        "type": "sailor",
        "parent": "vtls004953702",
        "name": "john james",
        "dob": "1841",
        "age": "blk",
        "place_of_birth": "newquay",
        "home_address": "blk",
        "f": "blk",
        "name_of_ship": "resolven",
        "ship_port": "aberystwyth",
        "date_leaving": "1881",
        "joined_ship_date": "1881-10-27",
        "joined_at_port": "swansea",
        "capacity": "master",
        "date_left": "blk",
        "left_port": "blk",
        "cause_of_leaving": "remains on board",
        "sign_with_mark": "n",
        "notes": "blk"
    },
    {
        "id": "vtls004953702_0_27",
        "type": "sailor",
        "parent": "vtls004953702",
        "name": "william whitlow",
        "dob": "1863",
        "age": "blk",
        "place_of_birth": "blk",
        "home_address": "blk",
        "f": "blk",
        "name_of_ship": "blk",
        "ship_port": "blk",
        "date_leaving": "blk",
        "joined_ship_date": "blk",
        "joined_at_port": "blk",
        "capacity": "apprentice",
        "date_left": "1881-12-05",
        "left_port": "swansea",
        "cause_of_leaving": "discharged",
        "sign_with_mark": "n",
        "notes": "discharged sick, identure cancelled.  registry of identure swansea 1879-03-26"
    },
    {
        "id": "vtls004953702_0_19",
        "type": "sailor",
        "parent": "vtls004953702",
        "name": "james miller",
        "dob": "blk",
        "age": "18",
        "place_of_birth": "rockland",
        "home_address": "blk",
        "f": "blk",
        "name_of_ship": "blk",
        "ship_port": "blk",
        "date_leaving": "1882",
        "joined_ship_date": "1882-08-09",
        "joined_at_port": "new york",
        "capacity": "ordinary seaman",
        "date_left": "1882-10-02",
        "left_port": "genoa",
        "cause_of_leaving": "deserted",
        "sign_with_mark": "n",
        "notes": "previously served on american vessel"
    },
    {
        "id": "vtls004953702_0_21",
        "type": "sailor",
        "parent": "vtls004953702",
        "name": "emil yeastenbergen",
        "dob": "blk",
        "age": "24",
        "place_of_birth": "germany",
        "home_address": "blk",
        "f": "blk",
        "name_of_ship": "city of berlin",
        "ship_port": "liverpool",
        "date_leaving": "1882",
        "joined_ship_date": "1882-08-14",
        "joined_at_port": "new york",
        "capacity": "cook & steward",
        "date_left": "1882-10-02",
        "left_port": "genoa",
        "cause_of_leaving": "deserted",
        "sign_with_mark": "n",
        "notes": "blk"
    },
    {
        "id": "vtls004953702_0_25",
        "type": "sailor",
        "parent": "vtls004953702",
        "name": "james fitzpatrick",
        "dob": "blk",
        "age": "38",
        "place_of_birth": "shetland",
        "home_address": "blk",
        "f": "blk",
        "name_of_ship": "blk",
        "ship_port": "blk",
        "date_leaving": "1882",
        "joined_ship_date": "1882-10-07",
        "joined_at_port": "genoa, italy",
        "capacity": "able seaman",
        "date_left": "1883-02-13",
        "left_port": "goole",
        "cause_of_leaving": "discharged",
        "sign_with_mark": "n",
        "notes": "previously served on swedish vessel"
    },
    {
        "id": "vtls004953702_0_20",
        "type": "sailor",
        "parent": "vtls004953702",
        "name": "john j hogan",
        "dob": "blk",
        "age": "21",
        "place_of_birth": "alabama",
        "home_address": "blk",
        "f": "blk",
        "name_of_ship": "otago",
        "ship_port": "yarmouth, ns",
        "date_leaving": "1882",
        "joined_ship_date": "1882-08-09",
        "joined_at_port": "new york",
        "capacity": "ordinary seaman",
        "date_left": "blk",
        "left_port": "blk",
        "cause_of_leaving": "never joined",
        "sign_with_mark": "n",
        "notes": "deserted after clearance"
    },
    {
        "id": "vtls004953702_0_22",
        "type": "sailor",
        "parent": "vtls004953702",
        "name": "george werner",
        "dob": "blk",
        "age": "28",
        "place_of_birth": "germany",
        "home_address": "blk",
        "f": "blk",
        "name_of_ship": "blk",
        "ship_port": "blk",
        "date_leaving": "1882",
        "joined_ship_date": "1882-08-15",
        "joined_at_port": "new york",
        "capacity": "ordinary seaman",
        "date_left": "1882-10-02",
        "left_port": "genoa",
        "cause_of_leaving": "deserted",
        "sign_with_mark": "n",
        "notes": "previously served on german vessel"
    },
    {
        "id": "vtls004953702_0_24",
        "type": "sailor",
        "parent": "vtls004953702",
        "name": "thomas underwood",
        "dob": "blk",
        "age": "37",
        "place_of_birth": "poole",
        "home_address": "blk",
        "f": "blk",
        "name_of_ship": "blk",
        "ship_port": "blk",
        "date_leaving": "1882",
        "joined_ship_date": "1882-10-07",
        "joined_at_port": "genoa, italy",
        "capacity": "able seaman",
        "date_left": "1883-02-13",
        "left_port": "goole",
        "cause_of_leaving": "discharged",
        "sign_with_mark": "n",
        "notes": "previously served on [ailfian] steamer"
    },
    {
        "id": "vtls004953702_0_26",
        "type": "sailor",
        "parent": "vtls004953702",
        "name": "frederick allen",
        "dob": "1864",
        "age": "blk",
        "place_of_birth": "blk",
        "home_address": "blk",
        "f": "blk",
        "name_of_ship": "blk",
        "ship_port": "blk",
        "date_leaving": "blk",
        "joined_ship_date": "blk",
        "joined_at_port": "blk",
        "capacity": "apprentice",
        "date_left": "1882-03-17",
        "left_port": "monte video",
        "cause_of_leaving": "deserted",
        "sign_with_mark": "n",
        "notes": "registry of identure swansea 1880-04-28"
    },
    {
        "id": "vtls004953702_0_23",
        "type": "sailor",
        "parent": "vtls004953702",
        "name": "john brown",
        "dob": "blk",
        "age": "27",
        "place_of_birth": "glasgow",
        "home_address": "blk",
        "f": "blk",
        "name_of_ship": "valhalla",
        "ship_port": "n. hartlepool",
        "date_leaving": "1882",
        "joined_ship_date": "1882-10-07",
        "joined_at_port": "genoa, italy",
        "capacity": "cook & steward",
        "date_left": "1883-02-13",
        "left_port": "goole",
        "cause_of_leaving": "discharged",
        "sign_with_mark": "n",
        "notes": "blk"
    },
    {
        "id": "vtls004953702_0_18",
        "type": "sailor",
        "parent": "vtls004953702",
        "name": "edward ogden",
        "dob": "blk",
        "age": "19",
        "place_of_birth": "troy, us",
        "home_address": "blk",
        "f": "blk",
        "name_of_ship": "clarence",
        "ship_port": "blk",
        "date_leaving": "1882",
        "joined_ship_date": "1882-03-18",
        "joined_at_port": "monte video",
        "capacity": "ordinary seaman",
        "date_left": "1882-07-28",
        "left_port": "new york",
        "cause_of_leaving": "deserted",
        "sign_with_mark": "y",
        "notes": "blk"
    },
    {
        "id": "vtls004953702_1_11",
        "type": "sailor",
        "parent": "vtls004953702",
        "name": "john james",
        "dob": "1841",
        "age": "blk",
        "place_of_birth": "newquay",
        "home_address": "blk",
        "f": "blk",
        "name_of_ship": "resolven",
        "ship_port": "aberystwyth",
        "date_leaving": "1883",
        "joined_ship_date": "1883-04-20",
        "joined_at_port": "swansea",
        "capacity": "master",
        "date_left": "1883-12-21",
        "left_port": "swansea",
        "cause_of_leaving": "remains on board",
        "sign_with_mark": "n",
        "notes": "master certificate no: 28749"
    },
    {
        "id": "vtls004953702_1_14",
        "type": "sailor",
        "parent": "vtls004953702",
        "name": "thomas john coles",
        "dob": "1866",
        "age": "blk",
        "place_of_birth": "swansea",
        "home_address": "blk",
        "f": "blk",
        "name_of_ship": "frau minna peterson",
        "ship_port": "caernarfon",
        "date_leaving": "1883",
        "joined_ship_date": "1883-04-20",
        "joined_at_port": "swansea",
        "capacity": "cook & steward",
        "date_left": "1883-10-30",
        "left_port": "hamburg, germany",
        "cause_of_leaving": "discharged",
        "sign_with_mark": "n",
        "notes": "blk"
    },
    {
        "id": "vtls004953702_1_17",
        "type": "sailor",
        "parent": "vtls004953702",
        "name": "johann mattekat",
        "dob": "1864",
        "age": "blk",
        "place_of_birth": "shoenigberg",
        "home_address": "blk",
        "f": "blk",
        "name_of_ship": "foreign ship",
        "ship_port": "blk",
        "date_leaving": "1883",
        "joined_ship_date": "1883-11-10",
        "joined_at_port": "hamburg",
        "capacity": "cook & ordinary seaman",
        "date_left": "1883-10-21",
        "left_port": "swansea",
        "cause_of_leaving": "discharged",
        "sign_with_mark": "n",
        "notes": "blk"
    },
    {
        "id": "vtls004953702_1_12",
        "type": "sailor",
        "parent": "vtls004953702",
        "name": "james mathias",
        "dob": "1840",
        "age": "blk",
        "place_of_birth": "cardigan",
        "home_address": "blk",
        "f": "blk",
        "name_of_ship": "resolven",
        "ship_port": "aberystwyth",
        "date_leaving": "1883",
        "joined_ship_date": "1883-04-20",
        "joined_at_port": "swansea",
        "capacity": "mate",
        "date_left": "1883-12-21",
        "left_port": "swansea",
        "cause_of_leaving": "discharged",
        "sign_with_mark": "n",
        "notes": "mate certificate no: 34986"
    },
    {
        "id": "vtls004953702_1_16",
        "type": "sailor",
        "parent": "vtls004953702",
        "name": "john evans",
        "dob": "1866",
        "age": "blk",
        "place_of_birth": "llangranog",
        "home_address": "blk",
        "f": "blk",
        "name_of_ship": "adrienne",
        "ship_port": "aberystwyth",
        "date_leaving": "1883",
        "joined_ship_date": "1883-04-20",
        "joined_at_port": "swansea",
        "capacity": "ordinary seaman",
        "date_left": "1883-10-30",
        "left_port": "hamburg, germany",
        "cause_of_leaving": "discharged",
        "sign_with_mark": "n",
        "notes": "blk"
    },
    {
        "id": "vtls004953702_1_13",
        "type": "sailor",
        "parent": "vtls004953702",
        "name": "owen harris",
        "dob": "1845",
        "age": "blk",
        "place_of_birth": "newport, mon.",
        "home_address": "blk",
        "f": "blk",
        "name_of_ship": "dreadnought",
        "ship_port": "aberystwyth",
        "date_leaving": "1883",
        "joined_ship_date": "1883-04-21",
        "joined_at_port": "swansea",
        "capacity": "boatswain",
        "date_left": "1883-12-21",
        "left_port": "swansea",
        "cause_of_leaving": "discharged",
        "sign_with_mark": "y",
        "notes": "blk"
    },
    {
        "id": "vtls004953702_1_15",
        "type": "sailor",
        "parent": "vtls004953702",
        "name": "william rae",
        "dob": "1864",
        "age": "blk",
        "place_of_birth": "london",
        "home_address": "blk",
        "f": "blk",
        "name_of_ship": "vivid",
        "ship_port": "teignmouth",
        "date_leaving": "1883",
        "joined_ship_date": "1883-04-20",
        "joined_at_port": "swansea",
        "capacity": "ordinary seaman",
        "date_left": "1883-12-21",
        "left_port": "swansea",
        "cause_of_leaving": "discharged",
        "sign_with_mark": "n",
        "notes": "blk"
    },
    {
        "id": "vtls004953702_1_18",
        "type": "sailor",
        "parent": "vtls004953702",
        "name": "h jansen",
        "dob": "1854",
        "age": "blk",
        "place_of_birth": "norway",
        "home_address": "blk",
        "f": "blk",
        "name_of_ship": "foreign ship",
        "ship_port": "blk",
        "date_leaving": "1883",
        "joined_ship_date": "1883-11-10",
        "joined_at_port": "hamburg",
        "capacity": "able seaman",
        "date_left": "1883-10-21",
        "left_port": "swansea",
        "cause_of_leaving": "discharged",
        "sign_with_mark": "n",
        "notes": "blk"
    },
    {
        "id": "vtls004953702_1_19",
        "type": "sailor",
        "parent": "vtls004953702",
        "name": "evan thomas",
        "dob": "1868",
        "age": "blk",
        "place_of_birth": "blk",
        "home_address": "blk",
        "f": "blk",
        "name_of_ship": "blk",
        "ship_port": "blk",
        "date_leaving": "blk",
        "joined_ship_date": "blk",
        "joined_at_port": "blk",
        "capacity": "apprentice",
        "date_left": "blk",
        "left_port": "blk",
        "cause_of_leaving": "blk",
        "sign_with_mark": "n",
        "notes": "registry of identure swansea 1883-04-20"
    },
    {
        "id": "vtls004953702_2_12",
        "type": "sailor",
        "parent": "vtls004953702",
        "name": "james mathias",
        "dob": "1840",
        "age": "blk",
        "place_of_birth": "cardigan",
        "home_address": "blk",
        "f": "blk",
        "name_of_ship": "resolven",
        "ship_port": "aberystwyth",
        "date_leaving": "1884",
        "joined_ship_date": "1884-02-07",
        "joined_at_port": "swansea",
        "capacity": "mate",
        "date_left": "1884-08-28",
        "left_port": "on coast of labrador",
        "cause_of_leaving": "supposed drowned",
        "sign_with_mark": "n",
        "notes": "mate certificate no. 34986. vessel lost on coast of labrador 1884-08-28."
    },
    {
        "id": "vtls004953702_2_11",
        "type": "sailor",
        "parent": "vtls004953702",
        "name": "john james",
        "dob": "1841",
        "age": "blk",
        "place_of_birth": "newquay",
        "home_address": "blk",
        "f": "blk",
        "name_of_ship": "resolven",
        "ship_port": "aberystwyth",
        "date_leaving": "1884",
        "joined_ship_date": "1884-02-07",
        "joined_at_port": "swansea",
        "capacity": "master",
        "date_left": "1884-08-28",
        "left_port": "on coast of labrador",
        "cause_of_leaving": "supposed drowned",
        "sign_with_mark": "n",
        "notes": "master certificate no. 28749. vessel lost on coast of labrador 1884-08-28."
    },
    {
        "id": "vtls004953702_2_18",
        "type": "sailor",
        "parent": "vtls004953702",
        "name": "george nathan",
        "dob": "1849",
        "age": "blk",
        "place_of_birth": "fishguard",
        "home_address": "blk",
        "f": "blk",
        "name_of_ship": "crusader",
        "ship_port": "aberystwyth",
        "date_leaving": "1884",
        "joined_ship_date": "1884-02-27",
        "joined_at_port": "swansea",
        "capacity": "able seaman",
        "date_left": "1884-08-28",
        "left_port": "on coast of labrador",
        "cause_of_leaving": "supposed drowned",
        "sign_with_mark": "n",
        "notes": "vessel lost on coast of labrador 1884-08-28."
    },
    {
        "id": "vtls004953702_2_15",
        "type": "sailor",
        "parent": "vtls004953702",
        "name": "thomas richards",
        "dob": "1864",
        "age": "blk",
        "place_of_birth": "newquay",
        "home_address": "blk",
        "f": "blk",
        "name_of_ship": "beeswing",
        "ship_port": "london",
        "date_leaving": "1884",
        "joined_ship_date": "1884-02-07",
        "joined_at_port": "swansea",
        "capacity": "ordinary seaman",
        "date_left": "1884-08-28",
        "left_port": "on coast of labrador",
        "cause_of_leaving": "supposed drowned",
        "sign_with_mark": "n",
        "notes": "vessel lost on coast of labrador 1884-08-28."
    },
    {
        "id": "vtls004953702_2_14",
        "type": "sailor",
        "parent": "vtls004953702",
        "name": "john jones",
        "dob": "1858",
        "age": "blk",
        "place_of_birth": "swansea",
        "home_address": "blk",
        "f": "blk",
        "name_of_ship": "dorset",
        "ship_port": "bridport",
        "date_leaving": "1884",
        "joined_ship_date": "1884-02-07",
        "joined_at_port": "swansea",
        "capacity": "cook & steward",
        "date_left": "1884-08-28",
        "left_port": "on coast of labrador",
        "cause_of_leaving": "supposed drowned",
        "sign_with_mark": "n",
        "notes": "vessel lost on coast of labrador 1884-08-28."
    },
    {
        "id": "vtls004953702_2_17",
        "type": "sailor",
        "parent": "vtls004953702",
        "name": "rd downs",
        "dob": "1865",
        "age": "blk",
        "place_of_birth": "bury",
        "home_address": "blk",
        "f": "blk",
        "name_of_ship": "wellington",
        "ship_port": "whitby",
        "date_leaving": "1884",
        "joined_ship_date": "1884-02-20",
        "joined_at_port": "swansea",
        "capacity": "ordinary seaman",
        "date_left": "1884-08-28",
        "left_port": "on coast of labrador",
        "cause_of_leaving": "supposed drowned",
        "sign_with_mark": "n",
        "notes": "vessel lost on coast of labrador 1884-08-28."
    },
    {
        "id": "vtls004953702_2_16",
        "type": "sailor",
        "parent": "vtls004953702",
        "name": "henry constable",
        "dob": "1865",
        "age": "blk",
        "place_of_birth": "llanelli",
        "home_address": "blk",
        "f": "blk",
        "name_of_ship": "bheinn bharain",
        "ship_port": "ardrossan",
        "date_leaving": "1884",
        "joined_ship_date": "1884-02-07",
        "joined_at_port": "swansea",
        "capacity": "ordinary seaman",
        "date_left": "1884-02-26",
        "left_port": "swansea",
        "cause_of_leaving": "never joined.",
        "sign_with_mark": "n",
        "notes": "blk"
    },
    {
        "id": "vtls004953702_2_13",
        "type": "sailor",
        "parent": "vtls004953702",
        "name": "owen harris",
        "dob": "1845",
        "age": "blk",
        "place_of_birth": "newport, mon.",
        "home_address": "blk",
        "f": "blk",
        "name_of_ship": "resolven",
        "ship_port": "aberystwyth",
        "date_leaving": "1884",
        "joined_ship_date": "1884-02-07",
        "joined_at_port": "swansea",
        "capacity": "boatswain",
        "date_left": "1884-02-26",
        "left_port": "swansea",
        "cause_of_leaving": "never joined.",
        "sign_with_mark": "y",
        "notes": "blk"
    },
    {
        "id": "vtls004953702_2_19",
        "type": "sailor",
        "parent": "vtls004953702",
        "name": "evan thomas",
        "dob": "1868",
        "age": "blk",
        "place_of_birth": "blk",
        "home_address": "blk",
        "f": "blk",
        "name_of_ship": "blk",
        "ship_port": "blk",
        "date_leaving": "blk",
        "joined_ship_date": "blk",
        "joined_at_port": "blk",
        "capacity": "apprentice",
        "date_left": "1884-08-28",
        "left_port": "on coast of labrador",
        "cause_of_leaving": "supposed drowned",
        "sign_with_mark": "n",
        "notes": "vessel lost on coast of labrador 1884-08-28."
    }
]