[
    {
        "id": "vtls004922339_0_13",
        "type": "sailor",
        "parent": "vtls004922339",
        "name": "william williams",
        "dob": "blk",
        "age": "45",
        "place_of_birth": "aberdovey",
        "home_address": "blk",
        "f": "blk",
        "name_of_ship": "martha & harriet",
        "ship_port": "aberystwyth",
        "date_leaving": "1874",
        "joined_ship_date": "1874-03-26",
        "joined_at_port": "workington",
        "capacity": "cook & seaman",
        "date_left": "1874-06-29",
        "left_port": "workington",
        "cause_of_leaving": "paid off",
        "sign_with_mark": "n",
        "notes": "blk"
    },
    {
        "id": "vtls004922339_0_12",
        "type": "sailor",
        "parent": "vtls004922339",
        "name": "richard griffiths",
        "dob": "blk",
        "age": "21",
        "place_of_birth": "aberdovey",
        "home_address": "blk",
        "f": "blk",
        "name_of_ship": "martha & harriet",
        "ship_port": "aberystwyth",
        "date_leaving": "1874",
        "joined_ship_date": "1874-03-26",
        "joined_at_port": "workington",
        "capacity": "mate",
        "date_left": "1874-06-29",
        "left_port": "workington",
        "cause_of_leaving": "paid off",
        "sign_with_mark": "n",
        "notes": "blk"
    },
    {
        "id": "vtls004922339_0_17",
        "type": "sailor",
        "parent": "vtls004922339",
        "name": "charles macfarlane",
        "dob": "blk",
        "age": "16",
        "place_of_birth": "rotterdam",
        "home_address": "blk",
        "f": "blk",
        "name_of_ship": "dutch ship",
        "ship_port": "blk",
        "date_leaving": "blk",
        "joined_ship_date": "1874-04-29",
        "joined_at_port": "rotterdam",
        "capacity": "ordinary seaman",
        "date_left": "1874-06-29",
        "left_port": "workington",
        "cause_of_leaving": "paid off",
        "sign_with_mark": "n",
        "notes": "blk"
    },
    {
        "id": "vtls004922339_0_14",
        "type": "sailor",
        "parent": "vtls004922339",
        "name": "john hughes",
        "dob": "blk",
        "age": "14",
        "place_of_birth": "aberdovey",
        "home_address": "blk",
        "f": "blk",
        "name_of_ship": "martha & harriet",
        "ship_port": "aberystwyth",
        "date_leaving": "1874",
        "joined_ship_date": "1874-03-26",
        "joined_at_port": "workington",
        "capacity": "boy",
        "date_left": "1874-06-29",
        "left_port": "workington",
        "cause_of_leaving": "paid off",
        "sign_with_mark": "n",
        "notes": "blk"
    },
    {
        "id": "vtls004922339_0_15",
        "type": "sailor",
        "parent": "vtls004922339",
        "name": "thomas hanson",
        "dob": "blk",
        "age": "28",
        "place_of_birth": "norway",
        "home_address": "blk",
        "f": "blk",
        "name_of_ship": "wilfred",
        "ship_port": "whitehaven",
        "date_leaving": "1874",
        "joined_ship_date": "1874-03-30",
        "joined_at_port": "workington",
        "capacity": "able seaman",
        "date_left": "1874-04-27",
        "left_port": "rotterdam",
        "cause_of_leaving": "deserted",
        "sign_with_mark": "n",
        "notes": "blk"
    },
    {
        "id": "vtls004922339_0_16",
        "type": "sailor",
        "parent": "vtls004922339",
        "name": "john fanning",
        "dob": "blk",
        "age": "26",
        "place_of_birth": "workington",
        "home_address": "blk",
        "f": "blk",
        "name_of_ship": "jason",
        "ship_port": "workington",
        "date_leaving": "1873",
        "joined_ship_date": "1874-03-30",
        "joined_at_port": "workington",
        "capacity": "boatswain",
        "date_left": "1874-04-27",
        "left_port": "rotterdam",
        "cause_of_leaving": "deserted",
        "sign_with_mark": "n",
        "notes": "blk"
    },
    {
        "id": "vtls004922339_0_11",
        "type": "sailor",
        "parent": "vtls004922339",
        "name": "richard williams",
        "dob": "blk",
        "age": "32",
        "place_of_birth": "aberdovey",
        "home_address": "blk",
        "f": "blk",
        "name_of_ship": "martha & harriet",
        "ship_port": "aberystwyth",
        "date_leaving": "1874",
        "joined_ship_date": "1874-03-26",
        "joined_at_port": "workington",
        "capacity": "master",
        "date_left": "blk",
        "left_port": "blk",
        "cause_of_leaving": "blk",
        "sign_with_mark": "n",
        "notes": "blk"
    },
    {
        "id": "vtls004922349_0_14",
        "type": "sailor",
        "parent": "vtls004922349",
        "name": "paul gemera",
        "dob": "blk",
        "age": "23",
        "place_of_birth": "mauritius",
        "home_address": "blk",
        "f": "blk",
        "name_of_ship": "swedish vessel",
        "ship_port": "blk",
        "date_leaving": "1879",
        "joined_ship_date": "1879-06-25",
        "joined_at_port": "london",
        "capacity": "cook & seaman",
        "date_left": "1879-09-02",
        "left_port": "bermuda",
        "cause_of_leaving": "discharged",
        "sign_with_mark": "n",
        "notes": "convicted by police - account in crew list"
    },
    {
        "id": "vtls004922349_0_12",
        "type": "sailor",
        "parent": "vtls004922349",
        "name": "thomas owen",
        "dob": "blk",
        "age": "40",
        "place_of_birth": "cardiganshire",
        "home_address": "blk",
        "f": "blk",
        "name_of_ship": "martha & harriet",
        "ship_port": "aberystwyth",
        "date_leaving": "1879",
        "joined_ship_date": "1879-06-25",
        "joined_at_port": "london",
        "capacity": "mate",
        "date_left": "1880-01-12",
        "left_port": "goole",
        "cause_of_leaving": "discharged",
        "sign_with_mark": "n",
        "notes": "blk"
    },
    {
        "id": "vtls004922349_0_13",
        "type": "sailor",
        "parent": "vtls004922349",
        "name": "john jones",
        "dob": "blk",
        "age": "30",
        "place_of_birth": "barmouth",
        "home_address": "blk",
        "f": "blk",
        "name_of_ship": "martha & harriet",
        "ship_port": "aberystwyth",
        "date_leaving": "1879",
        "joined_ship_date": "1879-06-25",
        "joined_at_port": "london",
        "capacity": "boatswain",
        "date_left": "1880-01-12",
        "left_port": "goole",
        "cause_of_leaving": "discharged",
        "sign_with_mark": "n",
        "notes": "blk"
    },
    {
        "id": "vtls004922349_0_15",
        "type": "sailor",
        "parent": "vtls004922349",
        "name": "olle olslen",
        "dob": "blk",
        "age": "31",
        "place_of_birth": "norway",
        "home_address": "blk",
        "f": "blk",
        "name_of_ship": "star of scotia",
        "ship_port": "belfast",
        "date_leaving": "1879",
        "joined_ship_date": "1879-06-25",
        "joined_at_port": "london",
        "capacity": "able seaman",
        "date_left": "1879-11-13",
        "left_port": "bermuda",
        "cause_of_leaving": "deserted",
        "sign_with_mark": "n",
        "notes": "blk"
    },
    {
        "id": "vtls004922349_0_17",
        "type": "sailor",
        "parent": "vtls004922349",
        "name": "jose lorro",
        "dob": "blk",
        "age": "27",
        "place_of_birth": "spain",
        "home_address": "blk",
        "f": "blk",
        "name_of_ship": "aguilla",
        "ship_port": "genoa",
        "date_leaving": "1878",
        "joined_ship_date": "1879-10-01",
        "joined_at_port": "maracaibo",
        "capacity": "able seaman",
        "date_left": "1879-12-31",
        "left_port": "falmouth",
        "cause_of_leaving": "discharged",
        "sign_with_mark": "n",
        "notes": "blk"
    },
    {
        "id": "vtls004922339_0_18",
        "type": "sailor",
        "parent": "vtls004922339",
        "name": "robert martin",
        "dob": "blk",
        "age": "42",
        "place_of_birth": "belfast",
        "home_address": "blk",
        "f": "blk",
        "name_of_ship": "leader",
        "ship_port": "blk",
        "date_leaving": "blk",
        "joined_ship_date": "1874-04-29",
        "joined_at_port": "rotterdam",
        "capacity": "able seaman",
        "date_left": "1874-06-29",
        "left_port": "workington",
        "cause_of_leaving": "paid off",
        "sign_with_mark": "n",
        "notes": "blk"
    },
    {
        "id": "vtls004922349_0_11",
        "type": "sailor",
        "parent": "vtls004922349",
        "name": "richard william",
        "dob": "blk",
        "age": "37",
        "place_of_birth": "aberdovey",
        "home_address": "blk",
        "f": "blk",
        "name_of_ship": "martha & harriet",
        "ship_port": "aberystwyth",
        "date_leaving": "blk",
        "joined_ship_date": "blk",
        "joined_at_port": "blk",
        "capacity": "master",
        "date_left": "blk",
        "left_port": "blk",
        "cause_of_leaving": "remains on board",
        "sign_with_mark": "n",
        "notes": "blk"
    },
    {
        "id": "vtls004922349_0_16",
        "type": "sailor",
        "parent": "vtls004922349",
        "name": "james dec",
        "dob": "blk",
        "age": "26",
        "place_of_birth": "southampton",
        "home_address": "blk",
        "f": "blk",
        "name_of_ship": "jane",
        "ship_port": "goole",
        "date_leaving": "1879",
        "joined_ship_date": "1879-06-25",
        "joined_at_port": "london",
        "capacity": "able seaman",
        "date_left": "1880-01-12",
        "left_port": "goole",
        "cause_of_leaving": "discharged",
        "sign_with_mark": "n",
        "notes": "blk"
    },
    {
        "id": "vtls004922353_0_11",
        "type": "sailor",
        "parent": "vtls004922353",
        "name": "richard williams",
        "dob": "1842",
        "age": "blk",
        "place_of_birth": "aberdovey",
        "home_address": "blk",
        "f": "blk",
        "name_of_ship": "martha & harriet",
        "ship_port": "aberystwyth",
        "date_leaving": "1881",
        "joined_ship_date": "1881-05-27",
        "joined_at_port": "newcastle",
        "capacity": "master",
        "date_left": "1881-12-27",
        "left_port": "swansea",
        "cause_of_leaving": "remains on board",
        "sign_with_mark": "n",
        "notes": "blk"
    },
    {
        "id": "vtls004922353_0_15",
        "type": "sailor",
        "parent": "vtls004922353",
        "name": "n p johnson",
        "dob": "1857",
        "age": "blk",
        "place_of_birth": "sweden",
        "home_address": "blk",
        "f": "blk",
        "name_of_ship": "lornty",
        "ship_port": "liverpool",
        "date_leaving": "1881",
        "joined_ship_date": "1881-05-27",
        "joined_at_port": "newcastle",
        "capacity": "able seaman",
        "date_left": "1881-08-06",
        "left_port": "harbour grace, newfoundland, canada",
        "cause_of_leaving": "by order of [court]",
        "sign_with_mark": "n",
        "notes": "blk"
    },
    {
        "id": "vtls004922353_0_13",
        "type": "sailor",
        "parent": "vtls004922353",
        "name": "tom tallaksen",
        "dob": "1857",
        "age": "blk",
        "place_of_birth": "mandor, norway",
        "home_address": "blk",
        "f": "blk",
        "name_of_ship": "star of hope",
        "ship_port": " banff",
        "date_leaving": "1881",
        "joined_ship_date": "1881-05-27",
        "joined_at_port": "newcastle",
        "capacity": "able seaman",
        "date_left": "1881-12-27",
        "left_port": "swansea",
        "cause_of_leaving": "discharged",
        "sign_with_mark": "n",
        "notes": "blk"
    },
    {
        "id": "vtls004922353_0_12",
        "type": "sailor",
        "parent": "vtls004922353",
        "name": "john richards",
        "dob": "1839",
        "age": "blk",
        "place_of_birth": "aberystwyth",
        "home_address": "blk",
        "f": "blk",
        "name_of_ship": "fanny fothergill",
        "ship_port": "aberystwyth",
        "date_leaving": "1881",
        "joined_ship_date": "1881-05-27",
        "joined_at_port": "newcastle",
        "capacity": "mate",
        "date_left": "1881-12-27",
        "left_port": "swansea",
        "cause_of_leaving": "discharged",
        "sign_with_mark": "n",
        "notes": "blk"
    },
    {
        "id": "vtls004922349_0_19",
        "type": "sailor",
        "parent": "vtls004922349",
        "name": "samuel trengove",
        "dob": "blk",
        "age": "18",
        "place_of_birth": "falmouth",
        "home_address": "blk",
        "f": "blk",
        "name_of_ship": "alma",
        "ship_port": "falmouth",
        "date_leaving": "1879",
        "joined_ship_date": "1880-01-01",
        "joined_at_port": "falmouth",
        "capacity": "cook & ordinary seaman",
        "date_left": "1880-01-12",
        "left_port": "goole",
        "cause_of_leaving": "discharged",
        "sign_with_mark": "n",
        "notes": "blk"
    },
    {
        "id": "vtls004922349_0_20",
        "type": "sailor",
        "parent": "vtls004922349",
        "name": "john jenkins",
        "dob": "blk",
        "age": "27",
        "place_of_birth": "amman",
        "home_address": "blk",
        "f": "blk",
        "name_of_ship": "commander",
        "ship_port": "liverpool",
        "date_leaving": "1879",
        "joined_ship_date": "1880-01-01",
        "joined_at_port": "falmouth",
        "capacity": "able seaman",
        "date_left": "1880-01-12",
        "left_port": "goole",
        "cause_of_leaving": "discharged",
        "sign_with_mark": "n",
        "notes": "blk"
    },
    {
        "id": "vtls004922353_0_14",
        "type": "sailor",
        "parent": "vtls004922353",
        "name": "$ johanson",
        "dob": "1857",
        "age": "blk",
        "place_of_birth": "finland",
        "home_address": "blk",
        "f": "blk",
        "name_of_ship": "maud",
        "ship_port": "newcastle",
        "date_leaving": "1881",
        "joined_ship_date": "1881-05-27",
        "joined_at_port": "newcastle",
        "capacity": "able seaman",
        "date_left": "1881-06-29",
        "left_port": "cadiz",
        "cause_of_leaving": "discharged",
        "sign_with_mark": "n",
        "notes": "blk"
    },
    {
        "id": "vtls004922349_0_18",
        "type": "sailor",
        "parent": "vtls004922349",
        "name": "john piterson",
        "dob": "blk",
        "age": "22",
        "place_of_birth": "curacao",
        "home_address": "blk",
        "f": "blk",
        "name_of_ship": "[eva reester]",
        "ship_port": "italian",
        "date_leaving": "1879",
        "joined_ship_date": "1879-10-23",
        "joined_at_port": "maracaibo",
        "capacity": "cook & seaman",
        "date_left": "not joined",
        "left_port": "blk",
        "cause_of_leaving": "blk",
        "sign_with_mark": "n",
        "notes": "blk"
    },
    {
        "id": "vtls004922353_0_17",
        "type": "sailor",
        "parent": "vtls004922353",
        "name": "henry bartlett",
        "dob": "1859",
        "age": "blk",
        "place_of_birth": "margate",
        "home_address": "blk",
        "f": "blk",
        "name_of_ship": "welsh girl",
        "ship_port": "blk",
        "date_leaving": "1881",
        "joined_ship_date": "1881-06-30",
        "joined_at_port": "cadiz",
        "capacity": "cook & ordinary seaman",
        "date_left": "1881-08-06",
        "left_port": "harbour grace, newfoundland, canada",
        "cause_of_leaving": "by order of the [court]",
        "sign_with_mark": "n",
        "notes": "blk"
    },
    {
        "id": "vtls004922353_0_18",
        "type": "sailor",
        "parent": "vtls004922353",
        "name": "walter clements",
        "dob": "1862",
        "age": "blk",
        "place_of_birth": "exeter",
        "home_address": "blk",
        "f": "blk",
        "name_of_ship": "trusty",
        "ship_port": "blk",
        "date_leaving": "1881",
        "joined_ship_date": "1881-08-11",
        "joined_at_port": "harbour grace",
        "capacity": "cook & ordinary seaman",
        "date_left": "1881-12-27",
        "left_port": "swansea",
        "cause_of_leaving": "discharged",
        "sign_with_mark": "n",
        "notes": "blk"
    },
    {
        "id": "vtls004922353_0_21",
        "type": "sailor",
        "parent": "vtls004922353",
        "name": "james horton",
        "dob": "1833",
        "age": "blk",
        "place_of_birth": "england",
        "home_address": "blk",
        "f": "blk",
        "name_of_ship": "pride of the west",
        "ship_port": "blk",
        "date_leaving": "1881",
        "joined_ship_date": "1881-08-20",
        "joined_at_port": "harbour grace",
        "capacity": "able seaman",
        "date_left": "1881-11-01",
        "left_port": "genoa",
        "cause_of_leaving": "discharged",
        "sign_with_mark": "n",
        "notes": "blk"
    },
    {
        "id": "vtls004922353_0_22",
        "type": "sailor",
        "parent": "vtls004922353",
        "name": "jp farley",
        "dob": "blk",
        "age": "21",
        "place_of_birth": "chatham",
        "home_address": "blk",
        "f": "blk",
        "name_of_ship": "martha & harriet",
        "ship_port": "aberystwyth",
        "date_leaving": "1881",
        "joined_ship_date": "1881-11-08",
        "joined_at_port": "genoa, italy",
        "capacity": "able seaman",
        "date_left": "1881-12-27",
        "left_port": "swansea",
        "cause_of_leaving": "discharged",
        "sign_with_mark": "n",
        "notes": "blk"
    },
    {
        "id": "vtls004922353_0_20",
        "type": "sailor",
        "parent": "vtls004922353",
        "name": "momeco kelly",
        "dob": "1848",
        "age": "blk",
        "place_of_birth": "dublin",
        "home_address": "blk",
        "f": "blk",
        "name_of_ship": "european",
        "ship_port": "liverpool",
        "date_leaving": "1881",
        "joined_ship_date": "1881-08-20",
        "joined_at_port": "harbour grace",
        "capacity": "able seaman",
        "date_left": "1881-09-06",
        "left_port": "$",
        "cause_of_leaving": "deserted",
        "sign_with_mark": "n",
        "notes": "blk"
    },
    {
        "id": "vtls004922353_0_16",
        "type": "sailor",
        "parent": "vtls004922353",
        "name": "w stokes",
        "dob": "1862",
        "age": "blk",
        "place_of_birth": "perth",
        "home_address": "blk",
        "f": "blk",
        "name_of_ship": "valetta",
        "ship_port": "leith",
        "date_leaving": "1881",
        "joined_ship_date": "1881-05-27",
        "joined_at_port": "newcastle",
        "capacity": "cook & ordinary seaman",
        "date_left": "1881-06-29",
        "left_port": "cadiz",
        "cause_of_leaving": "deserted",
        "sign_with_mark": "n",
        "notes": "blk"
    },
    {
        "id": "vtls004922353_0_24",
        "type": "sailor",
        "parent": "vtls004922353",
        "name": "narka honore",
        "dob": "1842",
        "age": "blk",
        "place_of_birth": "east india",
        "home_address": "blk",
        "f": "blk",
        "name_of_ship": "antiona$$",
        "ship_port": "blk",
        "date_leaving": "1881",
        "joined_ship_date": "1881-11-16",
        "joined_at_port": "genoa, italy",
        "capacity": "able seaman",
        "date_left": "1881-12-27",
        "left_port": "swansea",
        "cause_of_leaving": "discharged",
        "sign_with_mark": "n",
        "notes": "blk"
    },
    {
        "id": "vtls004922353_0_19",
        "type": "sailor",
        "parent": "vtls004922353",
        "name": "james foley",
        "dob": "1845",
        "age": "blk",
        "place_of_birth": "ha$$$$$$",
        "home_address": "blk",
        "f": "blk",
        "name_of_ship": "greenland ss",
        "ship_port": "blk",
        "date_leaving": "1881",
        "joined_ship_date": "1881-08-12",
        "joined_at_port": "harbour grace",
        "capacity": "able seaman",
        "date_left": "not joined",
        "left_port": "blk",
        "cause_of_leaving": "blk",
        "sign_with_mark": "y",
        "notes": "blk"
    },
    {
        "id": "vtls004922353_0_23",
        "type": "sailor",
        "parent": "vtls004922353",
        "name": "antonio mariotti",
        "dob": "1845",
        "age": "blk",
        "place_of_birth": "leghorn",
        "home_address": "blk",
        "f": "blk",
        "name_of_ship": "italian ship",
        "ship_port": "[genoa]",
        "date_leaving": "1881",
        "joined_ship_date": "1881-11-12",
        "joined_at_port": "genoa, italy",
        "capacity": "able seaman",
        "date_left": "not joined",
        "left_port": "blk",
        "cause_of_leaving": "blk",
        "sign_with_mark": "n",
        "notes": "blk"
    }
]