[
    {
        "id": "vtls004934168_0_11",
        "type": "sailor",
        "parent": "vtls004934168",
        "name": "david jenkins",
        "dob": "blk",
        "age": "37",
        "place_of_birth": "borth",
        "home_address": "blk",
        "f": "blk",
        "name_of_ship": "nerissa",
        "ship_port": "aberystwyth",
        "date_leaving": "1878",
        "joined_ship_date": "1905-02-20",
        "joined_at_port": "cardiff",
        "capacity": "master",
        "date_left": "blk",
        "left_port": "blk",
        "cause_of_leaving": "still on board",
        "sign_with_mark": "n",
        "notes": "blk"
    },
    {
        "id": "vtls004934168_1_14",
        "type": "sailor",
        "parent": "vtls004934168",
        "name": "william davies",
        "dob": "blk",
        "age": "24",
        "place_of_birth": "borth, cardigan",
        "home_address": "blk",
        "f": "blk",
        "name_of_ship": "nerissa",
        "ship_port": "aberystwyth",
        "date_leaving": "1878",
        "joined_ship_date": "1878-07-26",
        "joined_at_port": "newcastle",
        "capacity": "able seaman",
        "date_left": "1878-09-22",
        "left_port": "newcastle",
        "cause_of_leaving": "discharged",
        "sign_with_mark": "n",
        "notes": "blk"
    },
    {
        "id": "vtls004934168_1_15",
        "type": "sailor",
        "parent": "vtls004934168",
        "name": "john jones",
        "dob": "blk",
        "age": "15",
        "place_of_birth": "borth, cardigan",
        "home_address": "blk",
        "f": "blk",
        "name_of_ship": "nerissa",
        "ship_port": "aberystwyth",
        "date_leaving": "1878",
        "joined_ship_date": "1878-07-26",
        "joined_at_port": "newcastle",
        "capacity": "ordinary seaman",
        "date_left": "1878-09-22",
        "left_port": "newcastle",
        "cause_of_leaving": "discharged",
        "sign_with_mark": "n",
        "notes": "blk"
    },
    {
        "id": "vtls004934168_1_13",
        "type": "sailor",
        "parent": "vtls004934168",
        "name": "evan davies",
        "dob": "blk",
        "age": "21",
        "place_of_birth": "borth, cardigan",
        "home_address": "blk",
        "f": "blk",
        "name_of_ship": "nerissa",
        "ship_port": "aberystwyth",
        "date_leaving": "1878",
        "joined_ship_date": "1878-07-26",
        "joined_at_port": "newcastle",
        "capacity": "able seaman",
        "date_left": "1878-09-22",
        "left_port": "newcastle",
        "cause_of_leaving": "discharged",
        "sign_with_mark": "n",
        "notes": "blk"
    },
    {
        "id": "vtls004934168_1_12",
        "type": "sailor",
        "parent": "vtls004934168",
        "name": "david jenkins",
        "dob": "blk",
        "age": "63",
        "place_of_birth": "borth, cardigan",
        "home_address": "blk",
        "f": "blk",
        "name_of_ship": "nerissa",
        "ship_port": "aberystwyth",
        "date_leaving": "1878",
        "joined_ship_date": "1878-07-27",
        "joined_at_port": "newcastle",
        "capacity": "mate",
        "date_left": "1878-09-23",
        "left_port": "newcastle",
        "cause_of_leaving": "discharged",
        "sign_with_mark": "n",
        "notes": "blk"
    },
    {
        "id": "vtls004934168_2_11",
        "type": "sailor",
        "parent": "vtls004934168",
        "name": "david jenkins",
        "dob": "blk",
        "age": "38",
        "place_of_birth": "borth",
        "home_address": "blk",
        "f": "blk",
        "name_of_ship": "nerissa",
        "ship_port": "aberystwyth",
        "date_leaving": "1878",
        "joined_ship_date": "1878-09-24",
        "joined_at_port": "newcastle",
        "capacity": "master",
        "date_left": "1878-12-31",
        "left_port": "runcorn",
        "cause_of_leaving": "remains on board",
        "sign_with_mark": "n",
        "notes": "blk"
    },
    {
        "id": "vtls004934168_1_11",
        "type": "sailor",
        "parent": "vtls004934168",
        "name": "david jenkins",
        "dob": "blk",
        "age": "37",
        "place_of_birth": "borth, cardigan",
        "home_address": "blk",
        "f": "blk",
        "name_of_ship": "nerissa",
        "ship_port": "aberystwyth",
        "date_leaving": "1878",
        "joined_ship_date": "1878-07-26",
        "joined_at_port": "newcastle",
        "capacity": "master",
        "date_left": "blk",
        "left_port": "blk",
        "cause_of_leaving": "remains on board",
        "sign_with_mark": "n",
        "notes": "blk"
    },
    {
        "id": "vtls004934168_0_15",
        "type": "sailor",
        "parent": "vtls004934168",
        "name": "john jones",
        "dob": "blk",
        "age": "15",
        "place_of_birth": "borth",
        "home_address": "blk",
        "f": "blk",
        "name_of_ship": "sarah davies",
        "ship_port": "blk",
        "date_leaving": "blk",
        "joined_ship_date": "1878-05-13",
        "joined_at_port": "cardiff",
        "capacity": "ordinary seaman",
        "date_left": "1878-07-26",
        "left_port": "newcastle",
        "cause_of_leaving": "discharged",
        "sign_with_mark": "n",
        "notes": "blk"
    },
    {
        "id": "vtls004934168_0_13",
        "type": "sailor",
        "parent": "vtls004934168",
        "name": "evan davies",
        "dob": "blk",
        "age": "21",
        "place_of_birth": "borth",
        "home_address": "blk",
        "f": "blk",
        "name_of_ship": "dovey belle",
        "ship_port": "blk",
        "date_leaving": "blk",
        "joined_ship_date": "1878-05-13",
        "joined_at_port": "cardiff",
        "capacity": "able seaman",
        "date_left": "1878-07-25",
        "left_port": "newcastle",
        "cause_of_leaving": "discharged",
        "sign_with_mark": "n",
        "notes": "blk"
    },
    {
        "id": "vtls004934168_0_14",
        "type": "sailor",
        "parent": "vtls004934168",
        "name": "william davies",
        "dob": "blk",
        "age": "24",
        "place_of_birth": "borth",
        "home_address": "blk",
        "f": "blk",
        "name_of_ship": "xanthus",
        "ship_port": "blk",
        "date_leaving": "blk",
        "joined_ship_date": "1878-05-13",
        "joined_at_port": "cardiff",
        "capacity": "able seaman",
        "date_left": "1878-07-25",
        "left_port": "newcastle",
        "cause_of_leaving": "discharged",
        "sign_with_mark": "n",
        "notes": "blk"
    },
    {
        "id": "vtls004934168_0_12",
        "type": "sailor",
        "parent": "vtls004934168",
        "name": "david jenkins",
        "dob": "blk",
        "age": "63",
        "place_of_birth": "borth",
        "home_address": "blk",
        "f": "blk",
        "name_of_ship": "zion hill",
        "ship_port": "blk",
        "date_leaving": "blk",
        "joined_ship_date": "1878-05-13",
        "joined_at_port": "cardiff",
        "capacity": "mate",
        "date_left": "1878-07-26",
        "left_port": "newcastle",
        "cause_of_leaving": "discharged",
        "sign_with_mark": "n",
        "notes": "blk"
    },
    {
        "id": "vtls004934168_2_15",
        "type": "sailor",
        "parent": "vtls004934168",
        "name": "john jones",
        "dob": "blk",
        "age": "15",
        "place_of_birth": "borth",
        "home_address": "blk",
        "f": "blk",
        "name_of_ship": "nerissa",
        "ship_port": "aberystwyth",
        "date_leaving": "1878",
        "joined_ship_date": "1878-09-24",
        "joined_at_port": "newcastle",
        "capacity": "ordinary seaman",
        "date_left": "1878-12-31",
        "left_port": "runcorn",
        "cause_of_leaving": "remains on board",
        "sign_with_mark": "n",
        "notes": "blk"
    },
    {
        "id": "vtls004934168_2_13",
        "type": "sailor",
        "parent": "vtls004934168",
        "name": "william davies",
        "dob": "blk",
        "age": "24",
        "place_of_birth": "borth",
        "home_address": "blk",
        "f": "blk",
        "name_of_ship": "nerissa",
        "ship_port": "aberystwyth",
        "date_leaving": "1878",
        "joined_ship_date": "1878-09-24",
        "joined_at_port": "newcastle",
        "capacity": "able seaman",
        "date_left": "1878-12-16",
        "left_port": "runcorn",
        "cause_of_leaving": "paid off",
        "sign_with_mark": "n",
        "notes": "blk"
    },
    {
        "id": "vtls004934168_2_14",
        "type": "sailor",
        "parent": "vtls004934168",
        "name": "evan davies",
        "dob": "blk",
        "age": "22",
        "place_of_birth": "borth",
        "home_address": "blk",
        "f": "blk",
        "name_of_ship": "nerissa",
        "ship_port": "aberystwyth",
        "date_leaving": "1878",
        "joined_ship_date": "1878-09-24",
        "joined_at_port": "newcastle",
        "capacity": "able seaman",
        "date_left": "1878-12-16",
        "left_port": "runcorn",
        "cause_of_leaving": "paid off",
        "sign_with_mark": "n",
        "notes": "blk"
    },
    {
        "id": "vtls004934218_0_12",
        "type": "sailor",
        "parent": "vtls004934218",
        "name": "john davies",
        "dob": "blk",
        "age": "55",
        "place_of_birth": "borth",
        "home_address": "blk",
        "f": "blk",
        "name_of_ship": "margaret lewis",
        "ship_port": "liverpool",
        "date_leaving": "1879",
        "joined_ship_date": "1879-01-11",
        "joined_at_port": "runcorn",
        "capacity": "mate",
        "date_left": "1879-05-05",
        "left_port": "cardiff",
        "cause_of_leaving": "discharged",
        "sign_with_mark": "y",
        "notes": "blk"
    },
    {
        "id": "vtls004934168_2_12",
        "type": "sailor",
        "parent": "vtls004934168",
        "name": "david jenkins",
        "dob": "blk",
        "age": "63",
        "place_of_birth": "borth",
        "home_address": "blk",
        "f": "blk",
        "name_of_ship": "nerissa",
        "ship_port": "aberystwyth",
        "date_leaving": "1878",
        "joined_ship_date": "1878-09-24",
        "joined_at_port": "newcastle",
        "capacity": "mate",
        "date_left": "1878-12-31",
        "left_port": "runcorn",
        "cause_of_leaving": "paid off",
        "sign_with_mark": "n",
        "notes": "blk"
    },
    {
        "id": "vtls004934218_0_13",
        "type": "sailor",
        "parent": "vtls004934218",
        "name": "john davies",
        "dob": "blk",
        "age": "25",
        "place_of_birth": "borth",
        "home_address": "blk",
        "f": "blk",
        "name_of_ship": "s s midsurry",
        "ship_port": "london",
        "date_leaving": "1879",
        "joined_ship_date": "1879-01-11",
        "joined_at_port": "runcorn",
        "capacity": "able seaman",
        "date_left": "blk",
        "left_port": "blk",
        "cause_of_leaving": "remains on board",
        "sign_with_mark": "n",
        "notes": "blk"
    },
    {
        "id": "vtls004934218_0_11",
        "type": "sailor",
        "parent": "vtls004934218",
        "name": "david jenkins",
        "dob": "blk",
        "age": "38",
        "place_of_birth": "borth",
        "home_address": "blk",
        "f": "blk",
        "name_of_ship": "nerissa",
        "ship_port": "aberystwyth",
        "date_leaving": "1879",
        "joined_ship_date": "1879-01-11",
        "joined_at_port": "runcorn",
        "capacity": "master",
        "date_left": "blk",
        "left_port": "blk",
        "cause_of_leaving": "remains on board",
        "sign_with_mark": "n",
        "notes": "blk"
    },
    {
        "id": "vtls004934218_1_14",
        "type": "sailor",
        "parent": "vtls004934218",
        "name": "william williams",
        "dob": "blk",
        "age": "20",
        "place_of_birth": "borth",
        "home_address": "blk",
        "f": "blk",
        "name_of_ship": "nerissa",
        "ship_port": "aberystwyth",
        "date_leaving": "1879",
        "joined_ship_date": "1879-05-08",
        "joined_at_port": "cardiff",
        "capacity": "able seaman",
        "date_left": "1880-03-16",
        "left_port": "goole",
        "cause_of_leaving": "discharged",
        "sign_with_mark": "n",
        "notes": "blk"
    },
    {
        "id": "vtls004934218_1_15",
        "type": "sailor",
        "parent": "vtls004934218",
        "name": "john jones",
        "dob": "blk",
        "age": "16",
        "place_of_birth": "borth",
        "home_address": "blk",
        "f": "blk",
        "name_of_ship": "nerissa",
        "ship_port": "aberystwyth",
        "date_leaving": "1879",
        "joined_ship_date": "1879-05-08",
        "joined_at_port": "cardiff",
        "capacity": "ordinary seaman",
        "date_left": "1880-03-16",
        "left_port": "goole",
        "cause_of_leaving": "discharged",
        "sign_with_mark": "n",
        "notes": "blk"
    },
    {
        "id": "vtls004934218_0_14",
        "type": "sailor",
        "parent": "vtls004934218",
        "name": "william williams",
        "dob": "blk",
        "age": "20",
        "place_of_birth": "borth",
        "home_address": "blk",
        "f": "blk",
        "name_of_ship": "industry",
        "ship_port": "aberystwyth",
        "date_leaving": "1879",
        "joined_ship_date": "1879-01-11",
        "joined_at_port": "runcorn",
        "capacity": "able seaman",
        "date_left": "blk",
        "left_port": "blk",
        "cause_of_leaving": "remains on board",
        "sign_with_mark": "n",
        "notes": "blk"
    },
    {
        "id": "vtls004934218_2_11",
        "type": "sailor",
        "parent": "vtls004934218",
        "name": "david jenkins",
        "dob": "blk",
        "age": "39",
        "place_of_birth": "borth",
        "home_address": "blk",
        "f": "blk",
        "name_of_ship": "nerissa",
        "ship_port": "aberystwyth",
        "date_leaving": "1880",
        "joined_ship_date": "1880-04-26",
        "joined_at_port": "goole",
        "capacity": "master",
        "date_left": "1880-04-27",
        "left_port": "newport",
        "cause_of_leaving": "remains on board",
        "sign_with_mark": "n",
        "notes": "blk"
    },
    {
        "id": "vtls004934218_1_13",
        "type": "sailor",
        "parent": "vtls004934218",
        "name": "john davies",
        "dob": "blk",
        "age": "26",
        "place_of_birth": "borth",
        "home_address": "blk",
        "f": "blk",
        "name_of_ship": "nerissa",
        "ship_port": "aberystwyth",
        "date_leaving": "1879",
        "joined_ship_date": "1879-05-08",
        "joined_at_port": "cardiff",
        "capacity": "able seaman",
        "date_left": "1880-03-16",
        "left_port": "goole",
        "cause_of_leaving": "discharged",
        "sign_with_mark": "n",
        "notes": "blk"
    },
    {
        "id": "vtls004934218_0_15",
        "type": "sailor",
        "parent": "vtls004934218",
        "name": "john jones",
        "dob": "blk",
        "age": "15",
        "place_of_birth": "borth",
        "home_address": "blk",
        "f": "blk",
        "name_of_ship": "nerissa",
        "ship_port": "aberystwyth",
        "date_leaving": "1879",
        "joined_ship_date": "1879-01-11",
        "joined_at_port": "runcorn",
        "capacity": "ordinary seaman",
        "date_left": "blk",
        "left_port": "blk",
        "cause_of_leaving": "remains on board",
        "sign_with_mark": "n",
        "notes": "blk"
    },
    {
        "id": "vtls004934218_2_13",
        "type": "sailor",
        "parent": "vtls004934218",
        "name": "john davies",
        "dob": "blk",
        "age": "58",
        "place_of_birth": "borth",
        "home_address": "blk",
        "f": "blk",
        "name_of_ship": "nerissa",
        "ship_port": "aberystwyth",
        "date_leaving": "1880",
        "joined_ship_date": "1880-04-26",
        "joined_at_port": "goole",
        "capacity": "able seaman",
        "date_left": "1880-04-27",
        "left_port": "newport",
        "cause_of_leaving": "discharged",
        "sign_with_mark": "y",
        "notes": "blk"
    },
    {
        "id": "vtls004934218_1_12",
        "type": "sailor",
        "parent": "vtls004934218",
        "name": "david jenkins",
        "dob": "blk",
        "age": "64",
        "place_of_birth": "borth",
        "home_address": "blk",
        "f": "blk",
        "name_of_ship": "nerissa",
        "ship_port": "aberystwyth",
        "date_leaving": "1879",
        "joined_ship_date": "1879-05-08",
        "joined_at_port": "cardiff",
        "capacity": "mate",
        "date_left": "1880-03-16",
        "left_port": "goole",
        "cause_of_leaving": "discharged",
        "sign_with_mark": "n",
        "notes": "blk"
    },
    {
        "id": "vtls004934218_2_12",
        "type": "sailor",
        "parent": "vtls004934218",
        "name": "david jenkins",
        "dob": "blk",
        "age": "65",
        "place_of_birth": "borth",
        "home_address": "blk",
        "f": "blk",
        "name_of_ship": "nerissa",
        "ship_port": "aberystwyth",
        "date_leaving": "1880",
        "joined_ship_date": "1880-04-26",
        "joined_at_port": "goole",
        "capacity": "mate",
        "date_left": "1880-05-05",
        "left_port": "newport",
        "cause_of_leaving": "discharged",
        "sign_with_mark": "n",
        "notes": "blk"
    },
    {
        "id": "vtls004934218_1_11",
        "type": "sailor",
        "parent": "vtls004934218",
        "name": "david jenkins",
        "dob": "blk",
        "age": "38",
        "place_of_birth": "borth",
        "home_address": "blk",
        "f": "blk",
        "name_of_ship": "nerissa",
        "ship_port": "aberystwyth",
        "date_leaving": "1879",
        "joined_ship_date": "1879-05-08",
        "joined_at_port": "cardiff",
        "capacity": "master",
        "date_left": "blk",
        "left_port": "blk",
        "cause_of_leaving": "remains on board",
        "sign_with_mark": "n",
        "notes": "blk"
    },
    {
        "id": "vtls004934218_3_16",
        "type": "sailor",
        "parent": "vtls004934218",
        "name": "albert connor",
        "dob": "blk",
        "age": "17",
        "place_of_birth": "liverpool",
        "home_address": "blk",
        "f": "blk",
        "name_of_ship": "frau minna petersen",
        "ship_port": "blk",
        "date_leaving": "1880",
        "joined_ship_date": "1880-07-22",
        "joined_at_port": "st. johns, newfoundland",
        "capacity": "ordinary seaman",
        "date_left": "1880-12-27",
        "left_port": "glasgow",
        "cause_of_leaving": "discharged",
        "sign_with_mark": "n",
        "notes": "blk"
    },
    {
        "id": "vtls004934218_2_14",
        "type": "sailor",
        "parent": "vtls004934218",
        "name": "essex bowen",
        "dob": "blk",
        "age": "26",
        "place_of_birth": "st davids pembrokeshire",
        "home_address": "blk",
        "f": "blk",
        "name_of_ship": "ralph creyke s s",
        "ship_port": "goole",
        "date_leaving": "1880",
        "joined_ship_date": "1880-04-26",
        "joined_at_port": "goole",
        "capacity": "able seaman",
        "date_left": "1880-05-05",
        "left_port": "newport",
        "cause_of_leaving": "discharged",
        "sign_with_mark": "n",
        "notes": "blk"
    },
    {
        "id": "vtls004934218_3_11",
        "type": "sailor",
        "parent": "vtls004934218",
        "name": "david jenkins",
        "dob": "blk",
        "age": "39",
        "place_of_birth": "borth",
        "home_address": "blk",
        "f": "blk",
        "name_of_ship": "nerissa",
        "ship_port": "aberystwyth",
        "date_leaving": "1880",
        "joined_ship_date": "1880-05-05",
        "joined_at_port": "newport",
        "capacity": "master",
        "date_left": "1880-12-27",
        "left_port": "glasgow",
        "cause_of_leaving": "remains on board",
        "sign_with_mark": "n",
        "notes": "blk"
    },
    {
        "id": "vtls004934218_3_13",
        "type": "sailor",
        "parent": "vtls004934218",
        "name": "john mccartney",
        "dob": "blk",
        "age": "21",
        "place_of_birth": "glasgow",
        "home_address": "blk",
        "f": "blk",
        "name_of_ship": "express",
        "ship_port": "montrose",
        "date_leaving": "1880",
        "joined_ship_date": "1880-05-05",
        "joined_at_port": "newport",
        "capacity": "able seaman",
        "date_left": "1880-12-27",
        "left_port": "st. johns",
        "cause_of_leaving": "deserted",
        "sign_with_mark": "n",
        "notes": "blk"
    },
    {
        "id": "vtls004934218_3_17",
        "type": "sailor",
        "parent": "vtls004934218",
        "name": "michael king",
        "dob": "blk",
        "age": "22",
        "place_of_birth": "edinburgh",
        "home_address": "blk",
        "f": "blk",
        "name_of_ship": "[sryonana]",
        "ship_port": "blk",
        "date_leaving": "1880",
        "joined_ship_date": "1880-07-30",
        "joined_at_port": "newport",
        "capacity": "able seaman",
        "date_left": "1880-12-24",
        "left_port": "glasgow",
        "cause_of_leaving": "discharged",
        "sign_with_mark": "n",
        "notes": "blk"
    },
    {
        "id": "vtls004934218_3_12",
        "type": "sailor",
        "parent": "vtls004934218",
        "name": "john davies",
        "dob": "blk",
        "age": "58",
        "place_of_birth": "borth",
        "home_address": "blk",
        "f": "blk",
        "name_of_ship": "nerissa",
        "ship_port": "aberystwyth",
        "date_leaving": "1880",
        "joined_ship_date": "1880-05-05",
        "joined_at_port": "newport",
        "capacity": "mate",
        "date_left": "1880-12-27",
        "left_port": "glasgow",
        "cause_of_leaving": "discharged",
        "sign_with_mark": "n",
        "notes": "blk"
    },
    {
        "id": "vtls004934218_3_14",
        "type": "sailor",
        "parent": "vtls004934218",
        "name": "john hughes",
        "dob": "blk",
        "age": "19",
        "place_of_birth": "amlwch",
        "home_address": "blk",
        "f": "blk",
        "name_of_ship": "saran",
        "ship_port": "amlwch",
        "date_leaving": "1880",
        "joined_ship_date": "1880-05-05",
        "joined_at_port": "newport",
        "capacity": "able seaman",
        "date_left": "1880-12-24",
        "left_port": "glasgow",
        "cause_of_leaving": "discharged",
        "sign_with_mark": "n",
        "notes": "blk"
    },
    {
        "id": "vtls004934218_3_15",
        "type": "sailor",
        "parent": "vtls004934218",
        "name": "james bruton",
        "dob": "blk",
        "age": "18",
        "place_of_birth": "budley",
        "home_address": "blk",
        "f": "blk",
        "name_of_ship": "ha$$$",
        "ship_port": "bude",
        "date_leaving": "1880",
        "joined_ship_date": "1880-05-05",
        "joined_at_port": "newport",
        "capacity": "boy",
        "date_left": "1880-07-15",
        "left_port": "st. johns",
        "cause_of_leaving": "desertion",
        "sign_with_mark": "n",
        "notes": "blk"
    },
    {
        "id": "vtls004934227_0_16",
        "type": "sailor",
        "parent": "vtls004934227",
        "name": "john hazel davies",
        "dob": "blk",
        "age": "49",
        "place_of_birth": "carmarthen",
        "home_address": "blk",
        "f": "blk",
        "name_of_ship": "daisy",
        "ship_port": "bristol",
        "date_leaving": "1881",
        "joined_ship_date": "1881-04-09",
        "joined_at_port": "ardrossan",
        "capacity": "able seaman",
        "date_left": "1881-04-20",
        "left_port": "newport",
        "cause_of_leaving": "discharged",
        "sign_with_mark": "n",
        "notes": "blk"
    },
    {
        "id": "vtls004934227_1_12",
        "type": "sailor",
        "parent": "vtls004934227",
        "name": "david jenkins",
        "dob": "blk",
        "age": "35",
        "place_of_birth": "borth",
        "home_address": "blk",
        "f": "blk",
        "name_of_ship": "lady of the forest",
        "ship_port": "aberystwyth",
        "date_leaving": "1881",
        "joined_ship_date": "1881-05-02",
        "joined_at_port": "newport",
        "capacity": "mate",
        "date_left": "1882-02-06",
        "left_port": "antwerp",
        "cause_of_leaving": "discharged",
        "sign_with_mark": "n",
        "notes": "blk"
    },
    {
        "id": "vtls004934227_0_14",
        "type": "sailor",
        "parent": "vtls004934227",
        "name": "donald stewart",
        "dob": "blk",
        "age": "28",
        "place_of_birth": "glasgow",
        "home_address": "blk",
        "f": "blk",
        "name_of_ship": "renfrewshire",
        "ship_port": "blk",
        "date_leaving": "1881",
        "joined_ship_date": "1881-01-12",
        "joined_at_port": "glasgow",
        "capacity": "able seaman",
        "date_left": "1881-04-07",
        "left_port": "greenock",
        "cause_of_leaving": "discharged",
        "sign_with_mark": "y",
        "notes": "blk"
    },
    {
        "id": "vtls004934227_0_13",
        "type": "sailor",
        "parent": "vtls004934227",
        "name": "neil mcfarlane",
        "dob": "blk",
        "age": "30",
        "place_of_birth": "glasgow",
        "home_address": "blk",
        "f": "blk",
        "name_of_ship": "columbia",
        "ship_port": "blk",
        "date_leaving": "1881",
        "joined_ship_date": "1881-01-12",
        "joined_at_port": "glasgow",
        "capacity": "able seaman",
        "date_left": "1881-04-06",
        "left_port": "greenock",
        "cause_of_leaving": "discharged",
        "sign_with_mark": "n",
        "notes": "blk"
    },
    {
        "id": "vtls004934227_0_15",
        "type": "sailor",
        "parent": "vtls004934227",
        "name": "william falconer",
        "dob": "blk",
        "age": "16",
        "place_of_birth": "inverary",
        "home_address": "blk",
        "f": "blk",
        "name_of_ship": "irrawaddy s.s.",
        "ship_port": "blk",
        "date_leaving": "1881",
        "joined_ship_date": "1881-01-12",
        "joined_at_port": "glasgow",
        "capacity": "boy",
        "date_left": "remaining",
        "left_port": "blk",
        "cause_of_leaving": "blk",
        "sign_with_mark": "n",
        "notes": "blk"
    },
    {
        "id": "vtls004934227_0_11",
        "type": "sailor",
        "parent": "vtls004934227",
        "name": "david jenkins",
        "dob": "blk",
        "age": "40",
        "place_of_birth": "borth",
        "home_address": "blk",
        "f": "blk",
        "name_of_ship": "nerissa",
        "ship_port": "aberystwyth",
        "date_leaving": "1881",
        "joined_ship_date": "1881-01-12",
        "joined_at_port": "glasgow",
        "capacity": "master",
        "date_left": "remaining",
        "left_port": "blk",
        "cause_of_leaving": "blk",
        "sign_with_mark": "n",
        "notes": "blk"
    },
    {
        "id": "vtls004934227_0_17",
        "type": "sailor",
        "parent": "vtls004934227",
        "name": "john jones",
        "dob": "blk",
        "age": "18",
        "place_of_birth": "borth",
        "home_address": "blk",
        "f": "blk",
        "name_of_ship": "courier",
        "ship_port": "aberystwyth",
        "date_leaving": "1881",
        "joined_ship_date": "1881-04-09",
        "joined_at_port": "greenock",
        "capacity": "able seaman",
        "date_left": "remaining",
        "left_port": "$",
        "cause_of_leaving": "n",
        "sign_with_mark": "n",
        "notes": "blk"
    },
    {
        "id": "vtls004934227_0_12",
        "type": "sailor",
        "parent": "vtls004934227",
        "name": "william davies",
        "dob": "blk",
        "age": "26",
        "place_of_birth": "borth",
        "home_address": "blk",
        "f": "blk",
        "name_of_ship": "rosamond s.s.",
        "ship_port": "blk",
        "date_leaving": "1881",
        "joined_ship_date": "1881-01-12",
        "joined_at_port": "glasgow",
        "capacity": "bosun",
        "date_left": "remaining",
        "left_port": "blk",
        "cause_of_leaving": "blk",
        "sign_with_mark": "n",
        "notes": "blk"
    },
    {
        "id": "vtls004934227_1_11",
        "type": "sailor",
        "parent": "vtls004934227",
        "name": "david jenkins",
        "dob": "blk",
        "age": "41",
        "place_of_birth": "borth",
        "home_address": "blk",
        "f": "blk",
        "name_of_ship": "nerissa",
        "ship_port": "aberystwyth",
        "date_leaving": "blk",
        "joined_ship_date": "blk",
        "joined_at_port": "blk",
        "capacity": "master",
        "date_left": "blk",
        "left_port": "blk",
        "cause_of_leaving": "blk",
        "sign_with_mark": "n",
        "notes": "blk"
    },
    {
        "id": "vtls004934227_1_14",
        "type": "sailor",
        "parent": "vtls004934227",
        "name": "william falconer",
        "dob": "blk",
        "age": "16",
        "place_of_birth": "inverary",
        "home_address": "blk",
        "f": "blk",
        "name_of_ship": "nerissa",
        "ship_port": "aberystwyth",
        "date_leaving": "1881",
        "joined_ship_date": "1881-05-02",
        "joined_at_port": "newport",
        "capacity": "cook & steward",
        "date_left": "1882-02-06",
        "left_port": "antwerp",
        "cause_of_leaving": "discharged",
        "sign_with_mark": "n",
        "notes": "blk"
    },
    {
        "id": "vtls004934227_2_14",
        "type": "sailor",
        "parent": "vtls004934227",
        "name": "william falconer",
        "dob": "blk",
        "age": "17",
        "place_of_birth": "inverary",
        "home_address": "blk",
        "f": "blk",
        "name_of_ship": "nerissa",
        "ship_port": "aberystwyth",
        "date_leaving": "1882",
        "joined_ship_date": "1882-02-06",
        "joined_at_port": "antwerp",
        "capacity": "cook & seaman",
        "date_left": "1882-12-22",
        "left_port": "runcorn",
        "cause_of_leaving": "discharged",
        "sign_with_mark": "n",
        "notes": "blk"
    },
    {
        "id": "vtls004934227_2_15",
        "type": "sailor",
        "parent": "vtls004934227",
        "name": "frederic willis",
        "dob": "blk",
        "age": "36",
        "place_of_birth": "london",
        "home_address": "blk",
        "f": "blk",
        "name_of_ship": "three brothers",
        "ship_port": "blk",
        "date_leaving": "1882",
        "joined_ship_date": "1882-02-06",
        "joined_at_port": "antwerp",
        "capacity": "able seaman",
        "date_left": "1882-12-22",
        "left_port": "runcorn",
        "cause_of_leaving": "discharged",
        "sign_with_mark": "n",
        "notes": "blk"
    },
    {
        "id": "vtls004934227_1_13",
        "type": "sailor",
        "parent": "vtls004934227",
        "name": "william davies",
        "dob": "blk",
        "age": "26",
        "place_of_birth": "borth",
        "home_address": "blk",
        "f": "blk",
        "name_of_ship": "nerissa",
        "ship_port": "aberystwyth",
        "date_leaving": "1881",
        "joined_ship_date": "1881-05-02",
        "joined_at_port": "newport",
        "capacity": "boatswain",
        "date_left": "1882-02-06",
        "left_port": "antwerp",
        "cause_of_leaving": "discharged",
        "sign_with_mark": "n",
        "notes": "blk"
    },
    {
        "id": "vtls004934227_1_15",
        "type": "sailor",
        "parent": "vtls004934227",
        "name": "john jones",
        "dob": "blk",
        "age": "18",
        "place_of_birth": "borth",
        "home_address": "blk",
        "f": "blk",
        "name_of_ship": "nerissa",
        "ship_port": "aberystwyth",
        "date_leaving": "1881",
        "joined_ship_date": "1881-05-02",
        "joined_at_port": "newport",
        "capacity": "able seaman",
        "date_left": "1882-02-06",
        "left_port": "antwerp",
        "cause_of_leaving": "discharged",
        "sign_with_mark": "n",
        "notes": "blk"
    },
    {
        "id": "vtls004934227_2_13",
        "type": "sailor",
        "parent": "vtls004934227",
        "name": "john jones",
        "dob": "blk",
        "age": "19",
        "place_of_birth": "borth",
        "home_address": "blk",
        "f": "blk",
        "name_of_ship": "nerissa",
        "ship_port": "aberystwyth",
        "date_leaving": "1882",
        "joined_ship_date": "1882-02-06",
        "joined_at_port": "antwerp",
        "capacity": "able seaman",
        "date_left": "1882-12-22",
        "left_port": "runcorn",
        "cause_of_leaving": "discharged",
        "sign_with_mark": "n",
        "notes": "blk"
    },
    {
        "id": "vtls004934227_2_12",
        "type": "sailor",
        "parent": "vtls004934227",
        "name": "william davies",
        "dob": "blk",
        "age": "26",
        "place_of_birth": "borth",
        "home_address": "blk",
        "f": "blk",
        "name_of_ship": "nerissa",
        "ship_port": "aberystwyth",
        "date_leaving": "1882",
        "joined_ship_date": "1882-02-06",
        "joined_at_port": "antwerp",
        "capacity": "mate",
        "date_left": "1882-12-22",
        "left_port": "runcorn",
        "cause_of_leaving": "discharged",
        "sign_with_mark": "n",
        "notes": "blk"
    },
    {
        "id": "vtls004934227_2_11",
        "type": "sailor",
        "parent": "vtls004934227",
        "name": "david jenkins",
        "dob": "blk",
        "age": "41",
        "place_of_birth": "borth",
        "home_address": "blk",
        "f": "blk",
        "name_of_ship": "nerissa",
        "ship_port": "aberystwyth",
        "date_leaving": "blk",
        "joined_ship_date": "blk",
        "joined_at_port": "blk",
        "capacity": "master",
        "date_left": "1882-12-22",
        "left_port": "runcorn",
        "cause_of_leaving": "remains on board",
        "sign_with_mark": "n",
        "notes": "blk"
    },
    {
        "id": "vtls004934238_1_13",
        "type": "sailor",
        "parent": "vtls004934238",
        "name": "thomas evans",
        "dob": "1868",
        "age": "blk",
        "place_of_birth": "borth",
        "home_address": "blk",
        "f": "blk",
        "name_of_ship": "marian lass",
        "ship_port": "aberystwyth",
        "date_leaving": "blk",
        "joined_ship_date": "1883-06-18",
        "joined_at_port": "newport",
        "capacity": "cook & seaman",
        "date_left": "1884-05-15",
        "left_port": "cardiff",
        "cause_of_leaving": "discharged",
        "sign_with_mark": "n",
        "notes": "blk"
    },
    {
        "id": "vtls004934238_0_16",
        "type": "sailor",
        "parent": "vtls004934238",
        "name": "john martin",
        "dob": "1852",
        "age": "blk",
        "place_of_birth": "harbour grace",
        "home_address": "blk",
        "f": "blk",
        "name_of_ship": "caledonia",
        "ship_port": "blk",
        "date_leaving": "blk",
        "joined_ship_date": "1883-05-11",
        "joined_at_port": "london",
        "capacity": "able seaman",
        "date_left": "1883-06-08",
        "left_port": "newport",
        "cause_of_leaving": "discharged",
        "sign_with_mark": "n",
        "notes": "blk"
    },
    {
        "id": "vtls004934238_0_13",
        "type": "sailor",
        "parent": "vtls004934238",
        "name": "thomas c davies",
        "dob": "1849",
        "age": "blk",
        "place_of_birth": "fishguard",
        "home_address": "blk",
        "f": "blk",
        "name_of_ship": "sylph",
        "ship_port": "blk",
        "date_leaving": "blk",
        "joined_ship_date": "1883-01-25",
        "joined_at_port": "runcorn",
        "capacity": "able seaman",
        "date_left": "1883-05-06",
        "left_port": "london",
        "cause_of_leaving": "discharged",
        "sign_with_mark": "n",
        "notes": "blk"
    },
    {
        "id": "vtls004934238_1_11",
        "type": "sailor",
        "parent": "vtls004934238",
        "name": "david jenkins",
        "dob": "1840",
        "age": "blk",
        "place_of_birth": "borth",
        "home_address": "blk",
        "f": "blk",
        "name_of_ship": "nerissa",
        "ship_port": "aberystwyth",
        "date_leaving": "blk",
        "joined_ship_date": "1883-06-16",
        "joined_at_port": "newport",
        "capacity": "master",
        "date_left": "blk",
        "left_port": "blk",
        "cause_of_leaving": "remains on board",
        "sign_with_mark": "n",
        "notes": "blk"
    },
    {
        "id": "vtls004934238_1_12",
        "type": "sailor",
        "parent": "vtls004934238",
        "name": "john swain",
        "dob": "1824",
        "age": "blk",
        "place_of_birth": "bridport",
        "home_address": "blk",
        "f": "blk",
        "name_of_ship": "welshgirl",
        "ship_port": "swansea",
        "date_leaving": "blk",
        "joined_ship_date": "1883-06-16",
        "joined_at_port": "newport",
        "capacity": "mate",
        "date_left": "1884-03-19",
        "left_port": "$",
        "cause_of_leaving": "[discharged]",
        "sign_with_mark": "n",
        "notes": "blk"
    },
    {
        "id": "vtls004934238_0_14",
        "type": "sailor",
        "parent": "vtls004934238",
        "name": "john jones",
        "dob": "1862",
        "age": "blk",
        "place_of_birth": "borth",
        "home_address": "blk",
        "f": "blk",
        "name_of_ship": "nerissa",
        "ship_port": "blk",
        "date_leaving": "blk",
        "joined_ship_date": "1883-01-25",
        "joined_at_port": "runcorn",
        "capacity": "able seaman",
        "date_left": "1883-06-08",
        "left_port": "newport",
        "cause_of_leaving": "discharged",
        "sign_with_mark": "n",
        "notes": "blk"
    },
    {
        "id": "vtls004934238_0_15",
        "type": "sailor",
        "parent": "vtls004934238",
        "name": "thomas evans",
        "dob": "1867",
        "age": "blk",
        "place_of_birth": "borth",
        "home_address": "blk",
        "f": "blk",
        "name_of_ship": "meirion lass",
        "ship_port": "blk",
        "date_leaving": "blk",
        "joined_ship_date": "1883-01-25",
        "joined_at_port": "runcorn",
        "capacity": "boy",
        "date_left": "1883-06-15",
        "left_port": "newport",
        "cause_of_leaving": "discharged",
        "sign_with_mark": "n",
        "notes": "blk"
    },
    {
        "id": "vtls004934238_0_12",
        "type": "sailor",
        "parent": "vtls004934238",
        "name": "william davies",
        "dob": "1854",
        "age": "blk",
        "place_of_birth": "borth",
        "home_address": "blk",
        "f": "blk",
        "name_of_ship": "nerissa",
        "ship_port": "blk",
        "date_leaving": "blk",
        "joined_ship_date": "1883-01-25",
        "joined_at_port": "runcorn",
        "capacity": "mate",
        "date_left": "1883-06-15",
        "left_port": "newport",
        "cause_of_leaving": "discharged",
        "sign_with_mark": "n",
        "notes": "blk"
    },
    {
        "id": "vtls004934238_0_11",
        "type": "sailor",
        "parent": "vtls004934238",
        "name": "david jenkins",
        "dob": "1840",
        "age": "blk",
        "place_of_birth": "borth",
        "home_address": "blk",
        "f": "blk",
        "name_of_ship": "nerissa",
        "ship_port": "blk",
        "date_leaving": "blk",
        "joined_ship_date": "1883-01-25",
        "joined_at_port": "runcorn",
        "capacity": "master",
        "date_left": "blk",
        "left_port": "blk",
        "cause_of_leaving": "remains on board",
        "sign_with_mark": "n",
        "notes": "blk"
    },
    {
        "id": "vtls004934238_1_16",
        "type": "sailor",
        "parent": "vtls004934238",
        "name": "giacomo fattovich",
        "dob": "blk",
        "age": "20",
        "place_of_birth": "australia",
        "home_address": "blk",
        "f": "blk",
        "name_of_ship": "foreign ship",
        "ship_port": "blk",
        "date_leaving": "blk",
        "joined_ship_date": "1883-06-19",
        "joined_at_port": "cornwall",
        "capacity": "able seaman",
        "date_left": "1884-05-14",
        "left_port": "cardiff",
        "cause_of_leaving": "discharged",
        "sign_with_mark": "n",
        "notes": "blk"
    },
    {
        "id": "vtls004934238_1_14",
        "type": "sailor",
        "parent": "vtls004934238",
        "name": "john jones",
        "dob": "1862",
        "age": "blk",
        "place_of_birth": "borth",
        "home_address": "blk",
        "f": "blk",
        "name_of_ship": "claudian",
        "ship_port": "aberystwyth",
        "date_leaving": "blk",
        "joined_ship_date": "1883-06-18",
        "joined_at_port": "newport",
        "capacity": "able seaman",
        "date_left": "1884-05-15",
        "left_port": "cardiff",
        "cause_of_leaving": "discharged",
        "sign_with_mark": "n",
        "notes": "blk"
    },
    {
        "id": "vtls004934246_0_12",
        "type": "sailor",
        "parent": "vtls004934246",
        "name": "william davies",
        "dob": "blk",
        "age": "31",
        "place_of_birth": "borth",
        "home_address": "blk",
        "f": "blk",
        "name_of_ship": "nant francon",
        "ship_port": "liverpool",
        "date_leaving": "blk",
        "joined_ship_date": "1885-09-26",
        "joined_at_port": "bristol",
        "capacity": "boatswain",
        "date_left": "1886-05-31",
        "left_port": "goole",
        "cause_of_leaving": "discharged",
        "sign_with_mark": "n",
        "notes": "blk"
    },
    {
        "id": "vtls004934246_0_13",
        "type": "sailor",
        "parent": "vtls004934246",
        "name": "lewis davies",
        "dob": "blk",
        "age": "26",
        "place_of_birth": "borth",
        "home_address": "blk",
        "f": "blk",
        "name_of_ship": "highland maid",
        "ship_port": "belfast",
        "date_leaving": "blk",
        "joined_ship_date": "1885-09-26",
        "joined_at_port": "bristol",
        "capacity": "able seaman",
        "date_left": "1886-05-31",
        "left_port": "goole",
        "cause_of_leaving": "discharged",
        "sign_with_mark": "n",
        "notes": "blk"
    },
    {
        "id": "vtls004934246_0_14",
        "type": "sailor",
        "parent": "vtls004934246",
        "name": "john jones",
        "dob": "blk",
        "age": "23",
        "place_of_birth": "borth",
        "home_address": "blk",
        "f": "blk",
        "name_of_ship": "loch furgus",
        "ship_port": "liverpool",
        "date_leaving": "blk",
        "joined_ship_date": "1885-09-26",
        "joined_at_port": "bristol",
        "capacity": "able seaman",
        "date_left": "1886-05-31",
        "left_port": "goole",
        "cause_of_leaving": "discharged",
        "sign_with_mark": "n",
        "notes": "blk"
    },
    {
        "id": "vtls004934246_0_11",
        "type": "sailor",
        "parent": "vtls004934246",
        "name": "david jenkins",
        "dob": "blk",
        "age": "45",
        "place_of_birth": "borth",
        "home_address": "blk",
        "f": "blk",
        "name_of_ship": "nerissa",
        "ship_port": "aberystwyth",
        "date_leaving": "blk",
        "joined_ship_date": "1885-09-26",
        "joined_at_port": "bristol",
        "capacity": "master",
        "date_left": "remains",
        "left_port": "blk",
        "cause_of_leaving": "remains on board",
        "sign_with_mark": "n",
        "notes": "blk"
    },
    {
        "id": "vtls004934238_1_15",
        "type": "sailor",
        "parent": "vtls004934238",
        "name": "richard small",
        "dob": "1826",
        "age": "blk",
        "place_of_birth": "chatham",
        "home_address": "blk",
        "f": "blk",
        "name_of_ship": "cleomene",
        "ship_port": "blk",
        "date_leaving": "blk",
        "joined_ship_date": "1883-06-18",
        "joined_at_port": "newport",
        "capacity": "able seaman",
        "date_left": "never joined",
        "left_port": "blk",
        "cause_of_leaving": "blk",
        "sign_with_mark": "y",
        "notes": "blk"
    },
    {
        "id": "vtls004934246_0_15",
        "type": "sailor",
        "parent": "vtls004934246",
        "name": "william t davies",
        "dob": "blk",
        "age": "16",
        "place_of_birth": "borth",
        "home_address": "blk",
        "f": "blk",
        "name_of_ship": "elizabeth thomas",
        "ship_port": "aberystwyth",
        "date_leaving": "blk",
        "joined_ship_date": "1885-09-26",
        "joined_at_port": "bristol",
        "capacity": "ordinary seaman",
        "date_left": "1886-05-31",
        "left_port": "goole",
        "cause_of_leaving": "discharged",
        "sign_with_mark": "n",
        "notes": "blk"
    },
    {
        "id": "vtls004934246_0_16",
        "type": "sailor",
        "parent": "vtls004934246",
        "name": "george picton",
        "dob": "blk",
        "age": "16",
        "place_of_birth": "bristol",
        "home_address": "blk",
        "f": "blk",
        "name_of_ship": "llandaff city",
        "ship_port": "bristol",
        "date_leaving": "blk",
        "joined_ship_date": "1885-09-26",
        "joined_at_port": "bristol",
        "capacity": "boy",
        "date_left": "1885-10-03",
        "left_port": "penarth",
        "cause_of_leaving": "put ashore at own request",
        "sign_with_mark": "n",
        "notes": "blk"
    },
    {
        "id": "vtls004934246_1_14",
        "type": "sailor",
        "parent": "vtls004934246",
        "name": "david lewis",
        "dob": "blk",
        "age": "21",
        "place_of_birth": "aberystwyth",
        "home_address": "blk",
        "f": "blk",
        "name_of_ship": "dusty miller",
        "ship_port": "liverpool",
        "date_leaving": "1886",
        "joined_ship_date": "1886-06-17",
        "joined_at_port": "goole",
        "capacity": "able seaman",
        "date_left": "1887-02-24",
        "left_port": "goole",
        "cause_of_leaving": "discharged",
        "sign_with_mark": "n",
        "notes": "blk"
    },
    {
        "id": "vtls004934246_1_13",
        "type": "sailor",
        "parent": "vtls004934246",
        "name": "david owens",
        "dob": "blk",
        "age": "19",
        "place_of_birth": "aberystwyth",
        "home_address": "blk",
        "f": "blk",
        "name_of_ship": "excelsior",
        "ship_port": "aberystwyth",
        "date_leaving": "1886",
        "joined_ship_date": "1886-06-17",
        "joined_at_port": "goole",
        "capacity": "able seaman",
        "date_left": "1887-02-24",
        "left_port": "goole",
        "cause_of_leaving": "discharged",
        "sign_with_mark": "n",
        "notes": "blk"
    },
    {
        "id": "vtls004934255_0_12",
        "type": "sailor",
        "parent": "vtls004934255",
        "name": "william davies",
        "dob": "1854",
        "age": "blk",
        "place_of_birth": "cardigan",
        "home_address": "blk",
        "f": "blk",
        "name_of_ship": "nerissa",
        "ship_port": "blk",
        "date_leaving": "1887",
        "joined_ship_date": "1887-04-27",
        "joined_at_port": "plymouth",
        "capacity": "boatswain",
        "date_left": "1887-10-12",
        "left_port": "bristol",
        "cause_of_leaving": "discharged",
        "sign_with_mark": "n",
        "notes": "blk"
    },
    {
        "id": "vtls004934246_1_12",
        "type": "sailor",
        "parent": "vtls004934246",
        "name": "william davies",
        "dob": "blk",
        "age": "32",
        "place_of_birth": "borth",
        "home_address": "blk",
        "f": "blk",
        "name_of_ship": "nerissa",
        "ship_port": "aberystwyth",
        "date_leaving": "blk",
        "joined_ship_date": "1886-06-17",
        "joined_at_port": "goole",
        "capacity": "boatswain",
        "date_left": "1887-02-24",
        "left_port": "goole",
        "cause_of_leaving": "discharged",
        "sign_with_mark": "n",
        "notes": "blk"
    },
    {
        "id": "vtls004934255_0_11",
        "type": "sailor",
        "parent": "vtls004934255",
        "name": "david jenkins",
        "dob": "1840",
        "age": "blk",
        "place_of_birth": "cardigan",
        "home_address": "blk",
        "f": "blk",
        "name_of_ship": "nerissa",
        "ship_port": "blk",
        "date_leaving": "blk",
        "joined_ship_date": "continues",
        "joined_at_port": "blk",
        "capacity": "master",
        "date_left": "1887-10-12",
        "left_port": "bristol",
        "cause_of_leaving": "remains on board",
        "sign_with_mark": "n",
        "notes": "blk"
    },
    {
        "id": "vtls004934246_1_15",
        "type": "sailor",
        "parent": "vtls004934246",
        "name": "thomas j locke",
        "dob": "blk",
        "age": "16",
        "place_of_birth": "borth",
        "home_address": "blk",
        "f": "blk",
        "name_of_ship": "jane owen",
        "ship_port": "aberystwyth",
        "date_leaving": "1886",
        "joined_ship_date": "1886-06-17",
        "joined_at_port": "goole",
        "capacity": "boy",
        "date_left": "1887-02-24",
        "left_port": "goole",
        "cause_of_leaving": "discharged",
        "sign_with_mark": "n",
        "notes": "blk"
    },
    {
        "id": "vtls004934246_1_11",
        "type": "sailor",
        "parent": "vtls004934246",
        "name": "david jenkins",
        "dob": "blk",
        "age": "45",
        "place_of_birth": "borth",
        "home_address": "blk",
        "f": "blk",
        "name_of_ship": "nerissa",
        "ship_port": "aberystwyth",
        "date_leaving": "blk",
        "joined_ship_date": "1886-06-17",
        "joined_at_port": "goole",
        "capacity": "master",
        "date_left": "remains",
        "left_port": "blk",
        "cause_of_leaving": "remains on board",
        "sign_with_mark": "n",
        "notes": "blk"
    },
    {
        "id": "vtls004934255_1_15",
        "type": "sailor",
        "parent": "vtls004934255",
        "name": "michael wallace",
        "dob": "blk",
        "age": "21",
        "place_of_birth": "ballinacurra, co. cork",
        "home_address": "blk",
        "f": "blk",
        "name_of_ship": "ocean nymph",
        "ship_port": "blk",
        "date_leaving": "blk",
        "joined_ship_date": "1887-10-27",
        "joined_at_port": "newport",
        "capacity": "able seaman",
        "date_left": "1887-12-23",
        "left_port": "london",
        "cause_of_leaving": "discharged",
        "sign_with_mark": "n",
        "notes": "blk"
    },
    {
        "id": "vtls004934255_0_15",
        "type": "sailor",
        "parent": "vtls004934255",
        "name": "thomas j locke",
        "dob": "1870",
        "age": "blk",
        "place_of_birth": "cardigan",
        "home_address": "blk",
        "f": "blk",
        "name_of_ship": "nerissa",
        "ship_port": "blk",
        "date_leaving": "1887",
        "joined_ship_date": "1887-04-27",
        "joined_at_port": "plymouth",
        "capacity": "ordinary seaman",
        "date_left": "1887-10-12",
        "left_port": "bristol",
        "cause_of_leaving": "discharged",
        "sign_with_mark": "n",
        "notes": "blk"
    },
    {
        "id": "vtls004934255_0_13",
        "type": "sailor",
        "parent": "vtls004934255",
        "name": "david owens",
        "dob": "1867",
        "age": "blk",
        "place_of_birth": "aberystwyth",
        "home_address": "blk",
        "f": "blk",
        "name_of_ship": "nerissa",
        "ship_port": "blk",
        "date_leaving": "1887",
        "joined_ship_date": "1887-04-27",
        "joined_at_port": "plymouth",
        "capacity": "able seaman",
        "date_left": "1887-10-12",
        "left_port": "bristol",
        "cause_of_leaving": "discharged",
        "sign_with_mark": "n",
        "notes": "blk"
    },
    {
        "id": "vtls004934255_1_14",
        "type": "sailor",
        "parent": "vtls004934255",
        "name": "hugh burridge",
        "dob": "blk",
        "age": "28",
        "place_of_birth": "liverpool",
        "home_address": "blk",
        "f": "blk",
        "name_of_ship": "ancient briton",
        "ship_port": "blk",
        "date_leaving": "blk",
        "joined_ship_date": "1887-10-27",
        "joined_at_port": "newport",
        "capacity": "able seaman",
        "date_left": "1887-11-08",
        "left_port": "newport",
        "cause_of_leaving": "deserted",
        "sign_with_mark": "y",
        "notes": "blk"
    },
    {
        "id": "vtls004934255_0_14",
        "type": "sailor",
        "parent": "vtls004934255",
        "name": "john rees",
        "dob": "1868",
        "age": "blk",
        "place_of_birth": "aberystwyth",
        "home_address": "blk",
        "f": "blk",
        "name_of_ship": "nerissa",
        "ship_port": "blk",
        "date_leaving": "1887",
        "joined_ship_date": "1887-04-27",
        "joined_at_port": "plymouth",
        "capacity": "able seaman",
        "date_left": "1887-10-12",
        "left_port": "bristol",
        "cause_of_leaving": "discharged",
        "sign_with_mark": "n",
        "notes": "blk"
    },
    {
        "id": "vtls004934255_1_13",
        "type": "sailor",
        "parent": "vtls004934255",
        "name": "abraham hughes",
        "dob": "blk",
        "age": "17",
        "place_of_birth": "borth",
        "home_address": "blk",
        "f": "blk",
        "name_of_ship": "nathaniel",
        "ship_port": "blk",
        "date_leaving": "blk",
        "joined_ship_date": "1887-10-27",
        "joined_at_port": "newport",
        "capacity": "cook & seaman",
        "date_left": "1887-12-23",
        "left_port": "london",
        "cause_of_leaving": "discharged",
        "sign_with_mark": "n",
        "notes": "blk"
    },
    {
        "id": "vtls004934255_1_12",
        "type": "sailor",
        "parent": "vtls004934255",
        "name": "lewis davies",
        "dob": "blk",
        "age": "28",
        "place_of_birth": "borth",
        "home_address": "blk",
        "f": "blk",
        "name_of_ship": "bernina",
        "ship_port": "blk",
        "date_leaving": "blk",
        "joined_ship_date": "1887-10-27",
        "joined_at_port": "newport",
        "capacity": "bosun",
        "date_left": "1887-12-23",
        "left_port": "london",
        "cause_of_leaving": "discharged",
        "sign_with_mark": "n",
        "notes": "blk"
    },
    {
        "id": "vtls004934255_1_11",
        "type": "sailor",
        "parent": "vtls004934255",
        "name": "david jenkins",
        "dob": "blk",
        "age": "47",
        "place_of_birth": "borth",
        "home_address": "blk",
        "f": "blk",
        "name_of_ship": "nerissa",
        "ship_port": "aberystwyth",
        "date_leaving": "blk",
        "joined_ship_date": "1887-10-27",
        "joined_at_port": "newport",
        "capacity": "master",
        "date_left": "remains",
        "left_port": "blk",
        "cause_of_leaving": "blk",
        "sign_with_mark": "n",
        "notes": "blk"
    },
    {
        "id": "vtls004934255_1_16",
        "type": "sailor",
        "parent": "vtls004934255",
        "name": "laurence white",
        "dob": "blk",
        "age": "29",
        "place_of_birth": "ballinacurra, co. cork",
        "home_address": "blk",
        "f": "blk",
        "name_of_ship": "[carrere]",
        "ship_port": "blk",
        "date_leaving": "blk",
        "joined_ship_date": "1887-11-08",
        "joined_at_port": "newport",
        "capacity": "able seaman",
        "date_left": "1887-12-23",
        "left_port": "london",
        "cause_of_leaving": "discharged",
        "sign_with_mark": "n",
        "notes": "blk"
    },
    {
        "id": "vtls004934261_0_15",
        "type": "sailor",
        "parent": "vtls004934261",
        "name": "abraham hughes",
        "dob": "1871",
        "age": "blk",
        "place_of_birth": "borth",
        "home_address": "blk",
        "f": "blk",
        "name_of_ship": "nerissa",
        "ship_port": "aberystwyth",
        "date_leaving": "1888",
        "joined_ship_date": "1888-01-01",
        "joined_at_port": "london",
        "capacity": "cook & able seaman",
        "date_left": "remains",
        "left_port": "blk",
        "cause_of_leaving": "remains on board",
        "sign_with_mark": "n",
        "notes": "blk"
    },
    {
        "id": "vtls004934261_0_13",
        "type": "sailor",
        "parent": "vtls004934261",
        "name": "michael wallace",
        "dob": "1868",
        "age": "blk",
        "place_of_birth": "ireland",
        "home_address": "blk",
        "f": "blk",
        "name_of_ship": "nerissa",
        "ship_port": "aberystwyth",
        "date_leaving": "1888",
        "joined_ship_date": "1888-01-01",
        "joined_at_port": "london",
        "capacity": "able seaman",
        "date_left": "1888-01-26",
        "left_port": "douglas",
        "cause_of_leaving": "discharged",
        "sign_with_mark": "n",
        "notes": "blk"
    },
    {
        "id": "vtls004934261_0_17",
        "type": "sailor",
        "parent": "vtls004934261",
        "name": "john henry williams",
        "dob": "1871",
        "age": "blk",
        "place_of_birth": "aberystwyth",
        "home_address": "blk",
        "f": "blk",
        "name_of_ship": "first voyage",
        "ship_port": "blk",
        "date_leaving": "1888",
        "joined_ship_date": "1888-02-03",
        "joined_at_port": "portmadoc",
        "capacity": "boy",
        "date_left": "remains",
        "left_port": "blk",
        "cause_of_leaving": "remains on board",
        "sign_with_mark": "n",
        "notes": "blk"
    },
    {
        "id": "vtls004934261_0_14",
        "type": "sailor",
        "parent": "vtls004934261",
        "name": "laurence white",
        "dob": "1859",
        "age": "blk",
        "place_of_birth": "ireland",
        "home_address": "blk",
        "f": "blk",
        "name_of_ship": "nerissa",
        "ship_port": "aberystwyth",
        "date_leaving": "1888",
        "joined_ship_date": "1888-01-01",
        "joined_at_port": "london",
        "capacity": "able seaman",
        "date_left": "1888-01-27",
        "left_port": "douglas",
        "cause_of_leaving": "discharged",
        "sign_with_mark": "n",
        "notes": "blk"
    },
    {
        "id": "vtls004934261_0_12",
        "type": "sailor",
        "parent": "vtls004934261",
        "name": "lewis davies",
        "dob": "1859",
        "age": "blk",
        "place_of_birth": "borth",
        "home_address": "blk",
        "f": "blk",
        "name_of_ship": "nerissa",
        "ship_port": "aberystwyth",
        "date_leaving": "1888",
        "joined_ship_date": "1888-01-01",
        "joined_at_port": "london",
        "capacity": "boatswain",
        "date_left": "remains",
        "left_port": "blk",
        "cause_of_leaving": "remains on board",
        "sign_with_mark": "n",
        "notes": "blk"
    },
    {
        "id": "vtls004934261_0_11",
        "type": "sailor",
        "parent": "vtls004934261",
        "name": "david jenkins",
        "dob": "1840",
        "age": "blk",
        "place_of_birth": "borth",
        "home_address": "blk",
        "f": "blk",
        "name_of_ship": "nerissa",
        "ship_port": "aberystwyth",
        "date_leaving": "1888",
        "joined_ship_date": "1888-01-01",
        "joined_at_port": "london",
        "capacity": "master",
        "date_left": "remains",
        "left_port": "blk",
        "cause_of_leaving": "remains on board",
        "sign_with_mark": "n",
        "notes": "blk"
    },
    {
        "id": "vtls004934261_0_16",
        "type": "sailor",
        "parent": "vtls004934261",
        "name": "thomas evans",
        "dob": "1867",
        "age": "blk",
        "place_of_birth": "borth",
        "home_address": "blk",
        "f": "blk",
        "name_of_ship": "premier",
        "ship_port": "blk",
        "date_leaving": "1888",
        "joined_ship_date": "1888-02-03",
        "joined_at_port": "portmadoc",
        "capacity": "able seaman",
        "date_left": "remains",
        "left_port": "blk",
        "cause_of_leaving": "remains on board",
        "sign_with_mark": "n",
        "notes": "blk"
    },
    {
        "id": "vtls004934274_1_11",
        "type": "sailor",
        "parent": "vtls004934274",
        "name": "david jenkins",
        "dob": "1840",
        "age": "blk",
        "place_of_birth": "borth",
        "home_address": "40, portland st, aberystwith",
        "f": "40, portland st, aberystwith",
        "name_of_ship": "nerissa",
        "ship_port": "aberystwyth",
        "date_leaving": "1890",
        "joined_ship_date": "1890-01-18",
        "joined_at_port": "glasgow",
        "capacity": "master",
        "date_left": "1890-05-10",
        "left_port": "drammen",
        "cause_of_leaving": "new agreement",
        "sign_with_mark": "n",
        "notes": "blk"
    },
    {
        "id": "vtls004934274_0_13",
        "type": "sailor",
        "parent": "vtls004934274",
        "name": "john henry williams",
        "dob": "blk",
        "age": "18",
        "place_of_birth": "borth",
        "home_address": "blk",
        "f": "blk",
        "name_of_ship": "nerissa",
        "ship_port": "aberystwyth",
        "date_leaving": "1889",
        "joined_ship_date": "[1889-09-24]",
        "joined_at_port": "glasgow",
        "capacity": "cook & seaman",
        "date_left": "1889-12-31",
        "left_port": "glasgow",
        "cause_of_leaving": "discharged",
        "sign_with_mark": "n",
        "notes": "blk"
    },
    {
        "id": "vtls004934274_0_15",
        "type": "sailor",
        "parent": "vtls004934274",
        "name": "humphrey richards",
        "dob": "blk",
        "age": "19",
        "place_of_birth": "portmadoc",
        "home_address": "blk",
        "f": "blk",
        "name_of_ship": "jehu",
        "ship_port": "ramsay",
        "date_leaving": "1889",
        "joined_ship_date": "[1889-09-24]",
        "joined_at_port": "glasgow",
        "capacity": "ordinary seaman",
        "date_left": "1889-12-31",
        "left_port": "glasgow",
        "cause_of_leaving": "discharged",
        "sign_with_mark": "n",
        "notes": "blk"
    },
    {
        "id": "vtls004934274_1_12",
        "type": "sailor",
        "parent": "vtls004934274",
        "name": "frederick johnston",
        "dob": "1866",
        "age": "blk",
        "place_of_birth": "quebec",
        "home_address": "blk",
        "f": "blk",
        "name_of_ship": "bellmore",
        "ship_port": "blk",
        "date_leaving": "1889",
        "joined_ship_date": "1890-01-18",
        "joined_at_port": "glasgow",
        "capacity": "able seaman",
        "date_left": "1890-01-30",
        "left_port": "porthmadog",
        "cause_of_leaving": "discharged",
        "sign_with_mark": "blk",
        "notes": "blk"
    },
    {
        "id": "vtls004934274_0_11",
        "type": "sailor",
        "parent": "vtls004934274",
        "name": "david jenkins",
        "dob": "blk",
        "age": "49",
        "place_of_birth": "cardigan",
        "home_address": "blk",
        "f": "blk",
        "name_of_ship": "nerissa",
        "ship_port": "aberystwyth",
        "date_leaving": "1889",
        "joined_ship_date": "[1889-09-24]",
        "joined_at_port": "glasgow",
        "capacity": "master",
        "date_left": "1890-01-01",
        "left_port": "glasgow",
        "cause_of_leaving": "discharged",
        "sign_with_mark": "n",
        "notes": "blk"
    },
    {
        "id": "vtls004934274_0_14",
        "type": "sailor",
        "parent": "vtls004934274",
        "name": "john f mckenzie",
        "dob": "blk",
        "age": "22",
        "place_of_birth": "holyhead",
        "home_address": "blk",
        "f": "blk",
        "name_of_ship": "union",
        "ship_port": "blk",
        "date_leaving": "1889",
        "joined_ship_date": "[1889-09-24]",
        "joined_at_port": "glasgow",
        "capacity": "able seaman",
        "date_left": "1889-12-31",
        "left_port": "glasgow",
        "cause_of_leaving": "discharged",
        "sign_with_mark": "n",
        "notes": "blk"
    },
    {
        "id": "vtls004934274_1_13",
        "type": "sailor",
        "parent": "vtls004934274",
        "name": "james stephen",
        "dob": "1867",
        "age": "blk",
        "place_of_birth": "jamaica",
        "home_address": "blk",
        "f": "blk",
        "name_of_ship": "blk",
        "ship_port": "blk",
        "date_leaving": "blk",
        "joined_ship_date": "1890-01-18",
        "joined_at_port": "glasgow",
        "capacity": "able seaman",
        "date_left": "1890-01-30",
        "left_port": "porthmadog",
        "cause_of_leaving": "discharged",
        "sign_with_mark": "blk",
        "notes": "blk"
    },
    {
        "id": "vtls004934274_0_12",
        "type": "sailor",
        "parent": "vtls004934274",
        "name": "hugh davies",
        "dob": "blk",
        "age": "45",
        "place_of_birth": "cardigan",
        "home_address": "blk",
        "f": "blk",
        "name_of_ship": "gwendoline",
        "ship_port": "blk",
        "date_leaving": "1889",
        "joined_ship_date": "[1889-09-24]",
        "joined_at_port": "glasgow",
        "capacity": "mate",
        "date_left": "1890-01-01",
        "left_port": "glasgow",
        "cause_of_leaving": "discharged",
        "sign_with_mark": "n",
        "notes": "blk"
    },
    {
        "id": "vtls004934274_1_15",
        "type": "sailor",
        "parent": "vtls004934274",
        "name": "j h williams",
        "dob": "1870",
        "age": "blk",
        "place_of_birth": "aberystwyth",
        "home_address": "blk",
        "f": "blk",
        "name_of_ship": "nerissa",
        "ship_port": "aberystwyth",
        "date_leaving": "blk",
        "joined_ship_date": "1890-01-21",
        "joined_at_port": "glasgow",
        "capacity": "cook & seaman",
        "date_left": "1890-01-30",
        "left_port": "porthmadog",
        "cause_of_leaving": "discharged",
        "sign_with_mark": "blk",
        "notes": "blk"
    },
    {
        "id": "vtls004934274_1_14",
        "type": "sailor",
        "parent": "vtls004934274",
        "name": "h richards",
        "dob": "1868",
        "age": "blk",
        "place_of_birth": "portmadoc",
        "home_address": "blk",
        "f": "blk",
        "name_of_ship": "nerissa",
        "ship_port": "aberystwyth",
        "date_leaving": "blk",
        "joined_ship_date": "1890-01-18",
        "joined_at_port": "glasgow",
        "capacity": "able seaman",
        "date_left": "1890-01-30",
        "left_port": "porthmadog",
        "cause_of_leaving": "discharged",
        "sign_with_mark": "blk",
        "notes": "blk"
    },
    {
        "id": "vtls004934274_2_13",
        "type": "sailor",
        "parent": "vtls004934274",
        "name": "john hughes",
        "dob": "1844",
        "age": "blk",
        "place_of_birth": "glandyfi",
        "home_address": "blk",
        "f": "blk",
        "name_of_ship": "nerissa",
        "ship_port": "aberystwyth",
        "date_leaving": "1890",
        "joined_ship_date": "blk",
        "joined_at_port": "drammen",
        "capacity": "able seaman",
        "date_left": "1890-07-02",
        "left_port": "aberystwyth",
        "cause_of_leaving": "discharged",
        "sign_with_mark": "y",
        "notes": "blk"
    },
    {
        "id": "vtls004934274_2_14",
        "type": "sailor",
        "parent": "vtls004934274",
        "name": "william williams",
        "dob": "1872",
        "age": "blk",
        "place_of_birth": "borth",
        "home_address": "blk",
        "f": "blk",
        "name_of_ship": "nerissa",
        "ship_port": "aberystwyth",
        "date_leaving": "1890",
        "joined_ship_date": "blk",
        "joined_at_port": "drammen",
        "capacity": "able seaman",
        "date_left": "1890-07-02",
        "left_port": "aberystwyth",
        "cause_of_leaving": "discharged",
        "sign_with_mark": "n",
        "notes": "blk"
    },
    {
        "id": "vtls004934274_1_18",
        "type": "sailor",
        "parent": "vtls004934274",
        "name": "william williams",
        "dob": "1872",
        "age": "blk",
        "place_of_birth": "borth",
        "home_address": "blk",
        "f": "blk",
        "name_of_ship": "[guzariner]",
        "ship_port": "blk",
        "date_leaving": "1890",
        "joined_ship_date": "blk",
        "joined_at_port": "drammen",
        "capacity": "able seaman",
        "date_left": "1890-05-10",
        "left_port": "drammen",
        "cause_of_leaving": "new agreement",
        "sign_with_mark": "n",
        "notes": "blk"
    },
    {
        "id": "vtls004934274_2_12",
        "type": "sailor",
        "parent": "vtls004934274",
        "name": "thomas evans",
        "dob": "1867",
        "age": "blk",
        "place_of_birth": "borth",
        "home_address": "blk",
        "f": "blk",
        "name_of_ship": "nerissa",
        "ship_port": "aberystwyth",
        "date_leaving": "1890",
        "joined_ship_date": "blk",
        "joined_at_port": "drammen",
        "capacity": "boatswain",
        "date_left": "1890-07-02",
        "left_port": "aberystwyth",
        "cause_of_leaving": "discharged",
        "sign_with_mark": "n",
        "notes": "blk"
    },
    {
        "id": "vtls004934274_1_17",
        "type": "sailor",
        "parent": "vtls004934274",
        "name": "john hughes",
        "dob": "1844",
        "age": "blk",
        "place_of_birth": "glandyfi",
        "home_address": "blk",
        "f": "blk",
        "name_of_ship": "nathaniel",
        "ship_port": "blk",
        "date_leaving": "1890",
        "joined_ship_date": "blk",
        "joined_at_port": "drammen",
        "capacity": "able seaman",
        "date_left": "1890-05-10",
        "left_port": "drammen",
        "cause_of_leaving": "new agreement",
        "sign_with_mark": "y",
        "notes": "blk"
    },
    {
        "id": "vtls004934274_2_11",
        "type": "sailor",
        "parent": "vtls004934274",
        "name": "david jenkins",
        "dob": "1840",
        "age": "blk",
        "place_of_birth": "borth",
        "home_address": "blk",
        "f": "blk",
        "name_of_ship": "nerissa",
        "ship_port": "aberystwyth",
        "date_leaving": "1890",
        "joined_ship_date": "blk",
        "joined_at_port": "drammen",
        "capacity": "master",
        "date_left": "1890-07-02",
        "left_port": "aberystwyth",
        "cause_of_leaving": "discharged",
        "sign_with_mark": "n",
        "notes": "blk"
    },
    {
        "id": "vtls004934274_1_16",
        "type": "sailor",
        "parent": "vtls004934274",
        "name": "thomas evans",
        "dob": "1867",
        "age": "blk",
        "place_of_birth": "borth",
        "home_address": "blk",
        "f": "blk",
        "name_of_ship": "moryla",
        "ship_port": "blk",
        "date_leaving": "1890",
        "joined_ship_date": "blk",
        "joined_at_port": "drammen",
        "capacity": "boatswain",
        "date_left": "1890-05-10",
        "left_port": "drammen",
        "cause_of_leaving": "new agreement",
        "sign_with_mark": "n",
        "notes": "blk"
    },
    {
        "id": "vtls004934274_1_19",
        "type": "sailor",
        "parent": "vtls004934274",
        "name": "e locke",
        "dob": "1873",
        "age": "blk",
        "place_of_birth": "borth",
        "home_address": "blk",
        "f": "blk",
        "name_of_ship": "leander",
        "ship_port": "blk",
        "date_leaving": "1890",
        "joined_ship_date": "blk",
        "joined_at_port": "drammen",
        "capacity": "cook",
        "date_left": "1890-05-10",
        "left_port": "drammen",
        "cause_of_leaving": "new agreement",
        "sign_with_mark": "n",
        "notes": "blk"
    },
    {
        "id": "vtls004934274_3_14",
        "type": "sailor",
        "parent": "vtls004934274",
        "name": "james t jenkins",
        "dob": "blk",
        "age": "15",
        "place_of_birth": "aberystwyth",
        "home_address": "blk",
        "f": "blk",
        "name_of_ship": "first voyage",
        "ship_port": "blk",
        "date_leaving": "blk",
        "joined_ship_date": "1890-08-06",
        "joined_at_port": "portmadoc",
        "capacity": "ordinary seaman",
        "date_left": "1890-09-20",
        "left_port": "london",
        "cause_of_leaving": "discharged",
        "sign_with_mark": "n",
        "notes": "blk"
    },
    {
        "id": "vtls004934274_3_13",
        "type": "sailor",
        "parent": "vtls004934274",
        "name": "william williams",
        "dob": "blk",
        "age": "19",
        "place_of_birth": "borth",
        "home_address": "blk",
        "f": "blk",
        "name_of_ship": "nerissa",
        "ship_port": "aberystwyth",
        "date_leaving": "blk",
        "joined_ship_date": "1890-08-06",
        "joined_at_port": "portmadoc",
        "capacity": "able seaman",
        "date_left": "1890-12-30",
        "left_port": "london",
        "cause_of_leaving": "discharged",
        "sign_with_mark": "n",
        "notes": "blk"
    },
    {
        "id": "vtls004934274_3_11",
        "type": "sailor",
        "parent": "vtls004934274",
        "name": "david jenkins",
        "dob": "blk",
        "age": "49",
        "place_of_birth": "borth",
        "home_address": "blk",
        "f": "blk",
        "name_of_ship": "nerissa",
        "ship_port": "aberystwyth",
        "date_leaving": "blk",
        "joined_ship_date": "1890-08-06",
        "joined_at_port": "portmadoc",
        "capacity": "master",
        "date_left": "1891-01-28",
        "left_port": "dublin",
        "cause_of_leaving": "remains on board",
        "sign_with_mark": "n",
        "notes": "blk"
    },
    {
        "id": "vtls004934274_3_12",
        "type": "sailor",
        "parent": "vtls004934274",
        "name": "thomas evans",
        "dob": "blk",
        "age": "23",
        "place_of_birth": "borth",
        "home_address": "blk",
        "f": "blk",
        "name_of_ship": "nerissa",
        "ship_port": "aberystwyth",
        "date_leaving": "blk",
        "joined_ship_date": "1890-08-06",
        "joined_at_port": "portmadoc",
        "capacity": "boatswain",
        "date_left": "1890-10-28",
        "left_port": "chester",
        "cause_of_leaving": "discharged",
        "sign_with_mark": "n",
        "notes": "blk"
    },
    {
        "id": "vtls004934274_3_16",
        "type": "sailor",
        "parent": "vtls004934274",
        "name": "john sheldrake",
        "dob": "blk",
        "age": "48",
        "place_of_birth": "suffolk",
        "home_address": "blk",
        "f": "blk",
        "name_of_ship": "rheidol",
        "ship_port": "blk",
        "date_leaving": "blk",
        "joined_ship_date": "1890-08-06",
        "joined_at_port": "portmadoc",
        "capacity": "able seaman",
        "date_left": "1891-02-05",
        "left_port": "dublin",
        "cause_of_leaving": "discharged",
        "sign_with_mark": "n",
        "notes": "blk"
    },
    {
        "id": "vtls004934274_3_18",
        "type": "sailor",
        "parent": "vtls004934274",
        "name": "richard sizeland",
        "dob": "blk",
        "age": "23",
        "place_of_birth": "harwich",
        "home_address": "blk",
        "f": "blk",
        "name_of_ship": "magic",
        "ship_port": "blk",
        "date_leaving": "blk",
        "joined_ship_date": "1890-06-11",
        "joined_at_port": "london",
        "capacity": "able seaman",
        "date_left": "1891-01-28",
        "left_port": "dublin",
        "cause_of_leaving": "remains on board",
        "sign_with_mark": "n",
        "notes": "blk"
    },
    {
        "id": "vtls004934274_3_17",
        "type": "sailor",
        "parent": "vtls004934274",
        "name": "thomas davies",
        "dob": "blk",
        "age": "28",
        "place_of_birth": "borth",
        "home_address": "blk",
        "f": "blk",
        "name_of_ship": "bernina",
        "ship_port": "blk",
        "date_leaving": "blk",
        "joined_ship_date": "1890-03-11",
        "joined_at_port": "chester",
        "capacity": "boatswain",
        "date_left": "1891-01-28",
        "left_port": "dublin",
        "cause_of_leaving": "remains on board",
        "sign_with_mark": "n",
        "notes": "blk"
    },
    {
        "id": "vtls004934274_3_15",
        "type": "sailor",
        "parent": "vtls004934274",
        "name": "george $utton",
        "dob": "blk",
        "age": "15",
        "place_of_birth": "borth",
        "home_address": "blk",
        "f": "blk",
        "name_of_ship": "first voyage",
        "ship_port": "blk",
        "date_leaving": "blk",
        "joined_ship_date": "1890-08-06",
        "joined_at_port": "portmadoc",
        "capacity": "cook",
        "date_left": "1890-10-28",
        "left_port": "chester",
        "cause_of_leaving": "discharged",
        "sign_with_mark": "n",
        "notes": "blk"
    },
    {
        "id": "vtls004934274_2_15",
        "type": "sailor",
        "parent": "vtls004934274",
        "name": "e locke",
        "dob": "1873",
        "age": "blk",
        "place_of_birth": "borth",
        "home_address": "blk",
        "f": "blk",
        "name_of_ship": "nerissa",
        "ship_port": "aberystwyth",
        "date_leaving": "1890",
        "joined_ship_date": "blk",
        "joined_at_port": "drammen",
        "capacity": "cook",
        "date_left": "1890-07-02",
        "left_port": "aberystwyth",
        "cause_of_leaving": "discharged",
        "sign_with_mark": "n",
        "notes": "blk"
    },
    {
        "id": "vtls004934298_0_15",
        "type": "sailor",
        "parent": "vtls004934298",
        "name": "john sheldrake",
        "dob": "1842",
        "age": "blk",
        "place_of_birth": "woodbridge, suffolk",
        "home_address": "blk",
        "f": "blk",
        "name_of_ship": "volunteer",
        "ship_port": "aberystwyth",
        "date_leaving": "blk",
        "joined_ship_date": "1891-04-25",
        "joined_at_port": "portmadoc",
        "capacity": "able seaman",
        "date_left": "1891-05-05",
        "left_port": "harburg, germany",
        "cause_of_leaving": "discharged",
        "sign_with_mark": "n",
        "notes": "blk"
    },
    {
        "id": "vtls004934298_0_13",
        "type": "sailor",
        "parent": "vtls004934298",
        "name": "gr sizeland",
        "dob": "1842",
        "age": "blk",
        "place_of_birth": "harwich",
        "home_address": "blk",
        "f": "blk",
        "name_of_ship": "nerissa",
        "ship_port": "aberystwyth",
        "date_leaving": "blk",
        "joined_ship_date": "1891-02-06",
        "joined_at_port": "dublin",
        "capacity": "able seaman",
        "date_left": "1891-05-05",
        "left_port": "harburg, germany",
        "cause_of_leaving": "discharged",
        "sign_with_mark": "n",
        "notes": "blk"
    },
    {
        "id": "vtls004934298_0_12",
        "type": "sailor",
        "parent": "vtls004934298",
        "name": "thomas davies",
        "dob": "1862",
        "age": "blk",
        "place_of_birth": "borth",
        "home_address": "blk",
        "f": "blk",
        "name_of_ship": "nerissa",
        "ship_port": "aberystwyth",
        "date_leaving": "blk",
        "joined_ship_date": "1891-02-06",
        "joined_at_port": "dublin",
        "capacity": "boatswain",
        "date_left": "1891-05-05",
        "left_port": "harburg, germany",
        "cause_of_leaving": "discharged",
        "sign_with_mark": "n",
        "notes": "blk"
    },
    {
        "id": "vtls004934298_0_16",
        "type": "sailor",
        "parent": "vtls004934298",
        "name": "john taylor",
        "dob": "1846",
        "age": "blk",
        "place_of_birth": "borth",
        "home_address": "blk",
        "f": "blk",
        "name_of_ship": "first voyage",
        "ship_port": "blk",
        "date_leaving": "blk",
        "joined_ship_date": "1891-04-06",
        "joined_at_port": "portmadoc",
        "capacity": "boy",
        "date_left": "1891-05-05",
        "left_port": "harburg, germany",
        "cause_of_leaving": "discharged",
        "sign_with_mark": "n",
        "notes": "blk"
    },
    {
        "id": "vtls004934298_0_11",
        "type": "sailor",
        "parent": "vtls004934298",
        "name": "david jenkins",
        "dob": "1840",
        "age": "blk",
        "place_of_birth": "borth",
        "home_address": "blk",
        "f": "blk",
        "name_of_ship": "nerissa",
        "ship_port": "aberystwyth",
        "date_leaving": "blk",
        "joined_ship_date": "1891-02-06",
        "joined_at_port": "dublin",
        "capacity": "master",
        "date_left": "blk",
        "left_port": "blk",
        "cause_of_leaving": "remains on board",
        "sign_with_mark": "n",
        "notes": "blk"
    },
    {
        "id": "vtls004934298_0_14",
        "type": "sailor",
        "parent": "vtls004934298",
        "name": "john hill",
        "dob": "1875",
        "age": "blk",
        "place_of_birth": "london",
        "home_address": "blk",
        "f": "blk",
        "name_of_ship": "nerissa",
        "ship_port": "aberystwyth",
        "date_leaving": "blk",
        "joined_ship_date": "1891-02-06",
        "joined_at_port": "dublin",
        "capacity": "boy",
        "date_left": "1891-02-23",
        "left_port": "aberystwyth",
        "cause_of_leaving": "discharged",
        "sign_with_mark": "n",
        "notes": "blk"
    },
    {
        "id": "vtls004934274_3_19",
        "type": "sailor",
        "parent": "vtls004934274",
        "name": "john hill",
        "dob": "blk",
        "age": "15",
        "place_of_birth": "london",
        "home_address": "blk",
        "f": "blk",
        "name_of_ship": "first voyage",
        "ship_port": "blk",
        "date_leaving": "blk",
        "joined_ship_date": "1890-07-01",
        "joined_at_port": "london",
        "capacity": "boy",
        "date_left": "1891-01-28",
        "left_port": "dublin",
        "cause_of_leaving": "remains on board",
        "sign_with_mark": "n",
        "notes": "blk"
    },
    {
        "id": "vtls004934298_2_13",
        "type": "sailor",
        "parent": "vtls004934298",
        "name": "john sheldrake",
        "dob": "blk",
        "age": "49",
        "place_of_birth": "woodbridge, suffolk",
        "home_address": "blk",
        "f": "blk",
        "name_of_ship": "nerissa",
        "ship_port": "aberystwyth",
        "date_leaving": "1891",
        "joined_ship_date": "1891-08-03",
        "joined_at_port": "dundee",
        "capacity": "able seaman",
        "date_left": "1891-09-16",
        "left_port": "porthmadog",
        "cause_of_leaving": "discharged",
        "sign_with_mark": "blk",
        "notes": "blk"
    },
    {
        "id": "vtls004934298_1_14",
        "type": "sailor",
        "parent": "vtls004934298",
        "name": "john sheldrake",
        "dob": "1842",
        "age": "blk",
        "place_of_birth": "woodbridge, suffolk",
        "home_address": "blk",
        "f": "blk",
        "name_of_ship": "nerissa",
        "ship_port": "aberystwyth",
        "date_leaving": "1891",
        "joined_ship_date": "1891-05-21",
        "joined_at_port": "harburg",
        "capacity": "able seaman",
        "date_left": "1890-07-27",
        "left_port": "dundee",
        "cause_of_leaving": "discharged",
        "sign_with_mark": "n",
        "notes": "blk"
    },
    {
        "id": "vtls004934298_1_13",
        "type": "sailor",
        "parent": "vtls004934298",
        "name": "gr sizeland",
        "dob": "1842",
        "age": "blk",
        "place_of_birth": "harwich",
        "home_address": "blk",
        "f": "blk",
        "name_of_ship": "nerissa",
        "ship_port": "aberystwyth",
        "date_leaving": "1891",
        "joined_ship_date": "1891-05-21",
        "joined_at_port": "harburg",
        "capacity": "able seaman",
        "date_left": "1890-07-31",
        "left_port": "dundee",
        "cause_of_leaving": "discharged",
        "sign_with_mark": "n",
        "notes": "blk"
    },
    {
        "id": "vtls004934298_1_12",
        "type": "sailor",
        "parent": "vtls004934298",
        "name": "thomas davies",
        "dob": "1862",
        "age": "blk",
        "place_of_birth": "borth",
        "home_address": "blk",
        "f": "blk",
        "name_of_ship": "nerissa",
        "ship_port": "aberystwyth",
        "date_leaving": "1891",
        "joined_ship_date": "1891-05-21",
        "joined_at_port": "harburg",
        "capacity": "boatswain",
        "date_left": "1890-07-31",
        "left_port": "dundee",
        "cause_of_leaving": "discharged",
        "sign_with_mark": "n",
        "notes": "blk"
    },
    {
        "id": "vtls004934298_1_11",
        "type": "sailor",
        "parent": "vtls004934298",
        "name": "david jenkins",
        "dob": "1840",
        "age": "blk",
        "place_of_birth": "borth",
        "home_address": "blk",
        "f": "blk",
        "name_of_ship": "nerissa",
        "ship_port": "aberystwyth",
        "date_leaving": "1891",
        "joined_ship_date": "1891-05-21",
        "joined_at_port": "harburg",
        "capacity": "master",
        "date_left": "remains",
        "left_port": "blk",
        "cause_of_leaving": "remains on board",
        "sign_with_mark": "n",
        "notes": "blk"
    },
    {
        "id": "vtls004934298_2_14",
        "type": "sailor",
        "parent": "vtls004934298",
        "name": "john taylor",
        "dob": "blk",
        "age": "15",
        "place_of_birth": "borth",
        "home_address": "blk",
        "f": "blk",
        "name_of_ship": "nerissa",
        "ship_port": "aberystwyth",
        "date_leaving": "1891",
        "joined_ship_date": "1891-08-03",
        "joined_at_port": "dundee",
        "capacity": "boy",
        "date_left": "1891-09-16",
        "left_port": "porthmadog",
        "cause_of_leaving": "discharged",
        "sign_with_mark": "blk",
        "notes": "blk"
    },
    {
        "id": "vtls004934298_2_15",
        "type": "sailor",
        "parent": "vtls004934298",
        "name": "johan kinberg",
        "dob": "blk",
        "age": "19",
        "place_of_birth": "norway",
        "home_address": "blk",
        "f": "blk",
        "name_of_ship": "otra",
        "ship_port": "blk",
        "date_leaving": "1891",
        "joined_ship_date": "1891-08-12",
        "joined_at_port": "dysart",
        "capacity": "able seaman",
        "date_left": "1891-09-16",
        "left_port": "porthmadog",
        "cause_of_leaving": "discharged",
        "sign_with_mark": "blk",
        "notes": "blk"
    },
    {
        "id": "vtls004934298_1_15",
        "type": "sailor",
        "parent": "vtls004934298",
        "name": "john taylor",
        "dob": "1846",
        "age": "blk",
        "place_of_birth": "borth",
        "home_address": "blk",
        "f": "blk",
        "name_of_ship": "nerissa",
        "ship_port": "aberystwyth",
        "date_leaving": "1891",
        "joined_ship_date": "1891-05-21",
        "joined_at_port": "harburg",
        "capacity": "boy",
        "date_left": "1890-07-31",
        "left_port": "dundee",
        "cause_of_leaving": "discharged",
        "sign_with_mark": "n",
        "notes": "blk"
    },
    {
        "id": "vtls004934298_2_11",
        "type": "sailor",
        "parent": "vtls004934298",
        "name": "david jenkins",
        "dob": "blk",
        "age": "50",
        "place_of_birth": "borth",
        "home_address": "blk",
        "f": "blk",
        "name_of_ship": "nerissa",
        "ship_port": "aberystwyth",
        "date_leaving": "1891",
        "joined_ship_date": "1891-08-03",
        "joined_at_port": "dundee",
        "capacity": "master",
        "date_left": "blk",
        "left_port": "blk",
        "cause_of_leaving": "remains on board",
        "sign_with_mark": "blk",
        "notes": "blk"
    },
    {
        "id": "vtls004934298_2_12",
        "type": "sailor",
        "parent": "vtls004934298",
        "name": "thomas davies",
        "dob": "blk",
        "age": "28",
        "place_of_birth": "borth",
        "home_address": "blk",
        "f": "blk",
        "name_of_ship": "nerissa",
        "ship_port": "aberystwyth",
        "date_leaving": "1891",
        "joined_ship_date": "1891-08-03",
        "joined_at_port": "dundee",
        "capacity": "mate",
        "date_left": "blk",
        "left_port": "blk",
        "cause_of_leaving": "remains on board",
        "sign_with_mark": "blk",
        "notes": "blk"
    },
    {
        "id": "vtls004934298_3_14",
        "type": "sailor",
        "parent": "vtls004934298",
        "name": "owen jones",
        "dob": "1870",
        "age": "blk",
        "place_of_birth": "rhyn",
        "home_address": "australia inn, portmadoc",
        "f": "australia inn, portmadoc",
        "name_of_ship": "village maid",
        "ship_port": "carnarvon",
        "date_leaving": "1891",
        "joined_ship_date": "1891-10-03",
        "joined_at_port": "portmadoc",
        "capacity": "able seaman",
        "date_left": "1891-11-11",
        "left_port": "hastings",
        "cause_of_leaving": "vessel total wreck",
        "sign_with_mark": "y",
        "notes": "blk"
    },
    {
        "id": "vtls004934298_3_13",
        "type": "sailor",
        "parent": "vtls004934298",
        "name": "john davies",
        "dob": "1866",
        "age": "blk",
        "place_of_birth": "borth",
        "home_address": "18 dora st. portmadoc",
        "f": "18 dora st. portmadoc",
        "name_of_ship": "michael kelly",
        "ship_port": "liverpool",
        "date_leaving": "1891",
        "joined_ship_date": "1891-10-01",
        "joined_at_port": "portmadoc",
        "capacity": "able seaman",
        "date_left": "1891-11-11",
        "left_port": "hastings",
        "cause_of_leaving": "vessel total wreck",
        "sign_with_mark": "n",
        "notes": "blk"
    },
    {
        "id": "vtls004934298_3_11",
        "type": "sailor",
        "parent": "vtls004934298",
        "name": "david jenkins",
        "dob": "1840",
        "age": "blk",
        "place_of_birth": "borth",
        "home_address": "portland st. aberystwith",
        "f": "portland st. aberystwith",
        "name_of_ship": "nerissa",
        "ship_port": "aberystwyth",
        "date_leaving": "1878",
        "joined_ship_date": "blk",
        "joined_at_port": "aberystwyth",
        "capacity": "master",
        "date_left": "1891-11-11",
        "left_port": "hastings",
        "cause_of_leaving": "vessel total wreck",
        "sign_with_mark": "n",
        "notes": "blk"
    },
    {
        "id": "vtls004934298_3_12",
        "type": "sailor",
        "parent": "vtls004934298",
        "name": "thomas davies",
        "dob": "1862",
        "age": "blk",
        "place_of_birth": "borth",
        "home_address": "blk",
        "f": "blk",
        "name_of_ship": "nerissa",
        "ship_port": "aberystwyth",
        "date_leaving": "1891",
        "joined_ship_date": "1891-10-01",
        "joined_at_port": "portmadoc",
        "capacity": "boswain",
        "date_left": "1891-11-11",
        "left_port": "hastings",
        "cause_of_leaving": "vessel total wreck",
        "sign_with_mark": "n",
        "notes": "blk"
    },
    {
        "id": "vtls004934298_3_15",
        "type": "sailor",
        "parent": "vtls004934298",
        "name": "john taylor",
        "dob": "1876",
        "age": "blk",
        "place_of_birth": "borth",
        "home_address": "blk",
        "f": "blk",
        "name_of_ship": "nerissa",
        "ship_port": "aberystwyth",
        "date_leaving": "1891",
        "joined_ship_date": "1891-10-03",
        "joined_at_port": "portmadoc",
        "capacity": "cook",
        "date_left": "1891-11-11",
        "left_port": "hastings",
        "cause_of_leaving": "vessel total wreck",
        "sign_with_mark": "n",
        "notes": "blk"
    }
]