[
    {
        "id": "vtls004940095_0_13",
        "type": "sailor",
        "parent": "vtls004940095",
        "name": "thomas george",
        "dob": "1868",
        "age": "blk",
        "place_of_birth": "aberystwyth",
        "home_address": "blk",
        "f": "blk",
        "name_of_ship": "dowlais",
        "ship_port": "cardiff",
        "date_leaving": "1892-01",
        "joined_ship_date": "1892-05-20",
        "joined_at_port": "aberystwyth",
        "capacity": "3rd hand",
        "date_left": "1892-06-23",
        "left_port": "aberystwyth",
        "cause_of_leaving": "discharged",
        "sign_with_mark": "n",
        "notes": "blk"
    },
    {
        "id": "vtls004940095_0_12",
        "type": "sailor",
        "parent": "vtls004940095",
        "name": "e daniel",
        "dob": "1856",
        "age": "blk",
        "place_of_birth": "aberystwyth",
        "home_address": "blk",
        "f": "blk",
        "name_of_ship": "porpoise",
        "ship_port": "aberystwyth",
        "date_leaving": "1891",
        "joined_ship_date": "1892-03-02",
        "joined_at_port": "aberystwyth",
        "capacity": "2nd hand",
        "date_left": "1892-06-23",
        "left_port": "aberystwyth",
        "cause_of_leaving": "discharged",
        "sign_with_mark": "n",
        "notes": "blk"
    },
    {
        "id": "vtls004940095_0_14",
        "type": "sailor",
        "parent": "vtls004940095",
        "name": "thomas jones",
        "dob": "1866",
        "age": "blk",
        "place_of_birth": "aberystwyth",
        "home_address": "blk",
        "f": "blk",
        "name_of_ship": "glendower",
        "ship_port": "cardiff",
        "date_leaving": "1892",
        "joined_ship_date": "1892-05-20",
        "joined_at_port": "aberystwyth",
        "capacity": "able seaman",
        "date_left": "blk",
        "left_port": "blk",
        "cause_of_leaving": "remains on board",
        "sign_with_mark": "n",
        "notes": "blk"
    },
    {
        "id": "vtls004940095_1_11",
        "type": "sailor",
        "parent": "vtls004940095",
        "name": "thomas george",
        "dob": "1869",
        "age": "blk",
        "place_of_birth": "aberystwyth",
        "home_address": "blk",
        "f": "blk",
        "name_of_ship": "porpoise",
        "ship_port": "aberystwyth",
        "date_leaving": "remains",
        "joined_ship_date": "1892",
        "joined_at_port": "blk",
        "capacity": "master",
        "date_left": "1892-10-22",
        "left_port": "aberystwyth",
        "cause_of_leaving": "discharged",
        "sign_with_mark": "n",
        "notes": "blk"
    },
    {
        "id": "vtls004940095_0_15",
        "type": "sailor",
        "parent": "vtls004940095",
        "name": "theophilus jenkins",
        "dob": "blk",
        "age": "29",
        "place_of_birth": "aberystwyth",
        "home_address": "blk",
        "f": "blk",
        "name_of_ship": "dowlais",
        "ship_port": "cardiff",
        "date_leaving": "1892",
        "joined_ship_date": "1892-06-23",
        "joined_at_port": "aberystwyth",
        "capacity": "hand",
        "date_left": "blk",
        "left_port": "blk",
        "cause_of_leaving": "remains on board",
        "sign_with_mark": "n",
        "notes": "blk"
    },
    {
        "id": "vtls004940095_1_12",
        "type": "sailor",
        "parent": "vtls004940095",
        "name": "evan daniel",
        "dob": "1860",
        "age": "blk",
        "place_of_birth": "aberystwyth",
        "home_address": "blk",
        "f": "blk",
        "name_of_ship": "porpoise",
        "ship_port": "aberystwyth",
        "date_leaving": "remains",
        "joined_ship_date": "blk",
        "joined_at_port": "blk",
        "capacity": "2nd hand",
        "date_left": "1892-09-14",
        "left_port": "aberystwyth",
        "cause_of_leaving": "discharged",
        "sign_with_mark": "n",
        "notes": "blk"
    },
    {
        "id": "vtls004940095_0_11",
        "type": "sailor",
        "parent": "vtls004940095",
        "name": "f c wemyss",
        "dob": "1870",
        "age": "blk",
        "place_of_birth": "london",
        "home_address": "blk",
        "f": "blk",
        "name_of_ship": "porpoise",
        "ship_port": "aberystwyth",
        "date_leaving": "1891",
        "joined_ship_date": "1892-01-01",
        "joined_at_port": "aberystwyth",
        "capacity": "master",
        "date_left": "blk",
        "left_port": "blk",
        "cause_of_leaving": "remains on board",
        "sign_with_mark": "n",
        "notes": "blk"
    },
    {
        "id": "vtls004940102_0_15",
        "type": "sailor",
        "parent": "vtls004940102",
        "name": "ernest worthington",
        "dob": "1866",
        "age": "blk",
        "place_of_birth": "aberystwyth",
        "home_address": "blk",
        "f": "blk",
        "name_of_ship": "porpoise",
        "ship_port": "aberystwyth",
        "date_leaving": "1892",
        "joined_ship_date": "1893-02-27",
        "joined_at_port": "aberystwyth",
        "capacity": "2nd hand",
        "date_left": "1893-06-19",
        "left_port": "aberystwyth",
        "cause_of_leaving": "discharged",
        "sign_with_mark": "n",
        "notes": "blk"
    },
    {
        "id": "vtls004940102_0_14",
        "type": "sailor",
        "parent": "vtls004940102",
        "name": "theophilus jenkins",
        "dob": "1868",
        "age": "blk",
        "place_of_birth": "aberystwyth",
        "home_address": "blk",
        "f": "blk",
        "name_of_ship": "porpoise",
        "ship_port": "aberystwyth",
        "date_leaving": "remains",
        "joined_ship_date": "blk",
        "joined_at_port": "blk",
        "capacity": "hand",
        "date_left": "1893-03-24",
        "left_port": "aberystwyth",
        "cause_of_leaving": "discharged",
        "sign_with_mark": "n",
        "notes": "blk"
    },
    {
        "id": "vtls004940102_0_12",
        "type": "sailor",
        "parent": "vtls004940102",
        "name": "thomas george",
        "dob": "1868",
        "age": "blk",
        "place_of_birth": "aberystwyth",
        "home_address": "blk",
        "f": "blk",
        "name_of_ship": "porpoise",
        "ship_port": "aberystwyth",
        "date_leaving": "remains",
        "joined_ship_date": "blk",
        "joined_at_port": "blk",
        "capacity": "2nd hand",
        "date_left": "1893-02-27",
        "left_port": "aberystwyth",
        "cause_of_leaving": "discharged",
        "sign_with_mark": "n",
        "notes": "blk"
    },
    {
        "id": "vtls004940095_1_14",
        "type": "sailor",
        "parent": "vtls004940095",
        "name": "thomas jones",
        "dob": "1868",
        "age": "blk",
        "place_of_birth": "aberystwyth",
        "home_address": "blk",
        "f": "blk",
        "name_of_ship": "blk",
        "ship_port": "blk",
        "date_leaving": "blk",
        "joined_ship_date": "1892-09-14",
        "joined_at_port": "aberystwyth",
        "capacity": "2nd hand",
        "date_left": "1892-11-26",
        "left_port": "aberystwyth",
        "cause_of_leaving": "discharged",
        "sign_with_mark": "n",
        "notes": "blk"
    },
    {
        "id": "vtls004940095_1_13",
        "type": "sailor",
        "parent": "vtls004940095",
        "name": "f c wemyss",
        "dob": "1866",
        "age": "blk",
        "place_of_birth": "aberystwyth",
        "home_address": "blk",
        "f": "blk",
        "name_of_ship": "porpoise",
        "ship_port": "aberystwyth",
        "date_leaving": "remains",
        "joined_ship_date": "blk",
        "joined_at_port": "blk",
        "capacity": "hand",
        "date_left": "1892-12-10",
        "left_port": "aberystwyth",
        "cause_of_leaving": "discharged",
        "sign_with_mark": "n",
        "notes": "blk"
    },
    {
        "id": "vtls004940102_0_13",
        "type": "sailor",
        "parent": "vtls004940102",
        "name": "thomas jones",
        "dob": "1866",
        "age": "blk",
        "place_of_birth": "aberystwyth",
        "home_address": "blk",
        "f": "blk",
        "name_of_ship": "porpoise",
        "ship_port": "aberystwyth",
        "date_leaving": "remains",
        "joined_ship_date": "blk",
        "joined_at_port": "blk",
        "capacity": "hand",
        "date_left": "1893-03-24",
        "left_port": "aberystwyth",
        "cause_of_leaving": "discharged",
        "sign_with_mark": "n",
        "notes": "blk"
    },
    {
        "id": "vtls004940095_1_15",
        "type": "sailor",
        "parent": "vtls004940095",
        "name": "david jenkins",
        "dob": "1866",
        "age": "blk",
        "place_of_birth": "aberystwyth",
        "home_address": "blk",
        "f": "blk",
        "name_of_ship": "blk",
        "ship_port": "blk",
        "date_leaving": "blk",
        "joined_ship_date": "1892-10-22",
        "joined_at_port": "aberystwyth",
        "capacity": "master",
        "date_left": "1892-12-10",
        "left_port": "aberystwyth",
        "cause_of_leaving": "discharged",
        "sign_with_mark": "n",
        "notes": "blk"
    },
    {
        "id": "vtls004940102_0_11",
        "type": "sailor",
        "parent": "vtls004940102",
        "name": "f c wemyss",
        "dob": "1870",
        "age": "blk",
        "place_of_birth": "london",
        "home_address": "blk",
        "f": "blk",
        "name_of_ship": "porpoise",
        "ship_port": "aberystwyth",
        "date_leaving": "remains",
        "joined_ship_date": "blk",
        "joined_at_port": "blk",
        "capacity": "master",
        "date_left": "1893-05-25",
        "left_port": "aberystwyth",
        "cause_of_leaving": "discharged",
        "sign_with_mark": "n",
        "notes": "blk"
    },
    {
        "id": "vtls004940102_0_16",
        "type": "sailor",
        "parent": "vtls004940102",
        "name": "edward edwards",
        "dob": "1850",
        "age": "blk",
        "place_of_birth": "aberystwyth",
        "home_address": "blk",
        "f": "blk",
        "name_of_ship": "blk",
        "ship_port": "blk",
        "date_leaving": "1892",
        "joined_ship_date": "1893-03-24",
        "joined_at_port": "aberystwyth",
        "capacity": "hand",
        "date_left": "blk",
        "left_port": "blk",
        "cause_of_leaving": "remains on board",
        "sign_with_mark": "n",
        "notes": "blk"
    },
    {
        "id": "vtls004940102_1_11",
        "type": "sailor",
        "parent": "vtls004940102",
        "name": "john pugh",
        "dob": "1866",
        "age": "blk",
        "place_of_birth": "aberystwyth",
        "home_address": "blk",
        "f": "blk",
        "name_of_ship": "porpoise",
        "ship_port": "aberystwyth",
        "date_leaving": "remains",
        "joined_ship_date": "blk",
        "joined_at_port": "blk",
        "capacity": "master",
        "date_left": "1893-09-30",
        "left_port": "aberystwyth",
        "cause_of_leaving": "discharged",
        "sign_with_mark": "n",
        "notes": "account for july - dec 1893"
    },
    {
        "id": "vtls004940102_0_19",
        "type": "sailor",
        "parent": "vtls004940102",
        "name": "william pugh",
        "dob": "1870",
        "age": "blk",
        "place_of_birth": "aberystwyth",
        "home_address": "blk",
        "f": "blk",
        "name_of_ship": "dreadnought",
        "ship_port": "aberystwyth",
        "date_leaving": "1893",
        "joined_ship_date": "1893-06-19",
        "joined_at_port": "aberystwyth",
        "capacity": "2nd hand",
        "date_left": "blk",
        "left_port": "blk",
        "cause_of_leaving": "remains on board",
        "sign_with_mark": "n",
        "notes": "blk"
    },
    {
        "id": "vtls004940102_0_18",
        "type": "sailor",
        "parent": "vtls004940102",
        "name": "john pugh",
        "dob": "1866",
        "age": "blk",
        "place_of_birth": "aberystwyth",
        "home_address": "blk",
        "f": "blk",
        "name_of_ship": "isle of bardsey",
        "ship_port": "liverpool",
        "date_leaving": "1893",
        "joined_ship_date": "1893-06-19",
        "joined_at_port": "aberystwyth",
        "capacity": "master",
        "date_left": "blk",
        "left_port": "blk",
        "cause_of_leaving": "remains on board",
        "sign_with_mark": "n",
        "notes": "blk"
    },
    {
        "id": "vtls004940102_1_12",
        "type": "sailor",
        "parent": "vtls004940102",
        "name": "william pugh",
        "dob": "1870",
        "age": "blk",
        "place_of_birth": "aberystwyth",
        "home_address": "blk",
        "f": "blk",
        "name_of_ship": "porpoise",
        "ship_port": "aberystwyth",
        "date_leaving": "remains",
        "joined_ship_date": "blk",
        "joined_at_port": "blk",
        "capacity": "2nd hand",
        "date_left": "1893-09-30",
        "left_port": "aberystwyth",
        "cause_of_leaving": "discharged",
        "sign_with_mark": "n",
        "notes": "blk"
    },
    {
        "id": "vtls004940102_1_14",
        "type": "sailor",
        "parent": "vtls004940102",
        "name": "richard davies",
        "dob": "1860",
        "age": "blk",
        "place_of_birth": "aberystwyth",
        "home_address": "blk",
        "f": "blk",
        "name_of_ship": "porpoise",
        "ship_port": "aberystwyth",
        "date_leaving": "remains",
        "joined_ship_date": "blk",
        "joined_at_port": "blk",
        "capacity": "hand",
        "date_left": "1893-09-30",
        "left_port": "aberystwyth",
        "cause_of_leaving": "discharged",
        "sign_with_mark": "n",
        "notes": "blk"
    },
    {
        "id": "vtls004940102_1_13",
        "type": "sailor",
        "parent": "vtls004940102",
        "name": "edward edwards",
        "dob": "1850",
        "age": "blk",
        "place_of_birth": "aberystwyth",
        "home_address": "blk",
        "f": "blk",
        "name_of_ship": "porpoise",
        "ship_port": "aberystwyth",
        "date_leaving": "remains",
        "joined_ship_date": "blk",
        "joined_at_port": "blk",
        "capacity": "hand",
        "date_left": "1893-09-30",
        "left_port": "aberystwyth",
        "cause_of_leaving": "discharged",
        "sign_with_mark": "n",
        "notes": "blk"
    },
    {
        "id": "vtls004940102_0_17",
        "type": "sailor",
        "parent": "vtls004940102",
        "name": "richard davies",
        "dob": "1860",
        "age": "blk",
        "place_of_birth": "aberystwyth",
        "home_address": "blk",
        "f": "blk",
        "name_of_ship": "blk",
        "ship_port": "blk",
        "date_leaving": "1892",
        "joined_ship_date": "1893-03-24",
        "joined_at_port": "aberystwyth",
        "capacity": "hand",
        "date_left": "blk",
        "left_port": "blk",
        "cause_of_leaving": "remains on board",
        "sign_with_mark": "n",
        "notes": "blk"
    },
    {
        "id": "vtls004940118_1_11",
        "type": "sailor",
        "parent": "vtls004940118",
        "name": "thomas edward hughes",
        "dob": "1862",
        "age": "blk",
        "place_of_birth": "aberystwyth",
        "home_address": "blk",
        "f": "blk",
        "name_of_ship": "porpoise",
        "ship_port": "aberystwyth",
        "date_leaving": "remains",
        "joined_ship_date": "blk",
        "joined_at_port": "blk",
        "capacity": "master",
        "date_left": "blk",
        "left_port": "blk",
        "cause_of_leaving": "remains on board",
        "sign_with_mark": "n",
        "notes": "account for july - dec 1902"
    },
    {
        "id": "vtls004940118_0_11",
        "type": "sailor",
        "parent": "vtls004940118",
        "name": "william fellows",
        "dob": "1853",
        "age": "blk",
        "place_of_birth": "hull",
        "home_address": "blk",
        "f": "blk",
        "name_of_ship": "porpoise",
        "ship_port": "aberystwyth",
        "date_leaving": "1901",
        "joined_ship_date": "blk",
        "joined_at_port": "blk",
        "capacity": "master",
        "date_left": "blk",
        "left_port": "blk",
        "cause_of_leaving": "remains on board",
        "sign_with_mark": "n",
        "notes": "account for jan - june 1902"
    },
    {
        "id": "vtls004940111_0_11",
        "type": "sailor",
        "parent": "vtls004940111",
        "name": "blk",
        "dob": "blk",
        "age": "blk",
        "place_of_birth": "blk",
        "home_address": "blk",
        "f": "blk",
        "name_of_ship": "blk",
        "ship_port": "blk",
        "date_leaving": "blk",
        "joined_ship_date": "blk",
        "joined_at_port": "blk",
        "capacity": "blk",
        "date_left": "blk",
        "left_port": "blk",
        "cause_of_leaving": "blk",
        "sign_with_mark": "blk",
        "notes": "boat lying up at aberystwith from 1 january 1900 to 1 october 1900 without crew on board"
    },
    {
        "id": "vtls004940118_0_12",
        "type": "sailor",
        "parent": "vtls004940118",
        "name": "patsy mealia",
        "dob": "1876",
        "age": "blk",
        "place_of_birth": "liverpool",
        "home_address": "blk",
        "f": "blk",
        "name_of_ship": "petunia",
        "ship_port": "grimsby",
        "date_leaving": "1901",
        "joined_ship_date": "1902-06-18",
        "joined_at_port": "aberystwyth",
        "capacity": "2nd hand",
        "date_left": "blk",
        "left_port": "blk",
        "cause_of_leaving": "remains on board",
        "sign_with_mark": "n",
        "notes": "blk"
    },
    {
        "id": "vtls004940118_0_13",
        "type": "sailor",
        "parent": "vtls004940118",
        "name": "herbert hill",
        "dob": "1867",
        "age": "blk",
        "place_of_birth": "rochdale",
        "home_address": "blk",
        "f": "blk",
        "name_of_ship": "merlin",
        "ship_port": "grimsby",
        "date_leaving": "1901",
        "joined_ship_date": "1902-06-18",
        "joined_at_port": "aberystwyth",
        "capacity": "deck hand",
        "date_left": "blk",
        "left_port": "blk",
        "cause_of_leaving": "remains on board",
        "sign_with_mark": "n",
        "notes": "blk"
    },
    {
        "id": "vtls004940118_1_13",
        "type": "sailor",
        "parent": "vtls004940118",
        "name": "thomas edwards",
        "dob": "1868",
        "age": "blk",
        "place_of_birth": "aberystwyth",
        "home_address": "blk",
        "f": "blk",
        "name_of_ship": "porpoise",
        "ship_port": "aberystwyth",
        "date_leaving": "remains",
        "joined_ship_date": "blk",
        "joined_at_port": "blk",
        "capacity": "blk",
        "date_left": "blk",
        "left_port": "blk",
        "cause_of_leaving": "remains on board",
        "sign_with_mark": "n",
        "notes": "blk"
    },
    {
        "id": "vtls004940118_1_12",
        "type": "sailor",
        "parent": "vtls004940118",
        "name": "john edwards",
        "dob": "1860",
        "age": "blk",
        "place_of_birth": "aberystwyth",
        "home_address": "blk",
        "f": "blk",
        "name_of_ship": "porpoise",
        "ship_port": "aberystwyth",
        "date_leaving": "remains",
        "joined_ship_date": "blk",
        "joined_at_port": "blk",
        "capacity": "blk",
        "date_left": "blk",
        "left_port": "blk",
        "cause_of_leaving": "remains on board",
        "sign_with_mark": "n",
        "notes": "blk"
    },
    {
        "id": "vtls004940118_1_14",
        "type": "sailor",
        "parent": "vtls004940118",
        "name": "thomas brown",
        "dob": "1864",
        "age": "blk",
        "place_of_birth": "aberystwyth",
        "home_address": "blk",
        "f": "blk",
        "name_of_ship": "porpoise",
        "ship_port": "aberystwyth",
        "date_leaving": "remains",
        "joined_ship_date": "blk",
        "joined_at_port": "blk",
        "capacity": "blk",
        "date_left": "blk",
        "left_port": "blk",
        "cause_of_leaving": "remains on board",
        "sign_with_mark": "n",
        "notes": "blk"
    },
    {
        "id": "vtls004940123_1_12",
        "type": "sailor",
        "parent": "vtls004940123",
        "name": "thomas rimmes",
        "dob": "1861",
        "age": "blk",
        "place_of_birth": "portrush",
        "home_address": "blk",
        "f": "blk",
        "name_of_ship": "blk",
        "ship_port": "blk",
        "date_leaving": "1903",
        "joined_ship_date": "1903-08-17",
        "joined_at_port": "aberystwyth",
        "capacity": "2nd hand",
        "date_left": "1903-11-19",
        "left_port": "aberystwyth",
        "cause_of_leaving": "discharged",
        "sign_with_mark": "n",
        "notes": "previously spent time yauchting"
    },
    {
        "id": "vtls004940123_0_11",
        "type": "sailor",
        "parent": "vtls004940123",
        "name": "thomas edward hughes",
        "dob": "1862",
        "age": "blk",
        "place_of_birth": "aberystwyth",
        "home_address": "blk",
        "f": "blk",
        "name_of_ship": "porpoise",
        "ship_port": "aberystwyth",
        "date_leaving": "remains",
        "joined_ship_date": "blk",
        "joined_at_port": "blk",
        "capacity": "master",
        "date_left": "blk",
        "left_port": "blk",
        "cause_of_leaving": "remains on board",
        "sign_with_mark": "n",
        "notes": "account for jan - june 1903"
    },
    {
        "id": "vtls004940123_1_13",
        "type": "sailor",
        "parent": "vtls004940123",
        "name": "john brodigan",
        "dob": "1852",
        "age": "blk",
        "place_of_birth": "aberystwyth",
        "home_address": "blk",
        "f": "blk",
        "name_of_ship": "lady mostyn",
        "ship_port": "liverpool",
        "date_leaving": "1903",
        "joined_ship_date": "1903-07-11",
        "joined_at_port": "aberystwyth",
        "capacity": "3rd hand",
        "date_left": "1903-11-19",
        "left_port": "aberystwyth",
        "cause_of_leaving": "discharged",
        "sign_with_mark": "n",
        "notes": "blk"
    },
    {
        "id": "vtls004940123_0_14",
        "type": "sailor",
        "parent": "vtls004940123",
        "name": "thomas edward hughes jnr",
        "dob": "1866",
        "age": "blk",
        "place_of_birth": "aberystwyth",
        "home_address": "blk",
        "f": "blk",
        "name_of_ship": "porpoise",
        "ship_port": "aberystwyth",
        "date_leaving": "remains",
        "joined_ship_date": "blk",
        "joined_at_port": "blk",
        "capacity": "boy",
        "date_left": "blk",
        "left_port": "blk",
        "cause_of_leaving": "remains on board",
        "sign_with_mark": "n",
        "notes": "blk"
    },
    {
        "id": "vtls004940123_1_14",
        "type": "sailor",
        "parent": "vtls004940123",
        "name": "thomas hughes",
        "dob": "1897",
        "age": "blk",
        "place_of_birth": "aberystwyth",
        "home_address": "blk",
        "f": "blk",
        "name_of_ship": "porpoise",
        "ship_port": "aberystwyth",
        "date_leaving": "remains",
        "joined_ship_date": "blk",
        "joined_at_port": "blk",
        "capacity": "cook",
        "date_left": "1903-11-19",
        "left_port": "aberystwyth",
        "cause_of_leaving": "discharged",
        "sign_with_mark": "n",
        "notes": "blk"
    },
    {
        "id": "vtls004940123_1_11",
        "type": "sailor",
        "parent": "vtls004940123",
        "name": "thomas edward hughes",
        "dob": "1861",
        "age": "blk",
        "place_of_birth": "aberystwyth",
        "home_address": "blk",
        "f": "blk",
        "name_of_ship": "porpoise",
        "ship_port": "aberystwyth",
        "date_leaving": "remains",
        "joined_ship_date": "blk",
        "joined_at_port": "blk",
        "capacity": "master",
        "date_left": "blk",
        "left_port": "blk",
        "cause_of_leaving": "remains on board",
        "sign_with_mark": "n",
        "notes": "blk"
    },
    {
        "id": "vtls004940123_0_12",
        "type": "sailor",
        "parent": "vtls004940123",
        "name": "william bowen",
        "dob": "1858",
        "age": "blk",
        "place_of_birth": "aberystwyth",
        "home_address": "blk",
        "f": "blk",
        "name_of_ship": "porpoise",
        "ship_port": "aberystwyth",
        "date_leaving": "remains",
        "joined_ship_date": "blk",
        "joined_at_port": "blk",
        "capacity": "2nd hand",
        "date_left": "blk",
        "left_port": "blk",
        "cause_of_leaving": "remains on board",
        "sign_with_mark": "n",
        "notes": "blk"
    },
    {
        "id": "vtls004940123_0_13",
        "type": "sailor",
        "parent": "vtls004940123",
        "name": "john brodigan",
        "dob": "1845",
        "age": "blk",
        "place_of_birth": "aberystwyth",
        "home_address": "blk",
        "f": "blk",
        "name_of_ship": "porpoise",
        "ship_port": "aberystwyth",
        "date_leaving": "remains",
        "joined_ship_date": "blk",
        "joined_at_port": "blk",
        "capacity": "3rd hand",
        "date_left": "blk",
        "left_port": "blk",
        "cause_of_leaving": "remains on board",
        "sign_with_mark": "n",
        "notes": "blk"
    },
    {
        "id": "vtls004940128_0_11",
        "type": "sailor",
        "parent": "vtls004940128",
        "name": "blk",
        "dob": "blk",
        "age": "blk",
        "place_of_birth": "blk",
        "home_address": "blk",
        "f": "blk",
        "name_of_ship": "blk",
        "ship_port": "blk",
        "date_leaving": "blk",
        "joined_ship_date": "blk",
        "joined_at_port": "blk",
        "capacity": "blk",
        "date_left": "blk",
        "left_port": "blk",
        "cause_of_leaving": "blk",
        "sign_with_mark": "blk",
        "notes": "lying up in aberystwith harbour 1904-01-01 to 1904-06-30"
    }
]