[
    {
        "id": "vtls004650242_0_11",
        "type": "sailor",
        "parent": "vtls004650242",
        "name": "david jones",
        "dob": "blk",
        "age": "53",
        "place_of_birth": "aberystwyth",
        "home_address": "aberystwyth",
        "f": "aberystwyth",
        "name_of_ship": "eaglet",
        "ship_port": "aberystwyth",
        "date_leaving": "remains",
        "joined_ship_date": "1863-01-01",
        "joined_at_port": "portmadoc",
        "capacity": "master",
        "date_left": "1863-06-30",
        "left_port": "cardiff",
        "cause_of_leaving": "remains on board",
        "sign_with_mark": "n",
        "notes": "cert no. 42315"
    },
    {
        "id": "vtls004650242_1_12",
        "type": "sailor",
        "parent": "vtls004650242",
        "name": "john davies",
        "dob": "blk",
        "age": "47",
        "place_of_birth": "aberystwyth",
        "home_address": "blk",
        "f": "blk",
        "name_of_ship": "clara",
        "ship_port": "aberystwyth",
        "date_leaving": "1863",
        "joined_ship_date": "1863-11-20",
        "joined_at_port": "portmadoc",
        "capacity": "mate",
        "date_left": "blk",
        "left_port": "blk",
        "cause_of_leaving": "remains on board",
        "sign_with_mark": "n",
        "notes": "note 1 - no record of previous mate, william williams who remained from previous voyage."
    },
    {
        "id": "vtls004650246_0_14",
        "type": "sailor",
        "parent": "vtls004650246",
        "name": "william edwards",
        "dob": "blk",
        "age": "17",
        "place_of_birth": "cardigan sh.",
        "home_address": "blk",
        "f": "blk",
        "name_of_ship": "eliza francis",
        "ship_port": "aberystwyth",
        "date_leaving": "1866",
        "joined_ship_date": "1866-03-17",
        "joined_at_port": "milford",
        "capacity": "boy",
        "date_left": "1866-05-18",
        "left_port": "aberystwyth",
        "cause_of_leaving": "received hurt from a fall",
        "sign_with_mark": "n",
        "notes": "blk"
    },
    {
        "id": "vtls004650242_0_13",
        "type": "sailor",
        "parent": "vtls004650242",
        "name": "james griffiths",
        "dob": "blk",
        "age": "18",
        "place_of_birth": "aberystwyth",
        "home_address": "blk",
        "f": "blk",
        "name_of_ship": "eaglet",
        "ship_port": "aberystwyth",
        "date_leaving": "remains",
        "joined_ship_date": "1863-01-01",
        "joined_at_port": "portmadoc",
        "capacity": "ordinary seaman",
        "date_left": "1863-06-30",
        "left_port": "cardiff",
        "cause_of_leaving": "remains on board",
        "sign_with_mark": "n",
        "notes": "blk"
    },
    {
        "id": "vtls004650242_1_11",
        "type": "sailor",
        "parent": "vtls004650242",
        "name": "david jones",
        "dob": "blk",
        "age": "53",
        "place_of_birth": "aberystwyth",
        "home_address": "[h[igh] terrace] aberystwith",
        "f": "[h[igh] terrace] aberystwith",
        "name_of_ship": "eaglet",
        "ship_port": "aberystwyth",
        "date_leaving": "blk",
        "joined_ship_date": "blk",
        "joined_at_port": "blk",
        "capacity": "master",
        "date_left": "blk",
        "left_port": "blk",
        "cause_of_leaving": "remains on board",
        "sign_with_mark": "n",
        "notes": "cert no. 42315"
    },
    {
        "id": "vtls004650242_0_12",
        "type": "sailor",
        "parent": "vtls004650242",
        "name": "william williams",
        "dob": "blk",
        "age": "57",
        "place_of_birth": "aberystwyth",
        "home_address": "blk",
        "f": "blk",
        "name_of_ship": "eaglet",
        "ship_port": "aberystwyth",
        "date_leaving": "remains",
        "joined_ship_date": "1863-01-01",
        "joined_at_port": "portmadoc",
        "capacity": "mate",
        "date_left": "1863-06-30",
        "left_port": "cardiff",
        "cause_of_leaving": "remains on board",
        "sign_with_mark": "n",
        "notes": "blk"
    },
    {
        "id": "vtls004650246_0_13",
        "type": "sailor",
        "parent": "vtls004650246",
        "name": "william meyrick",
        "dob": "blk",
        "age": "16",
        "place_of_birth": "cardigan sh.",
        "home_address": "blk",
        "f": "blk",
        "name_of_ship": "eaglet",
        "ship_port": "aberystwyth",
        "date_leaving": "not discharged",
        "joined_ship_date": "blk",
        "joined_at_port": "blk",
        "capacity": "boy",
        "date_left": "1865-12-24",
        "left_port": "aberystwyth",
        "cause_of_leaving": "discharged",
        "sign_with_mark": "n",
        "notes": "blk"
    },
    {
        "id": "vtls004650246_0_11",
        "type": "sailor",
        "parent": "vtls004650246",
        "name": "david jones",
        "dob": "blk",
        "age": "60",
        "place_of_birth": "cardigan sh.",
        "home_address": "aberystwyth",
        "f": "aberystwyth",
        "name_of_ship": "eaglet",
        "ship_port": "aberystwyth",
        "date_leaving": "not discharged",
        "joined_ship_date": "blk",
        "joined_at_port": "blk",
        "capacity": "master",
        "date_left": "blk",
        "left_port": "blk",
        "cause_of_leaving": "remains on board",
        "sign_with_mark": "n",
        "notes": "blk"
    },
    {
        "id": "vtls004650242_1_13",
        "type": "sailor",
        "parent": "vtls004650242",
        "name": "james griffiths",
        "dob": "blk",
        "age": "17",
        "place_of_birth": "aberystwyth",
        "home_address": "blk",
        "f": "blk",
        "name_of_ship": "eaglet",
        "ship_port": "aberystwyth",
        "date_leaving": "blk",
        "joined_ship_date": "blk",
        "joined_at_port": "blk",
        "capacity": "ordinary seaman",
        "date_left": "blk",
        "left_port": "blk",
        "cause_of_leaving": "remains on board",
        "sign_with_mark": "n",
        "notes": "blk"
    },
    {
        "id": "vtls004650246_0_12",
        "type": "sailor",
        "parent": "vtls004650246",
        "name": "john davies",
        "dob": "blk",
        "age": "49",
        "place_of_birth": "cardigan sh.",
        "home_address": "blk",
        "f": "blk",
        "name_of_ship": "eaglet",
        "ship_port": "aberystwyth",
        "date_leaving": "not discharged",
        "joined_ship_date": "blk",
        "joined_at_port": "blk",
        "capacity": "mate",
        "date_left": "blk",
        "left_port": "blk",
        "cause_of_leaving": "remains on board",
        "sign_with_mark": "n",
        "notes": "blk"
    },
    {
        "id": "vtls004650246_1_11",
        "type": "sailor",
        "parent": "vtls004650246",
        "name": "david jones",
        "dob": "blk",
        "age": "38",
        "place_of_birth": "cardigan",
        "home_address": "craig coch, aberystwyth",
        "f": "craig coch, aberystwyth",
        "name_of_ship": "eaglet",
        "ship_port": "aberystwyth",
        "date_leaving": "30-jun",
        "joined_ship_date": "1866-07-01",
        "joined_at_port": "barrow",
        "capacity": "master",
        "date_left": "blk",
        "left_port": "blk",
        "cause_of_leaving": "remains on board",
        "sign_with_mark": "n",
        "notes": "nil entered for no. of certificate"
    },
    {
        "id": "vtls004650248_0_11",
        "type": "sailor",
        "parent": "vtls004650248",
        "name": "david jones",
        "dob": "blk",
        "age": "58",
        "place_of_birth": "aberystwyth",
        "home_address": "aberystwyth",
        "f": "aberystwyth",
        "name_of_ship": "eaglet",
        "ship_port": "aberystwyth",
        "date_leaving": "1866",
        "joined_ship_date": "1867-03-26",
        "joined_at_port": "portmadoc",
        "capacity": "master",
        "date_left": "blk",
        "left_port": "blk",
        "cause_of_leaving": "remains on board",
        "sign_with_mark": "n",
        "notes": "cert no. 42315"
    },
    {
        "id": "vtls004650246_1_13",
        "type": "sailor",
        "parent": "vtls004650246",
        "name": "james jenkins",
        "dob": "blk",
        "age": "16",
        "place_of_birth": "cardigan",
        "home_address": "blk",
        "f": "blk",
        "name_of_ship": "anny mode",
        "ship_port": "aberystwyth",
        "date_leaving": "14-apr",
        "joined_ship_date": "1866-05-12",
        "joined_at_port": "aberystwyth",
        "capacity": "boy",
        "date_left": "1866-10-20",
        "left_port": "aberystwyth",
        "cause_of_leaving": "paid off",
        "sign_with_mark": "n",
        "notes": "blk"
    },
    {
        "id": "vtls004650246_0_15",
        "type": "sailor",
        "parent": "vtls004650246",
        "name": "james jenkins",
        "dob": "blk",
        "age": "17",
        "place_of_birth": "cardigan sh.",
        "home_address": "blk",
        "f": "blk",
        "name_of_ship": "annie marie",
        "ship_port": "aberystwyth",
        "date_leaving": "1866",
        "joined_ship_date": "1866-05-18",
        "joined_at_port": "aberystwyth",
        "capacity": "boy",
        "date_left": "blk",
        "left_port": "blk",
        "cause_of_leaving": "remains on board",
        "sign_with_mark": "n",
        "notes": "blk"
    },
    {
        "id": "vtls004650246_1_14",
        "type": "sailor",
        "parent": "vtls004650246",
        "name": "charles morris",
        "dob": "blk",
        "age": "16",
        "place_of_birth": "cardigan",
        "home_address": "blk",
        "f": "blk",
        "name_of_ship": "express",
        "ship_port": "aberystwyth",
        "date_leaving": "20-oct",
        "joined_ship_date": "1866-10-20",
        "joined_at_port": "aberystwyth",
        "capacity": "boy",
        "date_left": "blk",
        "left_port": "blk",
        "cause_of_leaving": "remains on board",
        "sign_with_mark": "n",
        "notes": "blk"
    },
    {
        "id": "vtls004650246_1_12",
        "type": "sailor",
        "parent": "vtls004650246",
        "name": "john davies",
        "dob": "blk",
        "age": "54",
        "place_of_birth": "cardigan",
        "home_address": "blk",
        "f": "blk",
        "name_of_ship": "express",
        "ship_port": "aberystwyth",
        "date_leaving": "15-jun",
        "joined_ship_date": "1866-06-25",
        "joined_at_port": "aberystwyth",
        "capacity": "mate",
        "date_left": "blk",
        "left_port": "blk",
        "cause_of_leaving": "remains on board",
        "sign_with_mark": "n",
        "notes": "blk"
    },
    {
        "id": "vtls004650248_0_12",
        "type": "sailor",
        "parent": "vtls004650248",
        "name": "john davies",
        "dob": "blk",
        "age": "48",
        "place_of_birth": "aberystwyth",
        "home_address": "blk",
        "f": "blk",
        "name_of_ship": "eaglet",
        "ship_port": "aberystwyth",
        "date_leaving": "1866",
        "joined_ship_date": "1867-03-26",
        "joined_at_port": "portmadoc",
        "capacity": "mate",
        "date_left": "blk",
        "left_port": "blk",
        "cause_of_leaving": "remains on board",
        "sign_with_mark": "n",
        "notes": "blk"
    },
    {
        "id": "vtls004650259_0_13",
        "type": "sailor",
        "parent": "vtls004650259",
        "name": "evan evans",
        "dob": "blk",
        "age": "16",
        "place_of_birth": "portmadoc",
        "home_address": "blk",
        "f": "blk",
        "name_of_ship": "willema",
        "ship_port": "cardigan",
        "date_leaving": "20-feb",
        "joined_ship_date": "1867-03-02",
        "joined_at_port": "portmadoc",
        "capacity": "boy",
        "date_left": "1867-04-18",
        "left_port": "porthmadog",
        "cause_of_leaving": "discharged",
        "sign_with_mark": "n",
        "notes": "the vessel \"williama\" is registered with the port of cardigan for this period but there is no vessel by the name of \"willema\""
    },
    {
        "id": "vtls004650259_1_11",
        "type": "sailor",
        "parent": "vtls004650259",
        "name": "david jones",
        "dob": "blk",
        "age": "59",
        "place_of_birth": "aberystwyth",
        "home_address": "sea view place, aberystwith",
        "f": "sea view place, aberystwith",
        "name_of_ship": "eaglet",
        "ship_port": "aberystwyth",
        "date_leaving": "1867-06-30",
        "joined_ship_date": "1867-07-01",
        "joined_at_port": "bangor",
        "capacity": "master",
        "date_left": "blk",
        "left_port": "blk",
        "cause_of_leaving": "remains on board",
        "sign_with_mark": "n",
        "notes": "cert no. 42315"
    },
    {
        "id": "vtls004650248_1_13",
        "type": "sailor",
        "parent": "vtls004650248",
        "name": "william meyrick",
        "dob": "blk",
        "age": "17",
        "place_of_birth": "aberystwyth",
        "home_address": "blk",
        "f": "blk",
        "name_of_ship": "eaglet",
        "ship_port": "aberystwyth",
        "date_leaving": "1866",
        "joined_ship_date": "1867-07-01",
        "joined_at_port": "waterford",
        "capacity": "ordinary",
        "date_left": "blk",
        "left_port": "porthmadog",
        "cause_of_leaving": "paid off",
        "sign_with_mark": "n",
        "notes": "capacity on joining just states \"ordinary\""
    },
    {
        "id": "vtls004650248_1_11",
        "type": "sailor",
        "parent": "vtls004650248",
        "name": "david jones",
        "dob": "blk",
        "age": "58",
        "place_of_birth": "aberystwyth",
        "home_address": "sea view place, aberystwith",
        "f": "sea view place, aberystwith",
        "name_of_ship": "eaglet",
        "ship_port": "aberystwyth",
        "date_leaving": "1866",
        "joined_ship_date": "1867-07-01",
        "joined_at_port": "waterford",
        "capacity": "master",
        "date_left": "blk",
        "left_port": "blk",
        "cause_of_leaving": "remains on board",
        "sign_with_mark": "n",
        "notes": "cert no. 42315"
    },
    {
        "id": "vtls004650259_0_11",
        "type": "sailor",
        "parent": "vtls004650259",
        "name": "david jones",
        "dob": "blk",
        "age": "58",
        "place_of_birth": "aberystwyth",
        "home_address": "sea view place, aberystwith",
        "f": "sea view place, aberystwith",
        "name_of_ship": "eaglet",
        "ship_port": "aberystwyth",
        "date_leaving": "blk",
        "joined_ship_date": "blk",
        "joined_at_port": "blk",
        "capacity": "master",
        "date_left": "blk",
        "left_port": "blk",
        "cause_of_leaving": "remains on board",
        "sign_with_mark": "n",
        "notes": "cert no. 42315"
    },
    {
        "id": "vtls004650259_0_14",
        "type": "sailor",
        "parent": "vtls004650259",
        "name": "david jones parry",
        "dob": "blk",
        "age": "13",
        "place_of_birth": "aberystwyth",
        "home_address": "blk",
        "f": "blk",
        "name_of_ship": "margaret jane",
        "ship_port": "aberystwyth",
        "date_leaving": "1867",
        "joined_ship_date": "1867-05-20",
        "joined_at_port": "carnarvon",
        "capacity": "boy",
        "date_left": "blk",
        "left_port": "blk",
        "cause_of_leaving": "remains on board",
        "sign_with_mark": "n",
        "notes": "blk"
    },
    {
        "id": "vtls004650248_0_13",
        "type": "sailor",
        "parent": "vtls004650248",
        "name": "william meyrick",
        "dob": "blk",
        "age": "17",
        "place_of_birth": "aberystwyth",
        "home_address": "blk",
        "f": "blk",
        "name_of_ship": "eaglet",
        "ship_port": "aberystwyth",
        "date_leaving": "1866",
        "joined_ship_date": "1867-03-26",
        "joined_at_port": "portmadoc",
        "capacity": "boy",
        "date_left": "blk",
        "left_port": "blk",
        "cause_of_leaving": "remains on board",
        "sign_with_mark": "n",
        "notes": "blk"
    },
    {
        "id": "vtls004650248_1_12",
        "type": "sailor",
        "parent": "vtls004650248",
        "name": "john davies",
        "dob": "blk",
        "age": "49",
        "place_of_birth": "aberystwyth",
        "home_address": "blk",
        "f": "blk",
        "name_of_ship": "eaglet",
        "ship_port": "aberystwyth",
        "date_leaving": "1866",
        "joined_ship_date": "1867-07-01",
        "joined_at_port": "waterford",
        "capacity": "mate",
        "date_left": "blk",
        "left_port": "blk",
        "cause_of_leaving": "remains on board",
        "sign_with_mark": "n",
        "notes": "blk"
    },
    {
        "id": "vtls004650259_0_12",
        "type": "sailor",
        "parent": "vtls004650259",
        "name": "john davies",
        "dob": "blk",
        "age": "51",
        "place_of_birth": "aberystwyth",
        "home_address": "blk",
        "f": "blk",
        "name_of_ship": "eaglet",
        "ship_port": "aberystwyth",
        "date_leaving": "blk",
        "joined_ship_date": "blk",
        "joined_at_port": "blk",
        "capacity": "mate",
        "date_left": "blk",
        "left_port": "blk",
        "cause_of_leaving": "remains on board",
        "sign_with_mark": "n",
        "notes": "blk"
    },
    {
        "id": "vtls004650259_1_13",
        "type": "sailor",
        "parent": "vtls004650259",
        "name": "charles morris",
        "dob": "blk",
        "age": "16",
        "place_of_birth": "aberystwyth",
        "home_address": "blk",
        "f": "blk",
        "name_of_ship": "eaglet",
        "ship_port": "aberystwyth",
        "date_leaving": "1867-06-30",
        "joined_ship_date": "1867-07-01",
        "joined_at_port": "bangor",
        "capacity": "ordinary seaman",
        "date_left": "blk",
        "left_port": "blk",
        "cause_of_leaving": "remains on board",
        "sign_with_mark": "n",
        "notes": "blk"
    },
    {
        "id": "vtls004650265_1_11",
        "type": "sailor",
        "parent": "vtls004650265",
        "name": "john owens",
        "dob": "blk",
        "age": "29",
        "place_of_birth": "anglesey",
        "home_address": " bangor",
        "f": " bangor",
        "name_of_ship": "eaglet",
        "ship_port": "aberystwyth",
        "date_leaving": "continued",
        "joined_ship_date": "blk",
        "joined_at_port": "blk",
        "capacity": "master",
        "date_left": "1869-12-20",
        "left_port": "bangor",
        "cause_of_leaving": "discharged",
        "sign_with_mark": "n",
        "notes": "cert no. nil"
    },
    {
        "id": "vtls004650265_0_11",
        "type": "sailor",
        "parent": "vtls004650265",
        "name": "john owens",
        "dob": "blk",
        "age": "29",
        "place_of_birth": "anglesey",
        "home_address": "4 rathbone st. bangor",
        "f": "4 rathbone st. bangor",
        "name_of_ship": "jane",
        "ship_port": "blk",
        "date_leaving": "30-apr",
        "joined_ship_date": "1869-05-01",
        "joined_at_port": "bangor",
        "capacity": "master",
        "date_left": "blk",
        "left_port": "blk",
        "cause_of_leaving": "remains on board",
        "sign_with_mark": "n",
        "notes": "blk"
    },
    {
        "id": "vtls004650265_0_13",
        "type": "sailor",
        "parent": "vtls004650265",
        "name": "evan hughes",
        "dob": "blk",
        "age": "18",
        "place_of_birth": "bangor",
        "home_address": "blk",
        "f": "blk",
        "name_of_ship": "charlotte",
        "ship_port": "blk",
        "date_leaving": "15-apr",
        "joined_ship_date": "1869-05-10",
        "joined_at_port": "bangor",
        "capacity": "ordinary seaman",
        "date_left": "1869-05-25",
        "left_port": "bangor",
        "cause_of_leaving": "discharged",
        "sign_with_mark": "n",
        "notes": "blk"
    },
    {
        "id": "vtls004650259_1_12",
        "type": "sailor",
        "parent": "vtls004650259",
        "name": "john davies",
        "dob": "blk",
        "age": "52",
        "place_of_birth": "aberystwyth",
        "home_address": "blk",
        "f": "blk",
        "name_of_ship": "eaglet",
        "ship_port": "aberystwyth",
        "date_leaving": "1867-06-30",
        "joined_ship_date": "1867-07-01",
        "joined_at_port": "bangor",
        "capacity": "mate",
        "date_left": "blk",
        "left_port": "blk",
        "cause_of_leaving": "remains on board",
        "sign_with_mark": "n",
        "notes": "blk"
    },
    {
        "id": "vtls004650265_0_12",
        "type": "sailor",
        "parent": "vtls004650265",
        "name": "john ashton",
        "dob": "blk",
        "age": "31",
        "place_of_birth": "denbighshire",
        "home_address": "blk",
        "f": "blk",
        "name_of_ship": "sally ann",
        "ship_port": "blk",
        "date_leaving": "30-apr",
        "joined_ship_date": "1869-05-08",
        "joined_at_port": "bangor",
        "capacity": "mate",
        "date_left": "1869-05-25",
        "left_port": "bangor",
        "cause_of_leaving": "discharged",
        "sign_with_mark": "n",
        "notes": "blk"
    },
    {
        "id": "vtls004650265_1_12",
        "type": "sailor",
        "parent": "vtls004650265",
        "name": "john ashton",
        "dob": "blk",
        "age": "31",
        "place_of_birth": "denbigh",
        "home_address": "blk",
        "f": "blk",
        "name_of_ship": "eaglet",
        "ship_port": "aberystwyth",
        "date_leaving": "continued",
        "joined_ship_date": "blk",
        "joined_at_port": "blk",
        "capacity": "mate",
        "date_left": "1869-12-20",
        "left_port": "bangor",
        "cause_of_leaving": "discharged",
        "sign_with_mark": "n",
        "notes": "blk"
    },
    {
        "id": "vtls004650265_1_13",
        "type": "sailor",
        "parent": "vtls004650265",
        "name": "william owen",
        "dob": "blk",
        "age": "20",
        "place_of_birth": "bangor",
        "home_address": "blk",
        "f": "blk",
        "name_of_ship": "eaglet",
        "ship_port": "aberystwyth",
        "date_leaving": "continued",
        "joined_ship_date": "blk",
        "joined_at_port": "blk",
        "capacity": "ordinary seaman",
        "date_left": "1869-12-20",
        "left_port": "bangor",
        "cause_of_leaving": "discharged",
        "sign_with_mark": "n",
        "notes": "note 1  - no record of william owen serving aboard the eaglet."
    }
]