[
    {
        "id": "vtls004624841_1_14",
        "type": "sailor",
        "parent": "vtls004624841",
        "name": "richard richards",
        "dob": "blk",
        "age": "15",
        "place_of_birth": "aberystwyth",
        "home_address": "blk",
        "f": "blk",
        "name_of_ship": "azorean",
        "ship_port": "aberystwyth",
        "date_leaving": "blk",
        "joined_ship_date": "1863-07-01",
        "joined_at_port": "blk",
        "capacity": "ordinary seaman",
        "date_left": "1863-12-31",
        "left_port": "aberystwyth",
        "cause_of_leaving": "discharged",
        "sign_with_mark": "n",
        "notes": "name did not appear on previous crew list"
    },
    {
        "id": "vtls004624841_0_13",
        "type": "sailor",
        "parent": "vtls004624841",
        "name": "humphrey owens",
        "dob": "blk",
        "age": "18",
        "place_of_birth": "aberystwyth",
        "home_address": "blk",
        "f": "blk",
        "name_of_ship": "azorean",
        "ship_port": "aberystwyth",
        "date_leaving": "blk",
        "joined_ship_date": "1863-01-01",
        "joined_at_port": "aberystwyth",
        "capacity": "able seaman",
        "date_left": "1863-06-30",
        "left_port": "runcorn",
        "cause_of_leaving": "remains on board",
        "sign_with_mark": "n",
        "notes": "does not appear on next crew list"
    },
    {
        "id": "vtls004624841_1_13",
        "type": "sailor",
        "parent": "vtls004624841",
        "name": "david richards",
        "dob": "blk",
        "age": "17",
        "place_of_birth": "aberystwyth",
        "home_address": "blk",
        "f": "blk",
        "name_of_ship": "azorean",
        "ship_port": "aberystwyth",
        "date_leaving": "blk",
        "joined_ship_date": "1863-07-01",
        "joined_at_port": "blk",
        "capacity": "seaman",
        "date_left": "1863-12-31",
        "left_port": "aberystwyth",
        "cause_of_leaving": "discharged",
        "sign_with_mark": "n",
        "notes": "name did not appear on previous crew list"
    },
    {
        "id": "vtls004624841_0_14",
        "type": "sailor",
        "parent": "vtls004624841",
        "name": "henry thomas",
        "dob": "blk",
        "age": "15",
        "place_of_birth": "aberystwyth",
        "home_address": "blk",
        "f": "blk",
        "name_of_ship": "azorean",
        "ship_port": "aberystwyth",
        "date_leaving": "blk",
        "joined_ship_date": "1863-01-01",
        "joined_at_port": "aberystwyth",
        "capacity": "boy",
        "date_left": "1863-06-30",
        "left_port": "runcorn",
        "cause_of_leaving": "remains on board",
        "sign_with_mark": "n",
        "notes": "does not appear on next crew list"
    },
    {
        "id": "vtls004624841_0_11",
        "type": "sailor",
        "parent": "vtls004624841",
        "name": "evan doughton",
        "dob": "blk",
        "age": "45",
        "place_of_birth": "aberystwyth",
        "home_address": "blk",
        "f": "blk",
        "name_of_ship": "azorean",
        "ship_port": "aberystwyth",
        "date_leaving": "blk",
        "joined_ship_date": "1863-01-01",
        "joined_at_port": "aberystwyth",
        "capacity": "master",
        "date_left": "1863-06-30",
        "left_port": "runcorn",
        "cause_of_leaving": "remains on board",
        "sign_with_mark": "n",
        "notes": "blk"
    },
    {
        "id": "vtls004624841_0_12",
        "type": "sailor",
        "parent": "vtls004624841",
        "name": "thomas doughton",
        "dob": "blk",
        "age": "17",
        "place_of_birth": "aberystwyth",
        "home_address": "blk",
        "f": "blk",
        "name_of_ship": "azorean",
        "ship_port": "aberystwyth",
        "date_leaving": "blk",
        "joined_ship_date": "1863-01-01",
        "joined_at_port": "aberystwyth",
        "capacity": "mate",
        "date_left": "1863-06-30",
        "left_port": "runcorn",
        "cause_of_leaving": "remains on board",
        "sign_with_mark": "n",
        "notes": "blk"
    },
    {
        "id": "vtls004624841_1_12",
        "type": "sailor",
        "parent": "vtls004624841",
        "name": "thomas doughton",
        "dob": "blk",
        "age": "18",
        "place_of_birth": "aberystwyth",
        "home_address": "blk",
        "f": "blk",
        "name_of_ship": "azorean",
        "ship_port": "aberystwyth",
        "date_leaving": "blk",
        "joined_ship_date": "1863-07-01",
        "joined_at_port": "blk",
        "capacity": "mate",
        "date_left": "1863-12-31",
        "left_port": "aberystwyth",
        "cause_of_leaving": "discharged",
        "sign_with_mark": "n",
        "notes": "blk"
    },
    {
        "id": "vtls004624841_1_11",
        "type": "sailor",
        "parent": "vtls004624841",
        "name": "evan doughton",
        "dob": "blk",
        "age": "45",
        "place_of_birth": "aberystwyth",
        "home_address": "blk",
        "f": "blk",
        "name_of_ship": "azorean",
        "ship_port": "aberystwyth",
        "date_leaving": "1863",
        "joined_ship_date": "1863-07-01",
        "joined_at_port": "blk",
        "capacity": "master",
        "date_left": "blk",
        "left_port": "aberystwyth",
        "cause_of_leaving": "still on board",
        "sign_with_mark": "n",
        "notes": "blk"
    }
]