[
    {
        "id": "vtls004931953_0_11",
        "type": "sailor",
        "parent": "vtls004931953",
        "name": "thomas watkins",
        "dob": "blk",
        "age": "41",
        "place_of_birth": "aberystwyth",
        "home_address": "blue gardens, aberystwyth",
        "f": "blue gardens, aberystwyth",
        "name_of_ship": "heroine",
        "ship_port": "bideford",
        "date_leaving": "1866-06-12",
        "joined_ship_date": "1866-09-10",
        "joined_at_port": "aberystwyth",
        "capacity": "master",
        "date_left": "1866-11-07",
        "left_port": "cardiff",
        "cause_of_leaving": "discharged",
        "sign_with_mark": "n",
        "notes": "blk"
    },
    {
        "id": "vtls004931953_0_14",
        "type": "sailor",
        "parent": "vtls004931953",
        "name": "thomas davies",
        "dob": "blk",
        "age": "57",
        "place_of_birth": "borth",
        "home_address": "blk",
        "f": "blk",
        "name_of_ship": "morriston",
        "ship_port": "aberystwyth",
        "date_leaving": "1866-05-02",
        "joined_ship_date": "1866-11-10",
        "joined_at_port": "cardiff",
        "capacity": "master",
        "date_left": "1866-12-18",
        "left_port": "aberystwyth",
        "cause_of_leaving": "discharged",
        "sign_with_mark": "n",
        "notes": "blk"
    },
    {
        "id": "vtls004931953_0_12",
        "type": "sailor",
        "parent": "vtls004931953",
        "name": "william edwards",
        "dob": "blk",
        "age": "18",
        "place_of_birth": "chester",
        "home_address": "blk",
        "f": "blk",
        "name_of_ship": "constance",
        "ship_port": "chester",
        "date_leaving": "1866-09-10",
        "joined_ship_date": "1866-09-12",
        "joined_at_port": "aberystwyth",
        "capacity": "mate",
        "date_left": "1866-12-18",
        "left_port": "aberystwyth",
        "cause_of_leaving": "discharged",
        "sign_with_mark": "n",
        "notes": "blk"
    },
    {
        "id": "vtls004931953_0_13",
        "type": "sailor",
        "parent": "vtls004931953",
        "name": "richard williams",
        "dob": "blk",
        "age": "14",
        "place_of_birth": "aberystwyth",
        "home_address": "blk",
        "f": "blk",
        "name_of_ship": "first ship",
        "ship_port": "blk",
        "date_leaving": "blk",
        "joined_ship_date": "1866-09-12",
        "joined_at_port": "aberystwyth",
        "capacity": "boy",
        "date_left": "1866-12-18",
        "left_port": "aberystwyth",
        "cause_of_leaving": "discharged",
        "sign_with_mark": "n",
        "notes": "blk"
    },
    {
        "id": "vtls004931955_0_13",
        "type": "sailor",
        "parent": "vtls004931955",
        "name": "david evans",
        "dob": "blk",
        "age": "14",
        "place_of_birth": "aberystwyth",
        "home_address": "blk",
        "f": "blk",
        "name_of_ship": "s s express",
        "ship_port": "aberystwyth",
        "date_leaving": "1867-03-05",
        "joined_ship_date": "1867-05-07",
        "joined_at_port": "aberystwyth",
        "capacity": "boy",
        "date_left": "1867-07-11",
        "left_port": "aberystwyth",
        "cause_of_leaving": "remains on board",
        "sign_with_mark": "n",
        "notes": "blk"
    },
    {
        "id": "vtls004931955_0_11",
        "type": "sailor",
        "parent": "vtls004931955",
        "name": "thomas rees",
        "dob": "blk",
        "age": "35",
        "place_of_birth": "borth",
        "home_address": "borth",
        "f": "borth",
        "name_of_ship": "gratitude",
        "ship_port": "aberystwyth",
        "date_leaving": "1867-01-08",
        "joined_ship_date": "1867-03-10",
        "joined_at_port": "aberystwyth",
        "capacity": "master",
        "date_left": "1867-07-11",
        "left_port": "aberystwyth",
        "cause_of_leaving": "remains on board",
        "sign_with_mark": "n",
        "notes": "blk"
    },
    {
        "id": "vtls004931955_1_13",
        "type": "sailor",
        "parent": "vtls004931955",
        "name": "charles trefin",
        "dob": "blk",
        "age": "35",
        "place_of_birth": "bristol",
        "home_address": "blk",
        "f": "blk",
        "name_of_ship": "hereford",
        "ship_port": "gloster",
        "date_leaving": "1867-10-20",
        "joined_ship_date": "1867-10-24",
        "joined_at_port": "bristol",
        "capacity": "able seaman",
        "date_left": "1868-01-03",
        "left_port": "bristol",
        "cause_of_leaving": "remains on board",
        "sign_with_mark": "n",
        "notes": "blk"
    },
    {
        "id": "vtls004931955_1_15",
        "type": "sailor",
        "parent": "vtls004931955",
        "name": "nathaniel williams",
        "dob": "blk",
        "age": "35",
        "place_of_birth": "brockwar",
        "home_address": "blk",
        "f": "blk",
        "name_of_ship": "nancy",
        "ship_port": "newport",
        "date_leaving": "1867-08-28",
        "joined_ship_date": "1867-10-24",
        "joined_at_port": "bristol",
        "capacity": "able seaman",
        "date_left": "1867-12-29",
        "left_port": "bristol",
        "cause_of_leaving": "discharged",
        "sign_with_mark": "n",
        "notes": "blk"
    },
    {
        "id": "vtls004931955_1_12",
        "type": "sailor",
        "parent": "vtls004931955",
        "name": "solomon aldridge",
        "dob": "blk",
        "age": "37",
        "place_of_birth": "bristol",
        "home_address": "blk",
        "f": "blk",
        "name_of_ship": "bertholly",
        "ship_port": "newport",
        "date_leaving": "1867-10-20",
        "joined_ship_date": "1867-10-24",
        "joined_at_port": "bristol",
        "capacity": "mate",
        "date_left": "1868-01-03",
        "left_port": "bristol",
        "cause_of_leaving": "remains on board",
        "sign_with_mark": "n",
        "notes": "blk"
    },
    {
        "id": "vtls004931955_0_12",
        "type": "sailor",
        "parent": "vtls004931955",
        "name": "david rees",
        "dob": "blk",
        "age": "39",
        "place_of_birth": "borth",
        "home_address": "blk",
        "f": "blk",
        "name_of_ship": "rebecaa",
        "ship_port": "aberystwyth",
        "date_leaving": "1867-03-05",
        "joined_ship_date": "1867-03-15",
        "joined_at_port": "aberystwyth",
        "capacity": "mate",
        "date_left": "1867-07-11",
        "left_port": "aberystwyth",
        "cause_of_leaving": "remains on board",
        "sign_with_mark": "n",
        "notes": "blk"
    },
    {
        "id": "vtls004931955_1_14",
        "type": "sailor",
        "parent": "vtls004931955",
        "name": "richard owens",
        "dob": "blk",
        "age": "40",
        "place_of_birth": "chepstow",
        "home_address": "blk",
        "f": "blk",
        "name_of_ship": "neptune",
        "ship_port": "newport",
        "date_leaving": "1867-08-28",
        "joined_ship_date": "1867-08-29",
        "joined_at_port": "newport",
        "capacity": "able seaman",
        "date_left": "1867-12-29",
        "left_port": "bristol",
        "cause_of_leaving": "discharged",
        "sign_with_mark": "n",
        "notes": "blk"
    }
]