[
    {
        "id": "vtls004598452_0_14",
        "type": "sailor",
        "parent": "vtls004598452",
        "name": "samuel simmons",
        "dob": "blk",
        "age": "26",
        "place_of_birth": "antigua",
        "home_address": "blk",
        "f": "blk",
        "name_of_ship": "sylvia jane",
        "ship_port": "aberystwyth",
        "date_leaving": "1862-09-12",
        "joined_ship_date": "1862-09-15",
        "joined_at_port": "london",
        "capacity": "cook & steward",
        "date_left": "1863-04-08",
        "left_port": "london",
        "cause_of_leaving": "discharged",
        "sign_with_mark": "n",
        "notes": "blk"
    },
    {
        "id": "vtls004598452_0_11",
        "type": "sailor",
        "parent": "vtls004598452",
        "name": "thomas owen",
        "dob": "blk",
        "age": "45",
        "place_of_birth": "newquay",
        "home_address": "blk",
        "f": "blk",
        "name_of_ship": "alert",
        "ship_port": "aberystwyth",
        "date_leaving": " blk",
        "joined_ship_date": "blk",
        "joined_at_port": "blk",
        "capacity": "master",
        "date_left": "blk",
        "left_port": "blk",
        "cause_of_leaving": "remains on board",
        "sign_with_mark": "n",
        "notes": "continued from last journey"
    },
    {
        "id": "vtls004598452_0_15",
        "type": "sailor",
        "parent": "vtls004598452",
        "name": "john phillips",
        "dob": "blk",
        "age": "20",
        "place_of_birth": "cardigan",
        "home_address": "blk",
        "f": "blk",
        "name_of_ship": "glenara",
        "ship_port": "aberystwyth",
        "date_leaving": "1861-12-15",
        "joined_ship_date": "1862-09-15",
        "joined_at_port": "london",
        "capacity": "able seaman",
        "date_left": "1863-04-08",
        "left_port": "london",
        "cause_of_leaving": "discharged",
        "sign_with_mark": "n",
        "notes": "blk"
    },
    {
        "id": "vtls004598452_0_13",
        "type": "sailor",
        "parent": "vtls004598452",
        "name": "david phillips",
        "dob": "blk",
        "age": "24",
        "place_of_birth": "cardigan",
        "home_address": "blk",
        "f": "blk",
        "name_of_ship": "alert",
        "ship_port": "aberystwyth",
        "date_leaving": "1862-08-2",
        "joined_ship_date": "1862-09-15",
        "joined_at_port": "london",
        "capacity": "boatswain",
        "date_left": "1863-04-08",
        "left_port": "london",
        "cause_of_leaving": "discharged",
        "sign_with_mark": "n",
        "notes": "blk"
    },
    {
        "id": "vtls004598452_0_16",
        "type": "sailor",
        "parent": "vtls004598452",
        "name": "owen roberts",
        "dob": "blk",
        "age": "21",
        "place_of_birth": "anglesey",
        "home_address": "blk",
        "f": "blk",
        "name_of_ship": "candidate",
        "ship_port": "london",
        "date_leaving": "1862-07-26",
        "joined_ship_date": "1862-09-15",
        "joined_at_port": "london",
        "capacity": "able seaman",
        "date_left": "1863-04-8",
        "left_port": "london",
        "cause_of_leaving": "discharged",
        "sign_with_mark": "n",
        "notes": "blk"
    },
    {
        "id": "vtls004598452_0_12",
        "type": "sailor",
        "parent": "vtls004598452",
        "name": "thomas soans",
        "dob": "blk",
        "age": "31",
        "place_of_birth": "llangranog",
        "home_address": "blk",
        "f": "blk",
        "name_of_ship": "alert",
        "ship_port": "aberystwyth",
        "date_leaving": "1862-08-26",
        "joined_ship_date": "1862-09-15",
        "joined_at_port": "london",
        "capacity": "mate",
        "date_left": "1863-04-08",
        "left_port": "london",
        "cause_of_leaving": "discharged",
        "sign_with_mark": "n",
        "notes": "blk"
    },
    {
        "id": "vtls004598562_0_15",
        "type": "sailor",
        "parent": "vtls004598562",
        "name": "owan owens",
        "dob": "blk",
        "age": "45",
        "place_of_birth": "cardigan",
        "home_address": "blk",
        "f": "blk",
        "name_of_ship": "mary hughes",
        "ship_port": "new quay",
        "date_leaving": "1865-09-06",
        "joined_ship_date": "1865-11-18",
        "joined_at_port": "london",
        "capacity": "cook & steward",
        "date_left": "1866-03-28",
        "left_port": "london",
        "cause_of_leaving": "discharged",
        "sign_with_mark": "n",
        "notes": "blk"
    },
    {
        "id": "vtls004598562_0_12",
        "type": "sailor",
        "parent": "vtls004598562",
        "name": "david williams",
        "dob": "blk",
        "age": "35",
        "place_of_birth": "newquay",
        "home_address": "blk",
        "f": "blk",
        "name_of_ship": "sarah bridget",
        "ship_port": "aberystwyth",
        "date_leaving": "1865-08-06",
        "joined_ship_date": "1865-11-18",
        "joined_at_port": "london",
        "capacity": "mate",
        "date_left": "1866-03-28",
        "left_port": "london",
        "cause_of_leaving": "discharged",
        "sign_with_mark": "n",
        "notes": "blk"
    },
    {
        "id": "vtls004598562_0_11",
        "type": "sailor",
        "parent": "vtls004598562",
        "name": "jenkin owen",
        "dob": "blk",
        "age": "45",
        "place_of_birth": "newquay",
        "home_address": "new quay cardigan",
        "f": "new quay cardigan",
        "name_of_ship": "alert",
        "ship_port": "aberystwyth",
        "date_leaving": "blk",
        "joined_ship_date": "blk",
        "joined_at_port": "blk",
        "capacity": "master",
        "date_left": "blk",
        "left_port": "blk",
        "cause_of_leaving": "remains on board",
        "sign_with_mark": "n",
        "notes": "continued from last journey"
    },
    {
        "id": "vtls004598562_0_17",
        "type": "sailor",
        "parent": "vtls004598562",
        "name": "r brandt",
        "dob": "blk",
        "age": "28",
        "place_of_birth": "prussia",
        "home_address": "blk",
        "f": "blk",
        "name_of_ship": "confidential",
        "ship_port": "hannover",
        "date_leaving": "1865-11-03",
        "joined_ship_date": "1865-11-18",
        "joined_at_port": "london",
        "capacity": "able seaman",
        "date_left": "1866-03-28",
        "left_port": "london",
        "cause_of_leaving": "discharged",
        "sign_with_mark": "n",
        "notes": "blk"
    },
    {
        "id": "vtls004598562_0_16",
        "type": "sailor",
        "parent": "vtls004598562",
        "name": "david owen",
        "dob": "blk",
        "age": "18",
        "place_of_birth": "cardigan",
        "home_address": "blk",
        "f": "blk",
        "name_of_ship": "[wilies emma]",
        "ship_port": "cardigan",
        "date_leaving": "1865-02-18",
        "joined_ship_date": "1865-11-18",
        "joined_at_port": "london",
        "capacity": "able seaman",
        "date_left": "1866-03-28",
        "left_port": "london",
        "cause_of_leaving": "discharged",
        "sign_with_mark": "n",
        "notes": "blk"
    },
    {
        "id": "vtls004598452_0_17",
        "type": "sailor",
        "parent": "vtls004598452",
        "name": "david owens",
        "dob": "blk",
        "age": "15",
        "place_of_birth": "cardigan",
        "home_address": "blk",
        "f": "blk",
        "name_of_ship": "alert",
        "ship_port": "aberystwyth",
        "date_leaving": "1862-08-26",
        "joined_ship_date": "1862-09-15",
        "joined_at_port": "london",
        "capacity": "ordinary seaman",
        "date_left": "1863-04-09",
        "left_port": "london",
        "cause_of_leaving": "discharged",
        "sign_with_mark": "n",
        "notes": "blk"
    },
    {
        "id": "vtls004598562_0_13",
        "type": "sailor",
        "parent": "vtls004598562",
        "name": "$ jones",
        "dob": "blk",
        "age": "26",
        "place_of_birth": "cardigan",
        "home_address": "blk",
        "f": "blk",
        "name_of_ship": "mary hughes",
        "ship_port": "new quay",
        "date_leaving": "1865-09-06",
        "joined_ship_date": "1865-11-18",
        "joined_at_port": "london",
        "capacity": "boatswain",
        "date_left": "1866-03-28",
        "left_port": "london",
        "cause_of_leaving": "discharged",
        "sign_with_mark": "n",
        "notes": "blk"
    },
    {
        "id": "vtls004598562_0_14",
        "type": "sailor",
        "parent": "vtls004598562",
        "name": "david luis",
        "dob": "blk",
        "age": "29",
        "place_of_birth": "cardigan",
        "home_address": "blk",
        "f": "blk",
        "name_of_ship": "unity",
        "ship_port": "cardigan",
        "date_leaving": "1864-11-18",
        "joined_ship_date": "1865-11-18",
        "joined_at_port": "london",
        "capacity": "carpenter",
        "date_left": "1866-03-28",
        "left_port": "london",
        "cause_of_leaving": "discharged",
        "sign_with_mark": "n",
        "notes": "blk"
    },
    {
        "id": "vtls004598452_0_18",
        "type": "sailor",
        "parent": "vtls004598452",
        "name": "charles holman",
        "dob": "blk",
        "age": "14",
        "place_of_birth": "appledore",
        "home_address": "blk",
        "f": "blk",
        "name_of_ship": "same ship",
        "ship_port": "blk",
        "date_leaving": "blk",
        "joined_ship_date": "1863-02-03",
        "joined_at_port": "$",
        "capacity": "able seaman",
        "date_left": "1863-04-09",
        "left_port": "london",
        "cause_of_leaving": "discharged",
        "sign_with_mark": "n",
        "notes": "blk"
    },
    {
        "id": "vtls004598562_1_15",
        "type": "sailor",
        "parent": "vtls004598562",
        "name": "aerikson",
        "dob": "blk",
        "age": "34",
        "place_of_birth": "norway",
        "home_address": "blk",
        "f": "blk",
        "name_of_ship": "mate$",
        "ship_port": "london",
        "date_leaving": "1866-05-13",
        "joined_ship_date": "1866-05-31",
        "joined_at_port": "london",
        "capacity": "carpenter and able seaman",
        "date_left": "1866-10-17",
        "left_port": "algoa bay",
        "cause_of_leaving": "discharged",
        "sign_with_mark": "n",
        "notes": "ship on which last served: leaving date as stated in crew list"
    },
    {
        "id": "vtls004598562_0_20",
        "type": "sailor",
        "parent": "vtls004598562",
        "name": "j l mclarty",
        "dob": "blk",
        "age": "22",
        "place_of_birth": "st john newfoundland",
        "home_address": "blk",
        "f": "blk",
        "name_of_ship": "henry laurence",
        "ship_port": "new york",
        "date_leaving": "1863-06",
        "joined_ship_date": "1866-02-14",
        "joined_at_port": "long island",
        "capacity": "ordinary seaman",
        "date_left": "1866-03-28",
        "left_port": "london",
        "cause_of_leaving": "discharged",
        "sign_with_mark": "n",
        "notes": "blk"
    },
    {
        "id": "vtls004598562_0_18",
        "type": "sailor",
        "parent": "vtls004598562",
        "name": "c sjostrom",
        "dob": "blk",
        "age": "18",
        "place_of_birth": "spain",
        "home_address": "blk",
        "f": "blk",
        "name_of_ship": "russian vessel",
        "ship_port": "blk",
        "date_leaving": "1865-11-08",
        "joined_ship_date": "1865-11-18",
        "joined_at_port": "london",
        "capacity": "ordinary seaman",
        "date_left": "1866-02-14",
        "left_port": "nassau, germany",
        "cause_of_leaving": "deserted",
        "sign_with_mark": "n",
        "notes": "deserted ship"
    },
    {
        "id": "vtls004598562_1_14",
        "type": "sailor",
        "parent": "vtls004598562",
        "name": "william glenister",
        "dob": "blk",
        "age": "18",
        "place_of_birth": "hereford",
        "home_address": "blk",
        "f": "blk",
        "name_of_ship": "clothilda",
        "ship_port": "london",
        "date_leaving": "1866-05-30",
        "joined_ship_date": "1866-05-31",
        "joined_at_port": "london",
        "capacity": "cook & steward",
        "date_left": "1866-12-21",
        "left_port": "london",
        "cause_of_leaving": "discharged",
        "sign_with_mark": "n",
        "notes": "blk"
    },
    {
        "id": "vtls004598562_0_19",
        "type": "sailor",
        "parent": "vtls004598562",
        "name": "fri$$$$$ch $",
        "dob": "blk",
        "age": "24",
        "place_of_birth": "germany",
        "home_address": "blk",
        "f": "blk",
        "name_of_ship": "volant",
        "ship_port": "new york",
        "date_leaving": "1863-12",
        "joined_ship_date": "1866-02-14",
        "joined_at_port": "$ bahamas",
        "capacity": "cook & steward",
        "date_left": "1866-03-28",
        "left_port": "london",
        "cause_of_leaving": "discharged",
        "sign_with_mark": "n",
        "notes": "blk"
    },
    {
        "id": "vtls004598562_1_13",
        "type": "sailor",
        "parent": "vtls004598562",
        "name": "david owen",
        "dob": "blk",
        "age": "19",
        "place_of_birth": "cardigan",
        "home_address": "blk",
        "f": "blk",
        "name_of_ship": "alert",
        "ship_port": "aberystwyth",
        "date_leaving": "1866-04-08",
        "joined_ship_date": "1866-04-11",
        "joined_at_port": "london",
        "capacity": "boatswain",
        "date_left": "1866-12-21",
        "left_port": "london",
        "cause_of_leaving": "discharged",
        "sign_with_mark": "n",
        "notes": "blk"
    },
    {
        "id": "vtls004598562_1_12",
        "type": "sailor",
        "parent": "vtls004598562",
        "name": "david williams",
        "dob": "blk",
        "age": "35",
        "place_of_birth": "newquay",
        "home_address": "blk",
        "f": "blk",
        "name_of_ship": "alert",
        "ship_port": "aberystwyth",
        "date_leaving": "1866-04-08",
        "joined_ship_date": "1866-04-11",
        "joined_at_port": "london",
        "capacity": "mate",
        "date_left": "1866-12-21",
        "left_port": "london",
        "cause_of_leaving": "discharged",
        "sign_with_mark": "n",
        "notes": "blk"
    },
    {
        "id": "vtls004598562_1_11",
        "type": "sailor",
        "parent": "vtls004598562",
        "name": "jenkin owen",
        "dob": "blk",
        "age": "46",
        "place_of_birth": "newquay",
        "home_address": "blk",
        "f": "blk",
        "name_of_ship": "alert",
        "ship_port": "aberystwyth",
        "date_leaving": "blk",
        "joined_ship_date": "blk",
        "joined_at_port": "blk",
        "capacity": "master",
        "date_left": "blk",
        "left_port": "blk",
        "cause_of_leaving": "remains on board",
        "sign_with_mark": "n",
        "notes": "continued from last journey"
    },
    {
        "id": "vtls004598562_1_18",
        "type": "sailor",
        "parent": "vtls004598562",
        "name": "william bartlett",
        "dob": "blk",
        "age": "20",
        "place_of_birth": "dorset",
        "home_address": "blk",
        "f": "blk",
        "name_of_ship": "anglesey",
        "ship_port": "liverpool",
        "date_leaving": "1866-02-31",
        "joined_ship_date": "1866-05-31",
        "joined_at_port": "london",
        "capacity": "ordinary seaman",
        "date_left": "1866-12-21",
        "left_port": "london",
        "cause_of_leaving": "discharged",
        "sign_with_mark": "n",
        "notes": "ship on which last served: leaving date as stated in crew list"
    },
    {
        "id": "vtls004598562_1_19",
        "type": "sailor",
        "parent": "vtls004598562",
        "name": "james pruden",
        "dob": "blk",
        "age": "42",
        "place_of_birth": "liverpool",
        "home_address": "blk",
        "f": "blk",
        "name_of_ship": "south easter",
        "ship_port": "glasgow",
        "date_leaving": "1866-10-09",
        "joined_ship_date": "1866-10-04",
        "joined_at_port": "port elisabeth",
        "capacity": "able seaman",
        "date_left": "1866-12-21",
        "left_port": "london",
        "cause_of_leaving": "discharged",
        "sign_with_mark": "n",
        "notes": "blk"
    },
    {
        "id": "vtls004598562_1_16",
        "type": "sailor",
        "parent": "vtls004598562",
        "name": "benjamin davies",
        "dob": "blk",
        "age": "22",
        "place_of_birth": "cardigan",
        "home_address": "blk",
        "f": "blk",
        "name_of_ship": "sark",
        "ship_port": "sunderland [guess]",
        "date_leaving": "1865-11-31",
        "joined_ship_date": "1866-05-31",
        "joined_at_port": "london",
        "capacity": "able seaman",
        "date_left": "1866-12-21",
        "left_port": "london",
        "cause_of_leaving": "discharged",
        "sign_with_mark": "n",
        "notes": "blk"
    },
    {
        "id": "vtls004598562_1_20",
        "type": "sailor",
        "parent": "vtls004598562",
        "name": "edward nales",
        "dob": "blk",
        "age": "26",
        "place_of_birth": "margate",
        "home_address": "blk",
        "f": "blk",
        "name_of_ship": "queen of the south",
        "ship_port": "london",
        "date_leaving": "blk",
        "joined_ship_date": "1866-10-17",
        "joined_at_port": "port elisabeth",
        "capacity": "able seaman",
        "date_left": "1866-12-21",
        "left_port": "london",
        "cause_of_leaving": "discharged",
        "sign_with_mark": "n",
        "notes": "blk"
    },
    {
        "id": "vtls004598686_0_14",
        "type": "sailor",
        "parent": "vtls004598686",
        "name": "thomas turner",
        "dob": "blk",
        "age": "31",
        "place_of_birth": "enniskillen",
        "home_address": "blk",
        "f": "blk",
        "name_of_ship": "aratus",
        "ship_port": "liverpool",
        "date_leaving": "1867-02-20",
        "joined_ship_date": "1867-03-04",
        "joined_at_port": "london",
        "capacity": "cook & steward",
        "date_left": "1867-09-05",
        "left_port": "london",
        "cause_of_leaving": "discharged",
        "sign_with_mark": "n",
        "notes": "blk"
    },
    {
        "id": "vtls004598562_1_17",
        "type": "sailor",
        "parent": "vtls004598562",
        "name": "thomas thomas",
        "dob": "blk",
        "age": "18",
        "place_of_birth": "cardigan",
        "home_address": "blk",
        "f": "blk",
        "name_of_ship": "[$ randriff]",
        "ship_port": "new quay",
        "date_leaving": "1865-02-01",
        "joined_ship_date": "1866-05-31",
        "joined_at_port": "london",
        "capacity": "ordinary seaman",
        "date_left": "1866-12-21",
        "left_port": "london",
        "cause_of_leaving": "discharged",
        "sign_with_mark": "n",
        "notes": "blk"
    },
    {
        "id": "vtls004598686_0_12",
        "type": "sailor",
        "parent": "vtls004598686",
        "name": "richard owen griffiths",
        "dob": "blk",
        "age": "25",
        "place_of_birth": "cardigan",
        "home_address": "blk",
        "f": "blk",
        "name_of_ship": "vesta",
        "ship_port": "runcorn",
        "date_leaving": "1866-08-28",
        "joined_ship_date": "1867-01-24",
        "joined_at_port": "london",
        "capacity": "mate",
        "date_left": "1867-09-05",
        "left_port": "london",
        "cause_of_leaving": "discharged",
        "sign_with_mark": "n",
        "notes": "blk"
    },
    {
        "id": "vtls004598686_0_13",
        "type": "sailor",
        "parent": "vtls004598686",
        "name": "david owen",
        "dob": "blk",
        "age": "20",
        "place_of_birth": "cardigan",
        "home_address": "blk",
        "f": "blk",
        "name_of_ship": "alert",
        "ship_port": "aberystwyth",
        "date_leaving": "1866-12-22",
        "joined_ship_date": "1867-01-24",
        "joined_at_port": "london",
        "capacity": "boatswain",
        "date_left": "1867-09-05",
        "left_port": "london",
        "cause_of_leaving": "discharged",
        "sign_with_mark": "n",
        "notes": "blk"
    },
    {
        "id": "vtls004598686_0_11",
        "type": "sailor",
        "parent": "vtls004598686",
        "name": "jenkin owen",
        "dob": "blk",
        "age": "46",
        "place_of_birth": "newquay",
        "home_address": "blk",
        "f": "blk",
        "name_of_ship": "alert",
        "ship_port": "aberystwyth",
        "date_leaving": "blk",
        "joined_ship_date": "blk",
        "joined_at_port": "blk",
        "capacity": "master",
        "date_left": "blk",
        "left_port": "blk",
        "cause_of_leaving": "remains on board",
        "sign_with_mark": "n",
        "notes": "conintued from last journey"
    },
    {
        "id": "vtls004598686_0_15",
        "type": "sailor",
        "parent": "vtls004598686",
        "name": "charles howard",
        "dob": "blk",
        "age": "27",
        "place_of_birth": "woolwich",
        "home_address": "blk",
        "f": "blk",
        "name_of_ship": "southern empire",
        "ship_port": "liverpool",
        "date_leaving": "1867-02-20",
        "joined_ship_date": "1867-03-04",
        "joined_at_port": "london",
        "capacity": "able seaman",
        "date_left": "1867-09-05",
        "left_port": "london",
        "cause_of_leaving": "discharged",
        "sign_with_mark": "y",
        "notes": "blk"
    },
    {
        "id": "vtls004598686_0_18",
        "type": "sailor",
        "parent": "vtls004598686",
        "name": "john scott",
        "dob": "blk",
        "age": "24",
        "place_of_birth": "greenock",
        "home_address": "blk",
        "f": "blk",
        "name_of_ship": "[lastborough]",
        "ship_port": "[sunderland]",
        "date_leaving": "1867-02-26",
        "joined_ship_date": "1867-03-04",
        "joined_at_port": "london",
        "capacity": "able seaman",
        "date_left": "1867-09-05",
        "left_port": "london",
        "cause_of_leaving": "discharged",
        "sign_with_mark": "n",
        "notes": "blk"
    },
    {
        "id": "vtls004598686_0_16",
        "type": "sailor",
        "parent": "vtls004598686",
        "name": "benjamin davies",
        "dob": "blk",
        "age": "23",
        "place_of_birth": "cardigan",
        "home_address": "blk",
        "f": "blk",
        "name_of_ship": "alert",
        "ship_port": "aberystwyth",
        "date_leaving": "1866-12-22",
        "joined_ship_date": "1867-01-24",
        "joined_at_port": "london",
        "capacity": "able seaman",
        "date_left": "1867-09-05",
        "left_port": "london",
        "cause_of_leaving": "discharged",
        "sign_with_mark": "n",
        "notes": "blk"
    },
    {
        "id": "vtls004598763_0_12",
        "type": "sailor",
        "parent": "vtls004598763",
        "name": "richard o griffiths",
        "dob": "blk",
        "age": "24",
        "place_of_birth": "cardigan",
        "home_address": "blk",
        "f": "blk",
        "name_of_ship": "alert",
        "ship_port": "aberystwyth",
        "date_leaving": "1867-09-05",
        "joined_ship_date": "1867-09-26",
        "joined_at_port": "london",
        "capacity": "mate",
        "date_left": "1868-03-10",
        "left_port": "london",
        "cause_of_leaving": "discharged",
        "sign_with_mark": "n",
        "notes": "blk"
    },
    {
        "id": "vtls004598686_0_17",
        "type": "sailor",
        "parent": "vtls004598686",
        "name": "david wilson",
        "dob": "blk",
        "age": "22",
        "place_of_birth": "aberdeen",
        "home_address": "blk",
        "f": "blk",
        "name_of_ship": "neptune",
        "ship_port": "london",
        "date_leaving": "1867-02-20",
        "joined_ship_date": "1867-03-04",
        "joined_at_port": "london",
        "capacity": "able seaman",
        "date_left": "1867-09-05",
        "left_port": "london",
        "cause_of_leaving": "discharged",
        "sign_with_mark": "n",
        "notes": "blk"
    },
    {
        "id": "vtls004598763_0_11",
        "type": "sailor",
        "parent": "vtls004598763",
        "name": "jenkin owen",
        "dob": "blk",
        "age": "47",
        "place_of_birth": "newquay",
        "home_address": "blk",
        "f": "blk",
        "name_of_ship": "alert",
        "ship_port": "aberystwyth",
        "date_leaving": "blk",
        "joined_ship_date": "blk",
        "joined_at_port": "blk",
        "capacity": "master",
        "date_left": "blk",
        "left_port": "blk",
        "cause_of_leaving": "remains on board",
        "sign_with_mark": "n",
        "notes": "continued from last journey"
    },
    {
        "id": "vtls004598686_0_19",
        "type": "sailor",
        "parent": "vtls004598686",
        "name": "christopher simner",
        "dob": "blk",
        "age": "17",
        "place_of_birth": "london",
        "home_address": "blk",
        "f": "blk",
        "name_of_ship": "blk",
        "ship_port": "blk",
        "date_leaving": "blk",
        "joined_ship_date": "1867-03-04",
        "joined_at_port": "london",
        "capacity": "boy",
        "date_left": "1867-09-05",
        "left_port": "london",
        "cause_of_leaving": "discharged",
        "sign_with_mark": "n",
        "notes": "first voyage"
    },
    {
        "id": "vtls004598763_0_14",
        "type": "sailor",
        "parent": "vtls004598763",
        "name": "benjamin jones",
        "dob": "blk",
        "age": "21",
        "place_of_birth": "london",
        "home_address": "blk",
        "f": "blk",
        "name_of_ship": "marmion",
        "ship_port": "liverpool",
        "date_leaving": "1867-06-20",
        "joined_ship_date": "1867-10-24",
        "joined_at_port": "london",
        "capacity": "cook & steward",
        "date_left": "1868-03-10",
        "left_port": "london",
        "cause_of_leaving": "discharged",
        "sign_with_mark": "n",
        "notes": "blk"
    },
    {
        "id": "vtls004598763_0_15",
        "type": "sailor",
        "parent": "vtls004598763",
        "name": "thomas thomas",
        "dob": "blk",
        "age": "19",
        "place_of_birth": "cardigan",
        "home_address": "blk",
        "f": "blk",
        "name_of_ship": "[j slater]",
        "ship_port": "[barrow}",
        "date_leaving": "1867-05-31",
        "joined_ship_date": "1867-10-24",
        "joined_at_port": "london",
        "capacity": "able seaman",
        "date_left": "1868-03-10",
        "left_port": "london",
        "cause_of_leaving": "discharged",
        "sign_with_mark": "n",
        "notes": "blk"
    },
    {
        "id": "vtls004598763_0_18",
        "type": "sailor",
        "parent": "vtls004598763",
        "name": "john mally",
        "dob": "blk",
        "age": "17",
        "place_of_birth": "galway",
        "home_address": "blk",
        "f": "blk",
        "name_of_ship": "arctic hero",
        "ship_port": "london",
        "date_leaving": "1867-10-10",
        "joined_ship_date": "1867-10-24",
        "joined_at_port": "london",
        "capacity": "ordinary seaman",
        "date_left": "1868-01-12",
        "left_port": "berbice",
        "cause_of_leaving": "deserted",
        "sign_with_mark": "n",
        "notes": "blk"
    },
    {
        "id": "vtls004598763_0_16",
        "type": "sailor",
        "parent": "vtls004598763",
        "name": "john davies",
        "dob": "blk",
        "age": "25",
        "place_of_birth": "cardigan",
        "home_address": "blk",
        "f": "blk",
        "name_of_ship": "clara",
        "ship_port": "lancaster",
        "date_leaving": "1867-09-16",
        "joined_ship_date": "1867-10-24",
        "joined_at_port": "london",
        "capacity": "able seaman",
        "date_left": "1868-03-10",
        "left_port": "london",
        "cause_of_leaving": "discharged",
        "sign_with_mark": "n",
        "notes": "blk"
    },
    {
        "id": "vtls004598763_0_13",
        "type": "sailor",
        "parent": "vtls004598763",
        "name": "david owen",
        "dob": "blk",
        "age": "21",
        "place_of_birth": "cardigan",
        "home_address": "blk",
        "f": "blk",
        "name_of_ship": "alert",
        "ship_port": "aberystwyth",
        "date_leaving": "1867-09-05",
        "joined_ship_date": "1867-09-26",
        "joined_at_port": "london",
        "capacity": "boatswain",
        "date_left": "1868-03-10",
        "left_port": "london",
        "cause_of_leaving": "discharged",
        "sign_with_mark": "n",
        "notes": "blk"
    },
    {
        "id": "vtls004598763_0_17",
        "type": "sailor",
        "parent": "vtls004598763",
        "name": "charles jones",
        "dob": "blk",
        "age": "25",
        "place_of_birth": "$$$$mouth",
        "home_address": "blk",
        "f": "blk",
        "name_of_ship": "minerva",
        "ship_port": "london",
        "date_leaving": "1867-10-16",
        "joined_ship_date": "1867-10-24",
        "joined_at_port": "london",
        "capacity": "able seaman",
        "date_left": "1868-03-10",
        "left_port": "london",
        "cause_of_leaving": "discharged",
        "sign_with_mark": "n",
        "notes": "blk"
    },
    {
        "id": "vtls004598763_0_20",
        "type": "sailor",
        "parent": "vtls004598763",
        "name": "junnus $",
        "dob": "blk",
        "age": "25",
        "place_of_birth": "antigua",
        "home_address": "blk",
        "f": "blk",
        "name_of_ship": "malden",
        "ship_port": "blk",
        "date_leaving": "1867-12-25",
        "joined_ship_date": "1868-01-13",
        "joined_at_port": "berbice",
        "capacity": "able seaman",
        "date_left": "1968-03-10",
        "left_port": "london",
        "cause_of_leaving": "discharged",
        "sign_with_mark": "y",
        "notes": "blk"
    },
    {
        "id": "vtls004598700_0_11",
        "type": "sailor",
        "parent": "vtls004598700",
        "name": "david james",
        "dob": "blk",
        "age": "34",
        "place_of_birth": "newquay",
        "home_address": "blk",
        "f": "blk",
        "name_of_ship": "derby",
        "ship_port": "aberystwyth",
        "date_leaving": "1869",
        "joined_ship_date": "1869-12-06",
        "joined_at_port": "london",
        "capacity": "master",
        "date_left": "blk",
        "left_port": "blk",
        "cause_of_leaving": "remains on board",
        "sign_with_mark": "n",
        "notes": "blk"
    },
    {
        "id": "vtls004598763_0_19",
        "type": "sailor",
        "parent": "vtls004598763",
        "name": "george $",
        "dob": "blk",
        "age": "16",
        "place_of_birth": "cardigan",
        "home_address": "blk",
        "f": "blk",
        "name_of_ship": "blk",
        "ship_port": "blk",
        "date_leaving": "blk",
        "joined_ship_date": "1867-10-10",
        "joined_at_port": "london",
        "capacity": "boy",
        "date_left": "1868-03-10",
        "left_port": "london",
        "cause_of_leaving": "discharged",
        "sign_with_mark": "n",
        "notes": "blk"
    },
    {
        "id": "vtls004598700_1_11",
        "type": "sailor",
        "parent": "vtls004598700",
        "name": "jenkin owen",
        "dob": "blk",
        "age": "50",
        "place_of_birth": "newquay",
        "home_address": "blk",
        "f": "blk",
        "name_of_ship": "alert",
        "ship_port": "newquay",
        "date_leaving": "blk",
        "joined_ship_date": "blk",
        "joined_at_port": "blk",
        "capacity": "master",
        "date_left": "1870-10-10",
        "left_port": "swansea",
        "cause_of_leaving": "remains on board",
        "sign_with_mark": "n",
        "notes": "on all other crew lists the alert is registered in aberystwyth"
    },
    {
        "id": "vtls004598700_0_15",
        "type": "sailor",
        "parent": "vtls004598700",
        "name": "simon davies",
        "dob": "blk",
        "age": "23",
        "place_of_birth": "cardigan",
        "home_address": "blk",
        "f": "blk",
        "name_of_ship": "susanna",
        "ship_port": "caernarvon [glenlyon]",
        "date_leaving": "1869",
        "joined_ship_date": "1869-12-06",
        "joined_at_port": "london",
        "capacity": "able seaman",
        "date_left": "1870-05-26",
        "left_port": "london",
        "cause_of_leaving": "discharged",
        "sign_with_mark": "y",
        "notes": "blk"
    },
    {
        "id": "vtls004598700_0_18",
        "type": "sailor",
        "parent": "vtls004598700",
        "name": "jenkin thomas",
        "dob": "blk",
        "age": "18",
        "place_of_birth": "cardigan",
        "home_address": "blk",
        "f": "blk",
        "name_of_ship": "alert",
        "ship_port": "aberystwyth",
        "date_leaving": "1869",
        "joined_ship_date": "1869-12-06",
        "joined_at_port": "london",
        "capacity": "ordinary seaman",
        "date_left": "1870-05-26",
        "left_port": "london",
        "cause_of_leaving": "discharged",
        "sign_with_mark": "n",
        "notes": "blk"
    },
    {
        "id": "vtls004598700_0_16",
        "type": "sailor",
        "parent": "vtls004598700",
        "name": "stephen morris",
        "dob": "blk",
        "age": "20",
        "place_of_birth": "pembroke",
        "home_address": "blk",
        "f": "blk",
        "name_of_ship": "emma & agnes",
        "ship_port": "milford",
        "date_leaving": "1869",
        "joined_ship_date": "1869-12-06",
        "joined_at_port": "london",
        "capacity": "able seaman",
        "date_left": "1870-05-26",
        "left_port": "london",
        "cause_of_leaving": "discharged",
        "sign_with_mark": "n",
        "notes": "blk"
    },
    {
        "id": "vtls004598700_0_14",
        "type": "sailor",
        "parent": "vtls004598700",
        "name": "john jenkins",
        "dob": "blk",
        "age": "22",
        "place_of_birth": "cardigan",
        "home_address": "blk",
        "f": "blk",
        "name_of_ship": "black swan",
        "ship_port": "cardigan",
        "date_leaving": "1869",
        "joined_ship_date": "1869-12-06",
        "joined_at_port": "london",
        "capacity": "able seaman",
        "date_left": "1870-05-26",
        "left_port": "london",
        "cause_of_leaving": "discharged",
        "sign_with_mark": "n",
        "notes": "blk"
    },
    {
        "id": "vtls004598700_0_13",
        "type": "sailor",
        "parent": "vtls004598700",
        "name": "david owen",
        "dob": "blk",
        "age": "23",
        "place_of_birth": "cardigan",
        "home_address": "blk",
        "f": "blk",
        "name_of_ship": "alert",
        "ship_port": "aberystwyth",
        "date_leaving": "1869",
        "joined_ship_date": "1869-12-06",
        "joined_at_port": "london",
        "capacity": "boatswain",
        "date_left": "1870-05-26",
        "left_port": "london",
        "cause_of_leaving": "discharged",
        "sign_with_mark": "n",
        "notes": "blk"
    },
    {
        "id": "vtls004598700_0_17",
        "type": "sailor",
        "parent": "vtls004598700",
        "name": "edward ford",
        "dob": "blk",
        "age": "24",
        "place_of_birth": "bedford, united states",
        "home_address": "blk",
        "f": "blk",
        "name_of_ship": "blk",
        "ship_port": "blk",
        "date_leaving": "blk",
        "joined_ship_date": "1869-12-06",
        "joined_at_port": "london",
        "capacity": "cook & steward",
        "date_left": "1870-05-26",
        "left_port": "london",
        "cause_of_leaving": "discharged",
        "sign_with_mark": "y",
        "notes": "blk"
    },
    {
        "id": "vtls004598700_0_12",
        "type": "sailor",
        "parent": "vtls004598700",
        "name": "david james",
        "dob": "blk",
        "age": "34",
        "place_of_birth": "cardigan",
        "home_address": "blk",
        "f": "blk",
        "name_of_ship": "alert",
        "ship_port": "aberystwyth",
        "date_leaving": "1869",
        "joined_ship_date": "1869-12-06",
        "joined_at_port": "london",
        "capacity": "mate",
        "date_left": "1870-05-26",
        "left_port": "london",
        "cause_of_leaving": "discharged",
        "sign_with_mark": "n",
        "notes": "blk"
    },
    {
        "id": "vtls004598700_1_16",
        "type": "sailor",
        "parent": "vtls004598700",
        "name": "david elias",
        "dob": "blk",
        "age": "18",
        "place_of_birth": "llandysul",
        "home_address": "blk",
        "f": "blk",
        "name_of_ship": "perseverance",
        "ship_port": "[hartlepool]",
        "date_leaving": "1870",
        "joined_ship_date": "1870-07-07",
        "joined_at_port": "swansea",
        "capacity": "cook & steward",
        "date_left": "1870-10-08",
        "left_port": "swansea",
        "cause_of_leaving": "discharged",
        "sign_with_mark": "n",
        "notes": "blk"
    },
    {
        "id": "vtls004598700_1_15",
        "type": "sailor",
        "parent": "vtls004598700",
        "name": "owen jones",
        "dob": "blk",
        "age": "20",
        "place_of_birth": "aberystwyth",
        "home_address": "blk",
        "f": "blk",
        "name_of_ship": "admiral fitzroy",
        "ship_port": "newquay",
        "date_leaving": "1870",
        "joined_ship_date": "1870-07-07",
        "joined_at_port": "swansea",
        "capacity": "able seaman",
        "date_left": "1870-10-08",
        "left_port": "swansea",
        "cause_of_leaving": "discharged",
        "sign_with_mark": "n",
        "notes": "blk"
    },
    {
        "id": "vtls004598700_1_18",
        "type": "sailor",
        "parent": "vtls004598700",
        "name": "robert phillips",
        "dob": "blk",
        "age": "22",
        "place_of_birth": "mumbles",
        "home_address": "blk",
        "f": "blk",
        "name_of_ship": "[relative]",
        "ship_port": "newquay",
        "date_leaving": "1870",
        "joined_ship_date": "1870-07-07",
        "joined_at_port": "swansea",
        "capacity": "able seaman",
        "date_left": "1870-10-08",
        "left_port": "swansea",
        "cause_of_leaving": "discharged",
        "sign_with_mark": "y",
        "notes": "blk"
    },
    {
        "id": "vtls004598700_1_17",
        "type": "sailor",
        "parent": "vtls004598700",
        "name": "jenkin thomas",
        "dob": "blk",
        "age": "19",
        "place_of_birth": "cardigan",
        "home_address": "blk",
        "f": "blk",
        "name_of_ship": "alert",
        "ship_port": "newquay",
        "date_leaving": "1870",
        "joined_ship_date": "1870-07-07",
        "joined_at_port": "swansea",
        "capacity": "ordinary seaman",
        "date_left": "1870-10-08",
        "left_port": "swansea",
        "cause_of_leaving": "discharged",
        "sign_with_mark": "n",
        "notes": "blk"
    },
    {
        "id": "vtls004598700_1_13",
        "type": "sailor",
        "parent": "vtls004598700",
        "name": "james owen",
        "dob": "blk",
        "age": "22",
        "place_of_birth": "cardigan",
        "home_address": "blk",
        "f": "blk",
        "name_of_ship": "admiral fitzroy",
        "ship_port": "swansea",
        "date_leaving": "1870",
        "joined_ship_date": "1870-07-07",
        "joined_at_port": "swansea",
        "capacity": "boatswain",
        "date_left": "1870-10-09",
        "left_port": "swansea",
        "cause_of_leaving": "discharged",
        "sign_with_mark": "n",
        "notes": "blk"
    },
    {
        "id": "vtls004598700_1_14",
        "type": "sailor",
        "parent": "vtls004598700",
        "name": "david jones",
        "dob": "blk",
        "age": "25",
        "place_of_birth": "newquay",
        "home_address": " blk",
        "f": " blk",
        "name_of_ship": "mary sarah",
        "ship_port": "newquay",
        "date_leaving": "1870",
        "joined_ship_date": "1870-07-07",
        "joined_at_port": "swansea",
        "capacity": "able seaman",
        "date_left": "1870-10-08",
        "left_port": "swansea",
        "cause_of_leaving": "discharged",
        "sign_with_mark": "n",
        "notes": "blk"
    },
    {
        "id": "vtls004598719_0_11",
        "type": "sailor",
        "parent": "vtls004598719",
        "name": "jenkin owen",
        "dob": "blk",
        "age": "50",
        "place_of_birth": "newquay",
        "home_address": "blk",
        "f": "blk",
        "name_of_ship": "alert",
        "ship_port": "aberystwyth",
        "date_leaving": "1870",
        "joined_ship_date": "1870-11-11",
        "joined_at_port": "swansea",
        "capacity": "master",
        "date_left": "1871-04-07",
        "left_port": "blk",
        "cause_of_leaving": "remains on board",
        "sign_with_mark": "n",
        "notes": "blk"
    },
    {
        "id": "vtls004598719_0_12",
        "type": "sailor",
        "parent": "vtls004598719",
        "name": "david owen",
        "dob": "blk",
        "age": "23",
        "place_of_birth": "cardigan",
        "home_address": "blk",
        "f": "blk",
        "name_of_ship": "alert",
        "ship_port": "aberystwyth",
        "date_leaving": "1870",
        "joined_ship_date": "1870-11-11",
        "joined_at_port": "swansea",
        "capacity": "mate",
        "date_left": "1871-04-24",
        "left_port": "glasgow",
        "cause_of_leaving": "discharged",
        "sign_with_mark": "n",
        "notes": "blk"
    },
    {
        "id": "vtls004598700_1_12",
        "type": "sailor",
        "parent": "vtls004598700",
        "name": "david owen",
        "dob": "blk",
        "age": "23",
        "place_of_birth": "cardigan",
        "home_address": "blk",
        "f": "blk",
        "name_of_ship": "alert",
        "ship_port": "newquay",
        "date_leaving": "1870",
        "joined_ship_date": "1870-07-07",
        "joined_at_port": "swansea",
        "capacity": "mate",
        "date_left": "1870-10-10",
        "left_port": "swansea",
        "cause_of_leaving": "discharged",
        "sign_with_mark": "n",
        "notes": "blk"
    },
    {
        "id": "vtls004598719_0_17",
        "type": "sailor",
        "parent": "vtls004598719",
        "name": "john williams",
        "dob": "blk",
        "age": "22",
        "place_of_birth": "dinas",
        "home_address": "blk",
        "f": "blk",
        "name_of_ship": "british monarch",
        "ship_port": "liverpool",
        "date_leaving": "1870",
        "joined_ship_date": "1870-11-11",
        "joined_at_port": "swansea",
        "capacity": "able seaman",
        "date_left": "1871-04-07",
        "left_port": "glasgow",
        "cause_of_leaving": "discharged",
        "sign_with_mark": "n",
        "notes": "blk"
    },
    {
        "id": "vtls004598719_0_18",
        "type": "sailor",
        "parent": "vtls004598719",
        "name": "alexander patterson",
        "dob": "blk",
        "age": "17",
        "place_of_birth": "$",
        "home_address": "blk",
        "f": "blk",
        "name_of_ship": "enterprise",
        "ship_port": "beaumaris",
        "date_leaving": "1870",
        "joined_ship_date": "1870-11-11",
        "joined_at_port": "swansea",
        "capacity": "ordinary seaman",
        "date_left": "1871-04-07",
        "left_port": "glasgow",
        "cause_of_leaving": "discharged",
        "sign_with_mark": "n",
        "notes": "blk"
    },
    {
        "id": "vtls004598719_0_14",
        "type": "sailor",
        "parent": "vtls004598719",
        "name": "john thomas",
        "dob": "blk",
        "age": "60",
        "place_of_birth": "cardigan",
        "home_address": "blk",
        "f": "blk",
        "name_of_ship": "ellen",
        "ship_port": "cardigan",
        "date_leaving": "1870",
        "joined_ship_date": "1870-11-11",
        "joined_at_port": "swansea",
        "capacity": "cook & steward",
        "date_left": "1871-04-07",
        "left_port": "glasgow",
        "cause_of_leaving": "discharged",
        "sign_with_mark": "n",
        "notes": "blk"
    },
    {
        "id": "vtls004598719_0_15",
        "type": "sailor",
        "parent": "vtls004598719",
        "name": "george owen",
        "dob": "blk",
        "age": "19",
        "place_of_birth": "cardigan",
        "home_address": "blk",
        "f": "blk",
        "name_of_ship": "alert",
        "ship_port": "aberystwyth",
        "date_leaving": "1870",
        "joined_ship_date": "1870-11-11",
        "joined_at_port": "swansea",
        "capacity": "able seaman",
        "date_left": "1871-04-07",
        "left_port": "glasgow",
        "cause_of_leaving": "discharged",
        "sign_with_mark": "n",
        "notes": "blk"
    },
    {
        "id": "vtls004598719_0_13",
        "type": "sailor",
        "parent": "vtls004598719",
        "name": "thomas thomas",
        "dob": "blk",
        "age": "26",
        "place_of_birth": "cardigan",
        "home_address": "blk",
        "f": "blk",
        "name_of_ship": "nell",
        "ship_port": "aberystwyth",
        "date_leaving": "1870",
        "joined_ship_date": "1870-11-11",
        "joined_at_port": "swansea",
        "capacity": "boatswain",
        "date_left": "1871-04-07",
        "left_port": "glasgow",
        "cause_of_leaving": "discharged",
        "sign_with_mark": "n",
        "notes": "blk"
    },
    {
        "id": "vtls004598719_0_16",
        "type": "sailor",
        "parent": "vtls004598719",
        "name": "owen morgan",
        "dob": "blk",
        "age": "44",
        "place_of_birth": "cardigan",
        "home_address": "blk",
        "f": "blk",
        "name_of_ship": "brandon",
        "ship_port": "barro",
        "date_leaving": "1870",
        "joined_ship_date": "1870-11-11",
        "joined_at_port": "swansea",
        "capacity": "able seaman",
        "date_left": "1871-04-07",
        "left_port": "glasgow",
        "cause_of_leaving": "discharged",
        "sign_with_mark": "n",
        "notes": "blk"
    },
    {
        "id": "vtls004598719_1_11",
        "type": "sailor",
        "parent": "vtls004598719",
        "name": "jenkin owen",
        "dob": "blk",
        "age": "50",
        "place_of_birth": "cardigan",
        "home_address": "blk",
        "f": "blk",
        "name_of_ship": "alert",
        "ship_port": "aberystwyth",
        "date_leaving": "1871",
        "joined_ship_date": "1871-04-24",
        "joined_at_port": "glasgow",
        "capacity": "master",
        "date_left": "blk",
        "left_port": "glasgow",
        "cause_of_leaving": "remains on board",
        "sign_with_mark": "n",
        "notes": "blk"
    },
    {
        "id": "vtls004598719_1_12",
        "type": "sailor",
        "parent": "vtls004598719",
        "name": "david owen",
        "dob": "blk",
        "age": "23",
        "place_of_birth": "cardigan",
        "home_address": "blk",
        "f": "blk",
        "name_of_ship": "alert",
        "ship_port": "aberystwyth",
        "date_leaving": "1871",
        "joined_ship_date": "1871-04-24",
        "joined_at_port": "glasgow",
        "capacity": "mate",
        "date_left": "1871-09-27",
        "left_port": "glasgow",
        "cause_of_leaving": "discharged",
        "sign_with_mark": "n",
        "notes": "blk"
    },
    {
        "id": "vtls004598719_1_15",
        "type": "sailor",
        "parent": "vtls004598719",
        "name": "owen morgan",
        "dob": "blk",
        "age": "42",
        "place_of_birth": "cardigan",
        "home_address": "blk",
        "f": "blk",
        "name_of_ship": "alert",
        "ship_port": "aberystwyth",
        "date_leaving": "1871",
        "joined_ship_date": "1871-04-24",
        "joined_at_port": "glasgow",
        "capacity": "able seaman and boatswain",
        "date_left": "1871-09-27",
        "left_port": "glasgow",
        "cause_of_leaving": "discharged",
        "sign_with_mark": "n",
        "notes": "blk"
    },
    {
        "id": "vtls004598719_1_14",
        "type": "sailor",
        "parent": "vtls004598719",
        "name": "john hodge",
        "dob": "blk",
        "age": "40",
        "place_of_birth": "lancaster",
        "home_address": "blk",
        "f": "blk",
        "name_of_ship": "[william jackson]",
        "ship_port": "london",
        "date_leaving": "1871",
        "joined_ship_date": "1871-04-23",
        "joined_at_port": "glasgow",
        "capacity": "cook & steward",
        "date_left": "1871-04-29",
        "left_port": "greenock",
        "cause_of_leaving": "deserted",
        "sign_with_mark": "n",
        "notes": "blk"
    },
    {
        "id": "vtls004598719_1_19",
        "type": "sailor",
        "parent": "vtls004598719",
        "name": "albert wagner",
        "dob": "blk",
        "age": "33",
        "place_of_birth": "germany",
        "home_address": "blk",
        "f": "blk",
        "name_of_ship": "gipsy queen",
        "ship_port": "shoreham",
        "date_leaving": "1871",
        "joined_ship_date": "1871-05-01",
        "joined_at_port": "glasgow",
        "capacity": "able seaman",
        "date_left": "1871-07-03",
        "left_port": "constantinople",
        "cause_of_leaving": "discharged",
        "sign_with_mark": "n",
        "notes": "blk"
    },
    {
        "id": "vtls004598719_1_16",
        "type": "sailor",
        "parent": "vtls004598719",
        "name": "thomas $ jones",
        "dob": "blk",
        "age": "20",
        "place_of_birth": "beaumaris",
        "home_address": "blk",
        "f": "blk",
        "name_of_ship": "florence nightingale",
        "ship_port": "liverpool",
        "date_leaving": "1871",
        "joined_ship_date": "1871-04-26",
        "joined_at_port": "glasgow",
        "capacity": "able seaman",
        "date_left": "blk",
        "left_port": "blk",
        "cause_of_leaving": "blk",
        "sign_with_mark": "n",
        "notes": "never joined"
    },
    {
        "id": "vtls004598719_1_21",
        "type": "sailor",
        "parent": "vtls004598719",
        "name": "jacob hearne",
        "dob": "blk",
        "age": "23",
        "place_of_birth": "russin",
        "home_address": "blk",
        "f": "blk",
        "name_of_ship": "[edward sandwell]",
        "ship_port": "$",
        "date_leaving": "1871",
        "joined_ship_date": "1871-05-03",
        "joined_at_port": "greenock",
        "capacity": "able seaman",
        "date_left": "1871-09-27",
        "left_port": "glasgow",
        "cause_of_leaving": "discharged",
        "sign_with_mark": "y",
        "notes": "blk"
    },
    {
        "id": "vtls004598719_1_18",
        "type": "sailor",
        "parent": "vtls004598719",
        "name": "alexander patterson",
        "dob": "blk",
        "age": "17",
        "place_of_birth": "aberystwyth",
        "home_address": "blk",
        "f": "blk",
        "name_of_ship": "alert",
        "ship_port": "aberystwyth",
        "date_leaving": "1871",
        "joined_ship_date": "1871-04-27",
        "joined_at_port": "glasgow",
        "capacity": "boy",
        "date_left": "1871-09-27",
        "left_port": "glasgow",
        "cause_of_leaving": "discharged",
        "sign_with_mark": "n",
        "notes": "blk"
    },
    {
        "id": "vtls004598719_1_20",
        "type": "sailor",
        "parent": "vtls004598719",
        "name": "henry ayliffe",
        "dob": "blk",
        "age": "21",
        "place_of_birth": "bath",
        "home_address": "blk",
        "f": "blk",
        "name_of_ship": "$",
        "ship_port": "liverpool",
        "date_leaving": "1871",
        "joined_ship_date": "1871-05-01",
        "joined_at_port": "glasgow",
        "capacity": "ordinary seaman",
        "date_left": "1871-09-27",
        "left_port": "glasgow",
        "cause_of_leaving": "discharged",
        "sign_with_mark": "n",
        "notes": "blk"
    },
    {
        "id": "vtls004598719_1_22",
        "type": "sailor",
        "parent": "vtls004598719",
        "name": "joseph beaumaint",
        "dob": "blk",
        "age": "36",
        "place_of_birth": "boston us",
        "home_address": "blk",
        "f": "blk",
        "name_of_ship": "gem",
        "ship_port": "blk",
        "date_leaving": "1871",
        "joined_ship_date": "1871-07-03",
        "joined_at_port": "constantinople",
        "capacity": "able seaman",
        "date_left": "1871-09-27",
        "left_port": "glasgow",
        "cause_of_leaving": "d",
        "sign_with_mark": "n",
        "notes": "blk"
    },
    {
        "id": "vtls004598719_1_17",
        "type": "sailor",
        "parent": "vtls004598719",
        "name": "hans dehle",
        "dob": "blk",
        "age": "22",
        "place_of_birth": "denmark",
        "home_address": "blk",
        "f": "blk",
        "name_of_ship": "lilliput",
        "ship_port": "liverpool",
        "date_leaving": "1871",
        "joined_ship_date": "1871-04-26",
        "joined_at_port": "glasgow",
        "capacity": "able seaman",
        "date_left": "blk",
        "left_port": "blk",
        "cause_of_leaving": "blk",
        "sign_with_mark": "y",
        "notes": "never joined"
    },
    {
        "id": "vtls004598719_1_13",
        "type": "sailor",
        "parent": "vtls004598719",
        "name": "norman morrison",
        "dob": "blk",
        "age": "20",
        "place_of_birth": "$",
        "home_address": "blk",
        "f": "blk",
        "name_of_ship": "blk",
        "ship_port": "blk",
        "date_leaving": "blk",
        "joined_ship_date": "1871-04-26",
        "joined_at_port": "glasgow",
        "capacity": "carpenter",
        "date_left": "1871-09-27",
        "left_port": "glasgow",
        "cause_of_leaving": "discharged",
        "sign_with_mark": "n",
        "notes": "blk"
    },
    {
        "id": "vtls004598839_0_14",
        "type": "sailor",
        "parent": "vtls004598839",
        "name": "william bruckner",
        "dob": "blk",
        "age": "22",
        "place_of_birth": "new york",
        "home_address": "blk",
        "f": "blk",
        "name_of_ship": "[heinos]",
        "ship_port": "n.s.",
        "date_leaving": "1871",
        "joined_ship_date": "1871-11-07",
        "joined_at_port": "glasgow",
        "capacity": "cook & steward",
        "date_left": "1872-02-08",
        "left_port": "at sea",
        "cause_of_leaving": "died",
        "sign_with_mark": "n",
        "notes": "died of yellow fever at sea"
    },
    {
        "id": "vtls004598839_0_15",
        "type": "sailor",
        "parent": "vtls004598839",
        "name": "robert $ woodhill",
        "dob": "blk",
        "age": "24",
        "place_of_birth": "holyhead",
        "home_address": "blk",
        "f": "blk",
        "name_of_ship": "florence",
        "ship_port": "liverpool",
        "date_leaving": "1871",
        "joined_ship_date": "1871-11-07",
        "joined_at_port": "glasgow",
        "capacity": "able seaman",
        "date_left": "1872-04-25",
        "left_port": "greenwich",
        "cause_of_leaving": "discharged",
        "sign_with_mark": "y",
        "notes": "blk"
    },
    {
        "id": "vtls004598839_0_17",
        "type": "sailor",
        "parent": "vtls004598839",
        "name": "thomas davies",
        "dob": "blk",
        "age": "22",
        "place_of_birth": "aberaeron",
        "home_address": "blk",
        "f": "blk",
        "name_of_ship": "u larsing",
        "ship_port": "aberstwyth",
        "date_leaving": "1871",
        "joined_ship_date": "1871-11-07",
        "joined_at_port": "glasgow",
        "capacity": "able seaman",
        "date_left": "1872-04-25",
        "left_port": "greenwich",
        "cause_of_leaving": "discharged",
        "sign_with_mark": "n",
        "notes": "blk"
    },
    {
        "id": "vtls004598839_0_12",
        "type": "sailor",
        "parent": "vtls004598839",
        "name": "david owen",
        "dob": "blk",
        "age": "24",
        "place_of_birth": "cardigan",
        "home_address": "blk",
        "f": "blk",
        "name_of_ship": "alert",
        "ship_port": "aberstwyth",
        "date_leaving": "1871",
        "joined_ship_date": "1871-10-09",
        "joined_at_port": "glasgow",
        "capacity": "mate",
        "date_left": "1872-01-30",
        "left_port": "pernambuco",
        "cause_of_leaving": "died",
        "sign_with_mark": "n",
        "notes": "died in hospital of fever"
    },
    {
        "id": "vtls004598839_0_16",
        "type": "sailor",
        "parent": "vtls004598839",
        "name": "andrew wattman",
        "dob": "blk",
        "age": "30",
        "place_of_birth": "sweden",
        "home_address": "blk",
        "f": "blk",
        "name_of_ship": "florence",
        "ship_port": "liverpool",
        "date_leaving": "1871",
        "joined_ship_date": "1871-11-07",
        "joined_at_port": "glasgow",
        "capacity": "able seaman",
        "date_left": "1872-04-25",
        "left_port": "greenwich",
        "cause_of_leaving": "discharged",
        "sign_with_mark": "n",
        "notes": "blk"
    },
    {
        "id": "vtls004598839_0_13",
        "type": "sailor",
        "parent": "vtls004598839",
        "name": "robert band",
        "dob": "blk",
        "age": "24",
        "place_of_birth": "st andrews",
        "home_address": "blk",
        "f": "blk",
        "name_of_ship": "$",
        "ship_port": "blyth",
        "date_leaving": "1871",
        "joined_ship_date": "1871-11-07",
        "joined_at_port": "glasgow",
        "capacity": "boatswain",
        "date_left": "1872-04-26",
        "left_port": "greenock",
        "cause_of_leaving": "discharged",
        "sign_with_mark": "n",
        "notes": "blk"
    },
    {
        "id": "vtls004598839_0_11",
        "type": "sailor",
        "parent": "vtls004598839",
        "name": "jenkin owen",
        "dob": "blk",
        "age": "51",
        "place_of_birth": "newquay",
        "home_address": "blk",
        "f": "blk",
        "name_of_ship": "alert",
        "ship_port": "aberstwyth",
        "date_leaving": "1871",
        "joined_ship_date": "1871-10-09",
        "joined_at_port": "glasgow",
        "capacity": "master",
        "date_left": "blk",
        "left_port": "blk",
        "cause_of_leaving": "remains on board",
        "sign_with_mark": "n",
        "notes": "blk"
    },
    {
        "id": "vtls004598839_1_14",
        "type": "sailor",
        "parent": "vtls004598839",
        "name": "matthew wharrey",
        "dob": "blk",
        "age": "22",
        "place_of_birth": "saltcoats",
        "home_address": "blk",
        "f": "blk",
        "name_of_ship": "kinfauns castle",
        "ship_port": "glasgow",
        "date_leaving": "1872",
        "joined_ship_date": "1872-05-17",
        "joined_at_port": "troon",
        "capacity": "able seaman",
        "date_left": "1872-06-03",
        "left_port": "troon",
        "cause_of_leaving": "$",
        "sign_with_mark": "n",
        "notes": "says 'decline' in the log book"
    },
    {
        "id": "vtls004598839_1_15",
        "type": "sailor",
        "parent": "vtls004598839",
        "name": "john robertson",
        "dob": "blk",
        "age": "23",
        "place_of_birth": "saltcoats",
        "home_address": "blk",
        "f": "blk",
        "name_of_ship": "kinfauns castle",
        "ship_port": "glasgow",
        "date_leaving": "1872",
        "joined_ship_date": "1872-05-17",
        "joined_at_port": "troon",
        "capacity": "able seaman",
        "date_left": "1872-06-03",
        "left_port": "troon",
        "cause_of_leaving": "$",
        "sign_with_mark": "n",
        "notes": "says 'decline' in the log book"
    },
    {
        "id": "vtls004598839_0_18",
        "type": "sailor",
        "parent": "vtls004598839",
        "name": "william lobban",
        "dob": "blk",
        "age": "19",
        "place_of_birth": "aberdeen",
        "home_address": "blk",
        "f": "blk",
        "name_of_ship": "rattray",
        "ship_port": "peterhead",
        "date_leaving": "1871",
        "joined_ship_date": "1871-11-07",
        "joined_at_port": "glasgow",
        "capacity": "ordinary seaman",
        "date_left": "1872-04-25",
        "left_port": "greenwich",
        "cause_of_leaving": "discharged",
        "sign_with_mark": "n",
        "notes": "blk"
    },
    {
        "id": "vtls004598839_1_12",
        "type": "sailor",
        "parent": "vtls004598839",
        "name": "james gillan",
        "dob": "blk",
        "age": "24",
        "place_of_birth": "antigua",
        "home_address": "blk",
        "f": "blk",
        "name_of_ship": "[weto raze]",
        "ship_port": "liverpool",
        "date_leaving": "blk",
        "joined_ship_date": "1872-05-23",
        "joined_at_port": "glasgow",
        "capacity": "cook and able seaman",
        "date_left": "1872-10-26",
        "left_port": "hull",
        "cause_of_leaving": "discharged",
        "sign_with_mark": "n",
        "notes": "blk"
    },
    {
        "id": "vtls004598839_1_18",
        "type": "sailor",
        "parent": "vtls004598839",
        "name": "james mcnulty",
        "dob": "blk",
        "age": "20",
        "place_of_birth": "birkenhead",
        "home_address": "blk",
        "f": "blk",
        "name_of_ship": "morning star",
        "ship_port": "$",
        "date_leaving": "blk",
        "joined_ship_date": "1872-05-23",
        "joined_at_port": "glasgow",
        "capacity": "ordinary seaman",
        "date_left": "1872-10-16",
        "left_port": "hull",
        "cause_of_leaving": "discharged",
        "sign_with_mark": "n",
        "notes": "blk"
    },
    {
        "id": "vtls004598839_1_13",
        "type": "sailor",
        "parent": "vtls004598839",
        "name": "thomas owen thomas",
        "dob": "blk",
        "age": "23",
        "place_of_birth": "cardigan",
        "home_address": "blk",
        "f": "blk",
        "name_of_ship": "duke of rothesay",
        "ship_port": "liverpool",
        "date_leaving": "1872",
        "joined_ship_date": "1872-05-27",
        "joined_at_port": "troon",
        "capacity": "mate",
        "date_left": "1872-10-26",
        "left_port": "$",
        "cause_of_leaving": "discharged",
        "sign_with_mark": "n",
        "notes": "blk"
    },
    {
        "id": "vtls004598839_1_11",
        "type": "sailor",
        "parent": "vtls004598839",
        "name": "jenkin owen",
        "dob": "blk",
        "age": "51",
        "place_of_birth": "newquay",
        "home_address": "blk",
        "f": "blk",
        "name_of_ship": "alert",
        "ship_port": "aberystwyth",
        "date_leaving": "blk",
        "joined_ship_date": "blk",
        "joined_at_port": "blk",
        "capacity": "master",
        "date_left": "blk",
        "left_port": "blk",
        "cause_of_leaving": "remains on board",
        "sign_with_mark": "n",
        "notes": "continued from last journey"
    },
    {
        "id": "vtls004598839_1_16",
        "type": "sailor",
        "parent": "vtls004598839",
        "name": "david berry",
        "dob": "blk",
        "age": "42",
        "place_of_birth": "perth",
        "home_address": "blk",
        "f": "blk",
        "name_of_ship": "$[gent]",
        "ship_port": "blk",
        "date_leaving": "blk",
        "joined_ship_date": "1872-05-23",
        "joined_at_port": "glasgow",
        "capacity": "able seaman",
        "date_left": "1872-10-16",
        "left_port": "hull",
        "cause_of_leaving": "discharged",
        "sign_with_mark": "n",
        "notes": "blk"
    },
    {
        "id": "vtls004598839_1_17",
        "type": "sailor",
        "parent": "vtls004598839",
        "name": "thomas gordon",
        "dob": "blk",
        "age": "41",
        "place_of_birth": "edinburgh",
        "home_address": "blk",
        "f": "blk",
        "name_of_ship": "$",
        "ship_port": "blk",
        "date_leaving": "blk",
        "joined_ship_date": "1872-05-23",
        "joined_at_port": "glasgow",
        "capacity": "boatswain",
        "date_left": "1872-05-28",
        "left_port": "troon",
        "cause_of_leaving": "discharged",
        "sign_with_mark": "n",
        "notes": "blk"
    },
    {
        "id": "vtls004598839_1_19",
        "type": "sailor",
        "parent": "vtls004598839",
        "name": "john shaw",
        "dob": "blk",
        "age": "22",
        "place_of_birth": "glasgow",
        "home_address": "blk",
        "f": "blk",
        "name_of_ship": "gleniffer",
        "ship_port": "glasgow",
        "date_leaving": "1872",
        "joined_ship_date": "1872-05-27",
        "joined_at_port": "glasgow",
        "capacity": "able seaman",
        "date_left": "blk",
        "left_port": "blk",
        "cause_of_leaving": "blk",
        "sign_with_mark": "n",
        "notes": "never joined"
    },
    {
        "id": "vtls004598839_1_22",
        "type": "sailor",
        "parent": "vtls004598839",
        "name": "george william breeches",
        "dob": "blk",
        "age": "19",
        "place_of_birth": "burnham",
        "home_address": "blk",
        "f": "blk",
        "name_of_ship": "[jessie mirrorr]",
        "ship_port": "[ulverston]",
        "date_leaving": "1872",
        "joined_ship_date": "1872-06-03",
        "joined_at_port": "troon",
        "capacity": "ordinary seaman",
        "date_left": "1872-10-16",
        "left_port": "hull",
        "cause_of_leaving": "discharged",
        "sign_with_mark": "n",
        "notes": "blk"
    },
    {
        "id": "vtls004598906_0_11",
        "type": "sailor",
        "parent": "vtls004598906",
        "name": "juleiu glover",
        "dob": "blk",
        "age": "55",
        "place_of_birth": "newquay",
        "home_address": "blk",
        "f": "blk",
        "name_of_ship": "alert",
        "ship_port": "aberystwyth",
        "date_leaving": "1873",
        "joined_ship_date": "1873-11-23",
        "joined_at_port": "glasgow",
        "capacity": "captain",
        "date_left": "1874-03-16",
        "left_port": "st domingo",
        "cause_of_leaving": "vessel wrecked",
        "sign_with_mark": "n",
        "notes": "blk"
    },
    {
        "id": "vtls004598906_0_13",
        "type": "sailor",
        "parent": "vtls004598906",
        "name": "john jones",
        "dob": "blk",
        "age": "28",
        "place_of_birth": "newquay",
        "home_address": "blk",
        "f": "blk",
        "name_of_ship": "cleddieu belle",
        "ship_port": "blk",
        "date_leaving": "1873",
        "joined_ship_date": "1873-11-23",
        "joined_at_port": "glasgow",
        "capacity": "boatswain",
        "date_left": "1874-03-16",
        "left_port": "st domingo",
        "cause_of_leaving": "vessel wrecked",
        "sign_with_mark": "n",
        "notes": "blk"
    },
    {
        "id": "vtls004598839_1_20",
        "type": "sailor",
        "parent": "vtls004598839",
        "name": "theo heidenreich",
        "dob": "blk",
        "age": "20",
        "place_of_birth": "hamburg",
        "home_address": "blk",
        "f": "blk",
        "name_of_ship": "alice leonard",
        "ship_port": "america",
        "date_leaving": "1872",
        "joined_ship_date": "1872-06-03",
        "joined_at_port": "troon",
        "capacity": "able seaman",
        "date_left": "1872-10-16",
        "left_port": "hull",
        "cause_of_leaving": "discharged",
        "sign_with_mark": "n",
        "notes": "blk"
    },
    {
        "id": "vtls004598906_0_12",
        "type": "sailor",
        "parent": "vtls004598906",
        "name": "john davies",
        "dob": "blk",
        "age": "27",
        "place_of_birth": "newquay",
        "home_address": "blk",
        "f": "blk",
        "name_of_ship": "g c gradwell",
        "ship_port": "blk",
        "date_leaving": "1873",
        "joined_ship_date": "1873-11-23",
        "joined_at_port": "glasgow",
        "capacity": "mate",
        "date_left": "1874-03-16",
        "left_port": "st domingo",
        "cause_of_leaving": "vessel wrecked",
        "sign_with_mark": "n",
        "notes": "blk"
    },
    {
        "id": "vtls004598839_1_23",
        "type": "sailor",
        "parent": "vtls004598839",
        "name": "james owen",
        "dob": "blk",
        "age": "25",
        "place_of_birth": "cardigan",
        "home_address": "blk",
        "f": "blk",
        "name_of_ship": "elaine",
        "ship_port": "sunderland",
        "date_leaving": "1872",
        "joined_ship_date": "1872-06-17",
        "joined_at_port": "milford",
        "capacity": "boatswain",
        "date_left": "1872-10-16",
        "left_port": "hull",
        "cause_of_leaving": "discharged",
        "sign_with_mark": "n",
        "notes": "blk"
    },
    {
        "id": "vtls004598839_1_21",
        "type": "sailor",
        "parent": "vtls004598839",
        "name": "charles tilden",
        "dob": "blk",
        "age": "19",
        "place_of_birth": "hastings",
        "home_address": "blk",
        "f": "blk",
        "name_of_ship": "risk",
        "ship_port": "dundee",
        "date_leaving": "1872",
        "joined_ship_date": "1872-06-03",
        "joined_at_port": "troon",
        "capacity": "able seaman",
        "date_left": "1872-10-16",
        "left_port": "hull",
        "cause_of_leaving": "discharged",
        "sign_with_mark": "n",
        "notes": "blk"
    },
    {
        "id": "vtls004598906_0_18",
        "type": "sailor",
        "parent": "vtls004598906",
        "name": "thomas fraser",
        "dob": "blk",
        "age": "20",
        "place_of_birth": "glasgow",
        "home_address": "blk",
        "f": "blk",
        "name_of_ship": "[s s macidonia]",
        "ship_port": "blk",
        "date_leaving": "1873",
        "joined_ship_date": "1873-11-23",
        "joined_at_port": "glasgow",
        "capacity": "able seaman",
        "date_left": "1874-03-16",
        "left_port": "st domingo",
        "cause_of_leaving": "vessel wrecked",
        "sign_with_mark": "n",
        "notes": "blk"
    },
    {
        "id": "vtls004598906_0_16",
        "type": "sailor",
        "parent": "vtls004598906",
        "name": "thomas gardner",
        "dob": "blk",
        "age": "24",
        "place_of_birth": "portsmouth",
        "home_address": "blk",
        "f": "blk",
        "name_of_ship": "unknown",
        "ship_port": "blk",
        "date_leaving": "1873",
        "joined_ship_date": "1873-11-23",
        "joined_at_port": "glasgow",
        "capacity": "able seaman",
        "date_left": "1874-03-16",
        "left_port": "st domingo",
        "cause_of_leaving": "vessel wrecked",
        "sign_with_mark": "n",
        "notes": "blk"
    },
    {
        "id": "vtls004598906_0_17",
        "type": "sailor",
        "parent": "vtls004598906",
        "name": "thomas mue inoz",
        "dob": "blk",
        "age": "21",
        "place_of_birth": "greenock",
        "home_address": "blk",
        "f": "blk",
        "name_of_ship": "unknown",
        "ship_port": "blk",
        "date_leaving": "1873",
        "joined_ship_date": "1873-11-23",
        "joined_at_port": "greenock",
        "capacity": "able seaman",
        "date_left": "1874-03-16",
        "left_port": "st domingo",
        "cause_of_leaving": "vessel wrecked",
        "sign_with_mark": "n",
        "notes": "blk"
    },
    {
        "id": "vtls004598906_0_14",
        "type": "sailor",
        "parent": "vtls004598906",
        "name": "john brodie",
        "dob": "blk",
        "age": "33",
        "place_of_birth": "inverness",
        "home_address": "blk",
        "f": "blk",
        "name_of_ship": "unknown",
        "ship_port": "blk",
        "date_leaving": "1873",
        "joined_ship_date": "1873-11-23",
        "joined_at_port": "glasgow",
        "capacity": "cook & seaman",
        "date_left": "1874-03-16",
        "left_port": "st domingo",
        "cause_of_leaving": "vessel wrecked",
        "sign_with_mark": "n",
        "notes": "blk"
    },
    {
        "id": "vtls004598906_0_15",
        "type": "sailor",
        "parent": "vtls004598906",
        "name": "john phillips",
        "dob": "blk",
        "age": "43",
        "place_of_birth": "padstow",
        "home_address": "blk",
        "f": "blk",
        "name_of_ship": "unknown",
        "ship_port": "blk",
        "date_leaving": "1873",
        "joined_ship_date": "1873-11-23",
        "joined_at_port": "glasgow",
        "capacity": "able seaman",
        "date_left": "1874-03-16",
        "left_port": "st domingo",
        "cause_of_leaving": "vessel wrecked",
        "sign_with_mark": "n",
        "notes": "blk"
    }
]