[
    {
        "id": "vtls004957772_0_11",
        "type": "sailor",
        "parent": "vtls004957772",
        "name": "john richards",
        "dob": "blk",
        "age": "45",
        "place_of_birth": "talybont",
        "home_address": "blk",
        "f": "blk",
        "name_of_ship": "salathiel",
        "ship_port": "aberystwyth",
        "date_leaving": "remains for the last six months",
        "joined_ship_date": "remains",
        "joined_at_port": "blk",
        "capacity": "master",
        "date_left": "blk",
        "left_port": "blk",
        "cause_of_leaving": "remains on board",
        "sign_with_mark": "n",
        "notes": "account for jan - june 1864"
    },
    {
        "id": "vtls004957772_0_13",
        "type": "sailor",
        "parent": "vtls004957772",
        "name": "john jones",
        "dob": "blk",
        "age": "15",
        "place_of_birth": "abersoch",
        "home_address": "blk",
        "f": "blk",
        "name_of_ship": "salathiel",
        "ship_port": "aberystwyth",
        "date_leaving": "remains for the last six months",
        "joined_ship_date": "remains",
        "joined_at_port": "blk",
        "capacity": "able seaman",
        "date_left": "blk",
        "left_port": "blk",
        "cause_of_leaving": "remains on board",
        "sign_with_mark": "n",
        "notes": "blk"
    },
    {
        "id": "vtls004957772_0_14",
        "type": "sailor",
        "parent": "vtls004957772",
        "name": "john meredith",
        "dob": "blk",
        "age": "18",
        "place_of_birth": "casheus",
        "home_address": "blk",
        "f": "blk",
        "name_of_ship": "salathiel",
        "ship_port": "aberystwyth",
        "date_leaving": "remains for the last six months",
        "joined_ship_date": "remains",
        "joined_at_port": "blk",
        "capacity": "boy",
        "date_left": "blk",
        "left_port": "blk",
        "cause_of_leaving": "remains on board",
        "sign_with_mark": "n",
        "notes": "blk"
    },
    {
        "id": "vtls004957772_0_12",
        "type": "sailor",
        "parent": "vtls004957772",
        "name": "edward evans",
        "dob": "blk",
        "age": "27",
        "place_of_birth": "daley",
        "home_address": "blk",
        "f": "blk",
        "name_of_ship": "salathiel",
        "ship_port": "aberystwyth",
        "date_leaving": "remains for the last six months",
        "joined_ship_date": "remains",
        "joined_at_port": "blk",
        "capacity": "mate",
        "date_left": "blk",
        "left_port": "blk",
        "cause_of_leaving": "remains on board",
        "sign_with_mark": "n",
        "notes": "blk"
    }
]