[
    {
        "id": "vtls004907046_0_14",
        "type": "sailor",
        "parent": "vtls004907046",
        "name": "thomas samuel",
        "dob": "blk",
        "age": "22",
        "place_of_birth": "cardigan",
        "home_address": "blk",
        "f": "blk",
        "name_of_ship": "letitia",
        "ship_port": "aberystwyth",
        "date_leaving": "remained",
        "joined_ship_date": "1863-03-04",
        "joined_at_port": "aberystwyth",
        "capacity": "ordinary seaman",
        "date_left": "1863-06-30",
        "left_port": "newport",
        "cause_of_leaving": "remains on board",
        "sign_with_mark": "n",
        "notes": "blk"
    },
    {
        "id": "vtls004907046_0_11",
        "type": "sailor",
        "parent": "vtls004907046",
        "name": "david morgans",
        "dob": "blk",
        "age": "51",
        "place_of_birth": "aberystwyth",
        "home_address": "aberystwyth",
        "f": "aberystwyth",
        "name_of_ship": "letitia",
        "ship_port": "aberystwyth",
        "date_leaving": "remained",
        "joined_ship_date": "1863-03-04",
        "joined_at_port": "aberystwyth",
        "capacity": "master",
        "date_left": "1863-06-30",
        "left_port": "newport",
        "cause_of_leaving": "remains on board",
        "sign_with_mark": "blk",
        "notes": "blk"
    },
    {
        "id": "vtls004907046_0_12",
        "type": "sailor",
        "parent": "vtls004907046",
        "name": "william bowen",
        "dob": "blk",
        "age": "32",
        "place_of_birth": "aberystwyth",
        "home_address": "blk",
        "f": "blk",
        "name_of_ship": "letitia",
        "ship_port": "aberystwyth",
        "date_leaving": "remained",
        "joined_ship_date": "1863-03-04",
        "joined_at_port": "aberystwyth",
        "capacity": "mate",
        "date_left": "1863-05-26",
        "left_port": "liverpool",
        "cause_of_leaving": "discharged",
        "sign_with_mark": "n",
        "notes": "blk"
    },
    {
        "id": "vtls004907046_0_13",
        "type": "sailor",
        "parent": "vtls004907046",
        "name": "david jones",
        "dob": "blk",
        "age": "40",
        "place_of_birth": "aberporth",
        "home_address": "blk",
        "f": "blk",
        "name_of_ship": "hope",
        "ship_port": "porthcawl",
        "date_leaving": "1865-05",
        "joined_ship_date": "1863-03-25",
        "joined_at_port": "liverpool",
        "capacity": "mate",
        "date_left": "1863-06-30",
        "left_port": "newport",
        "cause_of_leaving": "remains on board",
        "sign_with_mark": "n",
        "notes": "blk"
    },
    {
        "id": "vtls004907046_1_11",
        "type": "sailor",
        "parent": "vtls004907046",
        "name": "david morgan",
        "dob": "blk",
        "age": "51",
        "place_of_birth": "aberystwyth",
        "home_address": "high street, aberystwyth",
        "f": "high street, aberystwyth",
        "name_of_ship": "letitia",
        "ship_port": "aberystwyth",
        "date_leaving": "still on board",
        "joined_ship_date": "blk",
        "joined_at_port": "blk",
        "capacity": "master",
        "date_left": "blk",
        "left_port": "blk",
        "cause_of_leaving": "remains on board",
        "sign_with_mark": "blk",
        "notes": "blk"
    },
    {
        "id": "vtls004907052_0_11",
        "type": "sailor",
        "parent": "vtls004907052",
        "name": "david morgan",
        "dob": "blk",
        "age": "57",
        "place_of_birth": "aberystwyth",
        "home_address": "terrace aberystwyth",
        "f": "terrace aberystwyth",
        "name_of_ship": "letitia",
        "ship_port": "aberystwyth",
        "date_leaving": "blk",
        "joined_ship_date": "1859-01-10",
        "joined_at_port": "aberystwyth",
        "capacity": "master",
        "date_left": "blk",
        "left_port": "blk",
        "cause_of_leaving": "remains on board",
        "sign_with_mark": "blk",
        "notes": "blk"
    },
    {
        "id": "vtls004907046_0_15",
        "type": "sailor",
        "parent": "vtls004907046",
        "name": "thomas morgan",
        "dob": "blk",
        "age": "18",
        "place_of_birth": "aberystwyth",
        "home_address": "blk",
        "f": "blk",
        "name_of_ship": "letitia",
        "ship_port": "aberystwyth",
        "date_leaving": "remained",
        "joined_ship_date": "1863-03-04",
        "joined_at_port": "aberystwyth",
        "capacity": "boy",
        "date_left": "1863-06-30",
        "left_port": "newport",
        "cause_of_leaving": "remains on board",
        "sign_with_mark": "n",
        "notes": "blk"
    },
    {
        "id": "vtls004907052_0_13",
        "type": "sailor",
        "parent": "vtls004907052",
        "name": "thomas morgan",
        "dob": "blk",
        "age": "17",
        "place_of_birth": "aberystwyth",
        "home_address": "blk",
        "f": "blk",
        "name_of_ship": "letitia",
        "ship_port": "aberystwyth",
        "date_leaving": "blk",
        "joined_ship_date": "1863-06-04",
        "joined_at_port": "aberystwyth",
        "capacity": "ordinary seaman",
        "date_left": "blk",
        "left_port": "blk",
        "cause_of_leaving": "remains on board",
        "sign_with_mark": "n",
        "notes": "blk"
    },
    {
        "id": "vtls004907052_0_14",
        "type": "sailor",
        "parent": "vtls004907052",
        "name": "evan jones",
        "dob": "blk",
        "age": "17",
        "place_of_birth": "aberystwyth",
        "home_address": "blk",
        "f": "blk",
        "name_of_ship": "letitia",
        "ship_port": "aberystwyth",
        "date_leaving": "blk",
        "joined_ship_date": "1863-15-10",
        "joined_at_port": "aberystwyth",
        "capacity": "ordinary seaman",
        "date_left": "blk",
        "left_port": "blk",
        "cause_of_leaving": "remains on board",
        "sign_with_mark": "n",
        "notes": "blk"
    },
    {
        "id": "vtls004907046_1_13",
        "type": "sailor",
        "parent": "vtls004907046",
        "name": "thomas samuel",
        "dob": "blk",
        "age": "21",
        "place_of_birth": "cardigan",
        "home_address": "blk",
        "f": "blk",
        "name_of_ship": "letitia",
        "ship_port": "aberystwyth",
        "date_leaving": "still on board",
        "joined_ship_date": "blk",
        "joined_at_port": "blk",
        "capacity": "seaman",
        "date_left": "1863-12-31",
        "left_port": "aberystwyth",
        "cause_of_leaving": "discharged",
        "sign_with_mark": "n",
        "notes": "blk"
    },
    {
        "id": "vtls004907046_1_14",
        "type": "sailor",
        "parent": "vtls004907046",
        "name": "thomas morgan",
        "dob": "blk",
        "age": "17",
        "place_of_birth": "aberystwyth",
        "home_address": "blk",
        "f": "blk",
        "name_of_ship": "letitia",
        "ship_port": "aberystwyth",
        "date_leaving": "still on board",
        "joined_ship_date": "blk",
        "joined_at_port": "blk",
        "capacity": "boy",
        "date_left": "1863-12-31",
        "left_port": "aberystwyth",
        "cause_of_leaving": "discharged",
        "sign_with_mark": "n",
        "notes": "blk"
    },
    {
        "id": "vtls004907046_1_12",
        "type": "sailor",
        "parent": "vtls004907046",
        "name": "evan lloyd",
        "dob": "blk",
        "age": "23",
        "place_of_birth": "barmouth",
        "home_address": "blk",
        "f": "blk",
        "name_of_ship": "letitia",
        "ship_port": "aberystwyth",
        "date_leaving": "still on board",
        "joined_ship_date": "blk",
        "joined_at_port": "blk",
        "capacity": "mate",
        "date_left": "1863-12-31",
        "left_port": "aberystwyth",
        "cause_of_leaving": "discharged",
        "sign_with_mark": "n",
        "notes": "blk"
    },
    {
        "id": "vtls004907052_0_12",
        "type": "sailor",
        "parent": "vtls004907052",
        "name": "john humphreys",
        "dob": "blk",
        "age": "43",
        "place_of_birth": "aberystwyth",
        "home_address": "blk",
        "f": "blk",
        "name_of_ship": "letitia",
        "ship_port": "aberystwyth",
        "date_leaving": "blk",
        "joined_ship_date": "1862-03-01",
        "joined_at_port": "aberystwyth",
        "capacity": "mate",
        "date_left": "blk",
        "left_port": "blk",
        "cause_of_leaving": "remains on board",
        "sign_with_mark": "n",
        "notes": "blk"
    },
    {
        "id": "vtls004907070_0_11",
        "type": "sailor",
        "parent": "vtls004907070",
        "name": "david morgan",
        "dob": "blk",
        "age": "53",
        "place_of_birth": "aberystwyth",
        "home_address": "32 high street, aberystwyth",
        "f": "32 high street, aberystwyth",
        "name_of_ship": "letitia",
        "ship_port": "aberystwyth",
        "date_leaving": "blk",
        "joined_ship_date": "blk",
        "joined_at_port": "blk",
        "capacity": "master",
        "date_left": "1866-06-30",
        "left_port": "st valery",
        "cause_of_leaving": "remains on board",
        "sign_with_mark": "blk",
        "notes": "blk"
    },
    {
        "id": "vtls004907070_0_12",
        "type": "sailor",
        "parent": "vtls004907070",
        "name": "thomas thomas",
        "dob": "blk",
        "age": "38",
        "place_of_birth": "aberystwyth",
        "home_address": "blk",
        "f": "blk",
        "name_of_ship": "alert",
        "ship_port": "aberystwyth",
        "date_leaving": "1866-01",
        "joined_ship_date": "1866-03-15",
        "joined_at_port": "aberystwyth",
        "capacity": "mate",
        "date_left": "1866-06-30",
        "left_port": "st valery",
        "cause_of_leaving": "remains on board",
        "sign_with_mark": "n",
        "notes": "blk"
    },
    {
        "id": "vtls004907052_1_11",
        "type": "sailor",
        "parent": "vtls004907052",
        "name": "david morgan",
        "dob": "blk",
        "age": "52",
        "place_of_birth": "aberystwyth",
        "home_address": "high street, aberystwyth",
        "f": "high street, aberystwyth",
        "name_of_ship": "letitia",
        "ship_port": "aberystwyth",
        "date_leaving": "blk",
        "joined_ship_date": "blk",
        "joined_at_port": "blk",
        "capacity": "master",
        "date_left": "blk",
        "left_port": "blk",
        "cause_of_leaving": "remains on board",
        "sign_with_mark": "blk",
        "notes": "blk"
    },
    {
        "id": "vtls004907070_0_13",
        "type": "sailor",
        "parent": "vtls004907070",
        "name": "thomas morgan",
        "dob": "blk",
        "age": "19",
        "place_of_birth": "aberystwyth",
        "home_address": "blk",
        "f": "blk",
        "name_of_ship": "letitia",
        "ship_port": "aberystwyth",
        "date_leaving": "blk",
        "joined_ship_date": "blk",
        "joined_at_port": "blk",
        "capacity": "able seaman",
        "date_left": "1866-06-30",
        "left_port": "st valery",
        "cause_of_leaving": "remains on board",
        "sign_with_mark": "n",
        "notes": "blk"
    },
    {
        "id": "vtls004907052_1_13",
        "type": "sailor",
        "parent": "vtls004907052",
        "name": "thomas morgan",
        "dob": "blk",
        "age": "18",
        "place_of_birth": "aberystwyth",
        "home_address": "blk",
        "f": "blk",
        "name_of_ship": "letitia",
        "ship_port": "aberystwyth",
        "date_leaving": "blk",
        "joined_ship_date": "blk",
        "joined_at_port": "blk",
        "capacity": "seaman",
        "date_left": "blk",
        "left_port": "blk",
        "cause_of_leaving": "remains on board",
        "sign_with_mark": "n",
        "notes": "blk"
    },
    {
        "id": "vtls004907052_1_12",
        "type": "sailor",
        "parent": "vtls004907052",
        "name": "frederick clark",
        "dob": "blk",
        "age": "24",
        "place_of_birth": "poole",
        "home_address": "blk",
        "f": "blk",
        "name_of_ship": "letitia",
        "ship_port": "aberystwyth",
        "date_leaving": "blk",
        "joined_ship_date": "blk",
        "joined_at_port": "blk",
        "capacity": "mate",
        "date_left": "blk",
        "left_port": "blk",
        "cause_of_leaving": "remains on board",
        "sign_with_mark": "n",
        "notes": "blk"
    },
    {
        "id": "vtls004907052_1_14",
        "type": "sailor",
        "parent": "vtls004907052",
        "name": "john morgan",
        "dob": "blk",
        "age": "14",
        "place_of_birth": "aberystwyth",
        "home_address": "blk",
        "f": "blk",
        "name_of_ship": "letitia",
        "ship_port": "aberystwyth",
        "date_leaving": "blk",
        "joined_ship_date": "blk",
        "joined_at_port": "blk",
        "capacity": "boy",
        "date_left": "blk",
        "left_port": "blk",
        "cause_of_leaving": "remains on board",
        "sign_with_mark": "n",
        "notes": "blk"
    },
    {
        "id": "vtls004907075_1_11",
        "type": "sailor",
        "parent": "vtls004907075",
        "name": "thomas thomas",
        "dob": "blk",
        "age": "blk",
        "place_of_birth": "blk",
        "home_address": "high street, aberystwyth",
        "f": "high street, aberystwyth",
        "name_of_ship": "letitia",
        "ship_port": "aberystwyth",
        "date_leaving": "1867-06-30",
        "joined_ship_date": "1867-07-01",
        "joined_at_port": "blk",
        "capacity": "master",
        "date_left": "1867-08-08",
        "left_port": "aberystwyth",
        "cause_of_leaving": "discharged",
        "sign_with_mark": "blk",
        "notes": "blk"
    },
    {
        "id": "vtls004907075_0_11",
        "type": "sailor",
        "parent": "vtls004907075",
        "name": "thomas thomas",
        "dob": "blk",
        "age": "39",
        "place_of_birth": "aberystwyth",
        "home_address": "aberystwyth",
        "f": "aberystwyth",
        "name_of_ship": "letitia",
        "ship_port": "aberystwyth",
        "date_leaving": "1867-01-01",
        "joined_ship_date": "1867-01-01",
        "joined_at_port": "aberystwyth",
        "capacity": "master",
        "date_left": "1867-06-30",
        "left_port": "blk",
        "cause_of_leaving": "remains on board",
        "sign_with_mark": "blk",
        "notes": "blk"
    },
    {
        "id": "vtls004907075_0_13",
        "type": "sailor",
        "parent": "vtls004907075",
        "name": "david williams",
        "dob": "blk",
        "age": "18",
        "place_of_birth": "aberystwyth",
        "home_address": "blk",
        "f": "blk",
        "name_of_ship": "letitia",
        "ship_port": "aberystwyth",
        "date_leaving": "1867-01-01",
        "joined_ship_date": "1867-01-01",
        "joined_at_port": "aberystwyth",
        "capacity": "able seaman",
        "date_left": "1867-06-30",
        "left_port": "blk",
        "cause_of_leaving": "remains on board",
        "sign_with_mark": "n",
        "notes": "blk"
    },
    {
        "id": "vtls004907075_0_12",
        "type": "sailor",
        "parent": "vtls004907075",
        "name": "thomas morgan",
        "dob": "blk",
        "age": "20",
        "place_of_birth": "aberystwyth",
        "home_address": "blk",
        "f": "blk",
        "name_of_ship": "letitia",
        "ship_port": "aberystwyth",
        "date_leaving": "1867-01-01",
        "joined_ship_date": "1867-01-01",
        "joined_at_port": "aberystwyth",
        "capacity": "mate",
        "date_left": "1867-06-30",
        "left_port": "blk",
        "cause_of_leaving": "remains on board",
        "sign_with_mark": "n",
        "notes": "blk"
    },
    {
        "id": "vtls004907070_0_14",
        "type": "sailor",
        "parent": "vtls004907070",
        "name": "john morgan",
        "dob": "blk",
        "age": "16",
        "place_of_birth": "aberystwyth",
        "home_address": "blk",
        "f": "blk",
        "name_of_ship": "letitia",
        "ship_port": "aberystwyth",
        "date_leaving": "blk",
        "joined_ship_date": "blk",
        "joined_at_port": "blk",
        "capacity": "ordinary seaman",
        "date_left": "1866-06-30",
        "left_port": "st valery",
        "cause_of_leaving": "remains on board",
        "sign_with_mark": "n",
        "notes": "blk"
    },
    {
        "id": "vtls004907070_1_11",
        "type": "sailor",
        "parent": "vtls004907070",
        "name": "david morgan",
        "dob": "blk",
        "age": "54",
        "place_of_birth": "aberystwyth",
        "home_address": "aberystwyth",
        "f": "aberystwyth",
        "name_of_ship": "letitia",
        "ship_port": "aberystwyth",
        "date_leaving": "blk",
        "joined_ship_date": "blk",
        "joined_at_port": "blk",
        "capacity": "master",
        "date_left": "1866-12-31",
        "left_port": "blk",
        "cause_of_leaving": "remains on board",
        "sign_with_mark": "blk",
        "notes": "blk"
    },
    {
        "id": "vtls004907070_1_13",
        "type": "sailor",
        "parent": "vtls004907070",
        "name": "thomas morgan",
        "dob": "blk",
        "age": "19",
        "place_of_birth": "aberystwyth",
        "home_address": "blk",
        "f": "blk",
        "name_of_ship": "letitia",
        "ship_port": "aberystwyth",
        "date_leaving": "blk",
        "joined_ship_date": "blk",
        "joined_at_port": "blk",
        "capacity": "able seaman",
        "date_left": "1866-12-31",
        "left_port": "blk",
        "cause_of_leaving": "remains on board",
        "sign_with_mark": "n",
        "notes": "blk"
    },
    {
        "id": "vtls004907070_1_12",
        "type": "sailor",
        "parent": "vtls004907070",
        "name": "thomas thomas",
        "dob": "blk",
        "age": "38",
        "place_of_birth": "aberystwyth",
        "home_address": "blk",
        "f": "blk",
        "name_of_ship": "letitia",
        "ship_port": "aberystwyth",
        "date_leaving": "blk",
        "joined_ship_date": "blk",
        "joined_at_port": "blk",
        "capacity": "mate",
        "date_left": "1866-12-31",
        "left_port": "blk",
        "cause_of_leaving": "remains on board",
        "sign_with_mark": "n",
        "notes": "blk"
    },
    {
        "id": "vtls004907070_1_14",
        "type": "sailor",
        "parent": "vtls004907070",
        "name": "john morgan",
        "dob": "blk",
        "age": "16",
        "place_of_birth": "aberystwyth",
        "home_address": "blk",
        "f": "blk",
        "name_of_ship": "letitia",
        "ship_port": "aberystwyth",
        "date_leaving": "blk",
        "joined_ship_date": "blk",
        "joined_at_port": "blk",
        "capacity": "boy",
        "date_left": "1866-12-31",
        "left_port": "blk",
        "cause_of_leaving": "remains on board",
        "sign_with_mark": "n",
        "notes": "blk"
    },
    {
        "id": "vtls004907079_0_11",
        "type": "sailor",
        "parent": "vtls004907079",
        "name": "thomas morgan",
        "dob": "blk",
        "age": "21",
        "place_of_birth": "aberystwyth",
        "home_address": "aberystwyth",
        "f": "aberystwyth",
        "name_of_ship": "letitia",
        "ship_port": "aberystwyth",
        "date_leaving": "blk",
        "joined_ship_date": "1868-03-07",
        "joined_at_port": "blk",
        "capacity": "master",
        "date_left": "1868-06-30",
        "left_port": "blk",
        "cause_of_leaving": "remains on board",
        "sign_with_mark": "blk",
        "notes": "blk"
    },
    {
        "id": "vtls004907075_1_13",
        "type": "sailor",
        "parent": "vtls004907075",
        "name": "john jenkins",
        "dob": "blk",
        "age": "blk",
        "place_of_birth": "blk",
        "home_address": "blk",
        "f": "blk",
        "name_of_ship": "letitia",
        "ship_port": "aberystwyth",
        "date_leaving": "1867-06-30",
        "joined_ship_date": "1867-07-01",
        "joined_at_port": "blk",
        "capacity": "able seaman",
        "date_left": "1867-12-26",
        "left_port": "aberystwyth",
        "cause_of_leaving": "discharged",
        "sign_with_mark": "n",
        "notes": "blk"
    },
    {
        "id": "vtls004907079_0_13",
        "type": "sailor",
        "parent": "vtls004907079",
        "name": "john jones",
        "dob": "blk",
        "age": "20",
        "place_of_birth": "aberystwyth",
        "home_address": "blk",
        "f": "blk",
        "name_of_ship": "letitia",
        "ship_port": "aberystwyth",
        "date_leaving": "blk",
        "joined_ship_date": "1868-03-07",
        "joined_at_port": "blk",
        "capacity": "able seaman",
        "date_left": "1868-06-30",
        "left_port": "blk",
        "cause_of_leaving": "remains on board",
        "sign_with_mark": "n",
        "notes": "blk"
    },
    {
        "id": "vtls004907075_1_14",
        "type": "sailor",
        "parent": "vtls004907075",
        "name": "william thomas",
        "dob": "blk",
        "age": "blk",
        "place_of_birth": "blk",
        "home_address": "blk",
        "f": "blk",
        "name_of_ship": "letitia",
        "ship_port": "aberystwyth",
        "date_leaving": "1867-06-30",
        "joined_ship_date": "1867-07-01",
        "joined_at_port": "blk",
        "capacity": "boy",
        "date_left": "1867-12-26",
        "left_port": "aberystwyth",
        "cause_of_leaving": "discharged",
        "sign_with_mark": "n",
        "notes": "blk"
    },
    {
        "id": "vtls004907075_1_15",
        "type": "sailor",
        "parent": "vtls004907075",
        "name": "john e evans",
        "dob": "blk",
        "age": "blk",
        "place_of_birth": "blk",
        "home_address": "blk",
        "f": "blk",
        "name_of_ship": "letitia",
        "ship_port": "aberystwyth",
        "date_leaving": "1867-08-08",
        "joined_ship_date": "1867-08-20",
        "joined_at_port": "aberystwyth",
        "capacity": "master",
        "date_left": "blk",
        "left_port": "blk",
        "cause_of_leaving": "remains on board",
        "sign_with_mark": "n",
        "notes": "blk"
    },
    {
        "id": "vtls004907079_0_12",
        "type": "sailor",
        "parent": "vtls004907079",
        "name": "john evans",
        "dob": "blk",
        "age": "28",
        "place_of_birth": "aberystwyth",
        "home_address": "blk",
        "f": "blk",
        "name_of_ship": "letitia",
        "ship_port": "aberystwyth",
        "date_leaving": "blk",
        "joined_ship_date": "1868-03-07",
        "joined_at_port": "blk",
        "capacity": "mate",
        "date_left": "1868-06-30",
        "left_port": "blk",
        "cause_of_leaving": "remains on board",
        "sign_with_mark": "n",
        "notes": "blk"
    },
    {
        "id": "vtls004907075_1_12",
        "type": "sailor",
        "parent": "vtls004907075",
        "name": "thomas morgan",
        "dob": "blk",
        "age": "blk",
        "place_of_birth": "blk",
        "home_address": "blk",
        "f": "blk",
        "name_of_ship": "letitia",
        "ship_port": "aberystwyth",
        "date_leaving": "1867-06-30",
        "joined_ship_date": "1867-07-01",
        "joined_at_port": "blk",
        "capacity": "mate",
        "date_left": "blk",
        "left_port": "blk",
        "cause_of_leaving": "remains on board",
        "sign_with_mark": "n",
        "notes": "blk"
    },
    {
        "id": "vtls004907079_1_11",
        "type": "sailor",
        "parent": "vtls004907079",
        "name": "thomas morgan",
        "dob": "blk",
        "age": "22",
        "place_of_birth": "aberystwyth",
        "home_address": "high st, aberystwyth",
        "f": "high st, aberystwyth",
        "name_of_ship": "letitia",
        "ship_port": "aberystwyth",
        "date_leaving": "1868-06-30",
        "joined_ship_date": "1868-07-01",
        "joined_at_port": "blk",
        "capacity": "master",
        "date_left": "blk",
        "left_port": "blk",
        "cause_of_leaving": "remains on board",
        "sign_with_mark": "blk",
        "notes": "blk"
    },
    {
        "id": "vtls004907079_1_13",
        "type": "sailor",
        "parent": "vtls004907079",
        "name": "william meyrick",
        "dob": "blk",
        "age": "18",
        "place_of_birth": "aberystwyth",
        "home_address": "blk",
        "f": "blk",
        "name_of_ship": "letitia",
        "ship_port": "aberystwyth",
        "date_leaving": "1868-06-30",
        "joined_ship_date": "1868-07-01",
        "joined_at_port": "blk",
        "capacity": "ordinary seaman",
        "date_left": "1868-12-03",
        "left_port": "porthmadog",
        "cause_of_leaving": "paid off",
        "sign_with_mark": "n",
        "notes": "blk"
    },
    {
        "id": "vtls004907149_0_11",
        "type": "sailor",
        "parent": "vtls004907149",
        "name": "thomas morgan",
        "dob": "blk",
        "age": "22",
        "place_of_birth": "aberystwyth",
        "home_address": "aberystwyth",
        "f": "aberystwyth",
        "name_of_ship": "letitia",
        "ship_port": "aberystwyth",
        "date_leaving": "1868-12-31",
        "joined_ship_date": "1869-01-01",
        "joined_at_port": "portmadoc",
        "capacity": "master",
        "date_left": "blk",
        "left_port": "blk",
        "cause_of_leaving": "remains on board",
        "sign_with_mark": "blk",
        "notes": "blk"
    },
    {
        "id": "vtls004907149_0_13",
        "type": "sailor",
        "parent": "vtls004907149",
        "name": "john doughton",
        "dob": "blk",
        "age": "46",
        "place_of_birth": "aberystwyth",
        "home_address": "blk",
        "f": "blk",
        "name_of_ship": "letitia",
        "ship_port": "aberystwyth",
        "date_leaving": "1868-12-31",
        "joined_ship_date": "1869-01-01",
        "joined_at_port": "portmadoc",
        "capacity": "able seaman",
        "date_left": "blk",
        "left_port": "blk",
        "cause_of_leaving": "remains on board",
        "sign_with_mark": "n",
        "notes": "blk"
    },
    {
        "id": "vtls004907149_0_14",
        "type": "sailor",
        "parent": "vtls004907149",
        "name": "william morgan",
        "dob": "blk",
        "age": "15",
        "place_of_birth": "aberystwyth",
        "home_address": "blk",
        "f": "blk",
        "name_of_ship": "letitia",
        "ship_port": "aberystwyth",
        "date_leaving": "1868-12-31",
        "joined_ship_date": "1869-01-01",
        "joined_at_port": "portmadoc",
        "capacity": "boy",
        "date_left": "blk",
        "left_port": "blk",
        "cause_of_leaving": "remains on board",
        "sign_with_mark": "n",
        "notes": "blk"
    },
    {
        "id": "vtls004907149_0_12",
        "type": "sailor",
        "parent": "vtls004907149",
        "name": "david evans",
        "dob": "blk",
        "age": "59",
        "place_of_birth": "aberystwyth",
        "home_address": "blk",
        "f": "blk",
        "name_of_ship": "letitia",
        "ship_port": "aberystwyth",
        "date_leaving": "1868-12-31",
        "joined_ship_date": "1869-01-01",
        "joined_at_port": "portmadoc",
        "capacity": "mate",
        "date_left": "blk",
        "left_port": "blk",
        "cause_of_leaving": "remains on board",
        "sign_with_mark": "n",
        "notes": "blk"
    },
    {
        "id": "vtls004907079_1_14",
        "type": "sailor",
        "parent": "vtls004907079",
        "name": "richard jones",
        "dob": "blk",
        "age": "12",
        "place_of_birth": "aberystwyth",
        "home_address": "blk",
        "f": "blk",
        "name_of_ship": "letitia",
        "ship_port": "aberystwyth",
        "date_leaving": "1868-06-30",
        "joined_ship_date": "1868-07-01",
        "joined_at_port": "blk",
        "capacity": "boy",
        "date_left": "1868-12-03",
        "left_port": "porthmadog",
        "cause_of_leaving": "paid off",
        "sign_with_mark": "n",
        "notes": "blk"
    },
    {
        "id": "vtls004907079_1_12",
        "type": "sailor",
        "parent": "vtls004907079",
        "name": "john jones",
        "dob": "blk",
        "age": "48",
        "place_of_birth": "aberystwyth",
        "home_address": "blk",
        "f": "blk",
        "name_of_ship": "letitia",
        "ship_port": "aberystwyth",
        "date_leaving": "1868-06-30",
        "joined_ship_date": "1868-07-01",
        "joined_at_port": "blk",
        "capacity": "mate",
        "date_left": "1868-12-03",
        "left_port": "porthmadog",
        "cause_of_leaving": "paid off",
        "sign_with_mark": "n",
        "notes": "blk"
    },
    {
        "id": "vtls004907079_0_14",
        "type": "sailor",
        "parent": "vtls004907079",
        "name": "richard jones",
        "dob": "blk",
        "age": "12",
        "place_of_birth": "aberystwyth",
        "home_address": "blk",
        "f": "blk",
        "name_of_ship": "letitia",
        "ship_port": "aberystwyth",
        "date_leaving": "blk",
        "joined_ship_date": "1868-03-07",
        "joined_at_port": "blk",
        "capacity": "boy",
        "date_left": "1868-06-30",
        "left_port": "blk",
        "cause_of_leaving": "remains on board",
        "sign_with_mark": "n",
        "notes": "blk"
    },
    {
        "id": "vtls004907149_1_11",
        "type": "sailor",
        "parent": "vtls004907149",
        "name": "david morgans",
        "dob": "blk",
        "age": "58",
        "place_of_birth": "cardiganshire",
        "home_address": "high street, aberystwyth",
        "f": "high street, aberystwyth",
        "name_of_ship": "letitia",
        "ship_port": "aberystwyth",
        "date_leaving": "1869-06-30",
        "joined_ship_date": "1869-07-01",
        "joined_at_port": "par",
        "capacity": "master",
        "date_left": "blk",
        "left_port": "blk",
        "cause_of_leaving": "remains on board",
        "sign_with_mark": "blk",
        "notes": "blk"
    },
    {
        "id": "vtls004907160_0_13",
        "type": "sailor",
        "parent": "vtls004907160",
        "name": "evan jones",
        "dob": "blk",
        "age": "23",
        "place_of_birth": "aberystwyth",
        "home_address": "blk",
        "f": "blk",
        "name_of_ship": "ellen beatrice",
        "ship_port": "aberystwyth",
        "date_leaving": "1870-12-08",
        "joined_ship_date": "1870-01-17",
        "joined_at_port": "portmadoc",
        "capacity": "seaman",
        "date_left": "1870-06-30",
        "left_port": "blk",
        "cause_of_leaving": "remains on board",
        "sign_with_mark": "n",
        "notes": "blk"
    },
    {
        "id": "vtls004907149_1_13",
        "type": "sailor",
        "parent": "vtls004907149",
        "name": "john doughton",
        "dob": "blk",
        "age": "46",
        "place_of_birth": "cardiganshire",
        "home_address": "blk",
        "f": "blk",
        "name_of_ship": "letitia",
        "ship_port": "aberystwyth",
        "date_leaving": "1869-06-30",
        "joined_ship_date": "1869-07-01",
        "joined_at_port": "par",
        "capacity": "able seaman",
        "date_left": "1869-12-24",
        "left_port": "porthmadog",
        "cause_of_leaving": "paid off",
        "sign_with_mark": "n",
        "notes": "blk"
    },
    {
        "id": "vtls004907149_1_12",
        "type": "sailor",
        "parent": "vtls004907149",
        "name": "thomas morgans",
        "dob": "blk",
        "age": "22",
        "place_of_birth": "cardiganshire",
        "home_address": "blk",
        "f": "blk",
        "name_of_ship": "letitia",
        "ship_port": "aberystwyth",
        "date_leaving": "1869-06-30",
        "joined_ship_date": "1869-07-01",
        "joined_at_port": "par",
        "capacity": "mate",
        "date_left": "1869-12-24",
        "left_port": "porthmadog",
        "cause_of_leaving": "paid off",
        "sign_with_mark": "n",
        "notes": "blk"
    },
    {
        "id": "vtls004907149_1_14",
        "type": "sailor",
        "parent": "vtls004907149",
        "name": "william morgans",
        "dob": "blk",
        "age": "15",
        "place_of_birth": "cardiganshire",
        "home_address": "blk",
        "f": "blk",
        "name_of_ship": "letitia",
        "ship_port": "aberystwyth",
        "date_leaving": "1869-06-30",
        "joined_ship_date": "1869-07-01",
        "joined_at_port": "par",
        "capacity": "boy",
        "date_left": "1869-12-24",
        "left_port": "porthmadog",
        "cause_of_leaving": "paid off",
        "sign_with_mark": "n",
        "notes": "blk"
    },
    {
        "id": "vtls004907160_0_11",
        "type": "sailor",
        "parent": "vtls004907160",
        "name": "david morgan",
        "dob": "blk",
        "age": "58",
        "place_of_birth": "aberystwyth",
        "home_address": "aberystwyth",
        "f": "aberystwyth",
        "name_of_ship": "letitia",
        "ship_port": "aberystwyth",
        "date_leaving": "blk",
        "joined_ship_date": "blk",
        "joined_at_port": "blk",
        "capacity": "master",
        "date_left": "1870-06-30",
        "left_port": "blk",
        "cause_of_leaving": "remains on board",
        "sign_with_mark": "blk",
        "notes": "blk"
    },
    {
        "id": "vtls004907160_0_12",
        "type": "sailor",
        "parent": "vtls004907160",
        "name": "thomas morgan",
        "dob": "blk",
        "age": "23",
        "place_of_birth": "aberystwyth",
        "home_address": "blk",
        "f": "blk",
        "name_of_ship": "letitia",
        "ship_port": "aberystwyth",
        "date_leaving": "blk",
        "joined_ship_date": "blk",
        "joined_at_port": "blk",
        "capacity": "mate",
        "date_left": "1870-06-30",
        "left_port": "blk",
        "cause_of_leaving": "remains on board",
        "sign_with_mark": "n",
        "notes": "blk"
    },
    {
        "id": "vtls004907167_0_13",
        "type": "sailor",
        "parent": "vtls004907167",
        "name": "thomas clayton",
        "dob": "blk",
        "age": "21",
        "place_of_birth": "county cardigan",
        "home_address": "blk",
        "f": "blk",
        "name_of_ship": "jane llewellyn",
        "ship_port": "aberystwyth",
        "date_leaving": "1870-12-31",
        "joined_ship_date": "1871-01-04",
        "joined_at_port": "aberystwyth",
        "capacity": "able seaman",
        "date_left": "1871-06-30",
        "left_port": "porthmadog",
        "cause_of_leaving": "paid off",
        "sign_with_mark": "n",
        "notes": "blk"
    },
    {
        "id": "vtls004907167_0_14",
        "type": "sailor",
        "parent": "vtls004907167",
        "name": "william morgan",
        "dob": "blk",
        "age": "16",
        "place_of_birth": "county cardigan",
        "home_address": "blk",
        "f": "blk",
        "name_of_ship": "letitia",
        "ship_port": "aberystwyth",
        "date_leaving": "1870-12-31",
        "joined_ship_date": "1871-01-04",
        "joined_at_port": "aberystwyth",
        "capacity": "ordinary seaman",
        "date_left": "1871-06-30",
        "left_port": "porthmadog",
        "cause_of_leaving": "paid off",
        "sign_with_mark": "n",
        "notes": "blk"
    },
    {
        "id": "vtls004907167_0_12",
        "type": "sailor",
        "parent": "vtls004907167",
        "name": "thomas morgan",
        "dob": "blk",
        "age": "24",
        "place_of_birth": "county cardigan",
        "home_address": "blk",
        "f": "blk",
        "name_of_ship": "letitia",
        "ship_port": "aberystwyth",
        "date_leaving": "1870-12-31",
        "joined_ship_date": "1871-01-02",
        "joined_at_port": "aberystwyth",
        "capacity": "mate",
        "date_left": "1871-06-30",
        "left_port": "porthmadog",
        "cause_of_leaving": "paid off",
        "sign_with_mark": "n",
        "notes": "blk"
    },
    {
        "id": "vtls004907160_1_14",
        "type": "sailor",
        "parent": "vtls004907160",
        "name": "william morgan",
        "dob": "blk",
        "age": "16",
        "place_of_birth": "aberystwyth",
        "home_address": "blk",
        "f": "blk",
        "name_of_ship": "letitia",
        "ship_port": "aberystwyth",
        "date_leaving": "blk",
        "joined_ship_date": "blk",
        "joined_at_port": "blk",
        "capacity": "ordinary seaman",
        "date_left": "1870-12-31",
        "left_port": "blk",
        "cause_of_leaving": "remains on board",
        "sign_with_mark": "n",
        "notes": "blk"
    },
    {
        "id": "vtls004907160_1_11",
        "type": "sailor",
        "parent": "vtls004907160",
        "name": "david morgan",
        "dob": "blk",
        "age": "59",
        "place_of_birth": "aberystwyth",
        "home_address": "aberystwyth",
        "f": "aberystwyth",
        "name_of_ship": "letitia",
        "ship_port": "aberystwyth",
        "date_leaving": "blk",
        "joined_ship_date": "blk",
        "joined_at_port": "blk",
        "capacity": "master",
        "date_left": "1870-12-31",
        "left_port": "blk",
        "cause_of_leaving": "remains on board",
        "sign_with_mark": "blk",
        "notes": "blk"
    },
    {
        "id": "vtls004907160_1_13",
        "type": "sailor",
        "parent": "vtls004907160",
        "name": "david williams",
        "dob": "blk",
        "age": "21",
        "place_of_birth": "aberystwyth",
        "home_address": "blk",
        "f": "blk",
        "name_of_ship": "letitia",
        "ship_port": "aberystwyth",
        "date_leaving": "blk",
        "joined_ship_date": "blk",
        "joined_at_port": "blk",
        "capacity": "able seaman",
        "date_left": "1870-12-31",
        "left_port": "blk",
        "cause_of_leaving": "remains on board",
        "sign_with_mark": "n",
        "notes": "blk"
    },
    {
        "id": "vtls004907167_0_11",
        "type": "sailor",
        "parent": "vtls004907167",
        "name": "david morgan",
        "dob": "blk",
        "age": "59",
        "place_of_birth": "county cardigan",
        "home_address": "aberystwyth",
        "f": "aberystwyth",
        "name_of_ship": "letitia",
        "ship_port": "aberystwyth",
        "date_leaving": "blk",
        "joined_ship_date": "blk",
        "joined_at_port": "blk",
        "capacity": "master",
        "date_left": "blk",
        "left_port": "blk",
        "cause_of_leaving": "remains on board",
        "sign_with_mark": "blk",
        "notes": "blk"
    },
    {
        "id": "vtls004907160_0_14",
        "type": "sailor",
        "parent": "vtls004907160",
        "name": "william morgan",
        "dob": "blk",
        "age": "16",
        "place_of_birth": "aberystwyth",
        "home_address": "blk",
        "f": "blk",
        "name_of_ship": "letitia",
        "ship_port": "aberystwyth",
        "date_leaving": "blk",
        "joined_ship_date": "blk",
        "joined_at_port": "blk",
        "capacity": "boy",
        "date_left": "1870-06-30",
        "left_port": "blk",
        "cause_of_leaving": "remains on board",
        "sign_with_mark": "n",
        "notes": "blk"
    },
    {
        "id": "vtls004907160_1_12",
        "type": "sailor",
        "parent": "vtls004907160",
        "name": "thomas morgan",
        "dob": "blk",
        "age": "24",
        "place_of_birth": "aberystwyth",
        "home_address": "blk",
        "f": "blk",
        "name_of_ship": "letitia",
        "ship_port": "aberystwyth",
        "date_leaving": "blk",
        "joined_ship_date": "blk",
        "joined_at_port": "blk",
        "capacity": "mate",
        "date_left": "1870-12-31",
        "left_port": "blk",
        "cause_of_leaving": "remains on board",
        "sign_with_mark": "n",
        "notes": "blk"
    },
    {
        "id": "vtls004907167_1_14",
        "type": "sailor",
        "parent": "vtls004907167",
        "name": "john roberts",
        "dob": "blk",
        "age": "19",
        "place_of_birth": "portmadoc",
        "home_address": "blk",
        "f": "blk",
        "name_of_ship": "william",
        "ship_port": "caernarvon",
        "date_leaving": "1871-06",
        "joined_ship_date": "1871-07-04",
        "joined_at_port": "portmadoc",
        "capacity": "ordinary seaman",
        "date_left": "blk",
        "left_port": "blk",
        "cause_of_leaving": "remains on board",
        "sign_with_mark": "n",
        "notes": "blk"
    },
    {
        "id": "vtls004907172_0_11",
        "type": "sailor",
        "parent": "vtls004907172",
        "name": "david morgan",
        "dob": "blk",
        "age": "59",
        "place_of_birth": "county cardigan",
        "home_address": "aberystwyth",
        "f": "aberystwyth",
        "name_of_ship": "letitia",
        "ship_port": "aberystwyth",
        "date_leaving": "blk",
        "joined_ship_date": "blk",
        "joined_at_port": "blk",
        "capacity": "master",
        "date_left": "1872-06-30",
        "left_port": "blk",
        "cause_of_leaving": "remains on board",
        "sign_with_mark": "blk",
        "notes": "blk"
    },
    {
        "id": "vtls004907167_1_13",
        "type": "sailor",
        "parent": "vtls004907167",
        "name": "william morgans",
        "dob": "blk",
        "age": "17",
        "place_of_birth": "aberystwyth",
        "home_address": "blk",
        "f": "blk",
        "name_of_ship": "letitia",
        "ship_port": "aberystwyth",
        "date_leaving": "blk",
        "joined_ship_date": "1856",
        "joined_at_port": "aberystwyth",
        "capacity": "ordinary seaman",
        "date_left": "blk",
        "left_port": "blk",
        "cause_of_leaving": "remains on board",
        "sign_with_mark": "n",
        "notes": "blk"
    },
    {
        "id": "vtls004907167_1_11",
        "type": "sailor",
        "parent": "vtls004907167",
        "name": "david morgans",
        "dob": "blk",
        "age": "60",
        "place_of_birth": "aberystwyth",
        "home_address": "aberystwyth",
        "f": "aberystwyth",
        "name_of_ship": "letitia",
        "ship_port": "aberystwyth",
        "date_leaving": "blk",
        "joined_ship_date": "1871-04",
        "joined_at_port": "aberystwyth",
        "capacity": "master",
        "date_left": "blk",
        "left_port": "blk",
        "cause_of_leaving": "remains on board",
        "sign_with_mark": "blk",
        "notes": "blk"
    },
    {
        "id": "vtls004907172_0_13",
        "type": "sailor",
        "parent": "vtls004907172",
        "name": "john morgan",
        "dob": "blk",
        "age": "22",
        "place_of_birth": "county cardigan",
        "home_address": "blk",
        "f": "blk",
        "name_of_ship": "letitia",
        "ship_port": "aberystwyth",
        "date_leaving": "blk",
        "joined_ship_date": "blk",
        "joined_at_port": "blk",
        "capacity": "able seaman",
        "date_left": "1872-06-30",
        "left_port": "blk",
        "cause_of_leaving": "remains on board",
        "sign_with_mark": "n",
        "notes": "blk"
    },
    {
        "id": "vtls004907172_0_12",
        "type": "sailor",
        "parent": "vtls004907172",
        "name": "thomas morgan",
        "dob": "blk",
        "age": "25",
        "place_of_birth": "county cardigan",
        "home_address": "blk",
        "f": "blk",
        "name_of_ship": "letitia",
        "ship_port": "aberystwyth",
        "date_leaving": "blk",
        "joined_ship_date": "blk",
        "joined_at_port": "blk",
        "capacity": "mate",
        "date_left": "1872-06-30",
        "left_port": "blk",
        "cause_of_leaving": "remains on board",
        "sign_with_mark": "n",
        "notes": "blk"
    },
    {
        "id": "vtls004907167_1_12",
        "type": "sailor",
        "parent": "vtls004907167",
        "name": "thomas morgans",
        "dob": "blk",
        "age": "25",
        "place_of_birth": "aberystwyth",
        "home_address": "blk",
        "f": "blk",
        "name_of_ship": "letitia",
        "ship_port": "aberystwyth",
        "date_leaving": "blk",
        "joined_ship_date": "1859",
        "joined_at_port": "aberystwyth",
        "capacity": "mate",
        "date_left": "blk",
        "left_port": "blk",
        "cause_of_leaving": "remains on board",
        "sign_with_mark": "n",
        "notes": "blk"
    },
    {
        "id": "vtls004907172_1_11",
        "type": "sailor",
        "parent": "vtls004907172",
        "name": "david morgan",
        "dob": "blk",
        "age": "60",
        "place_of_birth": "aberystwyth",
        "home_address": "aberystwyth",
        "f": "aberystwyth",
        "name_of_ship": "letitia",
        "ship_port": "aberystwyth",
        "date_leaving": "blk",
        "joined_ship_date": "1871-05-11",
        "joined_at_port": "bristol",
        "capacity": "master",
        "date_left": "1872-12-31",
        "left_port": "blk",
        "cause_of_leaving": "remains on board",
        "sign_with_mark": "blk",
        "notes": "blk"
    },
    {
        "id": "vtls004907172_1_13",
        "type": "sailor",
        "parent": "vtls004907172",
        "name": "william morgan",
        "dob": "blk",
        "age": "18",
        "place_of_birth": "aberystwyth",
        "home_address": "blk",
        "f": "blk",
        "name_of_ship": "letitia",
        "ship_port": "aberystwyth",
        "date_leaving": "blk",
        "joined_ship_date": "1871-07-01",
        "joined_at_port": "portmadoc",
        "capacity": "seaman",
        "date_left": "1872-12-31",
        "left_port": "blk",
        "cause_of_leaving": "remains on board",
        "sign_with_mark": "n",
        "notes": "blk"
    },
    {
        "id": "vtls004907172_1_12",
        "type": "sailor",
        "parent": "vtls004907172",
        "name": "thomas morgan",
        "dob": "blk",
        "age": "26",
        "place_of_birth": "aberystwyth",
        "home_address": "blk",
        "f": "blk",
        "name_of_ship": "letitia",
        "ship_port": "aberystwyth",
        "date_leaving": "blk",
        "joined_ship_date": "1871-07-01",
        "joined_at_port": "portmadoc",
        "capacity": "mate",
        "date_left": "1872-12-31",
        "left_port": "blk",
        "cause_of_leaving": "remains on board",
        "sign_with_mark": "n",
        "notes": "blk"
    },
    {
        "id": "vtls004907172_1_14",
        "type": "sailor",
        "parent": "vtls004907172",
        "name": "owen owens",
        "dob": "blk",
        "age": "16",
        "place_of_birth": "criccieth",
        "home_address": "blk",
        "f": "blk",
        "name_of_ship": "letitia",
        "ship_port": "aberystwyth",
        "date_leaving": "blk",
        "joined_ship_date": "1871-07-01",
        "joined_at_port": "portmadoc",
        "capacity": "boy",
        "date_left": "1872-12-31",
        "left_port": "blk",
        "cause_of_leaving": "remains on board",
        "sign_with_mark": "n",
        "notes": "blk"
    },
    {
        "id": "vtls004907172_0_14",
        "type": "sailor",
        "parent": "vtls004907172",
        "name": "owen owens",
        "dob": "blk",
        "age": "15",
        "place_of_birth": "caernarfon",
        "home_address": "blk",
        "f": "blk",
        "name_of_ship": "first ship",
        "ship_port": "blk",
        "date_leaving": "blk",
        "joined_ship_date": "blk",
        "joined_at_port": "blk",
        "capacity": "boy",
        "date_left": "1872-06-30",
        "left_port": "blk",
        "cause_of_leaving": "remains on board",
        "sign_with_mark": "n",
        "notes": "blk"
    }
]