[
    {
        "id": "vtls004632545_1_11",
        "type": "sailor",
        "parent": "vtls004632545",
        "name": "lewis jones",
        "dob": "blk",
        "age": "45",
        "place_of_birth": "merionethshire",
        "home_address": "portmadoc",
        "f": "portmadoc",
        "name_of_ship": "candace",
        "ship_port": "aberystwyth",
        "date_leaving": "blk",
        "joined_ship_date": "blk",
        "joined_at_port": "blk",
        "capacity": "master",
        "date_left": "1879-12-31",
        "left_port": "porthmadog",
        "cause_of_leaving": "remains on board",
        "sign_with_mark": "n",
        "notes": "voyage dates: 1879-07-10 to 1879-12-17. lewis jones is also the ship owner."
    },
    {
        "id": "vtls004632640_0_11",
        "type": "sailor",
        "parent": "vtls004632640",
        "name": "lewis jones",
        "dob": "blk",
        "age": "45",
        "place_of_birth": "caernarfon",
        "home_address": "portmadoc",
        "f": "portmadoc",
        "name_of_ship": "candace",
        "ship_port": "aberystwyth",
        "date_leaving": "blk",
        "joined_ship_date": "blk",
        "joined_at_port": "blk",
        "capacity": "master",
        "date_left": "1881-04-16",
        "left_port": "porthmadog",
        "cause_of_leaving": "discharged",
        "sign_with_mark": "n",
        "notes": "ship sold to william lewis, lombard street, portmadoc."
    },
    {
        "id": "vtls004632545_0_11",
        "type": "sailor",
        "parent": "vtls004632545",
        "name": "lewis jones",
        "dob": "blk",
        "age": "45",
        "place_of_birth": "portmadoc",
        "home_address": "portmadoc",
        "f": "portmadoc",
        "name_of_ship": "candace",
        "ship_port": "aberystwyth",
        "date_leaving": "blk",
        "joined_ship_date": "blk",
        "joined_at_port": "blk",
        "capacity": "master",
        "date_left": "blk",
        "left_port": "blk",
        "cause_of_leaving": "remains on board",
        "sign_with_mark": "n",
        "notes": "voyage dates 1879-01-06 to 1879-06-15. lewis jones is the ship owner."
    },
    {
        "id": "vtls004632640_0_13",
        "type": "sailor",
        "parent": "vtls004632640",
        "name": "thomas rees",
        "dob": "blk",
        "age": "23",
        "place_of_birth": "caernarfon",
        "home_address": "blk",
        "f": "blk",
        "name_of_ship": "first voyage",
        "ship_port": "blk",
        "date_leaving": "blk",
        "joined_ship_date": "1881-02-21",
        "joined_at_port": "portmadoc",
        "capacity": "ordinary seaman",
        "date_left": "1881-04-20",
        "left_port": "porthmadog",
        "cause_of_leaving": "discharged",
        "sign_with_mark": "n",
        "notes": "blk"
    },
    {
        "id": "vtls004632545_0_12",
        "type": "sailor",
        "parent": "vtls004632545",
        "name": "humpy jones",
        "dob": "blk",
        "age": "35",
        "place_of_birth": "portmadoc",
        "home_address": "blk",
        "f": "blk",
        "name_of_ship": "candace",
        "ship_port": "aberystwyth",
        "date_leaving": "blk",
        "joined_ship_date": "blk",
        "joined_at_port": "blk",
        "capacity": "mate",
        "date_left": "blk",
        "left_port": "blk",
        "cause_of_leaving": "remains on board",
        "sign_with_mark": "n",
        "notes": "probably humphry jones (handwriting poor)."
    },
    {
        "id": "vtls004632545_1_13",
        "type": "sailor",
        "parent": "vtls004632545",
        "name": "hugh manley",
        "dob": "blk",
        "age": "16",
        "place_of_birth": "portmadoc",
        "home_address": "blk",
        "f": "blk",
        "name_of_ship": "candace",
        "ship_port": "aberystwyth",
        "date_leaving": "blk",
        "joined_ship_date": "blk",
        "joined_at_port": "blk",
        "capacity": "ordinary seaman",
        "date_left": "1879-12-31",
        "left_port": "porthmadog",
        "cause_of_leaving": "remains on board",
        "sign_with_mark": "n",
        "notes": "blk"
    },
    {
        "id": "vtls004632545_1_12",
        "type": "sailor",
        "parent": "vtls004632545",
        "name": "robert ellis",
        "dob": "blk",
        "age": "35",
        "place_of_birth": "penrhyn",
        "home_address": "blk",
        "f": "blk",
        "name_of_ship": "candace",
        "ship_port": "aberystwyth",
        "date_leaving": "blk",
        "joined_ship_date": "blk",
        "joined_at_port": "blk",
        "capacity": "mate",
        "date_left": "1879-12-31",
        "left_port": "porthmadog",
        "cause_of_leaving": "remains on board",
        "sign_with_mark": "n",
        "notes": "blk"
    },
    {
        "id": "vtls004632640_0_12",
        "type": "sailor",
        "parent": "vtls004632640",
        "name": "karl olsen",
        "dob": "blk",
        "age": "43",
        "place_of_birth": "norway",
        "home_address": "blk",
        "f": "blk",
        "name_of_ship": "candace",
        "ship_port": "aberystwyth",
        "date_leaving": "blk",
        "joined_ship_date": "blk",
        "joined_at_port": "blk",
        "capacity": "mate",
        "date_left": "1881-04-20",
        "left_port": "porthmadog",
        "cause_of_leaving": "discharged",
        "sign_with_mark": "n",
        "notes": "blk"
    },
    {
        "id": "vtls004632545_0_13",
        "type": "sailor",
        "parent": "vtls004632545",
        "name": "hugh manley",
        "dob": "blk",
        "age": "16",
        "place_of_birth": "portmadoc",
        "home_address": "blk",
        "f": "blk",
        "name_of_ship": "candace",
        "ship_port": "aberystwyth",
        "date_leaving": "blk",
        "joined_ship_date": "blk",
        "joined_at_port": "blk",
        "capacity": "boy",
        "date_left": "blk",
        "left_port": "blk",
        "cause_of_leaving": "remains on board",
        "sign_with_mark": "n",
        "notes": "blk"
    },
    {
        "id": "vtls004632645_0_11",
        "type": "sailor",
        "parent": "vtls004632645",
        "name": "evan jones",
        "dob": "1840",
        "age": "blk",
        "place_of_birth": "llanengan",
        "home_address": "portmadoc",
        "f": "portmadoc",
        "name_of_ship": "candace",
        "ship_port": "aberystwyth",
        "date_leaving": "1881",
        "joined_ship_date": "1882-01-01",
        "joined_at_port": "carnarvon",
        "capacity": "master",
        "date_left": "1882-02-27",
        "left_port": "porthmadog",
        "cause_of_leaving": "discharged",
        "sign_with_mark": "n",
        "notes": "llanengan is a village near abersoch. ship owner: william lewis, lombard street, portmadoc."
    },
    {
        "id": "vtls004632640_1_11",
        "type": "sailor",
        "parent": "vtls004632640",
        "name": "lewis jones",
        "dob": "blk",
        "age": "42",
        "place_of_birth": "merioneth",
        "home_address": "blk",
        "f": "blk",
        "name_of_ship": "candace",
        "ship_port": "aberystwyth",
        "date_leaving": "blk",
        "joined_ship_date": "blk",
        "joined_at_port": "blk",
        "capacity": "master",
        "date_left": "1881-09-24",
        "left_port": "porthmadog",
        "cause_of_leaving": "paid off",
        "sign_with_mark": "n",
        "notes": "voyage dates: 1881-08-10 to 1881-12-10. ship owner: william lewis, portmadoc."
    },
    {
        "id": "vtls004632640_1_14",
        "type": "sailor",
        "parent": "vtls004632640",
        "name": "william jones",
        "dob": "blk",
        "age": "40",
        "place_of_birth": "pwllheli",
        "home_address": "blk",
        "f": "blk",
        "name_of_ship": "physician",
        "ship_port": "carnarvon",
        "date_leaving": "1881",
        "joined_ship_date": "1881-09-25",
        "joined_at_port": "portmadoc",
        "capacity": "master",
        "date_left": "1881-12-11",
        "left_port": "caernarfon",
        "cause_of_leaving": "paid off",
        "sign_with_mark": "n",
        "notes": "blk"
    },
    {
        "id": "vtls004632640_1_15",
        "type": "sailor",
        "parent": "vtls004632640",
        "name": "evan jones",
        "dob": "blk",
        "age": "42",
        "place_of_birth": "pwllheli",
        "home_address": "blk",
        "f": "blk",
        "name_of_ship": "catherine richards",
        "ship_port": "carnarvon",
        "date_leaving": "1881",
        "joined_ship_date": "1881-12-25",
        "joined_at_port": "carnarvon",
        "capacity": "master",
        "date_left": "blk",
        "left_port": "blk",
        "cause_of_leaving": "remains on board",
        "sign_with_mark": "n",
        "notes": "blk"
    },
    {
        "id": "vtls004632645_0_12",
        "type": "sailor",
        "parent": "vtls004632645",
        "name": "robert owen",
        "dob": "1857",
        "age": "blk",
        "place_of_birth": "nevin",
        "home_address": "blk",
        "f": "blk",
        "name_of_ship": "candace",
        "ship_port": "aberystwyth",
        "date_leaving": "1881",
        "joined_ship_date": "1882-01-01",
        "joined_at_port": "carnarvon",
        "capacity": "mate",
        "date_left": "1882-02-27",
        "left_port": "porthmadog",
        "cause_of_leaving": "discharged",
        "sign_with_mark": "n",
        "notes": "blk"
    },
    {
        "id": "vtls004632640_1_13",
        "type": "sailor",
        "parent": "vtls004632640",
        "name": "willam jones",
        "dob": "blk",
        "age": "17",
        "place_of_birth": "merioneth",
        "home_address": "blk",
        "f": "blk",
        "name_of_ship": "candace",
        "ship_port": "aberystwyth",
        "date_leaving": "blk",
        "joined_ship_date": "blk",
        "joined_at_port": "blk",
        "capacity": "ordinary seaman",
        "date_left": "1881-12-11",
        "left_port": "caernarfon",
        "cause_of_leaving": "paid off",
        "sign_with_mark": "n",
        "notes": "blk"
    },
    {
        "id": "vtls004632640_1_12",
        "type": "sailor",
        "parent": "vtls004632640",
        "name": "james scott",
        "dob": "blk",
        "age": "36",
        "place_of_birth": "glasgow",
        "home_address": "blk",
        "f": "blk",
        "name_of_ship": "candace",
        "ship_port": "aberystwyth",
        "date_leaving": "blk",
        "joined_ship_date": "blk",
        "joined_at_port": "blk",
        "capacity": "mate",
        "date_left": "1881-12-11",
        "left_port": "caernarfon",
        "cause_of_leaving": "paid off",
        "sign_with_mark": "n",
        "notes": "blk"
    },
    {
        "id": "vtls004632645_1_15",
        "type": "sailor",
        "parent": "vtls004632645",
        "name": "robert jones",
        "dob": "1855",
        "age": "blk",
        "place_of_birth": "llanstwndwn",
        "home_address": "blk",
        "f": "blk",
        "name_of_ship": "aurora",
        "ship_port": "carnarvon",
        "date_leaving": "1882",
        "joined_ship_date": "1882-10-10",
        "joined_at_port": "portmadoc",
        "capacity": "ordinary seaman",
        "date_left": "1882-11-28",
        "left_port": "porthmadog",
        "cause_of_leaving": "paid off",
        "sign_with_mark": "n",
        "notes": "place of birth may be llanstumdwy, gwynedd. aurora registered as 'aurore' at caernarfon 1870 - 1890."
    },
    {
        "id": "vtls004632645_1_11",
        "type": "sailor",
        "parent": "vtls004632645",
        "name": "william p jones",
        "dob": "1838",
        "age": "blk",
        "place_of_birth": "nevin",
        "home_address": "church street portmadoc",
        "f": "church street portmadoc",
        "name_of_ship": "pride of wales",
        "ship_port": "cardiff",
        "date_leaving": "1882",
        "joined_ship_date": "1882-08-07",
        "joined_at_port": "portmadoc",
        "capacity": "master",
        "date_left": "1882-12-31",
        "left_port": "porthmadog",
        "cause_of_leaving": "remains on board",
        "sign_with_mark": "n",
        "notes": "ship owner: william lewis, lombard street, portmadoc."
    },
    {
        "id": "vtls004632645_1_14",
        "type": "sailor",
        "parent": "vtls004632645",
        "name": "andrew jones",
        "dob": "1828",
        "age": "blk",
        "place_of_birth": "nevin",
        "home_address": "blk",
        "f": "blk",
        "name_of_ship": "john william",
        "ship_port": "carnarvon",
        "date_leaving": "1882",
        "joined_ship_date": "1882-10-10",
        "joined_at_port": "portmadoc",
        "capacity": "mate",
        "date_left": "1882-11-22",
        "left_port": "abersoch",
        "cause_of_leaving": "paid off",
        "sign_with_mark": "n",
        "notes": "last ship could be john williams, registered at caernarfon 1880"
    },
    {
        "id": "vtls004632655_0_11",
        "type": "sailor",
        "parent": "vtls004632655",
        "name": "william jones",
        "dob": "1840",
        "age": "blk",
        "place_of_birth": "caernarfon",
        "home_address": "blk",
        "f": "blk",
        "name_of_ship": "candace",
        "ship_port": "aberystwyth",
        "date_leaving": "1882",
        "joined_ship_date": "blk",
        "joined_at_port": "blk",
        "capacity": "master",
        "date_left": "1883-03-25",
        "left_port": "porthmadog",
        "cause_of_leaving": "discharged",
        "sign_with_mark": "n",
        "notes": "ship owner: william lewis, lombard street, portmadoc."
    },
    {
        "id": "vtls004632655_0_13",
        "type": "sailor",
        "parent": "vtls004632655",
        "name": "thomas price",
        "dob": "1868",
        "age": "blk",
        "place_of_birth": "barmouth",
        "home_address": "blk",
        "f": "blk",
        "name_of_ship": "sarah & mary",
        "ship_port": "aberystwyth",
        "date_leaving": "1882",
        "joined_ship_date": "1882-12-13",
        "joined_at_port": "portmadoc",
        "capacity": "boy",
        "date_left": "1883-03-25",
        "left_port": "porthmadog",
        "cause_of_leaving": "discharged",
        "sign_with_mark": "n",
        "notes": "blk"
    },
    {
        "id": "vtls004632655_0_12",
        "type": "sailor",
        "parent": "vtls004632655",
        "name": "john davies",
        "dob": "1850",
        "age": "blk",
        "place_of_birth": "pwllheli",
        "home_address": "blk",
        "f": "blk",
        "name_of_ship": "two brothers",
        "ship_port": "carnarvon",
        "date_leaving": "1882",
        "joined_ship_date": "1882-12-14",
        "joined_at_port": "portmadoc",
        "capacity": "mate",
        "date_left": "1883-03-25",
        "left_port": "porthmadog",
        "cause_of_leaving": "discharged",
        "sign_with_mark": "n",
        "notes": "blk"
    },
    {
        "id": "vtls004632645_1_13",
        "type": "sailor",
        "parent": "vtls004632645",
        "name": "william parry",
        "dob": "1866",
        "age": "blk",
        "place_of_birth": "llanbedrog",
        "home_address": "blk",
        "f": "blk",
        "name_of_ship": "william",
        "ship_port": "carnarvon",
        "date_leaving": "1882",
        "joined_ship_date": "1882-08-15",
        "joined_at_port": "portmadoc",
        "capacity": "cook",
        "date_left": "1882-09-19",
        "left_port": "porthmadog",
        "cause_of_leaving": "paid off",
        "sign_with_mark": "n",
        "notes": "blk"
    },
    {
        "id": "vtls004632645_0_13",
        "type": "sailor",
        "parent": "vtls004632645",
        "name": "john roberts",
        "dob": "1859",
        "age": "blk",
        "place_of_birth": "caernarfon",
        "home_address": "blk",
        "f": "blk",
        "name_of_ship": "unknown",
        "ship_port": "blk",
        "date_leaving": "blk",
        "joined_ship_date": "1882-01-01",
        "joined_at_port": "carnarvon",
        "capacity": "cook",
        "date_left": "1882-02-27",
        "left_port": "porthmadog",
        "cause_of_leaving": "discharged",
        "sign_with_mark": "n",
        "notes": "blk"
    },
    {
        "id": "vtls004632645_1_12",
        "type": "sailor",
        "parent": "vtls004632645",
        "name": "rowland jones",
        "dob": "1828",
        "age": "blk",
        "place_of_birth": "nevin",
        "home_address": "blk",
        "f": "blk",
        "name_of_ship": "laura",
        "ship_port": "carnarvon",
        "date_leaving": "1882",
        "joined_ship_date": "1882-08-30",
        "joined_at_port": "portmadoc",
        "capacity": "mate",
        "date_left": "1882-09-25",
        "left_port": "porthmadog",
        "cause_of_leaving": "paid off",
        "sign_with_mark": "n",
        "notes": "blk"
    },
    {
        "id": "vtls004632655_1_11",
        "type": "sailor",
        "parent": "vtls004632655",
        "name": "owen hughes",
        "dob": "1842",
        "age": "blk",
        "place_of_birth": "caernarfonshire",
        "home_address": "portmadoc",
        "f": "portmadoc",
        "name_of_ship": "empress",
        "ship_port": "carnarvon",
        "date_leaving": "1883",
        "joined_ship_date": "1883-07-24",
        "joined_at_port": "newport",
        "capacity": "master",
        "date_left": "1884-01-12",
        "left_port": "porthmadog",
        "cause_of_leaving": "discharged",
        "sign_with_mark": "n",
        "notes": "ship owner: william lewis, lombard street, portmadoc."
    },
    {
        "id": "vtls004632655_1_14",
        "type": "sailor",
        "parent": "vtls004632655",
        "name": "thomas williams",
        "dob": "1844",
        "age": "blk",
        "place_of_birth": "caernarfonshire",
        "home_address": "blk",
        "f": "blk",
        "name_of_ship": "john",
        "ship_port": "carnarvon",
        "date_leaving": "1882",
        "joined_ship_date": "1883-09-15",
        "joined_at_port": "portmadoc",
        "capacity": "mate",
        "date_left": "1884-01-12",
        "left_port": "porthmadog",
        "cause_of_leaving": "discharged",
        "sign_with_mark": "n",
        "notes": "a ship called john was registered in caernarfon 1890."
    },
    {
        "id": "vtls004632655_1_13",
        "type": "sailor",
        "parent": "vtls004632655",
        "name": "william thomas",
        "dob": "1849",
        "age": "blk",
        "place_of_birth": "caernarfonshire",
        "home_address": "blk",
        "f": "blk",
        "name_of_ship": "candace",
        "ship_port": "aberystwyth",
        "date_leaving": "1883",
        "joined_ship_date": "blk",
        "joined_at_port": "blk",
        "capacity": "cook & ordinary seaman",
        "date_left": "1884-01-12",
        "left_port": "porthmadog",
        "cause_of_leaving": "discharged",
        "sign_with_mark": "n",
        "notes": "blk"
    },
    {
        "id": "vtls004632655_1_12",
        "type": "sailor",
        "parent": "vtls004632655",
        "name": "william jones",
        "dob": "1857",
        "age": "blk",
        "place_of_birth": "caernarfonshire",
        "home_address": "blk",
        "f": "blk",
        "name_of_ship": "industry",
        "ship_port": "carnarvon",
        "date_leaving": "1883",
        "joined_ship_date": "1883-07-24",
        "joined_at_port": "newport",
        "capacity": "mate",
        "date_left": "1883-09-13",
        "left_port": "porthmadog",
        "cause_of_leaving": "discharged",
        "sign_with_mark": "n",
        "notes": "blk"
    },
    {
        "id": "vtls004632655_0_14",
        "type": "sailor",
        "parent": "vtls004632655",
        "name": "owen hughes",
        "dob": "1841",
        "age": "blk",
        "place_of_birth": "anglesey",
        "home_address": "portmadoc",
        "f": "portmadoc",
        "name_of_ship": "empress",
        "ship_port": "carnarvon",
        "date_leaving": "1883",
        "joined_ship_date": "1883-03-27",
        "joined_at_port": "portmadoc",
        "capacity": "master",
        "date_left": "blk",
        "left_port": "blk",
        "cause_of_leaving": "remains on board",
        "sign_with_mark": "n",
        "notes": "blk"
    },
    {
        "id": "vtls004632655_0_15",
        "type": "sailor",
        "parent": "vtls004632655",
        "name": "richard jones",
        "dob": "1862",
        "age": "blk",
        "place_of_birth": "caernarfon",
        "home_address": "blk",
        "f": "blk",
        "name_of_ship": "planet",
        "ship_port": "carnarvon",
        "date_leaving": "1883",
        "joined_ship_date": "1883-03-27",
        "joined_at_port": "portmadoc",
        "capacity": "mate",
        "date_left": "blk",
        "left_port": "blk",
        "cause_of_leaving": "remains on board",
        "sign_with_mark": "n",
        "notes": "blk"
    },
    {
        "id": "vtls004632655_0_16",
        "type": "sailor",
        "parent": "vtls004632655",
        "name": "david hughes",
        "dob": "1868",
        "age": "blk",
        "place_of_birth": "portmadoc",
        "home_address": "blk",
        "f": "blk",
        "name_of_ship": "first ship",
        "ship_port": "blk",
        "date_leaving": "blk",
        "joined_ship_date": "1883-03-27",
        "joined_at_port": "portmadoc",
        "capacity": "boy",
        "date_left": "blk",
        "left_port": "blk",
        "cause_of_leaving": "remains on board",
        "sign_with_mark": "n",
        "notes": "blk"
    },
    {
        "id": "vtls004632664_0_14",
        "type": "sailor",
        "parent": "vtls004632664",
        "name": "william roberts",
        "dob": "1843",
        "age": "blk",
        "place_of_birth": "portmadoc",
        "home_address": "edeyrn carnarvonshire",
        "f": "edeyrn carnarvonshire",
        "name_of_ship": "w. d potts",
        "ship_port": "carnarvon",
        "date_leaving": "blk",
        "joined_ship_date": "1884-11-22",
        "joined_at_port": "newport",
        "capacity": "master",
        "date_left": "blk",
        "left_port": "blk",
        "cause_of_leaving": "blk",
        "sign_with_mark": "n",
        "notes": "edeyrn is an archaic name for edern, caernarfonshire, near nefyn. the full name of the w d potts was the walter dunlop potts."
    },
    {
        "id": "vtls004632664_0_11",
        "type": "sailor",
        "parent": "vtls004632664",
        "name": "robert ellis",
        "dob": "1844",
        "age": "blk",
        "place_of_birth": "merionethshire",
        "home_address": "blk",
        "f": "blk",
        "name_of_ship": "candace",
        "ship_port": "aberystwyth",
        "date_leaving": "blk",
        "joined_ship_date": "blk",
        "joined_at_port": "blk",
        "capacity": "master",
        "date_left": "1884-11-21",
        "left_port": "newport",
        "cause_of_leaving": "discharged",
        "sign_with_mark": "n",
        "notes": "ship owner: william lewis, lombard street, portmadog."
    },
    {
        "id": "vtls004632670_0_11",
        "type": "sailor",
        "parent": "vtls004632670",
        "name": "owen hughes",
        "dob": "1841",
        "age": "blk",
        "place_of_birth": "menai bridge",
        "home_address": "port madoc",
        "f": "port madoc",
        "name_of_ship": "sylph",
        "ship_port": "aberystwyth",
        "date_leaving": "1886",
        "joined_ship_date": "1886-04-29",
        "joined_at_port": "portmadoc",
        "capacity": "master",
        "date_left": "blk",
        "left_port": "blk",
        "cause_of_leaving": "remains on board",
        "sign_with_mark": "n",
        "notes": "ship owner: william lewis, portmadoc"
    },
    {
        "id": "vtls004632664_0_17",
        "type": "sailor",
        "parent": "vtls004632664",
        "name": "william davies",
        "dob": "1826",
        "age": "blk",
        "place_of_birth": "cardiganshire",
        "home_address": "blk",
        "f": "blk",
        "name_of_ship": "william",
        "ship_port": "carnarvon",
        "date_leaving": "blk",
        "joined_ship_date": "1884-10-29",
        "joined_at_port": "portmadoc",
        "capacity": "mate",
        "date_left": "1885-01-06",
        "left_port": "porthmadog",
        "cause_of_leaving": "discharged",
        "sign_with_mark": "n",
        "notes": "blk"
    },
    {
        "id": "vtls004632664_0_18",
        "type": "sailor",
        "parent": "vtls004632664",
        "name": "william thomas",
        "dob": "1866",
        "age": "blk",
        "place_of_birth": "portmadoc",
        "home_address": "blk",
        "f": "blk",
        "name_of_ship": "deborah",
        "ship_port": "aberystwyth",
        "date_leaving": "blk",
        "joined_ship_date": "1884-10-29",
        "joined_at_port": "portmadoc",
        "capacity": "cook",
        "date_left": "1885-01-06",
        "left_port": "porthmadog",
        "cause_of_leaving": "discharged",
        "sign_with_mark": "n",
        "notes": "blk"
    },
    {
        "id": "vtls004632664_0_15",
        "type": "sailor",
        "parent": "vtls004632664",
        "name": "william lewis",
        "dob": "1844",
        "age": "blk",
        "place_of_birth": "portmadoc",
        "home_address": "blk",
        "f": "blk",
        "name_of_ship": "eleanor",
        "ship_port": "aberystwyth",
        "date_leaving": "blk",
        "joined_ship_date": "1884-09-01",
        "joined_at_port": "portmadoc",
        "capacity": "mate",
        "date_left": "1884-10-14",
        "left_port": "porthmadog",
        "cause_of_leaving": "discharged",
        "sign_with_mark": "n",
        "notes": "blk"
    },
    {
        "id": "vtls004632664_0_16",
        "type": "sailor",
        "parent": "vtls004632664",
        "name": "hugh humphreys",
        "dob": "1870",
        "age": "blk",
        "place_of_birth": "pwllheli",
        "home_address": "blk",
        "f": "blk",
        "name_of_ship": "first voyage",
        "ship_port": "blk",
        "date_leaving": "blk",
        "joined_ship_date": "1884-09-01",
        "joined_at_port": "portmadoc",
        "capacity": "cook",
        "date_left": "1884-10-14",
        "left_port": "porthmadog",
        "cause_of_leaving": "discharged",
        "sign_with_mark": "n",
        "notes": "blk"
    },
    {
        "id": "vtls004632664_0_12",
        "type": "sailor",
        "parent": "vtls004632664",
        "name": "hugh evans",
        "dob": "1829",
        "age": "blk",
        "place_of_birth": "pwllheli",
        "home_address": "blk",
        "f": "blk",
        "name_of_ship": "candace",
        "ship_port": "aberystwyth",
        "date_leaving": "blk",
        "joined_ship_date": "blk",
        "joined_at_port": "blk",
        "capacity": "mate",
        "date_left": "1884-07-05",
        "left_port": "porthmadog",
        "cause_of_leaving": "discharged",
        "sign_with_mark": "n",
        "notes": "blk"
    },
    {
        "id": "vtls004632664_0_13",
        "type": "sailor",
        "parent": "vtls004632664",
        "name": "thomas jones",
        "dob": "1868",
        "age": "blk",
        "place_of_birth": "pwllheli",
        "home_address": "blk",
        "f": "blk",
        "name_of_ship": "first voyage",
        "ship_port": "blk",
        "date_leaving": "blk",
        "joined_ship_date": "blk",
        "joined_at_port": "blk",
        "capacity": "cook",
        "date_left": "1884-07-05",
        "left_port": "porthmadog",
        "cause_of_leaving": "discharged",
        "sign_with_mark": "n",
        "notes": "blk"
    },
    {
        "id": "vtls004632676_0_11",
        "type": "sailor",
        "parent": "vtls004632676",
        "name": "owen hughes",
        "dob": "1847",
        "age": "blk",
        "place_of_birth": "anglesey",
        "home_address": "blk",
        "f": "blk",
        "name_of_ship": "candace",
        "ship_port": "aberystwyth",
        "date_leaving": "blk",
        "joined_ship_date": "1887-01-01",
        "joined_at_port": "portmadoc",
        "capacity": "master",
        "date_left": "1877-05-25",
        "left_port": "caernarfon",
        "cause_of_leaving": "discharged",
        "sign_with_mark": "n",
        "notes": "date left is presumably in 1887. ship owner: william lewis, lombard street, portmadoc."
    },
    {
        "id": "vtls004632670_1_11",
        "type": "sailor",
        "parent": "vtls004632670",
        "name": "owen hughes",
        "dob": "1846",
        "age": "blk",
        "place_of_birth": "caernarfonshire",
        "home_address": "portmadoc",
        "f": "portmadoc",
        "name_of_ship": "candace",
        "ship_port": "aberystwyth",
        "date_leaving": "1886",
        "joined_ship_date": "1886-07-01",
        "joined_at_port": "carnarvon",
        "capacity": "master",
        "date_left": "blk",
        "left_port": "blk",
        "cause_of_leaving": "remains on board",
        "sign_with_mark": "n",
        "notes": "ship owner: william lewis, lombard street, carnarvon."
    },
    {
        "id": "vtls004632670_1_13",
        "type": "sailor",
        "parent": "vtls004632670",
        "name": "thomas thomas",
        "dob": "1873",
        "age": "blk",
        "place_of_birth": "portmadoc",
        "home_address": "blk",
        "f": "blk",
        "name_of_ship": "candace",
        "ship_port": "aberystwyth",
        "date_leaving": "1886",
        "joined_ship_date": "1886-07-01",
        "joined_at_port": "carnarvon",
        "capacity": "ordinary seaman",
        "date_left": "1886-12-31",
        "left_port": "porthmadog",
        "cause_of_leaving": "discharged",
        "sign_with_mark": "n",
        "notes": "blk"
    },
    {
        "id": "vtls004632670_0_13",
        "type": "sailor",
        "parent": "vtls004632670",
        "name": "william thomas williams",
        "dob": "1872",
        "age": "blk",
        "place_of_birth": "portmadoc",
        "home_address": "blk",
        "f": "blk",
        "name_of_ship": "first voyage",
        "ship_port": "blk",
        "date_leaving": "blk",
        "joined_ship_date": "1886-04-30",
        "joined_at_port": "portmadoc",
        "capacity": "boy",
        "date_left": "1886-07-08",
        "left_port": "caernarfon",
        "cause_of_leaving": "discharged",
        "sign_with_mark": "n",
        "notes": "blk"
    },
    {
        "id": "vtls004632670_1_12",
        "type": "sailor",
        "parent": "vtls004632670",
        "name": "william lewis",
        "dob": "1846",
        "age": "blk",
        "place_of_birth": "portmadoc",
        "home_address": "blk",
        "f": "blk",
        "name_of_ship": "candace",
        "ship_port": "aberystwyth",
        "date_leaving": "1886",
        "joined_ship_date": "1886-07-01",
        "joined_at_port": "carnarvon",
        "capacity": "mate",
        "date_left": "1886-12-31",
        "left_port": "porthmadog",
        "cause_of_leaving": "discharged",
        "sign_with_mark": "n",
        "notes": "blk"
    },
    {
        "id": "vtls004632670_0_12",
        "type": "sailor",
        "parent": "vtls004632670",
        "name": "william lewis",
        "dob": "1846",
        "age": "blk",
        "place_of_birth": "portmadoc",
        "home_address": "blk",
        "f": "blk",
        "name_of_ship": "sylph",
        "ship_port": "aberystwyth",
        "date_leaving": "1886",
        "joined_ship_date": "1886-04-29",
        "joined_at_port": "portmadoc",
        "capacity": "mate",
        "date_left": "1886-07-08",
        "left_port": "caernarfon",
        "cause_of_leaving": "discharged",
        "sign_with_mark": "n",
        "notes": "blk"
    },
    {
        "id": "vtls004632676_0_12",
        "type": "sailor",
        "parent": "vtls004632676",
        "name": "william lewis",
        "dob": "1845",
        "age": "blk",
        "place_of_birth": "portmadoc",
        "home_address": "blk",
        "f": "blk",
        "name_of_ship": "candace",
        "ship_port": "aberystwyth",
        "date_leaving": "blk",
        "joined_ship_date": "1887-01-01",
        "joined_at_port": "portmadoc",
        "capacity": "mate",
        "date_left": "blk",
        "left_port": "blk",
        "cause_of_leaving": "remains on board",
        "sign_with_mark": "n",
        "notes": "blk"
    },
    {
        "id": "vtls004632683_0_11",
        "type": "sailor",
        "parent": "vtls004632683",
        "name": "blk",
        "dob": "blk",
        "age": "blk",
        "place_of_birth": "blk",
        "home_address": "blk",
        "f": "blk",
        "name_of_ship": "blk",
        "ship_port": "blk",
        "date_leaving": "blk",
        "joined_ship_date": "blk",
        "joined_at_port": "blk",
        "capacity": "blk",
        "date_left": "blk",
        "left_port": "blk",
        "cause_of_leaving": "blk",
        "sign_with_mark": "blk",
        "notes": "document reads: 'vessel laying up at portmadoc for half year ending 30th june 1889'. ship owner: william lewis, lombard street, portmadoc."
    },
    {
        "id": "vtls004632676_0_13",
        "type": "sailor",
        "parent": "vtls004632676",
        "name": "john jones",
        "dob": "1870",
        "age": "blk",
        "place_of_birth": "caernarfon",
        "home_address": "blk",
        "f": "blk",
        "name_of_ship": "industry",
        "ship_port": "carnarvon",
        "date_leaving": "1886",
        "joined_ship_date": "1887-01-11",
        "joined_at_port": "portmadoc",
        "capacity": "ordinary seaman",
        "date_left": "blk",
        "left_port": "blk",
        "cause_of_leaving": "remains on board",
        "sign_with_mark": "n",
        "notes": "date joined ship could be 1887-01-01"
    },
    {
        "id": "vtls004632683_1_11",
        "type": "sailor",
        "parent": "vtls004632683",
        "name": "blk",
        "dob": "blk",
        "age": "blk",
        "place_of_birth": "blk",
        "home_address": "blk",
        "f": "blk",
        "name_of_ship": "blk",
        "ship_port": "blk",
        "date_leaving": "blk",
        "joined_ship_date": "blk",
        "joined_at_port": "blk",
        "capacity": "blk",
        "date_left": "blk",
        "left_port": "blk",
        "cause_of_leaving": "blk",
        "sign_with_mark": "blk",
        "notes": "document reads: 'vessel laying up at portmadoc for the half yearly ending 31st december 1889.' owner: william lewis, portmadoc."
    },
    {
        "id": "vtls004632676_1_11",
        "type": "sailor",
        "parent": "vtls004632676",
        "name": "owen ellis",
        "dob": "1835",
        "age": "blk",
        "place_of_birth": "caernarfon",
        "home_address": "carnarvon",
        "f": "carnarvon",
        "name_of_ship": "candace",
        "ship_port": "aberystwyth",
        "date_leaving": "1887",
        "joined_ship_date": "blk",
        "joined_at_port": "blk",
        "capacity": "master",
        "date_left": "1887-10-29",
        "left_port": "porthmadog",
        "cause_of_leaving": "discharged",
        "sign_with_mark": "n",
        "notes": "ship owner: william lewis, portmadoc."
    },
    {
        "id": "vtls004632676_1_13",
        "type": "sailor",
        "parent": "vtls004632676",
        "name": "john lewis",
        "dob": "1867",
        "age": "blk",
        "place_of_birth": "caernarfon",
        "home_address": "blk",
        "f": "blk",
        "name_of_ship": "candace",
        "ship_port": "aberystwyth",
        "date_leaving": "1887",
        "joined_ship_date": "1887-07-01",
        "joined_at_port": "newport",
        "capacity": "ordinary seaman",
        "date_left": "1887-10-29",
        "left_port": "porthmadog",
        "cause_of_leaving": "discharged",
        "sign_with_mark": "n",
        "notes": "blk"
    },
    {
        "id": "vtls004632676_0_14",
        "type": "sailor",
        "parent": "vtls004632676",
        "name": "owen ellis",
        "dob": "1826",
        "age": "blk",
        "place_of_birth": "caernarfon",
        "home_address": "chapel street carnarvon",
        "f": "chapel street carnarvon",
        "name_of_ship": "vixen",
        "ship_port": "carnarvon",
        "date_leaving": "1887",
        "joined_ship_date": "1887-05-25",
        "joined_at_port": "carnarvon",
        "capacity": "master",
        "date_left": "blk",
        "left_port": "blk",
        "cause_of_leaving": "remains on board",
        "sign_with_mark": "n",
        "notes": "blk"
    },
    {
        "id": "vtls004632676_1_12",
        "type": "sailor",
        "parent": "vtls004632676",
        "name": "thomas evans",
        "dob": "1847",
        "age": "blk",
        "place_of_birth": "caernarfon",
        "home_address": "blk",
        "f": "blk",
        "name_of_ship": "candace",
        "ship_port": "aberystwyth",
        "date_leaving": "1887",
        "joined_ship_date": "1887-07-01",
        "joined_at_port": "newport",
        "capacity": "boatswain",
        "date_left": "1887-10-29",
        "left_port": "porthmadog",
        "cause_of_leaving": "discharged",
        "sign_with_mark": "n",
        "notes": "blk"
    },
    {
        "id": "vtls004632695_0_11",
        "type": "sailor",
        "parent": "vtls004632695",
        "name": "richard owen",
        "dob": "1836",
        "age": "blk",
        "place_of_birth": "barmouth",
        "home_address": "borthygest",
        "f": "borthygest",
        "name_of_ship": "candace",
        "ship_port": "aberystwyth",
        "date_leaving": "1891",
        "joined_ship_date": "blk",
        "joined_at_port": "blk",
        "capacity": "master",
        "date_left": "1891-01-30",
        "left_port": "aberdovey",
        "cause_of_leaving": "illness",
        "sign_with_mark": "n",
        "notes": "includes note explaining lateness with list d owing to having been 'in a port', signed by richard owens, ship's owner."
    },
    {
        "id": "vtls004632695_1_11",
        "type": "sailor",
        "parent": "vtls004632695",
        "name": "richard owens",
        "dob": "1858",
        "age": "blk",
        "place_of_birth": "barmouth",
        "home_address": "borth",
        "f": "borth",
        "name_of_ship": "candace",
        "ship_port": "aberystwyth",
        "date_leaving": "blk",
        "joined_ship_date": "blk",
        "joined_at_port": "blk",
        "capacity": "master",
        "date_left": "blk",
        "left_port": "blk",
        "cause_of_leaving": "remains on board",
        "sign_with_mark": "n",
        "notes": "voyage dates: 1891-07-01 to 1891-12-31. richard owen is the ship owner."
    },
    {
        "id": "vtls004632695_0_13",
        "type": "sailor",
        "parent": "vtls004632695",
        "name": "robert owen",
        "dob": "1877",
        "age": "blk",
        "place_of_birth": "penmorfa",
        "home_address": "blk",
        "f": "blk",
        "name_of_ship": "candace",
        "ship_port": "aberystwyth",
        "date_leaving": "1891",
        "joined_ship_date": "blk",
        "joined_at_port": "blk",
        "capacity": "ordinary seaman",
        "date_left": "1891-04-02",
        "left_port": "blk",
        "cause_of_leaving": "remains on board",
        "sign_with_mark": "n",
        "notes": "penmorfa is a village north-west of porthmadog."
    },
    {
        "id": "vtls004632695_0_18",
        "type": "sailor",
        "parent": "vtls004632695",
        "name": "hugh morris",
        "dob": "1876",
        "age": "blk",
        "place_of_birth": "portmadoc",
        "home_address": "blk",
        "f": "blk",
        "name_of_ship": "aeron lass",
        "ship_port": "aberystwyth",
        "date_leaving": "1891",
        "joined_ship_date": "1891-06-15",
        "joined_at_port": "portmadoc",
        "capacity": "ordinary seaman",
        "date_left": "1891-07-25",
        "left_port": "porthmadog",
        "cause_of_leaving": "discharged",
        "sign_with_mark": "n",
        "notes": "blk"
    },
    {
        "id": "vtls004632695_0_14",
        "type": "sailor",
        "parent": "vtls004632695",
        "name": "thomas jones",
        "dob": "1851",
        "age": "blk",
        "place_of_birth": "pwllheli",
        "home_address": "blk",
        "f": "blk",
        "name_of_ship": "edith eleanor",
        "ship_port": "aberystwyth",
        "date_leaving": "1891",
        "joined_ship_date": "1891-01-31",
        "joined_at_port": "aberdovey",
        "capacity": "master",
        "date_left": "1891-04-02",
        "left_port": "porthmadog",
        "cause_of_leaving": "discharged",
        "sign_with_mark": "n",
        "notes": "blk"
    },
    {
        "id": "vtls004632695_0_16",
        "type": "sailor",
        "parent": "vtls004632695",
        "name": "william hansen",
        "dob": "1853",
        "age": "blk",
        "place_of_birth": "norway",
        "home_address": "blk",
        "f": "blk",
        "name_of_ship": "seven brothers",
        "ship_port": "beaumaris",
        "date_leaving": "1891",
        "joined_ship_date": "1891-04-03",
        "joined_at_port": "portmadoc",
        "capacity": "mate",
        "date_left": "1891-06-13",
        "left_port": "porthmadog",
        "cause_of_leaving": "discharged",
        "sign_with_mark": "n",
        "notes": "blk"
    },
    {
        "id": "vtls004632695_0_17",
        "type": "sailor",
        "parent": "vtls004632695",
        "name": "morris hughes",
        "dob": "1874",
        "age": "blk",
        "place_of_birth": "portmadoc",
        "home_address": "blk",
        "f": "blk",
        "name_of_ship": "nanhoron",
        "ship_port": "carnarvon",
        "date_leaving": "1891",
        "joined_ship_date": "1891-06-15",
        "joined_at_port": "portmadoc",
        "capacity": "mate",
        "date_left": "1891-07-25",
        "left_port": "porthmadog",
        "cause_of_leaving": "discharged",
        "sign_with_mark": "n",
        "notes": "blk"
    },
    {
        "id": "vtls004632695_0_15",
        "type": "sailor",
        "parent": "vtls004632695",
        "name": "richard owen",
        "dob": "1836",
        "age": "blk",
        "place_of_birth": "barmouth",
        "home_address": "blk",
        "f": "blk",
        "name_of_ship": "candace",
        "ship_port": "aberystwyth",
        "date_leaving": "1891",
        "joined_ship_date": "1891-04-03",
        "joined_at_port": "portmadoc",
        "capacity": "master",
        "date_left": "blk",
        "left_port": "blk",
        "cause_of_leaving": "remains on board",
        "sign_with_mark": "n",
        "notes": "blk"
    },
    {
        "id": "vtls004632695_0_12",
        "type": "sailor",
        "parent": "vtls004632695",
        "name": "john richard owen",
        "dob": "1869",
        "age": "blk",
        "place_of_birth": "tremadog",
        "home_address": "blk",
        "f": "blk",
        "name_of_ship": "candace",
        "ship_port": "aberystwyth",
        "date_leaving": "1891",
        "joined_ship_date": "blk",
        "joined_at_port": "blk",
        "capacity": "mate",
        "date_left": "1891-04-02",
        "left_port": "porthmadog",
        "cause_of_leaving": "discharged",
        "sign_with_mark": "n",
        "notes": "blk"
    },
    {
        "id": "vtls004632695_1_12",
        "type": "sailor",
        "parent": "vtls004632695",
        "name": "evan richards",
        "dob": "1847",
        "age": "blk",
        "place_of_birth": "barmouth",
        "home_address": "blk",
        "f": "blk",
        "name_of_ship": "candace",
        "ship_port": "aberystwyth",
        "date_leaving": "blk",
        "joined_ship_date": "blk",
        "joined_at_port": "blk",
        "capacity": "mate",
        "date_left": "blk",
        "left_port": "blk",
        "cause_of_leaving": "remains on board",
        "sign_with_mark": "n",
        "notes": "blk"
    },
    {
        "id": "vtls004632706_1_12",
        "type": "sailor",
        "parent": "vtls004632706",
        "name": "evan owen",
        "dob": "1837",
        "age": "blk",
        "place_of_birth": "barmouth",
        "home_address": "blk",
        "f": "blk",
        "name_of_ship": "hilda ss",
        "ship_port": "cardiff",
        "date_leaving": "1892",
        "joined_ship_date": "1891-07-01",
        "joined_at_port": "portmadoc",
        "capacity": "mate",
        "date_left": "1892-12-18",
        "left_port": "off milford haven",
        "cause_of_leaving": "vessel lost crew saved",
        "sign_with_mark": "n",
        "notes": "date joined ship written as 1893 with 3 crossed out with a single line. probably refers to 1892."
    },
    {
        "id": "vtls004632706_1_11",
        "type": "sailor",
        "parent": "vtls004632706",
        "name": "richard owen",
        "dob": "1838",
        "age": "blk",
        "place_of_birth": "barmouth",
        "home_address": "borth-y-gest",
        "f": "borth-y-gest",
        "name_of_ship": "candace",
        "ship_port": "carnarvon",
        "date_leaving": "1892",
        "joined_ship_date": "blk",
        "joined_at_port": "blk",
        "capacity": "master",
        "date_left": "1892-12-18",
        "left_port": "off milford haven",
        "cause_of_leaving": "vessel lost crew saved",
        "sign_with_mark": "n",
        "notes": "ship owner: hugh jones, portmadoc. form was submitted 1893-05-23."
    },
    {
        "id": "vtls004632706_0_11",
        "type": "sailor",
        "parent": "vtls004632706",
        "name": "richard owen",
        "dob": "1837",
        "age": "blk",
        "place_of_birth": "barmouth",
        "home_address": "pilots house borth-y-gest",
        "f": "pilots house borth-y-gest",
        "name_of_ship": "candace",
        "ship_port": "aberystwyth",
        "date_leaving": "1892",
        "joined_ship_date": "blk",
        "joined_at_port": "blk",
        "capacity": "master",
        "date_left": "blk",
        "left_port": "blk",
        "cause_of_leaving": "blk",
        "sign_with_mark": "n",
        "notes": "ship owner: hugh jones, corn hill, portmadoc."
    },
    {
        "id": "vtls004632706_0_14",
        "type": "sailor",
        "parent": "vtls004632706",
        "name": "john richard owen",
        "dob": "1869",
        "age": "blk",
        "place_of_birth": "penmorfa",
        "home_address": "blk",
        "f": "blk",
        "name_of_ship": "ellin lloyd",
        "ship_port": "carnarvon",
        "date_leaving": "1892",
        "joined_ship_date": "1892-03-23",
        "joined_at_port": "portmadoc",
        "capacity": "mate",
        "date_left": "1892-06-30",
        "left_port": "porthmadog",
        "cause_of_leaving": "discharged",
        "sign_with_mark": "n",
        "notes": "blk"
    },
    {
        "id": "vtls004632706_0_12",
        "type": "sailor",
        "parent": "vtls004632706",
        "name": "william collins",
        "dob": "1870",
        "age": "blk",
        "place_of_birth": "denbigh",
        "home_address": "blk",
        "f": "blk",
        "name_of_ship": "john williams",
        "ship_port": "carnarvon",
        "date_leaving": "1892",
        "joined_ship_date": "1892-02-12",
        "joined_at_port": "portmadoc",
        "capacity": "mate",
        "date_left": "1892-03-20",
        "left_port": "porthmadog",
        "cause_of_leaving": "discharged",
        "sign_with_mark": "n",
        "notes": "blk"
    },
    {
        "id": "vtls004632706_0_15",
        "type": "sailor",
        "parent": "vtls004632706",
        "name": "evan williams",
        "dob": "1878",
        "age": "blk",
        "place_of_birth": "borth y gest",
        "home_address": "blk",
        "f": "blk",
        "name_of_ship": "first voyage",
        "ship_port": "blk",
        "date_leaving": "blk",
        "joined_ship_date": "1892-03-23",
        "joined_at_port": "portmadoc",
        "capacity": "boy",
        "date_left": "1892-06-30",
        "left_port": "porthmadog",
        "cause_of_leaving": "discharged",
        "sign_with_mark": "n",
        "notes": "blk"
    },
    {
        "id": "vtls004632706_0_13",
        "type": "sailor",
        "parent": "vtls004632706",
        "name": "david hughes",
        "dob": "1878",
        "age": "blk",
        "place_of_birth": "portmadoc",
        "home_address": "blk",
        "f": "blk",
        "name_of_ship": "first voyage",
        "ship_port": "blk",
        "date_leaving": "blk",
        "joined_ship_date": "1892-02-12",
        "joined_at_port": "portmadoc",
        "capacity": "boy",
        "date_left": "1892-03-20",
        "left_port": "porthmadog",
        "cause_of_leaving": "discharged",
        "sign_with_mark": "n",
        "notes": "blk"
    },
    {
        "id": "vtls004632695_1_13",
        "type": "sailor",
        "parent": "vtls004632695",
        "name": "robert owen",
        "dob": "1877",
        "age": "blk",
        "place_of_birth": "barmouth",
        "home_address": "blk",
        "f": "blk",
        "name_of_ship": "candace",
        "ship_port": "aberystwyth",
        "date_leaving": "blk",
        "joined_ship_date": "blk",
        "joined_at_port": "blk",
        "capacity": "boy",
        "date_left": "blk",
        "left_port": "blk",
        "cause_of_leaving": "remains on board",
        "sign_with_mark": "n",
        "notes": "blk"
    },
    {
        "id": "vtls004632440_1_11",
        "type": "sailor",
        "parent": "vtls004632440",
        "name": "john thomas",
        "dob": "blk",
        "age": "43",
        "place_of_birth": "aberystwyth",
        "home_address": "mill street aberystwyth",
        "f": "mill street aberystwyth",
        "name_of_ship": "candace",
        "ship_port": "aberystwyth",
        "date_leaving": "blk",
        "joined_ship_date": "blk",
        "joined_at_port": "blk",
        "capacity": "master",
        "date_left": "1863-12-03",
        "left_port": "st. brides bay",
        "cause_of_leaving": "vessel lost crew saved",
        "sign_with_mark": "n",
        "notes": "includes blank form letter requesting details of the wages and effects of the deceased, although the crew are recorded as saved on the account of voyages. on reverse of letter: 'candace 9835 wrecked ship. ref. to mr $leman mr d krown and mr nicholson. al 19\/1864'"
    },
    {
        "id": "vtls004632440_0_11",
        "type": "sailor",
        "parent": "vtls004632440",
        "name": "john thomas",
        "dob": "blk",
        "age": "43",
        "place_of_birth": "aberystwyth",
        "home_address": "aberystwyth",
        "f": "aberystwyth",
        "name_of_ship": "candace",
        "ship_port": "aberystwyth",
        "date_leaving": "blk",
        "joined_ship_date": "1862-03-14",
        "joined_at_port": "aberystwyth",
        "capacity": "master",
        "date_left": "blk",
        "left_port": "blk",
        "cause_of_leaving": "remains on board",
        "sign_with_mark": "n",
        "notes": "owner: john thomas, aberystwith"
    },
    {
        "id": "vtls004632440_1_13",
        "type": "sailor",
        "parent": "vtls004632440",
        "name": "william thomas",
        "dob": "blk",
        "age": "14",
        "place_of_birth": "aberystwyth",
        "home_address": "blk",
        "f": "blk",
        "name_of_ship": "candace",
        "ship_port": "aberystwyth",
        "date_leaving": "blk",
        "joined_ship_date": "blk",
        "joined_at_port": "blk",
        "capacity": "seaman",
        "date_left": "1863-12-03",
        "left_port": "st. brides bay",
        "cause_of_leaving": "vessel lost crew saved",
        "sign_with_mark": "n",
        "notes": "blk"
    },
    {
        "id": "vtls004632440_1_12",
        "type": "sailor",
        "parent": "vtls004632440",
        "name": "john thomas",
        "dob": "blk",
        "age": "19",
        "place_of_birth": "aberystwyth",
        "home_address": "blk",
        "f": "blk",
        "name_of_ship": "candace",
        "ship_port": "aberystwyth",
        "date_leaving": "blk",
        "joined_ship_date": "blk",
        "joined_at_port": "blk",
        "capacity": "mate",
        "date_left": "1863-12-03",
        "left_port": "st. brides bay",
        "cause_of_leaving": "vessel lost crew saved",
        "sign_with_mark": "n",
        "notes": "blk"
    },
    {
        "id": "vtls004632440_0_13",
        "type": "sailor",
        "parent": "vtls004632440",
        "name": "thomas solomon",
        "dob": "blk",
        "age": "18",
        "place_of_birth": "aberystwyth",
        "home_address": "blk",
        "f": "blk",
        "name_of_ship": "candace",
        "ship_port": "aberystwyth",
        "date_leaving": "blk",
        "joined_ship_date": "1863-01-06",
        "joined_at_port": "aberystwyth",
        "capacity": "seaman",
        "date_left": "blk",
        "left_port": "blk",
        "cause_of_leaving": "remains on board",
        "sign_with_mark": "n",
        "notes": "blk"
    },
    {
        "id": "vtls004632440_0_14",
        "type": "sailor",
        "parent": "vtls004632440",
        "name": "william thomas",
        "dob": "blk",
        "age": "13",
        "place_of_birth": "aberystwyth",
        "home_address": "blk",
        "f": "blk",
        "name_of_ship": "candace",
        "ship_port": "aberystwyth",
        "date_leaving": "blk",
        "joined_ship_date": "1863-01-06",
        "joined_at_port": "aberystwyth",
        "capacity": "boy",
        "date_left": "blk",
        "left_port": "blk",
        "cause_of_leaving": "remains on board",
        "sign_with_mark": "n",
        "notes": "blk"
    },
    {
        "id": "vtls004632440_0_12",
        "type": "sailor",
        "parent": "vtls004632440",
        "name": "john thomas",
        "dob": "blk",
        "age": "18",
        "place_of_birth": "aberystwyth",
        "home_address": "blk",
        "f": "blk",
        "name_of_ship": "candace",
        "ship_port": "aberystwyth",
        "date_leaving": "blk",
        "joined_ship_date": "1863-01-06",
        "joined_at_port": "aberystwyth",
        "capacity": "mate",
        "date_left": "blk",
        "left_port": "blk",
        "cause_of_leaving": "remains on board",
        "sign_with_mark": "n",
        "notes": "blk"
    },
    {
        "id": "vtls004632444_0_11",
        "type": "sailor",
        "parent": "vtls004632444",
        "name": "william rodgers",
        "dob": "blk",
        "age": "41",
        "place_of_birth": "llanelly",
        "home_address": "llanelly",
        "f": "llanelly",
        "name_of_ship": "candace",
        "ship_port": "aberystwyth",
        "date_leaving": "1866-12-31",
        "joined_ship_date": "1867-01-01",
        "joined_at_port": "carmarthen",
        "capacity": "master",
        "date_left": "1867-06-30",
        "left_port": "liverpool",
        "cause_of_leaving": "remains on board",
        "sign_with_mark": "n",
        "notes": "although in the last record candace was 'lost' on 1863-12-03, this appears to be the same ship as it has the same official number. potentially the ship was repaired after being wrecked in st bride's bay."
    },
    {
        "id": "vtls004632444_0_13",
        "type": "sailor",
        "parent": "vtls004632444",
        "name": "david harris",
        "dob": "blk",
        "age": "14",
        "place_of_birth": "llanstryfan",
        "home_address": "blk",
        "f": "blk",
        "name_of_ship": "candace",
        "ship_port": "aberystwyth",
        "date_leaving": "1866-12-31",
        "joined_ship_date": "1867-01-01",
        "joined_at_port": "carmarthen",
        "capacity": "able seaman",
        "date_left": "1867-06-30",
        "left_port": "liverpool",
        "cause_of_leaving": "remains on board",
        "sign_with_mark": "n",
        "notes": "llanstryfan possibly refers to llansteffan, carmarthenshire. capacity may be given as ob rather than ab so could also be ordinary seaman."
    },
    {
        "id": "vtls004632440_1_14",
        "type": "sailor",
        "parent": "vtls004632440",
        "name": "thomas richards",
        "dob": "blk",
        "age": "14",
        "place_of_birth": "aberystwyth",
        "home_address": "blk",
        "f": "blk",
        "name_of_ship": "jane",
        "ship_port": "aberystwyth",
        "date_leaving": "1863-07",
        "joined_ship_date": "1863-07",
        "joined_at_port": "newport",
        "capacity": "seaman",
        "date_left": "1863-12-03",
        "left_port": "st. brides bay",
        "cause_of_leaving": "vessel lost crew saved",
        "sign_with_mark": "n",
        "notes": "previous vessel could be june, but there are none registered at aberystwyth in 1860, though there are three called jane."
    },
    {
        "id": "vtls004632474_0_11",
        "type": "sailor",
        "parent": "vtls004632474",
        "name": "david evans",
        "dob": "blk",
        "age": "32",
        "place_of_birth": "aberdovey",
        "home_address": "aberdovey",
        "f": "aberdovey",
        "name_of_ship": "sarah",
        "ship_port": "aberdovey",
        "date_leaving": "1868-02-04",
        "joined_ship_date": "1868-03-14",
        "joined_at_port": "milford",
        "capacity": "master",
        "date_left": "blk",
        "left_port": "blk",
        "cause_of_leaving": "remains on board",
        "sign_with_mark": "n",
        "notes": "a sarah is registered at aberystwyth in 1860, which may have be the one referred to here."
    },
    {
        "id": "vtls004632474_1_11",
        "type": "sailor",
        "parent": "vtls004632474",
        "name": "thomas evans",
        "dob": "blk",
        "age": "55",
        "place_of_birth": "aberdovey",
        "home_address": "aberdovey",
        "f": "aberdovey",
        "name_of_ship": "candace",
        "ship_port": "aberystwyth",
        "date_leaving": "blk",
        "joined_ship_date": "1868-05-16",
        "joined_at_port": "milford",
        "capacity": "master",
        "date_left": "blk",
        "left_port": "blk",
        "cause_of_leaving": "remains on board",
        "sign_with_mark": "n",
        "notes": "thomas evans is the ship owner."
    },
    {
        "id": "vtls004632444_0_12",
        "type": "sailor",
        "parent": "vtls004632444",
        "name": "john lewis",
        "dob": "blk",
        "age": "40",
        "place_of_birth": "carmarthen",
        "home_address": "blk",
        "f": "blk",
        "name_of_ship": "candace",
        "ship_port": "aberystwyth",
        "date_leaving": "1866-12-31",
        "joined_ship_date": "1867-01-01",
        "joined_at_port": "carmarthen",
        "capacity": "mate",
        "date_left": "1867-06-30",
        "left_port": "liverpool",
        "cause_of_leaving": "remains on board",
        "sign_with_mark": "n",
        "notes": "blk"
    },
    {
        "id": "vtls004632474_0_12",
        "type": "sailor",
        "parent": "vtls004632474",
        "name": "thomas evans",
        "dob": "blk",
        "age": "46",
        "place_of_birth": "aberdovey",
        "home_address": "blk",
        "f": "blk",
        "name_of_ship": "sarah",
        "ship_port": "aberdovey",
        "date_leaving": "1868-02-04",
        "joined_ship_date": "1868-03-14",
        "joined_at_port": "milford",
        "capacity": "mate",
        "date_left": "blk",
        "left_port": "blk",
        "cause_of_leaving": "remains on board",
        "sign_with_mark": "n",
        "notes": "thomas evans is ship owner."
    },
    {
        "id": "vtls004632474_0_13",
        "type": "sailor",
        "parent": "vtls004632474",
        "name": "philip evans",
        "dob": "blk",
        "age": "22",
        "place_of_birth": "aberdovey",
        "home_address": "blk",
        "f": "blk",
        "name_of_ship": "sarah",
        "ship_port": "aberdovey",
        "date_leaving": "1868-02-04",
        "joined_ship_date": "1868-03-14",
        "joined_at_port": "milford",
        "capacity": "able seaman",
        "date_left": "blk",
        "left_port": "blk",
        "cause_of_leaving": "remains on board",
        "sign_with_mark": "n",
        "notes": "blk"
    },
    {
        "id": "vtls004632482_1_11",
        "type": "sailor",
        "parent": "vtls004632482",
        "name": "david evans",
        "dob": "blk",
        "age": "45",
        "place_of_birth": "aberystwyth",
        "home_address": "aberdovey",
        "f": "aberdovey",
        "name_of_ship": "candace",
        "ship_port": "aberystwyth",
        "date_leaving": "1869-06-30",
        "joined_ship_date": "1869-07-01",
        "joined_at_port": "at sea",
        "capacity": "master",
        "date_left": "1869-12-31",
        "left_port": "at sea",
        "cause_of_leaving": "remains on board",
        "sign_with_mark": "n",
        "notes": "includes form declaring the cause of delay in delivering the half-yearly list due to 'being at sea'. ship owner: thomas evans, aberystwith"
    },
    {
        "id": "vtls004632482_1_12",
        "type": "sailor",
        "parent": "vtls004632482",
        "name": "timothy thomas",
        "dob": "blk",
        "age": "50",
        "place_of_birth": "towyn",
        "home_address": "blk",
        "f": "blk",
        "name_of_ship": "unknown",
        "ship_port": "blk",
        "date_leaving": "1869-06-30",
        "joined_ship_date": "1869-07-01",
        "joined_at_port": "at sea",
        "capacity": "mate",
        "date_left": "1869-12-31",
        "left_port": "at sea",
        "cause_of_leaving": "remains on board",
        "sign_with_mark": "n",
        "notes": "unknown is written and crossed out as is ditto. timothy thomas was not on the previous account of voyages."
    },
    {
        "id": "vtls004632482_0_12",
        "type": "sailor",
        "parent": "vtls004632482",
        "name": "john roberts",
        "dob": "blk",
        "age": "40",
        "place_of_birth": "portmadoc",
        "home_address": "blk",
        "f": "blk",
        "name_of_ship": "eliza jane",
        "ship_port": "portmadoc",
        "date_leaving": "1869-05",
        "joined_ship_date": "1869-05",
        "joined_at_port": "portmadoc",
        "capacity": "mate",
        "date_left": "blk",
        "left_port": "blk",
        "cause_of_leaving": "remains on board",
        "sign_with_mark": "n",
        "notes": "possible ships called eliza jane were registered at caernarfon and beaumaris in 1870"
    },
    {
        "id": "vtls004632474_1_12",
        "type": "sailor",
        "parent": "vtls004632474",
        "name": "benjamin thomas",
        "dob": "blk",
        "age": "30",
        "place_of_birth": "carmarthen",
        "home_address": "blk",
        "f": "blk",
        "name_of_ship": "eliza",
        "ship_port": "carmarthen",
        "date_leaving": "1868-07-01",
        "joined_ship_date": "1868-07-20",
        "joined_at_port": "cork",
        "capacity": "mate",
        "date_left": "1868-12-12",
        "left_port": "aberdovey",
        "cause_of_leaving": "discharged",
        "sign_with_mark": "n",
        "notes": "the eliza may have been registered at llanelli in 1860"
    },
    {
        "id": "vtls004632482_0_11",
        "type": "sailor",
        "parent": "vtls004632482",
        "name": "thomas evans",
        "dob": "blk",
        "age": "55",
        "place_of_birth": "aberdovey",
        "home_address": "aberdovey",
        "f": "aberdovey",
        "name_of_ship": "candace",
        "ship_port": "aberystwyth",
        "date_leaving": "blk",
        "joined_ship_date": "1867",
        "joined_at_port": "milford",
        "capacity": "master",
        "date_left": "blk",
        "left_port": "blk",
        "cause_of_leaving": "remains on board",
        "sign_with_mark": "n",
        "notes": "ship owner: thomas evans, aberdovey"
    },
    {
        "id": "vtls004632482_0_13",
        "type": "sailor",
        "parent": "vtls004632482",
        "name": "david d davies",
        "dob": "blk",
        "age": "40",
        "place_of_birth": "aberdovey",
        "home_address": "blk",
        "f": "blk",
        "name_of_ship": "candace",
        "ship_port": "aberystwyth",
        "date_leaving": "blk",
        "joined_ship_date": "1869-01",
        "joined_at_port": "gloucester",
        "capacity": "mate",
        "date_left": "1869-05",
        "left_port": "porthmadog",
        "cause_of_leaving": "paid off",
        "sign_with_mark": "n",
        "notes": "blk"
    },
    {
        "id": "vtls004632482_0_14",
        "type": "sailor",
        "parent": "vtls004632482",
        "name": "evan jones",
        "dob": "blk",
        "age": "17",
        "place_of_birth": "portmadoc",
        "home_address": "blk",
        "f": "blk",
        "name_of_ship": "candace",
        "ship_port": "aberystwyth",
        "date_leaving": "blk",
        "joined_ship_date": "1869-01",
        "joined_at_port": "portmadoc",
        "capacity": "boy",
        "date_left": "blk",
        "left_port": "blk",
        "cause_of_leaving": "remains on board",
        "sign_with_mark": "n",
        "notes": "blk"
    },
    {
        "id": "vtls004632494_0_11",
        "type": "sailor",
        "parent": "vtls004632494",
        "name": "thomas evans",
        "dob": "blk",
        "age": "54",
        "place_of_birth": "co merioneth",
        "home_address": "aberdovey co merioneth",
        "f": "aberdovey co merioneth",
        "name_of_ship": "candace",
        "ship_port": "aberystwyth",
        "date_leaving": "1869-12-31",
        "joined_ship_date": "1870-01-01",
        "joined_at_port": "runcorn",
        "capacity": "master",
        "date_left": "blk",
        "left_port": "blk",
        "cause_of_leaving": "remains on board",
        "sign_with_mark": "n",
        "notes": "ship owner: thomas evans, aberdovey co merioneth"
    },
    {
        "id": "vtls004632494_0_13",
        "type": "sailor",
        "parent": "vtls004632494",
        "name": "griffith price",
        "dob": "blk",
        "age": "15",
        "place_of_birth": "caernarfon",
        "home_address": "blk",
        "f": "blk",
        "name_of_ship": "industry",
        "ship_port": "carnarvon",
        "date_leaving": "1870-02-22",
        "joined_ship_date": "1870-03-01",
        "joined_at_port": "portmadoc",
        "capacity": "ordinary seaman",
        "date_left": "1870-05-28",
        "left_port": "porthmadog",
        "cause_of_leaving": "paid off",
        "sign_with_mark": "n",
        "notes": "blk"
    },
    {
        "id": "vtls004632494_1_11",
        "type": "sailor",
        "parent": "vtls004632494",
        "name": "david evans",
        "dob": "blk",
        "age": "60",
        "place_of_birth": "aberdovey",
        "home_address": "aberdovey",
        "f": "aberdovey",
        "name_of_ship": "candace",
        "ship_port": "aberystwyth",
        "date_leaving": "1870-06-30",
        "joined_ship_date": "1870-07-01",
        "joined_at_port": "portmadoc",
        "capacity": "master",
        "date_left": "1870-12-31",
        "left_port": "dublin",
        "cause_of_leaving": "remains on board",
        "sign_with_mark": "n",
        "notes": "blk"
    },
    {
        "id": "vtls004632494_0_12",
        "type": "sailor",
        "parent": "vtls004632494",
        "name": "timothy thomas",
        "dob": "blk",
        "age": "50",
        "place_of_birth": "co merioneth",
        "home_address": "blk",
        "f": "blk",
        "name_of_ship": "candace",
        "ship_port": "aberystwyth",
        "date_leaving": "1869-12-31",
        "joined_ship_date": "1870-01-01",
        "joined_at_port": "runcorn",
        "capacity": "mate",
        "date_left": "1870-05-28",
        "left_port": "porthmadog",
        "cause_of_leaving": "paid off",
        "sign_with_mark": "n",
        "notes": "blk"
    },
    {
        "id": "vtls004632494_0_15",
        "type": "sailor",
        "parent": "vtls004632494",
        "name": "richard jones",
        "dob": "blk",
        "age": "15",
        "place_of_birth": "co merioneth",
        "home_address": "blk",
        "f": "blk",
        "name_of_ship": "first voyage",
        "ship_port": "blk",
        "date_leaving": "blk",
        "joined_ship_date": "1870-06-13",
        "joined_at_port": "portmadoc",
        "capacity": "ordinary seaman",
        "date_left": "1870-06-30",
        "left_port": "porthmadog",
        "cause_of_leaving": "paid off",
        "sign_with_mark": "n",
        "notes": "blk"
    },
    {
        "id": "vtls004632482_1_13",
        "type": "sailor",
        "parent": "vtls004632482",
        "name": "john roberts",
        "dob": "blk",
        "age": "45",
        "place_of_birth": "pwllheli",
        "home_address": "blk",
        "f": "blk",
        "name_of_ship": "candace",
        "ship_port": "aberystwyth",
        "date_leaving": "1869-06-30",
        "joined_ship_date": "1869-07-01",
        "joined_at_port": "at sea",
        "capacity": "seaman",
        "date_left": "1869-12-31",
        "left_port": "at sea",
        "cause_of_leaving": "remains on board",
        "sign_with_mark": "n",
        "notes": "blk"
    },
    {
        "id": "vtls004632494_1_12",
        "type": "sailor",
        "parent": "vtls004632494",
        "name": "william hughes",
        "dob": "blk",
        "age": "30",
        "place_of_birth": "portmadoc",
        "home_address": "blk",
        "f": "blk",
        "name_of_ship": "candace",
        "ship_port": "aberystwyth",
        "date_leaving": "1870-06-30",
        "joined_ship_date": "1870-07-01",
        "joined_at_port": "portmadoc",
        "capacity": "mate",
        "date_left": "1870-12-21",
        "left_port": "llanelli",
        "cause_of_leaving": "discharged",
        "sign_with_mark": "n",
        "notes": "blk"
    },
    {
        "id": "vtls004632494_0_14",
        "type": "sailor",
        "parent": "vtls004632494",
        "name": "william humphrys",
        "dob": "blk",
        "age": "30",
        "place_of_birth": "caernarfon",
        "home_address": "blk",
        "f": "blk",
        "name_of_ship": "endeavour",
        "ship_port": "carnarvon",
        "date_leaving": "1870-06-09",
        "joined_ship_date": "1870-06-13",
        "joined_at_port": "portmadoc",
        "capacity": "mate",
        "date_left": "blk",
        "left_port": "blk",
        "cause_of_leaving": "remains on board",
        "sign_with_mark": "n",
        "notes": "blk"
    },
    {
        "id": "vtls004632482_1_14",
        "type": "sailor",
        "parent": "vtls004632482",
        "name": "john roberts",
        "dob": "blk",
        "age": "16",
        "place_of_birth": "pwllheli",
        "home_address": "blk",
        "f": "blk",
        "name_of_ship": "candace",
        "ship_port": "aberystwyth",
        "date_leaving": "1869-06-30",
        "joined_ship_date": "1869-07-01",
        "joined_at_port": "at sea",
        "capacity": "boy",
        "date_left": "1869-12-31",
        "left_port": "at sea",
        "cause_of_leaving": "remains on board",
        "sign_with_mark": "n",
        "notes": "blk"
    },
    {
        "id": "vtls004632509_1_11",
        "type": "sailor",
        "parent": "vtls004632509",
        "name": "thomas evans",
        "dob": "blk",
        "age": "58",
        "place_of_birth": "co. cardigan",
        "home_address": "glandovy",
        "f": "glandovy",
        "name_of_ship": "candace",
        "ship_port": "aberystwyth",
        "date_leaving": "1871-07-17",
        "joined_ship_date": "1871-07-17",
        "joined_at_port": "bristol",
        "capacity": "master",
        "date_left": "1871-11-27",
        "left_port": "porthmadog",
        "cause_of_leaving": "paid off",
        "sign_with_mark": "y",
        "notes": "thomas evans is also the ship owner. includes a letter from thomas evans explaining lateness in sending account of voyages due to the ship being laid up for the winter."
    },
    {
        "id": "vtls004632509_0_13",
        "type": "sailor",
        "parent": "vtls004632509",
        "name": "george breeman",
        "dob": "blk",
        "age": "15",
        "place_of_birth": "pt madock",
        "home_address": "blk",
        "f": "blk",
        "name_of_ship": "cand$$",
        "ship_port": "blk",
        "date_leaving": "1870-12-18",
        "joined_ship_date": "1871-01-02",
        "joined_at_port": "pt madock",
        "capacity": "boy",
        "date_left": "blk",
        "left_port": "blk",
        "cause_of_leaving": "remains on board",
        "sign_with_mark": "n",
        "notes": "last ship could be candace but george breeman does not appear on the previous voyage."
    },
    {
        "id": "vtls004632509_0_12",
        "type": "sailor",
        "parent": "vtls004632509",
        "name": "owen owens",
        "dob": "blk",
        "age": "35",
        "place_of_birth": "porthmadog",
        "home_address": "blk",
        "f": "blk",
        "name_of_ship": "new dove",
        "ship_port": "blk",
        "date_leaving": "1870-12-04",
        "joined_ship_date": "1871-01-01",
        "joined_at_port": "pt madock",
        "capacity": "mate",
        "date_left": "blk",
        "left_port": "blk",
        "cause_of_leaving": "remains on board",
        "sign_with_mark": "n",
        "notes": "last ship could be new dove registered to caernarfon 1870"
    },
    {
        "id": "vtls004632509_0_11",
        "type": "sailor",
        "parent": "vtls004632509",
        "name": "thomas evans",
        "dob": "blk",
        "age": "54",
        "place_of_birth": "cardigan",
        "home_address": "aberdovey",
        "f": "aberdovey",
        "name_of_ship": "sarah",
        "ship_port": "blk",
        "date_leaving": "1868-03-03",
        "joined_ship_date": "1868-03-08",
        "joined_at_port": "milford",
        "capacity": "master",
        "date_left": "blk",
        "left_port": "blk",
        "cause_of_leaving": "remains on board",
        "sign_with_mark": "n",
        "notes": "ship owners: thomas and david evans, aberdovey."
    },
    {
        "id": "vtls004632494_1_15",
        "type": "sailor",
        "parent": "vtls004632494",
        "name": "george bowen",
        "dob": "blk",
        "age": "22",
        "place_of_birth": "pembroke",
        "home_address": "blk",
        "f": "blk",
        "name_of_ship": "first voyage",
        "ship_port": "blk",
        "date_leaving": "1868-09-15",
        "joined_ship_date": "1870-12-24",
        "joined_at_port": "llanelly",
        "capacity": "boy",
        "date_left": "1870-12-31",
        "left_port": "dublin",
        "cause_of_leaving": "remains on board",
        "sign_with_mark": "n",
        "notes": "blk"
    },
    {
        "id": "vtls004632494_1_14",
        "type": "sailor",
        "parent": "vtls004632494",
        "name": "thomas davies",
        "dob": "blk",
        "age": "55",
        "place_of_birth": "newport",
        "home_address": "blk",
        "f": "blk",
        "name_of_ship": "mison",
        "ship_port": "new york",
        "date_leaving": "1868-09-15",
        "joined_ship_date": "1870-12-24",
        "joined_at_port": "llanelly",
        "capacity": "mate",
        "date_left": "1870-12-31",
        "left_port": "dublin",
        "cause_of_leaving": "remains on board",
        "sign_with_mark": "n",
        "notes": "blk"
    },
    {
        "id": "vtls004632494_1_13",
        "type": "sailor",
        "parent": "vtls004632494",
        "name": "john jones",
        "dob": "blk",
        "age": "15",
        "place_of_birth": "pwllheli",
        "home_address": "blk",
        "f": "blk",
        "name_of_ship": "candace",
        "ship_port": "aberystwyth",
        "date_leaving": "1870-06-30",
        "joined_ship_date": "1870-07-01",
        "joined_at_port": "portmadoc",
        "capacity": "boy",
        "date_left": "1870-12-21",
        "left_port": "llanelli",
        "cause_of_leaving": "discharged",
        "sign_with_mark": "n",
        "notes": "blk"
    },
    {
        "id": "vtls004632526_0_12",
        "type": "sailor",
        "parent": "vtls004632526",
        "name": "william evans",
        "dob": "blk",
        "age": "35",
        "place_of_birth": "co. cardigan",
        "home_address": "blk",
        "f": "blk",
        "name_of_ship": "ann",
        "ship_port": "portmadoc",
        "date_leaving": "1872-02-09",
        "joined_ship_date": "1872-04-01",
        "joined_at_port": "portmadoc",
        "capacity": "mate",
        "date_left": "1872-06-30",
        "left_port": "porthmadog",
        "cause_of_leaving": "remains on board",
        "sign_with_mark": "n",
        "notes": "ann could be registered to caernarfon 1870."
    },
    {
        "id": "vtls004632526_1_11",
        "type": "sailor",
        "parent": "vtls004632526",
        "name": "thomas evans",
        "dob": "blk",
        "age": "58",
        "place_of_birth": "county cardigan",
        "home_address": "glandovey",
        "f": "glandovey",
        "name_of_ship": "candace",
        "ship_port": "aberystwyh",
        "date_leaving": "blk",
        "joined_ship_date": "blk",
        "joined_at_port": "blk",
        "capacity": "master",
        "date_left": "blk",
        "left_port": "blk",
        "cause_of_leaving": "remains on board",
        "sign_with_mark": "n",
        "notes": "thomas evans is also the owner of the ship."
    },
    {
        "id": "vtls004632526_0_11",
        "type": "sailor",
        "parent": "vtls004632526",
        "name": "thomas evans",
        "dob": "blk",
        "age": "53",
        "place_of_birth": "co. cardigan",
        "home_address": "glandovy",
        "f": "glandovy",
        "name_of_ship": "candace",
        "ship_port": "aberystwyth",
        "date_leaving": "1871-12-30",
        "joined_ship_date": "1872-04-01",
        "joined_at_port": "portmadoc",
        "capacity": "master",
        "date_left": "1872-06-30",
        "left_port": "porthmadog",
        "cause_of_leaving": "remains on board",
        "sign_with_mark": "n",
        "notes": "blk"
    },
    {
        "id": "vtls004632533_0_12",
        "type": "sailor",
        "parent": "vtls004632533",
        "name": "john ball",
        "dob": "blk",
        "age": "67",
        "place_of_birth": "greenock",
        "home_address": "blk",
        "f": "blk",
        "name_of_ship": "runner to newry",
        "ship_port": "blk",
        "date_leaving": "blk",
        "joined_ship_date": "blk",
        "joined_at_port": "blk",
        "capacity": "able seaman",
        "date_left": "1874-02-20",
        "left_port": "newry",
        "cause_of_leaving": "paid off",
        "sign_with_mark": "n",
        "notes": "previous ship not given. temporary crew member."
    },
    {
        "id": "vtls004632533_0_11",
        "type": "sailor",
        "parent": "vtls004632533",
        "name": "thomas evans",
        "dob": "blk",
        "age": "61",
        "place_of_birth": "aberdovey",
        "home_address": "aberdovey",
        "f": "aberdovey",
        "name_of_ship": "candace",
        "ship_port": "aberystwyth",
        "date_leaving": "blk",
        "joined_ship_date": "blk",
        "joined_at_port": "blk",
        "capacity": "master",
        "date_left": "blk",
        "left_port": "blk",
        "cause_of_leaving": "remains on board",
        "sign_with_mark": "n",
        "notes": "thomas evans is also the ship owner."
    },
    {
        "id": "vtls004632509_1_12",
        "type": "sailor",
        "parent": "vtls004632509",
        "name": "owen owens",
        "dob": "blk",
        "age": "32",
        "place_of_birth": "co merioneth",
        "home_address": "blk",
        "f": "blk",
        "name_of_ship": "candace",
        "ship_port": "aberystwyth",
        "date_leaving": "1871-07-17",
        "joined_ship_date": "1871-07-17",
        "joined_at_port": "bristol",
        "capacity": "mate",
        "date_left": "1871-11-27",
        "left_port": "porthmadog",
        "cause_of_leaving": "paid off",
        "sign_with_mark": "n",
        "notes": "blk"
    },
    {
        "id": "vtls004632526_1_12",
        "type": "sailor",
        "parent": "vtls004632526",
        "name": "william evans",
        "dob": "blk",
        "age": "35",
        "place_of_birth": "county cardigan",
        "home_address": "blk",
        "f": "blk",
        "name_of_ship": "ann",
        "ship_port": "carnarvon",
        "date_leaving": "1872-07-07",
        "joined_ship_date": "1872-07-29",
        "joined_at_port": "portmadoc",
        "capacity": "mate",
        "date_left": "1872-09-21",
        "left_port": "p. madoc",
        "cause_of_leaving": "paid off",
        "sign_with_mark": "n",
        "notes": "blk"
    },
    {
        "id": "vtls004632526_1_13",
        "type": "sailor",
        "parent": "vtls004632526",
        "name": "john jones",
        "dob": "blk",
        "age": "30",
        "place_of_birth": "merioneth",
        "home_address": "blk",
        "f": "blk",
        "name_of_ship": "fly",
        "ship_port": "new york",
        "date_leaving": "1872-07-09",
        "joined_ship_date": "1872-09-29",
        "joined_at_port": "portmadoc",
        "capacity": "mate",
        "date_left": "1872-12-14",
        "left_port": "p. madoc",
        "cause_of_leaving": "paid off",
        "sign_with_mark": "n",
        "notes": "blk"
    },
    {
        "id": "vtls004632533_1_11",
        "type": "sailor",
        "parent": "vtls004632533",
        "name": "thomas evans",
        "dob": "blk",
        "age": "61",
        "place_of_birth": "portmadoc",
        "home_address": "merionith aberdovey",
        "f": "merionith aberdovey",
        "name_of_ship": "candace",
        "ship_port": "aberystwyth",
        "date_leaving": "1874-06-30",
        "joined_ship_date": "1874-07-01",
        "joined_at_port": "portmadoc",
        "capacity": "master",
        "date_left": "1874-12-31",
        "left_port": "dublin",
        "cause_of_leaving": "remains on board",
        "sign_with_mark": "n",
        "notes": "thomas evans is also the ship owner."
    },
    {
        "id": "vtls004632536_0_11",
        "type": "sailor",
        "parent": "vtls004632536",
        "name": "lewis jones",
        "dob": "blk",
        "age": "42",
        "place_of_birth": "co merioneth",
        "home_address": "lombard st portmadoc",
        "f": "lombard st portmadoc",
        "name_of_ship": "candace",
        "ship_port": "aberystwyth",
        "date_leaving": "blk",
        "joined_ship_date": "blk",
        "joined_at_port": "blk",
        "capacity": "master",
        "date_left": "blk",
        "left_port": "blk",
        "cause_of_leaving": "remains on board",
        "sign_with_mark": "n",
        "notes": "voyage dates: 1876-01-01 to 1876-06-30. lewis jones is also the ship owner."
    },
    {
        "id": "vtls004632533_0_14",
        "type": "sailor",
        "parent": "vtls004632533",
        "name": "thomas james",
        "dob": "blk",
        "age": "31",
        "place_of_birth": "newport",
        "home_address": "blk",
        "f": "blk",
        "name_of_ship": "runner to pwllheli",
        "ship_port": "blk",
        "date_leaving": "blk",
        "joined_ship_date": "blk",
        "joined_at_port": "blk",
        "capacity": "able seaman",
        "date_left": "1874-06-18",
        "left_port": "pwllheli",
        "cause_of_leaving": "paid off",
        "sign_with_mark": "n",
        "notes": "previous ship not given. temporary crew member."
    },
    {
        "id": "vtls004632533_0_13",
        "type": "sailor",
        "parent": "vtls004632533",
        "name": "patrick o'brian",
        "dob": "blk",
        "age": "30",
        "place_of_birth": "newry",
        "home_address": "blk",
        "f": "blk",
        "name_of_ship": "runner to newport",
        "ship_port": "blk",
        "date_leaving": "blk",
        "joined_ship_date": "blk",
        "joined_at_port": "blk",
        "capacity": "able seaman",
        "date_left": "1874-06-01",
        "left_port": "newport",
        "cause_of_leaving": "paid off",
        "sign_with_mark": "n",
        "notes": "previous ship not given. temporary crew member."
    },
    {
        "id": "vtls004632533_1_12",
        "type": "sailor",
        "parent": "vtls004632533",
        "name": "hugh ellis",
        "dob": "blk",
        "age": "52",
        "place_of_birth": "portmadoc",
        "home_address": "blk",
        "f": "blk",
        "name_of_ship": "candace",
        "ship_port": "aberystwyth",
        "date_leaving": "1874-06-30",
        "joined_ship_date": "1874-07-01",
        "joined_at_port": "portmadoc",
        "capacity": "mate",
        "date_left": "1874-12-31",
        "left_port": "dublin",
        "cause_of_leaving": "discharged",
        "sign_with_mark": "n",
        "notes": "blk"
    },
    {
        "id": "vtls004632533_1_13",
        "type": "sailor",
        "parent": "vtls004632533",
        "name": "john jones",
        "dob": "blk",
        "age": "19",
        "place_of_birth": "portmadoc",
        "home_address": "blk",
        "f": "blk",
        "name_of_ship": "candace",
        "ship_port": "aberystwyth",
        "date_leaving": "1874-06-30",
        "joined_ship_date": "1874-07-01",
        "joined_at_port": "portmadoc",
        "capacity": "boy",
        "date_left": "1874-12-31",
        "left_port": "dublin",
        "cause_of_leaving": "discharged",
        "sign_with_mark": "n",
        "notes": "blk"
    },
    {
        "id": "vtls004632536_0_12",
        "type": "sailor",
        "parent": "vtls004632536",
        "name": "john edwards",
        "dob": "blk",
        "age": "43",
        "place_of_birth": "co merioneth",
        "home_address": "blk",
        "f": "blk",
        "name_of_ship": "candace",
        "ship_port": "aberystwyth",
        "date_leaving": "blk",
        "joined_ship_date": "blk",
        "joined_at_port": "blk",
        "capacity": "mate",
        "date_left": "blk",
        "left_port": "blk",
        "cause_of_leaving": "remains on board",
        "sign_with_mark": "n",
        "notes": "blk"
    },
    {
        "id": "vtls004632536_1_11",
        "type": "sailor",
        "parent": "vtls004632536",
        "name": "lewis jones",
        "dob": "blk",
        "age": "42",
        "place_of_birth": "co merioneth",
        "home_address": "lombard st portmadoc",
        "f": "lombard st portmadoc",
        "name_of_ship": "candace",
        "ship_port": "aberystwyth",
        "date_leaving": "1876",
        "joined_ship_date": "1876-07-08",
        "joined_at_port": "portmadoc",
        "capacity": "master",
        "date_left": "1876-12-31",
        "left_port": "porthmadog",
        "cause_of_leaving": "remains on board",
        "sign_with_mark": "n",
        "notes": "lewis jones is the ship owner."
    },
    {
        "id": "vtls004632536_1_13",
        "type": "sailor",
        "parent": "vtls004632536",
        "name": "griffith owen",
        "dob": "blk",
        "age": "19",
        "place_of_birth": "co merioneth",
        "home_address": "blk",
        "f": "blk",
        "name_of_ship": "ann morgan",
        "ship_port": "carnarvon",
        "date_leaving": "1876",
        "joined_ship_date": "1876-07-08",
        "joined_at_port": "portmadoc",
        "capacity": "ordinary seaman",
        "date_left": "1876-12-31",
        "left_port": "porthmadog",
        "cause_of_leaving": "remains on board",
        "sign_with_mark": "n",
        "notes": "blk"
    },
    {
        "id": "vtls004632536_0_14",
        "type": "sailor",
        "parent": "vtls004632536",
        "name": "john thomas",
        "dob": "blk",
        "age": "18",
        "place_of_birth": "co merioneth",
        "home_address": "blk",
        "f": "blk",
        "name_of_ship": "joseph brindley",
        "ship_port": "carnarvon",
        "date_leaving": "1876",
        "joined_ship_date": "1876-05-02",
        "joined_at_port": "portmadoc",
        "capacity": "ordinary seaman",
        "date_left": "blk",
        "left_port": "blk",
        "cause_of_leaving": "remains on board",
        "sign_with_mark": "n",
        "notes": "blk"
    },
    {
        "id": "vtls004632536_1_12",
        "type": "sailor",
        "parent": "vtls004632536",
        "name": "john edwards",
        "dob": "blk",
        "age": "43",
        "place_of_birth": "co merioneth",
        "home_address": "blk",
        "f": "blk",
        "name_of_ship": "candace",
        "ship_port": "aberystwyth",
        "date_leaving": "1876",
        "joined_ship_date": "1876-07-08",
        "joined_at_port": "portmadoc",
        "capacity": "mate",
        "date_left": "1876-12-31",
        "left_port": "porthmadog",
        "cause_of_leaving": "remains on board",
        "sign_with_mark": "n",
        "notes": "blk"
    },
    {
        "id": "vtls004632536_0_13",
        "type": "sailor",
        "parent": "vtls004632536",
        "name": "owen thomas",
        "dob": "blk",
        "age": "17",
        "place_of_birth": "caernarfon",
        "home_address": "blk",
        "f": "blk",
        "name_of_ship": "candace",
        "ship_port": "aberystwyth",
        "date_leaving": "blk",
        "joined_ship_date": "blk",
        "joined_at_port": "blk",
        "capacity": "ordinary seaman",
        "date_left": "1876-05-01",
        "left_port": "porthmadog",
        "cause_of_leaving": "discharged",
        "sign_with_mark": "n",
        "notes": "blk"
    }
]