[
    {
        "id": "vtls004626127_1_13",
        "type": "sailor",
        "parent": "vtls004626127",
        "name": "james davies",
        "dob": "blk",
        "age": "19",
        "place_of_birth": "aberystwyth",
        "home_address": "blk",
        "f": "blk",
        "name_of_ship": "energy",
        "ship_port": "aberystwyth",
        "date_leaving": "1863-06-28",
        "joined_ship_date": "1863-07-01",
        "joined_at_port": "aberystwyth",
        "capacity": "ordinary seaman",
        "date_left": "1863-11-15",
        "left_port": "aberystwyth",
        "cause_of_leaving": "discharged",
        "sign_with_mark": "n",
        "notes": "blk"
    },
    {
        "id": "vtls004626127_1_14",
        "type": "sailor",
        "parent": "vtls004626127",
        "name": "richard williams",
        "dob": "blk",
        "age": "13",
        "place_of_birth": "aberystwyth",
        "home_address": "blk",
        "f": "blk",
        "name_of_ship": "ann & betsey",
        "ship_port": "aberystwyth",
        "date_leaving": "1869-06-26",
        "joined_ship_date": "1863-07-01",
        "joined_at_port": "aberystwyth",
        "capacity": "boy",
        "date_left": "1863-11-15",
        "left_port": "aberystwyth",
        "cause_of_leaving": "discharged",
        "sign_with_mark": "n",
        "notes": "blk"
    },
    {
        "id": "vtls004626127_1_11",
        "type": "sailor",
        "parent": "vtls004626127",
        "name": "james hughes",
        "dob": "blk",
        "age": "32",
        "place_of_birth": "aberystwyth",
        "home_address": "aberystwyth",
        "f": "aberystwyth",
        "name_of_ship": "bee",
        "ship_port": "aberystwyth",
        "date_leaving": "continued",
        "joined_ship_date": "1862",
        "joined_at_port": "aberystwyth",
        "capacity": "master",
        "date_left": "1864-01-22",
        "left_port": "swansea",
        "cause_of_leaving": "remains on board",
        "sign_with_mark": "n",
        "notes": "blk"
    },
    {
        "id": "vtls004626127_0_12",
        "type": "sailor",
        "parent": "vtls004626127",
        "name": "william edwards",
        "dob": "blk",
        "age": "28",
        "place_of_birth": "aberystwyth",
        "home_address": "blk",
        "f": "blk",
        "name_of_ship": "two sisters",
        "ship_port": "aberystwyth",
        "date_leaving": "1862-12",
        "joined_ship_date": "1863-02-[12]",
        "joined_at_port": "aberystwyth",
        "capacity": "mate",
        "date_left": "blk",
        "left_port": "blk",
        "cause_of_leaving": "remains on board",
        "sign_with_mark": "n",
        "notes": "blk"
    },
    {
        "id": "vtls004626127_0_11",
        "type": "sailor",
        "parent": "vtls004626127",
        "name": "james hughes",
        "dob": "blk",
        "age": "31",
        "place_of_birth": "aberystwyth",
        "home_address": "high street, aberystwyth",
        "f": "high street, aberystwyth",
        "name_of_ship": "bee",
        "ship_port": "aberystwyth",
        "date_leaving": "still on board",
        "joined_ship_date": "blk",
        "joined_at_port": "blk",
        "capacity": "master",
        "date_left": "blk",
        "left_port": "blk",
        "cause_of_leaving": "remains on board",
        "sign_with_mark": "n",
        "notes": "blk"
    },
    {
        "id": "vtls004626133_0_11",
        "type": "sailor",
        "parent": "vtls004626133",
        "name": "james hughes",
        "dob": "blk",
        "age": "33",
        "place_of_birth": "aberystwyth",
        "home_address": "high street, aberystwyth",
        "f": "high street, aberystwyth",
        "name_of_ship": "bee",
        "ship_port": "aberystwyth",
        "date_leaving": "still on board",
        "joined_ship_date": "blk",
        "joined_at_port": "blk",
        "capacity": "master",
        "date_left": "blk",
        "left_port": "blk",
        "cause_of_leaving": "remains on board",
        "sign_with_mark": "n",
        "notes": "blk"
    },
    {
        "id": "vtls004626127_1_12",
        "type": "sailor",
        "parent": "vtls004626127",
        "name": "william edwards",
        "dob": "blk",
        "age": "28",
        "place_of_birth": "aberystwyth",
        "home_address": "blk",
        "f": "blk",
        "name_of_ship": "bee",
        "ship_port": "aberystwyth",
        "date_leaving": "continued",
        "joined_ship_date": "1863-03",
        "joined_at_port": "aberystwyth",
        "capacity": "mate",
        "date_left": "1863-11-15",
        "left_port": "aberystwyth",
        "cause_of_leaving": "discharged",
        "sign_with_mark": "n",
        "notes": "blk"
    },
    {
        "id": "vtls004626127_0_13",
        "type": "sailor",
        "parent": "vtls004626127",
        "name": "john morgans",
        "dob": "blk",
        "age": "18",
        "place_of_birth": "aberystwyth",
        "home_address": "blk",
        "f": "blk",
        "name_of_ship": "jane davies",
        "ship_port": "aberystwyth",
        "date_leaving": "1862-12",
        "joined_ship_date": "1863-02",
        "joined_at_port": "aberystwyth",
        "capacity": "seaman",
        "date_left": "blk",
        "left_port": "blk",
        "cause_of_leaving": "remains on board",
        "sign_with_mark": "n",
        "notes": "blk"
    },
    {
        "id": "vtls004626133_1_14",
        "type": "sailor",
        "parent": "vtls004626133",
        "name": "william mathias",
        "dob": "blk",
        "age": "24",
        "place_of_birth": "cardiganshire",
        "home_address": "blk",
        "f": "blk",
        "name_of_ship": "battus",
        "ship_port": "aberystwyth",
        "date_leaving": "1864-09-02",
        "joined_ship_date": "1864-09-23",
        "joined_at_port": "porthmadog",
        "capacity": "mate",
        "date_left": "1864-12-21",
        "left_port": "barmouth",
        "cause_of_leaving": "paid off",
        "sign_with_mark": "n",
        "notes": "blk"
    },
    {
        "id": "vtls004626133_1_12",
        "type": "sailor",
        "parent": "vtls004626133",
        "name": "william edwards",
        "dob": "blk",
        "age": "60",
        "place_of_birth": "cardiganshire",
        "home_address": "blk",
        "f": "blk",
        "name_of_ship": "bee",
        "ship_port": "aberystwyth",
        "date_leaving": "1864-06-30",
        "joined_ship_date": "1864-07-01",
        "joined_at_port": "aberystwyth",
        "capacity": "mate",
        "date_left": "1864-09-22",
        "left_port": "porthmadog",
        "cause_of_leaving": "paid off",
        "sign_with_mark": "n",
        "notes": "blk"
    },
    {
        "id": "vtls004626133_1_11",
        "type": "sailor",
        "parent": "vtls004626133",
        "name": "james hughes",
        "dob": "blk",
        "age": "34",
        "place_of_birth": "cardiganshire",
        "home_address": "aberystwyth",
        "f": "aberystwyth",
        "name_of_ship": "bee",
        "ship_port": "aberystwyth",
        "date_leaving": "1864-06-30",
        "joined_ship_date": "1864-07-01",
        "joined_at_port": "aberystwyth",
        "capacity": "master",
        "date_left": "blk",
        "left_port": "blk",
        "cause_of_leaving": "remains on board",
        "sign_with_mark": "n",
        "notes": "blk"
    },
    {
        "id": "vtls004626133_1_13",
        "type": "sailor",
        "parent": "vtls004626133",
        "name": "richard leek",
        "dob": "blk",
        "age": "16",
        "place_of_birth": "cardiganshire",
        "home_address": "blk",
        "f": "blk",
        "name_of_ship": "bee",
        "ship_port": "aberystwyth",
        "date_leaving": "1864-06-30",
        "joined_ship_date": "1864-07-01",
        "joined_at_port": "aberystwyth",
        "capacity": "boy",
        "date_left": "1864-12-21",
        "left_port": "barmouth",
        "cause_of_leaving": "paid off",
        "sign_with_mark": "n",
        "notes": "blk"
    },
    {
        "id": "vtls004626133_1_15",
        "type": "sailor",
        "parent": "vtls004626133",
        "name": "evan jones",
        "dob": "blk",
        "age": "17",
        "place_of_birth": "cardiganshire",
        "home_address": "blk",
        "f": "blk",
        "name_of_ship": "bee",
        "ship_port": "aberystwyth",
        "date_leaving": "1864-06-30",
        "joined_ship_date": "1864-07-01",
        "joined_at_port": "aberystwyth",
        "capacity": "boy",
        "date_left": "1864-09-18",
        "left_port": "barmouth",
        "cause_of_leaving": "paid off",
        "sign_with_mark": "n",
        "notes": "blk"
    },
    {
        "id": "vtls004626133_0_13",
        "type": "sailor",
        "parent": "vtls004626133",
        "name": "moses roberts",
        "dob": "blk",
        "age": "21",
        "place_of_birth": "anglesey",
        "home_address": "blk",
        "f": "blk",
        "name_of_ship": "bee",
        "ship_port": "aberystwyth",
        "date_leaving": "still on board",
        "joined_ship_date": "blk",
        "joined_at_port": "blk",
        "capacity": "seaman",
        "date_left": "1864-06-30",
        "left_port": "aberystwyth",
        "cause_of_leaving": "discharged",
        "sign_with_mark": "n",
        "notes": "blk"
    },
    {
        "id": "vtls004626133_0_12",
        "type": "sailor",
        "parent": "vtls004626133",
        "name": "david jenkins",
        "dob": "blk",
        "age": "25",
        "place_of_birth": "aberystwyth",
        "home_address": "blk",
        "f": "blk",
        "name_of_ship": "bee",
        "ship_port": "aberystwyth",
        "date_leaving": "still on board",
        "joined_ship_date": "blk",
        "joined_at_port": "blk",
        "capacity": "mate",
        "date_left": "1864-06-30",
        "left_port": "aberystwyth",
        "cause_of_leaving": "discharged",
        "sign_with_mark": "n",
        "notes": "blk"
    },
    {
        "id": "vtls004626165_0_11",
        "type": "sailor",
        "parent": "vtls004626165",
        "name": "james hughes",
        "dob": "blk",
        "age": "36",
        "place_of_birth": "aberystwyth",
        "home_address": "high street, aberystwyth",
        "f": "high street, aberystwyth",
        "name_of_ship": "bee",
        "ship_port": "aberystwyth",
        "date_leaving": "remained",
        "joined_ship_date": "1867-[01]",
        "joined_at_port": "aberystwyth",
        "capacity": "master",
        "date_left": "1867-06-30",
        "left_port": "poole",
        "cause_of_leaving": "remains on board",
        "sign_with_mark": "n",
        "notes": "although all crew put poole as place of leaving this ship, they all remain on board subsequently."
    },
    {
        "id": "vtls004626149_1_11",
        "type": "sailor",
        "parent": "vtls004626149",
        "name": "james hughes",
        "dob": "blk",
        "age": "35",
        "place_of_birth": "aberystwyth",
        "home_address": "high street, aberystwyth",
        "f": "high street, aberystwyth",
        "name_of_ship": "bee",
        "ship_port": "aberystwyth",
        "date_leaving": "remains",
        "joined_ship_date": "remains",
        "joined_at_port": "blk",
        "capacity": "master",
        "date_left": "blk",
        "left_port": "blk",
        "cause_of_leaving": "remains on board",
        "sign_with_mark": "n",
        "notes": "in 'date and place of discharge from such ship' and 'date and place of joining this ship' columns they had written 'previous to 1866-07-01'."
    },
    {
        "id": "vtls004626165_0_12",
        "type": "sailor",
        "parent": "vtls004626165",
        "name": "william mathews",
        "dob": "blk",
        "age": "26",
        "place_of_birth": "newquay",
        "home_address": "blk",
        "f": "blk",
        "name_of_ship": "bee",
        "ship_port": "aberystwyth",
        "date_leaving": "remained",
        "joined_ship_date": "1867-[01]",
        "joined_at_port": "aberystwyth",
        "capacity": "mate",
        "date_left": "1867-06-30",
        "left_port": "poole",
        "cause_of_leaving": "remains on board",
        "sign_with_mark": "n",
        "notes": "william's surname is down as 'mathias' in the document for the second half of the year 1867"
    },
    {
        "id": "vtls004626165_0_13",
        "type": "sailor",
        "parent": "vtls004626165",
        "name": "thomas davies",
        "dob": "blk",
        "age": "26",
        "place_of_birth": "aberystwyth",
        "home_address": "blk",
        "f": "blk",
        "name_of_ship": "bee",
        "ship_port": "aberystwyth",
        "date_leaving": "remained",
        "joined_ship_date": "1867-[01]",
        "joined_at_port": "aberystwyth",
        "capacity": "able seaman",
        "date_left": "1867-06-30",
        "left_port": "poole",
        "cause_of_leaving": "remains on board",
        "sign_with_mark": "n",
        "notes": "blk"
    },
    {
        "id": "vtls004626149_1_13",
        "type": "sailor",
        "parent": "vtls004626149",
        "name": "evan daniel",
        "dob": "blk",
        "age": "19",
        "place_of_birth": "aberystwyth",
        "home_address": "blk",
        "f": "blk",
        "name_of_ship": "bee",
        "ship_port": "aberystwyth",
        "date_leaving": "remains",
        "joined_ship_date": "remains",
        "joined_at_port": "blk",
        "capacity": "able seaman",
        "date_left": "1866-10-29",
        "left_port": "aberystwyth",
        "cause_of_leaving": "discharged",
        "sign_with_mark": "n",
        "notes": "blk"
    },
    {
        "id": "vtls004626149_1_12",
        "type": "sailor",
        "parent": "vtls004626149",
        "name": "william jenkins",
        "dob": "blk",
        "age": "24",
        "place_of_birth": "aberystwyth",
        "home_address": "blk",
        "f": "blk",
        "name_of_ship": "bee",
        "ship_port": "aberystwyth",
        "date_leaving": "remains",
        "joined_ship_date": "remains",
        "joined_at_port": "blk",
        "capacity": "mate",
        "date_left": "1866-10-29",
        "left_port": "aberystwyth",
        "cause_of_leaving": "discharged",
        "sign_with_mark": "n",
        "notes": "blk"
    },
    {
        "id": "vtls004626149_0_11",
        "type": "sailor",
        "parent": "vtls004626149",
        "name": "james hughes",
        "dob": "blk",
        "age": "36",
        "place_of_birth": "aberystwyth",
        "home_address": "aberystwyth",
        "f": "aberystwyth",
        "name_of_ship": "bee",
        "ship_port": "aberystwyth",
        "date_leaving": "continues",
        "joined_ship_date": "blk",
        "joined_at_port": "blk",
        "capacity": "master",
        "date_left": "blk",
        "left_port": "blk",
        "cause_of_leaving": "remains on board",
        "sign_with_mark": "n",
        "notes": "blk"
    },
    {
        "id": "vtls004626149_0_13",
        "type": "sailor",
        "parent": "vtls004626149",
        "name": "james jones",
        "dob": "blk",
        "age": "21",
        "place_of_birth": "aberystwyth",
        "home_address": "blk",
        "f": "blk",
        "name_of_ship": "bee",
        "ship_port": "aberystwyth",
        "date_leaving": "continues",
        "joined_ship_date": "blk",
        "joined_at_port": "blk",
        "capacity": "able seaman",
        "date_left": "blk",
        "left_port": "blk",
        "cause_of_leaving": "remains on board",
        "sign_with_mark": "n",
        "notes": "blk"
    },
    {
        "id": "vtls004626149_0_12",
        "type": "sailor",
        "parent": "vtls004626149",
        "name": "peter davis",
        "dob": "blk",
        "age": "40",
        "place_of_birth": "aberystwyth",
        "home_address": "blk",
        "f": "blk",
        "name_of_ship": "bee",
        "ship_port": "aberystwyth",
        "date_leaving": "continues",
        "joined_ship_date": "blk",
        "joined_at_port": "blk",
        "capacity": "mate",
        "date_left": "blk",
        "left_port": "blk",
        "cause_of_leaving": "remains on board",
        "sign_with_mark": "n",
        "notes": "blk"
    },
    {
        "id": "vtls004626165_1_12",
        "type": "sailor",
        "parent": "vtls004626165",
        "name": "william mathias",
        "dob": "blk",
        "age": "26",
        "place_of_birth": "newquay",
        "home_address": "blk",
        "f": "blk",
        "name_of_ship": "bee",
        "ship_port": "aberystwyth",
        "date_leaving": "1867-07-10",
        "joined_ship_date": "1867-07-10",
        "joined_at_port": "poole",
        "capacity": "mate",
        "date_left": "1867-12-31",
        "left_port": "belfast",
        "cause_of_leaving": "discharged",
        "sign_with_mark": "n",
        "notes": "in documentation of jan. to june 1867, william's surname is down as 'mathews'."
    },
    {
        "id": "vtls004626195_0_12",
        "type": "sailor",
        "parent": "vtls004626195",
        "name": "william matthews",
        "dob": "blk",
        "age": "26",
        "place_of_birth": "newquay",
        "home_address": "blk",
        "f": "blk",
        "name_of_ship": "bee",
        "ship_port": "aberystwyth",
        "date_leaving": "7-mar",
        "joined_ship_date": "1868-01-07",
        "joined_at_port": "belfast",
        "capacity": "mate",
        "date_left": "blk",
        "left_port": "blk",
        "cause_of_leaving": "left",
        "sign_with_mark": "n",
        "notes": "he appears to be down as 'mathias' or 'mattews' -same age, same place of birth, same ship."
    },
    {
        "id": "vtls004626195_0_11",
        "type": "sailor",
        "parent": "vtls004626195",
        "name": "james hughes",
        "dob": "blk",
        "age": "28",
        "place_of_birth": "aberystwyth",
        "home_address": "high street, aberystwyth",
        "f": "high street, aberystwyth",
        "name_of_ship": "bee",
        "ship_port": "aberystwyth",
        "date_leaving": "not discharged",
        "joined_ship_date": "1868-07-01",
        "joined_at_port": "belfast",
        "capacity": "master",
        "date_left": "blk",
        "left_port": "blk",
        "cause_of_leaving": "remains on board",
        "sign_with_mark": "n",
        "notes": "blk"
    },
    {
        "id": "vtls004626165_1_13",
        "type": "sailor",
        "parent": "vtls004626165",
        "name": "thomas jones",
        "dob": "blk",
        "age": "18",
        "place_of_birth": "aberystwyth",
        "home_address": "blk",
        "f": "blk",
        "name_of_ship": "bee",
        "ship_port": "aberystwyth",
        "date_leaving": "1867-07-10",
        "joined_ship_date": "1867-07-10",
        "joined_at_port": "poole",
        "capacity": "ordinary seaman",
        "date_left": "1867-12-31",
        "left_port": "belfast",
        "cause_of_leaving": "discharged",
        "sign_with_mark": "n",
        "notes": "blk"
    },
    {
        "id": "vtls004626195_0_14",
        "type": "sailor",
        "parent": "vtls004626195",
        "name": "william thomas",
        "dob": "blk",
        "age": "22",
        "place_of_birth": "fishguard",
        "home_address": "blk",
        "f": "blk",
        "name_of_ship": "mary matthews",
        "ship_port": "bristol",
        "date_leaving": "blk",
        "joined_ship_date": "1868-05-26",
        "joined_at_port": "cardiff",
        "capacity": "mate",
        "date_left": "blk",
        "left_port": "blk",
        "cause_of_leaving": "remains on board",
        "sign_with_mark": "n",
        "notes": "blk"
    },
    {
        "id": "vtls004626165_1_11",
        "type": "sailor",
        "parent": "vtls004626165",
        "name": "james hughes",
        "dob": "blk",
        "age": "37",
        "place_of_birth": "aberystwyth",
        "home_address": "aberystwyth",
        "f": "aberystwyth",
        "name_of_ship": "bee",
        "ship_port": "aberystwyth",
        "date_leaving": "remained on board",
        "joined_ship_date": "blk",
        "joined_at_port": "blk",
        "capacity": "master",
        "date_left": "blk",
        "left_port": "blk",
        "cause_of_leaving": "remains on board",
        "sign_with_mark": "n",
        "notes": "blk"
    },
    {
        "id": "vtls004626195_0_13",
        "type": "sailor",
        "parent": "vtls004626195",
        "name": "thomas hart",
        "dob": "blk",
        "age": "29",
        "place_of_birth": "bridgewater",
        "home_address": "blk",
        "f": "blk",
        "name_of_ship": "petrel",
        "ship_port": "bridgwater",
        "date_leaving": "may-26",
        "joined_ship_date": "1868-03-07",
        "joined_at_port": "bridgewater",
        "capacity": "mate",
        "date_left": "blk",
        "left_port": "blk",
        "cause_of_leaving": "left",
        "sign_with_mark": "n",
        "notes": "blk"
    },
    {
        "id": "vtls004626218_1_11",
        "type": "sailor",
        "parent": "vtls004626218",
        "name": "james jones",
        "dob": "blk",
        "age": "40",
        "place_of_birth": "aberystwyth",
        "home_address": "high street, aberystwyth ",
        "f": "high street, aberystwyth ",
        "name_of_ship": "bee",
        "ship_port": "aberystwyth",
        "date_leaving": "previous to 1869-06-30",
        "joined_ship_date": "remained on board",
        "joined_at_port": "blk",
        "capacity": "master",
        "date_left": "blk",
        "left_port": "blk",
        "cause_of_leaving": "remains on board",
        "sign_with_mark": "n",
        "notes": "surname down as 'jones', but has been 'hughes' in other documents preceding and following this one."
    },
    {
        "id": "vtls004626218_0_13",
        "type": "sailor",
        "parent": "vtls004626218",
        "name": "phillip davies",
        "dob": "blk",
        "age": "30",
        "place_of_birth": "aberystwyth",
        "home_address": "blk",
        "f": "blk",
        "name_of_ship": "omnibus",
        "ship_port": "aberystwyth",
        "date_leaving": "1869-02",
        "joined_ship_date": "1869-03-10",
        "joined_at_port": "aberystwyth",
        "capacity": "ordinary seaman",
        "date_left": "blk",
        "left_port": "blk",
        "cause_of_leaving": "remains on board",
        "sign_with_mark": "n",
        "notes": "blk"
    },
    {
        "id": "vtls004626218_0_11",
        "type": "sailor",
        "parent": "vtls004626218",
        "name": "james hughes",
        "dob": "blk",
        "age": "39",
        "place_of_birth": "aberystwyth",
        "home_address": "aberystwyth",
        "f": "aberystwyth",
        "name_of_ship": "bee",
        "ship_port": "aberystwyth",
        "date_leaving": "1868-12-31",
        "joined_ship_date": "1869-01-01",
        "joined_at_port": "aberystwyth",
        "capacity": "master",
        "date_left": "blk",
        "left_port": "blk",
        "cause_of_leaving": "remains on board",
        "sign_with_mark": "n",
        "notes": "blk"
    },
    {
        "id": "vtls004626195_1_11",
        "type": "sailor",
        "parent": "vtls004626195",
        "name": "james hughes",
        "dob": "blk",
        "age": "39",
        "place_of_birth": "aberystwyth",
        "home_address": "high street, aberystwyth",
        "f": "high street, aberystwyth",
        "name_of_ship": "bee",
        "ship_port": "aberystwyth",
        "date_leaving": "previous to 1868-06-30",
        "joined_ship_date": "blk",
        "joined_at_port": "blk",
        "capacity": "master",
        "date_left": "blk",
        "left_port": "blk",
        "cause_of_leaving": "remains on board",
        "sign_with_mark": "n",
        "notes": "blk"
    },
    {
        "id": "vtls004626218_0_12",
        "type": "sailor",
        "parent": "vtls004626218",
        "name": "john jones",
        "dob": "blk",
        "age": "29",
        "place_of_birth": "aberystwyth",
        "home_address": "blk",
        "f": "blk",
        "name_of_ship": "nanteos",
        "ship_port": "aberystwyth",
        "date_leaving": "1869-02-05",
        "joined_ship_date": "1869-03-10",
        "joined_at_port": "aberystwyth",
        "capacity": "mate",
        "date_left": "blk",
        "left_port": "blk",
        "cause_of_leaving": "remains on board",
        "sign_with_mark": "n",
        "notes": "blk"
    },
    {
        "id": "vtls004626195_0_15",
        "type": "sailor",
        "parent": "vtls004626195",
        "name": "thomas jones",
        "dob": "blk",
        "age": "16",
        "place_of_birth": "aberystwyth",
        "home_address": "blk",
        "f": "blk",
        "name_of_ship": "same ship",
        "ship_port": "aberystwyth",
        "date_leaving": "not discharged",
        "joined_ship_date": "1868-01-07",
        "joined_at_port": "aberystwyth",
        "capacity": "cabin boy",
        "date_left": "blk",
        "left_port": "blk",
        "cause_of_leaving": "remains on board",
        "sign_with_mark": "n",
        "notes": "blk"
    },
    {
        "id": "vtls004626195_1_12",
        "type": "sailor",
        "parent": "vtls004626195",
        "name": "william thomas",
        "dob": "blk",
        "age": "26",
        "place_of_birth": "fishguard",
        "home_address": "blk",
        "f": "blk",
        "name_of_ship": "bee",
        "ship_port": "aberystwyth",
        "date_leaving": "previous to 1868-06-30",
        "joined_ship_date": "blk",
        "joined_at_port": "blk",
        "capacity": "mate",
        "date_left": "1868-09-29",
        "left_port": "porthmadog",
        "cause_of_leaving": "discharged",
        "sign_with_mark": "n",
        "notes": "blk"
    },
    {
        "id": "vtls004626195_1_14",
        "type": "sailor",
        "parent": "vtls004626195",
        "name": "david lewis",
        "dob": "blk",
        "age": "32",
        "place_of_birth": "aberystwyth",
        "home_address": "blk",
        "f": "blk",
        "name_of_ship": "alert",
        "ship_port": "aberystwyth",
        "date_leaving": "1868-08-02",
        "joined_ship_date": "1868-09-30",
        "joined_at_port": "porthmadog",
        "capacity": "mate",
        "date_left": "1868-12-02",
        "left_port": "aberystwyth",
        "cause_of_leaving": "discharged",
        "sign_with_mark": "n",
        "notes": "blk"
    },
    {
        "id": "vtls004626195_1_13",
        "type": "sailor",
        "parent": "vtls004626195",
        "name": "thomas jones",
        "dob": "blk",
        "age": "18",
        "place_of_birth": "aberystwyth",
        "home_address": "blk",
        "f": "blk",
        "name_of_ship": "bee",
        "ship_port": "aberystwyth",
        "date_leaving": "previous to 1868-06-30",
        "joined_ship_date": "blk",
        "joined_at_port": "blk",
        "capacity": "boy",
        "date_left": "1868-12-02",
        "left_port": "aberystwyth",
        "cause_of_leaving": "discharged",
        "sign_with_mark": "n",
        "notes": "blk"
    },
    {
        "id": "vtls004626218_1_13",
        "type": "sailor",
        "parent": "vtls004626218",
        "name": "henry luget",
        "dob": "blk",
        "age": "19",
        "place_of_birth": "ipswich",
        "home_address": "blk",
        "f": "blk",
        "name_of_ship": "mary jane",
        "ship_port": "[porthmadog]",
        "date_leaving": "1869-07-08",
        "joined_ship_date": "1869-07-10",
        "joined_at_port": "porthmadog",
        "capacity": "seaman",
        "date_left": "1869-12-13",
        "left_port": "aberystwyth",
        "cause_of_leaving": "discharged",
        "sign_with_mark": "n",
        "notes": "blk"
    },
    {
        "id": "vtls004626230_0_13",
        "type": "sailor",
        "parent": "vtls004626230",
        "name": "david hughes",
        "dob": "blk",
        "age": "16",
        "place_of_birth": "borth",
        "home_address": "blk",
        "f": "blk",
        "name_of_ship": "catherine",
        "ship_port": "aberystwyth",
        "date_leaving": "1870-04-02",
        "joined_ship_date": "1870-04-20",
        "joined_at_port": "aberdovey",
        "capacity": "ordinary seaman",
        "date_left": "blk",
        "left_port": "blk",
        "cause_of_leaving": "remains on board",
        "sign_with_mark": "n",
        "notes": "blk"
    },
    {
        "id": "vtls004626230_1_11",
        "type": "sailor",
        "parent": "vtls004626230",
        "name": "hugh hughes",
        "dob": "blk",
        "age": "40",
        "place_of_birth": "borth, cardigan",
        "home_address": "borth",
        "f": "borth",
        "name_of_ship": "bee",
        "ship_port": "aberystwyth",
        "date_leaving": "blk",
        "joined_ship_date": "1870-07-01",
        "joined_at_port": "aberdovey",
        "capacity": "master",
        "date_left": "blk",
        "left_port": "blk",
        "cause_of_leaving": "remains on board",
        "sign_with_mark": "n",
        "notes": "blk"
    },
    {
        "id": "vtls004626230_0_12",
        "type": "sailor",
        "parent": "vtls004626230",
        "name": "david hughes",
        "dob": "blk",
        "age": "45",
        "place_of_birth": "borth",
        "home_address": "blk",
        "f": "blk",
        "name_of_ship": "malvina",
        "ship_port": "aberystwyth",
        "date_leaving": "1870-04-02",
        "joined_ship_date": "1870-05-20",
        "joined_at_port": "aberdovey",
        "capacity": "mate",
        "date_left": "1870-06-20",
        "left_port": "aberystwyth",
        "cause_of_leaving": "discharged",
        "sign_with_mark": "n",
        "notes": "blk"
    },
    {
        "id": "vtls004626230_1_12",
        "type": "sailor",
        "parent": "vtls004626230",
        "name": "william jones",
        "dob": "blk",
        "age": "47",
        "place_of_birth": "borth, cardigan",
        "home_address": "blk",
        "f": "blk",
        "name_of_ship": "bee",
        "ship_port": "aberystwyth",
        "date_leaving": "blk",
        "joined_ship_date": "1870-07-01",
        "joined_at_port": "aberdovey",
        "capacity": "mate",
        "date_left": "1870-12-12",
        "left_port": "blk",
        "cause_of_leaving": "discharged",
        "sign_with_mark": "n",
        "notes": "blk"
    },
    {
        "id": "vtls004626218_1_12",
        "type": "sailor",
        "parent": "vtls004626218",
        "name": "john jones",
        "dob": "blk",
        "age": "41",
        "place_of_birth": "aberystwyth",
        "home_address": "blk",
        "f": "blk",
        "name_of_ship": "bee",
        "ship_port": "aberystwyth",
        "date_leaving": "previous to 1869-06-30",
        "joined_ship_date": "blk",
        "joined_at_port": "blk",
        "capacity": "mate",
        "date_left": "1869-12-13",
        "left_port": "aberystwyth",
        "cause_of_leaving": "discharged",
        "sign_with_mark": "n",
        "notes": "blk"
    },
    {
        "id": "vtls004626230_0_11",
        "type": "sailor",
        "parent": "vtls004626230",
        "name": "hugh hughes",
        "dob": "blk",
        "age": "39",
        "place_of_birth": "borth",
        "home_address": "borth",
        "f": "borth",
        "name_of_ship": "catherine",
        "ship_port": "aberystwyth",
        "date_leaving": "1870-04-02",
        "joined_ship_date": "1870-04-20",
        "joined_at_port": "aberystwyth",
        "capacity": "master",
        "date_left": "blk",
        "left_port": "blk",
        "cause_of_leaving": "remains on board",
        "sign_with_mark": "n",
        "notes": "blk"
    },
    {
        "id": "vtls004626238_1_11",
        "type": "sailor",
        "parent": "vtls004626238",
        "name": "hugh hughes",
        "dob": "blk",
        "age": "42",
        "place_of_birth": "borth, cardiganshire",
        "home_address": "borth",
        "f": "borth",
        "name_of_ship": "catherine",
        "ship_port": "aberystwyth",
        "date_leaving": "1871-10-10",
        "joined_ship_date": "1871-07-01",
        "joined_at_port": "aberdovey",
        "capacity": "master",
        "date_left": "1871-10-10",
        "left_port": "blk",
        "cause_of_leaving": "discharged",
        "sign_with_mark": "n",
        "notes": "all crew discharged as a result of vessel foundering at sea. list d requested from owner by the mercantile marine office, aberystwyth"
    },
    {
        "id": "vtls004626238_1_13",
        "type": "sailor",
        "parent": "vtls004626238",
        "name": "david hughes",
        "dob": "blk",
        "age": "17",
        "place_of_birth": "borth, cardiganshire",
        "home_address": "blk",
        "f": "blk",
        "name_of_ship": "catherine",
        "ship_port": "aberystwyth",
        "date_leaving": "1871-10-10",
        "joined_ship_date": "1871-07-01",
        "joined_at_port": "aberdovey",
        "capacity": "ordinary seaman",
        "date_left": "1871-10-10",
        "left_port": "blk",
        "cause_of_leaving": "discharged",
        "sign_with_mark": "n",
        "notes": "all crew on the 'bee' previous to this. dates down as leaving previous ships muddled"
    },
    {
        "id": "vtls004626238_1_12",
        "type": "sailor",
        "parent": "vtls004626238",
        "name": "hendry jones",
        "dob": "blk",
        "age": "28",
        "place_of_birth": "borth, cardiganshire",
        "home_address": "blk",
        "f": "blk",
        "name_of_ship": "jane",
        "ship_port": "aberystwyth",
        "date_leaving": "1871-10-10",
        "joined_ship_date": "1871-07-01",
        "joined_at_port": "aberdovey",
        "capacity": "mate",
        "date_left": "1871-10-10",
        "left_port": "blk",
        "cause_of_leaving": "discharged",
        "sign_with_mark": "n",
        "notes": "previously down as henry"
    },
    {
        "id": "vtls004626230_1_13",
        "type": "sailor",
        "parent": "vtls004626230",
        "name": "david hughes",
        "dob": "blk",
        "age": "17",
        "place_of_birth": "borth, cardigan",
        "home_address": "blk",
        "f": "blk",
        "name_of_ship": "bee",
        "ship_port": "aberystwyth",
        "date_leaving": "blk",
        "joined_ship_date": "1870-07-01",
        "joined_at_port": "aberdovey",
        "capacity": "ordinary seaman",
        "date_left": "blk",
        "left_port": "blk",
        "cause_of_leaving": "remains on board",
        "sign_with_mark": "n",
        "notes": "blk"
    },
    {
        "id": "vtls004626238_0_13",
        "type": "sailor",
        "parent": "vtls004626238",
        "name": "david hughes",
        "dob": "blk",
        "age": "17",
        "place_of_birth": "borth, cardigan",
        "home_address": "blk",
        "f": "blk",
        "name_of_ship": "bee",
        "ship_port": "aberystwyth",
        "date_leaving": "blk",
        "joined_ship_date": "1870-01-20",
        "joined_at_port": "aberystwyth",
        "capacity": "able seaman",
        "date_left": "blk",
        "left_port": "blk",
        "cause_of_leaving": "remains on board",
        "sign_with_mark": "n",
        "notes": "blk"
    },
    {
        "id": "vtls004626238_0_11",
        "type": "sailor",
        "parent": "vtls004626238",
        "name": "hugh hughes",
        "dob": "blk",
        "age": "40",
        "place_of_birth": "borth, cardigan",
        "home_address": "borth",
        "f": "borth",
        "name_of_ship": "bee",
        "ship_port": "aberystwyth",
        "date_leaving": "blk",
        "joined_ship_date": "1870-01-20",
        "joined_at_port": "aberystwyth",
        "capacity": "master",
        "date_left": "blk",
        "left_port": "blk",
        "cause_of_leaving": "remains on board",
        "sign_with_mark": "n",
        "notes": "blk"
    },
    {
        "id": "vtls004626238_0_12",
        "type": "sailor",
        "parent": "vtls004626238",
        "name": "henry jones",
        "dob": "blk",
        "age": "36",
        "place_of_birth": "borth, cardigan",
        "home_address": "blk",
        "f": "blk",
        "name_of_ship": "bee",
        "ship_port": "aberystwyth",
        "date_leaving": "blk",
        "joined_ship_date": "1870-01-20",
        "joined_at_port": "aberystwyth",
        "capacity": "mate",
        "date_left": "blk",
        "left_port": "blk",
        "cause_of_leaving": "remains on board",
        "sign_with_mark": "n",
        "notes": "blk"
    }
]