[
    {
        "id": "vtls004626443_0_11",
        "type": "sailor",
        "parent": "vtls004626443",
        "name": "thomas griffiths",
        "dob": "1846",
        "age": "blk",
        "place_of_birth": "abergele",
        "home_address": "pembroke",
        "f": "pembroke",
        "name_of_ship": "bee",
        "ship_port": "aberystwyth",
        "date_leaving": "1877",
        "joined_ship_date": "1875-01-01",
        "joined_at_port": "aberaeron",
        "capacity": "master",
        "date_left": "blk",
        "left_port": "blk",
        "cause_of_leaving": "remains on board",
        "sign_with_mark": "n",
        "notes": "remains on board"
    },
    {
        "id": "vtls004626443_0_12",
        "type": "sailor",
        "parent": "vtls004626443",
        "name": "john blakeney",
        "dob": "1850",
        "age": "blk",
        "place_of_birth": "abergele",
        "home_address": "pembroke",
        "f": "pembroke",
        "name_of_ship": "bee",
        "ship_port": "aberystwyth",
        "date_leaving": "1887",
        "joined_ship_date": "1888-06",
        "joined_at_port": "milford",
        "capacity": "mate",
        "date_left": "blk",
        "left_port": "blk",
        "cause_of_leaving": "remains on board",
        "sign_with_mark": "n",
        "notes": "remains on board"
    },
    {
        "id": "vtls004626324_0_12",
        "type": "sailor",
        "parent": "vtls004626324",
        "name": "james james",
        "dob": "blk",
        "age": "18",
        "place_of_birth": "aberaeron",
        "home_address": "blk",
        "f": "blk",
        "name_of_ship": "bee",
        "ship_port": "aberystwyth",
        "date_leaving": "1859-10-31",
        "joined_ship_date": "1863-01-01",
        "joined_at_port": "aberaeron",
        "capacity": "mate",
        "date_left": "blk",
        "left_port": "blk",
        "cause_of_leaving": "remains on board",
        "sign_with_mark": "n",
        "notes": "remains on board"
    },
    {
        "id": "vtls004626324_1_13",
        "type": "sailor",
        "parent": "vtls004626324",
        "name": "daniel james",
        "dob": "blk",
        "age": "14",
        "place_of_birth": "aberaeron",
        "home_address": "blk",
        "f": "blk",
        "name_of_ship": "bee",
        "ship_port": "aberystwyth",
        "date_leaving": "1863-06-30",
        "joined_ship_date": "1863-07-01",
        "joined_at_port": "aberaeron",
        "capacity": "boy",
        "date_left": "blk",
        "left_port": "blk",
        "cause_of_leaving": "remains on board",
        "sign_with_mark": "n",
        "notes": "remains on board"
    },
    {
        "id": "vtls004626324_0_13",
        "type": "sailor",
        "parent": "vtls004626324",
        "name": "daniel james",
        "dob": "blk",
        "age": "14",
        "place_of_birth": "aberaeron",
        "home_address": "blk",
        "f": "blk",
        "name_of_ship": "first ship",
        "ship_port": "aberystwyth",
        "date_leaving": "blk",
        "joined_ship_date": "1863-03-23",
        "joined_at_port": "aberaeron",
        "capacity": "boy",
        "date_left": "blk",
        "left_port": "blk",
        "cause_of_leaving": "remains on board",
        "sign_with_mark": "n",
        "notes": "remains on board"
    },
    {
        "id": "vtls004626324_1_12",
        "type": "sailor",
        "parent": "vtls004626324",
        "name": "james james",
        "dob": "blk",
        "age": "18",
        "place_of_birth": "aberaeron",
        "home_address": "blk",
        "f": "blk",
        "name_of_ship": "bee",
        "ship_port": "aberystwyth",
        "date_leaving": "1863-06-30",
        "joined_ship_date": "1863-07-01",
        "joined_at_port": "aberaeron",
        "capacity": "mate",
        "date_left": "blk",
        "left_port": "blk",
        "cause_of_leaving": "remains on board",
        "sign_with_mark": "n",
        "notes": "remains on board"
    },
    {
        "id": "vtls004626324_1_11",
        "type": "sailor",
        "parent": "vtls004626324",
        "name": "john james",
        "dob": "blk",
        "age": "60",
        "place_of_birth": "aberaeron",
        "home_address": "blk",
        "f": "blk",
        "name_of_ship": "bee",
        "ship_port": "aberystwyth",
        "date_leaving": "1863-06-30",
        "joined_ship_date": "1863-07-01",
        "joined_at_port": "aberaeron",
        "capacity": "master",
        "date_left": "1863-12-31",
        "left_port": "aberaeron",
        "cause_of_leaving": "discharged",
        "sign_with_mark": "n",
        "notes": "blk"
    },
    {
        "id": "vtls004626324_0_11",
        "type": "sailor",
        "parent": "vtls004626324",
        "name": "john james",
        "dob": "blk",
        "age": "60",
        "place_of_birth": "aberaeron",
        "home_address": "blk",
        "f": "blk",
        "name_of_ship": "bee",
        "ship_port": "aberystwyth",
        "date_leaving": "1861",
        "joined_ship_date": "1863-01-01",
        "joined_at_port": "aberaeron",
        "capacity": "master",
        "date_left": "blk",
        "left_port": "blk",
        "cause_of_leaving": "remains on board",
        "sign_with_mark": "n",
        "notes": "remains on board"
    },
    {
        "id": "vtls004626331_0_11",
        "type": "sailor",
        "parent": "vtls004626331",
        "name": "jenkin james",
        "dob": "blk",
        "age": "33",
        "place_of_birth": "aberaeron",
        "home_address": "blk",
        "f": "blk",
        "name_of_ship": "aeron belle",
        "ship_port": "aberystwyth",
        "date_leaving": "1863-02",
        "joined_ship_date": "1864-04-12",
        "joined_at_port": "aberaeron",
        "capacity": "master",
        "date_left": "blk",
        "left_port": "blk",
        "cause_of_leaving": "remains on board",
        "sign_with_mark": "n",
        "notes": "remains on board"
    },
    {
        "id": "vtls004626341_0_11",
        "type": "sailor",
        "parent": "vtls004626341",
        "name": "jenkin james",
        "dob": "blk",
        "age": "35",
        "place_of_birth": "aberaeron",
        "home_address": "blk",
        "f": "blk",
        "name_of_ship": "bee",
        "ship_port": "aberystwyth",
        "date_leaving": "1865-10-31",
        "joined_ship_date": "1866-01-01",
        "joined_at_port": "aberaeron",
        "capacity": "master",
        "date_left": "blk",
        "left_port": "blk",
        "cause_of_leaving": "remains on board",
        "sign_with_mark": "n",
        "notes": "remains on board"
    },
    {
        "id": "vtls004626331_1_11",
        "type": "sailor",
        "parent": "vtls004626331",
        "name": "jenkin james",
        "dob": "blk",
        "age": "34",
        "place_of_birth": "aberaeron",
        "home_address": "blk",
        "f": "blk",
        "name_of_ship": "bee",
        "ship_port": "aberystwyth",
        "date_leaving": "1864-06-30",
        "joined_ship_date": "1864-07-01",
        "joined_at_port": "aberaeron",
        "capacity": "master",
        "date_left": "blk",
        "left_port": "blk",
        "cause_of_leaving": "remains on board",
        "sign_with_mark": "n",
        "notes": "remains on board"
    },
    {
        "id": "vtls004626341_1_11",
        "type": "sailor",
        "parent": "vtls004626341",
        "name": "jenkin james",
        "dob": "blk",
        "age": "36",
        "place_of_birth": "aberaeron",
        "home_address": "blk",
        "f": "blk",
        "name_of_ship": "bee",
        "ship_port": "aberystwyth",
        "date_leaving": "1866-06-30",
        "joined_ship_date": "1866-07-01",
        "joined_at_port": "aberaeron",
        "capacity": "master",
        "date_left": "blk",
        "left_port": "blk",
        "cause_of_leaving": "remains on board",
        "sign_with_mark": "n",
        "notes": "remains on board"
    },
    {
        "id": "vtls004626331_0_12",
        "type": "sailor",
        "parent": "vtls004626331",
        "name": "daniel james",
        "dob": "blk",
        "age": "15",
        "place_of_birth": "aberaeron",
        "home_address": "blk",
        "f": "blk",
        "name_of_ship": "bee",
        "ship_port": "aberystwyth",
        "date_leaving": "1863-12-31",
        "joined_ship_date": "1864-01-01",
        "joined_at_port": "aberaeron",
        "capacity": "mate",
        "date_left": "blk",
        "left_port": "blk",
        "cause_of_leaving": "remains on board",
        "sign_with_mark": "n",
        "notes": "remains on board"
    },
    {
        "id": "vtls004626341_0_12",
        "type": "sailor",
        "parent": "vtls004626341",
        "name": "daniel james",
        "dob": "blk",
        "age": "17",
        "place_of_birth": "aberaeron",
        "home_address": "blk",
        "f": "blk",
        "name_of_ship": "bee",
        "ship_port": "aberystwyth",
        "date_leaving": "1865-10-31",
        "joined_ship_date": "1866-01-01",
        "joined_at_port": "aberaeron",
        "capacity": "mate",
        "date_left": "blk",
        "left_port": "blk",
        "cause_of_leaving": "remains on board",
        "sign_with_mark": "n",
        "notes": "remains on board"
    },
    {
        "id": "vtls004626331_1_12",
        "type": "sailor",
        "parent": "vtls004626331",
        "name": "daniel james",
        "dob": "blk",
        "age": "16",
        "place_of_birth": "aberaeron",
        "home_address": "blk",
        "f": "blk",
        "name_of_ship": "bee",
        "ship_port": "aberystwyth",
        "date_leaving": "1864-06-30",
        "joined_ship_date": "1864-07-01",
        "joined_at_port": "aberaeron",
        "capacity": "mate",
        "date_left": "blk",
        "left_port": "blk",
        "cause_of_leaving": "remains on board",
        "sign_with_mark": "n",
        "notes": "remains on board"
    },
    {
        "id": "vtls004626351_0_12",
        "type": "sailor",
        "parent": "vtls004626351",
        "name": "thomas williams",
        "dob": "blk",
        "age": "13",
        "place_of_birth": "aberaeron",
        "home_address": "blk",
        "f": "blk",
        "name_of_ship": "first voyage",
        "ship_port": "aberystwyth",
        "date_leaving": "blk",
        "joined_ship_date": "1867-03-11",
        "joined_at_port": "aberaeron",
        "capacity": "boy",
        "date_left": "blk",
        "left_port": "blk",
        "cause_of_leaving": "remains on board",
        "sign_with_mark": "n",
        "notes": "remains on board"
    },
    {
        "id": "vtls004626351_0_11",
        "type": "sailor",
        "parent": "vtls004626351",
        "name": "jenkin james",
        "dob": "blk",
        "age": "37",
        "place_of_birth": "aberaeron",
        "home_address": "blk",
        "f": "blk",
        "name_of_ship": "bee",
        "ship_port": "aberystwyth",
        "date_leaving": "1866-12-31",
        "joined_ship_date": "1867-01-01",
        "joined_at_port": "aberaeron",
        "capacity": "master",
        "date_left": "blk",
        "left_port": "blk",
        "cause_of_leaving": "remains on board",
        "sign_with_mark": "n",
        "notes": "remains on board"
    },
    {
        "id": "vtls004626356_0_11",
        "type": "sailor",
        "parent": "vtls004626356",
        "name": "jenkin james",
        "dob": "blk",
        "age": "37",
        "place_of_birth": "aberaeron",
        "home_address": "blk",
        "f": "blk",
        "name_of_ship": "bee",
        "ship_port": "aberystwyth",
        "date_leaving": "1867-12-31",
        "joined_ship_date": "1868-01-01",
        "joined_at_port": "aberaeron",
        "capacity": "master",
        "date_left": "blk",
        "left_port": "blk",
        "cause_of_leaving": "remains on board",
        "sign_with_mark": "n",
        "notes": "remains on board"
    },
    {
        "id": "vtls004626351_1_11",
        "type": "sailor",
        "parent": "vtls004626351",
        "name": "jenkin james",
        "dob": "blk",
        "age": "37",
        "place_of_birth": "aberaeron",
        "home_address": "blk",
        "f": "blk",
        "name_of_ship": "bee",
        "ship_port": "aberystwyth",
        "date_leaving": "1867-06-30",
        "joined_ship_date": "1867-07-01",
        "joined_at_port": "aberaeron",
        "capacity": "master",
        "date_left": "blk",
        "left_port": "blk",
        "cause_of_leaving": "remains on board",
        "sign_with_mark": "n",
        "notes": "remains on board"
    },
    {
        "id": "vtls004626351_1_13",
        "type": "sailor",
        "parent": "vtls004626351",
        "name": "david williams",
        "dob": "blk",
        "age": "14",
        "place_of_birth": "aberaeron",
        "home_address": "blk",
        "f": "blk",
        "name_of_ship": "first voyage",
        "ship_port": "aberystwyth",
        "date_leaving": "blk",
        "joined_ship_date": "1867-07-27",
        "joined_at_port": "aberaeron",
        "capacity": "boy",
        "date_left": "1867-11-27",
        "left_port": "aberaeron",
        "cause_of_leaving": "discharged",
        "sign_with_mark": "n",
        "notes": "blk"
    },
    {
        "id": "vtls004626341_1_12",
        "type": "sailor",
        "parent": "vtls004626341",
        "name": "daniel james",
        "dob": "blk",
        "age": "17",
        "place_of_birth": "aberaeron",
        "home_address": "blk",
        "f": "blk",
        "name_of_ship": "bee",
        "ship_port": "aberystwyth",
        "date_leaving": "1866-06-30",
        "joined_ship_date": "1866-07-01",
        "joined_at_port": "aberaeron",
        "capacity": "mate",
        "date_left": "blk",
        "left_port": "blk",
        "cause_of_leaving": "remains on board",
        "sign_with_mark": "n",
        "notes": "remains on board"
    },
    {
        "id": "vtls004626351_1_12",
        "type": "sailor",
        "parent": "vtls004626351",
        "name": "thomas williams",
        "dob": "blk",
        "age": "13",
        "place_of_birth": "aberaeron",
        "home_address": "blk",
        "f": "blk",
        "name_of_ship": "bee",
        "ship_port": "aberystwyth",
        "date_leaving": "1867-06-30",
        "joined_ship_date": "1867-07-01",
        "joined_at_port": "aberaeron",
        "capacity": "boy",
        "date_left": "1867-07-26",
        "left_port": "aberaeron",
        "cause_of_leaving": "discharged",
        "sign_with_mark": "n",
        "notes": "blk"
    },
    {
        "id": "vtls004626431_0_12",
        "type": "sailor",
        "parent": "vtls004626431",
        "name": "william llewelyn",
        "dob": "blk",
        "age": "12",
        "place_of_birth": "aberaeron",
        "home_address": "blk",
        "f": "blk",
        "name_of_ship": "first voyage",
        "ship_port": "aberystwyth",
        "date_leaving": "blk",
        "joined_ship_date": "1869-04-01",
        "joined_at_port": "aberaeron",
        "capacity": "boy",
        "date_left": "blk",
        "left_port": "blk",
        "cause_of_leaving": "remains on board",
        "sign_with_mark": "n",
        "notes": "remains on board"
    },
    {
        "id": "vtls004626431_0_11",
        "type": "sailor",
        "parent": "vtls004626431",
        "name": "jenkin james",
        "dob": "blk",
        "age": "38",
        "place_of_birth": "aberaeron",
        "home_address": "blk",
        "f": "blk",
        "name_of_ship": "bee",
        "ship_port": "aberystwyth",
        "date_leaving": "1868-12-31",
        "joined_ship_date": "1869-01-01",
        "joined_at_port": "aberaeron",
        "capacity": "master",
        "date_left": "blk",
        "left_port": "blk",
        "cause_of_leaving": "remains on board",
        "sign_with_mark": "n",
        "notes": "remains on board"
    },
    {
        "id": "vtls004626356_1_11",
        "type": "sailor",
        "parent": "vtls004626356",
        "name": "jenkin james",
        "dob": "blk",
        "age": "38",
        "place_of_birth": "aberaeron",
        "home_address": "blk",
        "f": "blk",
        "name_of_ship": "bee",
        "ship_port": "aberystwyth",
        "date_leaving": "1868-06-30",
        "joined_ship_date": "1868-07-01",
        "joined_at_port": "aberaeron",
        "capacity": "master",
        "date_left": "blk",
        "left_port": "blk",
        "cause_of_leaving": "remains on board",
        "sign_with_mark": "n",
        "notes": "remains on board"
    },
    {
        "id": "vtls004626431_1_12",
        "type": "sailor",
        "parent": "vtls004626431",
        "name": "william llewelyn",
        "dob": "blk",
        "age": "12",
        "place_of_birth": "aberaeron",
        "home_address": "blk",
        "f": "blk",
        "name_of_ship": "bee",
        "ship_port": "aberystwyth",
        "date_leaving": "1869-06-30",
        "joined_ship_date": "1869-07-01",
        "joined_at_port": "aberaeron",
        "capacity": "boy",
        "date_left": "1869-10-26",
        "left_port": "aberaeron",
        "cause_of_leaving": "discharged",
        "sign_with_mark": "n",
        "notes": "blk"
    },
    {
        "id": "vtls004626356_0_12",
        "type": "sailor",
        "parent": "vtls004626356",
        "name": "david d davies",
        "dob": "blk",
        "age": "13",
        "place_of_birth": "aberaeron",
        "home_address": "blk",
        "f": "blk",
        "name_of_ship": "first voyage",
        "ship_port": "aberystwyth",
        "date_leaving": "blk",
        "joined_ship_date": "1868-03-27",
        "joined_at_port": "aberaeron",
        "capacity": "boy",
        "date_left": "blk",
        "left_port": "blk",
        "cause_of_leaving": "remains on board",
        "sign_with_mark": "n",
        "notes": "remains on board"
    },
    {
        "id": "vtls004626431_1_11",
        "type": "sailor",
        "parent": "vtls004626431",
        "name": "jenkin james",
        "dob": "blk",
        "age": "39",
        "place_of_birth": "aberaeron",
        "home_address": "blk",
        "f": "blk",
        "name_of_ship": "bee",
        "ship_port": "aberystwyth",
        "date_leaving": "1869-06-30",
        "joined_ship_date": "1869-07-01",
        "joined_at_port": "aberaeron",
        "capacity": "master",
        "date_left": "1869-12-31",
        "left_port": "aberaeron",
        "cause_of_leaving": "discharged",
        "sign_with_mark": "n",
        "notes": "blk"
    },
    {
        "id": "vtls004626356_1_12",
        "type": "sailor",
        "parent": "vtls004626356",
        "name": "david d davies",
        "dob": "blk",
        "age": "14",
        "place_of_birth": "aberaeron",
        "home_address": "blk",
        "f": "blk",
        "name_of_ship": "bee",
        "ship_port": "aberystwyth",
        "date_leaving": "1868-06-30",
        "joined_ship_date": "1868-07-01",
        "joined_at_port": "aberaeron",
        "capacity": "boy",
        "date_left": "blk",
        "left_port": "blk",
        "cause_of_leaving": "remains on board",
        "sign_with_mark": "n",
        "notes": "remains on board"
    },
    {
        "id": "vtls004626438_1_12",
        "type": "sailor",
        "parent": "vtls004626438",
        "name": "owen davies",
        "dob": "blk",
        "age": "13",
        "place_of_birth": "aberaeron",
        "home_address": "blk",
        "f": "blk",
        "name_of_ship": "william llewellyn",
        "ship_port": "aberystwyth",
        "date_leaving": "1870-10",
        "joined_ship_date": "1871-04-24",
        "joined_at_port": "aberaeron",
        "capacity": "mate",
        "date_left": "blk",
        "left_port": "blk",
        "cause_of_leaving": "remains on board",
        "sign_with_mark": "n",
        "notes": "remains on board, previous sheet states first voyage"
    },
    {
        "id": "vtls004626438_0_11",
        "type": "sailor",
        "parent": "vtls004626438",
        "name": "jenkin james",
        "dob": "blk",
        "age": "40",
        "place_of_birth": "aberaeron",
        "home_address": "blk",
        "f": "blk",
        "name_of_ship": "berlin",
        "ship_port": "aberystwyth",
        "date_leaving": "1871-02-20",
        "joined_ship_date": "1871-04-24",
        "joined_at_port": "aberaeron",
        "capacity": "master",
        "date_left": "blk",
        "left_port": "blk",
        "cause_of_leaving": "remains on board",
        "sign_with_mark": "n",
        "notes": "remains on board, was discharged from this boat in 1870"
    },
    {
        "id": "vtls004626434_0_12",
        "type": "sailor",
        "parent": "vtls004626434",
        "name": "william llewelyn",
        "dob": "blk",
        "age": "12",
        "place_of_birth": "aberaeron",
        "home_address": "blk",
        "f": "blk",
        "name_of_ship": "bee",
        "ship_port": "aberystwyth",
        "date_leaving": "1869-12-31",
        "joined_ship_date": "1870-01-01",
        "joined_at_port": "aberaeron",
        "capacity": "mate",
        "date_left": "blk",
        "left_port": "blk",
        "cause_of_leaving": "remains on board",
        "sign_with_mark": "n",
        "notes": "remains on board"
    },
    {
        "id": "vtls004626434_0_11",
        "type": "sailor",
        "parent": "vtls004626434",
        "name": "jenkin james",
        "dob": "blk",
        "age": "39",
        "place_of_birth": "aberaeron",
        "home_address": "blk",
        "f": "blk",
        "name_of_ship": "bee",
        "ship_port": "aberystwyth",
        "date_leaving": "1869-12-31",
        "joined_ship_date": "1870-01-01",
        "joined_at_port": "aberaeron",
        "capacity": "master",
        "date_left": "blk",
        "left_port": "blk",
        "cause_of_leaving": "remains on board",
        "sign_with_mark": "n",
        "notes": "remains on board"
    },
    {
        "id": "vtls004626434_1_12",
        "type": "sailor",
        "parent": "vtls004626434",
        "name": "william llewelyn",
        "dob": "blk",
        "age": "13",
        "place_of_birth": "aberaeron",
        "home_address": "blk",
        "f": "blk",
        "name_of_ship": "bee",
        "ship_port": "aberystwyth",
        "date_leaving": "1870-06-30",
        "joined_ship_date": "1870-07-01",
        "joined_at_port": "at sea",
        "capacity": "boy",
        "date_left": "1870-10-20",
        "left_port": "aberaeron",
        "cause_of_leaving": "discharged",
        "sign_with_mark": "n",
        "notes": "blk"
    },
    {
        "id": "vtls004626438_0_12",
        "type": "sailor",
        "parent": "vtls004626438",
        "name": "owen davies",
        "dob": "blk",
        "age": "12",
        "place_of_birth": "aberaeron",
        "home_address": "blk",
        "f": "blk",
        "name_of_ship": "first voyage",
        "ship_port": "aberystwyth",
        "date_leaving": "blk",
        "joined_ship_date": "1871-04-24",
        "joined_at_port": "aberaeron",
        "capacity": "boy",
        "date_left": "blk",
        "left_port": "blk",
        "cause_of_leaving": "remains on board",
        "sign_with_mark": "n",
        "notes": "remains on board"
    },
    {
        "id": "vtls004626434_1_11",
        "type": "sailor",
        "parent": "vtls004626434",
        "name": "jenkin james",
        "dob": "blk",
        "age": "40",
        "place_of_birth": "aberaeron",
        "home_address": "blk",
        "f": "blk",
        "name_of_ship": "bee",
        "ship_port": "aberystwyth",
        "date_leaving": "1870-06-30",
        "joined_ship_date": "1870-07-01",
        "joined_at_port": "at sea",
        "capacity": "master",
        "date_left": "1870-12-31",
        "left_port": "aberaeron",
        "cause_of_leaving": "discharged",
        "sign_with_mark": "n",
        "notes": "blk"
    },
    {
        "id": "vtls004626438_1_11",
        "type": "sailor",
        "parent": "vtls004626438",
        "name": "jenkin james",
        "dob": "blk",
        "age": "40",
        "place_of_birth": "aberaeron",
        "home_address": "blk",
        "f": "blk",
        "name_of_ship": "bee",
        "ship_port": "aberystwyth",
        "date_leaving": "remains",
        "joined_ship_date": "remains",
        "joined_at_port": "aberaeron",
        "capacity": "master",
        "date_left": "blk",
        "left_port": "blk",
        "cause_of_leaving": "remains on board",
        "sign_with_mark": "n",
        "notes": "remains on board"
    },
    {
        "id": "vtls004626440_1_11",
        "type": "sailor",
        "parent": "vtls004626440",
        "name": "jenkin james",
        "dob": "blk",
        "age": "43",
        "place_of_birth": "aberaeron",
        "home_address": "blk",
        "f": "blk",
        "name_of_ship": "bee",
        "ship_port": "aberystwyth",
        "date_leaving": "1872-06-30",
        "joined_ship_date": "1872-07-01",
        "joined_at_port": "aberaeron",
        "capacity": "master",
        "date_left": "1872-10-18",
        "left_port": "aberaeron",
        "cause_of_leaving": "discharged",
        "sign_with_mark": "n",
        "notes": "i have a query regarding his age"
    },
    {
        "id": "vtls004626440_0_11",
        "type": "sailor",
        "parent": "vtls004626440",
        "name": "jenkin james",
        "dob": "blk",
        "age": "41",
        "place_of_birth": "aberaeron",
        "home_address": "blk",
        "f": "blk",
        "name_of_ship": "bee",
        "ship_port": "aberystwyth",
        "date_leaving": "1871-12-31",
        "joined_ship_date": "1872-01-01",
        "joined_at_port": "aberaeron",
        "capacity": "master",
        "date_left": "blk",
        "left_port": "blk",
        "cause_of_leaving": "remains on board",
        "sign_with_mark": "n",
        "notes": "remains on board"
    },
    {
        "id": "vtls004626438_2_11",
        "type": "sailor",
        "parent": "vtls004626438",
        "name": "jenkin james",
        "dob": "blk",
        "age": "41",
        "place_of_birth": "aberaeron",
        "home_address": "blk",
        "f": "blk",
        "name_of_ship": "bee",
        "ship_port": "aberystwyth",
        "date_leaving": "1871-06-30",
        "joined_ship_date": "1871-07-01",
        "joined_at_port": "at sea",
        "capacity": "master",
        "date_left": "blk",
        "left_port": "blk",
        "cause_of_leaving": "remains on board",
        "sign_with_mark": "n",
        "notes": "remains on board"
    },
    {
        "id": "vtls004626440_0_12",
        "type": "sailor",
        "parent": "vtls004626440",
        "name": "jenkin thomas",
        "dob": "blk",
        "age": "12",
        "place_of_birth": "aberaeron",
        "home_address": "blk",
        "f": "blk",
        "name_of_ship": "first ship",
        "ship_port": "aberystwyth",
        "date_leaving": "blk",
        "joined_ship_date": "1872-04-01",
        "joined_at_port": "aberaeron",
        "capacity": "boy",
        "date_left": "blk",
        "left_port": "blk",
        "cause_of_leaving": "remains on board",
        "sign_with_mark": "n",
        "notes": "remains on board"
    },
    {
        "id": "vtls004626440_1_12",
        "type": "sailor",
        "parent": "vtls004626440",
        "name": "jenkin thomas",
        "dob": "blk",
        "age": "12",
        "place_of_birth": "aberaeron",
        "home_address": "blk",
        "f": "blk",
        "name_of_ship": "bee",
        "ship_port": "aberystwyth",
        "date_leaving": "1872-06-30",
        "joined_ship_date": "1872-07-01",
        "joined_at_port": "aberaeron",
        "capacity": "boy",
        "date_left": "1872-10-18",
        "left_port": "aberaeron",
        "cause_of_leaving": "discharged",
        "sign_with_mark": "n",
        "notes": "blk"
    },
    {
        "id": "vtls004626438_2_13",
        "type": "sailor",
        "parent": "vtls004626438",
        "name": "robert evans",
        "dob": "blk",
        "age": "13",
        "place_of_birth": "aberaeron",
        "home_address": "blk",
        "f": "blk",
        "name_of_ship": "first ship",
        "ship_port": "aberystwyth",
        "date_leaving": "blk",
        "joined_ship_date": "1871-07-27",
        "joined_at_port": "at sea",
        "capacity": "boy",
        "date_left": "1871-10-24",
        "left_port": "aberaeron",
        "cause_of_leaving": "discharged",
        "sign_with_mark": "n",
        "notes": "blk"
    },
    {
        "id": "vtls004626438_2_12",
        "type": "sailor",
        "parent": "vtls004626438",
        "name": "owen davies",
        "dob": "blk",
        "age": "12",
        "place_of_birth": "aberaeron",
        "home_address": "blk",
        "f": "blk",
        "name_of_ship": "bee",
        "ship_port": "aberystwyth",
        "date_leaving": "1871-06-30",
        "joined_ship_date": "1871-07-01",
        "joined_at_port": "at sea",
        "capacity": "boy",
        "date_left": "1871-07-20",
        "left_port": "aberaeron",
        "cause_of_leaving": "discharged",
        "sign_with_mark": "n",
        "notes": "blk"
    }
]