{
    "-01-01": "barry",
    "1010-05-30": "constantinople",
    "1898-11-21": "rotterdam",
    "1899-01-02": "philadelphia, united states",
    "1899-01-11": "philadelphia",
    "1899-02-08": "amsterdam",
    "1899-02-15": "barry",
    "1899-03-14": "new york",
    "1899-04-28": "philadelphia, united states",
    "1899-05-20": "amsterdam",
    "1899-06-23": "norfolk va.",
    "1899-07-12": "leith",
    "1899-08-18": "philadelphia, united states",
    "1899-09-13": "rotterdam",
    "1899-09-21": "cardiff",
    "1899-09-29": "leith",
    "1899-11-28": "new orleans",
    "1899-12-27": "hull",
    "1900-01-19": "barry",
    "1900-03-14": "newport",
    "1900-04-05": "london",
    "1900-04-13": "cardiff",
    "1900-12-06": "philadelphia",
    "1901-01-07": "antwerp",
    "1901-01-22": "plymouth",
    "1901-02-01": "galveston",
    "1901-02-25": "plymouth",
    "1901-02-26": "barry",
    "1901-03-05": "cardiff",
    "1901-03-06": "barry",
    "1901-03-27": "genoa",
    "1901-06-28": "el quique argentina",
    "1901-09-20": "galveston",
    "1901-10-28": "norfolk",
    "1901-11-03": "antwerp",
    "1901-12-06": "cardiff",
    "1902-01-04": "savona",
    "1902-03-18": "sunderland",
    "1902-03-27": "north shields",
    "1902-05-04": "no. shields",
    "1902-05-09": "cardiff",
    "1902-07-19": "barry",
    "1902-07-28": "cardiff",
    "1902-07-29": "barry",
    "1902-10-03": "rotterdam",
    "1902-10-07": "barry",
    "1902-12-22": "bergen",
    "1903-01-13": "barry",
    "1903-01-19": "cardiff",
    "1903-02-26": "niclauff",
    "1903-03-23": "rotterdam",
    "1903-04-03": "cardiff",
    "1903-04-07": "barry",
    "1903-06-01": "la plata",
    "1903-07-13": "newport",
    "1903-07-21": "newport monmouthshire",
    "1903-09-17": "antwerp",
    "1903-09-25": "barry",
    "1903-10-21": "port said",
    "1903-12-08": "cardiff",
    "1903-12-11": "london",
    "1903-12-18": "cardiff",
    "1904-01-07": "barry",
    "1904-01-08": "cardiff",
    "1904-06-09": "antwerp",
    "1904-06-15": "barry",
    "1904-11-28": "cardiff",
    "1906-01-01": "rotterdam",
    "1906-01-12": "barry",
    "1906-03-21": "barrow",
    "1906-03-28": "barry",
    "1906-04-06": "port said",
    "1906-05-13": "bordeaux",
    "1906-05-21": "porti",
    "1906-07-07": "newport",
    "1906-08-09": "cone$le",
    "1906-10-09": "maryport",
    "1906-10-17": "cardiff",
    "1906-11-02": "lovre",
    "1906-11-13": "port said",
    "1907-01-25": "colorado",
    "1907-01-28": "cardiff",
    "1907-02-26": "port said",
    "1907-03-16": "$icolaieff",
    "1907-03-29": "constantinople",
    "1907-04-23": "barry",
    "1907-07-08": "cardiff",
    "1907-10-12": "barry",
    "1907-10-17": "rotterdam",
    "1907-10-23": "barry",
    "1907-11-06": "marseilles, france",
    "1907-11-07": "marseille, france",
    "1907-12-12": "baltimore",
    "1907-12-18": "newport news, va",
    "1907-12-20": "newport, new virginia",
    "1908-01-12": "colon, panama",
    "1908-02-13": "pensacola, florida, united states",
    "1908-03-05": "norfolk virginia",
    "1908-03-26": "rotterdam",
    "1908-04-04": "newport gwent",
    "1908-06-03": "newport",
    "1908-07-10": "barry",
    "1908-07-21": "cardiff",
    "1908-09-21": "barry",
    "1908-09-24": "cardiff",
    "1908-11-05": "barry",
    "1908-12-14": "cardiff",
    "1909-12-23": "newport",
    "1910-01-10": "p. sand",
    "1910-04-07": "avonmouth",
    "1910-04-12": "newport",
    "1910-04-17": "avonmouth",
    "1910-04-19": "newport",
    "1910-04-30": "constantinople",
    "1910-06-23": "cardiff",
    "1910-07-19": "genoa",
    "1910-07-20": "genoa, italy",
    "1910-09-14": "newport",
    "1910-10-26": "theodosia",
    "1910-11-08": "odessa",
    "1910-12-07": "liverpool",
    "1910-12-11": "barry",
    "1910-12-16": "cardiff",
    "1910-12-17": "barry",
    "1911-01-09": "port said",
    "1911-02-20": "theodosia",
    "1911-02-24": "constantinople",
    "1911-03-20": "manchester",
    "1911-03-21": "barry",
    "1911-03-22": "on board",
    "1911-03-24": "barry"
}