{
    "1862-07-01": "aberayron",
    "1862-12-31": "aberaeron",
    "1863-01-01": "aberayron",
    "1863-06-30": "liverpool",
    "1863-07-01": "milford",
    "1863-12-31": "neath",
    "1864-01-01": "portmadoc",
    "1864-06-30": "aberaeron"
}