{
    "1857-01-01": "aberayron",
    "1867-09-20": "carmarthen",
    "1867-12-25": "milford",
    "1869-01-09": "glasgow",
    "1869-04-25": "kenmere",
    "1869-05-17": "swansea",
    "1869-06-30": "runcorn",
    "1869-08-17": "gloucestershire",
    "1869-09-03": "gloucester",
    "1869-12-29": "milford",
    "1870-07-08": "swansea",
    "1871--25": "milford",
    "1871-01-30": "cardiff",
    "1871-06-30": "poole",
    "1872-10-14": "cardiff",
    "1873-02-23": "aberayron",
    "1873-05-01": "gloucestershire",
    "1873-05-30": "swansea",
    "1874-01-01": "ardglass",
    "1874-01-08": "louile",
    "1874-01-28": "milford",
    "1874-07-02": "swansea",
    "1876-06-27": "tralee",
    "1876-07-04": "cork",
    "1876-08-24": "castletown",
    "1876-08-26": "milford",
    "1877-07-03": "swansea",
    "1878-02-15": "newry",
    "1878-03-26": "milford",
    "1878-04-03": "liverpool"
}