{
    "1862-12-01": "newquay",
    "1863-07-14": "cardiff",
    "1866-07-01": "whitehaven",
    "1866-09-10": "liverpool",
    "1870-01-10": "runcorn",
    "1870-01-17": "liverpool",
    "1870-05-19": "belfast",
    "1870-06-08": "swansea",
    "1870-12-31": "on board",
    "1871-01-01": "penzance",
    "1871-01-06": "swansea",
    "1871-02-28": "penrhyn",
    "1871-04-20": "carmathen",
    "1871-06-25": "newquay",
    "1872-07-01": "penryn",
    "1872-07-18": "cardiff",
    "1872-09-13": "runcorn",
    "1872-11-14": "kinsale",
    "1872-12-18": "portsmouth",
    "1872-12-30": "kinsale",
    "1872-12-31": "poole",
    "1873-03-04": "runcorn",
    "1873-05-01": "swansea",
    "1873-07-03": "belfast",
    "1873-08-11": "cardiff",
    "1873-11-01": "swansea",
    "1873-11-24": "newry",
    "1874--01": "swansea",
    "1874-02-21": "newquay",
    "1874-05-23": "glasgow",
    "1874-07-02": "swansea",
    "1876-05-06": "gloucestershire",
    "1876-05-10": "gloucester",
    "1876-05-13": "cardiff",
    "1876-06-09": "pembrey",
    "1876-07-31": "cardiff",
    "1876-08-26": "swansea",
    "1876-09-23": "newquay",
    "1876-11-28": "swansea",
    "1877-02-06": "newport",
    "1877-04-05": "cardiff",
    "1877-05-10": "newport",
    "1877-06-09": "entrance swansea harbour",
    "1877-06-12": "swansea",
    "1877-07-30": "charleton",
    "1877-08-23": "liverpool",
    "1877-09-29": "swansea",
    "1877-12-31": "liverpool",
    "1878-01-01": "plymouth",
    "1878-02-28": "swansea",
    "1878-05-20": "newport",
    "1878-07-01": "cardiff",
    "1878-09-25": "gloucestershire",
    "1878-10-16": "gloucester",
    "1878-10-22": "swansea",
    "1878-12-03": "ballinacurra",
    "1878-12-30": "swansea",
    "1879-04-04": "newquay",
    "1879-05-16": "llanelli",
    "1879-05-26": "llanelly",
    "1879-06-21": "swansea",
    "1879-07-19": "penryn",
    "1879-07-29": "cardiff",
    "1879-09-09": "newport",
    "1879-11-22": "swansea",
    "1881-06-17": "cowes",
    "1881-07-16": "cardiff",
    "1881-09-06": "cork",
    "1881-09-23": "swansea",
    "1881-12-15": "briton ferry",
    "1882-01-19": "swansea",
    "1882-07-13": "kinsale",
    "1883-01-16": "swansea",
    "1883-06-13": "porthcawl",
    "1883-07-16": "milford",
    "1884-01-17": "swansea",
    "1886-01-01": "truro",
    "1886-02-11": "padstow",
    "1886-03-12": "waterford",
    "1886-04-22": "pentewan",
    "1886-05-19": "runcorn",
    "1886-06-10": "hayle",
    "1887-01-18": "padstow",
    "1887-05-05": "falmouth",
    "1887-07-02": "newport",
    "1887-12-01": "truro",
    "1888-04-16": "newport",
    "1889-02-04": "padstow",
    "1889-04-06": "truro",
    "1889-06-14": "padstow",
    "1889-11-23": "penzance",
    "1889-12-31": "cork",
    "1891-05-20": "padstow",
    "1891-11-16": "totnes",
    "1891-12-24": "dartmouth",
    "1892-01-16": "wexford"
}