{
    "1863-01-01": "cork",
    "1863-06-30": "glasgow",
    "1863-07-01": "liverpool",
    "1863-08-31": "bowling",
    "1863-09-02": "glasgow",
    "1863-09-12": "aberaeron",
    "1863-11-23": "swansea",
    "1863-12-31": "liverpool",
    "1864-05-14": "cardiff",
    "1864-09-02": "ipswich",
    "1864-11-20": "milford",
    "1865-02-16": "burrow",
    "1866-01-01": "porthmadog",
    "1866-05-09": "liverpool",
    "1866-07-01": "milford",
    "1866-12-10": "cardiff",
    "1866-12-31": "porthmadog",
    "1868-01-15": "bristol",
    "1868-05-16": "liverpool",
    "1868-11-23": "belfast",
    "1870-03-31": "newquay",
    "1870-06-21": "briton ferry",
    "1870-10-01": "norway",
    "1870-12-15": "hamburg, germany",
    "1871-01-01": "hamburg",
    "1871-04-20": "swansea",
    "1871-07-31": "greenock",
    "1871-09-22": "swansea",
    "1872-08-12": "briton ferry",
    "1872-11-14": "swansea",
    "1873-07-10": "southampton",
    "1873-07-29": "swansea",
    "1873-08-22": "milford",
    "1873-12-05": "swansea",
    "1874-02-12": "port dinorwic",
    "1874-07-20": "glasgow",
    "1875-01-14": "london",
    "1876-01-01": "waterford",
    "1876-04-17": "dublin",
    "1876-04-30": "porthmadog",
    "1876-05-27": "portmadoc",
    "1876-07-05": "liverpool",
    "1876-09-23": "london",
    "1878-01-22": "portmadoc",
    "1878-03-29": "porthmadog",
    "1878-05-01": "portmadoc",
    "1878-05-06": "newquay",
    "1878-05-30": "porthmadog",
    "1878-07-01": "swansea",
    "1878-11-29": "tarlton"
}