{
    "-01-01": "cardiff",
    "1861-06-10": "aberystwyth",
    "1863-01-08": "liverpool",
    "1863-04-10": "cardiff",
    "1863-07-01": "liverpool",
    "1863-09-14": "newport",
    "1863-12-31": "liverpool",
    "1866-04-13": "port talbot",
    "1866-08-08": "runcorn",
    "1866-11-04": "liverpool",
    "1868-01-09": "plymouth",
    "1868-03-30": "newquay",
    "1868-06-14": "cardiff",
    "1868-08-29": "plymouth",
    "1869-01-01": "porthcawl",
    "1869-04-30": "newquay",
    "1869-07-19": "porthcawl",
    "1869-10-13": "liverpool",
    "1869-12-29": "port talbot",
    "1870-07-17": "charleston",
    "1870-11-16": "cardiff",
    "1870-11-25": "bristol",
    "1870-12-31": "cardiff",
    "1871-06-13": "swansea",
    "1871-10-14": "liverpool",
    "1872-07-01": "fowey",
    "1872-12-31": "belfast",
    "1876-01-01": "london",
    "1876-03-15": "swansea",
    "1876-05-26": "dublin",
    "1876-06-08": "bangor",
    "1876-07-01": "silloth",
    "1876-08-03": "bangor",
    "1876-12-31": "london",
    "1877-01-01": "gravesend",
    "1877-02-05": "milford",
    "1877-04-04": "swansea",
    "1877-05-05": "caernarfon",
    "1877-07-01": "caernarvon",
    "1877-09-01": "bangor",
    "1878-01-01": "cardiff",
    "1878-07-01": "barrow",
    "1878-08-17": "cardiff",
    "1879-02-02": "milford haven",
    "1879-03-10": "liverpool",
    "1879-06-04": "swansea",
    "1879-07-30": "cardiff",
    "1880-03-12": "bridgewater",
    "1880-06-30": "liverpool",
    "1880-09-20": "cardiff",
    "1880-10-25": "swansea",
    "1881-07-01": "milford",
    "1881-09-16": "cardiff",
    "1882-07-04": "waterford",
    "1882-12-25": "cardiff",
    "1883-04-19": "greenock",
    "1883-05-29": "faynes",
    "1883-06-16": "cardiff",
    "1883-07-10": "waterford",
    "1883-07-25": "cardiff",
    "1884-01-10": "waterford",
    "1884-01-15": "porthcawl",
    "1884-06-30": "caernarfon",
    "1884-09-03": "cardiff",
    "1887-01-04": "newross",
    "1887-02-18": "newquay",
    "1887-07-11": "sligo",
    "1887-08-16": "bristol",
    "1887-10-01": "cardiff",
    "1887-11-18": "porthcawl",
    "1887-12-31": "aberaeron",
    "1888-07-05": "waterford",
    "1888-07-17": "cardiff",
    "1889-04-22": "bangor",
    "1889-07-01": "galway",
    "1889-07-12": "bangor",
    "1889-12-03": "dublin",
    "1890-07-24": "berwick",
    "1890-12-23": "bangor",
    "1892-12-16": "caernarfon",
    "1893-11-13": "cork",
    "1894-01-08": "plymouth",
    "1894-07-24": "southampton",
    "1894-10-08": "liverpool",
    "1894-12-10": "portmadoc",
    "1896-01-01": "bridgewater",
    "1896-03-18": "portmadoc",
    "1896-06-30": "westbank",
    "1896-07-01": "runcorn",
    "1896-09-22": "bangor",
    "1897-02-02": "carnarvon",
    "1897-03-30": "newcastle",
    "1897-07-01": "carnarvon",
    "1897-10-06": "bangor",
    "1898-01-26": "london",
    "1898-02-15": "liverpool",
    "1898-07-07": "london",
    "1899-03-23": "liverpool",
    "1899-07-26": "port dinorwic",
    "1899-12-07": "liverpool",
    "1900-01-12": "bangor",
    "1900-03-05": "ramsey",
    "1900-03-26": "glasgow",
    "1900-05-22": "bangor",
    "1900-09-03": "swansea",
    "1900-09-28": "plymouth",
    "1900-10-18": "hull",
    "1900-11-24": "plymouth",
    "1901-01-06": "soton",
    "1901-01-07": "london",
    "1901-01-10": "southampton",
    "1901-03-10": "plymouth",
    "1901-04-28": "swansea",
    "1901-05-26": "penrhyn",
    "1901-07-05": "exeter",
    "1901-07-12": "seignmouth",
    "1901-07-20": "hull",
    "1901-08-10": "plymouth",
    "1901-08-31": "pembroke",
    "1901-10-16": "london",
    "1902-01-01": "dublin",
    "1902-01-06": "london",
    "1902-01-16": "plymouth",
    "1902-03-01": "looe",
    "1902-03-14": "london",
    "1902-04-15": "pal",
    "1902-05-28": "london",
    "1902-07-21": "lancaster",
    "1902-09-16": "plymouth",
    "1902-10-21": "rochester",
    "1902-11-05": "plymouth",
    "1902-12-10": "folkestone",
    "1902-12-31": "london",
    "1903-01-01": "bristol",
    "1903-01-17": "plymouth",
    "1903-02-14": "bristol",
    "1903-03-21": "plymouth",
    "1903-08-13": "calstock",
    "1903-08-23": "plymouth",
    "1903-09-03": "chatham",
    "1903-12-30": "bristol",
    "1904-01-14": "gloucestershire",
    "1904-01-25": "falmouth",
    "1904-01-27": "devoran",
    "1904-01-31": "truro",
    "1904-03-01": "cardiff",
    "1904-04-07": "sharpness",
    "1904-04-19": "fowey",
    "1904-05-29": "glasgow",
    "1904-07-01": "teignmouth",
    "1904-07-23": "runcorn",
    "1904-09-17": "plymouth",
    "1904-10-14": "poole",
    "1904-10-29": "gurnsey",
    "1904-11-07": "guernsey",
    "1904-11-23": "rochester",
    "1904-12-20": "plymouth",
    "1905-10-29": "rochester",
    "1905-12-17": "falmouth",
    "1905-12-26": "rochester",
    "1906--5-08": "plymouth",
    "1906-02-05": "exeter",
    "1906-02-13": "plymouth",
    "1906-03-15": "waterford",
    "1906-03-30": "newport",
    "1906-04-19": "plymouth",
    "1906-04-24": "newport",
    "1906-04-25": "plymouth",
    "1906-05-21": "wicklow",
    "1906-05-29": "teignmouth",
    "1906-06-11": "plymouth",
    "1906-06-23": "runcorn",
    "1907-01-18": "hull",
    "1907-02-12": "exeter",
    "1907-03-05": "plymouth",
    "1907-04-29": "waterford",
    "1907-05-30": "plymouth",
    "1907-06-18": "hull",
    "1907-07-08": "plymouth",
    "1907-08-09": "goole",
    "1907-09-07": "london",
    "1907-09-27": "exeter",
    "1907-10-10": "plymouth",
    "1907-11-13": "connah's quay",
    "1907-11-19": "point of ayr",
    "1907-12-05": "plymouth",
    "1909-02-15": "fowey",
    "1909-03-15": "st. ives",
    "1909-03-27": "newport",
    "1909-07-14": "fowey",
    "1909-09-02": "portsmouth",
    "1909-09-09": "eling, s'hampton",
    "1909-11-08": "bristol",
    "1910-01-14": "london",
    "1910-07-02": "rochester"
}