{
    "01-01-1863": "aberdovey",
    "1868--07-15": "glasgow",
    "1868-03-20": "aberdovey",
    "1868-07-15": "glasgow",
    "1868-12-25": "aberdovey",
    "1870-07-12": "cardiff",
    "1876-08-25": "watermouth",
    "1876-12-20": "ilfracombe",
    "1877-05-01": "hayle",
    "1877-05-23": "st. ives",
    "1878-02-02": "ilfracombe",
    "30-05-1863": "dublin"
}