{
    "1857-01-01": "aberdyfi",
    "186-12-20": "aberdovey",
    "1863-03-04": "aberdyfi",
    "1863-08-24": "glasgow",
    "1866-02-15": "aberdyfi",
    "1867-11-26": "aberdovey",
    "1869-01-01": "liverpool",
    "1869-05-26": "aberdovey",
    "1869-09-26": "aberdyfi",
    "1869-12-20": "aberdovey",
    "1872-02-01": "inverness",
    "1872-06-06": "barmouth",
    "1872-07-10": "aberdeen",
    "1873-06-27": "runcorn",
    "1873-2-05": "aberdovey",
    "1874-06-74": "liverpool",
    "1877--01": "portmadoc",
    "1878-01-01": "carnarvon",
    "1878-05-22": "porthmadog",
    "1878-07-08": "aberdovey",
    "1880-01-24": "dublin",
    "1881-03-23": "newry",
    "1881-05-07": "swansea",
    "1881-05-14": "porthdinllaen"
}