{
    "-01-01": "newquay",
    "1862-03-27": "newport",
    "1863-01-28": "liverpool",
    "1863-04-14": "newport",
    "1863-07-11": "liverpool",
    "1864-02-22": "cardiff",
    "1864-05-07": "amlwch",
    "1864-06-13": "cardiff",
    "1864-09-02": "runcorn",
    "1864-12-31": "cardiff",
    "1866-07-09": "liverpool",
    "1866-08-14": "cardiff",
    "1866-10-31": "runcorn",
    "1867-01-06": "cardiff",
    "1867-09-23": "swansea",
    "1867-12-03": "cardiff",
    "1868-06-02": "runcorn",
    "1868-06-10": "liverpool",
    "1868-09-14": "gloucestershire",
    "1869-03-10": "cardiff",
    "1869-07-17": "runcorn",
    "1869-09-23": "swansea",
    "1870-01-18": "dublin",
    "1870-04-13": "cardiff",
    "1870-07-12": "swansea",
    "1870-08-27": "newport",
    "1870-10-18": "cardiff",
    "1872-04-12": "workington",
    "1872-06-30": "newquay",
    "1872-07-01": "cardiff",
    "1872-08-14": "newquay",
    "1872-08-27": "neath",
    "1872-09-08": "cardiff",
    "1873-10-09": "belfast",
    "1873-12-01": "neath",
    "1874-04-15": "briton ferry",
    "1874-05-31": "liverpool",
    "1874-08-15": "cardiff",
    "1874-12-19": "newport",
    "1875-01-01": "tralee",
    "1876-01-02": "cork",
    "1876-03-18": "swansea",
    "1876-04-27": "newport",
    "1876-06-08": "briton ferry",
    "1876-07-24": "runcorn",
    "1876-11-28": "cardiff",
    "1877-03-19": "swansea",
    "1877-06-21": "newport",
    "1877-07-06": "waterford",
    "1877-08-30": "newquay",
    "1878-04-27": "cardiff",
    "1878-07-09": "ballinacurra",
    "1878-07-21": "newport",
    "1878-07-25": "cardiff",
    "1878-08-20": "porthcawl",
    "1878-08-21": "newport",
    "1878-09-20": "porthcawl",
    "1879-04-12": "cardiff",
    "1879-06-27": "porthcawl",
    "1879-09-10": "cork",
    "1879-09-24": "cardiff",
    "1880-03-12": "cork",
    "1880-03-16": "corks",
    "1880-04-03": "porthcawl",
    "1880-04-17": "cork",
    "1880-04-26": "briton ferry",
    "1880-05-17": "waterford",
    "1880-05-27": "swansea",
    "1880-07-24": "porthcawl",
    "1880-08-06": "cardiff",
    "1880-09-23": "porthcawl",
    "1880-10-28": "llacharn sands, carmarthen bay",
    "1886-01-17": "cork"
}