{
    "-01-01": "hamburg, germany",
    "1862-12-16": "liverpool",
    "1864-12-03": "new york",
    "1867-09-09": "hull",
    "1867-10-09": "newcastle",
    "1868-01-14": "leghorn",
    "1868-03-03": "bristol",
    "1868-05-24": "london",
    "1868-09-18": "patras",
    "1868-10-08": "london",
    "1869-11-17": "falmouth",
    "1869-12-02": "london",
    "1870-01-25": "waterford",
    "1870-03-23": "napan",
    "1870-05-17": "london",
    "1870-09-08": "cardiff",
    "1870-12-24": "london",
    "1871-01-02": "liverpool",
    "1871-02-20": "swansea",
    "1871-07-19": "hull",
    "1871-12-04": "marseille",
    "1871-12-05": "marseille, france",
    "1872-01-02": "liverpool",
    "1872-03-04": "waterford",
    "1872-04-06": "cardiff",
    "1872-05-11": "milford",
    "1872-06-22": "cardiff",
    "1872-11-09": "london",
    "1872-12-04": "marseille",
    "1873-01-31": "falmouth",
    "1873-03-03": "waterford",
    "1873-04-16": "liverpool",
    "1873-04-17": "runcorn",
    "1873-09-02": "bristol",
    "1873-10-03": "cardiff",
    "1873-11-06": "limerick",
    "1873-12-22": "cardiff",
    "1874-04-06": "falmouth",
    "1874-05-17": "cardiff",
    "1874-05-30": "mostyn",
    "1874-07-20": "swansea",
    "1874-08-22": "caen",
    "1874-10-30": "yarmouth",
    "1875-01-06": "portdinorwic, caernarfon",
    "1876-03-10": "porthmadoc",
    "1876-04-25": "hamburg",
    "1876-06-12": "porthmadog",
    "1876-10-04": "portmadoc",
    "1876-12-27": "bristol",
    "1877-01-01": "aberystwyth",
    "1877-02-10": "milford",
    "1877-03-16": "swansea",
    "1877-04-20": "caernafon",
    "1877-05-02": "carnavon",
    "1877-06-14": "hamburg",
    "1877-08-02": "swansea",
    "1877-11-01": "yarmouth",
    "1878-01-07": "liverpool",
    "1878-02-26": "galway",
    "1878-04-05": "newport",
    "1878-05-06": "dublin",
    "1878-05-20": "garston",
    "1878-07-03": "clare castle",
    "1878-09-20": "bangor"
}