{
    "-01-01": "london",
    "1862-02-06": "liverpool",
    "1862-09-24": "cardiff",
    "1862-12-03": "smyrna",
    "1863-02-19": "liverpool",
    "1863-06-01": "barbados",
    "1863-07-29": "liverpool",
    "1864-05-13": "barbados",
    "1864-06-29": "london",
    "1865-09-06": "cardiff",
    "1865-09-23": "milford",
    "1866-01-31": "cardiff",
    "1866-03-27": "london",
    "1866-11-11": "gravesend",
    "1867--01": "swansea",
    "1867-02-04": "london",
    "1867-02-25": "berbrice",
    "1867-03-07": "berbice",
    "1867-04-26": "london",
    "1867-09-28": "swansea",
    "1868-05-13": "greenock",
    "1868-06-13": "glasgow",
    "1868-12-01": "london",
    "1869-06-19": "greenock",
    "1869-07-05": "ardrossan",
    "1869-07-08": "glasgow",
    "1869-11-24": "london",
    "1870-04-22": "antigua",
    "1870-06-01": "london",
    "1870-06-22": "gravesend",
    "1870-07-01": "swansea",
    "1870-11-04": "gibraltar",
    "1870-12-16": "london",
    "1871-03-02": "torquay",
    "1871-07-27": "london",
    "1871-12-20": "cork",
    "1872-01-27": "swansea",
    "1872-06-08": "castries st lucia",
    "1872-06-24": "swansea",
    "1872-07-31": "london",
    "1872-09-24": "swansea",
    "1873-01-30": "berlin",
    "1873-02-17": "london",
    "1873-05-29": "berbice",
    "1873-07-05": "berlin",
    "1873-09-12": "london",
    "1874-04-15": "gravesend"
}