{
    "1864-01-09": "cork",
    "1864-03-05": "plymouth",
    "1864-04-07": "runcorn",
    "1864-06-30": "liverpool",
    "1866-01-01": "aberystwyth",
    "1866-01-15": "rotterdam",
    "1866-06-30": "penzance",
    "1869-07-20": "llanelli",
    "1869-10-08": "pursley",
    "1869-10-16": "bowling",
    "1869-12-26": "aberystwyth",
    "1870-04-16": "llanelli",
    "1870-08-08": "dublin",
    "1870-12-26": "aberystwyth",
    "1871-01-23": "runcorn",
    "1871-01-30": "london",
    "1871-04-12": "newcastle",
    "1871-06-22": "leigh",
    "1871-10-10": "porthmadog",
    "1871-11-16": "portmadoc",
    "1871-12-18": "aberystwyth",
    "1872-07-01": "middlesbrough",
    "1872-08-05": "neath",
    "1872-09-30": "exeter",
    "1873-01-16": "aberdovey",
    "1873-09-20": "runcorn",
    "1873-12-21": "aberdovey",
    "1874-10-02": "aberystwyth",
    "1874-10-13": "llanerch-y-mor",
    "1874-11-17": "mostyn",
    "1874-12-20": "aberystwyth",
    "1876-01-01": "portmadoc",
    "1876-03-01": "quoil",
    "1876-04-01": "gloucestershire",
    "1876-05-01": "portmadoc",
    "1876-05-09": "porthmadog",
    "1876-06-30": "dublin",
    "1877-08-14": "bangor",
    "1877-09-24": "swansea",
    "1877-10-03": "llanelly",
    "1877-12-18": "aberystwyth",
    "1878-07-01": "saundersfoot",
    "1878-07-02": "aberystwyth",
    "1878-08-03": "ipswich",
    "1878-10-31": "swansea",
    "1879-12-31": "runcorn",
    "1880-06-30": "liverpool",
    "1882-07-01": "gloucester",
    "1882-10-23": "portmadoc",
    "1882-12-31": "porthmadog",
    "1883-01-10": "milford"
}