{
    "1868-01-02": "aberdovey",
    "1868-10-01": "leith",
    "1868-10-29": "swansea",
    "1868-12-12": "belfast",
    "1868-12-24": "aberdovey",
    "1876-01-01": "bangor",
    "1876-03-10": "mulroy",
    "1876-04-12": "cardiff",
    "1876-04-20": "waterford",
    "1876-05-09": "briton ferry",
    "1876-06-15": "liverpool",
    "1876-06-22": "runcorn",
    "1876-07-10": "liverpool",
    "1876-07-25": "fraserburgh",
    "1876-09-21": "hamburg",
    "1876-10-27": "llanelli",
    "1876-11-07": "llanelly",
    "1876-12-23": "london",
    "1885-01-21": "aberdovey",
    "1885-03-10": "porthmadog",
    "1885-05-28": "rochester",
    "1885-07-03": "greenock",
    "1885-07-24": "aberdovey"
}