{
    "1885-01-12": "wexford",
    "1885-03-05": "portmadoc",
    "1885-05-22": "aberdovey",
    "1885-06-12": "porthmadog",
    "1885-06-30": "aberdeen",
    "1885-07-17": "london",
    "1885-08-21": "porthmadog",
    "1885-10-06": "porthmadoc",
    "1885-12-20": "plymouth",
    "1885-12-26": "porthmadog"
}