{
    "1863-01-01": "newport",
    "1863-03-01": "aberystwyth",
    "1869-11-03": "portmadoc",
    "1869-11-22": "cardiff",
    "1870-06-04": "aberystwyth",
    "1870-07-01": "newport",
    "1870-10-12": "harlech"
}