{
    "-01-01": "port k$$",
    "1862-04-24": "london",
    "1863-05-16": "demerara",
    "1863-08-10": "london",
    "1866-08-15": "cardiff",
    "1867-05-22": "plymouth",
    "1867-06-26": "cardiff",
    "1867-10-11": "london",
    "1867-12-26": "trinidad",
    "1868-03-09": "london",
    "1868-09-06": "algoa bay",
    "1868-11-19": "plymouth",
    "1868-11-27": "london",
    "1870-11-12": "port elizabeth",
    "1871-03-02": "boston",
    "1871-04-29": "london",
    "1872-02-05": "boston",
    "1872-03-06": "london",
    "1873-07-03": "plymouth",
    "1873-09-17": "london",
    "1875-11-09": "gravesend",
    "1876-01-12": "st pierre",
    "1876-02-20": "trinidad",
    "1876-04-12": "london",
    "1876-11-14": "cardiff",
    "1876-12-15": "milford",
    "1876-12-21": "swansea",
    "1877-01-15": "on board",
    "1877-05-27": "liverpool",
    "1877-08-31": "rio",
    "1877-12-29": "greenock",
    "1878-01-27": "newport",
    "1878-01-28": "greenock",
    "1878-01-29": "troon",
    "1878-05-25": "cardenas",
    "1878-06-13": "new york",
    "1878-12-17": "amsterdam",
    "1879-01-13": "off helwick night ship",
    "1879-01-17": "cardiff",
    "1879-01-31": "muden",
    "1879-07-08": "greenock",
    "1879-07-23": "troon",
    "1879-07-24": "glasgow",
    "1879-07-26": "troon",
    "1879-10-01": "essequibo",
    "1879-10-09": "trinidad",
    "1880-01-04": "london",
    "1880-06-11": "st. johns",
    "1880-06-24": "st. johns n.b.",
    "1880-12-04": "glasgow",
    "1881-01-05": "plymouth",
    "1881-01-11": "lla$$e",
    "1881-01-19": "plymouth",
    "1881-07-11": "barrow",
    "1881-07-18": "swansea",
    "1881-12-13": "falmouth",
    "1881-12-21": "plymouth",
    "1882-01-24": "cardiff",
    "1882-07-04": "london",
    "1882-07-24": "g$$$d",
    "1882-12-07": "boston",
    "1883-03-11": "kingston, jamaica",
    "1883-03-29": "jamaica",
    "1883-05-02": "brunswick",
    "1883-06-11": "glasgow",
    "1884-03-02": "goole",
    "1884-04-17": "dover",
    "1884-07-01": "londonderry",
    "1884-08-02": "cardiff",
    "1884-09-17": "hartlepool",
    "1884-10-03": "weymouth",
    "1884-10-30": "hartlepool",
    "1884-11-29": "weymouth",
    "1884-12-12": "hartlepool",
    "1886-01-10": "middlesbrough",
    "1886-05-20": "greenwich",
    "1886-06-30": "middlesbrough",
    "1886-07-08": "seaham",
    "1886-11-01": "middlesbrough",
    "1886-11-20": "seaham",
    "1887-01-20": "london",
    "1887-03-22": "hartlepool",
    "1887-04-22": "seaham",
    "1887-06-08": "erith",
    "1887-06-25": "seaham",
    "1887-07-19": "middlesbrough",
    "1887-08-20": "hartlepool",
    "1888-01-12": "portsmouth",
    "1888-02-03": "swansea",
    "1888-03-16": "south shields",
    "1888-04-09": "rochester",
    "1888-05-04": "shields",
    "1888-05-11": "south shields",
    "1888-06-04": "rochester",
    "1888-06-09": "greys",
    "1888-06-14": "hartlepool",
    "1888-06-28": "weymouth",
    "1888-07-19": "hartlepool",
    "1888-08-17": "weymouth",
    "1888-08-25": "hartlepool",
    "1888-09-14": "weymouth",
    "1888-10-26": "hartlepool",
    "1888-11-21": "yarmouth",
    "1888-12-17": "hartlepool",
    "1889-03-18": "weymouth",
    "1889-04-25": "hartlepool"
}