{
    "-01-01": "bk",
    "1862-12-31": "cardiff",
    "1863-09-15": "liverpool",
    "1864-06-03": "neath",
    "1864-07-21": "swansea",
    "1864-12-02": "cardiff",
    "1864-12-31": "liverpool",
    "1865-12-14": "glasgow",
    "1866-03-10": "newport",
    "1866-06-03": "swansea",
    "1866-07-19": "swtavder",
    "1866-08-01": "dublin",
    "1866-09-08": "cardiff",
    "1867-01-01": "london",
    "1867-03-09": "briton ferry",
    "1867-06-30": "cardiff",
    "1868-04-03": "liverpool",
    "1868-06-23": "runcorn",
    "1871-07-28": "barrow",
    "1871-09-22": "dunkirk",
    "1872-01-31": "cardiff",
    "1872-07-01": "limerick",
    "1872-12-31": "cardiff",
    "1873-12-06": "rotterdam",
    "1873-12-18": "hull",
    "1874-07-01": "cardigan",
    "1874-09-01": "garston",
    "1876-01-30": "dublin",
    "1876-02-08": "london",
    "1876-04-03": "cardiff",
    "1876-06-30": "dublin",
    "1876-09-27": "swansea",
    "1876-10-10": "cardiff",
    "1877-07-01": "duddon cumberland",
    "1877-12-26": "porthmadog",
    "1878-01-05": "swansea",
    "1878-04-04": "portmadoc",
    "1878-06-30": "southampton",
    "1878-08-05": "dublin",
    "1878-08-26": "wexford",
    "1878-10-07": "swansea",
    "1878-11-03": "bristol",
    "1878-11-1": "swansea",
    "1878-11-10": "bristol",
    "1878-12-02": "gloucestershire",
    "1878-12-17": "swansea",
    "1879-03-24": "london",
    "1879-05-03": "swansea",
    "1879-12-03": "middlesbrough",
    "1879-12-19": "swansea",
    "1880-01-04": "briton ferry",
    "1880-01-07": "swansea",
    "1881-01-04": "briton ferry",
    "1881-05-03": "cardiff",
    "1881-07-20": "limerick",
    "1881-08-18": "newport",
    "1881-08-30": "cardiff",
    "1881-09-16": "newport",
    "1882-01-25": "cardiff",
    "1882-02-10": "gloucester",
    "1882-03-20": "newport",
    "1882-05-04": "shoreham",
    "1882-05-17": "portmadoc",
    "1882-07-07": "sunderland",
    "1882-08-20": "swansea",
    "1882-10-22": "runcorn",
    "1883-01-04": "waterford",
    "1883-01-09": "cardigan",
    "1883-06-06": "porthmadog",
    "1883-07-07": "torquay",
    "1883-07-26": "aberdovey",
    "1883-08-19": "garston",
    "1883-09-26": "aberdovey",
    "1883-11-01": "garston",
    "1883-12-07": "kingstown",
    "1884-01-03": "aberdovey",
    "1884-04-02": "porthmadog",
    "1884-05-05": "portmadoc",
    "1884-06-12": "north fleet",
    "1884-07-07": "limerick",
    "1884-08-16": "porthmadog",
    "1884-09-04": "portmadoc",
    "1884-09-27": "porthmadog",
    "1884-10-02": "southampton",
    "1884-10-27": "caernarfon",
    "1884-11-22": "glasgow",
    "1885-12-23": "portmadoc",
    "1886-01-12": "london",
    "1886-03-06": "porthmadog",
    "1886-04-30": "portmadoc",
    "1886-05-29": "london",
    "1886-07-09": "porthmadog",
    "1886-07-30": "portmadoc",
    "1886-09-02": "porthmadog",
    "1886-09-10": "portmadoc",
    "1886-10-09": "london",
    "1886-10-11": "gravesend",
    "1886-11-08": "aberdovey",
    "1887-01-06": "rochester",
    "1887-02-05": "liverpool",
    "1887-04-07": "porthmadog",
    "1887-04-22": "portmadoc",
    "1887-06-18": "porthmadog",
    "1887-07-05": "portmadoc",
    "1887-09-09": "porthmadog",
    "1887-09-16": "portmadoc",
    "1887-12-02": "porthmadog",
    "1887-12-30": "portmadoc",
    "1888-02-01": "porthmadog",
    "1888-07-03": "newcastle",
    "1888-08-28": "porthmadog",
    "1889-01-07": "rochester",
    "1889-02-23": "porthmadog",
    "1889-03-03": "portmadoc",
    "1889-05-09": "porthmadog",
    "1889-05-17": "portmadoc",
    "1889-08-03": "runcorn",
    "1889-08-17": "liverpool",
    "1889-08-22": "dublin",
    "1889-09-07": "porthmadog",
    "1889-09-23": "portmadoc",
    "1889-12-12": "porthmadog",
    "1890-01-04": "portmadoc",
    "1890-04-23": "porthmadog",
    "1890-04-24": "portmadoc",
    "1890-05-01": "porthmadog",
    "1890-08-05": "portmadoc",
    "1890-10-23": "falmouth",
    "1891-01-04": "cowes",
    "1891-02-02": "bristol",
    "1891-03-07": "garston",
    "1891-05-04": "portmadoc",
    "1891-05-18": "london",
    "1891-06-02": "bristol",
    "1891-06-03": "off godwin sands"
}