{
    "1863-01-01": "port talbot",
    "1863-06-30": "still at sea",
    "1864-02-17": "portmadoc",
    "1864-06-30": "still at sea",
    "1869-01-01": "cardiff",
    "1869-05-25": "newry",
    "1870-01-01": "portmadoc",
    "1870-04-06": "liverpool",
    "1871-07-01": "runcorn",
    "1871-11-01": "liverpool",
    "1872-07-01": "bristol",
    "1872-12-31": "liverpool",
    "1873-05-02": "porthmadog",
    "1873-08-13": "liverpool",
    "1873-12-31": "dublin",
    "1874-06-05": "southampton",
    "1874-07-01": "runcorn",
    "1874-09-12": "liverpool",
    "1874-12-06": "aberystwyth",
    "1877-03-01": "bangor"
}