{
    "1862-10-28": "london",
    "1862-11-": "portland",
    "1863-03-25": "london",
    "1863-07-31": "berbice",
    "1863-09-28": "london",
    "1864-08-01": "bermuda",
    "1864-09-12": "liverpool",
    "1866-06-09": "london",
    "1867-05-16": "berbice",
    "1867-07-15": "london",
    "1867-08-10": "cardiff",
    "1867-11-30": "demerara",
    "1868-02-01": "london"
}