{
    "1862-04-21": "rio grande",
    "1862-08-23": "london",
    "1862-08-24": "havre",
    "1862-08-25": "london",
    "1862-09-23": "south shields",
    "1863-03-27": "rio grande",
    "1863-08-14": "havre, france",
    "1863-09-07": "poole",
    "1863-12-23": "liverpool",
    "1864-06-13": "glasgow",
    "1864-10-26": "london"
}