{
    "1863-01-20": "cardiff",
    "1863-06-30": "belfast",
    "1863-07-01": "whitehaven",
    "1863-12-01": "newquay",
    "1863-12-31": "poole",
    "1864-07-20": "swansea",
    "1866-02-12": "portmadoc",
    "1866-07-01": "swansea",
    "1866-07-30": "newquay",
    "1868-01-01": "swansea",
    "1868-06-30": "runcorn"
}