{
    "1862-07-01": "bristol",
    "1862-10-20": "aberystwyth",
    "1862-12-01": "bristol",
    "1862-12-06": "liverpool",
    "1862-12-23": "bristol",
    "1863-04-18": "plymouth",
    "1863-07-01": "bristol",
    "1863-08-01": "aberystwyth",
    "1863-09-30": "bristol",
    "1863-10-": "pembrey",
    "1863-10-01": "llanelly",
    "1863-11-17": "pembrey",
    "1863-12-": "bristol",
    "1864--01": "milliebrocke",
    "1864-03-18": "swansea",
    "1864-05-06": "brussels",
    "1864-05-19": "bordeaux",
    "1864-06-16": "swansea",
    "1864-07-16": "milliebrocke",
    "1864-07-18": "swansea",
    "1864-09-23": "antwerp",
    "1864-10-18": "brussels",
    "1864-10-20": "antwerp",
    "1864-10-31": "newhaven",
    "1864-12-12": "london",
    "1864-12-20": "brussels",
    "1864-12-23": "london",
    "1865-09-23": "hamburg, germany",
    "1865-10-03": "liverpool",
    "1865-10-12": "hamburg",
    "1865-10-28": "liverpool",
    "1865-11-20": "ardrossan",
    "1865-11-28": "liverpool",
    "1866-04-01": "falmouth",
    "1866-04-05": "liverpool",
    "1866-04-13": "falmouth",
    "1866-05-18": "london",
    "1866-10-20": "middlesbrough",
    "1866-11-02": "dublin",
    "1866-11-10": "london",
    "1866-11-19": "poole",
    "1868-02-22": "porthcawl",
    "1868-02-28": "falmouth",
    "1868-04-08": "devoran",
    "1868-04-25": "porthcawl",
    "1868-05-03": "whitehaven",
    "1868-05-12": "ardrossa",
    "1868-07-04": "ardrossan",
    "1868-07-29": "glasgow",
    "1868-09-04": "ardrossan",
    "1869-07-18": "whitehaven",
    "1869-11-15": "ardrossan",
    "1869-12-03": "whitehaven"
}