{
    "-01-01": "southampton",
    "1861-01-20": "newquay",
    "1863-02-12": "porthcawl",
    "1864-01-10": "bridgewater",
    "1864-06-30": "liverpool",
    "1866-01-01": "cardiff",
    "1867-12-31": "liverpool",
    "1868-01-30": "newquay",
    "1868-05-25": "porthcawl",
    "1868-06-30": "runcorn",
    "1870-07-08": "gloucestershire",
    "1870-07-29": "gloucester",
    "1870-12-01": "barrow",
    "1871-05-31": "liverpool",
    "1871-07-05": "riga",
    "1871-08-27": "belfast",
    "1871-11-08": "maryport",
    "1872-03-08": "cardiff",
    "1872-09-25": "liverpool",
    "1873-05-30": "newquay",
    "1873-07-01": "aberayron",
    "1873-12-31": "liverpool",
    "1876-01-05": "swansea",
    "1876-07-26": "whitehaven",
    "1876-12-12": "arthurston",
    "1876-12-27": "swansea",
    "1877-06-30": "liverpool",
    "1877-12-28": "porthmadog",
    "1879-04-10": "portmadoc",
    "1879-06-27": "glasgow",
    "1879-08-30": "cardiff",
    "1879-09-24": "belfast",
    "1879-11-10": "cardiff",
    "1880-01-16": "briton ferry",
    "1880-05-25": "neath",
    "1880-07-05": "glasgow",
    "1880-09-08": "runcorn",
    "1881-01-21": "portmadoc",
    "1881-01-31": "cardiff",
    "1881-05-25": "newquay",
    "1881-07-01": "runcorn",
    "1881-11-09": "plymouth",
    "1881-16-30": "runcorn",
    "1882-01-17": "belfast",
    "1882-04-24": "porthmadog",
    "1882-05-01": "portmadoc",
    "1882-06-30": "bangor",
    "1883-07-09": "amlwch",
    "1884-01-04": "liverpool",
    "1884-03-02": "bangor",
    "1884-07-17": "amlwch",
    "1884-11-30": "bangor",
    "1885-07-18": "sunderland",
    "1885-12-12": "caernarfon",
    "1886-01-01": "carnarvon",
    "1888-10-22": "cardiff",
    "1888-12-01": "liverpool",
    "1888-12-31": "runcorn",
    "1891-07-01": "scrabster",
    "1891-08-04": "conway",
    "1891-11-13": "bangor",
    "1891-12-26": "conway",
    "1892-02-08": "bangor",
    "1892-05-20": "liverpool",
    "1892-07-18": "holyhead",
    "1892-09-13": "amlwch",
    "1892-10-13": "liverpool river mersey",
    "1892-12-31": "holyhead",
    "1893--4-10": "bangor",
    "1893-01-01": "holyhead",
    "1893-02-08": "runcorn",
    "1893-04-17": "bangor",
    "1893-06-30": "liverpool",
    "1894-01-01": "runcorn",
    "1894-6-22": "porthmadog",
    "1896-01-01": "liverpool",
    "1896-02-06": "holyhead",
    "1896-04-16": "bangor",
    "1896-07-02": "caernarfon",
    "1896-07-25": "carnarvon",
    "1896-11-11": "conway",
    "1897-07-18": "portmadoc",
    "1897-12-06": "liverpool",
    "1899-06-02": "portmadoc",
    "1899-09-20": "bangor",
    "1900-01-01": "holyhead",
    "1900-04-25": "workington",
    "1900-06-30": "glasgow",
    "1900-07-19": "liverpool",
    "1900-08-21": "bangor",
    "1902-01-18": "holyhead",
    "1902-05-14": "porthmadog",
    "1902-05-19": "portmadoc",
    "1902-06-23": "newport",
    "1902-07-27": "porthmadog",
    "1902-08-05": "portmadoc",
    "1902-10-16": "porthmadog",
    "1902-11-18": "portmadoc",
    "1902-12-20": "southampton",
    "1902-12-29": "redbridge",
    "1903-01-01": "southampton",
    "1903-01-24": "newport",
    "1903-02-23": "caernarfon",
    "1903-08-20": "portmadoc",
    "1903-09-21": "southampton",
    "1903-11-10": "belfast",
    "1903-11-21": "porthmadog",
    "1904-01-25": "cardiff",
    "1904-02-20": "porthmadog",
    "1904-03-14": "portmadoc",
    "1904-05-03": "newport",
    "1904-05-26": "caernarfon",
    "1905-03-21": "swansea",
    "1905-06-15": "newport",
    "1906-03-13": "swansea",
    "1906-06-15": "newport",
    "1906-07-16": "plymouth"
}