{
    "1863-08-19": "liverpool",
    "1863-09-29": "london",
    "1865--01": "glasgow",
    "1865-09-08": "greenock",
    "1865-09-11": "bowling",
    "1865-11-13": "alexandria",
    "1866-01-08": "messina, italy",
    "1866-01-19": "messina",
    "1866-01-20": "messina, italy",
    "1866-04-10": "philadelphia",
    "1866-04-13": "philadelphia, united states",
    "1866-05-19": "london"
}