{
    "1862-03-29": "london",
    "1863-01-23": "queenstown",
    "1863-02-": "london",
    "1863-08-29": "melbourne",
    "1863-10-31": "cochin",
    "1863-11-30": "colombo",
    "1864-04-05": "london",
    "1865-04-10": "shields",
    "1865-05-02": "south shields",
    "1866-01-18": "london",
    "1866-07-10": "cardiff",
    "1866-12-28": "falmouth",
    "1867-01-10": "newry",
    "1867-02-18": "troon",
    "1867-06-01": "demerara",
    "1867-07-16": "liverpool",
    "1868-09-20": "london",
    "1868-10-02": "rosario",
    "1868-11-21": "callao",
    "1869-03-29": "port louis",
    "1869-09-20": "london",
    "1870-01-31": "cardiff",
    "1870-03-16": "madeira",
    "1870-07-11": "liverpool",
    "1870-08-06": "cardiff",
    "1870-12-02": "cape passaro",
    "1871-02-01": "queenstown",
    "1871-02-13": "bowling",
    "1871-04-03": "glasgow",
    "1871-07-19": "monte video",
    "1872-01-14": "callao",
    "1872-04-29": "port louis",
    "1872-08-29": "falmouth",
    "1872-09-06": "liverpool",
    "1873-01-15": "buenos aires",
    "1873-03-18": "buenos ayres",
    "1873-03-28": "buenos aires",
    "1873-04-01": "buenos ayres",
    "1873-07-23": "greenock",
    "1873-08-29": "troon",
    "1873-09-04": "glasgow",
    "1873-12-11": "demerara",
    "1873-12-17": "demerary",
    "1874-01-27": "london",
    "1874-08-20": "lyttelton",
    "1875-04-24": "newcastle",
    "1875-05-05": "lyttelton",
    "1875-07-05": "newcastle",
    "1875-09-24": "port louis",
    "1876-01-28": "london",
    "1877-09-07": "cardiff",
    "1878-07-22": "cochin",
    "1878-08-": "cochinchina",
    "1878-09-11": "cochin",
    "1879-01-22": "port said",
    "1879-02-06": "london",
    "1879-07-14": "plymouth",
    "1879-08-02": "london",
    "1879-09-05": "cardiff",
    "1880-04-20": "rott'm",
    "1880-04-27": "rotterdam",
    "1880-05-05": "cardiff",
    "1880-10-04": "monte video",
    "1881-02-04": "milford",
    "1881-05-09": "cardiff",
    "1881-09-18": "fray bentos",
    "1881-09-22": "cape town",
    "1881-12-29": "hamburg, germany",
    "1882-01-13": "leith",
    "1882-08-05": "hamburg, germany",
    "1882-09-25": "hamburg",
    "1882-12-07": "pernambuco",
    "1883-03-31": "hamburg, germany",
    "1883-04-20": "hamburg",
    "1883-05-08": "cardiff",
    "1884-01-04": "liverpool",
    "1884-02-19": "holyhead",
    "1884-05-24": "bahia blanca",
    "1884-09-12": "buenos aires",
    "1884-10-10": "brunswick",
    "1885-02-21": "buenos aires",
    "1885-04-08": "barbados",
    "1885-05-04": "trinidad",
    "1885-05-08": "buenos aires",
    "1885-06-22": "london",
    "1885-07-01": "bahia blanca",
    "1885-07-12": "london",
    "1885-08-27": "milford haven"
}