{
    "-01-01": "runcorn",
    "1863-01-01": "whitehaven",
    "1863-04-21": "cardiff",
    "1863-07-11": "liverpool",
    "1863-11-11": "glasgow",
    "1863-12-06": "cardiff",
    "1864-07-01": "liverpool",
    "1864-08-26": "runcorn",
    "1864-11-20": "glasgow",
    "1864-12-04": "amlwch",
    "1864-12-28": "workington",
    "1866-11-20": "cardiff",
    "1867-01-18": "duddon",
    "1867-07-01": "belfast",
    "1867-08-19": "newport",
    "1867-08-22": "cardiff",
    "1867-12-10": "goodwick",
    "1867-12-31": "fishguard",
    "1868-04-06": "newquay",
    "1868-06-09": "cardiff",
    "1868-09-17": "liverpool",
    "1868-10-22": "dublin",
    "1868-11-16": "nantes",
    "1868-11-18": "saint-nazaire",
    "1868-12-09": "campbeltown",
    "1870-06-22": "cardiff",
    "1870-09-01": "runcorn",
    "1871-01-01": "newquay",
    "1872-07-01": "duddon",
    "1873-01-03": "belfast",
    "1873-06-19": "new ross",
    "1873-08-19": "swansea",
    "1873-12-28": "barrow",
    "1874-01-01": "newport",
    "1874-06-02": "cardiff",
    "1874-06-30": "liverpool",
    "1874-09-15": "runcorn",
    "1875-1-22": "liverpool",
    "1876-03-14": "milford",
    "1876-06-09": "whitehaven",
    "1876-07-22": "limerick",
    "1876-12-09": "cardiff",
    "1879-01-20": "milford",
    "1879-04-01": "cardiff",
    "1879-05-28": "belfast",
    "1879-07-05": "donaghadee",
    "1879-08-16": "cardiff",
    "1879-09-01": "swansea",
    "1879-10-20": "donaghadee",
    "1879-11-01": "cardiff",
    "1880-02-20": "liverpool",
    "1880-03-22": "douglas",
    "1880-03-29": "duddon",
    "1880-05-15": "cardiff",
    "1880-11-16": "sarstone",
    "1880-11-20": "liverpool",
    "1880-12-24": "milford",
    "1880-12-31": "haverfordwest",
    "1881-01-01": "milford",
    "1881-03-14": "cardiff",
    "1881-07-01": "dublin",
    "1881-09-20": "cardiff",
    "1881-11-10": "swansea",
    "1882-01-07": "milford",
    "1882-02-15": "liverpool",
    "1882-06-15": "cardiff",
    "1882-07-02": "waterford",
    "1882-11-01": "porthcawl",
    "1882-12-01": "cardiff",
    "1883-01-03": "kinsale",
    "1883-02-05": "cardiff",
    "1883-05-03": "newport",
    "1883-06-30": "liverpool",
    "1883-11-02": "cardiff",
    "1883-12-22": "llanelli",
    "1884-03-03": "bridgewater",
    "1884-04-28": "cardiff",
    "1884-06-26": "stornoway"
}