{
    "-01-01": "london",
    "1884-07-29": "cardiff",
    "1885-04-28": "bridgewater",
    "1888-04-26": "portmadoc",
    "1888-07-11": "cardiff",
    "1888-12-05": "glasgow",
    "1890-02-03": "cardiff",
    "1890-06-02": "london",
    "1890-07-19": "cardiff",
    "1890-09-30": "faro",
    "1890-11-16": "dunkirk",
    "1905-03-04": "lisbon"
}