{
    "-01-01": "remaining",
    "1863-04-13": "cardiff",
    "1863-08-04": "leith",
    "1864-04-21": "cardiff",
    "1864-08-31": "liverpool",
    "1867-05-01": "runcorn",
    "1867-08-24": "liverpool",
    "1867-12-31": "dieppe",
    "1868-05-27": "cardiff",
    "1868-09-07": "weymouth",
    "1868-10-13": "we",
    "1868-10-23": "south shields",
    "1869-01-27": "leghorn",
    "1869-03-01": "london",
    "1869-04-22": "newport",
    "1869-04-31": "tarragona",
    "1869-07-29": "bristol",
    "1869-09-11": "liverpool",
    "1869-12-31": "plymouth",
    "1870-06-27": "cardiff",
    "1870-10-14": "hull",
    "1871-01-18": "porthmadog",
    "1871-05-22": "newport",
    "1871-07-26": "lisbon"
}