{
    "-01-01": "bridgewater",
    "1863-04-10": "newport",
    "1863-07-01": "liverpool",
    "1863-08-13": "newport",
    "1863-11-23": "liverpool",
    "1863-12-23": "newport",
    "1864-01-19": "barmouth",
    "1864-04-13": "runcorn",
    "1864-07-20": "barmouth",
    "1864-08-12": "antwerp",
    "1864-12-18": "swansea",
    "1867-08-10": "whitehaven",
    "1867-12-30": "runcorn",
    "1868-01-20": "liverpool",
    "1868-03-03": "newcastle",
    "1868-06-03": "runcorn",
    "1868-06-13": "whitehaven",
    "1868-08-13": "liverpool",
    "1869-07-01": "briton ferry",
    "1869-10-16": "porthmadog",
    "1869-10-26": "portmadoc",
    "1869-12-31": "poole",
    "1872-07-01": "maryport",
    "1872-08-10": "runcorn",
    "1873-01-01": "dublin",
    "1873-02-13": "portmadoc",
    "1873-04-12": "maryport",
    "1873-05-13": "newport",
    "1873-05-29": "liverpool",
    "1873-06-30": "limerick",
    "1873-09-04": "porthmadog",
    "1874-04-10": "aberystwyth",
    "1874-07-01": "portmadoc",
    "1874-09-04": "stockton",
    "1874-12-16": "porthmadog",
    "1876-01-03": "holyhead",
    "1876-07-06": "par",
    "1876-11-04": "runcorn",
    "1876-12-01": "port dinorwic",
    "1877-04-25": "bangor",
    "1877-08-14": "runcorn",
    "1877-11-16": "porthmadog",
    "1878-05-10": "runcorn",
    "1878-05-14": "liverpool",
    "1878-06-10": "aberystwyth",
    "1878-12-31": "runcorn",
    "1879-03-21": "ballinacurra",
    "1879-05-05": "newport",
    "1879-06-30": "runcorn",
    "1880-02-27": "port dinorwic",
    "1880-06-30": "runcorn",
    "1881-01-04": "southampton",
    "1881-05-07": "swansea",
    "1882-01-12": "whitehaven",
    "1882-03-30": "runcorn",
    "1882-04-08": "porthmadog",
    "1882-07-01": "cuxhaven",
    "1882-07-31": "swansea",
    "1882-11-28": "newport",
    "1882-12-31": "falmouth",
    "1883-02-13": "runcorn",
    "1883-06-09": "cardiff",
    "1883-07-07": "waterford",
    "1883-12-19": "caernarfon",
    "1884-04-19": "newcastle",
    "1884-05-31": "aberdovey",
    "1884-07-12": "porthmadog",
    "1886-01-07": "milford",
    "1886-02-16": "wexford",
    "1886-05-18": "wicklow",
    "1886-06-30": "dublin",
    "1886-07-20": "newport",
    "1886-09-24": "aberdovey",
    "1886-11-07": "milford haven",
    "1886-12-08": "carr rocks, north berwick",
    "1970-10-14": "runcorn"
}