{
    "-01-01": "remains",
    "1862-07-01": "port elizabeth",
    "1862-07-06": "london",
    "1866-11-08": "hull",
    "1866-12-13": "falmouth",
    "1867-02-25": "hull",
    "1867-04-22": "north shields",
    "1867-06-16": "francou bay, gaudaloupe",
    "1867-08-16": "st. kitts",
    "1867-10-03": "london",
    "1867-12-13": "falmouth",
    "1868-03-05": "london",
    "1868-07-30": "nassau, germany",
    "1868-08-03": "nassau",
    "1868-08-31": "london",
    "1870-10-17": "swansea",
    "1871-02-22": "exeter",
    "1871-04-01": "swansea",
    "1871-07-20": "exeter",
    "1871-08-15": "swansea",
    "1872-01-10": "nantes",
    "1872-02-13": "dublin",
    "1872-03-19": "swansea",
    "1872-08-03": "hamburg, germany",
    "1872-08-15": "south shields",
    "1872-08-29": "lyne down",
    "1872-12-13": "newport",
    "1873-02-16": "liverpool",
    "1874-01-12": "swansea",
    "1874-07-17": "dublin",
    "1876-02-09": "swansea",
    "1876-06-20": "bristol",
    "1876-07-12": "newport",
    "1876-11-13": "queenstown",
    "1876-11-23": "exeter",
    "1877-01-12": "newport",
    "1877-06-09": "hamburg, germany",
    "1877-06-18": "hamburg",
    "1877-06-19": "hamburg, germany",
    "1877-06-27": "south shields",
    "1877-12-04": "hamburg, germany",
    "1877-12-17": "hamburg",
    "1878-02-13": "cardiff",
    "1878-02-17": "swansea",
    "1878-02-27": "cardiff",
    "1878-03-05": "penarth",
    "1878-07-03": "glasgow",
    "1878-11-25": "goole",
    "1879-02-15": "swansea",
    "1879-04-26": "gallipoli",
    "1879-05-19": "smyrna",
    "1879-07-28": "waterford",
    "1879-08-19": "newport",
    "1880-01-20": "liverpool",
    "1880-08-22": "swansea",
    "1880-08-24": "liverpool",
    "1880-09-22": "swansea",
    "1881-05-28": "greenock",
    "1881-06-20": "glasgow",
    "1881-06-27": "greenock",
    "1881-06-28": "glasgow",
    "1882-02-16": "rio grande",
    "1882-06-29": "falmouth",
    "1882-07-07": "rio grande do sul, brazil",
    "1882-07-14": "hamburg, germany",
    "1882-08-04": "hamburg",
    "1882-08-10": "hamburg, germany",
    "1882-08-18": "hamburg",
    "1882-09-18": "weymouth",
    "1883-05-15": "bridgewater",
    "1883-06-08": "swansea",
    "1883-08-02": "st. john's newfoundland, canada",
    "1883-12-22": "petras",
    "1884-01-05": "patras",
    "1884-01-19": "messince",
    "1884-04-01": "glasgow",
    "1884-07-01": "swansea",
    "1884-08-09": "falmouth",
    "1884-10-04": "antwerp",
    "1886-01-30": "liverpool",
    "1886-05-04": "swansea",
    "1886-07-12": "newcastle",
    "1886-10-12": "glasgow dock",
    "1887-02-07": "cowes",
    "1887-03-07": "bangor",
    "1887-04-06": "padstow",
    "1887-04-07": "bangor",
    "1887-04-14": "padstow",
    "1887-08-16": "hamburg, germany",
    "1887-12-28": "cardiff"
}