{
    "-01-01": "whitstable",
    "1863-07-23": "liverpool",
    "1864-03-04": "queenstown",
    "1864-03-17": "hull",
    "1864-09-16": "middlesbrough",
    "1868-05-28": "london",
    "1870-02-20": "rosario",
    "1870-06-20": "london",
    "1870-07-03": "blyth",
    "1870-07-22": "london",
    "1870-10-03": "hartlepool",
    "1870-10-28": "poole",
    "1870-11-18": "london",
    "1871-08-30": "newquay",
    "1871-09-19": "swansea",
    "1872-01-18": "newport",
    "1872-06-21": "london",
    "1872-10-06": "port alfred",
    "1872-12-18": "st. helena",
    "1872-12-23": "st helena",
    "1872-12-24": "st. helena",
    "1873-02-28": "liverpool",
    "1873-07-09": "london",
    "1876-01-28": "cardiff",
    "1876-06-15": "london",
    "1876-11-18": "port alfred",
    "1876-12-30": "pernambuco",
    "1877-03-29": "greenock",
    "1877-04-18": "troon",
    "1877-04-19": "glasgow",
    "1877-04-21": "troon",
    "1877-09-24": "poole",
    "1877-10-20": "swansea",
    "1878-06-08": "london",
    "1878-12-04": "port alfred",
    "1879-01-29": "barbados",
    "1879-04-22": "queenstown",
    "1879-04-28": "liverpool",
    "1879-06-03": "newquay",
    "188-06-26": "swansea",
    "1880-08-11": "london",
    "1880-12-15": "port alfred",
    "1881-02-04": "barbados",
    "1881-02-22": "trinidad",
    "1881-04-26": "london",
    "1881-10-20": "swansea",
    "1882-08-04": "new york",
    "1882-10-12": "whitehaven",
    "1882-11-04": "swansea",
    "1882-12-10": "whitehaven",
    "1883-11-28": "port talbot",
    "1884-01-21": "swansea",
    "1884-11-11": "amlwch",
    "1887-02-07": "briton ferry",
    "1887-03-28": "swansea",
    "1887-04-06": "liverpool",
    "1887-06-23": "swansea",
    "1887-08-29": "garston",
    "1887-09-29": "plymouth",
    "1887-10-13": "portland",
    "1887-10-17": "swansea",
    "1887-11-29": "amlwch",
    "1887-12-15": "liverpool",
    "1888-03-28": "amlwch",
    "1888-04-12": "garston",
    "1888-04-21": "swansea",
    "1889-06-13": "london",
    "1889-08-14": "christiania, denmark",
    "1889-09-06": "london",
    "1890-01-24": "hartlepool",
    "1890-02-24": "folkestone",
    "1890-03-25": "london",
    "1890-04-24": "llanelly",
    "1890-06-14": "blyth",
    "1890-08-01": "sunderland",
    "1890-10-04": "hartlepool",
    "1890-10-20": "poole",
    "1890-11-18": "hartlepool",
    "1890-12-08": "london",
    "1891-01-01": "amble",
    "1891-02-16": "plymouth",
    "1891-03-17": "whitstable",
    "1891-03-28": "sunderland",
    "1891-05-08": "shields",
    "1891-05-09": "south shields",
    "1891-06-21": "hartlepool",
    "1891-06-22": "middlesbrough",
    "1891-06-23": "amble",
    "1891-07-14": "whitstable",
    "1891-08-17": "hebberon",
    "1891-08-19": "south shields",
    "1891-10-12": "tyne dock",
    "1891-10-17": "south shields",
    "1891-10-24": "gateshead",
    "1891-10-29": "south shields",
    "1891-11-17": "poole",
    "1891-11-27": "gurnsey",
    "1892-01-03": "london",
    "1892-01-21": "newcastle",
    "1892-01-23": "south shields",
    "1892-02-23": "poole",
    "1892-04-02": "london",
    "1892-06-02": "whitstable",
    "1892-06-14": "shields",
    "1892-07-01": "seaham",
    "1892-07-18": "whitstable",
    "1892-10-19": "london",
    "1892-11-29": "exeter",
    "1893-07-12": "whitstable",
    "1893-09-13": "london",
    "1894-01-12": "sunderland",
    "1894-03-10": "whitstable",
    "1894-05-24": "seaham",
    "1894-06-14": "whitstable",
    "1894-06-22": "sunderland",
    "1894-07-21": "queensborough",
    "1894-09-11": "whitstable",
    "1894-11-19": "queensborough",
    "1894-12-31": "southampton",
    "1896-01-07": "sunderland",
    "1896-01-20": "dover",
    "1896-01-28": "ramsgate",
    "1896-07-01": "hartlepool",
    "1896-07-24": "poole",
    "1896-08-15": "london",
    "1897-01-01": "sunderland",
    "1897-02-02": "ramsgate",
    "1897-03-02": "sunderland",
    "1897-03-18": "dover",
    "1897-05-17": "sunderland",
    "1897-06-12": "whitstable",
    "1897-06-30": "whitehaven",
    "1897-08-03": "gravesend",
    "1897-08-20": "hartlepool",
    "1897-10-04": "whitstable",
    "1897-10-16": "gravesend",
    "1897-11-06": "newcastle",
    "1897-12-09": "sunderland",
    "1897-12-30": "whitstable",
    "1899-01-30": "gravesend",
    "1899-04-07": "gurnsey",
    "1899-05-31": "london",
    "1899-07-01": "newcastle",
    "1899-08-26": "gravesend",
    "1899-08-30": "london",
    "1899-10-23": "gravesend",
    "1899-11-24": "whitstable",
    "1900-02-24": "sunderland",
    "1900-03-19": "gravesend",
    "1900-03-23": "sunderland",
    "1900-04-19": "ramsgate",
    "1900-05-01": "sunderland",
    "1900-05-24": "whitstable",
    "1900-07-02": "hartlepool",
    "1900-08-10": "whitstable",
    "1900-10-27": "gravesend",
    "1900-11-15": "hartlepool",
    "1900-12-22": "whitstable",
    "1901-07-13": "sunderland",
    "1901-08-06": "whitsable",
    "1901-08-12": "whitstable",
    "1901-08-14": "gravesend",
    "1901-08-22": "hartlepool",
    "1901-09-24": "whitsable",
    "1901-09-26": "sunderland",
    "1901-09-28": "whitstable",
    "1901-10-02": "gravesend",
    "1901-10-19": "sunderland",
    "1901-11-20": "whitsable",
    "1901-12-22": "hartlepool",
    "1902-02-11": "whitstable",
    "1902-02-24": "hartlepool",
    "1902-03-02": "whitsable",
    "1902-04-04": "london",
    "1902-04-28": "whitsable",
    "1902-04-29": "whitstable",
    "1902-05-06": "london",
    "1902-05-22": "newcastle-on-tyne",
    "1902-05-23": "blyth",
    "1902-06-27": "shields",
    "1902-07-02": "newcastle",
    "1902-07-23": "ramsgate",
    "1902-07-29": "shields",
    "1902-07-31": "south shields",
    "1902-08-26": "shields",
    "1902-09-15": "ramsgate",
    "1902-10-21": "shields",
    "1902-11-10": "ramsgate",
    "1903-04-30": "newcastle",
    "1903-05-05": "south shields",
    "1903-05-22": "ramsgate",
    "1903-06-13": "shields",
    "1903-06-30": "exeter",
    "1903-07-07": "teignmouth",
    "1903-08-01": "london",
    "1903-08-20": "shields",
    "1903-09-18": "ramsgate",
    "1905-02-14": "whitstable",
    "1906-01-03": "sunderland",
    "1906-02-07": "whitstable",
    "1906-03-10": "sunderland",
    "1906-04-12": "whitstable",
    "1906-04-28": "sunderland",
    "1906-05-12": "whitstable",
    "1906-07-31": "sunderland",
    "1906-09-05": "whitstable",
    "1906-09-24": "sunderland",
    "1906-10-27": "whitstable",
    "1906-10-31": "gravesend",
    "1906-11-21": "sunderland",
    "1906-12-11": "whitstable",
    "1907-01-02": "sunderland",
    "1907-04-08": "whitstable",
    "1907-04-15": "gravesend",
    "1907-04-26": "sunderland",
    "1907-05-30": "whitstable",
    "1907-06-14": "sunderland",
    "1907-07-10": "whitstable",
    "1907-08-07": "sunderland",
    "1907-09-01": "whitstable",
    "1907-09-26": "sunderland",
    "1907-12-28": "whitstable",
    "1908-01-31": "sunderland",
    "1908-03-03": "whitstable",
    "1908-03-07": "purfleet",
    "1908-03-21": "sunderland",
    "1908-04-25": "whitstable",
    "1908-05-13": "sunderland",
    "1908-06-18": "whitstable",
    "1908-06-20": "gravesend",
    "1908-07-10": "sunderland",
    "1908-08-13": "whitstable",
    "1908-08-29": "sunderland",
    "1908-10-08": "london",
    "1908-10-13": "sunderland",
    "1908-12-17": "shields",
    "1909-01-08": "whitstable",
    "1909-02-13": "shields",
    "1909-02-16": "south shields",
    "1909-03-10": "greenhithe",
    "1909-03-20": "newcastle",
    "1909-06-08": "whitstable",
    "1909-06-24": "london",
    "1909-07-06": "shields",
    "1909-07-09": "south shields",
    "1909-08-06": "whitstable",
    "1909-08-07": "gravesend",
    "1909-09-16": "whitstable",
    "1911-02-16": "grays,on river thames",
    "1911-02-17": "silvertown",
    "1911-02-24": "hebburn upon tyne",
    "1911-03-04": "sunderland",
    "1911-03-27": "thames",
    "1911-04-04": "medway",
    "1911-04-18": "hebburn upon tyne",
    "1911-04-29": "wallsend upon tyne",
    "1911-05-01": "hebburn upon tyne",
    "1911-05-02": "wallsend upon tyne",
    "1911-06-03": "hebburn upon tyne",
    "1911-06-13": "port of rochester",
    "1911-07-05": "dysart",
    "1911-08-19": "rochester",
    "1911-09-05": "port of rochester",
    "1911-09-30": "leith",
    "1911-11-04": "whitstable",
    "1911-11-18": "gillingham, rochester.",
    "1912-01-02": "west hartlepool",
    "2025-02-01": "hartlepool",
    "22121900-01-01": "whitstable"
}