{
    "1865-10-03": "liverpool",
    "1865-12-04": "demerara",
    "1866--29": "antigua",
    "1866-01-11": "liverpool",
    "1866-11-01": "bristol",
    "1866-11-29": "cardiff",
    "1867-02-23": "liverpool",
    "1867-03-191867-03-23": "sea liverpool"
}