{
    "1867-01-01": "liverpool",
    "1867-06-30": "plymouth",
    "1869-06-10": "runcorn",
    "1869-08-28": "aberystwyth",
    "1872-01-26": "newport",
    "1872-04-23": "aberystwyth",
    "1873-01-01": "maryport",
    "1873-06-30": "liverpool",
    "1874-04-07": "llanelly",
    "1874-05-04": "runcorn",
    "1874-05-19": "liverpool",
    "1874-0512-01": "runcorn",
    "1874-07-01": "aberystwyth",
    "1874-12-31": "liverpool",
    "1884-03-01": "aberdovey",
    "1886-09-05": "portmadoc",
    "1886-12-08": "aberystwyth",
    "1887-06-30": "aberdovey",
    "1889-03-12": "gloucester",
    "1889-06-09": "aberdovey",
    "1889-08-10": "portmadoc",
    "1889-10-12": "abersoch",
    "1889-11-26": "aberdovey",
    "1889-12-27": "aberystwyth",
    "1890-04-12": "aberdovey",
    "1890-05-11": "aberystwyth",
    "1890-07-01": "aberdovey",
    "1890-12-25": "aberystwyth",
    "1891-02-17": "portmadoc",
    "1891-04-17": "aberdovey",
    "1891-12-21": "aberystwyth",
    "1892-04-15": "newquay",
    "1892-11-18": "aberdovey",
    "1894-05-28": "gloucestershire",
    "1894-06-19": "gloucester",
    "1896-02-20": "newross",
    "1896-04-11": "aberdovey",
    "1896-06-12": "pwllheli",
    "1896-07-05": "portmadoc",
    "1896-07-15": "gloucestershire",
    "1896-08-02": "aberystwyth",
    "1896-08-15": "portmadoc",
    "1896-09-20": "porthmadog",
    "1896-10-22": "portmadoc",
    "1896-12-14": "porthmadog",
    "1897-01-19": "portmadoc",
    "1897-02-25": "porthmadog",
    "1897-03-01": "portmadoc",
    "1897-05-01": "porthmadog",
    "1897-05-11": "portmadoc",
    "1897-05-25": "bridgewater",
    "1897-06-22": "aberdovey",
    "1898-04-10": "portmadoc",
    "1898-06-11": "porthmadog",
    "1898-06-18": "portmadoc",
    "1898-07-13": "bridgewater",
    "1898-07-28": "aberdovey",
    "1898-10-13": "gloster",
    "1898-11-30": "bristol",
    "1900-01-01": "portmadoc",
    "1900-03-20": "porthmadog",
    "1901-02-12": "newport",
    "1901-03-27": "cardiff",
    "1903-01-01": "portmadoc",
    "1903-05-23": "southampton",
    "1903-06-23": "porthmadog",
    "1903-07-01": "portmadoc",
    "1903-07-18": "portsmouth",
    "1903-08-13": "swansea",
    "1903-10-25": "milford",
    "1903-11-22": "aberaeron",
    "1904-03-19": "aberayron",
    "1904-03-20": "porthmadog",
    "1904-04-11": "portmadoc",
    "1904-05-28": "porthmadog",
    "1904-06-10": "portmadoc",
    "1904-07-07": "aberayron",
    "1904-07-11": "porthmadog",
    "1904-08-15": "portmadoc",
    "1904-10-21": "aberaeron",
    "1906-03-15": "portmadoc",
    "1906-04-20": "porthmadog",
    "1906-08-06": "portmadoc",
    "1906-11-30": "aberaeron",
    "1907-04-01": "aberayron",
    "1907-04-02": "porthmadog",
    "1907-04-13": "portmadoc",
    "1907-04-27": "cardiff",
    "1907-05-04": "porthmadog",
    "1907-10-07": "portmadoc",
    "1908-01-04": "scilly",
    "1908-06-06": "st. ives",
    "1908-06-25": "scilly",
    "1908-09-19": "cardiff",
    "1908-11-22": "plymouth",
    "1909-01-06": "scilly",
    "884-03-01": "aberdovey"
}