{
    "1863-01-27": "new york",
    "1863-07-31": "cardiff",
    "1864-03-13": "cork",
    "1864-12-25": "new york",
    "1865-09-25": "south shields",
    "1866-01-26": "antwerp",
    "1866-03-24": "greenock",
    "1866-10-05": "glasgow",
    "1866-10-09": "greenock",
    "1866-10-17": "30 miles s by e from newry"
}