{
    "-01-01": "remains",
    "1862-06-03": "cardiff",
    "1862-10-04": "st. helena",
    "1863-06-05": "st helena",
    "1863-08-15": "london",
    "1863-11-20": "plymouth",
    "1864-06-15": "bombay",
    "1864-11-13": "kurrachee",
    "1864-11-15": "chittagong",
    "1864-11-24": "kurrachee",
    "1865-01-01": "chittagong",
    "1865-03-15": "dillying",
    "1865-03-25": "colombo, sri lanka",
    "1865-05-14": "bombay",
    "1865-05-17": "colombo, sri lanka",
    "1865-06-22": "calcutta",
    "1865-09-11": "chittagong",
    "1865-11-05": "colombo",
    "1865-12-10": "colombo, sri lanka",
    "1865-12-14": "colombo",
    "1866-04-12": "akyah",
    "1866-04-14": "akyab",
    "1866-05-08": "al akyahe",
    "1866-05-14": "achyahab",
    "1866-07-16": "port louis",
    "1866-07-22": "port louis, maritius",
    "1866-07-30": "port louis"
}