{
    "-01-01": "aberaeron",
    "1862-10-": "cardiff",
    "1862-10-15": "milford",
    "1863-01-30": "liverpool",
    "1863-05-30": "st. johns",
    "1863-07-10": "quebec",
    "1863-08-27": "aberaeron",
    "1863-09-05": "aberayron",
    "1863-09-09": "newquay",
    "1863-12-12": "aberaeron",
    "1864-03-01": "cardiff",
    "1864-08-06": "aberaeron",
    "1864-08-17": "aberayron",
    "1864-11-17": "aberaeron",
    "1866-03-23": "swansea",
    "1866-06-14": "quebec",
    "1866-07-31": "aberaeron",
    "1866-08-21": "aberayron",
    "1866-12-25": "aberaeron",
    "1867-04-25": "liverpool",
    "1867-08--28": "aberaeron",
    "1867-09-10": "aberayron",
    "1868-01-04": "aberaeron",
    "1868-04-09": "liverpool",
    "1868-10-02": "aberaeron",
    "1868-10-19": "aberayron",
    "1869-02-23": "gothenburg",
    "1869-03-18": "aberaeron",
    "1869-04-09": "aberayron",
    "1869-05-28": "quebec",
    "1869-07-08": "aberaeron",
    "1869-08-10": "aberayron",
    "1869-08-16": "swansea",
    "1870-01-03": "aberaeron",
    "1870-04-08": "liverpool",
    "1870-06-14": "newfoundland",
    "1870-08-27": "aberaeron",
    "1870-09-21": "aberayron",
    "1870-094-08": "liverpool",
    "1870-12-12": "aberaeron",
    "1872-04-10": "liverpool",
    "1872-08-20": "aberaeron",
    "1872-08-21": "swansea",
    "1872-08-24": "aberaeron",
    "1872-09-06": "aberayron",
    "1872-10-11": "liverpool",
    "1872-12-01": "ardrossan",
    "1872-12-16": "aberaeron",
    "1873-04-21": "aberayron",
    "1873-08-05": "appledore",
    "1873-08-21": "swansea",
    "1873-08-22": "bristol",
    "1873-08-25": "appledore",
    "1873-10-21": "quebec",
    "1873-12-04": "swansea",
    "1874-06-18": "q'town",
    "1874-07-06": "otowa",
    "1874-10-16": "quebec",
    "1874-11-25": "porthmadog",
    "1876-04-25": "aberayron",
    "1876-07-31": "appledore",
    "1876-08-12": "swansea",
    "1876-08-15": "appledore",
    "1876-08-28": "aberaeron",
    "1876-11-29": "porthmadog",
    "1877-03-28": "aberayron",
    "1877-04-28": "aberaeron",
    "1877-05-08": "aberayron",
    "1877-08-30": "cardigan",
    "1877-10-23": "aberayron",
    "1877-11-02": "pwllheli",
    "1878-03-21": "aberaeron",
    "1878-04-24": "aberayron",
    "1878-07-26": "aberaeron",
    "1878-08-29": "aberayron",
    "1879-02-11": "caernarfon",
    "1879-05-01": "aberayron",
    "1879-07-07": "quebec",
    "1879-08-19": "porthmadog",
    "1879-10-21": "portmadog",
    "1880-03-17": "pt. madre",
    "1880-04-20": "portmadre",
    "1880-08-16": "portmadoc",
    "1880-08-17": "porthmadog",
    "1880-09-03": "aberayron",
    "1880-09-25": "cardigan",
    "1880-11-29": "newcastle",
    "1880-12-31": "plymouth"
}