{
    "1863-01-01": "cardiff",
    "1863-03-27": "runcorn",
    "1863-06-30": "liverpool",
    "1863-12-31": "aberystwyth",
    "1864-06-30": "liverpool",
    "1864-12-31": "aberystwyth",
    "1866-10-15": "barrow",
    "1866-12-14": "belfast",
    "1866-12-24": "harrington",
    "1866-12-31": "whitehaven",
    "1868-02-03": "aberystwyth",
    "1868-06-30": "belfast",
    "1868-08-14": "gloucestershire",
    "1868-08-22": "gloucester",
    "1868-12-31": "porthmadog",
    "1869-01-01": "portmadoc",
    "1869-06-10": "llanelli",
    "1869-06-15": "llanelly",
    "1869-06-30": "middlesbrough",
    "1869-07-01": "aberystwyth",
    "1869-12-31": "newberry",
    "1870-01-01": "newport",
    "1870-06-18": "porthmadog",
    "1870-07-14": "portmadoc",
    "1870-09-05": "london",
    "1870-12-08": "porthmadog",
    "1871-01-09": "london",
    "1871-02-01": "portmadoc",
    "1871-05-10": "porthmadog",
    "1871-05-11": "portmadoc",
    "1871-06-08": "london",
    "1871-07-03": "portmadoc",
    "1871-10-26": "dublin",
    "1872-05-03": "portmadoc",
    "1872-06-04": "rotterdam",
    "1872-07-08": "briton ferry",
    "1872-08-09": "portmadoc",
    "1872-10-28": "porthmadog",
    "1873-02-10": "portmadoc",
    "1873-04-12": "runcorn",
    "1873-04-22": "porthmadog",
    "1873-05-07": "portmadoc",
    "1873-07-15": "newhaven",
    "1873-09-15": "portmadoc",
    "1873-12-15": "porthmadog",
    "1874-04-02": "portmadoc",
    "1874-06-13": "porthmadog",
    "1875-07-13": "portmadoc",
    "1875-12-30": "porthmadog",
    "1876-03-28": "portmadoc",
    "1876-06-10": "porthmadog",
    "1876-09-09": "swansea",
    "1876-09-18": "portmadoc",
    "1876-11-20": "porthmadog",
    "1877-01-04": "portmadoc",
    "1877-02-14": "porthmadog",
    "1877-03-29": "portmadoc",
    "1877-05-29": "ramsay",
    "1877-06-13": "porthmadog",
    "1877-07-10": "portmadoc",
    "1877-08-30": "porthmadog",
    "1877-09-20": "portmadoc",
    "1877-12-31": "porthmadog",
    "187701-05-01": "portmadoc",
    "1880-04-01": "westernpoint",
    "1880-07-01": "irvine",
    "1880-08-11": "porthmadog",
    "1880-09-01": "portmadoc",
    "1880-10-20": "western point",
    "1880-11-24": "porthmadog",
    "1881-02-17": "portmadoc",
    "1881-07-01": "porthmadoc",
    "1881-09-08": "porthmadog",
    "1881-09-15": "porthmadoc",
    "1881-11-21": "dublin",
    "1881-12-05": "porthmadog",
    "1882-07-12": "portmadoc",
    "1882-09-26": "porthmadog",
    "1882-10-27": "portmadoc",
    "1882-12-07": "porthmadog",
    "1884-02-20": "portmadoc",
    "1884-04-10": "porthmadog",
    "1884-04-12": "portmadoc",
    "1884-07-10": "sunderland",
    "1884-11-17": "portmadoc",
    "1884-12-27": "porthmadog",
    "1886-01-01": "newry",
    "1886-03-02": "portmadoc",
    "1886-06-02": "porthmadog",
    "1886-06-30": "runcorn",
    "1886-07-01": "london",
    "1886-07-27": "porthmadog",
    "1886-08-16": "portmadoc",
    "1886-11-04": "porthmadog",
    "1887-01-26": "portmadoc",
    "1887-06-06": "porthmadog",
    "1887-09-28": "portmadoc",
    "1887-12-17": "goutrope"
}