{
    "1863-01-11": "newport",
    "1863-04-11": "aberystwyth",
    "1863-08-26": "swansea",
    "1864-02-01": "aberystwyth",
    "1873-09-12": "llanelli",
    "1873-12-22": "liverpool",
    "1874-01-01": "garston",
    "1874-03-21": "portmadoc",
    "1874-06-30": "swansea",
    "1874-08-08": "runcorn",
    "1874-11-20": "newry",
    "1874-12-31": "london",
    "1877-01-13": "newry",
    "1877-01-28": "swansea",
    "1877-02-02": "porthmadog",
    "1877-02-05": "portmadoc",
    "1877-07-04": "swansea",
    "1878-07-02": "portmadoc",
    "1878-09-30": "aberystwyth",
    "1878-10-11": "swansea",
    "1878-10-30": "aberystwyth",
    "1878-12-27": "runcorn",
    "1879-12-31": "london",
    "1880-01-01": "southampton",
    "1880-02-27": "aberaeron",
    "1880-05-19": "waterford",
    "1880-06-04": "pentewan",
    "1880-06-18": "brussels",
    "1880-07-19": "swansea",
    "1880-12-24": "aberystwyth",
    "1886-12-09": "newquay",
    "1890-01-01": "portmadoc",
    "1890-07-01": "gloucestershire",
    "1891-10-14": "gloucester",
    "1891-10-16": "kingroads",
    "1891-10-20": "bridgewater",
    "1891-12-24": "falmouth"
}