{
    "-01-01": "dublin",
    "1844-11-17": "london",
    "1862-04-16": "cardiff",
    "1863-09-22": "liverpool",
    "1863-10-17": "cardiff",
    "1864-02-03": "liverpool",
    "1864-03-01": "cardiff",
    "1864-05-01": "ipswich",
    "1864-07-01": "cardiff",
    "1864-09-28": "liverpool",
    "1866-01-10": "cardiff",
    "1866-05-04": "runcorn",
    "1866-06-14": "cardiff",
    "1866-09-04": "bristol",
    "1868-02-17": "swansea",
    "1868-05-27": "runcorn",
    "1868-06-30": "aberaeron",
    "1868-09-18": "newport",
    "1868-11-29": "liverpool",
    "1869-02-01": "swansea",
    "1869-05-20": "cormaks quay",
    "1869-06-22": "swansea",
    "1869-08-15": "liverpool",
    "1870-02-15": "newport",
    "1870-04-24": "liverpool",
    "1870-06-15": "neath",
    "1870-08-24": "dublin",
    "1870-10-01": "cardiff",
    "1870-12-01": "liverpool",
    "1871-03-15": "neath",
    "1871-05-18": "liverpool",
    "1871-07-03": "swansea",
    "1871-09-27": "liverpool",
    "1872-01-20": "swansea",
    "1872-03-10": "cardiff",
    "1872-07-09": "newcastle",
    "1872-10-22": "liverpool",
    "1872-11-27": "penzance",
    "1873-01-14": "liverpool",
    "1873-03-07": "milford",
    "1873-04-18": "glasgow",
    "1873-06-25": "runcorn",
    "1873-09-08": "cardiff",
    "1873-12-19": "london",
    "1874-03-01": "swansea",
    "1874-05-05": "dublin",
    "1874-05-22": "aberaeron",
    "1876-01-05": "swansea",
    "1876-03-17": "yarmouth",
    "1876-06-10": "teignmouth",
    "1876-06-30": "dublin",
    "1877-01-01": "ipswich",
    "1877-03-24": "cardiff",
    "1877-07-17": "liverpool",
    "1877-12-20": "briton ferry",
    "1878-01-09": "continuing briton ferry",
    "1878-02-18": "rotterdam",
    "1878-06-27": "cardiff",
    "1878-12-20": "newquay",
    "1878-12-24": "aberaeron",
    "1880-05-28": "aberayron",
    "1880-05-31": "porthmadog",
    "1880-07-16": "portmadoc",
    "1880-08-28": "aberdovey",
    "1880-12-12": "weymouth",
    "1880-12-20": "caernarfon",
    "1881-01-01": "weymouth",
    "1881-02-20": "aberdovey",
    "1881-07-07": "liverpool",
    "1881-09-29": "wells",
    "1881-12-01": "aberdovey",
    "1882-05-22": "antwerp",
    "1882-07-13": "liverpool",
    "1882-08-17": "mumbles",
    "1882-09-29": "gijon",
    "1882-10-30": "london",
    "1882-12-24": "aberdovey",
    "1884-03-28": "portmadoc",
    "1884-05-27": "london",
    "1884-07-05": "porthmadog",
    "1884-08-19": "portmadoc",
    "1884-09-11": "south shields",
    "1884-11-06": "london",
    "1884-12-31": "aberdovey",
    "1886-07-07": "london",
    "1886-08-08": "porthmadog",
    "1886-08-18": "portmadoc",
    "1886-10-08": "aberdovey",
    "1887-07-04": "southampton",
    "1887-08-16": "porthmadog",
    "1887-09-08": "portmadoc",
    "1887-11-10": "porthmadog",
    "1887-11-21": "portmadoc",
    "1888-01-01": "london",
    "1888-02-01": "fleetwood",
    "1888-02-15": "porthmadog",
    "1888-03-03": "portmadoc",
    "1888-05-25": "aberdovey",
    "1888-08-30": "belfast",
    "1888-11-06": "grimsby",
    "1971-09-09": "liverpool"
}