{
    "-01-01": "falmouth",
    "-24-01": "grevesend",
    "1862-08-11": "liverpool",
    "1863-02-16": "london",
    "1863-06-02": "demerara",
    "1863-07-28": "london",
    "1865-10-02": "galati",
    "1866--30": "london",
    "1868-02-20": "south shields",
    "1868-04-29": "st helena",
    "1868-06-30": "falmouth",
    "1868-09-08": "london",
    "1869-04-29": "st helena",
    "1869-05-12": "st. helena",
    "1869-07-07": "tobago",
    "1869-09-08": "london",
    "1870-03-21": "falmouth",
    "1870-04-05": "barnstaple",
    "1870-05-03": "cardiff",
    "1870-11-26": "falmouth",
    "1871-01-13": "tralee",
    "1871-01-27": "dingle",
    "1871-06-21": "hamburg",
    "1871-11-16": "london",
    "1871-12-14": "gravesend",
    "1872-01-15": "falmouth",
    "1872-06-27": "london",
    "1872-08-08": "falmouth",
    "1872-10-05": "nassau, germany",
    "1872-10-09": "nassaw",
    "1872-11-29": "london",
    "1873-05-13": "laguna",
    "1873-07-26": "liverpool",
    "1873-12-06": "rio grande",
    "1874-05-01": "liverpool",
    "1874-06-30": "runcorn",
    "1874-07-07": "liverpool",
    "1874-11-23": "antwerp",
    "1874-12-31": "porthmadog",
    "1875-09-09": "falmouth",
    "1875-09-10": "plymouth",
    "1875-09-11": "falmouth",
    "1875-10-25": "seville",
    "1876-01-15": "gloucestershire",
    "1876-02-11": "gloster",
    "1876-02-19": "cardiff",
    "1876-06-02": "porthmadog",
    "1876-08-08": "portmadoc",
    "1876-09-12": "hamburg, germany",
    "1876-09-13": "hamburg",
    "1876-10-31": "belfast",
    "1877-02-13": "stockton",
    "1877-06-30": "leith",
    "1877-08-01": "dover",
    "1877-08-15": "cherbourg",
    "1877-10-15": "dover",
    "1877-11-03": "london",
    "1877-11-14": "dover",
    "1878-01-16": "queenstown",
    "1878-01-28": "yarmouth",
    "1878-02-07": "great yarmouth",
    "1878-03-07": "aberystwyth",
    "1878-07-19": "swansea",
    "1878-10-19": "caen",
    "1878-12-01": "swansea",
    "1879-11-01": "liverpool",
    "1880-02-02": "burghead",
    "1880-02-14": "charlestown",
    "1880-03-23": "porthmadog",
    "1880-05-20": "south shields",
    "1880-08-23": "aberystwyth",
    "1880-10-04": "swansea",
    "1880-11-25": "gloucestershire",
    "1881-05-14": "limerick",
    "1881-05-18": "fogus",
    "1881-08-25": "aberystwyth",
    "1881-09-07": "porthmadog",
    "1881-09-08": "porthmadoc",
    "1881-10-07": "hamburg, germany",
    "1881-10-20": "hamburg",
    "1881-11-03": "aberystwyth",
    "1881-11-06": "copenhagen",
    "1881-11-07": "aberystwyth"
}