{
    "-01-01": "greenock",
    "01-07-82": "liverpool",
    "1878-10-04": "hull",
    "1878-11-10": "marseille",
    "1879-02-08": "weymouth",
    "1879-02-18": "bristol",
    "1879-11-12": "cardiff",
    "1879-12-12": "tralee",
    "1880-04-28": "swansea",
    "1880-08-07": "st. johns, newfoundland",
    "1880-12-20": "patras",
    "1881-03-12": "liverpool",
    "1881-09-20": "cork",
    "1881-11-03": "swansea",
    "1882-01-18": "liverpool",
    "1882-05-10": "cardiff",
    "1882-08-18": "hartlepool",
    "1882-12-27": "st. johns, newfoundland",
    "1883-04-12": "llanelly",
    "1883-10-26": "plymouth",
    "1884-05-12": "swansea",
    "1884-07-09": "catania",
    "1884-10-30": "glasgow",
    "1885-01-04": "milford",
    "1885-03-31": "london",
    "1885-05-09": "swansea",
    "1885-12-20": "milford",
    "1886-04-24": "liverpool",
    "1886-07-01": "swansea",
    "1888-01-19": "allicante",
    "1888-01-27": "alicante",
    "1888-02-05": "gibraltar",
    "1888-03-31": "stockholm",
    "1888-04-09": "middlesbrough",
    "1888-05-03": "cardiff",
    "1888-10-05": "pembroke",
    "1888-11-06": "shearness",
    "1888-12-08": "falmouth",
    "1888-12-28": "ardrossan",
    "1982-04-27": "cardiff",
    "1982-08-18": "hartlepool",
    "1982-12-02": "st. john's newfoundland, canada",
    "1983-02-23": "greenock"
}