{
    "-01-01": "freetown",
    "1871-01-01": "aberystwyth",
    "1871-05-20": "plymouth",
    "1871-09-19": "london",
    "1872-01-02": "buenos aires",
    "1872-01-03": "buenos ayres",
    "1872-01-07": "hamburg, germany",
    "1872-05-20": "plymouth",
    "1872-07-08": "fowey",
    "1872-07-09": "plymouth",
    "1872-07-10": "fowey",
    "1872-12-06": "hamburg, germany",
    "1873-01-14": "cuxhaven",
    "1873-03-24": "hamburg",
    "1873-06-17": "bahia",
    "1873-10-09": "hamburg, germany",
    "1873-12-30": "hamburg",
    "1874-02-03": "cuxhaven",
    "1874-02-12": "cuxhaven, germany",
    "1874-04-18": "siera leone",
    "1874-08-07": "hamburg, germany",
    "1874-09-15": "hamburg",
    "1874-09-18": "hamburg, germany",
    "1874-09-28": "sunderland",
    "1874-12-02": "cuxhaven, germany"
}