{
    "1864-04-20": "cardiff",
    "1864-09-20": "london",
    "1866-11-02": "berbice",
    "1867-01-14": "london",
    "1868-09-04": "cardiff",
    "1868-11-26": "berbice",
    "1869-01-18": "london",
    "1869-02-26": "deal",
    "1869-03-05": "london",
    "1869-06-17": "berbice",
    "1869-09-08": "london",
    "1869-12-10": "sisal",
    "1870-03-21": "london",
    "1870-07-02": "parham harbour, antigua",
    "1870-07-04": "antigua",
    "1870-08-23": "london",
    "1871-04-02": "hamburg, germany",
    "1871-04-24": "hamburg",
    "1871-05-21": "greenock",
    "1871-06-13": "glasgow",
    "1871-12-01": "buenos aires",
    "1871-12-05": "buenos ayres",
    "1871-12-29": "buenos aires",
    "1889-02-17": "london",
    "1889-02-26": "deal"
}