{
    "-01-01": "new york",
    "1863-09-23": "cardiff",
    "1863-12-09": "tarragona",
    "1863-12-16": "targaon",
    "1864-03-16": "new york",
    "1864-06-18": "bristol",
    "1864-07-08": "cardiff",
    "1864-11-09": "london",
    "1964-05-18": "bristol"
}