{
    "1863-09-16": "cardiff",
    "1864-01-18": "liverpool",
    "1866-07-30": "cardiff",
    "1866-10-01": "tarragona",
    "1866-10-12": "malaga",
    "1866-10-16": "cardiff",
    "1866-12-24": "philadelphia, united states",
    "1867-02-08": "rotterdam",
    "1867-02-28": "helvoetsluys",
    "1867-03-24": "cardiff",
    "1867-09-13": "leith",
    "1868-01-21": "cardiff",
    "1868-10-28": "hamburg",
    "1868-11-01": "hamburg, germany",
    "1868-11-09": "hamburg",
    "1869-01-02": "dublin",
    "1869-01-21": "cardiff",
    "1869-02-19": "westport",
    "1869-08-10": "cardiff",
    "1869-11-22": "ghent",
    "1870-01-14": "cardiff",
    "1870-01-15": "gent",
    "1870-02-10": "cardiff",
    "1870-07-08": "queenstown",
    "1870-08-11": "granton",
    "1871-02-21": "london",
    "1871-05-22": "trinidad",
    "1871-07-06": "london",
    "1871-12-24": "port alfred",
    "1872-04-26": "london",
    "1873-03-02": "plymouth",
    "1873-05-21": "st helena",
    "1873-06-02": "st. helena",
    "1873-08-28": "london",
    "1874-02-17": "st. john's newfoundland, canada"
}