{
    "-01-01": "rangoon",
    "1864-03-21": "gloster",
    "1864-04-07": "newport",
    "1864-08-16": "greenock",
    "1866-05-26": "london",
    "1868-07-27": "bombay",
    "1868-08-19": "columbo",
    "1869-01-28": "london",
    "1869-09-28": "chittagong",
    "1869-11-23": "columbo",
    "1870-02-06": "bristol",
    "1870-05-13": "columbo",
    "1870-06-28": "penang",
    "1870-07-08": "boston",
    "1870-12-01": "new york",
    "1871-01-18": "bristol",
    "1871-02-25": "cardiff",
    "1871-07-10": "liverpool",
    "1871-09-01": "bristol",
    "1871-10-10": "liverpool",
    "1872-05-24": "antwerp",
    "1872-06-25": "liverpool",
    "1872-09-02": "london",
    "1872-10-22": "santos",
    "1873-02-02": "port elizabeth",
    "1873-03-18": "cochin",
    "1873-09-02": "london",
    "1873-10-20": "gravesend",
    "1874-02-18": "port elizabeth",
    "1874-09-20": "london",
    "1877-01-03": "liverpool",
    "1877-05-26": "bombay",
    "1877-07-18": "calcutta",
    "1877-10-12": "port louis",
    "1878-01-06": "bombay",
    "1878-02-26": "rangoon",
    "1878-10-02": "cochin",
    "1879-02-14": "london",
    "1879-06-25": "trinidad",
    "1879-09-21": "london",
    "1880-03-13": "mossel bay",
    "1880-06-17": "barbados",
    "1880-08-02": "montreal",
    "1880-10-19": "london",
    "1881-06-26": "barbados",
    "1881-08-28": "montreal",
    "1882-08-11": "cardiff",
    "1882-11-18": "santos",
    "1883-02-10": "green island, jamaica",
    "1883-04-04": "glasgow",
    "1883-06-23": "rio",
    "1883-08-03": "barbados",
    "1883-09-05": "jamaica",
    "1883-11-04": "liverpool",
    "1883-11-08": "santos",
    "1883-12-29": "liverpool",
    "1884-03-22": "buenos aires"
}