{
    "1869-01-01": "cardiff",
    "1869-06-30": "sea",
    "1870-01-01": "aberystwyth",
    "1870-03-20": "runcorn",
    "1873-07-15": "cardigan",
    "1873-09-08": "porthmadog",
    "1878-07-17": "charleston",
    "1878-11-12": "swansea",
    "1879-01-01": "newport",
    "1879-01-23": "aberystwyth",
    "1879-06-30": "liverpool",
    "1880-01-01": "aberystwyth",
    "1880-06-30": "liverpool",
    "1883-01-05": "milford",
    "1883-07-01": "dundee",
    "1884-11-29": "aberystwyth",
    "1885-08-10": "swansea",
    "1885-12-25": "aberdovey",
    "1886-01-07": "ardglass, county down"
}