{
    "1864-07-19": "cardiff",
    "1864-10-24": "runcorn",
    "1866-02-15": "liverpool",
    "1866-04-25": "colon",
    "1866-06-05": "jamaica",
    "1866-06-09": "falmouth, jamaica",
    "1866-07-31": "london",
    "1866-09-15": "tyne",
    "1866-10-04": "newcastle",
    "1866-10-20": "london",
    "1866-12-03": "marseille, france",
    "1866-12-04": "marseille",
    "1866-12-06": "marseille, france",
    "1867-02-02": "yarmouth",
    "1867-02-23": "south shields",
    "1867-05-20": "liverpool",
    "1867-09-14": "runcorn",
    "1867-11-08": "liverpool",
    "1868-11-03": "boston",
    "1869-02-13": "london",
    "1869-11-15": "natal",
    "1869-11-19": "port natal",
    "1870-02-28": "london",
    "1871-10-15": "east london"
}