{
    "-01-01": "falmouth",
    "03-24-74": "connah's quay",
    "1864-05-18": "south shields",
    "1864-08-19": "falmouth",
    "1864-12-04": "dublin",
    "1865-01-10": "cardiff",
    "1865-11-16": "london",
    "1865-12-09": "falmouth",
    "1866-01-01": "berbice",
    "1866-04-04": "london",
    "1867-12-06": "newport",
    "1868-03-10": "gloucestershire",
    "1868-03-31": "gloucester",
    "1868-04-10": "aberystwyth",
    "1868-07-04": "beaufort",
    "1868-07-29": "cardiff",
    "1868-10-28": "bristol",
    "1868-11-10": "newport",
    "1869-01-18": "liverpool",
    "1869-02-16": "gloucestershire",
    "1869-02-23": "runcorn",
    "1869-08-09": "porthcawl",
    "1869-12-08": "newcastle",
    "1869-12-31": "dublin",
    "1870-05-12": "hamburg",
    "1870-07-04": "newport",
    "1870-07-08": "cardiff",
    "1870-08-29": "constantinople",
    "1870-10-07": "sou$ina",
    "1870-10-14": "constantinople",
    "1870-12-22": "penzance",
    "1871-01-23": "cardiff",
    "1871-02-11": "falmouth",
    "1871-05-08": "liverpool",
    "1871-05-27": "runcorn",
    "1871-09-28": "yarmouth",
    "1872-11-11": "limerick",
    "1873-01-27": "poole",
    "1873-02-19": "goole",
    "1873-02-24": "hull",
    "1873-03-20": "plymouth",
    "1873-05-22": "barrow",
    "1873-07-15": "antwerp",
    "1873-08-28": "plymouth",
    "1873-11-21": "liverpool",
    "1873-11-23": "runcorn",
    "1873-12-27": "liverpool",
    "1874-03-04": "chester",
    "1874-03-24": "connah's quay",
    "1874-05-18": "northampton",
    "1874-05-27": "chester",
    "1874-07-20": "newcastle",
    "1874-11-13": "liverpool",
    "1874-11-24": "runcorn",
    "1875-10-10": "bangor",
    "1875-12-07": "galway",
    "1876-03-02": "goole",
    "1876-04-17": "porthmadog",
    "1876-04-18": "plymouth",
    "1876-04-19": "goole",
    "1876-05-02": "porthmadog",
    "1876-09-30": "shields",
    "1876-10-02": "south shields",
    "1877-01-26": "hull",
    "1877-05-29": "london",
    "1877-07-03": "liverpool",
    "1877-08-08": "runcorn",
    "1877-11-09": "berwick",
    "1877-12-14": "south shields",
    "1878-03-08": "falmouth",
    "1878-04-06": "ayr",
    "1878-04-25": "glasgow",
    "1878-05-06": "ayr",
    "1878-08-19": "aberdeen",
    "1878-11-01": "london",
    "1878-12-13": "aberystwyth",
    "1880-07-23": "neath",
    "1881-07-14": "trieste, italy",
    "1881-07-18": "trieste",
    "1881-11-22": "rio grande",
    "1882-09-28": "falmouth",
    "1882-10-14": "glasgow",
    "1882-11-27": "bristol",
    "1882-12-03": "cardiff",
    "1883--21": "desterro",
    "1883-01-01": "cardiff",
    "1883-04-27": "desterro",
    "1883-06-13": "pelotas",
    "1883-06-19": "rio grande",
    "1883-09-25": "antwerp",
    "1883-11-12": "falmouth",
    "1883-12-18": "liverpool",
    "1887-07-05": "portmadoc",
    "1887-08-11": "hamburg, germany",
    "1887-10-08": "riga",
    "1887-11-16": "caernarfon",
    "1888-04-04": "carnarvon",
    "1888-04-22": "germany",
    "1888-06-29": "androssan",
    "1888-07-01": "caernarfon",
    "1888-07-22": "carnarvon",
    "1888-09-02": "liverpool",
    "1888-09-23": "bangor",
    "1888-09-28": "liverpool",
    "1888-10-14": "bangor",
    "1888-11-06": "newcastle",
    "1888-11-22": "germany"
}