{
    "1870-04-24": "st john",
    "1873-02-10": "aberdovey",
    "1873-04-11": "milford",
    "1873-04-30": "rotterdam",
    "1873-05-29": "middlesbrough",
    "1874-06-02": "cardiff",
    "1874-09-07": "swansea",
    "1874-12-30": "campbeltown",
    "1876-01-12": "westernpoint",
    "1876-02-02": "swansea",
    "1876-02-18": "holyhead",
    "1876-04-05": "swansea",
    "1876-05-26": "cadiz",
    "1876-07-05": "st john",
    "1876-07-15": "st. john",
    "1876-08-11": "london",
    "1876-09-29": "dover",
    "1876-10-13": "falmouth",
    "1877-01-27": "gloucestershire",
    "1877-02-07": "gloucester",
    "1877-03-01": "newquay",
    "1877-04-26": "gloucester",
    "1877-05-07": "cardiff",
    "1877-07-19": "st john",
    "1877-07-21": "st. john",
    "1877-09-27": "dover",
    "1877-11-20": "point, truro",
    "1877-11-28": "falmouth",
    "1878--13": "plymouth",
    "1878-01-29": "falmouth",
    "1878-02-05": "cardiff",
    "1878-04-24": "dublin",
    "1878-06-28": "twillingate",
    "1878-07-10": "st. john",
    "1878-12-13": "hull",
    "1879-01-14": "plymouth",
    "1879-02-18": "swansea",
    "1879-04-29": "cadiz",
    "1879-07-05": "st. john",
    "1879-07-10": "st john",
    "1879-09-07": "lisbon",
    "1879-11-08": "swansea",
    "1880-01-18": "london",
    "1880-04-01": "cardiff",
    "1880-08-31": "lisbon",
    "1880-10-12": "corfu",
    "1880-11-23": "patras",
    "1880-12-28": "plymouth",
    "1881-01-18": "london",
    "1881-02-20": "swansea",
    "1881-10-19": "st john"
}