{
    "-01-01": "arroya negro, uruguay",
    "1865-10-09": "liverpool",
    "1866-01-27": "falmouth",
    "1866-06-22": "new york",
    "1866-07-21": "falmouth",
    "1866-08-14": "london",
    "1866-09-06": "swansea",
    "1866-12-03": "bristol",
    "1867-01-02": "cardiff",
    "1867-06-15": "bristol",
    "1867-07-03": "cardiff",
    "1867-08-30": "constantinople",
    "1867-12-31": "dublin",
    "1868-02-12": "cardiff",
    "1868-06-17": "berbice",
    "1868-08-07": "london",
    "1869-03-17": "cardiff",
    "1869-05-12": "carloforte",
    "1870-01-05": "beutel",
    "1870-04-29": "rotterdam",
    "1870-08-17": "monte video",
    "1870-09-10": "buenos aires",
    "1870-12-13": "beutel",
    "1871-01-26": "newport",
    "1871-02-14": "rosario",
    "1871-04-04": "b ayres",
    "1871-08-24": "liverpool",
    "1872-08-06": "antwerp",
    "1873-07-04": "falmouth",
    "1873-07-15": "liverpool",
    "1873-07-28": "canceplion",
    "1873-08-19": "liverpool",
    "1875-06-17": "south shields",
    "1875-06-21": "cadiz",
    "1876-03-29": "south shields",
    "1876-06-15": "antwerp",
    "1876-07-28": "stettin, poland",
    "1876-08-08": "south shields",
    "1877-03-21": "buenos aires",
    "1877-06-11": "liverpool",
    "1878-02-25": "rosario",
    "1878-05-13": "pasauda",
    "1878-08-08": "liverpool",
    "1879-08-14": "plymouth",
    "1879-09-29": "cardiff",
    "1880-03-05": "paysandu",
    "1880-03-15": "buenos ayres",
    "1880-06-28": "bristol",
    "1880-07-21": "cardiff",
    "1880-11-12": "pelotas",
    "1881-01-18": "natal",
    "1881-04-": "new york",
    "1882-02-13": "monte video",
    "1882-07-26": "antwerp",
    "1882-08-18": "flushing",
    "1882-08-21": "antwerp",
    "1882-09-12": "borth"
}