{
    "1869-09-31": "briton ferry",
    "1869-12-17": "swansea",
    "1870-05-02": "workington",
    "1872-01-02": "briton ferry",
    "1873-07-01": "belfast",
    "1873-12-29": "bristol",
    "1874-01-10": "swansea",
    "1874-04-24": "dublin",
    "1874-05-06": "porthmadog",
    "1874-07-02": "southampton",
    "1878-01-01": "porthmadoc",
    "1878-07-15": "southampton",
    "1878-10-29": "cardiff",
    "1879-01-06": "southampton",
    "1879-04-04": "porthmadog",
    "1879-04-22": "portmadoc",
    "1879-06-17": "porthmadog",
    "1879-06-23": "portmadoc",
    "1879-06-30": "porthmadog",
    "1879-07-01": "portmadoc",
    "1879-10-03": "bristol",
    "1879-11-18": "portmadoc",
    "1879-12-31": "porthmadog",
    "1880--30": "portmadoc",
    "1880-03-11": "porthmadog",
    "1880-05-30": "portmadoc",
    "1880-07-10": "porthmadog",
    "1880-08-11": "southampton",
    "1880-10-09": "portmadoc",
    "1880-11-15": "porthmadog",
    "1881-01-05": "milford",
    "1881-02-10": "portmadoc",
    "1881-06-21": "porthmadog",
    "1881-07-07": "southampton",
    "1881-09-10": "porthmadog",
    "1881-09-12": "portmadoc",
    "1881-10-22": "milford",
    "1881-12-13": "wexford",
    "1881-12-31": "glasgow",
    "1882-02-07": "tenby",
    "1882-03-04": "london",
    "1882-05-02": "porthmadog",
    "1882-08-02": "portmadoc",
    "1882-08-25": "porthmadog",
    "1882-09-02": "portmadoc",
    "1882-09-15": "southampton",
    "1882-09-23": "cowes",
    "1882-10-22": "porthmadog",
    "1882-10-28": "portmadoc",
    "1882-11-30": "southampton",
    "1882-12-31": "cardiff",
    "1883-01-18": "newquay",
    "1883-01-26": "aberaeron",
    "1883-03-02": "portmadoc",
    "1883-05-24": "porthmadog",
    "1883-06-14": "swansea",
    "1883-07-01": "portmadoc",
    "1883-11-17": "porthmadog",
    "1884-01-13": "portmadoc",
    "1884-04-08": "porthmadog",
    "1884-04-16": "portmadoc",
    "1884-06-28": "pwllheli",
    "1884-07-01": "porthmadog",
    "1884-08-13": "portmadoc",
    "1886-07-10": "london",
    "1886-10-20": "fishguard",
    "1969-12-27": "swansea"
}