{
    "-01-01": "newport",
    "1868-02-19": "liverpool",
    "1868-10-29": "aberdeen",
    "1869-01-18": "port talbot",
    "1869-07-07": "london",
    "1869-07-29": "newport",
    "1869-11-25": "sulina {black sea}",
    "1870-02-25": "belfast",
    "1870-03-26": "troon",
    "1870-09-03": "london",
    "1871-03-31": "monte video",
    "1871-04-20": "bahia",
    "1871-07-25": "liverpool",
    "1871-12-26": "vera cruz",
    "1872-04-26": "yarmouth",
    "1872-05-31": "north shields",
    "1872-06-11": "antwerp",
    "1872-06-22": "north shields",
    "1872-11-24": "minatitlan",
    "1872-12-12": "minatitlan, mexico",
    "1873-02-2": "glasgow",
    "1873-11-02": "london",
    "1873-11-20": "gravesend",
    "1874-01-22": "vera cruz",
    "1874-02-03": "tlacotalpan",
    "1874-06-02": "liverpool",
    "1875-10-14": "hull",
    "1875-11-26": "falmouth",
    "1876-05-01": "paysandu",
    "1876-08-22": "plymouth",
    "1876-09-18": "newport",
    "1876-10-02": "cardiff",
    "1876-10-29": "falmouth",
    "1876-11-08": "plymouth",
    "1876-11-09": "falmouth",
    "1877-10-03": "london",
    "1877-10-17": "north shields",
    "1877-11-18": "yarmouth",
    "1878-05-03": "minatitlan",
    "1878-07-11": "scilly",
    "1878-07-19": "liverpool",
    "1879-02-19": "at sea, equator",
    "1879-05-02": "gibraltar",
    "1879-05-31": "marseilles, france",
    "1879-06-09": "marseille, france",
    "1880-02-11": "at sea off western islands",
    "1880-03-06": "falmouth"
}