{
    "1878-05-15": "kennetpans",
    "1878-06-30": "swansea",
    "1893-02-23": "aberdovey",
    "1893-03-10": "bridgewater",
    "1893-03-24": "aberdovey",
    "1893-04-25": "porthmadog",
    "1893-07-05": "plymouth",
    "1893-08-10": "aberdovey",
    "1893-12-12": "porthmadog"
}