{
    "-01-01": "not joined this ship",
    "1877-03-06": "aberystwyth",
    "1877-04-01": "hamburg",
    "1877-04-11": "hamburg, germany",
    "1877-05-16": "runcorn",
    "1877-06-22": "swansea",
    "1877-07-26": "middlesbrough",
    "1877-09-13": "glasgow",
    "1877-10-27": "swansea",
    "1878-01-15": "newport",
    "1878-01-23": "cork",
    "1878-03-04": "port dinorwic",
    "1878-04-08": "london",
    "1878-05-08": "ballina",
    "1878-05-20": "ardrossan",
    "1878-07-08": "newcastle",
    "1878-07-12": "south shields",
    "1878-09-14": "newcastle",
    "1878-11-12": "falmouth",
    "1878-11-29": "youghal",
    "1879-02-03": "aberdarran",
    "1879-03-18": "london",
    "1879-05-05": "ayr",
    "1879-06-12": "swansea",
    "1879-08-16": "st petersburg",
    "1879-08-26": "cronstadt",
    "1879-10-22": "gloucestershire",
    "1879-11-10": "gloster",
    "1879-11-15": "london",
    "1879-12-03": "ostend",
    "1880-01-07": "bruges",
    "1880-01-10": "london",
    "1880-03-01": "givran",
    "1880-03-03": "ardrossan",
    "1880-04-15": "newport",
    "1880-06-23": "whitehaven",
    "1880-06-25": "duddon",
    "1880-06-30": "belfast",
    "1880-07-13": "newport",
    "1880-09-10": "aberdeen",
    "1880-10-13": "stettin, poland",
    "1880-10-16": "stettin",
    "1880-11-12": "liverpool",
    "1881-01-31": "belfast",
    "1881-03-25": "swansea",
    "1881-04-05": "belfast",
    "1881-05-28": "fraserburgh",
    "1881-07-22": "liverpool",
    "1881-10-11": "peterhead",
    "1881-11-23": "malmo",
    "1882-01-18": "middlesbrough",
    "1882-06-07": "london",
    "1882-08-31": "runcorn",
    "1882-10-06": "galway",
    "1882-10-07": "antwerp",
    "1882-10-09": "galway",
    "1882-11-04": "antwerp",
    "1882-11-09": "falmouth",
    "1882-12-18": "workington",
    "1883-01-18": "swansea",
    "1883-04-10": "falmouth",
    "1883-04-19": "aberdovey",
    "1883-06-26": "cardiff",
    "1883-09-07": "shoreham",
    "1883-09-19": "guernsey",
    "1883-10-26": "liverpool",
    "1883-12-21": "limerick",
    "1884-01-09": "swansea",
    "1884-03-17": "london",
    "1884-03-19": "bangor",
    "1884-07-14": "frederikshald",
    "1884-08-13": "folkestone",
    "1884-09-09": "liverpool",
    "1886-08-16": "porthmadog",
    "1887-02-08": "liverpool",
    "1887-03-13": "porthmadog",
    "1887-07-19": "swansea",
    "1887-08-23": "runcorn",
    "1887-10-15": "london",
    "1887-10-27": "aberdeen",
    "1887-12-31": "dublin",
    "1888-01-27": "bangor",
    "1888-05-08": "gloucestershire",
    "1888-05-22": "porthmadog",
    "1888-07-11": "libau co$$$$",
    "1888-08-03": "lynn",
    "1888-08-29": "south shields",
    "1888-12-04": "newcastle",
    "1888-12-31": "poole",
    "1889-03-24": "newcastle",
    "1890-03-28": "bangor",
    "1890-05-12": "stettin, poland",
    "1890-05-14": "stettin",
    "1890-05-15": "plymouth",
    "1890-05-19": "swinemunde",
    "1890-06-01": "santander",
    "1890-06-03": "rouen",
    "1890-07-26": "plymouth",
    "1890-08-30": "runcorn",
    "1890-09-06": "plymouth",
    "1890-09-08": "runcorn",
    "1890-10-20": "liverpool",
    "1890-10-28": "runcorn",
    "1891-03-10": "portmadoc",
    "1891-05-03": "porthmadog",
    "1891-07-15": "london",
    "1891-08-14": "plymouth",
    "1891-10-10": "liverpool",
    "1891-10-13": "bangor",
    "1891-11-19": "london",
    "1891-12-28": "ayr",
    "1892-05-26": "portmadoc",
    "1892-07-26": "london",
    "1892-08-22": "porthmadog",
    "1892-09-07": "portmadoc",
    "1892-09-21": "king's lynn",
    "1892-09-26": "kings lynn",
    "1892-09-27": "porthmadog",
    "1892-10-28": "newcastle",
    "1892-11-11": "porthmadog",
    "1892-11-21": "portmadoc",
    "1892-12-31": "dublin",
    "1893-02-03": "porthmadog",
    "1893-04-01": "portmadoc",
    "1893-05-12": "cuxhaven, germany",
    "1893-05-15": "cuxhaven",
    "1893-06-06": "liverpool",
    "1893-06-16": "runcorn",
    "1893-07-17": "balta sound, shetland",
    "1893-08-02": "newcastle",
    "1893-08-03": "balta sound, shetland",
    "1893-08-29": "pwllheli",
    "1893-11-30": "porthmadog",
    "1894-01-08": "portmadoc",
    "1894-03-27": "plymouth",
    "1894-05-17": "belfast",
    "1894-06-19": "westport",
    "1894-06-27": "belfast",
    "1894-07-02": "porthmadog",
    "1894-07-20": "portmadoc",
    "1894-12-11": "porthmadog",
    "1896-01-31": "portmadoc",
    "1896-04-21": "porthmadog",
    "1896-05-21": "portmadoc",
    "1896-06-30": "holmstad",
    "1896-07-24": "bristol",
    "1896-08-18": "swansea",
    "1896-09-12": "porthmadog",
    "1896-09-24": "portmadoc",
    "1896-12-15": "porthmadog",
    "1897-01-07": "portmadoc",
    "1897-03-15": "porthmadog",
    "1897-03-20": "portmadoc",
    "1897-05-26": "porthmadog",
    "1897-09-07": "swansea",
    "1897-09-28": "london",
    "1897-10-29": "swansea",
    "1898-01-20": "weymouth",
    "1898-01-25": "plymouth",
    "1898-02-23": "porthmadog",
    "1898-03--12": "portmadoc",
    "1898-05-02": "southampton",
    "1898-06-06": "porthmadog",
    "1898-06-30": "portmadoc",
    "1898-08-05": "harburg, germany",
    "1898-09-21": "sheerness",
    "1898-11-08": "gloster",
    "1898-12-05": "limerick",
    "1899-01-10": "poole",
    "1899-03-07": "new ross",
    "1899-03-18": "porthmadog",
    "1899-04-14": "portmadoc",
    "1899-06-17": "porthmadog",
    "1899-07-10": "portmadoc",
    "1899-18-06": "porthmadog",
    "1900--2-19": "milford haven",
    "1900-01-10": "falmouth",
    "1900-03-02": "pembroke",
    "1900-04-02": "aberdovey",
    "1900-06-21": "porthmadog",
    "1900-07-16": "portmadoc",
    "1900-08-20": "pembroke",
    "1900-10-23": "conway",
    "1900-11-23": "porthmadog",
    "1901-02-27": "london",
    "1901-03-29": "porthmadog",
    "1901-05-03": "portmadoc",
    "1901-07-12": "caernarfon",
    "1901-08-07": "carnarvon",
    "1901-10-21": "liverpool",
    "1901-10-30": "runcorn",
    "1901-12-12": "london",
    "1902-01-02": "sheerness",
    "1902-01-21": "briton ferry",
    "1902-02-08": "falmouth",
    "1902-02-21": "london",
    "1902-04-02": "porthmadog",
    "1902-05-07": "porthmadoc",
    "1902-06-09": "london",
    "1902-07-08": "galway",
    "1902-10-26": "porthmadog",
    "1903-01-20": "galway",
    "1903-04-10": "porthmadog",
    "1903-06-05": "portmadoc",
    "1903-08-02": "porthmadog",
    "1903-09-07": "portmadoc",
    "1903-12-04": "caernarfon",
    "1906-03-09": "portmadoc",
    "1906-06-16": "dublin",
    "1906-06-23": "porthmadog",
    "1906-07-07": "portmadoc",
    "1906-07-09": "porthmadog",
    "1906-09-07": "magheramorne",
    "1906-09-26": "london",
    "1907-01-01": "cardiff",
    "1907-01-19": "caernarfon",
    "1907-04-25": "london",
    "1907-05-31": "irvine",
    "1907-07-11": "limerick",
    "1907-07-27": "porthmadog",
    "1907-12-06": "connah's quay",
    "1908-01-04": "falmouth",
    "1908-01-25": "rochester",
    "1908-01-27": "london",
    "1908-03-26": "swansea",
    "1908-04-16": "london",
    "1908-05-03": "workington",
    "1908-06-07": "porthmadog",
    "1908-10-27": "runcorn",
    "1908-11-24": "limerick",
    "1908-12-23": "porthmadog",
    "1909-01-29": "limerick",
    "1909-02-09": "porthmadog",
    "1909-04-21": "swansea",
    "1909-05-12": "letterfrack",
    "1909-06-15": "connah's quay",
    "1909-09-18": "mostyn",
    "1909-09-30": "runcorn",
    "1909-11-05": "porthmadog",
    "1910-01-10": "milford",
    "1910-01-19": "milford haven",
    "1910-02-11": "sunderland",
    "1910-03-27": "porthmadog",
    "1910-04-07": "portmadoc",
    "1910-06-02": "porthmadog",
    "1910-08-24": "runcorn",
    "1911-01-18": "grimsby",
    "1911-03-28": "fishguard",
    "1911-04-12": "runcorn",
    "1911-05-19": "porthmadog",
    "1911-07-29": "london",
    "1911-08-21": "bangor",
    "1911-09-02": "caernarfon",
    "1911-09-23": "porthmadog",
    "1911-09-27": "holyhead",
    "1911-10-07": "llanelli",
    "1911-11-29": "ryde",
    "1911-12-12": "yarmouth",
    "1912-01-15": "holyhead",
    "1912-02-10": "liverpool",
    "1912-02-30": "porthmadog",
    "1912-04-17": "london",
    "1912-05-23": "briton ferry",
    "1912-06-13": "hull",
    "1912-06-18": "briton ferry",
    "1912-07-09": "porthmadog",
    "1913-02-08": "cork",
    "1913-08-30": "ballinacurra",
    "1913-09-07": "dungarvan",
    "1913-09-09": "ballinacurra",
    "1913-09-16": "cork",
    "1913-10-22": "dungarvan",
    "1914-01-01": "cork",
    "1998-12-31": "poole"
}