{
    "1878-06-15": "cardiff",
    "1878-08-14": "messina",
    "1878-08-19": "runcorn",
    "1878-09-05": "smyrna",
    "1878-10-28": "bristol",
    "1878-11-12": "newport",
    "1879-08-18": "runcorn",
    "1879-09-08": "liverpool",
    "1879-10-13": "gibraltor",
    "1879-11-24": "ipswich",
    "1879-12-24": "llanelli",
    "1880-01-06": "llanelly",
    "1880-02-05": "port alfred",
    "1880-02-13": "cardiff",
    "1880-02-16": "port alfred",
    "1880-07-30": "london",
    "1880-10-23": "cardiff",
    "1881-02-17": "port alfred",
    "1881-04-21": "st vincent",
    "1881-06-10": "london",
    "1881-07-18": "cardiff",
    "1882-01-31": "rio grande",
    "1882-07-15": "le havre",
    "1882-08-02": "swansea",
    "1884-01-02": "runcorn",
    "1884-03-01": "swansea"
}