{
    "1864-02-02": "newquay",
    "1864-04-02": "cardiff",
    "1864-08-01": "liverpool",
    "1864-08-24": "whitehaven",
    "1864-10-21": "cardiff",
    "1864-11-14": "liverpool",
    "1864-12-23": "cardiff",
    "1865-01-01": "liverpool",
    "1866-01-01": "penarth",
    "1866-06-30": "remiltown",
    "1867-01-09": "londonderry",
    "1867-02-05": "portmadoc",
    "1867-02-14": "morecombe",
    "1867-02-16": "portmadoc",
    "1867-03-22": "morecomb",
    "1867-04-16": "portmadoc",
    "1867-04-20": "porthmadog",
    "1867-06-08": "runcorn",
    "1867-06-30": "swansea",
    "1869-03-03": "neath",
    "1869-05-08": "fowey",
    "1869-05-20": "charlestown",
    "1874-01-17": "newport",
    "1874-02-10": "cork",
    "1874-02-20": "aberdovey",
    "1874-05-16": "newport",
    "1874-06-16": "porthmadog",
    "1876-01-01": "kinsale",
    "1876-01-30": "dublin",
    "1877-01-04": "kinsale",
    "1877-02-20": "cardiff",
    "1877-04-02": "newport"
}