{
    "1907-01-01": "connah's quay",
    "1907-04-28": "mill bay",
    "1907-05-01": "annalong",
    "1907-05-20": "mill bay",
    "1907-06-30": "garston",
    "1908-01-01": "dublin",
    "1908-06-30": "belfast",
    "1908-12-31": "annalong",
    "1910-07-02": "garston",
    "1910-12-31": "kilkeel",
    "1912-07-04": "barrow",
    "1913-01-01": "carnarvon",
    "1913-06-30": "liverpool"
}