{
    "-01-01": "aberaeron",
    "1811-04-03": "falmouth",
    "1883-03-29": "aberaeron",
    "1889-01-01": "aberayron",
    "1889-06-21": "aberaeron",
    "1890-01-01": "aberayron",
    "1890-03-07": "aberaeron",
    "1890-07-01": "aberayron",
    "1890-11-27": "aberaeron",
    "1891-01-01": "aberayron",
    "1891-04-20": "aberaeron",
    "1891-07-01": "aberayron",
    "1892-04-12": "aberaeron",
    "1894-01-03": "aberayron",
    "1894-02-20": "aberaeron",
    "1894-02-21": "aberayron",
    "1894-04-04": "aberaeron",
    "1894-07-01": "aberayron",
    "1894-10-12": "aberaeron",
    "1896-09-09": "aberayron",
    "1896-12-20": "aberaeron",
    "1897-01-01": "aberayron",
    "1897-02-13": "aberaeron",
    "1897-11-26": "swansea",
    "1897-12-06": "aberaeron",
    "1898-02-22": "aberayron",
    "1898-03-04": "aberaeron",
    "1898-03-08": "aberayron",
    "1898-06-30": "aberaeron",
    "1898-07-01": "liverpool",
    "1901-12-31": "beaumaris",
    "19010-06-20": "gweek",
    "1903-07-01": "port talbot",
    "1903-12-03": "aberaeron",
    "1904-01-01": "aberayron",
    "1904-06-30": "aberaeron",
    "1904-07-01": "aberayron",
    "1904-07-12": "swansea",
    "1906-03-19": "aberayron",
    "1906-05-21": "aberaeron",
    "1906-05-22": "aberayron",
    "1906-06-30": "plymouth",
    "1906-10-20": "porthleven",
    "1907-09-22": "swansea",
    "1909-01-02": "falmouth",
    "1909-01-25": "par",
    "1909-07-06": "swansea",
    "1909-07-31": "porthleven",
    "1910-04-01": "falmouth",
    "1910-08-03": "porthleven",
    "1910-09-27": "fowey",
    "1911-01-11": "falmouth",
    "1911-06-29": "truro",
    "1911-08-16": "penzance",
    "1911-10-01": "par",
    "1911-10-15": "falmouth",
    "1911-11-01": "par",
    "1911-11-06": "gravesend",
    "1912-01-01": "drogheda",
    "1912-01-15": "kircubbin",
    "1912-02-10": "falmouth",
    "1912-04-07": "par",
    "1912-07-01": "falmouth",
    "1912-10-24": "rochester",
    "1913-01-01": "falmouth",
    "1913-06-30": "plymouth",
    "1913-07-22": "newhaven",
    "1913-12-16": "truro"
}