{
    "1908-07-01": "barmouth",
    "1908-09-02": "conway",
    "1908-10-16": "deganwy",
    "1908-12-31": "conway",
    "1909-06-28": "port dinorwic",
    "1909-06-30": "conway",
    "1909-07-01": "deganwy",
    "1909-10-16": "conway"
}