{
    "1878-02-24": "aberaeron",
    "1879-03-31": "porthmadog",
    "1879-04-14": "portmadoc",
    "1879-05-28": "runcorn",
    "1879-07-03": "porthmadog",
    "1879-07-23": "portmadoc",
    "1879-09-15": "porthmadog",
    "1879-10-15": "portmadoc",
    "1879-10-31": "porthmadog",
    "1879-12-06": "portmadoc",
    "1879-12-31": "porthmadog"
}