{
    "1849-07-03": "aberystwyth",
    "1864-05-19": "cardiff",
    "1864-07-09": "exeter",
    "1864-09-23": "southampton",
    "1864-10-01": "london",
    "1864-10-20": "runcorn",
    "1864-10-27": "liverpool",
    "1864-12-20": "cardiff",
    "1866-09-19": "bristol",
    "1866-09-21": "cardiff",
    "1866-10-15": "dublin",
    "1866-12-10": "whitehaven",
    "1867-01-23": "cardiff",
    "1867-05-13": "dublin",
    "1867-06-24": "whitehaven",
    "1867-07-01": "duddon",
    "1867-08-18": "whitehaven",
    "1867-10-04": "newport",
    "1867-10-16": "cardiff",
    "1868-01-14": "liverpool",
    "1868-04-21": "middlesbrough",
    "1868-05-19": "briton ferry",
    "1868-05-20": "neath",
    "1868-06-04": "newry",
    "1868-06-26": "belfast",
    "1868-08-01": "whitehaven",
    "1868-10-06": "cardiff",
    "1868-11-05": "drogheda",
    "1868-11-21": "dublin",
    "1868-12-07": "whitehaven",
    "1869-02-17": "newport",
    "1869-09-06": "dublin",
    "1869-09-24": "whitehaven",
    "1869-10-30": "newport",
    "1869-12-10": "par",
    "1869-12-30": "penzance",
    "1870-03-06": "haylo",
    "1870-04-06": "penzance",
    "1870-05-26": "plymouth",
    "1870-07-26": "penzance"
}