{
    "1863-04-01": "swansea",
    "1863-08-06": "liverpool",
    "1866-04-05": "newport",
    "1866-07-11": "bristol",
    "1867-01-01": "limerick",
    "1867-04-10": "plymouth",
    "1867-07-01": "newport",
    "1867-08-28": "liverpool",
    "1867-10-11": "dublin",
    "1867-11-29": "llanelli",
    "1868-02-14": "llanelly",
    "1868-05-08": "runcorn",
    "1868-05-21": "liverpool",
    "1868-08-17": "gurnsey",
    "1868-10-01": "london",
    "1869-07-01": "newport",
    "1869-08-10": "cardiff",
    "1869-12-01": "runcorn",
    "1869-12-23": "liverpool",
    "1869-12-31": "runcorn",
    "1871-07-01": "lydney",
    "1871-12-12": "aberystwyth",
    "1873-07-01": "liverpool",
    "1874-06-30": "cardiff",
    "1874-12-12": "portmadoc",
    "1875-01-13": "belfast",
    "1876-07-01": "hummerford",
    "1876-07-26": "lerwick"
}