{
    "-01-01": "newport",
    "1863-10-01": "liverpool",
    "1864-03-13": "gibraltar",
    "1864-05-11": "liverpool",
    "1865-10-30": "cardiff",
    "1866-05-07": "liverpool",
    "1866-09-08": "london",
    "1866-10-24": "swansea",
    "1866-12-28": "dublin",
    "1867-03-05": "cardiff",
    "1867-07-19": "gloucestershire",
    "1867-08-15": "swansea",
    "1867-12-14": "newcastle",
    "1868-02-18": "liverpool",
    "1868-11-26": "cardiff",
    "1869--19": "falmouth",
    "1869-01-04": "milford",
    "1869-02-10": "falmouth",
    "1869-05-11": "liverpool",
    "1869-07-16": "newport",
    "1869-10-04": "liverpool",
    "1870-02-01": "waterford",
    "1870-02-19": "liverpool",
    "1870-03-22": "newport",
    "1870-07-16": "liverpool",
    "1870-09-02": "swansea",
    "1870-12-09": "hull",
    "1871-03-07": "swansea",
    "1871-04-25": "gloucestershire",
    "1871-05-05": "gloster",
    "1871-06-21": "swansea",
    "1871-10-11": "london",
    "1871-11-18": "swansea",
    "1871-12-31": "dublin",
    "1872-05-09": "swansea",
    "1872-08-17": "goole",
    "1873-01-01": "newquay",
    "1873-03-12": "swansea",
    "1873-06-30": "dublin",
    "1873-07-30": "cardiff",
    "1873-12-09": "irvine",
    "1874-02-28": "milford",
    "1874-03-12": "honflew",
    "1874-04-19": "liverpool",
    "1874-04-21": "milford",
    "1874-04-23": "liverpool",
    "1874-09-09": "hull",
    "1874-11-10": "bridgewater",
    "1874-11-12": "cardiff",
    "1875-01-09": "limerick",
    "1876-01-06": "liverpool",
    "1876-01-11": "caernarfon",
    "1876-04-06": "carnarvon",
    "1876-04-16": "glasgow",
    "1876-11-29": "newman",
    "1876-12-20": "cardiff",
    "1877-05-27": "newport",
    "1877-08-31": "west hartlepool",
    "1877-09-14": "havre",
    "1877-09-22": "south shields",
    "1877-10-19": "teignmouth",
    "1877-11-06": "runcorn",
    "1877-11-13": "garston",
    "1878-01-26": "limerick",
    "1878-02-15": "gloucestershire",
    "1878-03-05": "gloster",
    "1878-04-05": "gloucestershire",
    "1878-04-24": "gloster",
    "1878-04-27": "gloucestershire",
    "1878-05-28": "newquay",
    "1878-08-17": "cardiff",
    "1878-10-29": "newport",
    "1878-11-16": "cork",
    "1878-12-27": "newport",
    "1879-04-16": "liverpool",
    "1879-06-13": "newport",
    "1879-07-07": "cardiff",
    "1879-12-02": "hull",
    "1880-03-07": "huelva",
    "1880-07-17": "swansea",
    "1880-10-20": "huelva",
    "1881-03-26": "liverpool",
    "1881-10-19": "stellun",
    "1881-11-01": "antwerp",
    "1881-12-29": "liverpool",
    "1882-01-01": "garston, liverpool",
    "1882-02-27": "clare",
    "1882-03-02": "newquay",
    "1882-03-03": "garston, liverpool",
    "1882-03-04": "clare",
    "1882-03-11": "clare castle",
    "1882-03-21": "limerick",
    "1882-04-21": "liverpool",
    "1882-04-27": "garston, liverpool",
    "1882-04-30": "liverpool",
    "1882-06-02": "newquay",
    "1882-08-13": "newport",
    "1882-08-14": "newquay",
    "1882-09-09": "newport",
    "1882-12-31": "dublin",
    "1883-09-26": "falmouth",
    "1883-10-04": "plymouth",
    "1883-10-08": "fa$$$",
    "1883-11-23": "seville",
    "1883-12-06": "mazagan",
    "1884-01-19": "newport",
    "1884-03-07": "liverpool",
    "1884-04-02": "ipswich",
    "1884-06-30": "l'town",
    "1884-07-14": "ipswich",
    "1884-08-23": "liverpool",
    "1885-06-25": "newport",
    "1885-07-31": "oran",
    "1886-01-02": "sunderland",
    "1886-01-19": "bridgewater",
    "1886-02-22": "swansea",
    "1886-03-19": "falmouth",
    "1886-05-07": "silloth",
    "1886-06-26": "swansea",
    "1886-07-01": "glasgow",
    "1886-07-02": "swansea",
    "1886-10-27": "glasgow",
    "1886-11-15": "bristol",
    "1886-12-03": "cardiff",
    "1886-12-31": "dublin",
    "1887-02-14": "swansea",
    "1887-04-30": "dublin",
    "1887-05-13": "porthmadog",
    "1887-05-17": "portmadoc",
    "1887-05-21": "porthmadog",
    "1887-05-23": "portmadoc",
    "1887-05-24": "porthmadog",
    "1887-05-25": "portmadoc",
    "1887-05-26": "porthmadog",
    "1887-07-07": "hamburg, germany",
    "1887-07-18": "hamburg",
    "1887-07-30": "swansea",
    "1887-08-11": "liverpool",
    "1887-08-17": "runcorn",
    "1978-11-25": "newport"
}