{
    "1892-12-29": "london",
    "1893-01-07": "cardiff",
    "1893-05-30": "bremerhaven, germany",
    "1893-06-13": "no. shields",
    "1893-09-28": "newcastle",
    "1893-12-05": "copenhagen",
    "1893-12-14": "south shields",
    "1893-12-22": "north shields",
    "1894-02-24": "marseille, france",
    "1894-04-20": "rotterdam",
    "1894-05-10": "cardiff",
    "1894-07-26": "rotterdam",
    "1894-08-03": "cardiff",
    "1894-10-05": "london",
    "1894-10-16": "cardiff",
    "1896-02-14": "hamburg, germany",
    "1896-02-15": "hamburg",
    "1896-02-19": "barry",
    "1896-05-18": "fernandina",
    "1896-05-24": "hatteras"
}