{
    "1899-09-01": "south shields",
    "1899-09-06": "shields bor",
    "1899-09-19": "savona",
    "1900-03-07": "barry",
    "1900-04-04": "naples",
    "1900-05-03": "philadelphia, united states",
    "1900-05-14": "philadelphia",
    "1900-05-24": "london",
    "1900-06-01": "cardiff",
    "1900-06-18": "leghorn",
    "1900-06-30": "nicolaiev",
    "1900-07-03": "barry",
    "1900-08-03": "hamburg, germany",
    "1900-08-14": "cardiff",
    "1900-09-23": "odessa",
    "1900-09-28": "constantinople",
    "1900-11-03": "barry",
    "1900-11-27": "savona",
    "1901-01-08": "boston",
    "1901-01-28": "london",
    "1901-02-07": "west hartlepool",
    "1901-03-13": "newport",
    "1901-04-10": "genoa",
    "1901-04-11": "genoa, italy",
    "1901-06-06": "barry",
    "1901-06-14": "cardiff",
    "1901-06-19": "barry",
    "1901-11-27": "savona",
    "1902-02-26": "belfast",
    "1902-04-07": "rangoon",
    "1902-04-24": "galle",
    "1902-06-02": "santos",
    "1902-08-18": "belfast",
    "1902-08-27": "calcutta",
    "1902-08-28": "barry",
    "1902-09-04": "new york",
    "1902-09-29": "braila",
    "1902-10-10": "sulina",
    "1902-10-30": "london",
    "1902-11-07": "barry",
    "1903-02-05": "bergen",
    "1903-02-13": "penarth",
    "1903-02-18": "cardiff",
    "1903-05-06": "pembroke",
    "1903-05-10": "barry",
    "1903-07-31": "hull",
    "1903-08-18": "sunderland",
    "1903-09-05": "naples",
    "1903-11-12": "hull",
    "1903-11-20": "hartlepool",
    "1903-12-01": "west hartlepool",
    "1904-01-06": "leghorn",
    "1904-03-01": "london",
    "1904-03-03": "west hartlepool",
    "1904-03-06": "cardiff",
    "1904-04-13": "bizerta",
    "1909-01-09": "boston"
}