{
    "-01-01": "remaining",
    "1863-04-06": "newport",
    "1866-07-01": "middlesbrough",
    "1866-12-31": "liverpool",
    "1867-05-29": "london",
    "1867-06-28": "swansea",
    "1868-01-03": "dundalk",
    "1868-05-27": "runcorn",
    "1868-06-30": "newcastle",
    "1868-07-01": "cardiff",
    "1868-10-28": "newport",
    "1868-12-10": "sunderland",
    "1868-12-31": "poole",
    "1870-07-04": "bangor",
    "1870-08-30": "runcorn"
}