{
    "-01-01": "glasgow",
    "1862-09-15": "london",
    "1866-02-14": "$ bahamas",
    "1866-03-28": "london",
    "1866-10-04": "port elisabeth",
    "1866-12-21": "london",
    "1868-01-12": "berbice",
    "1868-03-10": "london",
    "1870-07-07": "swansea",
    "1871-04-07": "glasgow",
    "1871-04-29": "greenock",
    "1871-05-01": "glasgow",
    "1871-05-03": "greenock",
    "1871-07-03": "constantinople",
    "1871-09-27": "glasgow",
    "1872-01-30": "pernambuco",
    "1872-04-25": "greenwich",
    "1872-04-26": "greenock",
    "1872-05-17": "troon",
    "1872-05-23": "glasgow",
    "1872-05-28": "troon",
    "1872-06-17": "milford",
    "1872-10-16": "hull",
    "1873-11-23": "glasgow",
    "1874-03-16": "st domingo",
    "1968-03-10": "london"
}