{
    "1862-10-10": "swansea",
    "1863-02-14": "london",
    "1863-04-10": "neath",
    "1863-08-06": "liverpool",
    "1863-10-09": "marseilles, france",
    "1863-10-31": "marseille, france",
    "1863-12-18": "gloucestershire",
    "1864-01-21": "cardiff",
    "1864-03-14": "swansea",
    "1864-07-08": "liverpool",
    "1865-12-03": "milford",
    "1866-05-12": "london",
    "1866-06-30": "swansea",
    "1866-10-27": "london",
    "1866-11-20": "gravesend",
    "1867-05-14": "sligo",
    "1867-09-26": "swansea",
    "1868-04-08": "liverpool",
    "1868-10-28": "antwerp",
    "1868-11-28": "middlesbrough",
    "1870-01-14": "liverpool",
    "1870-08-27": "south shields",
    "1870-11-04": "liverpool",
    "1871-01-01": "milford",
    "1871-02-11": "liverpool",
    "1871-07-03": "belfast",
    "1871-10-01": "limerick",
    "1871-11-24": "gloucestershire",
    "1871-12-03": "liverpool",
    "1872-01-01": "milford",
    "1872-04-02": "swansea",
    "1872-05-24": "newquay",
    "1872-10-30": "swansea",
    "1873-11-14": "goole",
    "1873-11-24": "hull",
    "1874-01-01": "workington",
    "1874-04-19": "llanelli",
    "1874-05-08": "pembrey, port of llanelly",
    "1874-05-11": "pembrey",
    "1874-05-15": "pembrey, port of llanelly",
    "1874-08-28": "swansea",
    "1878-01-24": "galway",
    "1878-02-19": "cardiff",
    "1878-06-07": "st. johns",
    "1878-06-19": "cardiff",
    "1878-07-14": "liverpool",
    "1879-05-08": "port dinorwic",
    "1879-06-30": "dublin",
    "1881-01-01": "london",
    "1881-01-14": "cardiff",
    "1881-03-05": "porthmadog",
    "1881-04-27": "portmadoc",
    "1881-06-25": "middlesbrough",
    "1881-08-18": "newport",
    "1881-08-19": "lydney",
    "1881-09-09": "cork",
    "1881-09-28": "newport",
    "1881-12-19": "bristol",
    "1882-01-24": "maryport",
    "1882-04-10": "cork",
    "1882-04-22": "porthmadog",
    "1882-05-03": "portmadoc",
    "1882-07-03": "hamburg",
    "1882-10-20": "porthcawl",
    "1882-12-28": "newport",
    "1882-12-30": "porthcawl",
    "1883--10-12": "newport",
    "1883-03-12": "porthmadog",
    "1883-03-19": "portmadoc",
    "1883-07-20": "dordrecht",
    "1883-09-25": "cork",
    "1883-10-12": "newport",
    "1883-11-01": "cork",
    "1883-11-14": "newport",
    "1884-01-05": "kinsale",
    "1884-01-11": "newport",
    "1884-03-03": "bangor",
    "1884-05-29": "hamburg",
    "1884-07-26": "west hartlepool",
    "1884-07-29": "hartlepool",
    "1884-08-18": "poole",
    "1884-09-20": "porthmadog",
    "1886-02-10": "newport, mon.",
    "1886-02-27": "cork",
    "1886-04-13": "barrow",
    "1886-04-19": "porthmadog",
    "1886-09-10": "weymouth",
    "1886-10-23": "port dinorwic",
    "1886-10-27": "carnarvon",
    "1886-10-30": "port dinorwic",
    "1886-11-16": "caernarfon",
    "1886-11-18": "carnarvon",
    "1887-01-04": "hamburg, germany",
    "1887-04-23": "glasson dock",
    "1887-05-05": "porthmadog",
    "1887-08-13": "runcorn",
    "1887-08-24": "porthmadog",
    "1887-10-12": "in the north sea"
}