{
    "1866-07-01": "bangor",
    "1866-11-26": "aberaeron",
    "1867-07-01": "cardiff",
    "1867-12-31": "aberaeron",
    "1868-12-31": "liverpool",
    "1869-08-06": "barrow",
    "1869-10-16": "glenarm"
}