{
    "1863-01-01": "aberystwyth",
    "1863-06-30": "barrow",
    "1864-01-01": "neath",
    "1864-01-29": "porthdinllaen",
    "1864-03-28": "aberaeron",
    "1864-06-25": "aberayron",
    "1864-06-30": "aberaeron",
    "1866-03-14": "aberayron",
    "1866-06-30": "newport",
    "1867-07-01": "milford",
    "1867-11-27": "aberaeron",
    "1868-01-01": "aberayron",
    "1868-06-30": "aberaeron",
    "1868-07-01": "aberayron",
    "1868-11-13": "aberaeron",
    "1869-08-16": "aberayron",
    "1869-12-03": "aberaeron",
    "1870-07-07": "newquay",
    "1870-09-30": "aberayron",
    "1870-10-31": "aberaeron",
    "1871-01-01": "aberayron",
    "1871-01-19": "llanon",
    "1871-03-01": "aberayron",
    "1871-06-30": "llanelli",
    "1871-07-01": "llanelly",
    "1871-11-14": "aberaeron",
    "1872-01-09": "aberayron",
    "1872-03-23": "aberaeron",
    "1873-09-21": "aberayron",
    "1873-10-29": "aberaeron",
    "1874-03-04": "aberayron",
    "1874-05-29": "graiglas",
    "1874-09-22": "newquay",
    "1874-09-24": "aberayron",
    "1874-11-10": "aberaeron",
    "1878-03-16": "aberayron",
    "1878-07-08": "porthcawl",
    "1891-01-30": "appledore"
}