{
    "-01-01": "failed to join",
    "06-22-01": "huelva",
    "1891-01-03": "north shields",
    "1891-03-10": "grimsby",
    "1891-07-09": "antwerp",
    "1891-07-14": "cardiff",
    "1891-09-01": "bombay",
    "1891-10-24": "south shields",
    "1891-10-28": "north shields",
    "1891-11-01": "new york",
    "1891-12-26": "antwerp",
    "1892-01-03": "north shields",
    "1892-02-08": "new york",
    "1892-03-01": "hamburg",
    "1892-03-05": "hamburg, germany",
    "1892-03-18": "barry",
    "1892-08-12": "antwerp",
    "1892-08-19": "blyth",
    "1892-10-14": "port said",
    "1892-12-20": "genoa",
    "1892-3-05": "hamburg, germany",
    "1893-02-01": "hull",
    "1893-02-10": "south shields",
    "1893-03-08": "port said",
    "1893-07-04": "london",
    "1893-09-14": "bombay",
    "1893-09-26": "bussorah",
    "1893-12-04": "london",
    "1893-12-18": "cardiff",
    "1894-04-02": "sunderland",
    "1894-06-30": "cardiff",
    "1894-07-21": "genoa",
    "1894-07-26": "genoa, italy",
    "1894-07-28": "genoa",
    "1894-08-06": "seriphos",
    "1894-09-01": "cardiff",
    "1894-10-31": "antwerp",
    "1894-11-06": "barry",
    "1894-12-02": "sunderland",
    "1895-12-21": "cardiff",
    "1896-01-22": "st vincent, cape verde",
    "1896-02-07": "cartagena",
    "1896-04-14": "philadelphia",
    "1896-06-14": "liverpool",
    "1896-06-29": "cardiff",
    "1896-11-17": "genoa, italy",
    "1897-01-08": "barry",
    "1897-05-04": "port said",
    "1897-06-21": "rotterdam",
    "1897-06-25": "cardiff",
    "1897-09-10": "barry",
    "1897-10-01": "port said",
    "1897-11-12": "marseille, france",
    "1897-2-1": "port said",
    "1897-4-5": "barry",
    "1898-01-08": "rotterdam",
    "1898-01-14": "barry",
    "1898-02-02": "new orleans",
    "1898-04-12": "hamburg, germany",
    "1898-04-13": "south shields",
    "1898-04-19": "methil",
    "1898-05-05": "st vincent",
    "1898-07-25": "london",
    "1898-08-05": "blyth",
    "1898-11-22": "barry",
    "1898-12-31": "galveston",
    "1899-02-04": "bremerhaven, germany",
    "1899-02-07": "bremerhaven",
    "1899-02-22": "barry",
    "1899-02-31": "bremerhaven",
    "1899-03-01": "barry",
    "1899-05-15": "buenos aires",
    "1899-06-22": "hull",
    "1899-06-29": "barry",
    "1899-08-28": "philadelphia, united states",
    "1899-08-29": "philadelphia",
    "1899-09-19": "rotterdam",
    "1899-09-30": "barry",
    "1899-10-18": "genoa",
    "1899-10-24": "genoa, italy",
    "1899-11-01": "new york",
    "1899-12-18": "sharpness",
    "1899-12-25": "barry",
    "1899-12-28": "galveston",
    "1900-12-07": "newport, mon.",
    "1901-02-22": "london",
    "1901-03-09": "barry",
    "1901-03-12": "leghorn",
    "1901-03-14": "barry",
    "1901-04-02": "leghorn",
    "1901-05-17": "barry",
    "1901-05-20": "cardiff",
    "1901-05-21": "barry",
    "1901-06-22": "huelva",
    "1901-07-23": "charlestown",
    "1901-09-15": "barry"
}