{
    "1863-11-01": "porthmadog",
    "1863-12-31": "aberystwyth",
    "1868-01-01": "runcorn",
    "1868-04-22": "porthmadog",
    "1870-01-01": "aberystwyth",
    "1872-01-06": "aberdovey",
    "1872-05-10": "aberystwyth",
    "1872-05-20": "aberdovey",
    "1872-06-09": "bristol"
}