{
    "-01-01": "swansea",
    "1863-06-30": "aberaeron",
    "1863-07-01": "rouen",
    "1863-09-04": "bristol",
    "1863-10-21": "liverpool",
    "1863-12--31": "dunkirk",
    "1866-01-01": "dublin",
    "1866-03-10": "cardiff",
    "1866-04-28": "dublin",
    "1866-05-22": "swansea",
    "1866-06-20": "newquay",
    "1866-12-31": "liverpool",
    "1867-04-18": "cardigan",
    "1867-06-08": "liverpool",
    "1867-07-01": "bristol",
    "1867-07-23": "cardiff",
    "1867-11-07": "newport",
    "1867-12-31": "runcorn",
    "1870-01-10": "cardiff",
    "1870-02-30": "swansea",
    "1870-07-01": "waterford",
    "1870-07-19": "swansea",
    "1870-11-28": "aberaeron",
    "1871-05-11": "swansea",
    "1872-02-16": "runcorn",
    "1872-04-20": "bristol",
    "1874-01-01": "cork",
    "1874-01-15": "porthcawl",
    "1874-04-06": "swansea",
    "1874-05-01": "newquay",
    "1874-10-02": "briton ferry",
    "1874-10-05": "newquay",
    "1874-12-22": "porthcawl",
    "1876-01-01": "liverpool",
    "1876-06-03": "swansea",
    "1877-04-01": "gloster",
    "1877-07-13": "swansea",
    "1878-01-11": "gloucestershire",
    "1878-02-20": "youghal",
    "1878-06-17": "porthmadog",
    "1879-01-01": "limerick",
    "1879-06-18": "belfast",
    "1879-07-06": "garston"
}