{
    "-01-01": "remains",
    "1863-07-10": "newport",
    "1863-11-16": "aberystwyth",
    "1865-01-04": "newport",
    "1866-07-04": "aberystwyth",
    "1869-04-19": "liverpool",
    "1871-07-01": "southampton",
    "1871-11-08": "swansea",
    "1871-12-31": "poole",
    "1872-05-25": "runcorn",
    "1872-10-06": "liverpool",
    "1872-11-15": "lost overboard",
    "1872-11-20": "holyhead",
    "1872-12-16": "aberdovey",
    "1873-06-30": "plymouth",
    "1874-01-19": "cardiff",
    "1874-06-16": "bangor",
    "1874-10-20": "liverpool",
    "1875-10-25": "bangor",
    "1876-07-06": "cork",
    "1876-10-10": "bangor",
    "1876-11-17": "southampton",
    "1876-12-31": "glasgow",
    "1877-02-17": "bangor",
    "1877-07-05": "swansea",
    "1877-10-30": "bangor",
    "1878-01-01": "milford",
    "1878-07-06": "liverpool",
    "1878-09-08": "bangor",
    "1880-07-15": "liverpool",
    "1881-01-03": "bangor",
    "1881-06-30": "perth",
    "1881-07-18": "hull",
    "1883-06-29": "bangor",
    "1892-07-06": "cork",
    "1892-12-23": "bangor",
    "1894-06-16": "caernarfon",
    "1894-07-18": "bangor",
    "1896-06-30": "runcorn",
    "1896-11-24": "bangor",
    "1897-05-05": "carnarvon",
    "1897-11-15": "bangor",
    "1899-08-24": "port dinorwic",
    "1899-08-26": "holyhead",
    "1900-01-01": "bangor",
    "1900-01-05": "holyhead",
    "1900-03-10": "bangor",
    "1900-06-07": "port dinorwic",
    "1900-06-25": "bangor",
    "1900-07-09": "bristol",
    "1900-08-21": "douglas",
    "1900-09-04": "bangor",
    "1900-12-08": "conway",
    "1901-01-15": "holyhead",
    "1901-03-09": "swansea",
    "1901-04-19": "bangor",
    "1901-06-22": "amlwch",
    "1903-01-03": "swansea",
    "1903-01-20": "amlwch",
    "1903-08-01": "runcorn",
    "1903-08-08": "llandudno",
    "1903-08-14": "amlwch",
    "1904-05-19": "caernarfon",
    "1904-07-02": "port dinorwic",
    "1904-09-17": "caernarfon",
    "1904-10-21": "carnarvon",
    "1904-10-26": "amlwch",
    "1906-06-30": "garston",
    "1906-07-12": "holyhead",
    "1906-10-21": "amlwch",
    "1907-05-23": "cardiff",
    "1907-07-01": "penzance",
    "1907-10-10": "amlwch",
    "1908-01-01": "amlwch port",
    "1908-06-08": "amlwch",
    "1910-07-15": "pembroke",
    "1910-09-08": "caernarfon",
    "1910-11-11": "amlwch",
    "1912-06-25": "point of ayr"
}