{
    "-01-01": "bristol",
    "1862-12-19": "london",
    "1863-01-14": "ramsgate",
    "1863-03-31": "liverpool",
    "1863-09-13": "london",
    "1863-11-23": "swansea",
    "1864-02-01": "liverpool",
    "1864-08-01": "cardiff",
    "1864-11-23": "swansea",
    "1864-12-10": "liverpool",
    "1867-01-03": "dublin",
    "1867-02-19": "cardiff",
    "1867-06-01": "liverpool",
    "1867-07-09": "cardiff",
    "1868-03-19": "neath",
    "1868-05-20": "runcorn",
    "1868-06-10": "liverpool",
    "1868-10-08": "hull",
    "1869-03-01": "cardiff",
    "1869-05-11": "liverpool",
    "1870-04-05": "cardiff",
    "1870-07-28": "liverpool",
    "1870-11-10": "cardiff",
    "1871-08-02": "bristol",
    "1872-04-28": "cardiff",
    "1872-07-05": "hull",
    "1872-08-29": "cardiff",
    "1872-10-10": "cork"
}