{
    "1867-01-01": "barmouth",
    "1867-06-30": "liverpool",
    "1868-11-01": "porthmadog",
    "1868-12-26": "aberystwyth",
    "1872-02-06": "bangor",
    "1872-07-01": "aberystwyth",
    "1877-07-01": "porthmadog",
    "1878-01-12": "gloucester",
    "1878-04-26": "porthmadog",
    "1879-01-01": "swansea",
    "1879-06-31": "porthmadog",
    "1883-07-01": "milford",
    "1883-10-14": "porthmadog",
    "1884-02-14": "portmadoc",
    "1884-03-29": "porthmadog",
    "1884-05-20": "portmadoc",
    "1884-06-27": "porthmadog",
    "1886-07-01": "gloucester",
    "1887-01-07": "porthmadog",
    "1887-07-04": "portmadoc",
    "1887-12-31": "cardiff",
    "1888-06-30": "liverpool",
    "1888-10-17": "beaumaris",
    "1889-01-01": "abersoch",
    "1889-04-28": "caernarfon",
    "1889-04-29": "carnarvon",
    "1889-06-30": "porthmadog",
    "1889-07-04": "portmadoc",
    "1890-01-01": "porthmadog",
    "1890-07-01": "bridgewater",
    "1890-10-20": "bangor",
    "1891-07-13": "carnarvon",
    "1891-09-05": "aberdovey",
    "1891-12-31": "porthmadog",
    "1892-01-01": "portmadoc",
    "1892-06-30": "porthmadog",
    "1892-07-13": "portmadoc",
    "1892-08-29": "pwllheli",
    "1892-12-23": "aberystwyth",
    "1893-02-07": "aberdovey",
    "1893-04-06": "porthmadog",
    "1893-05-08": "portmadoc",
    "1893-05-13": "bridgewater",
    "1893-05-31": "portmadoc",
    "1893-06-28": "porthmadog",
    "1893-10-17": "portmadoc",
    "1893-12-11": "porthmadog",
    "1894-02-28": "portmadoc",
    "1894-03-24": "falmouth"
}