{
    "1862-12-05": "swansea",
    "1863-04-10": "bristol",
    "1863-04-23": "newport",
    "1863-07-08": "aberaeron",
    "1863-07-23": "liverpool",
    "1863-10-15": "cardiff",
    "1863-12-09": "gloucestershire",
    "1864-01-08": "newport",
    "1864-05-05": "london",
    "1864-07-27": "demerara",
    "1864-09-17": "london",
    "1865-09-04": "liverpool",
    "1865-12-19": "ipswich",
    "1866-03-02": "london",
    "1866-07-01": "liverpool",
    "1866-07-28": "antigua",
    "1866-08-31": "liverpool",
    "1866-12-15": "ipswich",
    "1866-12-31": "plymouth",
    "1867-07-19": "swansea",
    "1867-10-14": "liverpool",
    "1867-12-31": "london",
    "1868-09-29": "cape town",
    "1868-10-06": "capetown",
    "1868-12-20": "bremenhaven",
    "1869-01-29": "plymouth",
    "1869-03-10": "port talbot",
    "1869-04-05": "swansea",
    "1869-07-14": "hull",
    "1869-11-25": "newcastle",
    "1870-01-03": "south shields",
    "1870-03-19": "antwerp",
    "1870-09-14": "london",
    "1872-01-01": "belfast",
    "1872-01-27": "swansea",
    "1872-04-26": "liverpool",
    "1872-05-10": "newquay",
    "1872-12-01": "swansea",
    "1873-06-30": "liverpool",
    "1873-11-08": "briton ferry",
    "1874-01-06": "swansea",
    "1874-07-28": "runcorn",
    "1874-10-19": "swansea",
    "1874-11-26": "ipswich",
    "1876-01-01": "cardiff",
    "1876-03-20": "porthcawl",
    "1876-06-11": "newquay",
    "1877-01-04": "yarmouth",
    "1877-06-02": "runcorn",
    "1877-07-09": "briton ferry",
    "1877-08-15": "swansea",
    "1877-12-05": "briton ferry",
    "1878-01-07": "cork",
    "1878-01-20": "liverpool",
    "1878-04-24": "swansea",
    "1878-06-30": "liverpool",
    "1878-09-21": "swansea",
    "1878-12-16": "runcorn",
    "1879-02-05": "neath",
    "1879-05-09": "looe",
    "1879-07-01": "swansea",
    "1879-09-24": "looe",
    "1881-07-05": "swansea",
    "1881-08-26": "looe",
    "1882-01-04": "port talbot",
    "1882-07-04": "looe",
    "1884-01-10": "port talbot",
    "1884-07-12": "looe",
    "1886-07-06": "port talbot",
    "1886-07-21": "looe",
    "1888-01-20": "fowey",
    "1888-01-23": "looe",
    "1888-07-12": "port talbot",
    "1888-09-14": "looe",
    "1889-01-03": "falmouth",
    "1889-04-18": "par",
    "1889-04-20": "looe",
    "1889-07-04": "par",
    "1889-09-12": "looe",
    "1889-11-20": "plymouth",
    "1889-12-02": "looe",
    "1890-01-08": "plymouth",
    "1890-07-01": "runcorn",
    "1890-12-07": "looe",
    "1891-06-30": "runcorn",
    "1891-07-17": "looe bay",
    "1891-11-10": "looe",
    "1892-01-27": "liverpool",
    "1892-07-13": "swansea",
    "1892-08-19": "liverpool",
    "1893-07-07": "cardiff",
    "1893-07-21": "liverpool",
    "1894-07-09": "fowey",
    "1894-10-15": "loo$ bay",
    "1894-12-04": "liverpool",
    "1898-07-01": "dover",
    "1898-09-13": "liverpool",
    "1899-07-04": "fowey",
    "1899-09-05": "runcorn",
    "1899-10-14": "liverpool",
    "1901-03-11": "looe",
    "1901-07-17": "looe bay",
    "1901-08-27": "looe",
    "1902-07-07": "pentewan",
    "1902-07-24": "falmouth",
    "1906-04-04": "swansea",
    "1906-04-27": "jersey",
    "1906-05-18": "garston",
    "1906-06-28": "poole",
    "1906-08-10": "falmouth",
    "1906-10-23": "southampton",
    "1906-12-18": "london",
    "1907-02-05": "garston",
    "1907-03-05": "falmouth",
    "1907-04-05": "garston",
    "1907-04-12": "southampton",
    "1907-05-02": "falmouth",
    "1907-12-19": "swansea",
    "1907-12-29": "newlyn",
    "1908-01-02": "fowey",
    "1908-01-09": "newlyn",
    "1908-02-28": "fowey",
    "1908-05-02": "salcombe"
}