{
    "1892-01-15": "bangor",
    "1892-01-29": "newhaven",
    "1892-07-29": "holyhead",
    "1892-08-14": "runcorn",
    "1892-12-31": "cork",
    "1893-04-06": "porthmadog",
    "1893-06-16": "caernarfon",
    "1894-01-13": "porthmadog",
    "1894-05-21": "newport",
    "1894-06-04": "porthdinllaen",
    "1894-06-09": "caernarfon",
    "1894-06-19": "porthdinorwig",
    "1894-06-30": "caernarfon",
    "1894-09-12": "london",
    "1894-11-10": "caernarfon",
    "1896-07-20": "appledore",
    "1896-12-10": "caernarfon",
    "1897-08-30": "porthmadog",
    "1897-12-22": "aberdovey",
    "1898-05-03": "aberdyfi",
    "1898-05-22": "falmouth",
    "1984-03-09": "porthmadog",
    "1984-11-28": "caernarfon"
}