{
    "-01-01": "on board",
    "1667-07-20": "runcorn",
    "1867-12-10": "porthmadog",
    "1867-12-11": "portmadoc",
    "1868-07-01": "newport",
    "1868-10-02": "porthmadog",
    "1869-07-01": "charlestown",
    "1869-12-21": "porthmadog",
    "1870-01-01": "porthmadoc",
    "1870-03-24": "liverpool",
    "1870-05-05": "cardiff",
    "1870-06-30": "poole",
    "1875-06-08": "haversham",
    "1876-01-01": "runcorn",
    "1876-01-02": "aberystwyth",
    "1876-01-05": "runcorn",
    "1876-01-14": "newry",
    "1876-04-26": "llanelli",
    "1876-05-29": "margate",
    "1876-07-11": "llanelli",
    "1876-08-25": "liverpool",
    "1876-11-23": "cardiff",
    "1876-12-23": "aberystwyth",
    "1877-07-30": "runcorn",
    "1878-02-15": "bangor",
    "1878-06-13": "runcorn",
    "1880-08-10": "belfast",
    "1880-09-09": "newport",
    "1880-11-27": "glasgow",
    "1880-12-29": "aberystwyth",
    "1881-07-01": "porthmadog",
    "1881-10-26": "hull",
    "1882-01-07": "porthmadog",
    "1882-03-02": "london",
    "1882-04-28": "bangor",
    "1882-07-03": "liverpool",
    "1882-11-13": "porthmadog"
}