{
    "1827-12-12": "swansea",
    "1863-01-01": "cardiff",
    "1863-02-25": "liverpool",
    "1863-03-15": "cardiff",
    "1863-03-27": "newport",
    "1863-03-30": "newquay",
    "1863-04-01": "newport",
    "1863-04-18": "swansea",
    "1863-05-13": "cardiff",
    "1863-06-03": "newquay",
    "1863-06-25": "swansea",
    "1863-06-30": "newquay",
    "1863-07-29": "aberystwyth",
    "1863-08-24": "newquay",
    "1863-11-12": "cardiff",
    "1863-12-07": "liverpool",
    "1863-3-30": "newquay",
    "1864-02-22": "cardiff",
    "1864-07-01": "barrow",
    "1864-07-15": "swansea",
    "1864-08-25": "august",
    "1864-11-01": "cardiff",
    "1864-11-11": "newquay",
    "1864-11-29": "liverpool",
    "1867-03-05": "runcorn",
    "1867-04-01": "limerick",
    "1867-05-03": "swansea",
    "1867-05-22": "poole",
    "1867-06-15": "runcorn",
    "1867-09-17": "swansea",
    "1868-02-19": "waterford",
    "1868-04-07": "swansea",
    "1868-06-03": "runcorn",
    "1868-07-31": "swansea",
    "1868-09-19": "newquay",
    "1868-12-31": "swansea",
    "1871-01-04": "cork",
    "1871-01-13": "swansea",
    "1871-07-14": "newquay",
    "1871-09-09": "swansea",
    "1871-12-19": "neath",
    "1872-07-01": "boston",
    "1872-10-30": "plymouth",
    "1872-11-12": "swansea",
    "1876-06-17": "cardiff",
    "1876-07-01": "swansea",
    "1876-09-26": "briton ferry"
}