{
    "01864-04-28": "bangor",
    "1863-10-24": "milford",
    "1863-10-26": "plymouth",
    "1863-11-16": "garston",
    "1864-04-28": "bangor",
    "1864-06-30": "liverpool",
    "1866-12-31": "runcorn",
    "1868-12-18": "maplin sands",
    "1869-07-01": "bangor"
}