{
    "-01-01": "liverpool",
    "1863-02-20": "swansea",
    "1863-05-30": "liverpool",
    "1863-07-14": "cardiff",
    "1863-10-19": "liverpool",
    "1864-02-08": "cardiff",
    "1864-06-04": "glasgow",
    "1864-06-25": "ardrossan",
    "1864-07-05": "aberayron",
    "1865-02-28": "cardiff",
    "1865-05-23": "liverpool",
    "1866-07-11": "cardiff",
    "1866-09-17": "runcorn"
}