{
    "1863-01-01": "aberayron",
    "1863-06-30": "aberaeron",
    "1864-01-01": "aberayron",
    "1864-05-30": "aberaeron",
    "1864-07-01": "aberayron",
    "1864-12-31": "caernarfon",
    "1865-07-01": "aberayron",
    "1865-12-31": "aberaeron",
    "1871-07-16": "aberayron",
    "1871-11-08": "aberaeron",
    "1872-07-01": "aberystwyth",
    "1872-08-05": "aberayron",
    "1872-09-05": "aberaeron",
    "1872-09-08": "aberayron",
    "1872-10-13": "aberaeron",
    "1873-03-10": "aberayron",
    "1873-06-30": "aberaeron",
    "1873-07-01": "aberayron",
    "1873-09-10": "aberaeron",
    "1874-07-01": "neath",
    "1874-09-19": "aberaeron",
    "1881-03-19": "cardigan",
    "1881-07-07": "swansea"
}