{
    "1861-08-05": "realejo",
    "1861-08-27": "liverpool",
    "1861-09-20": "holyhead",
    "1862-07-15": "realejo",
    "1862-09-03": "liverpool",
    "1863-03-13": "london",
    "1863-05-26": "gravesend",
    "1863-09-15": "holyhead",
    "1863-11-13": "colombo, sri lanka",
    "1863-12-09": "colombo",
    "1864-05-31": "london"
}