{
    "-01-01": "marseilles, france",
    "1863-02-28": "glasgow",
    "1863-04-22": "palermo",
    "1863-06-01": "liverpool",
    "1863-10-15": "bowling",
    "1863-11-01": "glasgow",
    "1863-11-13": "ellensch",
    "1864-01-29": "glasgow",
    "1864-07-27": "stockton",
    "1865-08-21": "cardiff",
    "1866-02-03": "berwick",
    "1866-02-28": "newcastle",
    "1866-08-15": "glasgow",
    "1867-05-06": "cardiff",
    "1867-07-10": "bristol",
    "1867-07-28": "cardiff",
    "1868-01-01": "south shields",
    "1868-02-06": "waterford",
    "1868-03-18": "cardiff",
    "1868-05-15": "dublin",
    "1868-06-11": "cardiff",
    "1868-08-08": "marseille, france",
    "1868-10-07": "wells",
    "1868-11-05": "south shields",
    "1869-03-02": "penzance",
    "1869-03-11": "liverpool",
    "1869-03-22": "runcorn",
    "1869-07-03": "lynn",
    "1869-08-18": "cardiff",
    "1869-12-07": "lynn",
    "1870-03-05": "swansea",
    "1870-06-27": "dover",
    "1870-07-30": "south shields",
    "1870-11-01": "amsterdam",
    "1871-06-13": "hull",
    "1871-07-23": "plymouth",
    "1871-09-01": "runcorn",
    "1871-10-20": "swansea",
    "1871-12-08": "briton ferry",
    "1872-01-01": "neath",
    "1872-01-03": "briton ferry",
    "1872-01-30": "belfast",
    "1872-03-12": "garston",
    "1872-06-06": "plymouth",
    "1872-06-30": "runcorn",
    "1872-11-13": "briton ferry",
    "1872-12-31": "milford",
    "1873-01-04": "neath",
    "1873-03-06": "milford",
    "1873-04-05": "briton ferry",
    "1873-07-16": "liverpool",
    "1873-10-21": "briton ferry",
    "1874-07-14": "stockton",
    "1874-07-24": "middlesbrough",
    "1874-08-19": "neath",
    "1874-10-01": "warrenpoint",
    "1874-10-10": "workington",
    "1874-11-03": "briton ferry",
    "1876-04-04": "cardiff"
}