{
    "1863-07-01": "porthcawl",
    "1864-01-20": "poole",
    "1866-07-01": "liverpool",
    "1866-12-31": "penzance",
    "1867-01-01": "liverpool",
    "1867-06-30": "cork",
    "1869-07-08": "limerick",
    "1870-01-11": "swansea",
    "1870-07-16": "newport",
    "1870-12-31": "dumbarton",
    "1871-06-30": "newhaven",
    "1871-12-13": "swansea",
    "1874-05-01": "neath",
    "1874-06-30": "runcorn",
    "1876-07-01": "poole",
    "1876-11-04": "cardiff",
    "1877-01-01": "runcorn",
    "1877-02-10": "ballaneara",
    "1877-02-28": "poole",
    "1877-04-12": "newquay",
    "1878-05-31": "swansea",
    "1878-06-30": "southampton",
    "1878-09-04": "briton ferry",
    "1878-12-31": "limerick",
    "1879-06-11": "runcorn",
    "1879-06-20": "poole",
    "1879-07-22": "runcorn",
    "1880-01-08": "shoreham",
    "1880-03-15": "runcorn",
    "1881-01-01": "bowling",
    "1881-06-08": "shoreham",
    "1881-06-30": "poole",
    "1881-10-20": "london",
    "1883-07-18": "hayle",
    "1883-12-31": "runcorn",
    "1884-07-09": "gloucestershire",
    "1884-07-11": "gloucester",
    "1884-08-16": "swansea",
    "1885-01-06": "dublin",
    "1886-09-14": "newport",
    "1886-12-28": "milford",
    "1887-04-19": "newport",
    "1887-05-10": "runcorn",
    "1887-09-04": "newport",
    "1887-10-14": "passage west",
    "1887-12-01": "newport",
    "1888-07-04": "dunabrattin",
    "1888-07-14": "newport",
    "1888-11-15": "passagewest",
    "1888-11-24": "newport",
    "1888-12-24": "swansea",
    "1889-01-28": "newport",
    "1890-01-15": "runcorn",
    "1890-04-01": "newport",
    "1890-06-30": "cork",
    "1890-07-21": "london",
    "1890-09-04": "newport",
    "1892-11-04": "cork",
    "1893-03-06": "exmouth",
    "1893-05-09": "newport",
    "1893-07-01": "kenmare",
    "1893-08-12": "shipwreck"
}