{
    "1862-07-03": "cardiff",
    "1863-04-01": "naples",
    "1863-09-01": "bristol",
    "1863-09-24": "newport",
    "1864-02-22": "london",
    "1864-04-11": "cardiff",
    "1864-08-25": "liverpool",
    "1866-06-26": "cardiff",
    "1866-09-11": "bristol",
    "1866-10-09": "cardiff",
    "1867-01-14": "london",
    "1867-03-09": "cardiff",
    "1867-09-16": "cronstadt",
    "1867-10-27": "plymouth",
    "1868-01-23": "spezia",
    "1868-04-24": "bristol",
    "1869-03-02": "antwerp",
    "1870-03-02": "newquay",
    "1870-05-26": "swansea",
    "1871-02-12": "london",
    "1871-03-31": "cardiff",
    "1871-10-05": "london",
    "1872-01-16": "grenada",
    "1872-04-10": "london",
    "1872-07-02": "halifax",
    "1872-12-13": "naples",
    "1873-04-05": "hull",
    "1873-12-03": "malaga",
    "1873-12-31": "bristol",
    "1874-04--09": "briton ferry",
    "1874-11-20": "liverpool"
}