{
    "1863-01-19": "cardiff",
    "1863-07-15": "bristol",
    "1863-08-13": "cardiff",
    "1863-12-26": "bristol",
    "1864-04-30": "cardiff",
    "1864-08-31": "runcorn",
    "1864-09-10": "liverpool",
    "1864-09-19": "whitehaven",
    "1864-10-22": "cardiff"
}