{
    "-01-01": "malta",
    "1862-11-26": "newcastle",
    "1863-01-02": "shields",
    "1863-01-06": "south shields",
    "1863-04-10": "gallipoli",
    "1863-06-08": "hull",
    "1863-09-10": "cardiff",
    "1864-01-21": "malta",
    "1864-03-19": "london",
    "1865-06-13": "liverpool",
    "1865-10-31": "cardiff",
    "1866-01-01": "sandwich",
    "1866-01-11": "waterford",
    "1866-02-01": "sandwich",
    "1866-02-11": "waterford",
    "1866-03-01": "cardiff",
    "1866-05-18": "carthagena",
    "1866-05-28": "gibraltar",
    "1866-08-06": "london",
    "1867-01-01": "liverpool",
    "1867-01-25": "waterford",
    "1867-02-13": "cardiff",
    "1867-03-09": "waterford",
    "1867-04-10": "cardiff",
    "1867-05-07": "waterford",
    "1867-08-06": "new ross",
    "1867-08-13": "newross",
    "1867-09-02": "swansea",
    "1867-09-14": "new ross",
    "1867-09-20": "newross",
    "1867-10-07": "cardiff",
    "1867-11-01": "waterford",
    "1867-12-19": "havre, france",
    "1868-01-06": "waterford",
    "1868-02-29": "newross",
    "1868-03-05": "waterford",
    "1868-03-07": "newross",
    "1868-05-05": "cardiff",
    "1868-11-01": "gloucestershire",
    "1868-12-10": "waterford",
    "1869-01-07": "cardiff"
}