{
    "1862-09-17": "bristol",
    "1862-11-20": "marseilles, france",
    "1863-01-01": "london",
    "1863-07-15": "newport",
    "1863-12-09": "london",
    "1864-02-18": "tenerife",
    "1864-05-07": "nevis",
    "1864-06-13": "london",
    "1864-08-01": "falin$$",
    "1864-08-02": "falmouth",
    "1864-12-01": "london",
    "1866-05-02": "gravesend",
    "1866-05-03": "london",
    "1866-06-27": "berbice",
    "1866-09-01": "london",
    "1866-11-07": "cardiff",
    "1866-12-11": "milford",
    "1866-12-26": "milford haven",
    "1867-07-10": "rio grande",
    "1867-09-17": "london",
    "1868-06-06": "newport",
    "1868-09-02": "constantinople",
    "1869-01-14": "falmouth",
    "1869-01-28": "coleraine",
    "1869-04-07": "newport",
    "1869-10-11": "hull",
    "1869-11-15": "porstmouth",
    "1870-02-14": "falmouth",
    "1870-03-01": "lynn",
    "1870-03-16": "south shields",
    "1870-03-25": "north shields",
    "1870-07-10": "harbour grace, newfoundland, canada",
    "1870-07-26": "st. john",
    "1871-02-16": "terranova",
    "1871-04-05": "falmouth",
    "1871-04-19": "goole",
    "1871-06-16": "swansea",
    "1871-09-06": "hull",
    "1871-10-09": "south shields",
    "1871-12-10": "messina",
    "1871-12-28": "messina, italy",
    "1872-02-20": "hull",
    "1872-03-02": "sfax",
    "1872-03-12": "hull",
    "1872-03-20": "newcastle",
    "1872-04-05": "south shields",
    "1872-05-25": "naples",
    "1872-09-07": "glasgow",
    "1872-09-20": "greenock",
    "1872-12-03": "aberystwyth",
    "1873-02-23": "ayr",
    "1873-06-26": "swansea",
    "1873-08-21": "algiers",
    "1873-10-12": "falmouth",
    "1873-11-19": "ayr",
    "1873-12-30": "glasgow",
    "1874-01-01": "ayr",
    "1874-04-07": "king's lynn",
    "1874-05-15": "port talbot",
    "1874-09-18": "liverpool",
    "1876-01-14": "ayr",
    "1876-03-27": "plymouth",
    "1876-03-29": "ayr",
    "1876-04-17": "plymouth",
    "1876-05-05": "fowey",
    "1876-05-12": "liverpool",
    "1969-11-01": "hull",
    "1969-11-15": "portsmouth",
    "1978-09-18": "glasgow"
}