{
    "-01-01": "newport",
    "1858-03-13": "aberystwyth",
    "1864-04-17": "liverpool",
    "1864-06-22": "glasgow",
    "1864-11-22": "runcorn",
    "1866-01-01": "whitehaven",
    "1866-06-30": "poole",
    "1866-07-25": "runcorn",
    "1866-12-05": "aberystwyth",
    "1867-06-30": "dublin",
    "1868-01-01": "aberystwyth",
    "1868-07-11": "southampton",
    "1868-11-23": "porthmadog",
    "1869-01-01": "portmadoc",
    "1869-01-07": "aberystwyth",
    "1869-07-01": "portmadoc",
    "1869-07-17": "porthmadog",
    "1870-08-09": "neath",
    "1870-12-31": "porthmadog",
    "1871-03-04": "portmadoc",
    "1871-08-24": "bristol",
    "1872-01-01": "poole",
    "1872-01-06": "aberystwyth",
    "1872-04-27": "liverpool",
    "1872-06-30": "portmadoc",
    "1873-01-01": "aberystwyth",
    "1873-07-01": "liverpool",
    "1873-08-27": "porthmadog",
    "1873-09-17": "aberystwyth",
    "1873-11-18": "llanelli",
    "1874-01-01": "portmadoc",
    "1874-01-06": "porthmadog",
    "1874-07-01": "londonderry",
    "1874-11-03": "cardiff",
    "1875-01-08": "porthmadog",
    "1876-01-01": "runcorn",
    "1879-06-20": "liverpool",
    "1880-01-12": "runcorn",
    "1880-03-05": "larne",
    "1881-09-20": "plymouth",
    "1881-11-08": "runcorn",
    "1881-12-31": "skibbereen",
    "1883-04-20": "london",
    "1883-05-14": "stranraer",
    "1883-07-01": "aberdovey",
    "1883-07-24": "bristol",
    "1883-10-24": "runcorn",
    "1883-12-15": "aberdovey",
    "1885-01-01": "plymouth",
    "1885-03-03": "aberdovey",
    "1885-06-30": "honfleur",
    "1889-07-05": "newport",
    "1890-11-20": "waterford",
    "1893-05-06": "cardiff",
    "1894-04-18": "waterford",
    "1894-05-03": "cardiff",
    "1894-05-15": "passage",
    "1894-08-01": "waterford",
    "1896-05-06": "dungarvan",
    "1896-06-30": "dublin",
    "1896-10-20": "waterford",
    "1897-03-03": "swansea",
    "1976-06-30": "liverpool",
    "6-01-01": "waterford"
}