{
    "1864-03-12": "cardiff",
    "1864-06-09": "runcorn",
    "1864-08-08": "antwerp",
    "1864-09-06": "milford",
    "1864-12-19": "liverpool",
    "1865-09-20": "rouen",
    "1866-02-10": "london",
    "1866-04-10": "swansea",
    "1866-06-21": "pamaron",
    "1866-08-26": "at sea \/ liverpool"
}