{
    "-01-01": "cardiff",
    "1863-01-01": "liverpool",
    "1863-06-30": "poole",
    "1864-07-22": "barrow",
    "1865-01-24": "liverpool",
    "1867-01-12": "neath",
    "1868-03-09": "liverpool",
    "1868-05-25": "neath",
    "1868-07-01": "newquay",
    "1868-09-18": "neath",
    "1868-12-31": "plymouth",
    "1869-02-18": "neath",
    "1869-06-25": "newquay",
    "1870-01-12": "kinsale",
    "1870-05-09": "newport",
    "1870-05-22": "liverpool",
    "1870-07-20": "belfast",
    "1870-08-10": "liverpool",
    "1870-12-02": "swansea",
    "1871-10-30": "gloucester",
    "1871-11-04": "cardiff roads",
    "1871-12-05": "ostend",
    "1872-02-10": "bristol",
    "1872-04-11": "llanelly",
    "1873-02-10": "neath",
    "1873-03-23": "porthmadog",
    "1873-04-15": "portmadoc",
    "1873-09-20": "aberdovey",
    "1876-03-29": "porthmadog",
    "1876-07-01": "hull",
    "1876-08-12": "porthmadog",
    "1877-07-01": "portland",
    "1877-07-28": "porthmadog",
    "1877-08-27": "portmadoc",
    "1877-11-21": "porthmadog",
    "1878-01-02": "portmadoc",
    "1878-03-13": "porthmadog",
    "1878-07-10": "portmadoc",
    "1878-10-28": "belfast",
    "1878-11-19": "porthmadog",
    "1879-06-17": "portmadoc",
    "1879-11-28": "porthmadog",
    "1880-01-01": "milford",
    "1880-03-12": "porthmadog",
    "1880-07-01": "portmadoc",
    "1880-08-24": "porthmadog",
    "1880-09-16": "portmadoc",
    "1880-11-30": "queenstown",
    "1880-12-31": "porthmadog",
    "1882-02-12": "portmadoc",
    "1882-03-13": "porthmadog",
    "1882-08-18": "portmadoc",
    "1882-10-31": "porthmadog",
    "1883-01-13": "milford",
    "1883-03-12": "porthmadog",
    "1883-03-27": "portmadoc",
    "1883-06-30": "london",
    "1884-08-01": "portmadoc",
    "1885-01-10": "porthmadog",
    "1887-07-01": "newcastle",
    "1887-08-28": "porthmadog",
    "1887-09-21": "portmadoc",
    "1887-09-23": "porthmadog",
    "1887-10-25": "portmadoc",
    "1887-11-31": "london",
    "1887-12-14": "porthmadog",
    "1889-04-23": "portmadoc",
    "1889-07-01": "gloucester",
    "1889-08-07": "gloucestershire",
    "1889-08-10": "portmadoc",
    "1889-08-12": "gloucester",
    "1889-09-14": "porthmadog",
    "1889-12-28": "rhyl",
    "1890-02-03": "porthmadog",
    "1891-01-05": "holyhead",
    "1892-05-21": "cardiff",
    "1980-09-22": "porthmadog",
    "1990-01-15": "holyhead",
    "1990-04-28": "porthmadog"
}