{
    "-01-01": "b;l",
    "1863-07-01": "whitehaven",
    "1864-02-07": "glasgow",
    "1864-07-01": "greenock",
    "1864-08-03": "bowling",
    "1864-08-15": "greenock",
    "1864-12-31": "liverpool",
    "1866-04-06": "runcorn",
    "1866-08-05": "yarmouth",
    "1867-01-": "poole",
    "1869-01-06": "gloucester",
    "1869-07-06": "poole",
    "1870-07-12": "neath",
    "1870-12-27": "llanelli",
    "1871-01-06": "cork",
    "1871-05-03": "runcorn",
    "1872-07-01": "ardrossan",
    "1872-10-11": "plymouth",
    "1872-11-15": "antwerp",
    "1872-12-30": "swansea",
    "1874-07-14": "dysart",
    "1874-09-01": "runcorn",
    "1874-12-31": "dublin",
    "1876-01-01": "newry",
    "1876-02-08": "briton ferry",
    "1876-05-30": "plymouth",
    "1876-07-22": "runcorn",
    "1876-12-08": "newport",
    "1877-01-03": "penryn",
    "1877-01-10": "gweek helford",
    "1877-01-27": "dublin",
    "1877-03-03": "runcorn",
    "1877-05-14": "leith",
    "1877-06-30": "runcorn",
    "1877-12-31": "plymouth",
    "1878-02-14": "dartmouth",
    "1878-07-17": "runcorn",
    "1878-07-26": "fraserburgh",
    "1878-09-18": "aberystwyth",
    "1880-02-27": "boston",
    "1880-03-25": "harrington",
    "1880-04-09": "llanelli",
    "1880-05-04": "limerick",
    "1880-07-12": "cork",
    "1880-07-22": "swansea",
    "1881-01-27": "sligo",
    "1881-07-29": "plymouth",
    "1881-12-06": "runcorn",
    "1881-12-31": "liverpool",
    "1882-04-11": "charleston",
    "1882-05-26": "garston",
    "1882-07-05": "anstruther",
    "1883-01-01": "falmouth",
    "1883-01-25": "runcorn",
    "1883-04-26": "liverpool",
    "1883-06-30": "poole",
    "1883-10-04": "ellesmere",
    "1884-01-04": "holyhead",
    "1884-03-28": "porthmadog",
    "1884-04-02": "portmadoc",
    "1884-05-19": "wells",
    "1884-06-12": "dublin",
    "1884-06-30": "london",
    "1884-07-22": "rochester",
    "1884-08-09": "holyhead",
    "1885-01-01": "dublin",
    "1885-01-08": "caernarfon",
    "1885-04-02": "runcorn",
    "1885-07-10": "liverpool",
    "1887-01-03": "runcorn",
    "1887-01-24": "aberystwyth",
    "1889-04-12": "portmadoc",
    "1889-05-27": "friedrichstadt, germany",
    "1889-06-14": "london",
    "1889-08-14": "dublin",
    "1889-08-24": "porthmadog",
    "1889-09-05": "portmadoc, carnarvon",
    "1889-11-28": "caernarfon",
    "1889-12-16": "carnarvon",
    "1890-01-08": "longhope",
    "1890-01-22": "sunderland",
    "1890-03-05": "poole",
    "1890-04-03": "runcorn",
    "1890-07-02": "port dinorwic",
    "1890-10-28": "thurso",
    "1890-12-31": "runcorn",
    "1891--09-14": "newcastle",
    "1891-01-08": "runcorn",
    "1891-04-23": "caernarfon",
    "1891-07-01": "scrabster",
    "1891-08-03": "plymouth",
    "1891-09-09": "newcastle",
    "1891-10-29": "caernarfon",
    "1892-07-25": "preston",
    "1892-11-24": "caernarfon",
    "1893-01-10": "jersey",
    "1894-04-02": "aberdovey",
    "1894-05-18": "hull",
    "1894-06-30": "caernarfon",
    "1894-08-15": "faversham",
    "1894-09-14": "swansea",
    "1894-09-22": "falmouth",
    "1894-10-26": "rye",
    "1894-12-14": "cardiff",
    "1896-01-13": "cork",
    "1896-02-14": "runcorn",
    "1896-03-17": "aberystwyth",
    "1896-06-06": "shields",
    "1896-06-10": "south shields",
    "1896-09-03": "porthmadog",
    "1896-10-10": "portmadoc",
    "1896-11-29": "hartlepool",
    "1896-11-30": "west hartlepool",
    "1896-12-31": "shoreham",
    "1897-01-04": "dall$u$$",
    "1897-02-20": "dublin",
    "1897-03-11": "aberdovey",
    "1897-05-28": "porthmadog",
    "1897-07-10": "hull",
    "1897-09-08": "porthmadog",
    "1897-09-09": "portmadoc",
    "1897-11-08": "swansea",
    "1897-12-16": "porthmadog",
    "1898-01-15": "portmadoc",
    "1898-03-3": "bangor",
    "1898-06-14": "hartlepool",
    "1898-07-01": "exeter",
    "1898-10-22": "cardiff",
    "1898-11-19": "youghal",
    "1899-01-12": "london",
    "1899-02-26": "porthmadog",
    "1899-03-30": "portmadoc",
    "1899-06-24": "porthmadog",
    "1899-07-12": "portmadoc",
    "1899-08-31": "newcastle",
    "1899-12-11": "porthmadog",
    "1900-01-15": "milford",
    "1901-03-11": "portmadoc",
    "1901-05-03": "porthmadog",
    "1901-05-24": "portmadoc",
    "1901-12-13": "hartlepool",
    "1902-01-29": "portsmouth",
    "1902-04-12": "portmadoc",
    "1902-05-28": "porthmadog",
    "1902-07-15": "caernarfon",
    "1902-09-16": "carnarvon",
    "1902-10-23": "north shields",
    "1902-11-07": "greenwich",
    "1903-01-07": "newquay",
    "1903-01-16": "porthmadog",
    "1903-03-10": "portmadoc",
    "1903-05-14": "porthcawl",
    "1903-06-06": "porthmadog",
    "1903-06-15": "portmadoc",
    "1903-07-02": "lynn",
    "1903-07-11": "kings lynn",
    "1903-07-20": "london",
    "1903-10-12": "rye",
    "1903-10-31": "southampton",
    "1904-02-15": "runcorn",
    "1904-03-09": "milford",
    "1904-05-02": "portmadoc",
    "1904-05-03": "porthmadog",
    "1904-05-24": "ipswich",
    "1904-06-24": "porthmadog",
    "1904-07-09": "portmadoc",
    "1904-08-08": "aberdeen",
    "1904-08-24": "london",
    "1904-11-14": "caernarfon",
    "1904-12-07": "carnarvon",
    "1904-12-31": "belfast",
    "1966-01-22": "cardiff",
    "1977-11-01": "wells"
}