{
    "1862-09-01": "cardiff",
    "1863-01-15": "fleetwood",
    "1863-03-25": "cardiff",
    "1863-10-14": "bristol",
    "1863-11-01": "cardiff",
    "1864-04-07": "belfast",
    "1864-05-25": "cardiff",
    "1864-09-10": "london",
    "1864-10-20": "neath",
    "1864-12-27": "london",
    "1866-01-27": "larne",
    "1885-11-10": "cardiff",
    "1885-11-14": "bristol"
}