{
    "1862-09-04": "swansea",
    "1863-01-07": "falmouth",
    "1863-02-04": "yarmouth",
    "1863-02-27": "south shields",
    "1863-03-06": "shields",
    "1863-03-13": "yarmouth",
    "1863-06-04": "liverpool",
    "1863-08-06": "cardiff",
    "1863-12-08": "yarmouth",
    "1864-02-01": "cardiff",
    "1864-10-31": "london",
    "1865-12-29": "liverpool",
    "1866-01-12": "campbeltown",
    "1866-01-14": "liverpool",
    "1866-09-01": "trinidad",
    "1866-10-27": "greenock",
    "1866-12-17": "ardrossan",
    "1867-05-02": "gibraltar",
    "1867-05-29": "hull",
    "1867-11-07": "antwerp",
    "1867-12-22": "ardrossan",
    "1868-01-01": "south shields",
    "1868-01-09": "runcorn",
    "1868-03-23": "newcastle",
    "1868-04-02": "south shields",
    "1868-04-25": "seville",
    "1868-07-04": "liverpool",
    "1868-08-14": "newport",
    "1868-10-31": "carloforte",
    "1868-12-11": "gibraltar",
    "1869-02-01": "antwerp",
    "1869-03-29": "runcorn",
    "1869-04-22": "liverpool",
    "1869-05-29": "runcorn",
    "1869-08-23": "aberystwyth",
    "1872-03-25": "newport",
    "1872-07-25": "newcastle",
    "1872-11-14": "aberystwyth",
    "1873-02-28": "portmadoc",
    "1873-06-12": "aberystwyth",
    "1874-02-02": "tralee",
    "1874-02-21": "dingle",
    "1874-05-22": "newcastle",
    "1874-10-19": "london",
    "1876-09-23": "cardiff",
    "1876-12-15": "dar-al-baida"
}