{
    "-01-01": "aberdovey",
    "-08-07": "runcorn",
    "-11-20": "porthmadog",
    "1863-09-15": "liverpool",
    "1863-12-31": "barmouth",
    "1865-08-": "aberystwyth",
    "1866-07-09": "poole",
    "1866-08-01": "runcorn",
    "1866-11-10": "porthmadog",
    "1866-12-28": "aberdovey",
    "1868-07-01": "garston",
    "1868-10-30": "porthmadog",
    "1869-06-30": "liverpool",
    "1872-08-05": "aberystwyth",
    "1872-10-18": "dublin",
    "1872-10-31": "liverpool",
    "1872-12-14": "cardiff",
    "1873-05-23": "swansea",
    "1873-07-04": "liverpool",
    "1874-01-10": "bristol",
    "1874-07-04": "garston",
    "1874-07-14": "aberdeen",
    "1874-11-16": "swansea",
    "1876-07-13": "portmadoc",
    "1876-12-08": "porthmadog",
    "1877-01-03": "portmadoc",
    "1877-04-25": "porthmadog",
    "1877-07-12": "london",
    "1877-12-31": "liverpool",
    "1878-07-10": "runcorn",
    "1878-07-24": "porthmadog",
    "1878-09-14": "portmadoc",
    "1878-12-30": "bristol",
    "1880-01-10": "cardiff",
    "1880-01-13": "belfast",
    "1880-02-02": "swansea",
    "1881-01-17": "newross",
    "1881-02-26": "aberystwyth",
    "1881-03-04": "milford",
    "1881-05-04": "gravesend",
    "1881-05-30": "aberystwyth",
    "1881-07-01": "sunderland",
    "1881-12-06": "milford",
    "1882-04-29": "gravesend",
    "1882-05-30": "porthmadog",
    "1882-07-18": "lynn",
    "1883-01-15": "falmouth",
    "1883-01-25": "liverpool",
    "1883-03-10": "portmadoc",
    "1883-04-13": "porthmadog",
    "1883-04-21": "portmadoc",
    "1883-06-05": "western point",
    "1883-06-06": "westernpoint",
    "1883-06-09": "dublin",
    "1883-06-23": "porthmadog",
    "1883-07-09": "portmadoc",
    "1883-09-03": "liverpool",
    "1883-09-19": "porthmadog",
    "1883-09-28": "portmadoc",
    "1883-12-19": "porthmadog",
    "1884-02-01": "portmadoc",
    "1884-04-28": "porthmadog",
    "1884-05-20": "portmadoc",
    "1884-07-02": "porthmadog",
    "1884-07-11": "portmadoc",
    "1884-09-09": "porthmadog",
    "1884-10-02": "portmadoc",
    "1884-12-20": "milford",
    "1884-12-27": "porthmadog",
    "1887-01-27": "portmadoc",
    "1887-04-02": "porthmadog",
    "1887-04-08": "portmadoc",
    "1887-04-11": "porthmadog",
    "1887-07-18": "portmadoc",
    "1887-07-19": "porthmadog",
    "1887-08-18": "london",
    "1887-09-15": "porthmadog",
    "1887-15-19": "portmadoc",
    "1889-03-11": "liverpool",
    "1889-04-01": "porthmadog",
    "1889-04-08": "portmadoc",
    "1889-06-01": "london",
    "1890-01-02": "belfast",
    "1890-02-04": "carrickfergus",
    "1890-02-26": "porthmadog",
    "1890-03-24": "portmadoc",
    "1890-06-10": "liverpool",
    "1890-07-12": "belfast",
    "1890-07-26": "porthmadog",
    "1890-08-18": "portmadoc",
    "1890-10-07": "porthmadog",
    "1891-08-20": "portmadoc",
    "1891-10-27": "porthmadog",
    "1892-01-01": "portmadoc",
    "1892-05-30": "porthmadog",
    "1892-06-07": "portmadoc",
    "1892-06-15": "10 miles off the lizard"
}