{
    "1863-01-08": "runcorn",
    "1863-06-30": "newport",
    "1863-09-14": "swansea",
    "1863-11-19": "liverpool",
    "1864-07-01": "runcorn",
    "1864-12-31": "dublin",
    "1870-11-20": "liverpool",
    "1871-01-20": "brupels",
    "1871-05-20": "cork",
    "1871-06-06": "nantes",
    "1871-07-17": "antwerp",
    "1871-08-30": "newquay",
    "1871-09-27": "greenock",
    "1873-03-01": "newport",
    "1873-05-01": "runcorn"
}