{
    "1863-04-15": "cardiff",
    "1863-07-23": "gloucestershire",
    "1864-01-22": "newcastle",
    "1864-02-16": "london",
    "1864-02-19": "newcastle",
    "1865-08-26": "gloucester",
    "1865-09-29": "newcastle",
    "1866-02-01": "hull",
    "1866-04-11": "marseilles, france",
    "1866-05-21": "lynn",
    "1866-05-29": "lymn",
    "1866-06-14": "newcatle",
    "1866-06-16": "newcastle",
    "1866-06-22": "south shields",
    "1866-10-27": "hull",
    "1866-12-20": "swansea",
    "1868-02-01": "hayle",
    "1868-02-14": "falmouth",
    "1868-02-22": "london",
    "1868-03-05": "cardiff",
    "1868-08-18": "falmouth",
    "1868-08-29": "cardiff",
    "1869-11-20": "glasgow",
    "1876-01-12": "swansea"
}