{
    "-01-01": "neath",
    "1862-07-25": "liverpool",
    "1863-01-03": "plymouth",
    "1863-01-11": "hamburg, germany",
    "1863-02-10": "hamburg",
    "1863-03-14": "dublin",
    "1863-06-24": "ardrossan",
    "1863-10-17": "bristol",
    "1865-10-04": "liverpool",
    "1866-09-07": "gloucestershire",
    "1866-12-25": "liverpool",
    "1867-02-04": "aberystwyth",
    "1867-02-18": "runcorn",
    "1867-05-03": "liverpool",
    "1868-09-18": "north shields",
    "1869-02-03": "antwerp",
    "1869-03-10": "plymouth",
    "1869-03-31": "derry",
    "1869-04-02": "neath",
    "1870-04-30": "liverpool",
    "1870-11-26": "harbor grace",
    "1870-12-20": "waterford",
    "1871-01-02": "plymouth",
    "1871-06-30": "norziane",
    "1871-08-19": "antwerp",
    "1871-09-23": "maryport",
    "1871-12-07": "harwich",
    "1872-01-04": "belfast",
    "1872-01-25": "garston",
    "1872-02-17": "plymouth",
    "1872-03-25": "par",
    "1872-05-20": "maryport",
    "1872-09-18": "belfast",
    "1872-11-20": "rotterdam",
    "1872-12-27": "newry",
    "1873-07-24": "poole",
    "1873-08-18": "runcorn",
    "1873-11-01": "yarmouth",
    "1873-12-01": "fowey",
    "1873-12-19": "runcorn",
    "1874-04-07": "hull",
    "1874-05-09": "liverpool",
    "1874-05-25": "porthmadog",
    "1874-09-01": "portmadoc",
    "1874-11-08": "whitehaven",
    "1876-04-08": "portmadoc",
    "1876-07-08": "liverpool",
    "1876-08-30": "monrose",
    "1876-09-07": "lowestoft",
    "1876-09-14": "newcastle",
    "1876-11-01": "liverpool",
    "1877-01-04": "clonakilty",
    "1877-03-05": "liverpool",
    "1877-03-24": "garston",
    "1877-04-06": "swansea",
    "1877-07-09": "dover",
    "1877-09-19": "dublin",
    "1877-09-22": "aberystwyth",
    "1878-05-25": "porthmadog",
    "1879-02-22": "portland",
    "1879-03-08": "london",
    "1879-05-07": "newport",
    "1879-07-18": "cork",
    "1879-10-21": "runcorn",
    "1880-09-05": "peterhead",
    "1880-11-24": "dublin",
    "1881-01-17": "swansea",
    "1881-03-07": "bangor",
    "1881-06-30": "runcorn",
    "1881-08-22": "garston",
    "1881-09-23": "plymouth",
    "1882-01-02": "fowey",
    "1882-05-27": "gloucestershire",
    "1882-07-11": "limerick",
    "1882-08-12": "poole",
    "1882-12-11": "runcorn",
    "1883-01-20": "newry",
    "1883-03-17": "caernarfon",
    "1883-04-23": "bangor",
    "1883-06-30": "poole",
    "1883-07-14": "runcorn",
    "1883-12-28": "llanelli",
    "1883-12-29": "llanelly",
    "1883-12-83": "llanelli",
    "1885-03-16": "portmadoc",
    "1885-05-09": "london",
    "1885-06-30": "aberdovey",
    "1885-08-14": "waterford",
    "1885-10-02": "carnarvon",
    "1885-12-23": "aberdovey",
    "1886-03-26": "caernarfon",
    "1886-04-28": "carnarvon",
    "1886-07-19": "caernarfon",
    "1886-08-04": "carnarvon",
    "1886-10-15": "caernarfon",
    "1886-11-01": "carnarvon",
    "1887-01-04": "swansea",
    "1887-02-08": "caernarfon",
    "1887-03-24": "carnarvon",
    "1887-05-31": "caernarfon",
    "1887-07-07": "london",
    "1887-09-06": "caernarfon",
    "1887-09-13": "carnarvon",
    "1887-10-12": "hull",
    "1887-12-31": "caernarfon",
    "1888-01-19": "carnarvon",
    "1888-05-07": "bristol",
    "1888-05-29": "porthmadog",
    "1888-06-07": "portmadoc",
    "1888-06-27": "lynn",
    "1888-08-09": "pwllheli",
    "1888-08-11": "porthmadog",
    "1888-08-21": "portmadoc",
    "1888-11-24": "silloth",
    "1889-01-03": "newry",
    "1889-01-22": "swansea",
    "1889-04-01": "porthmadog",
    "1889-04-12": "portmadoc",
    "1889-05-09": "harburg, germany",
    "1889-06-30": "porthmadog",
    "1889-07-01": "portmadoc",
    "1889-07-26": "harburg, germany",
    "1889-07-30": "hamburg",
    "1889-09-14": "aberystwyth",
    "1889-10-14": "portmadoc",
    "1889-11-09": "london",
    "1889-12-10": "belfast",
    "1889-12-31": "porthmadog",
    "1890-01-20": "portmadoc",
    "1890-03-21": "aberystwyth",
    "1890-05-29": "bremerhaven",
    "1890-07-10": "london",
    "1890-12-30": "dublin",
    "1891-01-23": "porthmadog",
    "1891-04-13": "portmadoc",
    "1891-05-17": "harbury",
    "1891-05-19": "harburg",
    "1891-07-10": "aberystwyth",
    "1891-07-16": "aberdovey",
    "1891-12-24": "swansea",
    "1892-04-16": "porthmadog",
    "1892-04-20": "portmadoc",
    "1892-06-30": "runcorn",
    "1892-07-28": "porthmadog",
    "1892-08-22": "portmadoc",
    "1892-12-24": "aberdovey",
    "1893-04-17": "porthmadog",
    "1893-05-03": "portmadoc",
    "1893-06-29": "caernarfon",
    "1894-01-04": "swansea",
    "1894-04-14": "porthmadog",
    "1894-04-21": "falmouth",
    "1894-07-18": "poole",
    "1894-08-04": "ellesmere port",
    "1894-11-27": "aberystwyth",
    "1896-01-01": "portland",
    "1896-02-09": "ballinacurra, cork",
    "1896-03-12": "plymouth",
    "1896-03-28": "porthmadog",
    "1896-05-13": "newhaven",
    "1896-05-30": "london",
    "1896-06-24": "porthmadog",
    "1896-07-27": "portmadoc",
    "1896-11-27": "porthmadog",
    "1897-01-02": "milford haven",
    "1897-02-03": "portsmouth",
    "1897-03-02": "cardiff",
    "1897-05-21": "porthmadog",
    "1897-07-07": "london",
    "1897-08-21": "porthmadog",
    "1897-09-23": "portmadoc",
    "1897-12-10": "porthmadog",
    "1898-01-20": "portmadoc",
    "1898-04-20": "falmouth",
    "1898-05-16": "porthmadog",
    "1898-08-05": "portmadoc",
    "1898-10-24": "porthmadog",
    "1898-11-11": "portmadoc",
    "1898-12-23": "london",
    "1899-03-04": "aberdovey",
    "1899-07-01": "drogheda",
    "1899-07-20": "porthmadog",
    "1899-08-26": "portmadoc",
    "1899-08-31": "abersoch",
    "1899-11-06": "portsmouth",
    "1899-11-11": "liverpool",
    "1899-12-09": "porthmadog",
    "1900-01-01": "portmadoc",
    "1900-01-31": "porthmadog",
    "1900-03-13": "portmadoc",
    "1900-05-21": "aberdovey",
    "1900-07-09": "milford haven",
    "1900-08-27": "milford",
    "1900-10-02": "chatham",
    "1900-11-10": "troon",
    "1901-01-10": "waterford",
    "1901-02-06": "truro",
    "1901-02-20": "plymouth",
    "1901-04-01": "porthmadog",
    "1901-07-01": "irvine",
    "1901-09-16": "newport",
    "1901-10-25": "porthmadog",
    "1901-11-04": "portmadoc",
    "1902-01-21": "swansea",
    "1902-03-18": "aberdovey",
    "1902-05-20": "london",
    "1902-06-04": "llanelli",
    "1902-06-11": "llanelly",
    "1902-06-30": "london",
    "1902-11-28": "portmadoc",
    "1902-12-04": "st. brides bay"
}