{
    "1862-07-23": "cardiff",
    "1863-02-10": "boston",
    "1863-03-18": "cardiff",
    "1863-07-01": "cork",
    "1865-10-13": "london",
    "1866-01-15": "grenada",
    "1866-04-16": "london",
    "1870-10-29": "holyhead",
    "1871-04-24": "london",
    "1872-06-15": "liverpool",
    "1872-07-01": "newquay",
    "1872-07-15": "liverpool",
    "1873-03-18": "cardiff",
    "1873-04-16": "burghead",
    "1873-05-27": "alloa",
    "1873-11-26": "london",
    "1875-03-07": "holyhead",
    "1875-06-29": "barrow",
    "1875-07-15": "newport"
}