{
    "-01-01": "remains",
    "1863-03-04": "liverpool",
    "1863-08-06": "exeter",
    "1863-10-09": "liverpool",
    "1866-06-21": "greenock",
    "1866-07-13": "liverpool",
    "1866-07-31": "swansea",
    "1866-11-15": "bristol",
    "1866-11-17": "cardiff",
    "1867-03-28": "london",
    "1868-03-14": "glasgow",
    "1868-08-29": "liverpool",
    "1868-12-19": "london",
    "1869-06-24": "swansea",
    "1869-12-13": "belfast",
    "1870-01-10": "froon",
    "1870-01-12": "ardrossan",
    "1870-06-28": "london",
    "1871-08-11": "swansea",
    "1872-01-06": "dublin",
    "1872-02-24": "liverpool",
    "1872-08-07": "london",
    "1872-09-12": "swansea",
    "1873-01-29": "ayr",
    "1873-08-04": "greenock",
    "1873-08-13": "glasgow",
    "1873-09-19": "greenock",
    "1873-11-20": "barbados",
    "1873-11-26": "st thomas",
    "1874-02-24": "antwerp",
    "1874-10-06": "liverpool",
    "1875-12-07": "london",
    "1876-02-25": "massan",
    "1876-04-10": "london",
    "1876-11-14": "swansea",
    "1876-12-20": "falmouth",
    "1877-07-20": "holyhead",
    "1877-12-10": "falmouth"
}