{
    "1870-01-01": "aberdovey",
    "1871-07-01": "newcastle",
    "1871-12-31": "dublin",
    "1873-02-06": "aberdovey",
    "1873-10-06": "rotterdam",
    "1874-01-04": "aberdovey",
    "1877-06-30": "liverpool",
    "1878-11-19": "aberdovey",
    "1879-07-01": "runcorn",
    "1879-12-31": "swansea",
    "1880-03-18": "aberdovey",
    "1880-07-03": "porthmadog",
    "1882-11-02": "aberdovey",
    "1883-03-22": "liverpool",
    "1883-07-02": "newcastle",
    "1883-10-19": "porthmadog",
    "1883-12-31": "liverpool",
    "1884-07-23": "london",
    "1884-08-18": "porthmadog",
    "1886-12-24": "caernarfon",
    "1887-04-02": "porthmadog",
    "1888-02-02": "southampton",
    "1888-04-16": "chester",
    "1888-05-22": "porthmadog",
    "1888-08-16": "runcorn",
    "1888-09-29": "porthmadog",
    "1889-01-01": "ipswich",
    "1889-04-03": "portmadoc",
    "1889-04-06": "porthmadog",
    "1889-04-16": "portmadoc",
    "1889-06-15": "porthmadog",
    "1889-09-11": "hull",
    "1889-11-10": "porthmadog",
    "1890-03-18": "portmadoc",
    "1890-05-28": "porthmadog",
    "1891-03-25": "portmadoc",
    "1891-05-30": "porthmadog",
    "1891-07-24": "rochester",
    "1891-08-29": "bristol",
    "1891-09-18": "newport",
    "1891-10-07": "porthmadog",
    "1891-11-07": "portmadoc",
    "1891-12-07": "porthmadog"
}