{
    "-01-01": "newport",
    "1860-01-27": "hull",
    "1863-01-04": "cardiff",
    "1863-04-22": "liverpool",
    "1864-05-01": "runcorn",
    "1864-05-16": "liverpool",
    "1864-05-28": "runcorn",
    "1864-06-11": "liverpool",
    "1864-06-14": "cardiff",
    "1864-06-30": "chatham",
    "1864-09-06": "plymouth",
    "1866-09-10": "liverpool",
    "1867-05-31": "newport",
    "1867-09-12": "london",
    "1867-10-8": "newport",
    "1867-12-14": "cardiff",
    "1868-02-19": "liverpool",
    "1868-04-20": "cardiff",
    "1868-07-22": "south shields",
    "1868-09-30": "runcorn",
    "1868-10-16": "gloucester",
    "1868-12-24": "poole",
    "1869-02-24": "milford",
    "1869-05-28": "runcorn",
    "1869-07-09": "cardiff",
    "1869-09-11": "runcorn",
    "1870-02-14": "cardiff",
    "1870-04-05": "newport",
    "1870-04-14": "newquay",
    "1870-08-02": "middlesbrough",
    "1870-10-19": "liverpool",
    "1871-01-16": "bristol",
    "1871-04-19": "cardiff",
    "1871-07-12": "newcastle",
    "1871-10-19": "bristol",
    "1871-11-07": "porthcawl",
    "1872-01-08": "runcorn",
    "1872-03-09": "plymouth",
    "1872-06-25": "chester",
    "1873-04-08": "mostyn",
    "1873-04-10": "liverpool",
    "1873-05-02": "swansea",
    "1873-06-24": "runcorn",
    "1873-07-01": "mostyn",
    "1873-10-15": "liverpool",
    "1873-12-21": "gloucestershire",
    "1874-01-21": "gloucester",
    "1874-02-05": "swansea",
    "1874-03-23": "gloucester",
    "1874-04-17": "newport",
    "1874-07-01": "yarmouth",
    "1874-08-16": "swansea",
    "1874-11-09": "newport",
    "1874-12-12": "plymouth",
    "1876-01-01": "limerick",
    "1876-01-14": "port william",
    "1876-01-19": "gloucestershire",
    "1876-02-28": "cardiff",
    "1876-08-01": "bristol",
    "1877-01-05": "cardiff",
    "1877-02-06": "ballinacurra",
    "1877-03-20": "cardiff",
    "1877-03-24": "middlesbrough",
    "1877-05-13": "cardiff",
    "1877-09-21": "amsterdam",
    "1877-10-20": "cardiff",
    "1877-12-29": "kilrush",
    "1878-02-04": "cardiff",
    "1878-05-16": "amsterdam",
    "1878-08-07": "cardiff",
    "1878-12-02": "larne",
    "1878-12-27": "port talbot",
    "1879--08-01": "cardiff",
    "1879-03-04": "port talbot",
    "1879-04-08": "cardiff",
    "1879-10-21": "newquay",
    "1880-03-09": "cardiff",
    "1880-09-07": "swansea",
    "1880-11-03": "cardiff",
    "1881-01-16": "cork",
    "1881-02-09": "cardiff",
    "1881-12-07": "porthcawl",
    "1882-01-24": "cardiff",
    "1882-07-06": "newport",
    "1882-10-05": "cardiff",
    "1882-11-11": "mumbles head",
    "1882-11-12": "mumbles road",
    "1882-12-23": "liverpool",
    "1884-02-25": "swansea",
    "1884-04-14": "runcorn",
    "1884-05-04": "ipswich",
    "1884-06-10": "cardiff",
    "1884-07-12": "rochester",
    "1884-07-17": "london",
    "1884-08-23": "aberdovey",
    "1884-09-17": "sligo",
    "1884-09-24": "holyhead",
    "1884-10-22": "limerick",
    "1884-10-24": "liverpool",
    "1884-11-20": "limerick",
    "1884-11-22": "runcorn",
    "1885-01-12": "caernarfon"
}