{
    "-01-01": "bristol",
    "1860-02-04": "newport",
    "1863-08-20": "whitehaven",
    "1863-10-03": "cardiff",
    "1864-01-18": "bristol",
    "1864-02-08": "newport",
    "1864-04-12": "cape passaro",
    "1864-07-05": "newport",
    "1864-10-24": "london",
    "1865-09-20": "newport",
    "1866-01-22": "bristol",
    "1866-02-07": "liverpool",
    "1866-02-20": "newport",
    "1866-06-26": "cardiff",
    "1866-10-23": "liverpool",
    "1867-01-28": "newport",
    "1867-03-09": "milford",
    "1867-04-13": "liverpool",
    "1867-09-07": "gloucestershire",
    "1867-09-14": "aberystwyth",
    "1867-09-24": "newport",
    "1867-11-21": "liverpool",
    "1868-01-28": "newport",
    "1868-02-03": "cardiff",
    "1868-05-04": "liverpool",
    "1868-05-05": "runcorn",
    "1868-05-08": "bristol",
    "1868-05-20": "runcorn",
    "1868-05-22": "liverpool",
    "1868-05-27": "newport",
    "1868-09-28": "liverpool",
    "1868-11-20": "porthcawl",
    "1869-03-07": "milford",
    "1869-05-27": "newport",
    "1869-10-04": "lynn",
    "1869-11-20": "newcastle",
    "1870-02-01": "runcorn",
    "1870-03-03": "newport",
    "1870-07-18": "galway",
    "1870-08-29": "cardiff",
    "1870-12-17": "liverpool",
    "1871-02-10": "swansea",
    "1871-02-11": "neath",
    "1871-02-13": "swansea",
    "1871-06-28": "liverpool",
    "1871-07-25": "runcorn",
    "1871-12-30": "newcastle",
    "1872-01-20": "south shields",
    "1872-01-27": "north shields",
    "1872-02-07": "falmouth",
    "1872-03-16": "bilbao",
    "1872-04-09": "newcastle",
    "1872-04-29": "south shields",
    "1872-08-01": "liverpool",
    "1872-12-14": "milford haven",
    "1873-09-12": "cardiff",
    "1873-12-31": "london",
    "1874-02-23": "belfast",
    "1874-03-20": "newport",
    "1874-04-11": "cardiff",
    "1874-07-06": "port talbot",
    "1876-01-16": "london",
    "1876-04-20": "liverpool",
    "1876-06-24": "berwick",
    "1876-07-06": "shields",
    "1876-07-07": "south shields",
    "1876-09-20": "runcorn",
    "1876-10-07": "liverpool",
    "1876-11-07": "limerick",
    "1877-01-03": "harwich",
    "1877-01-19": "london",
    "1877-03-10": "belfast",
    "1877-04-07": "llanelli",
    "1877-05-05": "ballinacurra",
    "1877-05-07": "cork",
    "1877-06-27": "cardiff",
    "1877-11-12": "kirkcudbright",
    "1877-12-04": "whitehaven",
    "1878-01-08": "newport",
    "1878-02-15": "cork",
    "1878-03-06": "porthmadog",
    "1879-01-16": "limerick",
    "1879-02-16": "liverpool",
    "1879-02-25": "garston",
    "1879-03-31": "cardiff",
    "1879-06-06": "swansea",
    "1879-09-10": "dublin",
    "1879-10-03": "cardiff",
    "1881-07-07": "newport",
    "1881-09-15": "belfast",
    "1881-10-26": "burry port",
    "1882-01-14": "cardiff",
    "1882-07-11": "milford",
    "1882-10-16": "cardiff",
    "1883-01-10": "waterford",
    "1884-04-10": "portmadog",
    "1884-06-27": "swansea",
    "1884-09-26": "liverpool",
    "1885-01-07": "cardiff",
    "1887-01-02": "fleetwood",
    "1887-05-20": "bremen vegesack",
    "1887-07-12": "caernarfon",
    "1887-07-15": "aberaeron",
    "1887-07-16": "carnarvon",
    "1887-09-02": "portmadoc",
    "1887-12-31": "liverpool",
    "1888-01-28": "garston",
    "1888-03-15": "portmadoc",
    "1888-03-23": "porthmadog",
    "1888-05-24": "portmadoc",
    "1888-07-19": "london",
    "1888-08-24": "porthmadog",
    "1888-11-01": "fredrikstad",
    "1888-12-10": "portmouth",
    "1888-12-21": "porthmadog",
    "1889-03-16": "portmadoc",
    "1889-04-18": "hamburg, germany",
    "1889-06-14": "llanelli",
    "1889-07-06": "burry port",
    "1889-07-25": "ipswich",
    "1889-10-09": "swansea",
    "1889-11-05": "porthmadog",
    "1889-11-20": "portmadoc",
    "1889-12-20": "london",
    "1889-12-23": "swansea",
    "1889-12-31": "london",
    "1890-01-16": "newcastle",
    "1890-01-26": "waterford",
    "1890-01-27": "newcastle",
    "1890-01-28": "penarth",
    "1890-01-30": "waterford",
    "1890-02-12": "dublin",
    "1890-02-16": "porthmadog",
    "1890-03-17": "porthmadoc",
    "1890-03-26": "penarth",
    "1890-05-17": "newcastle",
    "1890-07-04": "waterford",
    "1890-07-20": "newport",
    "1890-08-15": "cork",
    "1890-09-06": "garston",
    "1890-10-08": "plymouth",
    "1890-11-03": "garston",
    "1890-12-31": "limerick",
    "1891-02-25": "garston",
    "1891-03-21": "dingle",
    "1905-02-08": "cardiff",
    "879-06-20": "swansea"
}