{
    "1891-02-27": "aberaeron",
    "1891-06-04": "swansea",
    "1906-07-01": "hook",
    "1906-12-21": "milford",
    "1907-04-04": "swansea",
    "1907-04-05": "porthgain",
    "1907-05-23": "swansea",
    "1907-06-30": "port talbot",
    "1907-07-31": "swansea",
    "1907-09-07": "solva",
    "1913-01-01": "burry port",
    "1913-12-30": "saundersfoot"
}