{
    "1864-04-12": "liverpool",
    "1864-06-20": "runcorn",
    "1864-07-30": "cardiff",
    "1864-11-04": "runcorn",
    "1864-11-25": "barrow",
    "1865-01-02": "newport",
    "1866-04-03": "barmouth",
    "1866-05-15": "cardiff",
    "1866-08-20": "runcorn",
    "1866-11-22": "swansea",
    "1867-03-01": "port talbot",
    "1867-05-07": "bristol",
    "1868-01-14": "garston",
    "1868-04-17": "runcorn",
    "1868-05-07": "london",
    "1869-01-02": "hamburg",
    "1869-03-14": "caernarfon",
    "1869-04-08": "leith",
    "1869-04-09": "carnarvon",
    "1869-04-23": "boy",
    "1869-07-03": "swansea",
    "1869-08-05": "belfast",
    "1869-08-15": "milford",
    "1869-12-01": "liverpool",
    "1870-01-01": "cardiff",
    "1870-07-16": "liverpool",
    "1870-11-14": "newport",
    "1870-12-23": "port talbot",
    "1871-07-01": "southampton",
    "1871-09-21": "newport",
    "1871-12-31": "poole",
    "1872-02-14": "runcorn",
    "1872-06-14": "cardiff",
    "1872-08-12": "portmadoc",
    "1872-08-20": "cardiff",
    "1872-09-23": "runcorn",
    "1872-11-07": "cork",
    "1872-12-05": "cardiff",
    "1873-01-01": "cardiff roads",
    "1873-01-10": "newquay",
    "1873-01-14": "aberaeron",
    "1874-07-01": "milford",
    "1874-10-10": "liverpool",
    "1874-11-24": "aberaeron",
    "1876-01-01": "waterford",
    "1876-01-21": "swansea",
    "1876-06-30": "porthmadog",
    "1876-08-29": "newhaven",
    "1876-10-28": "cardiff",
    "1877-01-11": "waterford",
    "1877-01-15": "cardiff",
    "1877-12-17": "atherstone",
    "1881-01-03": "portmadoc",
    "1881-01-07": "portsmouth",
    "1881-01-12": "porthmadog",
    "1881-04-03": "portmadoc",
    "1881-04-14": "poole",
    "1881-07-15": "pwllheli",
    "1881-09-07": "portmadoc",
    "1881-11-08": "porthmadog",
    "1881-12-23": "poole",
    "1881-12-30": "porthmadog",
    "1882-01-03": "portmadoc",
    "1882-04-10": "porthmadog",
    "1882-05-04": "portmadoc",
    "1882-05-23": "porthmadog",
    "1882-07-18": "weymouth",
    "1882-08-14": "porthmadog",
    "1882-09-01": "portmadoc",
    "1882-11-": "porthmadog",
    "1882-12-13": "portmadoc",
    "1883-01-05": "porthmadog",
    "1884-04-21": "portmadoc",
    "1884-06-10": "belfast",
    "1884-06-18": "porthmadog",
    "1884-09-20": "portmadoc",
    "1884-10-01": "st. studwall road",
    "1884-12-16": "porthmadog",
    "1887-02-07": "portmadoc",
    "1887-04-21": "porthmadog",
    "1887-07-22": "portmadoc",
    "1887-10-27": "porthmadog",
    "1887-11-18": "portmadoc",
    "1888-01-06": "porthmadog",
    "1888-01-17": "portmadoc",
    "1888-07-10": "porthmadog",
    "1888-08-10": "portmadoc",
    "1888-11-01": "porthmadog",
    "1888-11-28": "portmadoc",
    "1888-12-31": "london",
    "1889-02-26": "porthmadog",
    "1889-04-12": "portmadoc",
    "1889-06-29": "porthmadog",
    "1889-07-27": "portmadoc",
    "1889-10-08": "porthmadog",
    "1889-11-11": "portmadoc",
    "1889-12-18": "porthmadog",
    "1890-03-21": "portmadoc",
    "1890-05-30": "porthmadog",
    "1890-07-03": "portmadoc",
    "1890-09-16": "porthmadog",
    "1890-10-16": "portmadoc",
    "1890-11-12": "hamburg",
    "1890-12-26": "limerick",
    "1891-01-10": "porthmadog",
    "1891-05-21": "portmadoc",
    "1891-07-02": "porthmadog",
    "1891-09-05": "portmadoc",
    "1891-10-12": "gothenburg",
    "1891-11-28": "porthmadog",
    "1892-03-12": "portmadoc",
    "1892-11-23": "porthmadog"
}