{
    "1863-07-25": "london",
    "1864-02-04": "cape town",
    "1864-09-08": "berwick",
    "1866-01-24": "london",
    "1866-08-01": "middlesbrough",
    "1866-08-08": "london",
    "1866-11-23": "ipswich",
    "1867-02-13": "cardiff",
    "1867-05-01": "newcastle",
    "1867-05-15": "tyne dock",
    "1867-05-16": "newcastle",
    "1867-07-11": "exmouth",
    "1867-08-19": "plymouth",
    "1867-10-27": "liverpool",
    "1868-07-11": "exmouth",
    "1868-07-21": "topsham",
    "1868-08-07": "plymouth",
    "1868-09-23": "messina, italy",
    "1868-09-26": "genoa, italy",
    "1868-10-23": "messina",
    "1868-11-18": "yarmouth",
    "1868-11-25": "london",
    "1868-12-23": "yarmouth",
    "1869-04-07": "liverpool",
    "1869-04-16": "london",
    "1869-09-06": "lowestoft",
    "1869-10-01": "newcastle",
    "1869-10-04": "south shields",
    "1870-05-03": "runcorn",
    "1870-05-05": "liverpool",
    "1870-08-16": "antwerp",
    "1870-09-08": "newcastle",
    "1870-09-19": "south shields",
    "1870-12-16": "london",
    "1871-09-19": "swansea",
    "1871-12-19": "london",
    "1872-04-18": "patras",
    "1872-07-01": "liverpool",
    "1872-08-31": "plymouth",
    "1872-12-22": "london",
    "1873-01-15": "liverpool",
    "1873-01-16": "london",
    "1873-03-18": "dublin",
    "1873-04-03": "mostyn",
    "1873-06-03": "chester",
    "1873-06-07": "mostyn",
    "1873-07-25": "chester",
    "1873-10-19": "mostyn",
    "1873-10-20": "liverpool",
    "1873-10-23": "mostyn",
    "1874-03-09": "chester",
    "1874-06-13": "mostyn",
    "1874-07-03": "limerick",
    "1874-12-29": "liverpool",
    "18871-06-21": "greenock"
}