{
    "-01-01": "remains",
    "178-06-15": "londonderry",
    "1864-08-01": "london",
    "1864-10-27": "aberystwyth",
    "1864-11-24": "london",
    "1865-11-15": "newport",
    "1866-07-29": "london",
    "1866-08-14": "bridgewater",
    "1866-08-24": "ipswich",
    "1866-09-18": "highbridge",
    "1867-01-01": "swansea",
    "1867-04-28": "liverpool",
    "1868-02-22": "bristol",
    "1868-07-04": "porthcawl",
    "1869-06-24": "ipswich",
    "1869-10-27": "newcastle",
    "1869-10-69": "newcastle upon tyne",
    "1869-11-10": "ipswich",
    "1870-05-02": "newcastle",
    "1870-05-21": "ipswich",
    "1870-05-29": "newcastle",
    "1870-06-04": "jersey",
    "1870-06-06": "littlehampton",
    "1870-06-08": "jersey",
    "1870-06-09": "littlehampton",
    "1870-06-28": "st. heliers",
    "1870-07-02": "jersey",
    "1870-07-03": "ipswich",
    "1870-07-09": "jersey",
    "1870-07-18": "littlehampton",
    "1870-07-24": "liverpool",
    "1870-09-22": "port glasgow",
    "1870-09-26": "troon",
    "1870-10-28": "whitehaven",
    "1870-12-02": "stranraer",
    "1870-12-12": "glasgow",
    "1870-12-14": "ardrossan",
    "1870-12-20": "newry",
    "1870-12-26": "glasgow",
    "1870-12-31": "newry",
    "1870-12013-01": "glasgow",
    "1871-05-13": "bolton",
    "1871-05-23": "aberystwyth",
    "1871-12-02": "bristol",
    "1872-03-27": "liverpool",
    "1872-06-30": "dublin",
    "1873-07-01": "widnes",
    "1873-12-31": "liverpool",
    "1876-01-01": "garston",
    "1876-06-30": "porthmadog",
    "1877-01-01": "cardiff",
    "1877-01-06": "liverpool",
    "1877-06-23": "cardiff",
    "1877-06-29": "swansea",
    "1877-07-01": "cardiff",
    "1877-?-26": "port lobbe",
    "1878-02-15": "liverpool",
    "1878-05-13": "londonderry",
    "1878-06-27": "ballywalter ireland"
}