{
    "1863-04-13": "colombo",
    "1863-09-19": "newport",
    "1864-03-31": "colombo, sri lanka",
    "1864-04-22": "columbo",
    "1864-09-08": "london",
    "1865-09-12": "colombo, sri lanka",
    "1866-02-02": "london",
    "1866-04-18": "newport",
    "1866-09-12": "colombo, sri lanka",
    "1866-10-11": "vigo"
}