{
    "1863-04-06": "aberystwyth",
    "1864-09-21": "quebec",
    "1864-11-18": "aberystwyth",
    "1866-11-05": "st. johns",
    "1866-11-06": "st. john",
    "1866-12-22": "aberystwyth",
    "1868-08-07": "aberporth",
    "1868-08-15": "aberystwyth"
}