{
    "1863-01-01": "london",
    "1863-03-20": "newport",
    "1863-06-30": "runcorn",
    "1863-08-03": "cardiff",
    "1863-10-17": "liverpool",
    "1864-03-12": "cardiff",
    "1864-06-11": "runcorn",
    "1864-07-16": "cardiff",
    "1864-09-24": "runcorn",
    "1864-12-31": "liverpool"
}