{
    "-01-01": "london",
    "1863-02-07": "cardiff",
    "1863-06-01": "falmouth",
    "1863-06-10": "london",
    "1863-07-13": "charlestown",
    "1863-07-18": "falmouth",
    "1863-10-28": "gloucestershire",
    "1863-11-25": "newport",
    "1864-01-01": "liverpool",
    "1865-11-21": "london",
    "1865-12-07": "falmouth",
    "1866-01-25": "canary islands",
    "1866-02-23": "nevis",
    "1866-03-24": "athen",
    "1866-07-14": "london",
    "1866-10-22": "st helena",
    "1866-10-23": "st. helena",
    "1866-12-15": "falmouth",
    "1866-12-21": "london",
    "1868-02-26": "swansea",
    "1868-06-27": "bristol",
    "1868-07-11": "cardiff",
    "1868-09-22": "bristol",
    "1868-10-13": "cardiff",
    "1869-04-26": "liverpool",
    "1869-12-03": "havre, france",
    "1869-12-13": "havre",
    "1870-01-10": "swansea",
    "1870-02-03": "milford",
    "1870-02-13": "gloucestershire",
    "1870-06-11": "milford",
    "1870-06-16": "newport",
    "1870-06-24": "glasgow",
    "1870-09-06": "newport",
    "1871-11-22": "glasgow",
    "1872-01-04": "holyhead",
    "1872-02-05": "swansea",
    "1872-05-04": "falmouth",
    "1872-06-20": "london",
    "1872-12-07": "swansea",
    "1873-04-27": "cardiff",
    "1886-05-14": "london"
}