{
    "1862-09-25": "london",
    "1863-04-16": "philadelphia",
    "1863-06-20": "queenstown",
    "1863-06-30": "greenock",
    "1863-07-20": "bowling bay",
    "1863-07-22": "greenock",
    "1864-04-15": "philadelphia, united states",
    "1864-05-28": "liverpool",
    "1864-09-07": "bermuda",
    "1864-10-07": "st george, bermuda",
    "1864-11-14": "liverpool",
    "1865-12-29": "hamburg",
    "1865-12-30": "hamburg, germany",
    "1866--2-10": "falmouth",
    "1866-01-02": "hamburg",
    "1866-02-02": "falmouth",
    "1866-07-06": "london",
    "1867-07-01": "liverpool",
    "1868-04-09": "cardiff",
    "1868-07-02": "north shields",
    "1868-10-02": "yarmouth",
    "1868-11-02": "cardiff",
    "1869-02-28": "marseilles, france",
    "1869-03-12": "hull",
    "1869-03-20": "marseille, france",
    "1869-03-30": "marseilles, france",
    "1869-04-10": "swansea",
    "1869-05-12": "hull",
    "1869-10-22": "rouen",
    "1869-11-24": "swansea",
    "1870-02-15": "milford",
    "1870-05-16": "north shields",
    "1870-07-12": "cardiff",
    "1871-02-06": "milford",
    "1871-03-07": "antwerp",
    "1871-04-11": "middlesbrough",
    "1871-05-23": "swansea",
    "1872-07-19": "drogheda",
    "1872-08-29": "swansea",
    "1873-03-08": "london",
    "1873-07-07": "miramichi",
    "1873-08-11": "london",
    "1876-01-27": "liverpool",
    "1876-07-02": "london",
    "1877-02-17": "port elizabeth",
    "1877-05-18": "london",
    "1877-10-29": "port alfred",
    "1877-11-07": "port louis",
    "1878-02-13": "pernambuco",
    "1878-04-30": "greenock",
    "1878-2-13": "ditto",
    "1879-05-26": "london",
    "1879-09-10": "port alfred",
    "1879-11-07": "paraiba",
    "1880-01-29": "bristol",
    "1880-02-20": "newport",
    "1880-07-11": "london",
    "1880-11-17": "berbice",
    "1880-11-22": "beshel",
    "1880-11-27": "london",
    "1881-01-03": "sunderland",
    "1881-01-17": "london",
    "1881-02-19": "gravesend",
    "1881-06-12": "london",
    "1881-08-22": "liverpool",
    "1881-11-08": "gloucestershire",
    "1882-01-13": "limerick",
    "1882-03-06": "swansea",
    "1882-03-27": "mumbles",
    "1882-03-28": "swansea",
    "1882-07-07": "st. lucia",
    "1882-08-22": "liverpool",
    "1882-10-18": "milford",
    "1882-11-21": "swansea",
    "1882-12-27": "west hartlepool",
    "1883-03-20": "swansea",
    "1886-01-08": "southampton",
    "1886-08-03": "west hartlepool",
    "1886-09-29": "southampton",
    "1886-11-02": "hamble",
    "1886-11-13": "sunderland",
    "1887-01-10": "newhaven",
    "1887-03-25": "southampton",
    "1887-10-29": "shoreham",
    "1887-12-15": "newhaven",
    "1888-01-01": "hartlepool",
    "1888-01-03": "sunderland",
    "1888-02-04": "southampton",
    "1888-02-06": "sunderland",
    "1888-03-04": "southampton",
    "1888-04-07": "sunderland",
    "1888-04-11": "southampton",
    "1888-04-18": "sunderland",
    "1888-09-06": "hartlepool",
    "1888-09-25": "portsmouth",
    "1888-10-10": "hartlepool",
    "1888-11-13": "shoreham",
    "1888-12-08": "west hartlepool",
    "1888-12-29": "shoreham",
    "1889-01-10": "sunderland",
    "1889-02-15": "shoreham",
    "1889-02-16": "merchant",
    "1889-03-02": "newhaven",
    "1889-05-20": "sunderland",
    "1889-07-03": "whitstable",
    "1889-09-03": "grays",
    "1889-09-19": "sunderland",
    "1889-09-26": "littlehampton",
    "1889-10-18": "sunderland",
    "1889-11-15": "newhaven"
}