{
    "1863-11-21": "london",
    "1863-12-15": "swansea",
    "1864-04-18": "liverpool",
    "1866-01-06": "galveston",
    "1866-01-31": "liverpool",
    "1866-06-01": "harbour grace, newfoundland, canada",
    "1866-07-30": "barmouth",
    "1866-09-04": "liverpool",
    "1867-10-17": "hull",
    "1867-11-14": "middlesbrough",
    "1867-11-22": "off whitby",
    "1867-12-06": "swansea",
    "1868-11-16": "new york",
    "1869-01-21": "kingston, jamaica",
    "1869-04-21": "london",
    "1886-03-28": "liverpool"
}