{
    "-01-01": "remains",
    "1862-01-01": "llanon",
    "1864-07-01": "swansea",
    "1867-01-01": "gloucester",
    "1871-01-01": "aberaeron",
    "1871-07-01": "swansea",
    "1874-07-01": "aberystwyth",
    "1874-11-23": "cardigan",
    "1876-03-27": "aberaeron",
    "1876-06-30": "milford",
    "1876-12-31": "kingstown",
    "1877-03-17": "aberaeron",
    "1877-05-11": "ramsey sound",
    "1883-07-01": "swansea"
}