{
    "1863-01-01": "londonderry",
    "1863-04-15": "liverpool",
    "1863-05-01": "conway",
    "1863-07-01": "aberystwyth",
    "1864-01-22": "swansea",
    "1866-06-01": "aberdovey",
    "1869-07-01": "runcorn",
    "1869-12-31": "liverpool",
    "1871-03-03": "cardiff",
    "1871-04-18": "garston"
}