{
    "-01-01": "remains",
    "1863-03-21": "liverpool",
    "1863-08-29": "plymouth",
    "1863-11-02": "newport",
    "1863-12-31": "liverpool",
    "1864-05-03": "runcorn",
    "1864-08-06": "peusaw",
    "1864-12-12": "aberdeen",
    "1866-02-05": "liverpool",
    "1866-03-15": "neath",
    "1866-07-01": "runcorn",
    "1866-10-23": "swansea",
    "1866-11-02": "newport",
    "1867-01-09": "cork",
    "1867-01-22": "aberystwyth",
    "1867-03-01": "runcorn",
    "1867-06-30": "previous to 1867-06-30",
    "1867-11-29": "cardiff",
    "1867-12-26": "aberystwyth",
    "1868-08-27": "cardiff",
    "1869-03-03": "aberystwyth",
    "1869-05-20": "newport",
    "1869-07-01": "worthington",
    "1869-07-20": "liverpool",
    "1869-10-16": "dublin",
    "1869-12-31": "sea",
    "1870-05-12": "runcorn",
    "1870-09-07": "blyth",
    "1871-05-01": "remains",
    "1871-05-02": "porthawl",
    "1871-06-14": "porthmadoc",
    "1871-10-21": "swansea",
    "1871-11-01": "runcorn",
    "1876-01-01": "bangor",
    "1876-03-12": "plymouth",
    "1876-03-19": "bangor",
    "1876-06-01": "milford",
    "1876-06-30": "plymouth",
    "1876-07-10": "briton ferry",
    "1877-01-06": "ryde",
    "1877-03-12": "gloucestershire",
    "1877-07-12": "aberystwyth",
    "1877-07-27": "swansea",
    "1877-10-10": "liverpool",
    "1877-12-22": "tralee",
    "1878-02-16": "dublin",
    "1878-02-26": "bangor",
    "1878-07-01": "aberystwyth",
    "1878-07-03": "runcorn",
    "1878-07-13": "aberystwyth",
    "1878-07-16": "runcorn",
    "1878-10-11": "aberystwyth",
    "1878-12-04": "bangor",
    "1880-04-09": "caernarfon",
    "1880-04-23": "caernarvon",
    "1880-06-01": "kirkwall",
    "1880-07-10": "lyme regis",
    "1880-08-04": "towey"
}