{
    "-01-01": "remains",
    "1863-04-01": "newport",
    "1863-08-27": "liverpool",
    "1864-01-01": "larne",
    "1864-07-01": "liverpool",
    "1867-05-01": "runcorn",
    "1867-05-06": "liverpool",
    "1867-05-07": "runcorn",
    "1867-06-30": "liverpool",
    "1867-08-03": "amsterdam",
    "1867-10-13": "swansea",
    "1868-01-10": "plymouth",
    "1869-07-28": "bristol",
    "1869-11-01": "liverpool",
    "1870-01-01": "swansea",
    "1870-03-24": "workington",
    "1870-05-25": "swansea",
    "1870-07-19": "liverpool",
    "1870-08-06": "fraserburgh",
    "1870-10-13": "london",
    "1870-12-03": "porthmadog",
    "1871-01-03": "portmadoc",
    "1871-04-03": "cork",
    "1871-06-31": "runcorn",
    "1871-08-07": "wick",
    "1871-09-12": "west hartlepool",
    "1874-02-10": "portmadoc",
    "1874-04-18": "bangor",
    "1874-07-06": "ballyness",
    "1876-01-26": "swansea",
    "1876-03-04": "liverpool",
    "1876-05-09": "wicklow",
    "1876-06-29": "belfast",
    "1876-08-09": "newport",
    "1876-11-16": "runcorn",
    "1877-01-01": "belfast",
    "1877-03-06": "cardiff",
    "1877-06-04": "caernarfon",
    "1877-06-19": "port dinorwic",
    "1877-06-26": "portdinorwig",
    "1877-07-08": "glasgow",
    "1877-10-27": "swansea",
    "1877-12-31": "runcorn",
    "1878-02-22": "caernarfon",
    "1878-05-29": "london",
    "1878-07-13": "port talbot",
    "1878-07-21": "workington",
    "1878-09-04": "cardiff",
    "1879-01-18": "swansea",
    "1880-04-05": "aberdovey",
    "1880-06-16": "london",
    "1880-09-10": "cardiff",
    "1880-10-21": "st malo",
    "1880-11-16": "gloucestershire",
    "1881-01-18": "ipswich",
    "1884-01-03": "carnarvon",
    "1884-01-12": "llanelli",
    "1886-03-23": "port dinorwic",
    "1886-04-23": "caernarfon",
    "1888-04-06": "portmadoc",
    "1888-06-01": "aberdovey",
    "1888-07-01": "rochester",
    "1888-12-15": "porthmadog",
    "1889-08-06": "aberystwyth",
    "1889-09-27": "portmadoc",
    "1889-11-18": "aberystwyth",
    "1890-06-30": "conway",
    "1890-12-18": "swansea",
    "1891-02-13": "portmadoc",
    "1891-05-01": "aberystwyth",
    "1891-06-17": "carnarvon",
    "1891-06-30": "london",
    "1891-10-04": "caernarfon",
    "1892-01-01": "caernarvon",
    "1892-06-30": "porthmadog",
    "1893-01-04": "port dinorwic",
    "1893-05-17": "porthmadog",
    "1896-10-18": "portmadoc",
    "1896-11-03": "porthmadog",
    "1897-02-02": "portmadoc",
    "1897-02-27": "newport",
    "1897-04-01": "caernarfon",
    "1897-04-17": "caernarvon",
    "1897-07-03": "porthmadog",
    "1897-07-13": "aberystwyth",
    "1897-07-29": "portmadoc",
    "1897-08-17": "medina mills",
    "1898-03-15": "aberdovey",
    "1898-03-26": "goodwick, fishguard"
}