{
    "1864-03-11": "sunderland",
    "1864-09-28": "london",
    "1866-10-05": "cape town",
    "1866-10-26": "capetown",
    "1867-03-26": "london",
    "1867-09-10": "greenock",
    "1869-03-08": "bremerhaven",
    "1869-03-20": "south shields",
    "1869-09-09": "hull",
    "1870-03-26": "west hartlepool",
    "1870-11-01": "belfast",
    "1870-12-05": "troon",
    "1870-12-07": "glasgow",
    "1871-04-19": "hamburg, germany",
    "1871-05-31": "hamburg",
    "1871-07-22": "genoa",
    "1871-09-26": "havre, france",
    "1871-11-17": "swansea",
    "1872-05-31": "invergordon",
    "1872-07-08": "shields",
    "1872-07-09": "south shields",
    "1872-12-12": "london",
    "1873-05-24": "greenock",
    "1874-01-19": "london",
    "1874-06-26": "halifax",
    "1874-07-27": "london",
    "1874-08-24": "swansea",
    "1878-02-26": "london",
    "1878-08-28": "falmouth",
    "1878-09-12": "gloucestershire",
    "1878-10-02": "gloucester",
    "1879-01-27": "genoa, italy",
    "1879-03-29": "liverpool",
    "1879-06-23": "barbados",
    "1879-07-30": "trinidad",
    "1879-09-29": "liverpool",
    "1880-05-17": "venice",
    "1880-06-22": "palermo",
    "1880-07-03": "girgentis",
    "1880-09-06": "glasgow"
}