{
    "1864-04-01": "liverpool",
    "1864-07-06": "matanzas",
    "1864-09-02": "greenock",
    "1866-05-07": "new york",
    "1866-07-13": "newcastle",
    "1866-07-17": "south shields",
    "1866-07-30": "malaysia",
    "1866-10-03": "tarragona",
    "1866-10-26": "malaga",
    "1866-12-27": "new york",
    "1867-04-23": "cherente",
    "1867607-16-01": "newcastle"
}