{
    "-01-01": "remains",
    "1865-07-25": "ardrossan",
    "1865-12-23": "antwerp",
    "1866-01-26": "greenock",
    "1866-04-10": "glasgow",
    "1866-07-12": "antwerp",
    "1868-01-14": "greenock",
    "1868-07-26": "london",
    "1868-08-21": "newport",
    "1869-01-21": "antwerp",
    "1869-04-30": "genoa",
    "1869-06-28": "liverpool",
    "1869-11-01": "rio de janeiro",
    "1870-02-13": "new york",
    "1870-05-03": "genoa, italy",
    "1870-05-04": "genoa",
    "1870-07-04": "genoa, italy",
    "1870-07-08": "antwerp",
    "1871-04-026": "glasgow",
    "1871-07-15": "rio",
    "1872-07-23": "bristol",
    "1872-08-23": "cardiff",
    "1873-01-07": "rotherham",
    "1873-03-12": "newport",
    "1873-07-19": "bristol",
    "1873-08-22": "cardiff",
    "1873-11-29": "lyme",
    "1874-02-26": "cardiff",
    "1874-07-04": "london",
    "1875-06-08": "galle",
    "1875-09-25": "rangoon",
    "1875-10-07": "melbourne",
    "1875-10-29": "newcastle",
    "1875-12-04": "auckland",
    "1876-01-03": "thames",
    "1876-01-21": "newcastle",
    "1876-04-28": "on board",
    "1876-05-28": "naf$$",
    "1876-06-24": "wanayasa",
    "1876-07-21": "melbourne",
    "1876-08-14": "newcastle",
    "1876-11-14": "melbourne",
    "1877-05-15": "liverpool",
    "1879-10-25": "aberystwyth",
    "1879-11-04": "troon",
    "1882-02-06": "london",
    "1882-07-08": "greenock",
    "1882-07-13": "dewsbury",
    "1882-07-19": "greenock",
    "1882-07-23": "dewsbury",
    "1882-07-24": "greenock",
    "1882-10-28": "dewsbury",
    "1883-01-02": "amsterdam",
    "1883-06-07": "st. lucia",
    "1883-07-20": "falmouth",
    "1883-08-02": "greenock",
    "1883-08-17": "aberaeron",
    "1883-08-22": "greenock",
    "1884-01-14": "amsterdam",
    "1884-02-25": "aberystwyth",
    "1884-05-24": "fleetwood",
    "1884-08-15": "torquay",
    "1884-09-01": "penarth",
    "1884-09-12": "liverpool",
    "1884-10-28": "plymouth",
    "1884-11-06": "penbach",
    "1884-11-13": "plymouth",
    "1884-12-31": "runcorn"
}