{
    "-01-01": "dungarvan",
    "1864-01-22": "aberystwyth",
    "1864-10-01": "aberdovey",
    "1865-01-12": "cardiff",
    "1866-02-07": "liverpool",
    "1866-09-19": "cork",
    "1866-10-19": "swansea",
    "1867-06-19": "liverpool",
    "1867-12-13": "london",
    "1868-08-14": "antigua",
    "1868-10-01": "london",
    "1868-11-17": "newport",
    "1868-12-01": "falmouth",
    "1869-04-16": "bristol",
    "1869-04-30": "cardiff",
    "1869-09-23": "liverpool",
    "1869-11-11": "holyhead",
    "1870-05-02": "hull",
    "1870-06-18": "cardiff",
    "1870-10-17": "bristol",
    "1871-10-02": "naples",
    "1871-12-23": "newport",
    "1872-10-23": "swansea",
    "1873-01-16": "gloucester",
    "1873-03-16": "porthmadog",
    "1873-04-08": "portmadoc",
    "1873-04-26": "hamburg, germany",
    "1873-04-27": "hamburg",
    "1873-04-29": "hamburg, germany",
    "1873-10-05": "london",
    "1874-05-26": "rotterdam",
    "1874-07-24": "cardiff",
    "1874-10-24": "dublin",
    "1874-11-05": "porthmadog",
    "1876-04-11": "cardiff",
    "1876-06-14": "dublin",
    "1876-10-27": "kirkcudbright",
    "1876-11-10": "porthmadog",
    "1877-02-19": "portmadoc",
    "1877-04-04": "hamburg",
    "1877-06-19": "dublin",
    "1877-06-30": "porthmadog",
    "1877-07-02": "portmadoc",
    "1877-07-08": "barrow-in-furness",
    "1877-10-08": "gloucestershire",
    "1877-10-09": "gloucester",
    "1877-12-31": "porthmadog",
    "1878-02-28": "portmadoc",
    "1878-06-07": "swansea",
    "1879-08-29": "bristol",
    "1879-09-08": "swansea",
    "1879-12-31": "dublin",
    "1882-04-18": "portmadoc",
    "1882-06-23": "london",
    "1882-07-29": "greenock",
    "1882-09-01": "london",
    "1882-09-30": "porthmadog",
    "1883-07-01": "limerick",
    "1883-11-20": "cardiff",
    "1883-12-01": "dungarvan",
    "1889-01-13": "dungannon",
    "1889-06-29": "waterford",
    "1889-07-20": "liverpool",
    "1890-01-17": "holyhead",
    "1890-07-03": "runcorn",
    "1891-01-20": "milford haven",
    "1891-06-06": "dungarvan",
    "1892-07-04": "swansea",
    "1893-01-06": "dungarvan",
    "1893-06-30": "cardiff",
    "1893-07-04": "dungarvan",
    "1896-06-30": "cork",
    "1897-01-01": "dungarvan",
    "1898-01-01": "plymouth",
    "1898-01-17": "waterford",
    "1898-07-08": "bristol",
    "1898-09-30": "dungarvan",
    "1899-01-20": "cardiff",
    "1899-02-20": "dungarvan",
    "1899-02-28": "milford haven",
    "1899-03-10": "newport",
    "1899-04-09": "d$ussan",
    "1899-04-13": "dungarvan",
    "1899-08-02": "bristol",
    "1899-09-01": "cardiff",
    "1899-09-15": "dungarvan",
    "1900-07-03": "ballinvana",
    "1901-07-01": "dungarvan",
    "1901-09-23": "newport",
    "1901-11-05": "cork",
    "1902-01-01": "milford haven",
    "1902-01-30": "cork",
    "1902-02-10": "ballinvana",
    "1902-02-14": "cork",
    "1902-04-15": "dungarvan",
    "1902-07-03": "ballinvana",
    "1902-12-04": "dungarvan",
    "1903-01-06": "swansea",
    "1903-01-30": "cardiff",
    "1903-04-01": "dungarvan",
    "1903-06-30": "plymouth",
    "1903-08-12": "newport",
    "1903-08-21": "penarth",
    "1903-09-05": "dungarvan",
    "1904-01-04": "swansea",
    "1904-03-25": "cork",
    "1904-07-01": "southampton",
    "1904-11-02": "dungarvan",
    "1906-01-04": "milford haven",
    "1906-02-18": "dungarvan",
    "1906-06-30": "hayle",
    "1906-11-23": "dungarvan",
    "1907-01-01": "cardiff",
    "1907-03-05": "dungarvan",
    "1907-05-15": "youghal",
    "1907-07-02": "dungarvan",
    "1907-08-29": "waterford",
    "1907-10-02": "dungarvan",
    "1908-06-30": "newport",
    "1908-07-24": "youghal",
    "1908-09-25": "dungarvan",
    "1909-01-02": "milford haven",
    "1909-01-25": "dungarvan",
    "1909-07-02": "newport",
    "1909-09-26": "dungarvan",
    "1910-01-29": "milford haven",
    "1910-03-30": "dungarvan",
    "1910-06-23": "dublin",
    "1910-07-04": "swansea",
    "1910-08-19": "dungarvan",
    "1910-09-06": "cork",
    "1911-01-06": "portland",
    "1911-02-22": "plymouth",
    "1911-04-25": "dungarvan",
    "1911-05-05": "newport",
    "1911-07-06": "plymouth",
    "1911-07-26": "port talbot",
    "1911-07-28": "plymouth",
    "1911-08-24": "swansea",
    "1911-09-28": "dungarvan",
    "1911-12-22": "cardiff",
    "1912-01-06": "milford haven",
    "1912-01-16": "dungarvan",
    "1912-07-09": "ellesmere port",
    "1912-10-04": "dungarvan",
    "6--01": "dublin",
    "877-07-03": "portmadoc"
}