{
    "-01-01": "plymouth",
    "1866-04-03": "neath",
    "1866-06-19": "runcorn",
    "1867-03-11": "neath",
    "1867-05-23": "runcorn",
    "1867-07-03": "neath",
    "1867-09-30": "newcastle",
    "1867-11-22": "liverpool",
    "1868-01-09": "dublin",
    "1868-06-26": "swansea",
    "1868-09-09": "plymouth",
    "1869-04-29": "swansea",
    "1869-07-15": "runcorn",
    "1869-11-10": "cardiff",
    "1870-06-23": "liverpool",
    "1870-08-25": "london",
    "1871-01-20": "milford",
    "1871-04-20": "cork",
    "1871-07-01": "greenock",
    "1871-11-25": "runcorn",
    "1873-10-07": "briton ferry",
    "1874-01-16": "belfast",
    "1874-02-12": "swansea",
    "1874-06-30": "garston",
    "1874-07-01": "liverpool",
    "1874-10-15": "cardiff",
    "1876-01-05": "liverpool",
    "1876-03-31": "gloucestershire",
    "1876-06-28": "briton ferry",
    "1876-09-08": "liverpool",
    "1876-10-01": "cork",
    "1876-11-22": "swansea",
    "1877-01-04": "yarmouth",
    "1877-03-15": "briton ferry",
    "1877-04-01": "liverpool",
    "1877-06-30": "runcorn",
    "1877-08-27": "liverpool",
    "1877-09-12": "bristol",
    "1877-12-19": "westonpoint",
    "1878-01-16": "holyhead",
    "1878-04-05": "newquay",
    "1878-08-27": "swansea",
    "1878-12-08": "briton ferry",
    "1879-06-30": "liverpool",
    "1879-07-26": "briton ferry",
    "1879-10-06": "liverpool",
    "1879-11-07": "cardiff",
    "1879-12-10": "swansea",
    "1880-10-26": "liverpool",
    "1880-12-04": "plymouth",
    "1880-12-21": "runcorn",
    "1881-03-20": "swansea",
    "1881-03-24": "gloucestershire",
    "1881-03-30": "swansea",
    "1881-04-25": "cowes",
    "1881-06-22": "swansea",
    "1881-08-01": "briton ferry",
    "1881-09-04": "cowes",
    "1881-10-12": "briton ferry",
    "1881-12-20": "plymouth",
    "1882-01-03": "porthleven",
    "1882-01-24": "irvine",
    "1882-02-23": "newport",
    "1882-02-30": "irvine",
    "1882-03-03": "newport",
    "1882-04-12": "westonpoint",
    "1882-04-15": "runcorn",
    "1882-08-01": "london",
    "1882-08-15": "garston",
    "1882-09-28": "galway",
    "1882-10-15": "garston",
    "1882-11-17": "liverpool",
    "1883-01-05": "penzance",
    "1883-02-09": "runcorn",
    "1883-04-06": "whitehaven",
    "1883-04-15": "newquay",
    "1883-07-03": "newcastle",
    "1883-08-08": "briton ferry",
    "1883-10-01": "runcorn",
    "1883-11-28": "clare castle",
    "1884-01-10": "bristol",
    "1884-01-23": "runcorn",
    "1884-04-01": "swansea",
    "1884-06-14": "runcorn",
    "1884-07-05": "galway",
    "1884-08-05": "cardiff",
    "1884-09-30": "liverpool",
    "1884-12-31": "briton ferry",
    "1885-01-09": "bangor",
    "1885-01-18": "dingle",
    "1885-02-09": "bangor",
    "1886-01-01": "coleraine",
    "1886-03-09": "portdinorwig",
    "1886-06-10": "liverpool",
    "1887-06-15": "bangor",
    "1887-07-12": "liverpool",
    "1887-11-26": "runcorn",
    "1887-12-03": "liverpool",
    "1887-12-12": "amlwch",
    "1889-01-21": "bangor",
    "1889-07-08": "fleetwood",
    "1889-07-16": "liverpool",
    "1889-10-29": "bangor",
    "1890-01-02": "amlwch",
    "1892-02-24": "bangor",
    "1892-06-17": "porthmadog",
    "1893-07-01": "london",
    "1893-08-19": "bangor",
    "1893-09-13": "caernarfon",
    "1893-12-30": "liverpool",
    "1894-03-13": "bangor",
    "1894-09-13": "garston",
    "1894-10-12": "london",
    "1894-10-20": "plymouth",
    "1894-11-23": "hayle",
    "1895-02-17": "bangor",
    "1896-11-07": "amlwch",
    "1897-06-21": "ellesmere port",
    "1897-07-10": "liverpool",
    "1897-07-30": "porthmadog",
    "1897-12-04": "bangor",
    "1898-03-11": "port dinorwic",
    "1898-06-24": "bangor",
    "1899-07-01": "dublin",
    "1899-07-08": "bangor",
    "1900-02-22": "caernarvon",
    "1900-03-30": "bangor",
    "1900-05-26": "runcorn",
    "1900-06-19": "bangor",
    "1900-09-12": "liverpool",
    "1900-11-24": "bangor",
    "1901-08-19": "deganwy",
    "1901-12-31": "warrenpoint",
    "1904-01-01": "porthdinllaen",
    "1904-01-02": "amlwch",
    "1904-04-12": "port dinorwic",
    "1904-06-06": "liverpool",
    "1904-07-11": "sharpness",
    "1904-08-03": "caernarfon",
    "1904-08-24": "caernarvon",
    "1904-10-26": "porthmadog",
    "1906-01-01": "dublin",
    "1906-03-21": "caernarfon",
    "1906-04-09": "caernarvon",
    "1906-06-20": "caernarfon",
    "1906-07-01": "caernarvon",
    "1906-12-17": "holyhead",
    "1907-04-12": "caernarvon",
    "1907-06-29": "caernarfon",
    "1907-08-27": "caernarvon",
    "1907-12-30": "porthmadog",
    "1908-01-08": "portmadoc",
    "1908-03-24": "menai bridge",
    "1908-04-04": "bangor",
    "1908-05-19": "caernarvon",
    "1908-06-20": "caernarfon",
    "1908-12-31": "dublin",
    "1909-01-01": "ballinacurra",
    "1909-02-11": "caernarfon",
    "1909-06-11": "porthmadog",
    "1909-06-15": "portmadoc",
    "1909-06-30": "bristol",
    "1909-08-11": "porthmadog",
    "1909-09-01": "london",
    "1909-11-13": "bangor",
    "1912-01-01": "runcorn",
    "1912-04-06": "porthmadog",
    "1912-04-29": "portmadoc",
    "1912-05-18": "caernarfon",
    "1913-07-08": "teignmouth",
    "1913-08-23": "caernarfon",
    "1913-11-09": "swansea",
    "1974-06-30": "garston"
}