{
    "1870-07-01": "newport",
    "1870-12-19": "queenstown",
    "1871-01-04": "newport",
    "1871-01-06": "dundalk",
    "1871-02-01": "newport",
    "1871-05-28": "st. anna, gulf of mexico",
    "1871-06-04": "st. anna,mexico",
    "1871-07-16": "liverpool",
    "1873-01-03": "aberystwyth",
    "1880-11-03": "swansea",
    "1881-04-25": "aberystwyth",
    "1881-11-09": "liverpool",
    "1883-01-30": "cardiff",
    "1883-07-09": "rhyl",
    "1883-08-16": "mostyn",
    "1883-08-17": "rhyl",
    "1883-10-14": "dalhousie",
    "1883-10-29": "dalhousie, new brunswick",
    "1883-12-04": "aberystwyth",
    "1884-03-26": "swansea",
    "1884-10-17": "porthmadog",
    "1884-11-12": "portmadoc",
    "1884-11-20": "cardiff",
    "1886-11-15": "aberystwyth",
    "1887-05-19": "douglas, isle of man",
    "1887-06-14": "douglas",
    "1887-08-07": "nash creek, new brunswick",
    "1887-09-13": "ferryside",
    "1887-10-13": "swansea",
    "1888-03-19": "porthmadog",
    "1888-04-19": "portmadoc",
    "1888-07-20": "aberystwyth",
    "1888-11-21": "douglas",
    "1889-01-18": "glasgow",
    "1889-04-29": "porthmadog",
    "1889-05-15": "runcorn",
    "1889-08-28": "aberystwyth",
    "1891-02-09": "porthmadog",
    "1891-03-26": "portmadoc",
    "1891-04-22": "porthmadog",
    "1891-08-14": "portmadoc",
    "1891-12-04": "porthmadog",
    "1892-01-09": "portmadoc",
    "1892-05-24": "porthmadog",
    "1892-06-09": "portmadoc",
    "1892-11-08": "aberystwyth",
    "1892-11-12": "porthmadog"
}