{
    "-01-01": "hamburg, germany",
    "1866-12-12": "swansea",
    "1867-03-07": "runcorn",
    "1867-05-07": "poole",
    "1867-05-23": "gibraltar",
    "1867-07-11": "liverpool",
    "1868-04-27": "falmouth",
    "1868-05-04": "poole",
    "1869-06-25": "antwerp",
    "1869-10-06": "london",
    "1869-12-04": "cardiff",
    "1870-07-15": "liverpool",
    "1871-05-24": "hamburg",
    "1871-07-22": "boston",
    "1871-09-05": "south shields",
    "1871-12-17": "liverpool",
    "1872-07-25": "rosario",
    "1873--25": "swansea",
    "1873-02-21": "silloth",
    "1873-03-13": "maryport",
    "1873-05-14": "swansea",
    "1873-09-13": "liverpool",
    "1874-02-06": "paysandu",
    "1874-07-02": "antwerp",
    "1874-07-30": "aberystwyth",
    "1874-08-02": "newcastle",
    "1874-09-14": "aberystwyth",
    "1877-03-28": "hamburg",
    "1877-06-08": "pernambuco",
    "1877-08-16": "p.alise",
    "1877-10-27": "monte video",
    "1878-01-05": "rotterdam",
    "1878-10-28": "aacra, gold coast",
    "1879--04-14": "hamburg",
    "1879-02-12": "hamburg, germany",
    "1879-03-03": "cuxhaven, germany",
    "1879-04-14": "hamburg",
    "1879-10-31": "marseilles, france",
    "1879-11-19": "marseille, france",
    "1879-12-12": "marseilles, france",
    "1879-12-13": "marseille, france",
    "1880--3-05": "pernambuco",
    "1880-01-31": "pomanhuy$",
    "1880-02-09": "pernambuco",
    "1880-04-26": "queenstown",
    "1880-05-10": "liverpool",
    "1881-05-25": "rio de janeiro",
    "1881-11-16": "falmouth",
    "1881-11-21": "liverpool",
    "1882-03-03": "thidwall",
    "1882-03-07": "milford",
    "1882-04-04": "newcastle",
    "1882-04-27": "fowey",
    "1882-05-23": "niendiepe",
    "1882-05-24": "nieuwediep",
    "1882-07-25": "bridgewater",
    "1882-08-26": "highbarge",
    "1882-10-19": "newport",
    "1882-11-04": "plymouth",
    "1882-11-27": "fowey",
    "1974-07-30": "newcastle"
}