{
    "-01-01": "flushing",
    "1871-04-14": "cardiff",
    "1871-11-27": "culla, spain",
    "1871-11-29": "callow",
    "1872-06-06": "faliu, samoa",
    "1872-06-12": "london",
    "1873-02-24": "hiagu",
    "1873-08-28": "london",
    "1874-02-27": "callao",
    "1874-03-27": "quanapa) island",
    "1874-04-09": "port louis",
    "1874-12-13": "bristol",
    "1874-3-10": "callao",
    "1874-7-24": "port louis",
    "1877-08-04": "cardiff",
    "1878-04-08": "galle",
    "1879-01-16": "london",
    "1879-10-10": "natal",
    "1879-12-09": "adelaide",
    "1879-9-9": "natal",
    "1880-01-01": "port pirie",
    "1880-01-17": "plymouth",
    "1880-01-26": "port pirie",
    "1880-06-07": "plymouth",
    "1880-07-12": "cardiff",
    "1880-11-12": "plymouth",
    "1881-01-19": "hull",
    "1881-06-03": "buenos aires",
    "1881-09-26": "dublin",
    "1881-10-17": "cardiff",
    "1882-02-11": "campana",
    "1882-03-11": "coosaw",
    "1882-07-01": "hamburg, germany",
    "1882-07-13": "hamburg",
    "1882-07-16": "harburg",
    "1882-08-05": "sundsvall, sweden",
    "1882-08-14": "sundsvall",
    "1882-09-27": "aberystwyth",
    "1882-09-29": "cardiff",
    "1883-02-08": "carnarvon",
    "1883-02-14": "liverpool",
    "1883-04-08": "campana",
    "1883-06-01": "buenos aires",
    "1883-11-14": "hamburg, germany",
    "1884-01-23": "hamburg",
    "1884-04-26": "buenos aires",
    "1884-05-14": "buenos ayres",
    "1884-08-07": "stockholm",
    "1884-10-06": "antwerp",
    "1885-07-25": "newport",
    "1885-11-10": "buenos aires",
    "1885-11-14": "buenos ayres",
    "1886-01-07": "hamburg, germany",
    "1886-02-04": "plymouth",
    "1886-03-19": "salcombe",
    "1886-04-03": "middlesbrough",
    "1886-04-13": "north shields",
    "1886-04-14": "middlesbrough",
    "1886-05-02": "boraieo",
    "1886-07-06": "rosario",
    "1887-01-07": "hamburg, germany",
    "1887-02-25": "hamburg",
    "1887-03-09": "cardiff",
    "1887-11-08": "boston",
    "1887-12-07": "newport",
    "1888-01-11": "cardiff",
    "1888-01-12": "newport",
    "1888-08-08": "havre, france",
    "1888-08-14": "havre",
    "1888-10-22": "conway",
    "1889-08-30": "liverpool",
    "1889-12-05": "rosario",
    "1890-01-06": "san nicolas",
    "1890-01-13": "amsterdam",
    "1890-04-18": "plymouth",
    "1890-05-12": "newport",
    "1890-05-22": "cardiff",
    "1890-05-23": "newport",
    "1890-09-16": "campana",
    "1891-01-16": "amsterdam",
    "1891-03-04": "porthmadog",
    "1891-05-26": "stettin, poland",
    "1891-08-04": "llanelli",
    "1891-08-12": "ramsgate",
    "1891-08-31": "swansea",
    "1891-09-01": "llanelly",
    "1891-09-03": "swansea",
    "1891-09-05": "llanelly",
    "1891-11-27": "santos",
    "1892-05-03": "brunswick",
    "1892-07-21": "liverpool",
    "1893-05-13": "barrow",
    "1893-05-14": "barry",
    "1893-05-15": "barrow",
    "1893-08-27": "rosario",
    "1894-01-13": "queenstown",
    "1894-03-05": "aberdeen",
    "1894-04-27": "leith",
    "1894-10-15": "liverpool",
    "1894-3-28": "quanapu island",
    "1895-03-18": "flushing",
    "1895-09-20": "grimsby",
    "1895-09-27": "leith",
    "1895-11-26": "demerara",
    "1896-03-10": "middleburg",
    "1896-03-18": "flushing",
    "1896-05-24": "copenhagen",
    "1896-07-04": "lulea",
    "1896-08-": "liverpool",
    "1896-11-01": "flushing",
    "1897-06-18": "cardiff",
    "1898-01-17": "manchester",
    "1990-04-18": "plymouth"
}