{
    "-01-01": "cardiff",
    "1908-07-01": "truro",
    "1908-12-05": "porthmadog",
    "1912-02-14": "caernarvon",
    "1912-07-01": "cardiff",
    "1912-11-23": "portmadoc",
    "1913-01-10": "porthmadog",
    "1913-03-10": "youghal"
}