{
    "1881-02-03": "cardiff",
    "1881-10-10": "savannah",
    "1881-12-05": "trieste, italy",
    "1881-12-30": "trieste",
    "1882--10": "trieste, italy",
    "1882-01-04": "trieste",
    "1882-02-22": "bordeaux",
    "1882-03-31": "cardiff",
    "1882-05-01": "penarth",
    "1883-04-17": "exmouth",
    "1883-05-22": "cardiff",
    "1883-10-15": "bahia",
    "1884-01-11": "new york",
    "1884-02-15": "n y",
    "1884-04-29": "rio",
    "1884-07-07": "barbados",
    "1884-08-07": "tybee",
    "1884-08-15": "savannah",
    "1884-10-02": "south shields",
    "1885-01-23": "buenos aires",
    "1885-05-18": "galveston",
    "1886-01-23": "buenos aires",
    "1886-02-01": "galveston",
    "1886-03-23": "havre, france",
    "1886-03-25": "havre",
    "1886-04-15": "cardiff",
    "1886-08-02": "fray bentos",
    "1886-08-27": "monte video",
    "1886-12-15": "hamburg, germany",
    "1887-07-27": "middlesbrough",
    "1887-11-18": "cardiff",
    "1888-02-26": "zarate",
    "1888-07-15": "harburg, germany",
    "1888-07-27": "middlesbrough",
    "1888-08-28": "plymouth",
    "1888-12-28": "rosario",
    "1889-05-27": "pensacola",
    "1889-05-28": "pensacola, florida, united states",
    "1889-09-23": "cape town",
    "1889-09-25": "capetown",
    "1890-02-20": "goole"
}