{
    "-01-01": "bristol",
    "1875-05-11": "newport",
    "1876-01-26": "bristol",
    "1876-04-19": "liverpool",
    "1876-04-20": "cardiff",
    "1876-12-02": "leith",
    "1876-12-27": "burntisland",
    "1877-02-22": "bristol",
    "1877-03-26": "cardiff",
    "1877-11-02": "middlesbrough",
    "1877-12--31": "dublin",
    "1877-12-03": "middlesbrough",
    "1877-12-31": "dublin",
    "1878-02-19": "antwerp",
    "1878-03-25": "douglas",
    "1878-04-03": "swansea",
    "1878-10-07": "hull",
    "1879-07-07": "borth",
    "1880-01-12": "london",
    "1880-03-09": "cardigan",
    "1880-06-08": "newquay",
    "1880-06-12": "swansea",
    "1880-11-12": "naples",
    "1881-04-12": "swansea",
    "1881-11-24": "middlesbrough",
    "1881-12-27": "swansea",
    "1882-04-17": "cardiff",
    "1882-09-17": "harbour grace, newfoundland, canada",
    "1883-06-26": "rouen",
    "1883-07-19": "swansea",
    "1884-06-14": "goole",
    "1884-07-10": "plymouth",
    "1884-08-11": "cardiff",
    "1884-10-04": "limerick",
    "1884-12-27": "sligo",
    "1885-03-12": "liverpool",
    "1885-09-11": "st. johns",
    "1886-02-23": "amlwch",
    "1886-03-16": "garston",
    "1886-03-17": "liverpool",
    "1886-06-13": "goole",
    "1886-06-15": "liverpool",
    "1887-08-13": "hamburg",
    "1887-09-06": "hamburg, germany",
    "1887-10-22": "runcorn",
    "1888-03-20": "jersey"
}