{
    "1878-06-19": "sunderland",
    "1878-07-04": "exeter",
    "1878-07-19": "cardiff",
    "1878-09-20": "dublin",
    "1878-10-07": "swansea",
    "1879-01-29": "runcorn",
    "1879-02-11": "yarmouth",
    "1879-03-21": "swansea",
    "1879-05-22": "runcorn",
    "1879-07-01": "middlesbrough",
    "1879-08-18": "cork",
    "1879-08-28": "swansea",
    "1879-10-15": "middlesbrough",
    "1879-10-17": "swansea",
    "1879-11-05": "middlesbrough",
    "1879-12-07": "swansea",
    "1880-04-10": "porthmadog",
    "1880-05-07": "portmadoc",
    "1880-08-17": "porthmadog",
    "1880-09-02": "swansea",
    "1880-10-15": "portmadoc",
    "1880-12-10": "chester",
    "1881-01-01": "connah's quay",
    "1881-02-14": "porthmadog",
    "1881-02-15": "portmadoc",
    "1881-06-0": "sunderland",
    "1881-06-30": "porthmadog",
    "1881-07-28": "portmadoc",
    "1881-09-01": "stettin",
    "1881-09-24": "bristol",
    "1881-10-05": "swansea",
    "1881-12-31": "london",
    "1881-20-15": "swansea",
    "1882-01-03": "port dinorwic",
    "1882-01-12": "london",
    "1882-02-20": "porthmadog",
    "1882-03-06": "london",
    "1882-03-20": "porthmadog",
    "1882-03-23": "portmadoc",
    "1882-04-25": "hamburg, germany",
    "1882-05-05": "hamburg",
    "1882-07-28": "hamburg, germany",
    "1882-08-14": "hamburg",
    "1882-09-12": "porthmadog",
    "1882-09-16": "hamburg, germany",
    "1882-10-05": "portmadoc",
    "1883-01-02": "port dinorwic",
    "1883-01-03": "carnarvon",
    "1883-03-02": "london",
    "1883-03-19": "carnarvon",
    "1883-04-24": "porthmadog",
    "1883-06-29": "hamburg",
    "1883-09-25": "beaumaris",
    "1883-10-09": "port dinorwic",
    "1884-01-07": "porthmadog",
    "1884-02-05": "portmadoc",
    "1884-05-27": "plymouth"
}