{
    "1864-06-30": "santa ana",
    "1877-10-19": "cardiff",
    "1878-06-21": "london",
    "1878-10-31": "port elizabeth",
    "1879-01-29": "barbados",
    "1879-05-20": "trinidad",
    "1879-06-19": "swansea",
    "1879-09-22": "cape town",
    "1879-09-26": "capetown",
    "1880-01-23": "port louis",
    "1880-03-30": "rangoon",
    "1880-09-24": "swansea",
    "1881-02-01": "monte video",
    "1881-04-13": "lobos island",
    "1881-06-22": "valparaiso, chile",
    "1881-06-23": "valparaiso",
    "1881-10-10": "invergordon",
    "1881-10-29": "swansea",
    "1882-11-23": "new york",
    "1883-09-14": "sharpness",
    "1883-09-29": "gloucester",
    "1883-09-30": "swansea",
    "1883-9-14": "sharpness",
    "1884-02-18": "campana",
    "1884-05-01": "barbados",
    "1884-09-02": "liverpool",
    "1886-01-02": "london",
    "1886-03-15": "swansea",
    "1886-10-19": "hamburg, germany",
    "1886-11-04": "hamburg",
    "1886-11-29": "swansea",
    "1887-01-28": "cardiff",
    "1887-03-30": "monte video",
    "1887-07-29": "baltimore",
    "1887-10-01": "colon",
    "1887-10-24": "belize",
    "1888-01-28": "goole",
    "1888-02-13": "hull",
    "1888-03-04": "swansea",
    "1888-10-22": "antwerp",
    "1979-05-01": "barbados"
}