{
    "-01-01": "swansea",
    "1885-12-10": "liverpool",
    "1886-03-29": "cardiff",
    "1886-12-24": "runcorn",
    "1887-02-10": "liverpool",
    "1887-05-26": "rotterdam",
    "1887-06-24": "cardiff",
    "1887-12-02": "balin",
    "1887-12-07": "balia",
    "1888-03-29": "rio grande do sul, brazil",
    "1888-03-31": "rio grande do sul",
    "1888-04-10": "rio grande do sul, brazil",
    "1888-04-11": "rio grande do sul",
    "1888-07-30": "hamburg, germany",
    "1888-08-03": "hamburg",
    "1888-09-18": "cardiff",
    "1889-07-18": "liverpool",
    "1889-09-04": "river mersey",
    "1889-10-17": "rio grande",
    "1890-02-04": "porto alegre",
    "1890-05-07": "liverpool",
    "1890-09-12": "rio grande",
    "1890-10-13": "porto alepe",
    "1890-10-29": "rio grande",
    "1891-08-05": "runcorn",
    "1891-12-31": "bristol",
    "1892-03-01": "swansea",
    "1892-05-03": "runcorn",
    "1892-07-07": "teignmouth",
    "1892-10-03": "plymouth",
    "1892-11-09": "liverpool",
    "1893-01-17": "kilrush",
    "1893-07-05": "london",
    "1894-01-06": "londonderry",
    "1894-04-11": "london",
    "1894-06-05": "foynes",
    "1894-07-06": "newport",
    "1896-01-02": "poole",
    "1896-03-07": "limerick",
    "1896-03-20": "swansea",
    "1896-04-29": "poole",
    "1896-05-30": "runcorn",
    "1896-07-07": "galway",
    "1896-08-17": "garston",
    "1898-01-03": "teignmouth",
    "1898-04-04": "swansea",
    "1898-08-27": "irvine",
    "1899-01-18": "portland dorsetshire",
    "1899-03-24": "garston",
    "1899-05-09": "teignmouth",
    "1899-06-16": "glasgow",
    "1899-07-20": "teignmouth",
    "1899-08-17": "ellesmere port",
    "1899-08-28": "liverpool",
    "1899-09-16": "plymouth",
    "1899-10-13": "teignmouth",
    "1899-11-06": "glasgow",
    "1899-12-31": "belfast lough",
    "1900-02-02": "swansea",
    "1900-07-02": "cardiff",
    "1900-07-21": "cowes",
    "1900-10-19": "exeter",
    "1900-10-26": "teignmouth",
    "1900-12-01": "glasgow",
    "1901-01-09": "sandbanks, holy loch",
    "1901-01-16": "holy loch",
    "1901-05-31": "teignmouth",
    "1901-08-24": "exmouth",
    "1901-09-13": "teignmouth",
    "1901-12-11": "glasgow",
    "1901-12-31": "strangford lough",
    "1902-01-21": "strangford",
    "1902-01-29": "kingstown",
    "1902-03-01": "exeter",
    "1902-04-03": "glasgow",
    "1902-06-20": "maryport",
    "1902-06-30": "swansea",
    "1902-08-04": "portrush",
    "1902-09-11": "maryport",
    "1902-10-11": "portrush",
    "1902-10-25": "workington",
    "1902-11-05": "portrush",
    "1902-12-05": "maryport",
    "1902-12-20": "portrush",
    "1902-12-31": "gariston",
    "1903-03-05": "runcorn",
    "1903-03-22": "briton ferry",
    "1903-05-19": "portrush",
    "1903-06-05": "liverpool",
    "1903-06-16": "portrush",
    "1903-12-03": "maryport",
    "1903-12-08": "portrush",
    "1907-03-20": "londonderry",
    "1907-04-01": "maryport",
    "1907-06-04": "portrush",
    "1907-06-24": "maryport",
    "1907-07-01": "killybegs",
    "1907-10-10": "portrush",
    "1908-01-11": "maryport",
    "1908-04-23": "portrush",
    "1908-06-30": "maryport",
    "1909-03-29": "portrush",
    "1909-05-15": "workington",
    "1909-06-03": "troon",
    "1909-06-30": "maryport",
    "1909-08-30": "portrush",
    "1909-10-13": "dublin",
    "1909-12-07": "londonderry",
    "1909-12-31": "troon",
    "1910-01-29": "runcorn",
    "1910-06-30": "swansea",
    "1910-12-31": "preston",
    "1911-02-16": "londonderry",
    "1911-03-11": "cork",
    "1911-04-21": "glasgow",
    "1911-05-26": "teignmouth",
    "1911-08-14": "glasgow",
    "1911-08-24": "briton ferry",
    "1911-10-12": "swansea",
    "1911-10-14": "dublin",
    "1912-02-02": "ardrossan",
    "1912-04-14": "glasgow",
    "1912-06-10": "teignmouth",
    "1912-06-30": "glasgow",
    "1912-09-24": "wicklow",
    "1912-11-28": "new ross",
    "1912-12-30": "waterford",
    "1913-02-27": "poole",
    "1913-04-15": "glasgow",
    "1913-06-30": "teignmouth",
    "1913-07-01": "smalls rocks"
}