{
    "-01-01": "swansea",
    "1879-07-28": "briton ferry",
    "1879-07-29": "swansea",
    "1879-12-12": "briton ferry",
    "1880-02-13": "swansea",
    "1880-07-05": "briton ferry",
    "1880-08-06": "swansea",
    "1881-08-23": "silloth",
    "1881-09-23": "swansea",
    "1882-02-08": "liverpool",
    "1882-03-22": "dakar",
    "1882-04-13": "falmouth",
    "1882-05-09": "sunderland",
    "1882-07-13": "falmouth",
    "1882-09-04": "llanelli",
    "1882-10-16": "swansea",
    "1883-05-30": "liverpool",
    "1883-11-1": "goole",
    "1884-09-01": "havre, france",
    "1884-09-23": "goole",
    "1884-09-24": "havre",
    "1884-10-04": "swansea",
    "1886-07-08": "bridgewater",
    "1886-08-06": "swansea",
    "1886-12-02": "bridgewater",
    "1886-12-30": "swansea",
    "1887-03-12": "desterro",
    "1887-05-24": "port hill",
    "1887-07-02": "swansea",
    "1888-02-08": "liverpool",
    "1888-06-29": "swansea",
    "1888-10-27": "desterro",
    "1889-01-04": "garliestown",
    "1889-01-16": "garlieston",
    "1889-03-01": "london",
    "1889-05-02": "macau",
    "1889-05-04": "swansea",
    "1889-11-07": "ceara",
    "1890-06-16": "hamburg, germany",
    "1890-08-07": "antwerp",
    "1890-08-13": "hamburg",
    "1890-12-27": "monte video",
    "1891-01-01": "hamburg, germany",
    "1891-03-21": "paranagua",
    "1891-08-21": "antwerp",
    "1891-09-08": "swansea",
    "1892-08-23": "bridgewater",
    "1892-10-12": "swansea",
    "1893-10-16": "havre, france",
    "1893-11-02": "swansea",
    "1894-03-005": "sheerness",
    "1894-04-06": "sunderland",
    "1894-04-17": "whitstable",
    "1894-06-03": "lixham",
    "1894-07-06": "sunderland",
    "1894-09-19": "whitstabe",
    "1894-09-20": "grays",
    "1894-09-29": "pool",
    "1894-11-21": "gillingham",
    "1894-12-31": "ramsgate"
}