{
    "-01-01": "newcastle",
    "10-09-": "blyth",
    "1885-07-20": "swansea",
    "1885-10-03": "blyth",
    "1885-11-27": "glasgow",
    "1886-02-14": "newcastle",
    "1886-04-20": "swansea",
    "1886-04-22": "bilbao",
    "1886-04-24": "swansea",
    "1886-07-07": "grangemouth",
    "1886-07-13": "boness",
    "1886-08-22": "malaga",
    "1886-09-10": "london",
    "1886-10-06": "north shields",
    "1886-10-16": "norrkoping",
    "1886-11-06": "rouen",
    "1887-02-04": "newport",
    "1887-03-02": "swansea",
    "1887-04-13": "bilbao",
    "1887-06-07": "sundsvall",
    "1887-06-20": "santander",
    "1887-08-15": "blyth",
    "1887-08-16": "newport",
    "1887-08-17": "blyth",
    "1887-12-03": "south shields",
    "1887-12-16": "newport",
    "1888-08-03": "south shields",
    "1888-08-14": "norrkoping",
    "1888-09-08": "blyth",
    "1888-10-08": "grimsby",
    "1888-10-15": "london",
    "1889-01-10": "shields",
    "1889-01-29": "georgetown, demerara",
    "1889-02-23": "london",
    "1889-03-16": "gravesend",
    "1889-03-20": "newport, mons",
    "1889-07-14": "south shields",
    "1889-07-27": "london",
    "1889-10-01": "south shields",
    "1889-12-20": "huelva",
    "1890-01-07": "ipswich",
    "1890-01-22": "newport, mons",
    "1890-02-19": "newcastle",
    "1890-02-25": "south shields",
    "1890-02-28": "swansea",
    "1890-04-24": "newcastle",
    "1890-05-26": "sundsvall, sweden",
    "1890-06-09": "grimsby",
    "1890-06-20": "norrkoping",
    "1890-07-23": "blyth",
    "1890-10-21": "newport",
    "1890-12-02": "middlesbrough",
    "1890-12-03": "newcastle",
    "1891-01-07": "howden $$$",
    "1891-01-29": "porthcawl",
    "1891-01-31": "barry",
    "1891-02-10": "cardiff",
    "1891-03-27": "porthcawl",
    "1891-04-03": "newport",
    "1891-06-02": "cardiff",
    "1891-08-29": "middlesbrough",
    "1891-10-12": "cherbourg",
    "1891-11-05": "middlesbrough"
}