{
    "1863-01-01": "newport",
    "1863-06-30": "dublin",
    "1867-03-01": "aberdovey",
    "1867-06-30": "glasgow",
    "1867-11-30": "aberdovey",
    "1870--01": "bangor",
    "1871-09-10": "mumbles",
    "1871-09-12": "milford",
    "1876--12": "llanelly",
    "1877-03-12": "pwllheli"
}