{
    "1867-01-01": "swansea",
    "1867-04-03": "briton ferry",
    "1867-04-29": "liverpool",
    "1876-01-01": "portmadoc",
    "1876-01-04": "porthmadog",
    "1878-11-02": "llanelly",
    "1878-12-04": "burry port",
    "1879-01-01": "tralee",
    "1879-01-16": "swansea",
    "1879-07-25": "bristol",
    "1879-09-10": "swansea",
    "1880-04-05": "newquay",
    "1880-05-27": "swansea",
    "1880-06-30": "garston",
    "1880-09-03": "aberdovey",
    "1880-11-08": "swansea",
    "1880-11-30": "queenstown",
    "1880-12-28": "swansea",
    "1881-07-05": "limerick",
    "1881-11-29": "queenstown",
    "1882-01-31": "cardiff",
    "1882-06-24": "newquay",
    "1882-08-15": "aberdovey",
    "1882-10-31": "swansea",
    "1884-01-10": "briton ferry",
    "1884-02-07": "at sea west coast of ireland"
}