{
    "1878-01-14": "portmadoc",
    "1878-01-24": "porthmadog",
    "1878-01-30": "portmadoc",
    "1878-06-16": "ardrossan",
    "1878-06-27": "mumbles",
    "1878-06-28": "saundersfoot",
    "1878-06-30": "cowes",
    "1878-07-08": "yarmouth",
    "1878-08-20": "briton ferry",
    "1878-08-21": "runcorn",
    "1878-10-15": "briton ferry",
    "1878-11-29": "cardiff",
    "1879-01-01": "tralee",
    "1879-03-29": "waterford",
    "1879-05-21": "gloucester",
    "1879-07-15": "glasgow",
    "1879-09-06": "antwerp",
    "1879-11-11": "penarth",
    "1887-05-21": "castletown",
    "1887-06-24": "tralee",
    "1888-03-21": "bristol",
    "1888-12-31": "liverpool",
    "1889-02-20": "skull, county cork",
    "1889-05-27": "kinsale",
    "1889-07-16": "fleetwood",
    "1889-10-20": "sligo",
    "1889-11-23": "donegal"
}