{
    "1884-03-02": "aberystwyth",
    "1884-03-24": "swansea",
    "1884-0510-01": "milford",
    "1884-06-30": "newport",
    "1884-11-12": "aberaeron",
    "1886-02-09": "aberystwyth",
    "1886-03-18": "milford"
}