{
    "-01-01": "remains",
    "1866-01-01": "sea",
    "1866-06-30": "liverpool",
    "1867-07-01": "portmadoc",
    "1871-01-02": "gloucester",
    "1871-03-20": "poole",
    "1871-06-30": "runcorn",
    "1871-12-21": "porthmadog",
    "1872-07-12": "portmadoc",
    "1879-06-03": "porthmadog",
    "1881-02-15": "swansea",
    "1881-04-02": "penarth",
    "1881-04-30": "aberystwyth",
    "1884-01-15": "portmadoc",
    "1884-06-30": "porthmadog",
    "1886-07-07": "southampton",
    "1886-12-30": "porthmadog",
    "1889-07-01": "portmadoc",
    "1890-01-02": "gloucestershire"
}