{
    "1862-01-01": "aberystwyth",
    "1864-01-22": "swansea",
    "1864-07-01": "aberystwyth",
    "1864-09-18": "barmouth",
    "1864-09-22": "porthmadog",
    "1864-12-21": "barmouth",
    "1867-01-01": "aberystwyth",
    "1867-06-30": "poole",
    "1867-12-31": "belfast",
    "1868-09-30": "porthmadog",
    "1868-12-02": "aberystwyth",
    "1869-07-10": "porthmadog",
    "1869-12-13": "aberystwyth",
    "1870-05-20": "aberdovey",
    "1870-06-20": "aberystwyth"
}