{
    "-01-01": "failed to join",
    "1879-08-08": "buenos aires",
    "18797-11-30": "stettin",
    "1896-10-17": "newport",
    "1896-12-18": "buenos aires",
    "1897-01-30": "dunkirk",
    "1897-02-01": "plymouth",
    "1897-02-15": "barry",
    "1897-04-21": "buenos aires",
    "1897-06-03": "london",
    "1897-06-08": "cardiff",
    "1897-06-15": "barry roads",
    "1897-07-26": "cardiff",
    "1897-08-01": "buenos aires",
    "1897-09-15": "cardiff",
    "1897-10-03": "stettin, poland",
    "1897-10-06": "galveston",
    "1897-10-09": "cardiff",
    "1897-11-20": "bremerhaven",
    "1897-11-26": "buenos aires",
    "1897-11-27": "stettin",
    "1897-11-29": "cardiff",
    "1897-11-30": "stettin",
    "18978-08-01": "buenos aires",
    "1898-01-08": "cardiff",
    "1898-04-05": "south shields",
    "1898-04-13": "methil",
    "1898-06-23": "rotterdam",
    "1898-08-06": "manchester",
    "1898-08-16": "liverpool",
    "1898-10-02": "fleetwood",
    "1898-11-29": "rotterdam",
    "1898-12-08": "barry",
    "1899-02-14": "bremen",
    "1899-02-20": "cardiff",
    "1899-05-12": "buenos aires",
    "1899-06-14": "london",
    "1899-06-27": "barry",
    "1899-08-21": "port tampa",
    "1899-08-27": "norfolk, virginia",
    "1899-10-03": "barry",
    "1899-10-27": "algiers",
    "1899-11-24": "beaufort, south carolina, united states",
    "1899-12-02": "norfolk",
    "1899-12-19": "dublin",
    "1900-01-09": "barry",
    "1900-03-23": "london",
    "1900-04-01": "west hartlepool",
    "1900-05-04": "barry",
    "1900-05-20": "barry dock",
    "1900-05-23": "genoa, italy",
    "1900-07-29": "newport",
    "1900-10-09": "hamburg, germany",
    "1900-10-13": "barry",
    "1900-12-27": "london",
    "1900-12-29": "barry",
    "1901-04-12": "marseilles, france"
}