{
    "10-31-68": "runcorn",
    "1862-12-15": "newport",
    "1863-06-24": "cardiff",
    "1864-01-01": "barrow",
    "1864-03-24": "liverpool",
    "1864-07-01": "par",
    "1864-07-26": "liverpool",
    "1864-12-28": "cardiff",
    "1867-01-01": "barrow",
    "1867-02-20": "aberaeron",
    "1867-07-01": "aberayron",
    "1867-12-31": "aberaeron",
    "1868-03-10": "aberayron",
    "1868-05-09": "liverpool",
    "1868-06-30": "lowestoft",
    "1868-07-30": "swansea",
    "1868-09-16": "par",
    "1868-10-23": "runcorn",
    "1869-01-01": "swansea",
    "1869-04-26": "llanelli",
    "1869-04-27": "llanelly",
    "1869-06-24": "aberaeron",
    "1869-06-25": "aberayron",
    "1869-06-30": "aberaeron",
    "1869-09-14": "aberayron",
    "1869-12-31": "poole",
    "1870-05-30": "swansea",
    "1872-01-01": "milford",
    "1872-06-30": "runcorn",
    "1872-07-01": "liverpool",
    "1872-10-23": "swansea",
    "1873-01-01": "glasgow",
    "1873-01-07": "bowling",
    "1873-01-30": "belfast",
    "1873-07-01": "liverpool",
    "1905-01-22": "aberayron",
    "1972-06-30": "runcorn"
}