{
    "1864-07-01": "liverpool",
    "1864-12-01": "newport",
    "1864-12-31": "liverpool",
    "1866-02-08": "port talbot",
    "1866-04-19": "drogheda",
    "1866-05-16": "llanelli",
    "1866-06-30": "liverpool",
    "1866-11-10": "outside lundy island",
    "1866-11-13": "mumbles",
    "1866-12-25": "porthmadog",
    "1868-03-28": "bangor",
    "1868-06-29": "aberdovey",
    "1868-12-22": "bangor",
    "1869-01-12": "belfast",
    "1869-05-08": "porthmadog",
    "1869-07-01": "bangor",
    "1869-08-28": "ipswich",
    "1869-09-27": "hayle",
    "1870-03-20": "portmadoc",
    "1870-06-05": "liverpool",
    "1870-06-22": "milford",
    "1870-08-02": "swansea",
    "1870-10-20": "milford",
    "1871-01-01": "bristol",
    "1871-02-26": "swansea",
    "1871-05-15": "runcorn",
    "1871-06-02": "joined as mate",
    "1871-07-07": "antwerp",
    "1871-07-17": "rotterdam",
    "1871-07-20": "newhaven",
    "1871-09-09": "garston",
    "1871-09-27": "plymouth",
    "1871-11-09": "newport",
    "1871-12-31": "bristol",
    "1872-01-15": "bangor",
    "1872-05-25": "workington",
    "1872-05-29": "maryport",
    "1872-08-23": "newcastle",
    "1872-12-14": "bangor",
    "1873-06-23": "maryport",
    "1873-09-20": "london",
    "1873-12-03": "penzance"
}